$modelname "player/mp/gordon/gordon.mdl"

$BodyGroup "suit"
{
	studio "hev_suit.smd"
}
$BodyGroup "headOrHelmet"
{
	studio "gordon.smd"
	studio "helmet.smd"
}
$BodyGroup "hair1"
{
	studio "fuse_hair.smd"
	blank
}
$BodyGroup "hair2"
{
	studio "zoey_hair.smd"
	blank
}
$BodyGroup "grownBeard"
{
	blank
	studio "fuse_beard.smd"
}

$surfaceprop "flesh"

$Contents "solid"

$CDMaterials "models\hev_gordon\"
$CDMaterials "models\v_hands\"
$CDMaterials "models\gordon\"
$CDMaterials "models\apache\"

$attachment "0" "Bip01 R Hand" 20 2 5 rotate 0 0 0
$attachment "1" "Bip01 R Hand" 15 1.5 3.75 rotate 0 0 0
$attachment "2" "Bip01 R Hand" 30 3 7.5 rotate 0 0 0
$attachment "head" "Bip01 Head" 0 0 0 rotate 0 0 0

$cbox 0 0 0 0 0 0

$bbox -9.204 -13.788 -0.149 15.403 15.364 73.711

$controller 0 "Bip01 Spine" XR -30 30
$controller 1 "Bip01 Spine1" XR -30 30
$controller 2 "Bip01 Spine2" XR -30 30
$controller 3 "Bip01 Spine3" XR -30 30

$bonemerge "Bip01"
$bonemerge "Bip01 Pelvis"
$bonemerge "Bip01 L Leg"
$bonemerge "Bip01 L Leg1"
$bonemerge "Bip01 L Foot"
$bonemerge "Bip01 R Leg"
$bonemerge "Bip01 R Leg1"
$bonemerge "Bip01 R Foot"
$bonemerge "Bip01 Spine"
$bonemerge "Bip01 Spine1"
$bonemerge "Bip01 Spine2"
$bonemerge "Bip01 Spine3"
$bonemerge "Bip01 Neck"
$bonemerge "Bip01 Head"
$bonemerge "Dummy08"
$bonemerge "Bone02"
$bonemerge "Dummy10"
$bonemerge "Bone13"
$bonemerge "Bip01 L Arm"
$bonemerge "Bip01 L Arm1"
$bonemerge "Bip01 L Arm2"
$bonemerge "Bip01 L Hand"
$bonemerge "Bip01 L Finger0"
$bonemerge "Bip01 L Finger01"
$bonemerge "Bip01 L Finger02"
$bonemerge "Bip01 L Finger1"
$bonemerge "Bip01 L Finger11"
$bonemerge "Bip01 L Finger12"
$bonemerge "Bip01 R Arm"
$bonemerge "Bip01 R Arm1"
$bonemerge "Bip01 R Arm2"
$bonemerge "Bip01 R Hand"
$bonemerge "Bip01 R Finger0"
$bonemerge "Bip01 R Finger01"
$bonemerge "Bip01 R Finger02"
$bonemerge "Bip01 R Finger1"
$bonemerge "Bip01 R Finger11"
$bonemerge "Bip01 R Finger12"

$poseparameter "XR" -50 45 0

$includemodel "gordon.mdl"

$collisionjoints "gordon_physics.smd"
{
	$mass 175
	$inertia 10
	$damping 0.01
	$rotdamping 1.5
	$rootbone "Bip01"


	$jointconstrain "Bip01 R Leg" x limit -15 15 0
	$jointconstrain "Bip01 R Leg" y limit -40 20 0
	$jointconstrain "Bip01 R Leg" z limit -37 40 0

	$jointconstrain "Bip01 R Leg1" x limit 0 0 0
	$jointconstrain "Bip01 R Leg1" y limit 0 0 0
	$jointconstrain "Bip01 R Leg1" z limit -95 4 0

	$jointconstrain "Bip01 L Leg" x limit -15 15 0
	$jointconstrain "Bip01 L Leg" y limit -20 40 0.04
	$jointconstrain "Bip01 L Leg" z limit -37 40 0.04

	$jointconstrain "Bip01 L Leg1" x limit 0 0 0
	$jointconstrain "Bip01 L Leg1" y limit 0 0 0
	$jointconstrain "Bip01 L Leg1" z limit -95 4 0.04

	$jointconstrain "Bip01 L Foot" x limit -10 10 0
	$jointconstrain "Bip01 L Foot" y limit -10 10 0
	$jointconstrain "Bip01 L Foot" z limit -15 35 0

	$jointconstrain "Bip01 Spine2" x limit -30 30 0
	$jointconstrain "Bip01 Spine2" y limit -25 25 0
	$jointconstrain "Bip01 Spine2" z limit -25 30 0

	$jointconstrain "Bip01 R Arm1" x limit -10 20 0
	$jointconstrain "Bip01 R Arm1" y limit -45 100 0
	$jointconstrain "Bip01 R Arm1" z limit -90 50 0

	$jointconstrain "Bip01 R Arm2" x limit -30 30 0
	$jointconstrain "Bip01 R Arm2" y limit 0 0 0
	$jointconstrain "Bip01 R Arm2" z limit -120 4 0

	$jointconstrain "Bip01 R Hand" x limit -60 60 0
	$jointconstrain "Bip01 R Hand" y limit -10 10 0
	$jointconstrain "Bip01 R Hand" z limit -50 40 0

	$jointconstrain "Bip01 L Arm1" x limit -10 20 0
	$jointconstrain "Bip01 L Arm1" y limit -100 45 0.04
	$jointconstrain "Bip01 L Arm1" z limit -90 50 0.04

	$jointconstrain "Bip01 L Arm2" x limit -30 30 0
	$jointconstrain "Bip01 L Arm2" y limit 0 0 0
	$jointconstrain "Bip01 L Arm2" z limit -120 4 0.04

	$jointconstrain "Bip01 L Hand" x limit -60 60 0.04
	$jointconstrain "Bip01 L Hand" y limit -10 10 0
	$jointconstrain "Bip01 L Hand" z limit -50 40 0

	$jointrotdamping "Bip01 Head" 5
	$jointconstrain "Bip01 Head" x limit -30 30 0
	$jointconstrain "Bip01 Head" y limit -25 25 0
	$jointconstrain "Bip01 Head" z limit -13 30 0

	$jointconstrain "Bip01 R Foot" x limit -10 10 0
	$jointconstrain "Bip01 R Foot" y limit -10 10 0
	$jointconstrain "Bip01 R Foot" z limit -15 35 0
}
