version 1
nodes
  0 "Bip01" -1
  1 "Bip01 Pelvis" 0
  2 "Bip01 L Leg" 1
  3 "Bip01 L Leg1" 2
  4 "Bip01 L Foot" 3
  5 "Bip01 L Toe0" 4
  6 "Bip01 L Toe1" 4
  7 "Bip01 L Toe2" 4
  8 "Bip01 R Leg" 1
  9 "Bip01 R Leg1" 8
  10 "Bip01 R Foot" 9
  11 "Bip01 R Toe0" 10
  12 "Bip01 R Toe1" 10
  13 "Bip01 R Toe2" 10
  14 "Bip01 Spine" 1
  15 "Bip01 Spine1" 14
  16 "Bip01 Spine2" 15
  17 "Bip01 Spine3" 16
  18 "Bip01 Spine4" 17
  19 "Bip01 Neck" 18
  20 "Bip01 Head" 19
  21 "Dummy03" 20
  22 "Bone07" 21
  23 "Bip01 L Arm" 19
  24 "Bip01 L Arm1" 23
  25 "Bip01 L Arm2" 24
  26 "Dummy08" 25
  27 "Bone36" 26
  28 "Dummy09" 25
  29 "Bone26" 28
  30 "Dummy15" 25
  31 "Bone23" 30
  32 "Bip01 R Arm" 19
  33 "Bip01 R Arm1" 32
  34 "Bip01 R Arm2" 33
  35 "Dummy14" 34
  36 "Bone20" 35
  37 "Dummy10" 34
  38 "Bone29" 37
  39 "Dummy07" 34
  40 "Bone32" 39
  41 "Bone33" 40
  42 "Dummy19" 15
  43 "Bone39" 42
  44 "Dummy05" 1
  45 "Bone15" 44
  46 "Bone16" 45
  47 "Bone17" 46
  48 "Dummy04" 1
  49 "Bone10" 48
  50 "Bone11" 49
  51 "Bone12" 50
  52 "Dummy02" 1
  53 "Bone01" 52
  54 "Bone02" 53
  55 "Bone03" 54
  56 "Bone04" 55
end
skeleton
  time 0
    0 -1.121254 3.154918 98.556877 0.000000 0.139556 -1.570845
    1 -0.277907 0.000000 1.978418 -1.570795 -1.570789 0.000000
    2 -0.000038 0.000045 30.106951 0.030470 0.038266 -2.741584
    3 45.067032 0.000000 0.000000 0.000000 0.000000 -0.771016
    4 37.019344 0.000000 0.000000 3.135095 -0.048475 0.232192
    5 25.403788 10.611764 -16.050877 -1.570796 1.570012 0.000000
    6 24.861448 34.869259 0.000001 0.000000 0.000000 1.570796
    7 25.574053 10.573102 16.050816 1.570796 -1.570103 0.000000
    8 0.000045 -0.000038 -30.106951 -0.021024 -0.063440 -2.743649
    9 45.067020 -0.000005 -0.000001 0.000000 0.000000 -0.765200
    10 37.019344 -0.000001 -0.000003 3.127169 0.065257 0.227897
    11 25.574053 10.573101 16.050814 1.570796 -1.570016 0.000000
    12 24.861448 34.869255 0.000001 0.000000 0.000000 1.570796
    13 25.574053 10.573101 -16.050877 -1.570796 1.570016 0.000000
    14 9.204885 -3.523623 0.000019 -0.000005 -0.000001 0.026963
    15 19.817598 -0.017402 0.000000 0.000000 -0.000001 0.174444
    16 22.201139 -0.015314 0.000000 -0.000001 -0.000002 0.523333
    17 22.202543 -0.014382 0.000000 -0.000001 -0.000002 0.619278
    18 22.196161 -0.009349 0.000000 0.000000 -0.000001 0.392500
    19 12.681315 -0.005775 0.000000 -0.000010 0.000000 0.000000
    20 7.255789 0.000004 0.000000 0.000035 -0.000003 0.077702
    21 -1.009223 27.484282 0.143182 -0.000003 -0.000002 2.758613
    22 0.137550 0.410963 0.978475 0.000000 0.000000 0.000000
    23 -43.911976 16.262846 42.072151 0.725522 -1.306202 2.432817
    24 6.875020 -0.000021 0.000004 -1.382769 -0.431216 -1.252266
    25 54.119427 0.000001 -0.000004 0.000000 0.000000 -0.548889
    26 45.547333 -0.415088 -0.052964 0.211792 0.051268 2.183250
    27 -0.831112 0.138134 -0.044356 0.000000 0.000000 0.000000
    28 47.660465 14.868883 -1.061265 0.211792 0.051268 2.183250
    29 0.077091 -0.197589 0.012483 0.000000 0.000000 0.000000
    30 44.673550 -14.145038 -0.096680 0.211792 0.051268 2.183250
    31 -0.348508 -0.151030 -0.015645 0.000000 0.000000 0.000000
    32 -44.498070 16.660601 -40.351204 -0.725740 1.306153 2.432606
    33 6.875021 0.000001 0.000001 1.373002 0.427893 -1.270977
    34 54.119427 0.000001 0.000006 0.000000 0.000000 -0.548889
    35 44.812374 -14.970488 -0.313824 -0.194593 -0.054333 2.182341
    36 0.460155 -0.261734 -0.526475 0.000000 0.000000 0.000000
    37 47.957424 14.396824 -1.450205 -0.194593 -0.054333 2.182341
    38 0.784854 -1.145551 -0.483907 0.000000 0.000000 0.000000
    39 45.723511 -1.580466 -1.381208 -0.194593 -0.054333 2.182341
    40 0.128249 -0.403483 0.086672 0.000000 0.000000 0.000000
    41 -0.003153 -0.000621 0.001026 0.000000 0.000000 0.000000
    42 -4.054374 54.100746 1.121917 -0.000001 0.000002 -1.911759
    43 0.510548 0.168268 0.000000 0.000000 0.000000 0.000000
    44 -20.652090 26.216942 13.546794 0.000002 -0.000002 -1.710352
    45 0.345593 0.328704 1.416188 0.000000 0.000000 0.000000
    46 -5.019464 -13.448384 0.000000 0.000000 0.000000 0.000000
    47 -17.300318 -5.720577 -1.641911 0.000000 0.000000 0.000000
    48 -20.692247 26.147146 -11.763864 0.000002 -0.000002 -1.710352
    49 0.079524 0.174933 -0.740336 0.000000 0.000000 0.000000
    50 -4.830051 -13.448384 0.000000 0.000000 0.000000 0.000000
    51 -17.110901 -5.436459 1.517336 0.000000 0.000000 0.000000
    52 102.135239 -0.202557 0.669154 0.000001 -0.000002 -1.710352
    53 -0.533877 -1.386979 0.452617 0.000000 0.000000 0.000000
    54 -4.916881 -2.709306 0.000000 0.000000 0.000000 0.000000
    55 -10.636515 -6.522400 0.000000 0.000000 0.000000 0.000000
    56 -10.636515 -6.923766 0.000000 0.000000 0.000000 0.000000
  time 1
    0 -2.539266 3.213931 97.463094 0.000000 0.169995 -1.570845
    1 -0.254469 0.882839 1.978418 -1.570795 -1.570789 0.000000
    2 -0.000038 0.000045 30.106951 0.024364 0.033244 -2.738406
    3 45.067032 0.000000 0.000000 0.000000 0.000000 -0.839836
    4 37.019344 0.000000 0.000000 3.139083 -0.041192 0.267051
    5 25.403788 10.611764 -16.050877 -1.570796 1.570012 0.000000
    6 24.861448 34.869259 0.000001 0.000000 0.000000 1.570796
    7 25.574053 10.573102 16.050816 1.570796 -1.570103 0.000000
    8 0.000045 -0.000038 -30.106951 -0.027499 -0.063503 -2.655027
    9 45.067020 -0.000005 -0.000001 0.000000 0.000000 -0.856555
    10 37.019344 -0.000001 -0.000003 3.126690 0.067579 0.230801
    11 25.574053 10.573101 16.050814 1.570796 -1.570094 0.000000
    12 24.861448 34.869255 0.000001 0.000000 0.000000 1.570796
    13 25.574053 10.573101 -16.050877 -1.570796 1.570016 0.000000
    14 9.204885 -3.523623 0.000019 -0.005482 0.000144 0.026963
    15 19.817598 -0.017402 0.000000 -0.026174 0.004625 0.174397
    16 22.201139 -0.015314 0.000000 -0.020339 0.011755 0.523225
    17 22.202543 -0.014382 0.000000 -0.013651 0.009741 0.619218
    18 22.196161 -0.009349 0.000000 0.000000 -0.000001 0.392500
    19 12.681315 -0.005775 0.000000 -0.000010 0.000000 0.000000
    20 7.255789 0.000004 0.000000 0.025827 -0.040876 0.075356
    21 -1.122508 26.777229 0.143182 -0.000003 -0.000002 2.758613
    22 0.137550 0.410963 0.978475 0.000000 0.000000 0.076890
    23 -43.911976 16.262846 42.072151 0.814229 -1.329854 2.341174
    24 6.875020 -0.000021 0.000004 -1.345622 -0.511603 -1.200103
    25 54.119427 0.000001 -0.000004 0.000000 0.000000 -0.517806
    26 45.547333 -0.415088 -0.052964 0.211792 0.051268 2.183250
    27 -0.831112 0.138134 -0.044356 0.000000 0.000000 0.000000
    28 47.660465 14.868883 -1.061265 0.211792 0.051268 2.183250
    29 0.077091 -0.197589 0.012483 0.000000 0.000000 0.134784
    30 44.673550 -14.145038 -0.096680 0.211792 0.051268 2.183250
    31 -0.348508 -0.151030 -0.015645 0.000000 0.000000 -0.230685
    32 -44.498070 16.660601 -40.351204 -0.725740 1.306153 2.432606
    33 6.875021 0.000001 0.000001 1.316411 0.458790 -1.256165
    34 54.119427 0.000001 0.000006 0.000000 0.000000 -0.633906
    35 44.812374 -14.970488 -0.313824 -0.194593 -0.054333 2.182341
    36 0.460155 -0.261734 -0.526475 0.000000 0.000000 -0.124279
    37 47.957424 14.396824 -1.450205 -0.194593 -0.054333 2.182341
    38 0.784854 -1.145551 -0.483907 0.000000 0.000000 0.144976
    39 45.723511 -1.580466 -1.381208 -0.194593 -0.054333 2.182341
    40 0.128249 -0.403483 0.086672 0.000000 0.000000 0.000000
    41 -0.003153 -0.000621 0.001026 0.000000 0.000000 0.000000
    42 -4.191097 52.975712 1.063321 -0.000001 0.000002 -1.911759
    43 0.510548 0.168268 0.000000 0.000000 0.000000 0.000000
    44 -20.652090 26.216942 13.546794 0.000002 -0.000002 -1.710352
    45 0.345593 0.328704 1.416188 0.000000 0.000000 -0.033142
    46 -5.019464 -13.448384 0.000000 0.000000 0.000000 -0.048039
    47 -17.300318 -5.720577 -1.641911 0.000000 0.000000 -0.090985
    48 -20.692247 26.147146 -11.763864 0.000002 -0.000002 -1.710352
    49 0.079524 0.174933 -0.740336 0.000000 0.000000 0.153357
    50 -4.830051 -13.448384 0.000000 0.000000 0.000000 -0.110055
    51 -17.110901 -5.436459 1.517336 0.000000 0.000000 0.142281
    52 102.135239 -0.202557 0.669154 0.000001 -0.000002 -1.710352
    53 -0.533877 -1.386979 0.452617 0.000000 0.000000 0.000000
    54 -4.916881 -2.709306 0.000000 0.000000 0.000000 0.000000
    55 -10.636515 -6.522400 0.000000 0.000000 0.000000 0.000000
    56 -10.636515 -6.923766 0.000000 0.000000 0.000000 0.000000
  time 2
    0 -6.176095 3.149553 95.959142 0.000000 0.224804 -1.570845
    1 -0.078682 2.449293 1.978418 -1.570795 -1.570789 0.000000
    2 -0.000038 0.000045 30.106951 0.009294 0.009599 -2.746515
    3 45.067032 0.000000 0.000000 0.000000 0.000000 -0.926608
    4 37.019344 0.000000 0.000000 3.139592 -0.013206 0.306796
    5 25.403788 10.611764 -16.050877 -1.570796 1.570012 0.000000
    6 24.861448 34.869259 0.000001 0.000000 0.000000 1.570796
    7 25.574053 10.573102 16.050816 1.570796 -1.570103 0.000000
    8 0.000045 -0.000038 -30.106951 -0.043051 -0.065379 -2.474911
    9 45.067020 -0.000005 -0.000001 0.000000 0.000000 -1.137819
    10 37.019344 -0.000001 -0.000003 3.114341 0.073295 0.199396
    11 25.574053 10.573101 16.050814 1.570796 -1.570016 0.000000
    12 24.861448 34.869255 0.000001 0.000000 0.000000 1.570796
    13 25.574053 10.573101 -16.050877 -1.570796 1.570094 0.000000
    14 9.204885 -3.523623 0.000019 -0.015070 0.000397 0.026963
    15 19.817598 -0.017402 0.000000 -0.072639 0.012846 0.173987
    16 22.201139 -0.015314 0.000000 -0.056844 0.032824 0.522410
    17 22.202543 -0.014382 0.000000 -0.038460 0.027443 0.618751
    18 22.196161 -0.009349 0.000000 0.000000 -0.000001 0.392500
    19 12.681315 -0.005775 0.000000 -0.000010 0.000000 0.000000
    20 7.255789 0.000004 0.000000 0.071797 -0.114952 0.071285
    21 -1.220167 26.214712 0.143182 -0.000003 -0.000002 2.758613
    22 0.137550 0.410963 0.978475 0.000000 0.000000 0.151854
    23 -43.911976 16.262846 42.072151 1.015515 -1.365150 2.134818
    24 6.875020 -0.000021 0.000004 -1.283552 -0.639885 -1.099421
    25 54.119427 0.000001 -0.000004 0.000000 0.000000 -0.461044
    26 45.547333 -0.415088 -0.052964 0.211792 0.051268 2.183250
    27 -0.831112 0.138134 -0.044356 0.000000 0.000000 0.000000
    28 47.660465 14.868883 -1.061265 0.211792 0.051268 2.183250
    29 0.077091 -0.197589 0.012483 0.000000 0.000000 0.269568
    30 44.673550 -14.145038 -0.096680 0.211792 0.051268 2.183250
    31 -0.348508 -0.151030 -0.015645 0.000000 0.000000 -0.461387
    32 -44.498070 16.660601 -40.351204 -0.725740 1.306153 2.432606
    33 6.875021 0.000001 0.000001 1.213441 0.526733 -1.242450
    34 54.119427 0.000001 0.000006 0.000000 0.000000 -0.782633
    35 44.812374 -14.970488 -0.313824 -0.194593 -0.054333 2.182341
    36 0.460155 -0.261734 -0.526475 0.000000 0.000000 -0.261652
    37 47.957424 14.396824 -1.450205 -0.194593 -0.054333 2.182341
    38 0.784854 -1.145551 -0.483907 0.000000 0.000000 0.305273
    39 45.723511 -1.580466 -1.381208 -0.194593 -0.054333 2.182341
    40 0.128249 -0.403483 0.086672 0.000000 0.000000 0.000000
    41 -0.003153 -0.000621 0.001026 0.000000 0.000000 0.000000
    42 -4.316101 52.042090 0.996913 -0.000001 0.000002 -1.911759
    43 0.510548 0.168268 0.000000 0.000000 0.000000 0.000000
    44 -20.652090 26.216942 13.546794 0.000002 -0.000002 -1.710352
    45 0.345593 0.328704 1.416188 0.000000 0.000000 -0.076260
    46 -5.019464 -13.448384 0.000000 0.000000 0.000000 -0.102011
    47 -17.300318 -5.720577 -1.641911 0.000000 0.000000 -0.200492
    48 -20.692247 26.147146 -11.763864 0.000002 -0.000002 -1.710352
    49 0.079524 0.174933 -0.740336 0.000000 0.000000 0.333831
    50 -4.830051 -13.448384 0.000000 0.000000 0.000000 -0.237139
    51 -17.110901 -5.436459 1.517336 0.000000 0.000000 0.308778
    52 102.135239 -0.202557 0.669154 0.000001 -0.000002 -1.710352
    53 -0.533877 -1.386979 0.452617 0.000000 0.000000 0.000000
    54 -4.916881 -2.709306 0.000000 0.000000 0.000000 0.000000
    55 -10.636515 -6.522400 0.000000 0.000000 0.000000 0.000000
    56 -10.636515 -6.923766 0.000000 0.000000 0.000000 0.000000
  time 3
    0 -11.078589 2.945690 94.287216 0.000000 0.276578 -1.570845
    1 0.229921 3.902463 1.978418 -1.570795 -1.570789 0.000000
    2 -0.000038 0.000045 30.106951 -0.012234 -0.033130 -2.748341
    3 45.067032 0.000000 0.000000 0.000000 0.000000 -1.009719
    4 37.019344 0.000000 0.000000 3.130683 0.033519 0.339898
    5 25.403788 10.611764 -16.050877 -1.570796 1.570012 0.000000
    6 24.861448 34.869259 0.000001 0.000000 0.000000 1.570796
    7 25.574053 10.573102 16.050816 1.570796 -1.570103 0.000000
    8 0.000045 -0.000038 -30.106951 -0.059818 -0.064449 -2.283004
    9 45.067020 -0.000005 -0.000001 0.000000 0.000000 -1.442002
    10 37.019344 -0.000001 -0.000003 3.097109 0.075796 0.162775
    11 25.574053 10.573101 16.050814 1.570796 -1.570016 0.000000
    12 24.861448 34.869255 0.000001 0.000000 0.000000 1.570796
    13 25.574053 10.573101 -16.050877 -1.570796 1.570094 0.000000
    14 9.204885 -3.523623 0.000019 -0.024082 0.000639 0.026963
    15 19.817598 -0.017402 0.000000 -0.116418 0.020553 0.173262
    16 22.201139 -0.015314 0.000000 -0.091348 0.052682 0.520936
    17 22.202543 -0.014382 0.000000 -0.061925 0.044161 0.617912
    18 22.196161 -0.009349 0.000000 0.000000 -0.000001 0.392500
    19 12.681315 -0.005775 0.000000 -0.000010 0.000000 0.000000
    20 7.255789 0.000004 0.000000 0.115434 -0.184950 0.067467
    21 -1.306107 25.796730 0.143182 -0.000003 -0.000002 2.758613
    22 0.137550 0.410963 0.978475 0.000000 0.000000 0.226817
    23 -43.911976 16.262846 42.072151 1.266124 -1.387864 1.879494
    24 6.875020 -0.000021 0.000004 -1.225397 -0.743990 -0.992575
    25 54.119427 0.000001 -0.000004 0.000000 0.000000 -0.407329
    26 45.547333 -0.415088 -0.052964 0.211792 0.051268 2.183250
    27 -0.831112 0.138134 -0.044356 0.000000 0.000000 0.000000
    28 47.660465 14.868883 -1.061265 0.211792 0.051268 2.183250
    29 0.077091 -0.197589 0.012483 0.000000 0.000000 0.340140
    30 44.673550 -14.145038 -0.096680 0.211792 0.051268 2.183250
    31 -0.348508 -0.151030 -0.015645 0.000000 0.000000 -0.584389
    32 -44.498070 16.660601 -40.351204 -0.725740 1.306153 2.432606
    33 6.875021 0.000001 0.000001 1.114575 0.600678 -1.244004
    34 54.119427 0.000001 0.000006 0.000000 0.000000 -0.922365
    35 44.812374 -14.970488 -0.313824 -0.194593 -0.054333 2.182341
    36 0.460155 -0.261734 -0.526475 0.000000 0.000000 -0.372859
    37 47.957424 14.396824 -1.450205 -0.194593 -0.054333 2.182341
    38 0.784854 -1.145551 -0.483907 0.000000 0.000000 0.434992
    39 45.723511 -1.580466 -1.381208 -0.194593 -0.054333 2.182341
    40 0.128249 -0.403483 0.086672 0.000000 0.000000 0.000000
    41 -0.003153 -0.000621 0.001026 0.000000 0.000000 0.000000
    42 -4.429386 51.295973 0.930505 -0.000001 0.000002 -1.911759
    43 0.510548 0.168268 0.000000 0.000000 0.000000 0.000000
    44 -20.652090 26.216942 13.546794 0.000002 -0.000002 -1.710352
    45 0.345593 0.328704 1.416188 0.000000 0.000000 -0.125530
    46 -5.019464 -13.448384 0.000000 0.000000 0.000000 -0.159597
    47 -17.300318 -5.720577 -1.641911 0.000000 0.000000 -0.310038
    48 -20.692247 26.147146 -11.763864 0.000002 -0.000002 -1.710352
    49 0.079524 0.174933 -0.740336 0.000000 0.000000 0.514304
    50 -4.830051 -13.448384 0.000000 0.000000 0.000000 -0.364223
    51 -17.110901 -5.436459 1.517336 0.000000 0.000000 0.475275
    52 102.135239 -0.202557 0.669154 0.000001 -0.000002 -1.710352
    53 -0.533877 -1.386979 0.452617 0.000000 0.000000 0.000000
    54 -4.916881 -2.709306 0.000000 0.000000 0.000000 0.000000
    55 -10.636515 -6.522400 0.000000 0.000000 0.000000 0.000000
    56 -10.636515 -6.923766 0.000000 0.000000 0.000000 0.000000
  time 4
    0 -16.297498 3.090540 92.634821 0.000000 0.316276 -1.570845
    1 0.573681 5.007965 1.978418 -1.570795 -1.570789 0.000000
    2 -0.000038 0.000045 30.106951 -0.037645 -0.086770 -2.746770
    3 45.067032 0.000000 0.000000 0.000000 0.000000 -1.079923
    4 37.019344 0.000000 0.000000 3.113544 0.090310 0.369213
    5 25.403788 10.611764 -16.050877 -1.570796 1.570012 0.000000
    6 24.861448 34.869259 0.000001 0.000000 0.000000 1.570796
    7 25.574053 10.573102 16.050816 1.570796 -1.570103 0.000000
    8 0.000045 -0.000038 -30.106951 -0.075052 -0.060240 -2.099902
    9 45.067020 -0.000005 -0.000001 0.000000 0.000000 -1.716836
    10 37.019344 -0.000001 -0.000003 3.079876 0.073742 0.125670
    11 25.574053 10.573101 16.050814 1.570796 -1.570016 0.000000
    12 24.861448 34.869255 0.000001 0.000000 0.000000 1.570796
    13 25.574053 10.573101 -16.050877 -1.570796 1.570094 0.000000
    14 9.204885 -3.523623 0.000019 -0.031381 0.000844 0.026963
    15 19.817598 -0.017402 0.000000 -0.150910 0.026605 0.172442
    16 22.201139 -0.015314 0.000000 -0.118025 0.067963 0.519318
    17 22.202543 -0.014382 0.000000 -0.079675 0.056769 0.617025
    18 22.196161 -0.009349 0.000000 0.000000 -0.000001 0.392500
    19 12.681315 -0.005775 0.000000 -0.000010 0.000000 0.000000
    20 7.255789 0.000004 0.000000 0.150376 -0.237762 0.064614
    21 -1.372515 25.523284 0.143182 -0.000003 -0.000002 2.758613
    22 0.137550 0.410963 0.978475 0.000000 0.000000 0.303707
    23 -43.911976 16.262846 42.072151 1.504751 -1.396000 1.637027
    24 6.875020 -0.000021 0.000004 -1.174118 -0.815238 -0.895937
    25 54.119427 0.000001 -0.000004 0.000000 0.000000 -0.367145
    26 45.547333 -0.415088 -0.052964 0.211792 0.051268 2.183250
    27 -0.831112 0.138134 -0.044356 0.000000 0.000000 0.000000
    28 47.660465 14.868883 -1.061265 0.211792 0.051268 2.183250
    29 0.077091 -0.197589 0.012483 0.000000 0.000000 0.299339
    30 44.673550 -14.145038 -0.096680 0.211792 0.051268 2.183250
    31 -0.348508 -0.151030 -0.015645 0.000000 0.000000 -0.520739
    32 -44.498070 16.660601 -40.351204 -0.725740 1.306153 2.432606
    33 6.875021 0.000001 0.000001 1.038898 0.660209 -1.249764
    34 54.119427 0.000001 0.000006 0.000000 0.000000 -1.035444
    35 44.812374 -14.970488 -0.313824 -0.194593 -0.054333 2.182341
    36 0.460155 -0.261734 -0.526475 0.000000 0.000000 -0.418666
    37 47.957424 14.396824 -1.450205 -0.194593 -0.054333 2.182341
    38 0.784854 -1.145551 -0.483907 0.000000 0.000000 0.488424
    39 45.723511 -1.580466 -1.381208 -0.194593 -0.054333 2.182341
    40 0.128249 -0.403483 0.086672 0.000000 0.000000 0.000000
    41 -0.003153 -0.000621 0.001026 0.000000 0.000000 0.000000
    42 -4.523139 50.737362 0.864097 -0.000001 0.000002 -1.911759
    43 0.510548 0.168268 0.000000 0.000000 0.000000 0.000000
    44 -20.652090 26.216942 13.546794 0.000002 -0.000002 -1.710352
    45 0.345593 0.328704 1.416188 0.000000 0.000000 -0.177317
    46 -5.019464 -13.448384 0.000000 0.000000 0.000000 -0.218704
    47 -17.300318 -5.720577 -1.641911 0.000000 0.000000 -0.401023
    48 -20.692247 26.147146 -11.763864 0.000002 -0.000002 -1.710352
    49 0.079524 0.174933 -0.740336 0.000000 0.000000 0.667709
    50 -4.830051 -13.448384 0.000000 0.000000 0.000000 -0.474318
    51 -17.110901 -5.436459 1.517336 0.000000 0.000000 0.617555
    52 102.135239 -0.202557 0.669154 0.000001 -0.000002 -1.710352
    53 -0.533877 -1.386979 0.452617 0.000000 0.000000 0.000000
    54 -4.916881 -2.709306 0.000000 0.000000 0.000000 0.000000
    55 -10.636515 -6.522400 0.000000 0.000000 0.000000 0.000000
    56 -10.636515 -6.923766 0.000000 0.000000 0.000000 0.000000
  time 5
    0 -20.688257 4.372736 91.251967 0.000000 0.305252 -1.570845
    1 0.565869 5.011872 1.978418 -1.570795 -1.570789 0.000000
    2 -0.000038 0.000045 30.106951 -0.069444 -0.143902 -2.724673
    3 45.067032 0.000000 0.000000 0.000000 0.000000 -1.129406
    4 37.019344 0.000000 0.000000 3.098610 0.153811 0.408903
    5 25.403788 10.611764 -16.050877 -1.570796 1.570012 0.000000
    6 24.861448 34.869259 0.000001 0.000000 0.000000 1.570796
    7 25.574053 10.573102 16.050816 1.570796 -1.570103 0.000000
    8 0.000045 -0.000038 -30.106951 -0.069531 -0.057433 -2.125185
    9 45.067020 -0.000005 -0.000001 0.000000 0.000000 -1.528194
    10 37.019344 -0.000001 -0.000003 3.095481 0.077403 0.110398
    11 25.574053 10.573101 16.050814 1.570796 -1.570016 0.000000
    12 24.861448 34.869255 0.000001 0.000000 0.000000 1.570796
    13 25.574053 10.573101 -16.050877 -1.570796 1.570016 0.000000
    14 9.204885 -3.523623 0.000019 -0.034880 0.000928 0.026963
    15 19.817598 -0.017402 0.000000 -0.154625 0.027252 0.172347
    16 22.201139 -0.015314 0.000000 -0.113423 0.065326 0.519630
    17 22.202543 -0.014382 0.000000 -0.071046 0.050633 0.617480
    18 22.196161 -0.009349 0.000000 0.000000 -0.000001 0.392500
    19 12.681315 -0.005775 0.000000 -0.000010 0.000000 0.000000
    20 7.255789 0.000004 0.000000 0.160092 -0.211908 0.067053
    21 -1.427204 25.394374 0.143182 -0.000003 -0.000002 2.758613
    22 0.137550 0.410963 0.978475 0.000000 0.000000 0.384451
    23 -43.911976 16.262846 42.072151 1.623646 -1.396136 1.516295
    24 6.875020 -0.000021 0.000004 -1.142701 -0.845491 -0.781138
    25 54.119427 0.000001 -0.000004 0.000000 0.000000 -0.391890
    26 45.547333 -0.415088 -0.052964 0.211792 0.051268 2.183250
    27 -0.831112 0.138134 -0.044356 0.000000 0.000000 0.000000
    28 47.660465 14.868883 -1.061265 0.211792 0.051268 2.183250
    29 0.077091 -0.197589 0.012483 0.000000 0.000000 0.194353
    30 44.673550 -14.145038 -0.096680 0.211792 0.051268 2.183250
    31 -0.348508 -0.151030 -0.015645 0.000000 0.000000 -0.349406
    32 -44.498070 16.660601 -40.351204 -0.725740 1.306153 2.432606
    33 6.875021 0.000001 0.000001 1.094344 0.612732 -1.160342
    34 54.119427 0.000001 0.000006 0.000000 0.000000 -1.089662
    35 44.812374 -14.970488 -0.313824 -0.194593 -0.054333 2.182341
    36 0.460155 -0.261734 -0.526475 0.000000 0.000000 -0.408914
    37 47.957424 14.396824 -1.450205 -0.194593 -0.054333 2.182341
    38 0.784854 -1.145551 -0.483907 0.000000 0.000000 0.477043
    39 45.723511 -1.580466 -1.381208 -0.194593 -0.054333 2.182341
    40 0.128249 -0.403483 0.086672 0.000000 0.000000 0.000000
    41 -0.003153 -0.000621 0.001026 0.000000 0.000000 0.000000
    42 -4.605172 50.374070 0.793782 -0.000001 0.000002 -1.911759
    43 0.510548 0.168268 0.000000 0.000000 0.000000 0.000000
    44 -20.652090 26.216942 13.546794 0.000002 -0.000002 -1.710352
    45 0.345593 0.328704 1.416188 0.000000 0.000000 -0.227893
    46 -5.019464 -13.448384 0.000000 0.000000 0.000000 -0.277051
    47 -17.300318 -5.720577 -1.641911 0.000000 0.000000 -0.455045
    48 -20.692247 26.147146 -11.763864 0.000002 -0.000002 -1.710352
    49 0.079524 0.174933 -0.740336 0.000000 0.000000 0.766929
    50 -4.830051 -13.448384 0.000000 0.000000 0.000000 -0.550437
    51 -17.110901 -5.436459 1.517336 0.000000 0.000000 0.711403
    52 102.135239 -0.202557 0.669154 0.000001 -0.000002 -1.710352
    53 -0.533877 -1.386979 0.452617 0.000000 0.000000 0.000000
    54 -4.916881 -2.709306 0.000000 0.000000 0.000000 0.000000
    55 -10.636515 -6.522400 0.000000 0.000000 0.000000 0.000000
    56 -10.636515 -6.923766 0.000000 0.000000 0.000000 0.000000
  time 6
    0 -22.680505 7.763311 90.689450 0.000000 0.259114 -1.570845
    1 0.546337 3.773553 1.978418 -1.570795 -1.570789 0.000000
    2 -0.000038 0.000045 30.106951 -0.095843 -0.185519 -2.712730
    3 45.067032 0.000000 0.000000 0.000000 0.000000 -1.154325
    4 37.019344 0.000000 0.000000 3.098016 0.203973 0.470771
    5 25.403788 10.611764 -16.050877 -1.570796 1.570012 0.000000
    6 24.861448 34.869259 0.000001 0.000000 0.000000 1.570796
    7 25.574053 10.573102 16.050816 1.570796 -1.570103 0.000000
    8 0.000045 -0.000038 -30.106951 -0.057014 -0.058395 -2.265922
    9 45.067020 -0.000005 -0.000001 0.000000 0.000000 -1.210921
    10 37.019344 -0.000001 -0.000003 3.107543 0.074099 0.006396
    11 25.574053 10.573101 16.050814 1.570796 -1.570094 0.000000
    12 24.861448 34.869255 0.000001 0.000000 0.000000 1.570796
    13 25.574053 10.573101 -16.050877 -1.570796 1.570094 0.000000
    14 9.204885 -3.523623 0.000019 -0.034880 0.000928 0.026963
    15 19.817598 -0.017402 0.000000 -0.140328 0.022638 0.158144
    16 22.201139 -0.015314 0.000000 -0.087860 0.027862 0.515723
    17 22.202543 -0.014382 0.000000 -0.045267 0.016129 0.619278
    18 22.196161 -0.009349 0.000000 0.000000 -0.000001 0.382205
    19 12.681315 -0.005775 0.000000 -0.000010 0.000000 0.000000
    20 7.255789 0.000004 0.000000 0.173963 -0.116014 0.101186
    21 -1.466268 25.409999 0.143182 -0.000003 -0.000002 2.758613
    22 0.137550 0.410963 0.978475 0.000000 0.000000 0.470974
    23 -43.911976 16.262846 42.072151 1.623646 -1.396136 1.516295
    24 6.875020 -0.000021 0.000004 -1.055993 -0.831507 -0.706571
    25 54.119427 0.000001 -0.000004 0.000000 0.000000 -0.458322
    26 45.547333 -0.415088 -0.052964 0.211792 0.051268 2.183250
    27 -0.831112 0.138134 -0.044356 0.000000 0.000000 0.000000
    28 47.660465 14.868883 -1.061265 0.211792 0.051268 2.183250
    29 0.077091 -0.197589 0.012483 0.000000 0.000000 0.102565
    30 44.673550 -14.145038 -0.096680 0.211792 0.051268 2.183250
    31 -0.348508 -0.151030 -0.015645 0.000000 0.000000 -0.199457
    32 -44.498070 16.660601 -40.351204 -0.725740 1.306153 2.432606
    33 6.875021 0.000001 0.000001 1.229378 0.430255 -1.052175
    34 54.119427 0.000001 0.000006 0.000000 0.000000 -1.089662
    35 44.812374 -14.970488 -0.313824 -0.194593 -0.054333 2.182341
    36 0.460155 -0.261734 -0.526475 0.000000 0.000000 -0.382176
    37 47.957424 14.396824 -1.450205 -0.194593 -0.054333 2.182341
    38 0.784854 -1.145551 -0.483907 0.000000 0.000000 0.445872
    39 45.723511 -1.580466 -1.381208 -0.194593 -0.054333 2.182341
    40 0.128249 -0.403483 0.086672 0.000000 0.000000 0.000000
    41 -0.003153 -0.000621 0.001026 0.000000 0.000000 0.000000
    42 -4.671581 50.198283 0.719561 -0.000001 0.000002 -1.911759
    43 0.510548 0.168268 0.000000 0.000000 0.000000 0.000000
    44 -20.652090 26.216942 13.546794 0.000002 -0.000002 -1.710352
    45 0.345593 0.328704 1.416188 0.000000 0.000000 -0.273481
    46 -5.019464 -13.448384 0.000000 0.000000 0.000000 -0.332468
    47 -17.300318 -5.720577 -1.641911 0.000000 0.000000 -0.453541
    48 -20.692247 26.147146 -11.763864 0.000002 -0.000002 -1.710352
    49 0.079524 0.174933 -0.740336 0.000000 0.000000 0.784991
    50 -4.830051 -13.448384 0.000000 0.000000 0.000000 -0.575633
    51 -17.110901 -5.436459 1.517336 0.000000 0.000000 0.732636
    52 102.135239 -0.202557 0.669154 0.000001 -0.000002 -1.710352
    53 -0.533877 -1.386979 0.452617 0.000000 0.000000 0.000000
    54 -4.916881 -2.709306 0.000000 0.000000 0.000000 0.000000
    55 -10.636515 -6.522400 0.000000 0.000000 0.000000 0.000000
    56 -10.636515 -6.923766 0.000000 0.000000 0.000000 0.000000
  time 7
    0 -23.102393 11.808396 91.056648 0.000000 0.211830 -1.570845
    1 0.647902 2.476638 1.978418 -1.570795 -1.570789 0.000000
    2 -0.000038 0.000045 30.106951 -0.106255 -0.208159 -2.727486
    3 45.067032 0.000000 0.000000 0.000000 0.000000 -1.144009
    4 37.019344 0.000000 0.000000 3.106247 0.230650 0.525063
    5 25.403788 10.611764 -16.050877 -1.570796 1.570012 0.000000
    6 24.861448 34.869259 0.000001 0.000000 0.000000 1.570796
    7 25.574053 10.573102 16.050816 1.570796 -1.570103 0.000000
    8 0.000045 -0.000038 -30.106951 -0.045827 -0.058222 -2.395359
    9 45.067020 -0.000005 -0.000001 0.000000 0.000000 -0.932328
    10 37.019344 -0.000001 -0.000003 3.115872 0.069455 -0.089002
    11 25.574053 10.573101 16.050814 1.570796 -1.570016 0.000000
    12 24.861448 34.869255 0.000001 0.000000 0.000000 1.570796
    13 25.574053 10.573101 -16.050877 -1.570796 1.570016 0.000000
    14 9.204885 -3.523623 0.000019 -0.034880 0.000928 0.026963
    15 19.817598 -0.017402 0.000000 -0.125239 0.018252 0.143247
    16 22.201139 -0.015314 0.000000 -0.061494 -0.010716 0.510018
    17 22.202543 -0.014382 0.000000 -0.019128 -0.019417 0.619769
    18 22.196161 -0.009349 0.000000 0.000000 -0.000001 0.371455
    19 12.681315 -0.005775 0.000000 -0.000010 0.000000 0.000000
    20 7.255789 0.000004 0.000000 0.192354 -0.017763 0.137803
    21 -1.489706 25.570161 0.143182 -0.000003 -0.000002 2.758613
    22 0.137550 0.410963 0.978475 0.000000 0.000000 0.609657
    23 -43.911976 16.262846 42.072151 1.623646 -1.396136 1.516295
    24 6.875020 -0.000021 0.000004 -0.976257 -0.829633 -0.627895
    25 54.119427 0.000001 -0.000004 0.000000 0.000000 -0.525648
    26 45.547333 -0.415088 -0.052964 0.211792 0.051268 2.183250
    27 -0.831112 0.138134 -0.044356 0.000000 0.000000 0.000000
    28 47.660465 14.868883 -1.061265 0.211792 0.051268 2.183250
    29 0.077091 -0.197589 0.012483 0.000000 0.000000 0.102565
    30 44.673550 -14.145038 -0.096680 0.211792 0.051268 2.183250
    31 -0.348508 -0.151030 -0.015645 0.000000 0.000000 -0.199457
    32 -44.498070 16.660601 -40.351204 -0.725740 1.306153 2.432606
    33 6.875021 0.000001 0.000001 1.335116 0.231542 -0.987988
    34 54.119427 0.000001 0.000006 0.000000 0.000000 -1.089662
    35 44.812374 -14.970488 -0.313824 -0.194593 -0.054333 2.182341
    36 0.460155 -0.261734 -0.526475 0.000000 0.000000 -0.342230
    37 47.957424 14.396824 -1.450205 -0.194593 -0.054333 2.182341
    38 0.784854 -1.145551 -0.483907 0.000000 0.000000 0.399256
    39 45.723511 -1.580466 -1.381208 -0.194593 -0.054333 2.182341
    40 0.128249 -0.403483 0.086672 0.000000 0.000000 0.000000
    41 -0.003153 -0.000621 0.001026 0.000000 0.000000 0.000000
    42 -4.722363 50.213909 0.645340 -0.000001 0.000002 -1.911759
    43 0.510548 0.168268 0.000000 0.000000 0.000000 0.000000
    44 -20.652090 26.216942 13.546794 0.000002 -0.000002 -1.710352
    45 0.345593 0.328704 1.416188 0.000000 0.000000 -0.310352
    46 -5.019464 -13.448384 0.000000 0.000000 0.000000 -0.382751
    47 -17.300318 -5.720577 -1.641911 0.000000 0.000000 -0.346765
    48 -20.692247 26.147146 -11.763864 0.000002 -0.000002 -1.710352
    49 0.079524 0.174933 -0.740336 0.000000 0.000000 0.653250
    50 -4.830051 -13.448384 0.000000 0.000000 0.000000 -0.559424
    51 -17.110901 -5.436459 1.517336 0.000000 0.000000 0.630857
    52 102.135239 -0.202557 0.669154 0.000001 -0.000002 -1.710352
    53 -0.533877 -1.386979 0.452617 0.000000 0.000000 0.000000
    54 -4.916881 -2.709306 0.000000 0.000000 0.000000 0.000000
    55 -10.636515 -6.522400 0.000000 0.000000 0.000000 0.000000
    56 -10.636515 -6.923766 0.000000 0.000000 0.000000 0.000000
  time 8
    0 -23.110206 15.713995 91.595727 0.000000 0.166744 -1.570845
    1 0.854940 1.234413 1.978418 -1.570795 -1.570789 0.000000
    2 -0.000038 0.000045 30.106951 -0.111231 -0.224370 -2.748195
    3 45.067032 0.000000 0.000000 0.000000 0.000000 -1.118687
    4 37.019344 0.000000 0.000000 3.117447 0.248816 0.568101
    5 25.403788 10.611764 -16.050877 -1.570796 1.570012 0.000000
    6 24.861448 34.869259 0.000001 0.000000 0.000000 1.570796
    7 25.574053 10.573102 16.050816 1.570796 -1.570103 0.000000
    8 0.000045 -0.000038 -30.106951 -0.034755 -0.057985 -2.529218
    9 45.067020 -0.000005 -0.000001 0.000000 0.000000 -0.646625
    10 37.019344 -0.000001 -0.000003 3.122478 0.064900 -0.181011
    11 25.574053 10.573101 16.050814 1.570796 -1.570016 0.000000
    12 24.861448 34.869255 0.000001 0.000000 0.000000 1.570796
    13 25.574053 10.573101 -16.050877 -1.570796 1.570016 0.000000
    14 9.204885 -3.523623 0.000019 -0.034880 0.000928 0.026963
    15 19.817598 -0.017402 0.000000 -0.110989 0.014524 0.128886
    16 22.201139 -0.015314 0.000000 -0.036099 -0.047341 0.503019
    17 22.202543 -0.014382 0.000000 0.005859 -0.053441 0.618978
    18 22.196161 -0.009349 0.000000 0.000000 -0.000001 0.361172
    19 12.681315 -0.005775 0.000000 -0.000010 0.000000 0.000000
    20 7.255789 0.000004 0.000000 0.213499 0.075114 0.174467
    21 -1.493613 25.874857 0.143182 -0.000003 -0.000002 2.758613
    22 0.137550 0.410963 0.978475 0.000000 0.000000 0.763787
    23 -43.911976 16.262846 42.072151 1.623646 -1.396136 1.516295
    24 6.875020 -0.000021 0.000004 -0.907598 -0.842704 -0.545905
    25 54.119427 0.000001 -0.000004 0.000000 0.000000 -0.589886
    26 45.547333 -0.415088 -0.052964 0.211792 0.051268 2.183250
    27 -0.831112 0.138134 -0.044356 0.000000 0.000000 0.000000
    28 47.660465 14.868883 -1.061265 0.211792 0.051268 2.183250
    29 0.077091 -0.197589 0.012483 0.000000 0.000000 0.102565
    30 44.673550 -14.145038 -0.096680 0.211792 0.051268 2.183250
    31 -0.348508 -0.151030 -0.015645 0.000000 0.000000 -0.199457
    32 -44.498070 16.660601 -40.351204 -0.725740 1.306153 2.432606
    33 6.875021 0.000001 0.000001 1.420145 0.034797 -0.956718
    34 54.119427 0.000001 0.000006 0.000000 0.000000 -1.089662
    35 44.812374 -14.970488 -0.313824 -0.194593 -0.054333 2.182341
    36 0.460155 -0.261734 -0.526475 0.000000 0.000000 -0.292830
    37 47.957424 14.396824 -1.450205 -0.194593 -0.054333 2.182341
    38 0.784854 -1.145551 -0.483907 0.000000 0.000000 0.341634
    39 45.723511 -1.580466 -1.381208 -0.194593 -0.054333 2.182341
    40 0.128249 -0.403483 0.086672 0.000000 0.000000 0.000000
    41 -0.003153 -0.000621 0.001026 0.000000 0.000000 0.000000
    42 -4.757521 50.417040 0.571119 -0.000001 0.000002 -1.911759
    43 0.510548 0.168268 0.000000 0.000000 0.000000 0.000000
    44 -20.652090 26.216942 13.546794 0.000002 -0.000002 -1.710352
    45 0.345593 0.328704 1.416188 0.000000 0.000000 -0.334824
    46 -5.019464 -13.448384 0.000000 0.000000 0.000000 -0.425655
    47 -17.300318 -5.720577 -1.641911 0.000000 0.000000 -0.142038
    48 -20.692247 26.147146 -11.763864 0.000002 -0.000002 -1.710352
    49 0.079524 0.174933 -0.740336 0.000000 0.000000 0.382422
    50 -4.830051 -13.448384 0.000000 0.000000 0.000000 -0.524832
    51 -17.110901 -5.436459 1.517336 0.000000 0.000000 0.415506
    52 102.135239 -0.202557 0.669154 0.000001 -0.000002 -1.710352
    53 -0.533877 -1.386979 0.452617 0.000000 0.000000 0.000000
    54 -4.916881 -2.709306 0.000000 0.000000 0.000000 0.000000
    55 -10.636515 -6.522400 0.000000 0.000000 0.000000 0.000000
    56 -10.636515 -6.923766 0.000000 0.000000 0.000000 0.000000
  time 9
    0 -23.082861 19.560582 92.064492 0.000000 0.124940 -1.570845
    1 1.151824 0.082034 1.978418 -1.570795 -1.570789 0.000000
    2 -0.000038 0.000045 30.106951 -0.113948 -0.238788 -2.772447
    3 45.067032 0.000000 0.000000 0.000000 0.000000 -1.086890
    4 37.019344 0.000000 0.000000 3.129919 0.263873 0.604937
    5 25.403788 10.611764 -16.050877 -1.570796 1.570012 0.000000
    6 24.861448 34.869259 0.000001 0.000000 0.000000 1.570796
    7 25.574053 10.573102 16.050816 1.570796 -1.570103 0.000000
    8 0.000045 -0.000038 -30.106951 -0.041259 -0.071669 -2.495659
    9 45.067020 -0.000005 -0.000001 0.000000 0.000000 -0.728060
    10 37.019344 -0.000001 -0.000003 3.117404 0.079011 -0.091206
    11 25.574053 10.573101 16.050814 1.570796 -1.570094 0.000000
    12 24.861448 34.869255 0.000001 0.000000 0.000000 1.570796
    13 25.574053 10.573101 -16.050877 -1.570796 1.570016 0.000000
    14 9.204885 -3.523623 0.000019 -0.034880 0.000928 0.026963
    15 19.817598 -0.017402 0.000000 -0.097974 0.011468 0.115408
    16 22.201139 -0.015314 0.000000 -0.012165 -0.081198 0.495121
    17 22.202543 -0.014382 0.000000 0.029265 -0.085165 0.617097
    18 22.196161 -0.009349 0.000000 0.000000 -0.000001 0.351573
    19 12.681315 -0.005775 0.000000 -0.000010 0.000000 0.000000
    20 7.255789 0.000004 0.000000 0.236629 0.160620 0.210670
    21 -1.485800 26.324090 0.143182 -0.000003 -0.000002 2.758613
    22 0.137550 0.410963 0.978475 0.000000 0.000000 0.810587
    23 -43.911976 16.262846 42.072151 1.623646 -1.396136 1.516295
    24 6.875020 -0.000021 0.000004 -0.851830 -0.867565 -0.463120
    25 54.119427 0.000001 -0.000004 0.000000 0.000000 -0.649939
    26 45.547333 -0.415088 -0.052964 0.211792 0.051268 2.183250
    27 -0.831112 0.138134 -0.044356 0.000000 0.000000 0.000000
    28 47.660465 14.868883 -1.061265 0.211792 0.051268 2.183250
    29 0.077091 -0.197589 0.012483 0.000000 0.000000 0.102565
    30 44.673550 -14.145038 -0.096680 0.211792 0.051268 2.183250
    31 -0.348508 -0.151030 -0.015645 0.000000 0.000000 -0.199457
    32 -44.498070 16.660601 -40.351204 -0.725740 1.306153 2.432606
    33 6.875021 0.000001 0.000001 1.494486 -0.152158 -0.949860
    34 54.119427 0.000001 0.000006 0.000000 0.000000 -1.089662
    35 44.812374 -14.970488 -0.313824 -0.194593 -0.054333 2.182341
    36 0.460155 -0.261734 -0.526475 0.000000 0.000000 -0.237799
    37 47.957424 14.396824 -1.450205 -0.194593 -0.054333 2.182341
    38 0.784854 -1.145551 -0.483907 0.000000 0.000000 0.277415
    39 45.723511 -1.580466 -1.381208 -0.194593 -0.054333 2.182341
    40 0.128249 -0.403483 0.086672 0.000000 0.000000 0.000000
    41 -0.003153 -0.000621 0.001026 0.000000 0.000000 0.000000
    42 -4.765333 50.971744 0.492992 -0.000001 0.000002 -1.911759
    43 0.510548 0.168268 0.000000 0.000000 0.000000 0.000000
    44 -20.652090 26.216942 13.546794 0.000002 -0.000002 -1.710352
    45 0.345593 0.328704 1.416188 0.000000 0.000000 -0.343168
    46 -5.019464 -13.448384 0.000000 0.000000 0.000000 -0.459050
    47 -17.300318 -5.720577 -1.641911 0.000000 0.000000 0.093597
    48 -20.692247 26.147146 -11.763864 0.000002 -0.000002 -1.710352
    49 0.079524 0.174933 -0.740336 0.000000 0.000000 0.064187
    50 -4.830051 -13.448384 0.000000 0.000000 0.000000 -0.475139
    51 -17.110901 -5.436459 1.517336 0.000000 0.000000 0.152353
    52 102.135239 -0.202557 0.669154 0.000001 -0.000002 -1.710352
    53 -0.533877 -1.386979 0.452617 0.000000 0.000000 0.000000
    54 -4.916881 -2.709306 0.000000 0.000000 0.000000 0.000000
    55 -10.636515 -6.522400 0.000000 0.000000 0.000000 0.000000
    56 -10.636515 -6.923766 0.000000 0.000000 0.000000 0.000000
  time 10
    0 -22.821135 23.385709 92.627009 0.000000 0.087782 -1.570845
    1 1.499491 -0.937529 1.978418 -1.570795 -1.570789 0.000000
    2 -0.000038 0.000045 30.106951 -0.111407 -0.248647 -2.804734
    3 45.067032 0.000000 0.000000 0.000000 0.000000 -1.044553
    4 37.019344 0.000000 0.000000 3.142137 0.271974 0.633977
    5 25.403788 10.611764 -16.050877 -1.570796 1.570012 0.000000
    6 24.861448 34.869259 0.000001 0.000000 0.000000 1.570796
    7 25.574053 10.573102 16.050816 1.570796 -1.570103 0.000000
    8 0.000045 -0.000038 -30.106951 -0.046029 -0.081239 -2.478879
    9 45.067020 -0.000005 -0.000001 0.000000 0.000000 -0.784404
    10 37.019344 -0.000001 -0.000003 3.115489 0.089550 -0.014254
    11 25.574053 10.573101 16.050814 1.570796 -1.570094 0.000000
    12 24.861448 34.869255 0.000001 0.000000 0.000000 1.570796
    13 25.574053 10.573101 -16.050877 -1.570796 1.570016 0.000000
    14 9.204885 -3.523623 0.000019 -0.034880 0.000928 0.026963
    15 19.817598 -0.017402 0.000000 -0.086409 0.009035 0.103176
    16 22.201139 -0.015314 0.000000 0.009719 -0.111519 0.486828
    17 22.202543 -0.014382 0.000000 0.050574 -0.113796 0.614436
    18 22.196161 -0.009349 0.000000 0.000000 -0.000001 0.342884
    19 12.681315 -0.005775 0.000000 -0.000010 0.000000 0.000000
    20 7.255789 0.000004 0.000000 0.260690 0.236821 0.245494
    21 -1.466268 26.917858 0.143182 -0.000003 -0.000002 2.758613
    22 0.137550 0.410963 0.978475 0.000000 0.000000 0.280062
    23 -43.911976 16.262846 42.072151 1.623646 -1.396136 1.516295
    24 6.875020 -0.000021 0.000004 -0.810769 -0.900058 -0.381925
    25 54.119427 0.000001 -0.000004 0.000000 0.000000 -0.704223
    26 45.547333 -0.415088 -0.052964 0.211792 0.051268 2.183250
    27 -0.831112 0.138134 -0.044356 0.000000 0.000000 0.000000
    28 47.660465 14.868883 -1.061265 0.211792 0.051268 2.183250
    29 0.077091 -0.197589 0.012483 0.000000 0.000000 0.102565
    30 44.673550 -14.145038 -0.096680 0.211792 0.051268 2.183250
    31 -0.348508 -0.151030 -0.015645 0.000000 0.000000 -0.199457
    32 -44.498070 16.660601 -40.351204 -0.725740 1.306153 2.432606
    33 6.875021 0.000001 0.000001 1.563387 -0.322139 -0.962295
    34 54.119427 0.000001 0.000006 0.000000 0.000000 -1.089662
    35 44.812374 -14.970488 -0.313824 -0.194593 -0.054333 2.182341
    36 0.460155 -0.261734 -0.526475 0.000000 0.000000 -0.180844
    37 47.957424 14.396824 -1.450205 -0.194593 -0.054333 2.182341
    38 0.784854 -1.145551 -0.483907 0.000000 0.000000 0.211008
    39 45.723511 -1.580466 -1.381208 -0.194593 -0.054333 2.182341
    40 0.128249 -0.403483 0.086672 0.000000 0.000000 0.000000
    41 -0.003153 -0.000621 0.001026 0.000000 0.000000 0.000000
    42 -4.741895 51.909273 0.414864 -0.000001 0.000002 -1.911759
    43 0.510548 0.168268 0.000000 0.000000 0.000000 0.000000
    44 -20.652090 26.216942 13.546794 0.000002 -0.000002 -1.710352
    45 0.345593 0.328704 1.416188 0.000000 0.000000 -0.331655
    46 -5.019464 -13.448384 0.000000 0.000000 0.000000 -0.480731
    47 -17.300318 -5.720577 -1.641911 0.000000 0.000000 0.293219
    48 -20.692247 26.147146 -11.763864 0.000002 -0.000002 -1.710352
    49 0.079524 0.174933 -0.740336 0.000000 0.000000 -0.209675
    50 -4.830051 -13.448384 0.000000 0.000000 0.000000 -0.413669
    51 -17.110901 -5.436459 1.517336 0.000000 0.000000 -0.092865
    52 102.135239 -0.202557 0.669154 0.000001 -0.000002 -1.710352
    53 -0.533877 -1.386979 0.452617 0.000000 0.000000 0.000000
    54 -4.916881 -2.709306 0.000000 0.000000 0.000000 0.000000
    55 -10.636515 -6.522400 0.000000 0.000000 0.000000 0.000000
    56 -10.636515 -6.923766 0.000000 0.000000 0.000000 0.000000
  time 11
    0 -22.071112 26.878216 93.142649 0.000000 0.057900 -1.570845
    1 1.854971 -1.812555 1.978418 -1.570795 -1.570789 0.000000
    2 -0.000038 0.000045 30.106951 -0.103925 -0.250564 -2.838300
    3 45.067032 0.000000 0.000000 0.000000 0.000000 -1.004315
    4 37.019344 0.000000 0.000000 3.151810 0.270665 0.657692
    5 25.403788 10.611764 -16.050877 -1.570796 1.570012 0.000000
    6 24.861448 34.869259 0.000001 0.000000 0.000000 1.570796
    7 25.574053 10.573102 16.050816 1.570796 -1.570103 0.000000
    8 0.000045 -0.000038 -30.106951 -0.047388 -0.083052 -2.472757
    9 45.067020 -0.000005 -0.000001 0.000000 0.000000 -0.825575
    10 37.019344 -0.000001 -0.000003 3.117308 0.092408 0.050815
    11 25.574053 10.573101 16.050814 1.570796 -1.570094 0.000000
    12 24.861448 34.869255 0.000001 0.000000 0.000000 1.570796
    13 25.574053 10.573101 -16.050877 -1.570796 1.570016 0.000000
    14 9.204885 -3.523623 0.000019 -0.034880 0.000928 0.026963
    15 19.817598 -0.017402 0.000000 -0.075287 0.007070 0.092803
    16 22.201139 -0.015314 0.000000 0.028450 -0.136866 0.478966
    17 22.202543 -0.014382 0.000000 0.068695 -0.137921 0.611476
    18 22.196161 -0.009349 0.000000 0.000000 -0.000001 0.335537
    19 12.681315 -0.005775 0.000000 -0.000010 0.000000 0.000000
    20 7.255789 0.000004 0.000000 0.284021 0.301720 0.277028
    21 -1.427204 27.652255 0.143182 -0.000003 -0.000002 2.758613
    22 0.137550 0.410963 0.978475 0.000000 0.000000 0.098574
    23 -43.911976 16.262846 42.072151 1.623646 -1.396136 1.516295
    24 6.875020 -0.000021 0.000004 -0.793962 -0.939406 -0.303713
    25 54.119427 0.000001 -0.000004 0.000000 0.000000 -0.750095
    26 45.547333 -0.415088 -0.052964 0.211792 0.051268 2.183250
    27 -0.831112 0.138134 -0.044356 0.000000 0.000000 0.000000
    28 47.660465 14.868883 -1.061265 0.211792 0.051268 2.183250
    29 0.077091 -0.197589 0.012483 0.000000 0.000000 0.102565
    30 44.673550 -14.145038 -0.096680 0.211792 0.051268 2.183250
    31 -0.348508 -0.151030 -0.015645 0.000000 0.000000 -0.199457
    32 -44.498070 16.660601 -40.351204 -0.725740 1.306153 2.432606
    33 6.875021 0.000001 0.000001 1.625322 -0.461617 -0.987805
    34 54.119427 0.000001 0.000006 0.000000 0.000000 -1.089662
    35 44.812374 -14.970488 -0.313824 -0.194593 -0.054333 2.182341
    36 0.460155 -0.261734 -0.526475 0.000000 0.000000 -0.125813
    37 47.957424 14.396824 -1.450205 -0.194593 -0.054333 2.182341
    38 0.784854 -1.145551 -0.483907 0.000000 0.000000 0.146790
    39 45.723511 -1.580466 -1.381208 -0.194593 -0.054333 2.182341
    40 0.128249 -0.403483 0.086672 0.000000 0.000000 0.000000
    41 -0.003153 -0.000621 0.001026 0.000000 0.000000 0.000000
    42 -4.702832 53.038214 0.336737 -0.000001 0.000002 -1.911759
    43 0.510548 0.168268 0.000000 0.000000 0.000000 0.000000
    44 -20.652090 26.216942 13.546794 0.000002 -0.000002 -1.710352
    45 0.345593 0.328704 1.416188 0.000000 0.000000 -0.296555
    46 -5.019464 -13.448384 0.000000 0.000000 0.000000 -0.488414
    47 -17.300318 -5.720577 -1.641911 0.000000 0.000000 0.389744
    48 -20.692247 26.147146 -11.763864 0.000002 -0.000002 -1.710352
    49 0.079524 0.174933 -0.740336 0.000000 0.000000 -0.347484
    50 -4.830051 -13.448384 0.000000 0.000000 0.000000 -0.343746
    51 -17.110901 -5.436459 1.517336 0.000000 0.000000 -0.254554
    52 102.135239 -0.202557 0.669154 0.000001 -0.000002 -1.710352
    53 -0.533877 -1.386979 0.452617 0.000000 0.000000 0.000000
    54 -4.916881 -2.709306 0.000000 0.000000 0.000000 0.000000
    55 -10.636515 -6.522400 0.000000 0.000000 0.000000 0.000000
    56 -10.636515 -6.923766 0.000000 0.000000 0.000000 0.000000
  time 12
    0 -20.688257 29.598187 93.462972 0.000000 0.043625 -1.570845
    1 2.144042 -2.640706 1.978418 -1.570795 -1.570789 0.000000
    2 -0.000038 0.000045 30.106951 -0.091749 -0.245371 -2.870040
    3 45.067032 0.000000 0.000000 0.000000 0.000000 -0.980512
    4 37.019344 0.000000 0.000000 3.154101 0.261336 0.678333
    5 25.403788 10.611764 -16.050877 -1.570796 1.570012 0.000000
    6 24.861448 34.869259 0.000001 0.000000 0.000000 1.570796
    7 25.574053 10.573102 16.050816 1.570796 -1.570103 0.000000
    8 0.000045 -0.000038 -30.106951 -0.044873 -0.076588 -2.476536
    9 45.067020 -0.000005 -0.000001 0.000000 0.000000 -0.858819
    10 37.019344 -0.000001 -0.000003 3.121616 0.086424 0.102116
    11 25.574053 10.573101 16.050814 1.570796 -1.570094 0.000000
    12 24.861448 34.869255 0.000001 0.000000 0.000000 1.570796
    13 25.574053 10.573101 -16.050877 -1.570796 1.570016 0.000000
    14 9.204885 -3.523623 0.000019 -0.034880 0.000928 0.026963
    15 19.817598 -0.017402 0.000000 -0.043432 0.003822 0.087144
    16 22.201139 -0.015314 0.000000 0.039009 -0.150888 0.474244
    17 22.202543 -0.014382 0.000000 0.078858 -0.151343 0.609547
    18 22.196161 -0.009349 0.000000 0.000000 -0.000001 0.331451
    19 12.681315 -0.005775 0.000000 -0.000010 0.000000 0.000000
    20 7.255789 0.000004 0.000000 0.305275 0.362307 0.300236
    21 -1.341264 28.859324 0.143182 -0.000003 -0.000002 2.758613
    22 0.137550 0.410963 0.978475 0.000000 0.000000 0.655861
    23 -43.911976 16.262846 42.072151 1.623646 -1.396136 1.516295
    24 6.875020 -0.000021 0.000004 -0.960596 -1.043420 -0.176519
    25 54.119427 0.000001 -0.000004 0.000000 0.000000 -0.775652
    26 45.547333 -0.415088 -0.052964 0.211792 0.051268 2.183250
    27 -0.831112 0.138134 -0.044356 0.000000 0.000000 0.000000
    28 47.660465 14.868883 -1.061265 0.211792 0.051268 2.183250
    29 0.077091 -0.197589 0.012483 0.000000 0.000000 0.102565
    30 44.673550 -14.145038 -0.096680 0.211792 0.051268 2.183250
    31 -0.348508 -0.151030 -0.015645 0.000000 0.000000 -0.199457
    32 -44.498070 16.660601 -40.351204 -0.725740 1.306153 2.432606
    33 6.875021 0.000001 0.000001 1.624654 -0.480017 -0.996034
    34 54.119427 0.000001 0.000006 0.000000 0.000000 -1.089662
    35 44.812374 -14.970488 -0.313824 -0.194593 -0.054333 2.182341
    36 0.460155 -0.261734 -0.526475 0.000000 0.000000 -0.076435
    37 47.957424 14.396824 -1.450205 -0.194593 -0.054333 2.182341
    38 0.784854 -1.145551 -0.483907 0.000000 0.000000 0.089168
    39 45.723511 -1.580466 -1.381208 -0.194593 -0.054333 2.182341
    40 0.128249 -0.403483 0.086672 0.000000 0.000000 0.000000
    41 -0.003153 -0.000621 0.001026 0.000000 0.000000 0.000000
    42 -4.663768 54.159342 0.254703 -0.000001 0.000002 -1.911759
    43 0.510548 0.168268 0.000000 0.000000 0.000000 0.000000
    44 -20.652090 26.216942 13.546794 0.000002 -0.000002 -1.710352
    45 0.345593 0.328704 1.416188 0.000000 0.000000 -0.199133
    46 -5.019464 -13.448384 0.000000 0.000000 0.000000 -0.484230
    47 -17.300318 -5.720577 -1.641911 0.000000 0.000000 0.406168
    48 -20.692247 26.147146 -11.763864 0.000002 -0.000002 -1.710352
    49 0.079524 0.174933 -0.740336 0.000000 0.000000 -0.378724
    50 -4.830051 -13.448384 0.000000 0.000000 0.000000 -0.268571
    51 -17.110901 -5.436459 1.517336 0.000000 0.000000 -0.339066
    52 102.135239 -0.202557 0.669154 0.000001 -0.000002 -1.710352
    53 -0.533877 -1.386979 0.452617 0.000000 0.000000 0.000000
    54 -4.916881 -2.709306 0.000000 0.000000 0.000000 0.000000
    55 -10.636515 -6.522400 0.000000 0.000000 0.000000 0.000000
    56 -10.636515 -6.923766 0.000000 0.000000 0.000000 0.000000
  time 13
    0 -19.035863 31.384677 93.818451 0.000000 0.043625 -1.570845
    1 2.370611 -2.468825 1.978418 -1.570795 -1.570789 0.000000
    2 -0.000038 0.000045 30.106951 -0.072726 -0.225003 -2.896191
    3 45.067032 0.000000 0.000000 0.000000 0.000000 -0.974974
    4 37.019344 0.000000 0.000000 3.147992 0.236132 0.694966
    5 25.403788 10.611764 -16.050877 -1.570796 1.570012 0.000000
    6 24.861448 34.869259 0.000001 0.000000 0.000000 1.570796
    7 25.574053 10.573102 16.050816 1.570796 -1.570103 0.000000
    8 0.000045 -0.000038 -30.106951 -0.039640 -0.052404 -2.491124
    9 45.067020 -0.000005 -0.000001 0.000000 0.000000 -0.875758
    10 37.019344 -0.000001 -0.000003 3.135306 0.065346 0.133629
    11 25.574053 10.573101 16.050814 1.570796 -1.570094 0.000000
    12 24.861448 34.869255 0.000001 0.000000 0.000000 1.570796
    13 25.574053 10.573101 -16.050877 -1.570796 1.570016 0.000000
    14 9.204885 -3.523623 0.000019 -0.034880 0.000928 0.026963
    15 19.817598 -0.017402 0.000000 0.032898 0.047614 0.088846
    16 22.201139 -0.015314 0.000000 0.039009 -0.150888 0.474244
    17 22.202543 -0.014382 0.000000 0.078858 -0.151343 0.609547
    18 22.196161 -0.009349 0.000000 0.000000 -0.000001 0.331451
    19 12.681315 -0.005775 0.000000 -0.000010 0.000000 0.000000
    20 7.255789 0.000004 0.000000 0.274433 0.443479 0.306791
    21 -1.239699 30.214834 0.143182 -0.000003 -0.000002 2.758613
    22 0.137550 0.410963 0.978475 0.000000 0.000000 0.518475
    23 -43.911976 16.262846 42.072151 1.936118 -1.383917 1.198782
    24 6.875020 -0.000021 0.000004 -1.659411 -1.119969 0.246887
    25 54.119427 0.000001 -0.000004 0.000000 0.000000 -0.775652
    26 45.547333 -0.415088 -0.052964 0.211792 0.051268 2.183250
    27 -0.831112 0.138134 -0.044356 0.000000 0.000000 0.000000
    28 47.660465 14.868883 -1.061265 0.211792 0.051268 2.183250
    29 0.077091 -0.197589 0.012483 0.000000 0.000000 0.102565
    30 44.673550 -14.145038 -0.096680 0.211792 0.051268 2.183250
    31 -0.348508 -0.151030 -0.015645 0.000000 0.000000 -0.199457
    32 -44.498070 16.660601 -40.351204 -0.725740 1.306153 2.432606
    33 6.875021 0.000001 0.000001 1.538288 -0.316186 -0.927367
    34 54.119427 0.000001 0.000006 0.000000 0.000000 -1.089662
    35 44.812374 -14.970488 -0.313824 -0.194593 -0.054333 2.182341
    36 0.460155 -0.261734 -0.526475 0.000000 0.000000 -0.036466
    37 47.957424 14.396824 -1.450205 -0.194593 -0.054333 2.182341
    38 0.784854 -1.145551 -0.483907 0.000000 0.000000 0.042552
    39 45.723511 -1.580466 -1.381208 -0.194593 -0.054333 2.182341
    40 0.128249 -0.403483 0.086672 0.000000 0.000000 0.000000
    41 -0.003153 -0.000621 0.001026 0.000000 0.000000 0.000000
    42 -4.648142 55.092964 0.164857 -0.000001 0.000002 -1.911759
    43 0.510548 0.168268 0.000000 0.000000 0.000000 0.000000
    44 -20.652090 26.216942 13.546794 0.000002 -0.000002 -1.710352
    45 0.345593 0.328704 1.416188 0.000000 0.000000 -0.024892
    46 -5.019464 -13.448384 0.000000 0.000000 0.000000 -0.472211
    47 -17.300318 -5.720577 -1.641911 0.000000 0.000000 0.410878
    48 -20.692247 26.147146 -11.763864 0.000002 -0.000002 -1.710352
    49 0.079524 0.174933 -0.740336 0.000000 0.000000 -0.394937
    50 -4.830051 -13.448384 0.000000 0.000000 0.000000 -0.191549
    51 -17.110901 -5.436459 1.517336 0.000000 0.000000 -0.398835
    52 102.135239 -0.202557 0.669154 0.000001 -0.000002 -1.710352
    53 -0.533877 -1.386979 0.452617 0.000000 0.000000 0.000000
    54 -4.916881 -2.709306 0.000000 0.000000 0.000000 0.000000
    55 -10.636515 -6.522400 0.000000 0.000000 0.000000 0.000000
    56 -10.636515 -6.923766 0.000000 0.000000 0.000000 0.000000
  time 14
    0 -17.516285 32.704426 93.837983 0.000000 0.043625 -1.570845
    1 2.495615 -2.234443 1.978418 -1.570795 -1.570789 0.000000
    2 -0.000038 0.000045 30.106951 -0.058292 -0.205083 -2.910764
    3 45.067032 0.000000 0.000000 0.000000 0.000000 -0.984219
    4 37.019344 0.000000 0.000000 3.142561 0.213056 0.715882
    5 25.403788 10.611764 -16.050877 -1.570796 1.570012 0.000000
    6 24.861448 34.869259 0.000001 0.000000 0.000000 1.570796
    7 25.574053 10.573102 16.050816 1.570796 -1.570103 0.000000
    8 0.000045 -0.000038 -30.106951 -0.036576 -0.028142 -2.496452
    9 45.067020 -0.000005 -0.000001 0.000000 0.000000 -0.899809
    10 37.019344 -0.000001 -0.000003 3.149762 0.045519 0.162883
    11 25.574053 10.573101 16.050814 1.570796 -1.570094 0.000000
    12 24.861448 34.869255 0.000001 0.000000 0.000000 1.570796
    13 25.574053 10.573101 -16.050877 -1.570796 1.570016 0.000000
    14 9.204885 -3.523623 0.000019 -0.034880 0.000928 0.026963
    15 19.817598 -0.017402 0.000000 0.108041 0.091801 0.097690
    16 22.201139 -0.015314 0.000000 0.039009 -0.150888 0.474244
    17 22.202543 -0.014382 0.000000 0.078858 -0.151343 0.609547
    18 22.196161 -0.009349 0.000000 0.000000 -0.000001 0.331451
    19 12.681315 -0.005775 0.000000 -0.000010 0.000000 0.000000
    20 7.255789 0.000004 0.000000 0.240220 0.523716 0.306009
    21 -1.220167 30.734381 0.143182 -0.000003 -0.000002 2.758613
    22 0.137550 0.410963 0.978475 0.000000 0.000000 0.289941
    23 -43.911976 16.262846 42.072151 2.192115 -1.355729 0.937622
    24 6.875020 -0.000021 0.000004 -2.337981 -1.031310 0.641526
    25 54.119427 0.000001 -0.000004 0.000000 0.000000 -0.775652
    26 45.547333 -0.415088 -0.052964 0.211792 0.051268 2.183250
    27 -0.831112 0.138134 -0.044356 0.000000 0.000000 0.000000
    28 47.660465 14.868883 -1.061265 0.211792 0.051268 2.183250
    29 0.077091 -0.197589 0.012483 0.000000 0.000000 0.102565
    30 44.673550 -14.145038 -0.096680 0.211792 0.051268 2.183250
    31 -0.348508 -0.151030 -0.015645 0.000000 0.000000 -0.199457
    32 -44.498070 16.660601 -40.351204 -0.725740 1.306153 2.432606
    33 6.875021 0.000001 0.000001 1.460512 -0.148025 -0.865924
    34 54.119427 0.000001 0.000006 0.000000 0.000000 -1.089662
    35 44.812374 -14.970488 -0.313824 -0.194593 -0.054333 2.182341
    36 0.460155 -0.261734 -0.526475 0.000000 0.000000 -0.009729
    37 47.957424 14.396824 -1.450205 -0.194593 -0.054333 2.182341
    38 0.784854 -1.145551 -0.483907 0.000000 0.000000 0.011349
    39 45.723511 -1.580466 -1.381208 -0.194593 -0.054333 2.182341
    40 0.128249 -0.403483 0.086672 0.000000 0.000000 0.000000
    41 -0.003153 -0.000621 0.001026 0.000000 0.000000 0.000000
    42 -4.671581 55.635949 0.067197 -0.000001 0.000002 -1.911759
    43 0.510548 0.168268 0.000000 0.000000 0.000000 0.000000
    44 -20.652090 26.216942 13.546794 0.000002 -0.000002 -1.710352
    45 0.345593 0.328704 1.416188 0.000000 0.000000 0.193865
    46 -5.019464 -13.448384 0.000000 0.000000 0.000000 -0.453269
    47 -17.300318 -5.720577 -1.641911 0.000000 0.000000 0.405219
    48 -20.692247 26.147146 -11.763864 0.000002 -0.000002 -1.710352
    49 0.079524 0.174933 -0.740336 0.000000 0.000000 -0.397828
    50 -4.830051 -13.448384 0.000000 0.000000 0.000000 -0.115882
    51 -17.110901 -5.436459 1.517336 0.000000 0.000000 -0.437230
    52 102.135239 -0.202557 0.669154 0.000001 -0.000002 -1.710352
    53 -0.533877 -1.386979 0.452617 0.000000 0.000000 0.000000
    54 -4.916881 -2.709306 0.000000 0.000000 0.000000 0.000000
    55 -10.636515 -6.522400 0.000000 0.000000 0.000000 0.000000
    56 -10.636515 -6.923766 0.000000 0.000000 0.000000 0.000000
  time 15
    0 -16.082648 33.782757 92.412158 0.000000 0.043625 -1.570845
    1 2.515147 -2.007874 1.978418 -1.570795 -1.570789 0.000000
    2 -0.000038 0.000045 30.106951 -0.052257 -0.187744 -2.897067
    3 45.067032 0.000000 0.000000 0.000000 0.000000 -1.060586
    4 37.019344 0.000000 0.000000 3.138658 0.194726 0.777091
    5 25.403788 10.611764 -16.050877 -1.570796 1.570012 0.000000
    6 24.861448 34.869259 0.000001 0.000000 0.000000 1.570796
    7 25.574053 10.573102 16.050816 1.570796 -1.570103 0.000000
    8 0.000045 -0.000038 -30.106951 -0.035218 -0.003375 -2.464594
    9 45.067020 -0.000005 -0.000001 0.000000 0.000000 -0.992431
    10 37.019344 -0.000001 -0.000003 3.164505 0.026942 0.223326
    11 25.574053 10.573101 16.050814 1.570796 -1.570094 0.000000
    12 24.861448 34.869255 0.000001 0.000000 0.000000 1.570796
    13 25.574053 10.573101 -16.050877 -1.570796 1.570016 0.000000
    14 9.204885 -3.523623 0.000019 -0.034880 0.000928 0.026963
    15 19.817598 -0.017402 0.000000 0.172842 0.129708 0.111121
    16 22.201139 -0.015314 0.000000 0.039009 -0.150888 0.474244
    17 22.202543 -0.014382 0.000000 0.078858 -0.151343 0.609547
    18 22.196161 -0.009349 0.000000 0.000000 -0.000001 0.331451
    19 12.681315 -0.005775 0.000000 -0.000010 0.000000 0.000000
    20 7.255789 0.000004 0.000000 0.207082 0.592482 0.298718
    21 -1.083444 29.695287 0.143182 -0.000003 -0.000002 2.758613
    22 0.137550 0.410963 0.978475 0.000000 0.000000 0.189826
    23 -43.911976 16.262846 42.072151 2.359404 -1.322035 0.765826
    24 6.875020 -0.000021 0.000004 -2.746689 -0.871678 0.789135
    25 54.119427 0.000001 -0.000004 0.000000 0.000000 -0.775652
    26 45.547333 -0.415088 -0.052964 0.211792 0.051268 2.183250
    27 -0.831112 0.138134 -0.044356 0.000000 0.000000 0.000000
    28 47.660465 14.868883 -1.061265 0.211792 0.051268 2.183250
    29 0.077091 -0.197589 0.012483 0.000000 0.000000 0.102565
    30 44.673550 -14.145038 -0.096680 0.211792 0.051268 2.183250
    31 -0.348508 -0.151030 -0.015645 0.000000 0.000000 -0.199457
    32 -44.498070 16.660601 -40.351204 -0.725740 1.306153 2.432606
    33 6.875021 0.000001 0.000001 1.393520 -0.002201 -0.816275
    34 54.119427 0.000001 0.000006 0.000000 0.000000 -1.089662
    35 44.812374 -14.970488 -0.313824 -0.194593 -0.054333 2.182341
    36 0.460155 -0.261734 -0.526475 0.000000 0.000000 0.000000
    37 47.957424 14.396824 -1.450205 -0.194593 -0.054333 2.182341
    38 0.784854 -1.145551 -0.483907 0.000000 0.000000 0.000000
    39 45.723511 -1.580466 -1.381208 -0.194593 -0.054333 2.182341
    40 0.128249 -0.403483 0.086672 0.000000 0.000000 0.000000
    41 -0.003153 -0.000621 0.001026 0.000000 0.000000 0.000000
    42 -4.765333 55.690638 -0.073432 -0.000001 0.000002 -1.911759
    43 0.510548 0.168268 0.000000 0.000000 0.000000 0.000000
    44 -20.652090 26.216942 13.546794 0.000002 -0.000002 -1.710352
    45 0.345593 0.328704 1.416188 0.000000 0.000000 0.424788
    46 -5.019464 -13.448384 0.000000 0.000000 0.000000 -0.428204
    47 -17.300318 -5.720577 -1.641911 0.000000 0.000000 0.390496
    48 -20.692247 26.147146 -11.763864 0.000002 -0.000002 -1.710352
    49 0.079524 0.174933 -0.740336 0.000000 0.000000 -0.389106
    50 -4.830051 -13.448384 0.000000 0.000000 0.000000 -0.044892
    51 -17.110901 -5.436459 1.517336 0.000000 0.000000 -0.457516
    52 102.135239 -0.202557 0.669154 0.000001 -0.000002 -1.710352
    53 -0.533877 -1.386979 0.452617 0.000000 0.000000 0.000000
    54 -4.916881 -2.709306 0.000000 0.000000 0.000000 0.000000
    55 -10.636515 -6.522400 0.000000 0.000000 0.000000 0.000000
    56 -10.636515 -6.923766 0.000000 0.000000 0.000000 0.000000
  time 16
    0 -14.578696 34.775252 88.224531 0.000000 0.043625 -1.570845
    1 -0.148997 0.636738 1.978418 -1.570795 -1.570789 0.000000
    2 -0.000038 0.000045 30.106951 -0.042657 -0.136763 -2.892064
    3 45.067032 0.000000 0.000000 0.000000 0.000000 -1.232836
    4 37.019344 0.000000 0.000000 3.143071 0.143173 0.942767
    5 25.403788 10.611764 -16.050877 -1.570796 1.570012 0.000000
    6 24.861448 34.869259 0.000001 0.000000 0.000000 1.570796
    7 25.574053 10.573102 16.050816 1.570796 -1.570103 0.000000
    8 0.000045 -0.000038 -30.106951 -0.019318 0.060711 -2.401519
    9 45.067020 -0.000005 -0.000001 0.000000 0.000000 -1.219210
    10 37.019344 -0.000001 -0.000003 3.199448 -0.026556 0.385244
    11 25.574053 10.573101 16.050814 1.570796 -1.570094 0.000000
    12 24.861448 34.869255 0.000001 0.000000 0.000000 1.570796
    13 25.574053 10.573101 -16.050877 -1.570796 1.570016 0.000000
    14 9.204885 -3.523623 0.000019 -0.092262 0.002474 0.026850
    15 19.817598 -0.017402 0.000000 0.095529 0.144090 0.193534
    16 22.201139 -0.015314 0.000000 0.013026 -0.138244 0.516454
    17 22.202543 -0.014382 0.000000 0.032945 -0.121046 0.650186
    18 22.196161 -0.009349 0.000000 -0.025611 0.008832 0.331343
    19 12.681315 -0.005775 0.000000 -0.000010 0.000000 0.000000
    20 7.255789 0.000004 0.000000 0.166963 0.380237 0.120438
    21 -1.474081 28.597597 0.143182 -0.000003 -0.000002 2.758613
    22 0.137550 0.410963 0.978475 0.000000 0.000000 0.182119
    23 -43.911976 16.262846 42.072151 2.416158 -1.306157 0.707010
    24 6.875020 -0.000021 0.000004 -2.439108 -0.965364 0.533355
    25 54.119427 0.000001 -0.000004 0.000000 0.000000 -0.775652
    26 45.547333 -0.415088 -0.052964 0.211792 0.051268 2.183250
    27 -0.831112 0.138134 -0.044356 0.000000 0.000000 0.000000
    28 47.660465 14.868883 -1.061265 0.211792 0.051268 2.183250
    29 0.077091 -0.197589 0.012483 0.000000 0.000000 0.102565
    30 44.673550 -14.145038 -0.096680 0.211792 0.051268 2.183250
    31 -0.348508 -0.151030 -0.015645 0.000000 0.000000 -0.199457
    32 -44.498070 16.660601 -40.351204 -0.725740 1.306153 2.432606
    33 6.875021 0.000001 0.000001 1.266978 0.087882 -0.791039
    34 54.119427 0.000001 0.000006 0.000000 0.000000 -1.089662
    35 44.812374 -14.970488 -0.313824 -0.194593 -0.054333 2.182341
    36 0.460155 -0.261734 -0.526475 0.000000 0.000000 -0.108529
    37 47.957424 14.396824 -1.450205 -0.194593 -0.054333 2.182341
    38 0.784854 -1.145551 -0.483907 0.000000 0.000000 0.126624
    39 45.723511 -1.580466 -1.381208 -0.194593 -0.054333 2.182341
    40 0.128249 -0.403483 0.086672 0.000000 0.000000 0.000000
    41 -0.003153 -0.000621 0.001026 0.000000 0.000000 0.000000
    42 -4.933307 55.378129 -0.268750 -0.000001 0.000002 -1.911759
    43 0.510548 0.168268 0.000000 0.000000 0.000000 0.000000
    44 -20.652090 26.216942 13.546794 0.000002 -0.000002 -1.710352
    45 0.345593 0.328704 1.416188 0.000000 0.000000 0.635434
    46 -5.019464 -13.448384 0.000000 0.000000 0.000000 -0.397965
    47 -17.300318 -5.720577 -1.641911 0.000000 0.000000 0.367978
    48 -20.692247 26.147146 -11.763864 0.000002 -0.000002 -1.710352
    49 0.079524 0.174933 -0.740336 0.000000 0.000000 -0.370381
    50 -4.830051 -13.448384 0.000000 0.000000 0.000000 0.018055
    51 -17.110901 -5.436459 1.517336 0.000000 0.000000 -0.463026
    52 102.135239 -0.202557 0.669154 0.000001 -0.000002 -1.710352
    53 -0.533877 -1.386979 0.452617 0.000000 0.000000 0.000000
    54 -4.916881 -2.709306 0.000000 0.000000 0.000000 0.000000
    55 -10.636515 -6.522400 0.000000 0.000000 0.000000 0.000000
    56 -10.636515 -6.923766 0.000000 0.000000 0.000000 0.000000
  time 17
    0 -12.805204 35.762381 82.697018 0.000000 0.043625 -1.570845
    1 -2.055305 4.457167 1.978418 -1.570795 -1.570789 0.000000
    2 -0.000038 0.000045 30.106951 -0.020105 -0.059000 -2.881143
    3 45.067032 0.000000 0.000000 0.000000 0.000000 -1.429292
    4 37.019344 0.000000 0.000000 3.143071 0.062242 1.125901
    5 25.403788 10.611764 -16.050877 -1.570796 1.570012 0.000000
    6 24.861448 34.869259 0.000001 0.000000 0.000000 1.570796
    7 25.574053 10.573102 16.050816 1.570796 -1.570103 0.000000
    8 0.000045 -0.000038 -30.106951 0.014590 0.158738 -2.327825
    9 45.067020 -0.000005 -0.000001 0.000000 0.000000 -1.437247
    10 37.019344 -0.000001 -0.000003 3.257941 -0.109169 0.525759
    11 25.574053 10.573101 16.050814 1.570796 -1.570094 0.000000
    12 24.861448 34.869255 0.000001 0.000000 0.000000 1.570796
    13 25.574053 10.573101 -16.050877 -1.570796 1.570016 0.000000
    14 9.204885 -3.523623 0.000019 -0.157746 0.004224 0.026652
    15 19.817598 -0.017402 0.000000 0.000048 0.172577 0.283798
    16 22.201139 -0.015314 0.000000 -0.015221 -0.121346 0.564093
    17 22.202543 -0.014382 0.000000 -0.016348 -0.082432 0.694589
    18 22.196161 -0.009349 0.000000 -0.054865 0.018911 0.330935
    19 12.681315 -0.005775 0.000000 -0.000010 0.000000 0.000000
    20 7.255789 0.000004 0.000000 0.155280 0.138739 -0.075714
    21 -3.423359 28.816353 0.143182 -0.000003 -0.000002 2.758613
    22 0.137550 0.410963 0.978475 0.000000 0.000000 0.389880
    23 -43.911976 16.262846 42.072151 2.456100 -1.293136 0.665702
    24 6.875020 -0.000021 0.000004 -1.972627 -1.003661 0.072501
    25 54.119427 0.000001 -0.000004 0.000000 0.000000 -0.775652
    26 45.547333 -0.415088 -0.052964 0.211792 0.051268 2.183250
    27 -0.831112 0.138134 -0.044356 0.000000 0.000000 0.000000
    28 47.660465 14.868883 -1.061265 0.211792 0.051268 2.183250
    29 0.077091 -0.197589 0.012483 0.000000 0.000000 0.102565
    30 44.673550 -14.145038 -0.096680 0.211792 0.051268 2.183250
    31 -0.348508 -0.151030 -0.015645 0.000000 0.000000 -0.199457
    32 -44.498070 16.660601 -40.351204 -0.725740 1.306153 2.432606
    33 6.875021 0.000001 0.000001 1.171452 0.186869 -0.732064
    34 54.119427 0.000001 0.000006 0.000000 0.000000 -1.089662
    35 44.812374 -14.970488 -0.313824 -0.194593 -0.054333 2.182341
    36 0.460155 -0.261734 -0.526475 0.000000 0.000000 -0.310113
    37 47.957424 14.396824 -1.450205 -0.194593 -0.054333 2.182341
    38 0.784854 -1.145551 -0.483907 0.000000 0.000000 0.361800
    39 45.723511 -1.580466 -1.381208 -0.194593 -0.054333 2.182341
    40 0.128249 -0.403483 0.086672 0.000000 0.000000 0.000000
    41 -0.003153 -0.000621 0.001026 0.000000 0.000000 0.000000
    42 -5.132532 54.827331 -0.483601 -0.000001 0.000002 -1.911759
    43 0.510548 0.168268 0.000000 0.000000 0.000000 0.000000
    44 -20.652090 26.216942 13.546794 0.000002 -0.000002 -1.710352
    45 0.345593 0.328704 1.416188 0.000000 0.000000 0.793500
    46 -5.019464 -13.448384 0.000000 0.000000 0.000000 -0.363391
    47 -17.300318 -5.720577 -1.641911 0.000000 0.000000 0.338968
    48 -20.692247 26.147146 -11.763864 0.000002 -0.000002 -1.710352
    49 0.079524 0.174933 -0.740336 0.000000 0.000000 -0.343312
    50 -4.830051 -13.448384 0.000000 0.000000 0.000000 0.069800
    51 -17.110901 -5.436459 1.517336 0.000000 0.000000 -0.457130
    52 102.135239 -0.202557 0.669154 0.000001 -0.000002 -1.710352
    53 -0.533877 -1.386979 0.452617 0.000000 0.000000 0.000000
    54 -4.916881 -2.709306 0.000000 0.000000 0.000000 0.000000
    55 -10.636515 -6.522400 0.000000 0.000000 0.000000 0.000000
    56 -10.636515 -6.923766 0.000000 0.000000 0.000000 0.000000
  time 18
    0 -10.500446 36.658309 78.817994 0.000000 0.043625 -1.570845
    1 -2.559227 8.734642 1.978418 -1.570795 -1.570789 0.000000
    2 -0.000038 0.000045 30.106951 0.022882 0.044185 -2.877308
    3 45.067032 0.000000 0.000000 0.000000 0.000000 -1.545629
    4 37.019344 0.000000 0.000000 3.133228 -0.048966 1.238493
    5 25.403788 10.611764 -16.050877 -1.570796 1.570012 0.000000
    6 24.861448 34.869259 0.000001 0.000000 0.000000 1.570796
    7 25.574053 10.573102 16.050816 1.570796 -1.570103 0.000000
    8 0.000045 -0.000038 -30.106951 0.062692 0.279421 -2.277826
    9 45.067020 -0.000005 -0.000001 0.000000 0.000000 -1.536210
    10 37.019344 -0.000001 -0.000003 3.335868 -0.211431 0.568027
    11 25.574053 10.573101 16.050814 1.570796 -1.570094 0.000000
    12 24.861448 34.869255 0.000001 0.000000 0.000000 1.570796
    13 25.574053 10.573101 -16.050877 -1.570796 1.570016 0.000000
    14 9.204885 -3.523623 0.000019 -0.222523 0.005950 0.026314
    15 19.817598 -0.017402 0.000000 -0.091514 0.217915 0.370279
    16 22.201139 -0.015314 0.000000 -0.041827 -0.101895 0.611000
    17 22.202543 -0.014382 0.000000 -0.062333 -0.039743 0.736463
    18 22.196161 -0.009349 0.000000 -0.083916 0.028906 0.330240
    19 12.681315 -0.005775 0.000000 -0.000010 0.000000 0.000000
    20 7.255789 0.000004 0.000000 0.167620 -0.085190 -0.281181
    21 -5.595300 29.331994 0.143182 -0.000003 -0.000002 2.758613
    22 0.137550 0.410963 0.978475 0.000000 0.000000 0.555326
    23 -43.911976 16.262846 42.072151 2.486474 -1.281960 0.633969
    24 6.875020 -0.000021 0.000004 -1.571940 -0.961799 -0.413011
    25 54.119427 0.000001 -0.000004 0.000000 0.000000 -0.775652
    26 45.547333 -0.415088 -0.052964 0.211792 0.051268 2.183250
    27 -0.831112 0.138134 -0.044356 0.000000 0.000000 0.000000
    28 47.660465 14.868883 -1.061265 0.211792 0.051268 2.183250
    29 0.077091 -0.197589 0.012483 0.000000 0.000000 0.102565
    30 44.673550 -14.145038 -0.096680 0.211792 0.051268 2.183250
    31 -0.348508 -0.151030 -0.015645 0.000000 0.000000 -0.199457
    32 -44.498070 16.660601 -40.351204 -0.725740 1.306153 2.432606
    33 6.875021 0.000001 0.000001 1.139387 0.298304 -0.640447
    34 54.119427 0.000001 0.000006 0.000000 0.000000 -1.089662
    35 44.812374 -14.970488 -0.313824 -0.194593 -0.054333 2.182341
    36 0.460155 -0.261734 -0.526475 0.000000 0.000000 -0.418666
    37 47.957424 14.396824 -1.450205 -0.194593 -0.054333 2.182341
    38 0.784854 -1.145551 -0.483907 0.000000 0.000000 0.488424
    39 45.723511 -1.580466 -1.381208 -0.194593 -0.054333 2.182341
    40 0.128249 -0.403483 0.086672 0.000000 0.000000 0.000000
    41 -0.003153 -0.000621 0.001026 0.000000 0.000000 0.000000
    42 -5.327851 54.167154 -0.678919 -0.000001 0.000002 -1.911759
    43 0.510548 0.168268 0.000000 0.000000 0.000000 0.000000
    44 -20.652090 26.216942 13.546794 0.000002 -0.000002 -1.710352
    45 0.345593 0.328704 1.416188 0.000000 0.000000 0.866544
    46 -5.019464 -13.448384 0.000000 0.000000 0.000000 -0.325318
    47 -17.300318 -5.720577 -1.641911 0.000000 0.000000 0.304735
    48 -20.692247 26.147146 -11.763864 0.000002 -0.000002 -1.710352
    49 0.079524 0.174933 -0.740336 0.000000 0.000000 -0.309607
    50 -4.830051 -13.448384 0.000000 0.000000 0.000000 0.106936
    51 -17.110901 -5.436459 1.517336 0.000000 0.000000 -0.443091
    52 102.135239 -0.202557 0.669154 0.000001 -0.000002 -1.710352
    53 -0.533877 -1.386979 0.452617 0.000000 0.000000 0.000000
    54 -4.916881 -2.709306 0.000000 0.000000 0.000000 0.000000
    55 -10.636515 -6.522400 0.000000 0.000000 0.000000 0.000000
    56 -10.636515 -6.923766 0.000000 0.000000 0.000000 0.000000
  time 19
    0 -7.594108 36.154014 77.927341 0.000000 0.043625 -1.570845
    1 -2.512350 9.824519 1.978418 -1.570795 -1.570789 0.000000
    2 -0.000038 0.000045 30.106951 0.060363 0.103434 -2.860616
    3 45.067032 0.000000 0.000000 0.000000 0.000000 -1.569968
    4 37.019344 0.000000 0.000000 3.117107 -0.117131 1.249966
    5 25.403788 10.611764 -16.050877 -1.570796 1.570012 0.000000
    6 24.861448 34.869259 0.000001 0.000000 0.000000 1.570796
    7 25.574053 10.573102 16.050816 1.570796 -1.570103 0.000000
    8 0.000045 -0.000038 -30.106951 0.098335 0.338761 -2.256852
    9 45.067020 -0.000005 -0.000001 0.000000 0.000000 -1.521083
    10 37.019344 -0.000001 -0.000003 3.371003 -0.269573 0.529362
    11 25.574053 10.573101 16.050814 1.570796 -1.570094 0.000000
    12 24.861448 34.869255 0.000001 0.000000 0.000000 1.570796
    13 25.574053 10.573101 -16.050877 -1.570796 1.570016 0.000000
    14 9.204885 -3.523623 0.000019 -0.235418 0.006288 0.026229
    15 19.821505 -0.017402 0.000000 -0.122435 0.226328 0.394240
    16 22.201139 -0.015314 0.000000 -0.050001 -0.095208 0.624914
    17 22.202543 -0.014382 0.000000 -0.077170 -0.024978 0.746051
    18 22.196161 -0.009349 0.000000 -0.090723 0.031243 0.330036
    19 12.681315 -0.005775 0.000000 -0.000010 0.000000 0.000000
    20 7.255789 0.000004 0.000000 0.186011 -0.146860 -0.344526
    21 -6.868777 29.519500 0.143182 -0.000003 -0.000002 2.758613
    22 0.137550 0.410963 0.978475 0.000000 0.000000 0.525130
    23 -43.911976 16.262846 42.072151 2.439659 -1.298686 0.682663
    24 6.875020 -0.000021 0.000004 -1.400244 -0.917424 -0.684035
    25 54.119427 0.000001 -0.000004 0.000000 0.000000 -0.775652
    26 45.547333 -0.415088 -0.052964 0.211792 0.051268 2.183250
    27 -0.831112 0.138134 -0.044356 0.000000 0.000000 0.000000
    28 47.660465 14.868883 -1.061265 0.211792 0.051268 2.183250
    29 0.077091 -0.197589 0.012483 0.000000 0.000000 0.102565
    30 44.673550 -14.145038 -0.096680 0.211792 0.051268 2.183250
    31 -0.348508 -0.151030 -0.015645 0.000000 0.000000 -0.199457
    32 -44.498070 16.660601 -40.351204 -0.725740 1.306153 2.432606
    33 6.875021 0.000001 0.000001 1.146353 0.338991 -0.653339
    34 54.119427 0.000001 0.000006 0.000000 0.000000 -1.089662
    35 44.812374 -14.970488 -0.313824 -0.194593 -0.054333 2.182341
    36 0.460155 -0.261734 -0.526475 0.000000 0.000000 -0.406396
    37 47.957424 14.396824 -1.450205 -0.194593 -0.054333 2.182341
    38 0.784854 -1.145551 -0.483907 0.000000 0.000000 0.474104
    39 45.723511 -1.580466 -1.381208 -0.194593 -0.054333 2.182341
    40 0.128249 -0.403483 0.086672 0.000000 0.000000 0.000000
    41 -0.003153 -0.000621 0.001026 0.000000 0.000000 0.000000
    42 -5.480199 53.530416 -0.815642 -0.000001 0.000002 -1.911759
    43 0.510548 0.168268 0.000000 0.000000 0.000000 0.000000
    44 -20.652090 26.216942 13.546794 0.000002 -0.000002 -1.710352
    45 0.345593 0.328704 1.416188 0.000000 0.000000 0.856289
    46 -5.019464 -13.448384 0.000000 0.000000 0.000000 -0.284658
    47 -17.300318 -5.720577 -1.641911 0.000000 0.000000 0.266663
    48 -20.692247 26.147146 -11.763864 0.000002 -0.000002 -1.710352
    49 0.079524 0.174933 -0.740336 0.000000 0.000000 -0.270923
    50 -4.830051 -13.448384 0.000000 0.000000 0.000000 0.125853
    51 -17.110901 -5.436459 1.517336 0.000000 0.000000 -0.417120
    52 102.135239 -0.202557 0.669154 0.000001 -0.000002 -1.710352
    53 -0.533877 -1.386979 0.452617 0.000000 0.000000 0.000000
    54 -4.916881 -2.709306 0.000000 0.000000 0.000000 0.000000
    55 -10.636515 -6.522400 0.000000 0.000000 0.000000 0.000000
    56 -10.636515 -6.923766 0.000000 0.000000 0.000000 0.000000
  time 20
    0 -5.621391 32.157213 79.603174 0.000000 0.060284 -1.570845
    1 -2.676418 8.136967 1.978418 -1.570795 -1.570789 0.000000
    2 -0.000038 0.000045 30.106951 0.072680 0.098443 -2.810761
    3 45.067032 0.000000 0.000000 0.000000 0.000000 -1.555722
    4 37.019344 0.000000 0.000000 3.111677 -0.118522 1.170037
    5 25.403788 10.611764 -16.050877 -1.570796 1.570012 0.000000
    6 24.861448 34.869259 0.000001 0.000000 0.000000 1.570796
    7 25.574053 10.573102 16.050816 1.570796 -1.570103 0.000000
    8 0.000045 -0.000038 -30.106951 0.114378 0.308618 -2.262105
    9 45.067020 -0.000005 -0.000001 0.000000 0.000000 -1.426150
    10 37.019344 -0.000001 -0.000003 3.338932 -0.264304 0.428910
    11 25.574053 10.573101 16.050814 1.570796 -1.570016 0.000000
    12 24.861448 34.869255 0.000001 0.000000 0.000000 1.570796
    13 25.574053 10.573101 -16.050877 -1.570796 1.570016 0.000000
    14 9.204885 -3.523623 0.000019 -0.195426 0.005226 0.026455
    15 19.817598 -0.017402 0.000000 -0.104182 0.183687 0.361293
    16 22.201139 -0.015314 0.000000 -0.042307 -0.078968 0.607453
    17 22.202543 -0.014382 0.000000 -0.066024 -0.021095 0.724119
    18 22.196161 -0.009349 0.000000 -0.075143 0.026785 0.341038
    19 12.681315 -0.005775 0.000000 -0.000010 0.000000 0.000000
    20 7.255789 0.000004 0.000000 0.158962 -0.134964 -0.275960
    21 -7.610987 29.585908 0.143182 -0.000003 -0.000002 2.758613
    22 0.137550 0.410963 0.978475 0.000000 0.000000 0.474092
    23 -43.911976 16.262846 42.072151 2.232149 -1.349075 0.896588
    24 6.875020 -0.000021 0.000004 -0.821273 -0.736724 -1.075096
    25 54.119427 0.000001 -0.000004 0.000000 0.000000 -0.736687
    26 45.547333 -0.415088 -0.052964 0.211792 0.051268 2.183250
    27 -0.831112 0.138134 -0.044356 0.000000 0.000000 0.000000
    28 47.660465 14.868883 -1.061265 0.211792 0.051268 2.183250
    29 0.077091 -0.197589 0.012483 0.000000 0.000000 0.102565
    30 44.673550 -14.145038 -0.096680 0.211792 0.051268 2.183250
    31 -0.348508 -0.151030 -0.015645 0.000000 0.000000 -0.199457
    32 -44.498070 16.660601 -40.351204 -0.725740 1.306153 2.432606
    33 6.875021 0.000001 0.000001 1.146258 0.346174 -0.793142
    34 54.119427 0.000001 0.000006 0.000000 0.000000 -0.995775
    35 44.812374 -14.970488 -0.313824 -0.194593 -0.054333 2.182341
    36 0.460155 -0.261734 -0.526475 0.000000 0.000000 -0.372859
    37 47.957424 14.396824 -1.450205 -0.194593 -0.054333 2.182341
    38 0.784854 -1.145551 -0.483907 0.000000 0.000000 0.434992
    39 45.723511 -1.580466 -1.381208 -0.194593 -0.054333 2.182341
    40 0.128249 -0.403483 0.086672 0.000000 0.000000 0.000000
    41 -0.003153 -0.000621 0.001026 0.000000 0.000000 0.000000
    42 -5.554420 53.046026 -0.858612 -0.000001 0.000002 -1.911759
    43 0.510548 0.168268 0.000000 0.000000 0.000000 0.000000
    44 -20.652090 26.216942 13.546794 0.000002 -0.000002 -1.710352
    45 0.345593 0.328704 1.416188 0.000000 0.000000 0.794013
    46 -5.019464 -13.448384 0.000000 0.000000 0.000000 -0.242248
    47 -17.300318 -5.720577 -1.641911 0.000000 0.000000 0.225979
    48 -20.692247 26.147146 -11.763864 0.000002 -0.000002 -1.710352
    49 0.079524 0.174933 -0.740336 0.000000 0.000000 -0.228875
    50 -4.830051 -13.448384 0.000000 0.000000 0.000000 0.127617
    51 -17.110901 -5.436459 1.517336 0.000000 0.000000 -0.375531
    52 102.135239 -0.202557 0.669154 0.000001 -0.000002 -1.710352
    53 -0.533877 -1.386979 0.452617 0.000000 0.000000 0.000000
    54 -4.916881 -2.709306 0.000000 0.000000 0.000000 0.000000
    55 -10.636515 -6.522400 0.000000 0.000000 0.000000 0.000000
    56 -10.636515 -6.923766 0.000000 0.000000 0.000000 0.000000
  time 21
    0 -4.219005 26.486583 82.685299 0.000000 0.077501 -1.570845
    1 -2.602197 6.289254 1.978418 -1.570795 -1.570789 0.000000
    2 -0.000038 0.000045 30.106951 0.074516 0.083391 -2.744798
    3 45.067032 0.000000 0.000000 0.000000 0.000000 -1.498960
    4 37.019344 0.000000 0.000000 3.113119 -0.108048 1.029339
    5 25.403788 10.611764 -16.050877 -1.570796 1.570012 0.000000
    6 24.861448 34.869259 0.000001 0.000000 0.000000 1.570796
    7 25.574053 10.573102 16.050816 1.570796 -1.570103 0.000000
    8 0.000045 -0.000038 -30.106951 0.113309 0.267944 -2.290335
    9 45.067020 -0.000005 -0.000001 0.000000 0.000000 -1.250461
    10 37.019344 -0.000001 -0.000003 3.301883 -0.243137 0.268444
    11 25.574053 10.573101 16.050814 1.570796 -1.570094 0.000000
    12 24.861448 34.869255 0.000001 0.000000 0.000000 1.570796
    13 25.574053 10.573101 -16.050877 -1.570796 1.570016 0.000000
    14 9.204885 -3.523623 0.000019 -0.153060 0.004103 0.026652
    15 19.817598 -0.017402 0.000000 -0.082526 0.140482 0.323775
    16 22.201139 -0.015314 0.000000 -0.033522 -0.062382 0.588625
    17 22.202543 -0.014382 0.000000 -0.052781 -0.017619 0.700905
    18 22.196161 -0.009349 0.000000 -0.058629 0.021631 0.352376
    19 12.681315 -0.005775 0.000000 -0.000010 0.000000 0.000000
    20 7.255789 0.000004 0.000000 0.126881 -0.114145 -0.199275
    21 -7.829744 29.535125 0.143182 -0.000003 -0.000002 2.758613
    22 0.137550 0.410963 0.978475 0.000000 0.000000 0.407080
    23 -43.911976 16.262846 42.072151 1.918748 -1.385127 1.216381
    24 6.875020 -0.000021 0.000004 -0.651964 -0.580474 -1.197584
    25 54.119427 0.000001 -0.000004 0.000000 0.000000 -0.695568
    26 45.547333 -0.415088 -0.052964 0.211792 0.051268 2.183250
    27 -0.831112 0.138134 -0.044356 0.000000 0.000000 0.000000
    28 47.660465 14.868883 -1.061265 0.211792 0.051268 2.183250
    29 0.077091 -0.197589 0.012483 0.000000 0.000000 0.102565
    30 44.673550 -14.145038 -0.096680 0.211792 0.051268 2.183250
    31 -0.348508 -0.151030 -0.015645 0.000000 0.000000 -0.199457
    32 -44.498070 16.660601 -40.351204 -0.725740 1.306153 2.432606
    33 6.875021 0.000001 0.000001 1.164581 0.349225 -0.924899
    34 54.119427 0.000001 0.000006 0.000000 0.000000 -0.898738
    35 44.812374 -14.970488 -0.313824 -0.194593 -0.054333 2.182341
    36 0.460155 -0.261734 -0.526475 0.000000 0.000000 -0.322978
    37 47.957424 14.396824 -1.450205 -0.194593 -0.054333 2.182341
    38 0.784854 -1.145551 -0.483907 0.000000 0.000000 0.376807
    39 45.723511 -1.580466 -1.381208 -0.194593 -0.054333 2.182341
    40 0.128249 -0.403483 0.086672 0.000000 0.000000 0.000000
    41 -0.003153 -0.000621 0.001026 0.000000 0.000000 0.000000
    42 -5.503637 52.842895 -0.768766 -0.000001 0.000002 -1.911759
    43 0.510548 0.168268 0.000000 0.000000 0.000000 0.000000
    44 -20.652090 26.216942 13.546794 0.000002 -0.000002 -1.710352
    45 0.345593 0.328704 1.416188 0.000000 0.000000 0.691697
    46 -5.019464 -13.448384 0.000000 0.000000 0.000000 -0.198964
    47 -17.300318 -5.720577 -1.641911 0.000000 0.000000 0.183989
    48 -20.692247 26.147146 -11.763864 0.000002 -0.000002 -1.710352
    49 0.079524 0.174933 -0.740336 0.000000 0.000000 -0.185167
    50 -4.830051 -13.448384 0.000000 0.000000 0.000000 0.116251
    51 -17.110901 -5.436459 1.517336 0.000000 0.000000 -0.321939
    52 102.135239 -0.202557 0.669154 0.000001 -0.000002 -1.710352
    53 -0.533877 -1.386979 0.452617 0.000000 0.000000 0.000000
    54 -4.916881 -2.709306 0.000000 0.000000 0.000000 0.000000
    55 -10.636515 -6.522400 0.000000 0.000000 0.000000 0.000000
    56 -10.636515 -6.923766 0.000000 0.000000 0.000000 0.000000
  time 22
    0 -3.289289 20.080971 86.302597 0.000000 0.093758 -1.570845
    1 -2.301406 4.554826 1.978418 -1.570795 -1.570789 0.000000
    2 -0.000038 0.000045 30.106951 0.066186 0.068277 -2.686213
    3 45.067032 0.000000 0.000000 0.000000 0.000000 -1.400531
    4 37.019344 0.000000 0.000000 3.120671 -0.092664 0.854659
    5 25.403788 10.611764 -16.050877 -1.570796 1.570012 0.000000
    6 24.861448 34.869259 0.000001 0.000000 0.000000 1.570796
    7 25.574053 10.573102 16.050816 1.570796 -1.570103 0.000000
    8 0.000045 -0.000038 -30.106951 0.098971 0.233087 -2.352654
    9 45.067020 -0.000005 -0.000001 0.000000 0.000000 -0.996372
    10 37.019344 -0.000001 -0.000003 3.270482 -0.218130 0.062322
    11 25.574053 10.573101 16.050814 1.570796 -1.570094 0.000000
    12 24.861448 34.869255 0.000001 0.000000 0.000000 1.570796
    13 25.574053 10.573101 -16.050877 -1.570796 1.570016 0.000000
    14 9.204885 -3.523623 0.000019 -0.112996 0.003029 0.026794
    15 19.817598 -0.017402 0.000000 -0.061481 0.101305 0.286730
    16 22.201139 -0.015314 0.000000 -0.025001 -0.046466 0.571080
    17 22.202543 -0.014382 0.000000 -0.039646 -0.013832 0.679177
    18 22.196161 -0.009349 0.000000 -0.043109 0.016418 0.362994
    19 12.681315 -0.005775 0.000000 -0.000010 0.000000 0.000000
    20 7.255789 0.000004 0.000000 0.094727 -0.090161 -0.126293
    21 -7.517234 29.363245 0.143182 -0.000003 -0.000002 2.758613
    22 0.137550 0.410963 0.978475 0.000000 0.000000 0.328859
    23 -43.911976 16.262846 42.072151 1.563084 -1.396378 1.577756
    24 6.875020 -0.000021 0.000004 -0.763404 -0.525633 -1.233906
    25 54.119427 0.000001 -0.000004 0.000000 0.000000 -0.659366
    26 45.547333 -0.415088 -0.052964 0.211792 0.051268 2.183250
    27 -0.831112 0.138134 -0.044356 0.000000 0.000000 0.000000
    28 47.660465 14.868883 -1.061265 0.211792 0.051268 2.183250
    29 0.077091 -0.197589 0.012483 0.000000 0.000000 0.102565
    30 44.673550 -14.145038 -0.096680 0.211792 0.051268 2.183250
    31 -0.348508 -0.151030 -0.015645 0.000000 0.000000 -0.199457
    32 -44.498070 16.660601 -40.351204 -0.725740 1.306153 2.432606
    33 6.875021 0.000001 0.000001 1.199413 0.355965 -1.036357
    34 54.119427 0.000001 0.000006 0.000000 0.000000 -0.807130
    35 44.812374 -14.970488 -0.313824 -0.194593 -0.054333 2.182341
    36 0.460155 -0.261734 -0.526475 0.000000 0.000000 -0.261652
    37 47.957424 14.396824 -1.450205 -0.194593 -0.054333 2.182341
    38 0.784854 -1.145551 -0.483907 0.000000 0.000000 0.305273
    39 45.723511 -1.580466 -1.381208 -0.194593 -0.054333 2.182341
    40 0.128249 -0.403483 0.086672 0.000000 0.000000 0.000000
    41 -0.003153 -0.000621 0.001026 0.000000 0.000000 0.000000
    42 -5.351289 52.878053 -0.553915 -0.000001 0.000002 -1.911759
    43 0.510548 0.168268 0.000000 0.000000 0.000000 0.000000
    44 -20.652090 26.216942 13.546794 0.000002 -0.000002 -1.710352
    45 0.345593 0.328704 1.416188 0.000000 0.000000 0.561365
    46 -5.019464 -13.448384 0.000000 0.000000 0.000000 -0.155717
    47 -17.300318 -5.720577 -1.641911 0.000000 0.000000 0.141999
    48 -20.692247 26.147146 -11.763864 0.000002 -0.000002 -1.710352
    49 0.079524 0.174933 -0.740336 0.000000 0.000000 -0.141459
    50 -4.830051 -13.448384 0.000000 0.000000 0.000000 0.095610
    51 -17.110901 -5.436459 1.517336 0.000000 0.000000 -0.259959
    52 102.135239 -0.202557 0.669154 0.000001 -0.000002 -1.710352
    53 -0.533877 -1.386979 0.452617 0.000000 0.000000 0.000000
    54 -4.916881 -2.709306 0.000000 0.000000 0.000000 0.000000
    55 -10.636515 -6.522400 0.000000 0.000000 0.000000 0.000000
    56 -10.636515 -6.923766 0.000000 0.000000 0.000000 0.000000
  time 23
    0 -2.590049 13.782655 89.986303 0.000000 0.108590 -1.570845
    1 -1.832642 3.007904 1.978418 -1.570795 -1.570789 0.000000
    2 -0.000038 0.000045 30.106951 0.049105 0.059298 -2.653415
    3 45.067032 0.000000 0.000000 0.000000 0.000000 -1.261954
    4 37.019344 0.000000 0.000000 3.134246 -0.076625 0.666914
    5 25.403788 10.611764 -16.050877 -1.570796 1.570012 0.000000
    6 24.861448 34.869259 0.000001 0.000000 0.000000 1.570796
    7 25.574053 10.573102 16.050816 1.570796 -1.570103 0.000000
    8 0.000045 -0.000038 -30.106951 0.094114 0.175292 -2.275786
    9 45.067020 -0.000005 -0.000001 0.000000 0.000000 -1.246068
    10 37.019344 -0.000001 -0.000003 3.221945 -0.181869 0.339051
    11 25.574053 10.573101 16.050814 1.570796 -1.570094 0.000000
    12 24.861448 34.869255 0.000001 0.000000 0.000000 1.570796
    13 25.574053 10.573101 -16.050877 -1.570796 1.570016 0.000000
    14 9.204885 -3.523623 0.000019 -0.076407 0.002051 0.026907
    15 19.817598 -0.017402 0.000000 -0.041898 0.066969 0.251624
    16 22.201139 -0.015314 0.000000 -0.017055 -0.031677 0.555332
    17 22.202543 -0.014382 0.000000 -0.027218 -0.009877 0.659534
    18 22.196161 -0.009349 0.000000 -0.029039 0.011372 0.372618
    19 12.681315 -0.005775 0.000000 -0.000010 0.000000 0.000000
    20 7.255789 0.000004 0.000000 0.064378 -0.064669 -0.059774
    21 -6.681271 29.074174 0.143182 -0.000003 -0.000002 2.758613
    22 0.137550 0.410963 0.978475 0.000000 0.000000 0.244227
    23 -43.911976 16.262846 42.072151 1.216708 -1.384719 1.929738
    24 6.875020 -0.000021 0.000004 -0.945795 -0.497025 -1.248687
    25 54.119427 0.000001 -0.000004 0.000000 0.000000 -0.623894
    26 45.547333 -0.415088 -0.052964 0.211792 0.051268 2.183250
    27 -0.831112 0.138134 -0.044356 0.000000 0.000000 0.000000
    28 47.660465 14.868883 -1.061265 0.211792 0.051268 2.183250
    29 0.077091 -0.197589 0.012483 0.000000 0.000000 0.079801
    30 44.673550 -14.145038 -0.096680 0.211792 0.051268 2.183250
    31 -0.348508 -0.151030 -0.015645 0.000000 0.000000 -0.155210
    32 -44.498070 16.660601 -40.351204 -0.725740 1.306153 2.432606
    33 6.875021 0.000001 0.000001 1.244647 0.369199 -1.126054
    34 54.119427 0.000001 0.000006 0.000000 0.000000 -0.723523
    35 44.812374 -14.970488 -0.313824 -0.194593 -0.054333 2.182341
    36 0.460155 -0.261734 -0.526475 0.000000 0.000000 -0.193778
    37 47.957424 14.396824 -1.450205 -0.194593 -0.054333 2.182341
    38 0.784854 -1.145551 -0.483907 0.000000 0.000000 0.226078
    39 45.723511 -1.580466 -1.381208 -0.194593 -0.054333 2.182341
    40 0.128249 -0.403483 0.086672 0.000000 0.000000 0.000000
    41 -0.003153 -0.000621 0.001026 0.000000 0.000000 0.000000
    42 -5.128626 53.018682 -0.260938 -0.000001 0.000002 -1.911759
    43 0.510548 0.168268 0.000000 0.000000 0.000000 0.000000
    44 -20.652090 26.216942 13.546794 0.000002 -0.000002 -1.710352
    45 0.345593 0.328704 1.416188 0.000000 0.000000 0.414999
    46 -5.019464 -13.448384 0.000000 0.000000 0.000000 -0.113308
    47 -17.300318 -5.720577 -1.641911 0.000000 0.000000 0.101275
    48 -20.692247 26.147146 -11.763864 0.000002 -0.000002 -1.710352
    49 0.079524 0.174933 -0.740336 0.000000 0.000000 -0.099457
    50 -4.830051 -13.448384 0.000000 0.000000 0.000000 0.069718
    51 -17.110901 -5.436459 1.517336 0.000000 0.000000 -0.193170
    52 102.135239 -0.202557 0.669154 0.000001 -0.000002 -1.710352
    53 -0.533877 -1.386979 0.452617 0.000000 0.000000 0.000000
    54 -4.916881 -2.709306 0.000000 0.000000 0.000000 0.000000
    55 -10.636515 -6.522400 0.000000 0.000000 0.000000 0.000000
    56 -10.636515 -6.923766 0.000000 0.000000 0.000000 0.000000
  time 24
    0 -1.949404 8.358808 93.447346 0.000000 0.121565 -1.570845
    1 -1.270125 1.703177 1.978418 -1.570795 -1.570789 0.000000
    2 -0.000038 0.000045 30.106951 0.005059 0.064661 -2.685045
    3 45.067032 0.000000 0.000000 0.000000 0.000000 -1.062998
    4 37.019344 0.000000 0.000000 3.172682 -0.056904 0.484110
    5 25.403788 10.611764 -16.050877 -1.570796 1.570012 0.000000
    6 24.861448 34.869259 0.000001 0.000000 0.000000 1.570796
    7 25.574053 10.573102 16.050816 1.570796 -1.570103 0.000000
    8 0.000045 -0.000038 -30.106951 0.071306 0.114249 -2.267131
    9 45.067020 -0.000005 -0.000001 0.000000 0.000000 -1.397842
    10 37.019344 -0.000001 -0.000003 3.180684 -0.128818 0.546409
    11 25.574053 10.573101 16.050814 1.570796 -1.570016 0.000000
    12 24.861448 34.869255 0.000001 0.000000 0.000000 1.570796
    13 25.574053 10.573101 -16.050877 -1.570796 1.570016 0.000000
    14 9.204885 -3.523623 0.000019 -0.044372 0.001194 0.026963
    15 19.817598 -0.017402 0.000000 -0.024497 0.038086 0.219891
    16 22.201139 -0.015314 0.000000 -0.009972 -0.018530 0.541765
    17 22.202543 -0.014382 0.000000 -0.016000 -0.006006 0.642516
    18 22.196161 -0.009349 0.000000 -0.016802 0.006746 0.380995
    19 12.681315 -0.005775 0.000000 -0.000010 0.000000 0.000000
    20 7.255789 0.000004 0.000000 0.037402 -0.039452 -0.001812
    21 -5.317948 28.664005 0.143182 -0.000003 -0.000002 2.758613
    22 0.137550 0.410963 0.978475 0.000000 0.000000 0.158019
    23 -43.911976 16.262846 42.072151 0.974459 -1.359509 2.176855
    24 6.875020 -0.000021 0.000004 -1.120833 -0.473215 -1.253592
    25 54.119427 0.000001 -0.000004 0.000000 0.000000 -0.593462
    26 45.547333 -0.415088 -0.052964 0.211792 0.051268 2.183250
    27 -0.831112 0.138134 -0.044356 0.000000 0.000000 0.000000
    28 47.660465 14.868883 -1.061265 0.211792 0.051268 2.183250
    29 0.077091 -0.197589 0.012483 0.000000 0.000000 0.053829
    30 44.673550 -14.145038 -0.096680 0.211792 0.051268 2.183250
    31 -0.348508 -0.151030 -0.015645 0.000000 0.000000 -0.104704
    32 -44.498070 16.660601 -40.351204 -0.725740 1.306153 2.432606
    33 6.875021 0.000001 0.000001 1.293508 0.388239 -1.194264
    34 54.119427 0.000001 0.000006 0.000000 0.000000 -0.650279
    35 44.812374 -14.970488 -0.313824 -0.194593 -0.054333 2.182341
    36 0.460155 -0.261734 -0.526475 0.000000 0.000000 -0.124279
    37 47.957424 14.396824 -1.450205 -0.194593 -0.054333 2.182341
    38 0.784854 -1.145551 -0.483907 0.000000 0.000000 0.144976
    39 45.723511 -1.580466 -1.381208 -0.194593 -0.054333 2.182341
    40 0.128249 -0.403483 0.086672 0.000000 0.000000 0.000000
    41 -0.003153 -0.000621 0.001026 0.000000 0.000000 0.000000
    42 -4.839554 53.272596 0.117980 -0.000001 0.000002 -1.911759
    43 0.510548 0.168268 0.000000 0.000000 0.000000 0.000000
    44 -20.652090 26.216942 13.546794 0.000002 -0.000002 -1.710352
    45 0.345593 0.328704 1.416188 0.000000 0.000000 0.264671
    46 -5.019464 -13.448384 0.000000 0.000000 0.000000 -0.072648
    47 -17.300318 -5.720577 -1.641911 0.000000 0.000000 0.063203
    48 -20.692247 26.147146 -11.763864 0.000002 -0.000002 -1.710352
    49 0.079524 0.174933 -0.740336 0.000000 0.000000 -0.060727
    50 -4.830051 -13.448384 0.000000 0.000000 0.000000 0.042512
    51 -17.110901 -5.436459 1.517336 0.000000 0.000000 -0.125154
    52 102.135239 -0.202557 0.669154 0.000001 -0.000002 -1.710352
    53 -0.533877 -1.386979 0.452617 0.000000 0.000000 0.000000
    54 -4.916881 -2.709306 0.000000 0.000000 0.000000 0.000000
    55 -10.636515 -6.522400 0.000000 0.000000 0.000000 0.000000
    56 -10.636515 -6.923766 0.000000 0.000000 0.000000 0.000000
  time 25
    0 -1.379074 4.571235 96.431812 0.000000 0.132155 -1.570845
    1 -0.715420 0.683615 1.978418 -1.570795 -1.570789 0.000000
    2 -0.000038 0.000045 30.106951 -0.034645 0.069282 -2.718464
    3 45.067032 0.000000 0.000000 0.000000 0.000000 -0.891328
    4 37.019344 0.000000 0.000000 3.207555 -0.040619 0.333475
    5 25.403788 10.611764 -16.050877 -1.570796 1.570012 0.000000
    6 24.861448 34.869259 0.000001 0.000000 0.000000 1.570796
    7 25.574053 10.573102 16.050816 1.570796 -1.570103 0.000000
    8 0.000045 -0.000038 -30.106951 0.013029 0.023363 -2.501970
    9 45.067020 -0.000005 -0.000001 0.000000 0.000000 -1.106613
    10 37.019344 -0.000001 -0.000003 3.146316 -0.026288 0.418262
    11 25.574053 10.573101 16.050814 1.570796 -1.570016 0.000000
    12 24.861448 34.869255 0.000001 0.000000 0.000000 1.570796
    13 25.574053 10.573101 -16.050877 -1.570796 1.570094 0.000000
    14 9.204885 -3.523623 0.000019 -0.018270 0.000482 0.026963
    15 19.817598 -0.017402 0.000000 -0.010127 0.015399 0.193361
    16 22.201139 -0.015314 0.000000 -0.004136 -0.007672 0.530859
    17 22.202543 -0.014382 0.000000 -0.006652 -0.002555 0.628794
    18 22.196161 -0.009349 0.000000 -0.006891 0.002815 0.387778
    19 12.681315 -0.005775 0.000000 -0.000010 0.000000 0.000000
    20 7.255789 0.000004 0.000000 0.015364 -0.016892 0.045110
    21 -3.427266 28.132739 0.143182 -0.000003 -0.000002 2.758613
    22 0.137550 0.410963 0.978475 0.000000 0.000000 0.074999
    23 -43.911976 16.262846 42.072151 0.819152 -1.330973 2.336159
    24 6.875020 -0.000021 0.000004 -1.272284 -0.451141 -1.253393
    25 54.119427 0.000001 -0.000004 0.000000 0.000000 -0.568108
    26 45.547333 -0.415088 -0.052964 0.211792 0.051268 2.183250
    27 -0.831112 0.138134 -0.044356 0.000000 0.000000 0.000000
    28 47.660465 14.868883 -1.061265 0.211792 0.051268 2.183250
    29 0.077091 -0.197589 0.012483 0.000000 0.000000 0.026591
    30 44.673550 -14.145038 -0.096680 0.211792 0.051268 2.183250
    31 -0.348508 -0.151030 -0.015645 0.000000 0.000000 -0.051737
    32 -44.498070 16.660601 -40.351204 -0.725740 1.306153 2.432606
    33 6.875021 0.000001 0.000001 1.338742 0.409640 -1.242084
    34 54.119427 0.000001 0.000006 0.000000 0.000000 -0.590630
    35 44.812374 -14.970488 -0.313824 -0.194593 -0.054333 2.182341
    36 0.460155 -0.261734 -0.526475 0.000000 0.000000 -0.058053
    37 47.957424 14.396824 -1.450205 -0.194593 -0.054333 2.182341
    38 0.784854 -1.145551 -0.483907 0.000000 0.000000 0.067720
    39 45.723511 -1.580466 -1.381208 -0.194593 -0.054333 2.182341
    40 0.128249 -0.403483 0.086672 0.000000 0.000000 0.000000
    41 -0.003153 -0.000621 0.001026 0.000000 0.000000 0.000000
    42 -4.480168 53.631982 0.578932 -0.000001 0.000002 -1.911759
    43 0.510548 0.168268 0.000000 0.000000 0.000000 0.000000
    44 -20.652090 26.216942 13.546794 0.000002 -0.000002 -1.710352
    45 0.345593 0.328704 1.416188 0.000000 0.000000 0.122314
    46 -5.019464 -13.448384 0.000000 0.000000 0.000000 -0.034574
    47 -17.300318 -5.720577 -1.641911 0.000000 0.000000 0.029009
    48 -20.692247 26.147146 -11.763864 0.000002 -0.000002 -1.710352
    49 0.079524 0.174933 -0.740336 0.000000 0.000000 -0.027021
    50 -4.830051 -13.448384 0.000000 0.000000 0.000000 0.017973
    51 -17.110901 -5.436459 1.517336 0.000000 0.000000 -0.059558
    52 102.135239 -0.202557 0.669154 0.000001 -0.000002 -1.710352
    53 -0.533877 -1.386979 0.452617 0.000000 0.000000 0.000000
    54 -4.916881 -2.709306 0.000000 0.000000 0.000000 0.000000
    55 -10.636515 -6.522400 0.000000 0.000000 0.000000 0.000000
    56 -10.636515 -6.923766 0.000000 0.000000 0.000000 0.000000
  time 26
    0 -1.121254 3.154918 98.556877 0.000000 0.139556 -1.570845
    1 -0.277907 0.000000 1.978418 -1.570795 -1.570789 0.000000
    2 -0.000038 0.000045 30.106951 -0.062562 0.071754 -2.742095
    3 45.067032 0.000000 0.000000 0.000000 0.000000 -0.771016
    4 37.019344 0.000000 0.000000 3.232161 -0.029327 0.228459
    5 25.403788 10.611764 -16.050877 -1.570796 1.570012 0.000000
    6 24.861448 34.869259 0.000001 0.000000 0.000000 1.570796
    7 25.574053 10.573102 16.050816 1.570796 -1.570103 0.000000
    8 0.000045 -0.000038 -30.106951 -0.021024 -0.063440 -2.743649
    9 45.067020 -0.000005 -0.000001 0.000000 0.000000 -0.765200
    10 37.019344 -0.000001 -0.000003 3.127169 0.065257 0.227897
    11 25.574053 10.573101 16.050814 1.570796 -1.570016 0.000000
    12 24.861448 34.869255 0.000001 0.000000 0.000000 1.570796
    13 25.574053 10.573101 -16.050877 -1.570796 1.570016 0.000000
    14 9.204885 -3.523623 0.000019 -0.000005 -0.000001 0.026963
    15 19.817598 -0.017402 0.000000 0.000000 -0.000001 0.174444
    16 22.201139 -0.015314 0.000000 -0.000001 -0.000002 0.523333
    17 22.202543 -0.014382 0.000000 -0.000001 -0.000002 0.619278
    18 22.196161 -0.009349 0.000000 0.000000 -0.000001 0.392500
    19 12.681315 -0.005775 0.000000 -0.000010 0.000000 0.000000
    20 7.255789 0.000004 0.000000 0.000035 -0.000003 0.077702
    21 -1.009223 27.484282 0.143182 -0.000003 -0.000002 2.758613
    22 0.137550 0.410963 0.978475 0.000000 0.000000 0.000000
    23 -43.911976 16.262846 42.072151 0.725522 -1.306202 2.432817
    24 6.875020 -0.000021 0.000004 -1.382769 -0.431216 -1.252266
    25 54.119427 0.000001 -0.000004 0.000000 0.000000 -0.548889
    26 45.547333 -0.415088 -0.052964 0.211792 0.051268 2.183250
    27 -0.831112 0.138134 -0.044356 0.000000 0.000000 0.000000
    28 47.660465 14.868883 -1.061265 0.211792 0.051268 2.183250
    29 0.077091 -0.197589 0.012483 0.000000 0.000000 0.000000
    30 44.673550 -14.145038 -0.096680 0.211792 0.051268 2.183250
    31 -0.348508 -0.151030 -0.015645 0.000000 0.000000 0.000000
    32 -44.498070 16.660601 -40.351204 -0.725740 1.306153 2.432606
    33 6.875021 0.000001 0.000001 1.373002 0.427893 -1.270977
    34 54.119427 0.000001 0.000006 0.000000 0.000000 -0.548889
    35 44.812374 -14.970488 -0.313824 -0.194593 -0.054333 2.182341
    36 0.460155 -0.261734 -0.526475 0.000000 0.000000 0.000000
    37 47.957424 14.396824 -1.450205 -0.194593 -0.054333 2.182341
    38 0.784854 -1.145551 -0.483907 0.000000 0.000000 0.000000
    39 45.723511 -1.580466 -1.381208 -0.194593 -0.054333 2.182341
    40 0.128249 -0.403483 0.086672 0.000000 0.000000 0.000000
    41 -0.003153 -0.000621 0.001026 0.000000 0.000000 0.000000
    42 -4.054374 54.100746 1.121917 -0.000001 0.000002 -1.911759
    43 0.510548 0.168268 0.000000 0.000000 0.000000 0.000000
    44 -20.652090 26.216942 13.546794 0.000002 -0.000002 -1.710352
    45 0.345593 0.328704 1.416188 0.000000 0.000000 0.000000
    46 -5.019464 -13.448384 0.000000 0.000000 0.000000 0.000000
    47 -17.300318 -5.720577 -1.641911 0.000000 0.000000 0.000000
    48 -20.692247 26.147146 -11.763864 0.000002 -0.000002 -1.710352
    49 0.079524 0.174933 -0.740336 0.000000 0.000000 0.000000
    50 -4.830051 -13.448384 0.000000 0.000000 0.000000 0.000000
    51 -17.110901 -5.436459 1.517336 0.000000 0.000000 0.000000
    52 102.135239 -0.202557 0.669154 0.000001 -0.000002 -1.710352
    53 -0.533877 -1.386979 0.452617 0.000000 0.000000 0.000000
    54 -4.916881 -2.709306 0.000000 0.000000 0.000000 0.000000
    55 -10.636515 -6.522400 0.000000 0.000000 0.000000 0.000000
    56 -10.636515 -6.923766 0.000000 0.000000 0.000000 0.000000
end
