$modelname "lab1_door7.mdl"

$staticprop

$bodygroup "Body"
{
	studio "lab1_door7.smd"
}

$surfaceprop "metal"

$cdmaterials "models\lab\"

$sequence "idle" {
	"lab1_door7.smd"
	fadein 0.2
	fadeout 0.2
	fps 30
}

$collisionmodel "lab1_door7.smd"
{
	$mass 50
	$inertia 1
	$damping 0
	$rotdamping 0
	$convex
}
