version 1
nodes
0 "root" -1
end
skeleton
time 0
0 0 0 0 0 0 0
end
triangles
borked_crate
0  20.000000 3.580509 0.000000  -0.054773 -0.145455 -0.987848  0.133825 0.670023 0
0  24.000000 2.074261 0.000000  -0.054773 -0.145455 -0.987848  0.162510 0.686417 0
0  24.000000 -5.596118 1.129422  -0.054773 -0.145455 -0.987848  0.166667 0.731759 0
borked_crate
0  8.750000 -23.750000 1.882350  0.300466 -0.047222 -0.952623  0.083333 0.833333 0
0  3.371391 -20.000000 0.000000  0.300466 -0.047222 -0.952623  0.054657 0.807677 0
0  9.392118 -19.255173 1.862069  0.300466 -0.047222 -0.952623  0.083333 0.804795 0
borked_crate
0  23.750000 -8.750000 1.607675  -0.061912 -0.144840 -0.987516  0.166667 0.750000 0
0  24.000000 -5.596118 1.129422  -0.061912 -0.144840 -0.987516  0.166667 0.731759 0
0  24.000000 -8.714286 1.586763  -0.061912 -0.144840 -0.987516  0.168254 0.750000 0
borked_crate
0  8.750000 -23.750000 1.882350  0.285543 -0.354464 -0.890405  0.083333 0.833333 0
0  2.569843 -24.000000 0.000000  0.285543 -0.354464 -0.890405  0.054285 0.833653 0
0  2.634049 -23.948278 0.000000  0.285543 -0.354464 -0.890405  0.054622 0.833333 0
bcrate08.vmt.001
0  21.120001 -21.120001 2.879999  0.000000 1.000000 0.000000  0.000000 0.000000 0
0  17.600000 -21.120001 36.933716  0.000000 1.000000 0.000000  0.083333 0.806196 0
0  21.120001 -21.120001 36.918266  0.000000 1.000000 0.000000  0.000000 0.805830 0
bcrate08.vmt.001
0  21.120001 -21.120001 2.879999  -0.000000 0.000000 1.000000  1.000000 1.000000 0
0  -5.590595 -17.600000 2.879999  0.000000 0.000000 1.000000  0.367647 0.916667 0
0  -6.446703 -21.120001 2.879999  0.000000 0.000000 1.000000  0.347379 1.000000 0
bcrate08.vmt.001
0  21.120001 -21.120001 2.879999  -1.000000 0.000000 0.000000  1.000000 0.000000 0
0  21.120001 2.886138 6.400000  -1.000000 0.000000 0.000000  0.431673 0.083333 0
0  21.120001 3.682394 2.879999  -1.000000 0.000000 0.000000  0.412822 0.000000 0
bcrate08.vmt.001
0  17.600000 -21.120001 6.400000  0.928477 0.371391 0.000000  0.083333 0.083333 0
0  16.719999 -18.920002 37.803356  0.928476 0.371392 0.000000  0.104167 0.826784 0
0  17.600000 -21.120001 36.933716  0.928476 0.371392 0.000000  0.083333 0.806196 0
bcrate08.vmt.001
0  17.600000 -17.600000 2.879999  0.000000 -0.928477 0.371390  0.916667 0.916667 0
0  -4.424406 -16.719999 5.079998  0.000000 -0.928477 0.371391  0.395255 0.895833 0
0  -5.590595 -17.600000 2.879999  0.000000 -0.928477 0.371391  0.367647 0.916667 0
bcrate08.vmt.001
0  21.120001 -17.600000 6.400000  -0.371391 0.000000 -0.928477  0.916667 0.083333 0
0  18.920002 3.018482 7.280001  -0.371391 0.000000 -0.928476  0.428540 0.104167 0
0  21.120001 2.886138 6.400000  -0.371391 0.000000 -0.928477  0.431673 0.083333 0
bcrate08.vmt.001
0  24.000000 -24.000000 0.000000  0.000000 -1.000000 0.000000  0.000000 0.000000 0
0  20.000000 -24.000000 35.789803  0.000000 -1.000000 0.000000  0.083333 0.745621 0
0  20.000000 -24.000000 4.000000  0.000000 -1.000000 -0.000000  0.083333 0.083333 0
bcrate08.vmt.001
0  14.623963 -24.000000 0.000000  0.000000 0.000000 -1.000000  0.804666 1.000000 0
0  15.442987 -23.141548 0.000000  -0.000000 0.000000 -1.000000  0.821729 0.982115 0
0  24.000000 -24.000000 0.000000  -0.000000 0.000000 -1.000000  1.000000 1.000000 0
bcrate08.vmt.001
0  24.000000 -5.596118 1.129422  1.000000 -0.000000 0.000000  0.616586 0.023530 0
0  24.000000 4.225979 4.000000  1.000000 0.000000 0.000000  0.411959 0.083333 0
0  24.000000 -8.714286 1.586763  1.000000 0.000000 0.000000  0.681548 0.033058 0
bcrate08.vmt.001
0  20.000000 -24.000000 4.000000  -0.928477 -0.371391 0.000000  0.083333 0.083333 0
0  19.000000 -21.500002 36.778034  -0.928477 -0.371390 0.000000  0.104167 0.766209 0
0  19.000000 -21.500000 5.000000  -0.928477 -0.371391 0.000000  0.104167 0.104167 0
bcrate08.vmt.001
0  9.392118 -19.255173 1.862069  -0.000000 0.928476 -0.371391  0.695669 0.901149 0
0  -6.053852 -19.000000 2.500000  0.000000 0.928477 -0.371390  0.373878 0.895833 0
0  19.000000 -19.000000 2.500000  -0.000000 0.928477 -0.371390  0.895833 0.895833 0
bcrate08.vmt.001
0  24.000000 -20.000000 4.000000  0.371391 0.000000 0.928477  0.916667 0.083333 0
0  21.500000 3.247796 5.000000  0.371391 0.000000 0.928477  0.432338 0.104167 0
0  21.500000 -19.000000 5.000000  0.371391 0.000000 0.928477  0.895833 0.104167 0
bcrate08.vmt.001
0  21.120001 3.682394 2.879999  0.000000 0.000000 1.000000  1.000000 0.412822 0
0  17.600000 -17.600000 2.879999  -0.000000 0.000000 1.000000  0.916667 0.916667 0
0  21.120001 -21.120001 2.879999  -0.000000 0.000000 1.000000  1.000000 1.000000 0
bcrate08.vmt.001
0  19.000000 3.168156 2.500000  -0.928477 0.000000 -0.371391  0.895833 0.433997 0
0  19.327892 -9.381729 1.680267  -0.928477 0.000000 -0.371390  0.902664 0.695453 0
0  19.000000 -19.000000 2.500000  -0.928477 0.000000 -0.371391  0.895833 0.895833 0
borked_crate
0  21.500000 -0.571037 36.336182  0.126054 0.983693 0.128295  0.521440 0.333333 0
0  18.920004 0.719873 28.973173  0.126054 0.983693 0.128295  0.540563 0.250000 0
0  18.920002 -0.460771 38.025665  0.126054 0.983693 0.128295  0.538992 0.333333 0
borked_crate
0  21.499998 0.936580 27.816328  -0.101857 0.993955 -0.040967  0.523349 0.250000 0
0  18.920002 0.320524 19.284058  -0.101857 0.993955 -0.040967  0.541408 0.166667 0
0  18.920004 0.719873 28.973173  -0.101857 0.993955 -0.040967  0.540563 0.250000 0
bcrate08.vmt.001
0  2.569843 -24.000000 0.000000  0.000000 0.000000 -1.000000  0.553538 1.000000 0
0  -7.926674 -24.000000 0.000000  0.000000 0.000000 -1.000000  0.334861 1.000000 0
0  -6.985669 -20.000000 0.000000  0.000000 0.000000 -1.000000  0.354465 0.916667 0
bcrate08.vmt.001
0  24.000000 -20.000000 35.598930  1.000000 0.000000 0.000000  0.916667 0.741644 0
0  24.000000 -24.000000 0.000000  1.000000 0.000000 0.000000  1.000000 0.000000 0
0  24.000000 -20.000000 4.000000  1.000000 0.000000 0.000000  0.916667 0.083333 0
bcrate08.vmt.001
0  21.500002 1.416370 18.549141  1.000000 -0.000000 0.000000  0.470492 0.386440 0
0  21.500000 -12.517817 36.336365  1.000000 0.000000 0.000000  0.760788 0.757008 0
0  21.500000 -19.000000 5.000000  1.000000 0.000000 -0.000000  0.895833 0.104167 0
bcrate08.vmt.001
0  21.120001 -21.120001 36.918266  -1.000000 0.000000 0.000000  1.000000 0.805830 0
0  21.120001 -17.600000 6.400000  -1.000000 0.000000 0.000000  0.916667 0.083333 0
0  21.120001 -21.120001 2.879999  -1.000000 0.000000 0.000000  1.000000 0.000000 0
bcrate08.vmt.001
0  -6.446703 -21.120001 2.879999  -0.000000 1.000000 0.000001  0.652621 0.000000 0
0  17.600000 -21.120001 6.400000  -0.000000 1.000000 0.000000  0.083333 0.083333 0
0  21.120001 -21.120001 2.879999  0.000000 1.000000 0.000000  0.000000 0.000000 0
bcrate08.vmt.001
0  -5.945410 -21.500000 5.000000  0.000000 -0.371391 0.928477  0.623863 0.104167 0
0  20.000000 -24.000000 4.000000  0.000000 -0.371391 0.928477  0.083333 0.083333 0
0  19.000000 -21.500000 5.000000  0.000000 -0.371391 0.928477  0.104167 0.104167 0
bcrate08.vmt.001
0  21.500000 -19.000000 36.670052  0.371391 0.928477 0.000000  0.895833 0.763959 0
0  24.000000 -20.000000 4.000000  0.371391 0.928477 0.000000  0.916667 0.083333 0
0  21.500000 -19.000000 5.000000  0.371391 0.928477 0.000000  0.895833 0.104167 0
bcrate08.vmt.001
0  -5.458261 -21.120003 6.400000  0.000000 0.371391 -0.928476  0.629220 0.083333 0
0  16.719999 -18.920002 7.280001  0.000000 0.371391 -0.928477  0.104167 0.104167 0
0  17.600000 -21.120001 6.400000  0.000000 0.371391 -0.928477  0.083333 0.083333 0
borked_crate
0  24.000000 4.225979 4.000000  -0.269200 0.932834 0.239482  0.506605 0.040077 0
0  24.000000 5.252878 0.000000  -0.269200 0.932834 0.239482  0.506120 0.004311 0
0  21.120001 3.682394 2.879999  -0.269200 0.932834 0.239482  0.526023 0.027015 0
borked_crate
0  -6.985669 -20.000000 0.000000  -0.939484 0.221015 0.261766  0.312759 0.470271 0
0  -7.926674 -24.000000 0.000000  -0.939484 0.221015 0.261766  0.311802 0.497016 0
0  -6.446703 -21.120001 2.879999  -0.939484 0.221015 0.261766  0.295455 0.477144 0
borked_crate
0  0.221891 -12.331187 42.920002  -0.949973 -0.082070 -0.301356  0.011010 0.416667 0
0  -1.331668 -3.822035 45.500000  -0.949973 -0.082070 -0.301356  0.024480 0.364014 0
0  -0.929642 0.998013 42.920002  -0.949973 -0.082070 -0.301356  0.053682 0.333333 0
borked_crate
0  20.000000 -24.000000 35.789803  0.004080 -0.366194 0.930529  0.800327 0.172664 0
0  24.000000 -24.000000 35.772263  0.004080 -0.366194 0.930529  0.825946 0.173547 0
0  21.120001 -21.120001 36.918266  0.004080 -0.366194 0.930529  0.806182 0.193280 0
borked_crate
0  1.280343 -1.281724 5.079997  -0.299361 0.952636 -0.053553  0.666667 0.027293 0
0  12.555169 2.116297 2.500000  -0.299361 0.952636 -0.053553  0.583333 0.015148 0
0  1.390909 -1.392015 2.500000  -0.299361 0.952636 -0.053553  0.666667 0.007688 0
borked_crate
0  -3.686838 -21.500002 20.905586  -0.906763 0.407484 0.108339  0.166667 0.477378 0
0  -1.222264 -18.920002 31.829447  -0.906763 0.407484 0.108339  0.083333 0.459541 0
0  -2.475310 -18.920002 21.341812  -0.906763 0.407484 0.108339  0.166667 0.459676 0
borked_crate
0  23.190599 -14.903408 0.000000  -0.052541 0.256900 -0.965009  0.166667 0.787293 0
0  19.327892 -9.381729 1.680267  -0.052541 0.256900 -0.965009  0.138590 0.750000 0
0  23.750000 -8.750000 1.607675  -0.052541 0.256900 -0.965009  0.166667 0.750000 0
borked_crate
0  9.392118 -19.255173 1.862069  -0.273500 0.034734 -0.961245  0.083333 0.804795 0
0  15.442987 -23.141548 0.000000  -0.273500 0.034734 -0.961245  0.123897 0.833333 0
0  8.750000 -23.750000 1.882350  -0.273500 0.034734 -0.961245  0.083333 0.833333 0
bcrate08.vmt.001
0  1.280343 -1.281724 5.079997  -0.000000 0.000000 1.000000  0.530311 0.530344 0
0  -2.887325 -12.350534 5.079998  0.000000 0.000000 1.000000  0.431645 0.792389 0
0  16.719999 -16.719999 5.079998  -0.000000 0.000000 1.000000  0.895833 0.895833 0
bcrate08.vmt.001
0  0.883391 -16.719999 42.920002  0.000002 -0.928477 -0.371390  0.520914 0.895833 0
0  -0.091121 -16.882561 43.326408  0.000002 -0.928477 -0.371390  0.497843 0.899682 0
0  -0.070105 -16.719999 42.919998  0.000002 -0.928477 -0.371390  0.498340 0.895833 0
bcrate08.vmt.001
0  14.623963 -24.000000 0.000000  0.000000 -1.000000 -0.000001  0.195334 0.000000 0
0  24.000000 -24.000000 0.000000  0.000000 -1.000000 0.000000  0.000000 0.000000 0
0  20.000000 -24.000000 4.000000  0.000000 -1.000000 -0.000000  0.083333 0.083333 0
bcrate08.vmt.001
0  1.390909 -1.392015 2.500000  -0.000000 -0.000000 -1.000000  0.528977 0.529000 0
0  12.555169 2.116297 2.500000  0.000000 -0.000000 -1.000000  0.761566 0.455910 0
0  19.000000 -19.000000 2.500000  0.000000 -0.000000 -1.000000  0.895833 0.895833 0
borked_crate
0  15.442987 -23.141548 0.000000  -0.283353 0.270338 -0.920124  0.123897 0.833333 0
0  8.714286 -24.000000 1.819896  -0.283353 0.270338 -0.920124  0.083333 0.834921 0
0  8.750000 -23.750000 1.882350  -0.283353 0.270338 -0.920124  0.083333 0.833333 0
bcrate08.vmt.001
0  -0.607710 -21.120001 41.599998  0.000001 1.000000 -0.000011  0.514387 0.916667 0
0  -0.609781 -21.119999 42.415737  0.000001 1.000000 -0.000011  0.514436 0.935979 0
0  1.154651 -21.120003 41.599998  0.000001 1.000000 -0.000011  0.472665 0.916667 0
bcrate08.vmt.001
0  12.359919 -18.920004 37.822479  -0.000000 1.000000 0.000000  0.207388 0.827237 0
0  -2.475310 -18.920002 21.341812  0.000000 1.000000 -0.000000  0.558601 0.437069 0
0  -1.222264 -18.920002 31.829447  0.000000 1.000000 -0.000000  0.528936 0.685356 0
bcrate08.vmt.001
0  -3.686838 -21.500002 20.905586  0.000000 -1.000000 0.000000  0.576809 0.435533 0
0  -4.010527 -21.500000 10.461420  -0.000000 -1.000000 0.000000  0.583552 0.217946 0
0  19.000000 -21.500000 5.000000  -0.000000 -1.000000 0.000000  0.104167 0.104167 0
borked_crate
0  24.000000 -8.714286 1.586763  -0.117437 0.261018 -0.958164  0.168254 0.750000 0
0  23.190599 -14.903408 0.000000  -0.117437 0.261018 -0.958164  0.166667 0.787293 0
0  23.750000 -8.750000 1.607675  -0.117437 0.261018 -0.958164  0.166667 0.750000 0
borked_crate
0  8.168930 0.329786 45.500000  0.378124 -0.281641 0.881873  0.724236 0.333333 0
0  0.217937 -10.344974 45.500000  0.378124 -0.281641 0.881873  0.666667 0.261876 0
0  4.705871 -12.398081 42.920002  0.378124 -0.281641 0.881873  0.695706 0.250000 0
borked_crate
0  -2.887325 -12.350534 5.079998  -0.847817 0.410131 0.336154  0.284917 0.416667 0
0  1.390909 -1.392015 2.500000  -0.847817 0.410131 0.336154  0.325645 0.333333 0
0  -3.842942 -12.211342 2.500000  -0.847817 0.410131 0.336154  0.299688 0.416667 0
borked_crate
0  21.500002 1.416370 18.549141  -0.301530 0.907022 0.293921  0.523774 0.166667 0
0  18.920002 3.437109 9.666492  -0.301530 0.907022 0.293921  0.539966 0.083333 0
0  18.920002 0.320524 19.284058  -0.301530 0.907022 0.293921  0.541408 0.166667 0
borked_crate
0  11.575386 -0.082209 42.920002  0.085973 0.995262 -0.045418  0.588365 0.333333 0
0  -1.025177 1.124000 45.500000  0.085973 0.995262 -0.045418  0.666667 0.293864 0
0  8.168930 0.329786 45.500000  0.085973 0.995262 -0.045418  0.609097 0.333333 0
bcrate08.vmt.001
0  1.154651 -21.120003 41.599998  0.000000 0.371389 0.928477  0.472665 0.916667 0
0  -0.334995 -18.920002 40.720001  0.000000 0.371390 0.928477  0.507931 0.895833 0
0  -0.607710 -21.120001 41.599998  0.000000 0.371389 0.928477  0.514387 0.916667 0
borked_crate
0  21.500000 -12.517817 36.336365  0.409683 -0.040023 0.911350  0.810145 0.250000 0
0  18.920002 -0.460771 38.025665  0.409683 -0.040023 0.911350  0.794341 0.333333 0
0  18.920002 -12.531258 37.495575  0.409683 -0.040023 0.911350  0.792655 0.250000 0
bcrate08.vmt.001
0  17.599998 2.666585 2.879999  0.928477 0.000000 0.371391  0.916667 0.436871 0
0  16.719999 -16.719999 5.079998  0.928477 0.000000 0.371391  0.895833 0.895833 0
0  17.600000 -17.600000 2.879999  0.928477 0.000000 0.371391  0.916667 0.916667 0
borked_crate
0  -4.010527 -21.500000 10.461420  -0.933939 0.354224 0.047783  0.250000 0.477354 0
0  -2.475310 -18.920002 21.341812  -0.933939 0.354224 0.047783  0.166667 0.459676 0
0  -3.021251 -18.920002 10.671215  -0.933939 0.354224 0.047783  0.250000 0.459603 0
bcrate08.vmt.001
0  18.920002 -12.531258 37.495575  -1.000000 -0.000000 -0.000000  0.796668 0.819497 0
0  18.920002 0.320524 19.284058  -1.000000 0.000000 0.000000  0.492412 0.388354 0
0  18.920002 -16.719999 7.280001  -1.000000 0.000000 0.000000  0.895833 0.104167 0
bcrate08.vmt.001
0  8.168930 0.329786 45.500000  0.000000 0.000000 1.000000  0.670186 0.493129 0
0  -1.331668 -3.822035 45.500000  0.000000 0.000000 1.000000  0.472257 0.579626 0
0  0.217937 -10.344974 45.500000  0.000000 0.000000 1.000000  0.504540 0.715520 0
bcrate08.vmt.001
0  21.120001 -17.600000 36.768616  -0.371392 -0.928476 0.000000  0.916667 0.802287 0
0  18.920002 -16.719999 7.280001  -0.371391 -0.928477 0.000000  0.895833 0.104167 0
0  21.120001 -17.600000 6.400000  -0.371391 -0.928477 0.000000  0.916667 0.083333 0
borked_crate
0  -0.656293 -21.500000 42.334072  -0.977244 0.207740 0.042862  0.000000 0.475081 0
0  -0.607710 -21.120001 41.599998  -0.977244 0.207740 0.042862  0.006111 0.472716 0
0  -1.151524 -21.500000 31.042923  -0.977244 0.207740 0.042862  0.083333 0.476703 0
borked_crate
0  0.221891 -12.331187 42.920002  -0.981421 0.082944 0.173011  0.011010 0.416667 0
0  -0.091121 -16.882561 43.326408  -0.981421 0.082944 0.173011  0.000000 0.445733 0
0  0.468641 -12.309319 44.309242  -0.981421 0.082944 0.173011  0.000000 0.416667 0
bcrate08.vmt.001
0  0.221891 -12.331187 42.920002  -0.000001 0.000000 -1.000000  0.505253 0.791931 0
0  4.705871 -12.398081 42.920002  -0.000001 0.000000 -1.000000  0.611408 0.793515 0
0  0.883391 -16.719999 42.920002  0.000005 0.000000 -1.000000  0.520914 0.895833 0
bcrate08.vmt.001
0  20.000000 4.098553 0.000000  0.000000 0.000000 -1.000000  0.916667 0.414614 0
0  24.000000 2.074261 0.000000  0.000000 0.000000 -1.000000  1.000000 0.456786 0
0  20.000000 3.580509 0.000000  0.000000 0.000000 -1.000000  0.916667 0.425406 0
bcrate08.vmt.001
0  23.190599 -14.903408 0.000000  -0.000000 0.000000 -1.000000  0.983137 0.810487 0
0  24.000000 -24.000000 0.000000  -0.000000 0.000000 -1.000000  1.000000 1.000000 0
0  20.000000 -20.000000 0.000000  0.000000 -0.000000 -1.000000  0.916667 0.916667 0
borked_crate
0  12.251096 -21.500000 36.807629  0.383190 -0.195460 0.902752  0.750000 0.188230 0
0  4.350014 -18.920002 40.720001  0.383190 -0.195460 0.902752  0.698170 0.206766 0
0  1.154651 -21.120003 41.599998  0.383190 -0.195460 0.902752  0.678359 0.193490 0
borked_crate
0  -0.091121 -16.882561 43.326408  0.298344 -0.235308 0.924998  0.666667 0.220933 0
0  4.705871 -12.398081 42.920002  0.298344 -0.235308 0.924998  0.695706 0.250000 0
0  0.468641 -12.309319 44.309242  0.298344 -0.235308 0.924998  0.666667 0.250000 0
borked_crate
0  24.000000 -5.596118 1.129422  0.005247 -0.150330 -0.988622  0.166667 0.731759 0
0  23.750000 -8.750000 1.607675  0.005247 -0.150330 -0.988622  0.166667 0.750000 0
0  19.327892 -9.381729 1.680267  0.005247 -0.150330 -0.988622  0.138590 0.750000 0
borked_crate
0  19.327892 -9.381729 1.680267  -0.013322 -0.127862 -0.991703  0.138590 0.750000 0
0  20.000000 3.580509 0.000000  -0.013322 -0.127862 -0.991703  0.133825 0.670023 0
0  24.000000 -5.596118 1.129422  -0.013322 -0.127862 -0.991703  0.166667 0.731759 0
borked_crate
0  8.750000 -23.750000 1.882350  0.295345 -0.055156 -0.953797  0.083333 0.833333 0
0  2.634049 -23.948278 0.000000  0.295345 -0.055156 -0.953797  0.054622 0.833333 0
0  3.371391 -20.000000 0.000000  0.295345 -0.055156 -0.953797  0.054657 0.807677 0
borked_crate
0  8.750000 -23.750000 1.882350  0.278533 0.195136 -0.940394  0.083333 0.833333 0
0  8.714286 -24.000000 1.819896  0.278533 0.195136 -0.940394  0.083333 0.834921 0
0  2.569843 -24.000000 0.000000  0.278533 0.195136 -0.940394  0.054285 0.833653 0
bcrate08.vmt.001
0  21.120001 -21.120001 2.879999  0.000000 1.000000 0.000000  0.000000 0.000000 0
0  17.600000 -21.120001 6.400000  -0.000000 1.000000 0.000000  0.083333 0.083333 0
0  17.600000 -21.120001 36.933716  0.000000 1.000000 0.000000  0.083333 0.806196 0
bcrate08.vmt.001
0  21.120001 -21.120001 2.879999  -0.000000 0.000000 1.000000  1.000000 1.000000 0
0  17.600000 -17.600000 2.879999  -0.000000 0.000000 1.000000  0.916667 0.916667 0
0  -5.590595 -17.600000 2.879999  0.000000 0.000000 1.000000  0.367647 0.916667 0
bcrate08.vmt.001
0  21.120001 -21.120001 2.879999  -1.000000 0.000000 0.000000  1.000000 0.000000 0
0  21.120001 -17.600000 6.400000  -1.000000 0.000000 0.000000  0.916667 0.083333 0
0  21.120001 2.886138 6.400000  -1.000000 0.000000 0.000000  0.431673 0.083333 0
bcrate08.vmt.001
0  17.600000 -21.120001 6.400000  0.928477 0.371391 0.000000  0.083333 0.083333 0
0  16.719999 -18.920002 7.280001  0.928477 0.371391 0.000000  0.104167 0.104167 0
0  16.719999 -18.920002 37.803356  0.928476 0.371392 0.000000  0.104167 0.826784 0
bcrate08.vmt.001
0  17.600000 -17.600000 2.879999  0.000000 -0.928477 0.371390  0.916667 0.916667 0
0  16.719999 -16.719999 5.079998  0.000000 -0.928477 0.371390  0.895833 0.895833 0
0  -4.424406 -16.719999 5.079998  0.000000 -0.928477 0.371391  0.395255 0.895833 0
bcrate08.vmt.001
0  21.120001 -17.600000 6.400000  -0.371391 0.000000 -0.928477  0.916667 0.083333 0
0  18.920002 -16.719999 7.280001  -0.371391 0.000000 -0.928477  0.895833 0.104167 0
0  18.920002 3.018482 7.280001  -0.371391 0.000000 -0.928476  0.428540 0.104167 0
bcrate08.vmt.001
0  24.000000 -24.000000 0.000000  0.000000 -1.000000 0.000000  0.000000 0.000000 0
0  24.000000 -24.000000 35.772263  0.000000 -1.000000 0.000000  0.000000 0.745255 0
0  20.000000 -24.000000 35.789803  0.000000 -1.000000 0.000000  0.083333 0.745621 0
bcrate08.vmt.001
0  20.000000 -20.000000 0.000000  0.000000 -0.000000 -1.000000  0.916667 0.916667 0
0  24.000000 -24.000000 0.000000  -0.000000 0.000000 -1.000000  1.000000 1.000000 0
0  15.442987 -23.141548 0.000000  -0.000000 0.000000 -1.000000  0.821729 0.982115 0
bcrate08.vmt.001
0  15.442987 -23.141548 0.000000  -0.000000 0.000000 -1.000000  0.821729 0.982115 0
0  15.841961 -20.000000 0.000000  0.000000 -0.000000 -1.000000  0.830041 0.916667 0
0  20.000000 -20.000000 0.000000  0.000000 -0.000000 -1.000000  0.916667 0.916667 0
bcrate08.vmt.001
0  24.000000 -20.000000 4.000000  1.000000 0.000000 0.000000  0.916667 0.083333 0
0  24.000000 -24.000000 0.000000  1.000000 0.000000 0.000000  1.000000 0.000000 0
0  24.000000 -14.539238 0.000000  1.000000 -0.000000 0.000000  0.802901 0.000000 0
bcrate08.vmt.001
0  24.000000 -20.000000 4.000000  1.000000 0.000000 0.000000  0.916667 0.083333 0
0  24.000000 -14.539238 0.000000  1.000000 -0.000000 0.000000  0.802901 0.000000 0
0  24.000000 -8.714286 1.586763  1.000000 0.000000 0.000000  0.681548 0.033058 0
bcrate08.vmt.001
0  24.000000 5.252878 0.000000  1.000000 0.000000 0.000000  0.390565 0.000000 0
0  24.000000 4.225979 4.000000  1.000000 0.000000 0.000000  0.411959 0.083333 0
0  24.000000 2.074261 0.000000  1.000000 0.000000 0.000000  0.456786 0.000000 0
bcrate08.vmt.001
0  24.000000 -5.596118 1.129422  1.000000 -0.000000 0.000000  0.616586 0.023530 0
0  24.000000 2.074261 0.000000  1.000000 0.000000 0.000000  0.456786 0.000000 0
0  24.000000 4.225979 4.000000  1.000000 0.000000 0.000000  0.411959 0.083333 0
bcrate08.vmt.001
0  24.000000 -20.000000 4.000000  1.000000 0.000000 0.000000  0.916667 0.083333 0
0  24.000000 -8.714286 1.586763  1.000000 0.000000 0.000000  0.681548 0.033058 0
0  24.000000 4.225979 4.000000  1.000000 0.000000 0.000000  0.411959 0.083333 0
bcrate08.vmt.001
0  20.000000 -24.000000 4.000000  -0.928477 -0.371391 0.000000  0.083333 0.083333 0
0  20.000000 -24.000000 35.789803  -0.928477 -0.371390 0.000000  0.083333 0.745621 0
0  19.000000 -21.500002 36.778034  -0.928477 -0.371390 0.000000  0.104167 0.766209 0
bcrate08.vmt.001
0  19.000000 -19.000000 2.500000  -0.000000 0.928477 -0.371390  0.895833 0.895833 0
0  20.000000 -20.000000 0.000000  0.000000 0.928477 -0.371390  0.916667 0.916667 0
0  15.841961 -20.000000 0.000000  -0.000000 0.928477 -0.371390  0.830041 0.916667 0
bcrate08.vmt.001
0  9.392118 -19.255173 1.862069  -0.000000 0.928476 -0.371391  0.695669 0.901149 0
0  3.371391 -20.000000 0.000000  0.000000 0.928477 -0.371391  0.570237 0.916667 0
0  -6.053852 -19.000000 2.500000  0.000000 0.928477 -0.371390  0.373878 0.895833 0
bcrate08.vmt.001
0  19.000000 -19.000000 2.500000  -0.000000 0.928477 -0.371390  0.895833 0.895833 0
0  15.841961 -20.000000 0.000000  -0.000000 0.928477 -0.371390  0.830041 0.916667 0
0  9.392118 -19.255173 1.862069  -0.000000 0.928476 -0.371391  0.695669 0.901149 0
bcrate08.vmt.001
0  3.371391 -20.000000 0.000000  0.000000 0.928477 -0.371391  0.570237 0.916667 0
0  -6.985669 -20.000000 0.000000  0.000000 0.928477 -0.371390  0.354465 0.916667 0
0  -6.053852 -19.000000 2.500000  0.000000 0.928477 -0.371390  0.373878 0.895833 0
bcrate08.vmt.001
0  24.000000 -20.000000 4.000000  0.371391 0.000000 0.928477  0.916667 0.083333 0
0  24.000000 4.225979 4.000000  0.371391 0.000000 0.928477  0.411959 0.083333 0
0  21.500000 3.247796 5.000000  0.371391 0.000000 0.928477  0.432338 0.104167 0
bcrate08.vmt.001
0  21.120001 3.682394 2.879999  0.000000 0.000000 1.000000  1.000000 0.412822 0
0  17.599998 2.666585 2.879999  0.000000 0.000000 1.000000  0.916667 0.436871 0
0  17.600000 -17.600000 2.879999  -0.000000 0.000000 1.000000  0.916667 0.916667 0
bcrate08.vmt.001
0  19.000000 3.168156 2.500000  -0.928477 0.000000 -0.371391  0.895833 0.433997 0
0  20.000000 4.098553 0.000000  -0.928477 0.000000 -0.371391  0.916667 0.414614 0
0  20.000000 3.580509 0.000000  -0.928477 0.000000 -0.371391  0.916667 0.425406 0
bcrate08.vmt.001
0  19.327892 -9.381729 1.680267  -0.928477 0.000000 -0.371390  0.902664 0.695453 0
0  20.000000 -15.555951 0.000000  -0.928477 0.000000 -0.371391  0.916667 0.824082 0
0  19.000000 -19.000000 2.500000  -0.928477 0.000000 -0.371391  0.895833 0.895833 0
bcrate08.vmt.001
0  19.000000 3.168156 2.500000  -0.928477 0.000000 -0.371391  0.895833 0.433997 0
0  20.000000 3.580509 0.000000  -0.928477 0.000000 -0.371391  0.916667 0.425406 0
0  19.327892 -9.381729 1.680267  -0.928477 0.000000 -0.371390  0.902664 0.695453 0
bcrate08.vmt.001
0  20.000000 -15.555951 0.000000  -0.928477 0.000000 -0.371391  0.916667 0.824082 0
0  20.000000 -20.000000 0.000000  -0.928477 0.000000 -0.371391  0.916667 0.916667 0
0  19.000000 -19.000000 2.500000  -0.928477 0.000000 -0.371391  0.895833 0.895833 0
borked_crate
0  21.500000 -0.571037 36.336182  -0.004579 0.984692 0.174245  0.521440 0.333333 0
0  21.499998 0.936580 27.816328  -0.004579 0.984692 0.174245  0.523349 0.250000 0
0  18.920004 0.719873 28.973173  -0.004579 0.984692 0.174245  0.540563 0.250000 0
borked_crate
0  21.499998 0.936580 27.816328  -0.378918 0.924192 0.047848  0.523349 0.250000 0
0  21.500002 1.416370 18.549141  -0.378918 0.924192 0.047848  0.523774 0.166667 0
0  18.920002 0.320524 19.284058  -0.378918 0.924192 0.047848  0.541408 0.166667 0
bcrate08.vmt.001
0  -6.985669 -20.000000 0.000000  0.000000 0.000000 -1.000000  0.354465 0.916667 0
0  3.371391 -20.000000 0.000000  0.000000 0.000000 -1.000000  0.570237 0.916667 0
0  2.569843 -24.000000 0.000000  0.000000 0.000000 -1.000000  0.553538 1.000000 0
bcrate08.vmt.001
0  2.634049 -23.948278 0.000000  0.000000 0.000000 -1.000000  0.554876 0.998922 0
0  2.569843 -24.000000 0.000000  0.000000 0.000000 -1.000000  0.553538 1.000000 0
0  3.371391 -20.000000 0.000000  0.000000 0.000000 -1.000000  0.570237 0.916667 0
bcrate08.vmt.001
0  24.000000 -20.000000 35.598930  1.000000 0.000000 0.000000  0.916667 0.741644 0
0  24.000000 -24.000000 35.772263  1.000000 0.000000 0.000000  1.000000 0.745255 0
0  24.000000 -24.000000 0.000000  1.000000 0.000000 0.000000  1.000000 0.000000 0
bcrate08.vmt.001
0  21.500000 -19.000000 5.000000  1.000000 0.000000 -0.000000  0.895833 0.104167 0
0  21.500000 3.247796 5.000000  1.000000 0.000000 0.000000  0.432338 0.104167 0
0  21.500000 3.390688 9.254639  1.000000 -0.000000 -0.000000  0.429361 0.192805 0
bcrate08.vmt.001
0  21.500002 1.416370 18.549141  1.000000 -0.000000 0.000000  0.470492 0.386440 0
0  21.499998 0.936580 27.816328  1.000000 0.000000 0.000000  0.480488 0.579507 0
0  21.500000 -12.517817 36.336365  1.000000 0.000000 0.000000  0.760788 0.757008 0
bcrate08.vmt.001
0  21.500000 -19.000000 5.000000  1.000000 0.000000 -0.000000  0.895833 0.104167 0
0  21.500000 3.390688 9.254639  1.000000 -0.000000 -0.000000  0.429361 0.192805 0
0  21.500002 1.416370 18.549141  1.000000 -0.000000 0.000000  0.470492 0.386440 0
bcrate08.vmt.001
0  21.500000 -12.517817 36.336365  1.000000 0.000000 0.000000  0.760788 0.757008 0
0  21.500000 -19.000000 36.670052  1.000000 0.000001 0.000000  0.895833 0.763959 0
0  21.500000 -19.000000 5.000000  1.000000 0.000000 -0.000000  0.895833 0.104167 0
bcrate08.vmt.001
0  21.499998 0.936580 27.816328  1.000000 0.000000 0.000000  0.480488 0.579507 0
0  21.500000 -0.571037 36.336182  1.000000 0.000000 -0.000000  0.511897 0.757004 0
0  21.500000 -12.517817 36.336365  1.000000 0.000000 0.000000  0.760788 0.757008 0
bcrate08.vmt.001
0  21.120001 -21.120001 36.918266  -1.000000 0.000000 0.000000  1.000000 0.805830 0
0  21.120001 -17.600000 36.768616  -1.000000 0.000000 0.000000  0.916667 0.802287 0
0  21.120001 -17.600000 6.400000  -1.000000 0.000000 0.000000  0.916667 0.083333 0
bcrate08.vmt.001
0  -6.446703 -21.120001 2.879999  -0.000000 1.000000 0.000001  0.652621 0.000000 0
0  -5.458261 -21.120003 6.400000  -0.000000 1.000000 0.000002  0.629220 0.083333 0
0  17.600000 -21.120001 6.400000  -0.000000 1.000000 0.000000  0.083333 0.083333 0
bcrate08.vmt.001
0  -5.945410 -21.500000 5.000000  0.000000 -0.371391 0.928477  0.623863 0.104167 0
0  -6.812162 -24.000000 4.000000  0.000000 -0.371391 0.928477  0.641920 0.083333 0
0  20.000000 -24.000000 4.000000  0.000000 -0.371391 0.928477  0.083333 0.083333 0
bcrate08.vmt.001
0  21.500000 -19.000000 36.670052  0.371391 0.928477 0.000000  0.895833 0.763959 0
0  24.000000 -20.000000 35.598930  0.371391 0.928477 0.000000  0.916667 0.741644 0
0  24.000000 -20.000000 4.000000  0.371391 0.928477 0.000000  0.916667 0.083333 0
bcrate08.vmt.001
0  -5.458261 -21.120003 6.400000  0.000000 0.371391 -0.928476  0.629220 0.083333 0
0  -4.341699 -18.920002 7.280001  0.000000 0.371391 -0.928476  0.602786 0.104167 0
0  16.719999 -18.920002 7.280001  0.000000 0.371391 -0.928477  0.104167 0.104167 0
borked_crate
0  21.500000 3.247796 5.000000  -0.269200 0.932834 0.239483  0.523719 0.046117 0
0  24.000000 4.225979 4.000000  -0.269200 0.932834 0.239483  0.506605 0.040077 0
0  21.120001 3.682394 2.879999  -0.269200 0.932834 0.239483  0.526023 0.027015 0
borked_crate
0  24.000000 5.252878 0.000000  -0.269199 0.932835 0.239483  0.506120 0.004311 0
0  20.000000 4.098553 0.000000  -0.269199 0.932835 0.239483  0.533230 0.000692 0
0  21.120001 3.682394 2.879999  -0.269199 0.932835 0.239483  0.526023 0.027015 0
borked_crate
0  12.555169 2.116297 2.500000  -0.009858 0.984913 -0.172768  0.583333 0.015148 0
0  12.463875 2.567952 5.079998  -0.009858 0.984913 -0.172768  0.583333 0.036525 0
0  16.719999 2.610552 5.079998  -0.009858 0.984913 -0.172768  0.555512 0.041313 0
borked_crate
0  12.555169 2.116297 2.500000  -0.107115 0.994092 -0.017527  0.583333 0.015148 0
0  16.719999 2.610552 5.079998  -0.107115 0.994092 -0.017527  0.555512 0.041313 0
0  17.599998 2.666585 2.879999  -0.107115 0.994092 -0.017527  0.549909 0.023451 0
borked_crate
0  19.000000 3.168156 2.500000  -0.131388 0.805023 0.578511  0.540357 0.021551 0
0  12.555169 2.116297 2.500000  -0.131388 0.805023 0.578511  0.583333 0.015148 0
0  17.599998 2.666585 2.879999  -0.131388 0.805023 0.578511  0.549909 0.023451 0
borked_crate
0  19.000000 3.168156 2.500000  -0.269199 0.932834 0.239483  0.540357 0.021551 0
0  17.599998 2.666585 2.879999  -0.269199 0.932834 0.239483  0.549909 0.023451 0
0  21.120001 3.682394 2.879999  -0.269199 0.932834 0.239483  0.526023 0.027015 0
borked_crate
0  18.920002 3.018482 7.280001  -0.009858 0.984913 -0.172769  0.540569 0.062799 0
0  18.920002 3.437109 9.666492  -0.009858 0.984913 -0.172769  0.539966 0.083333 0
0  21.500000 3.390688 9.254639  -0.009858 0.984913 -0.172769  0.523155 0.083333 0
borked_crate
0  21.120001 2.886138 6.400000  -0.009859 0.984913 -0.172768  0.526390 0.057963 0
0  18.920002 3.018482 7.280001  -0.009859 0.984913 -0.172768  0.540569 0.062799 0
0  21.500000 3.390688 9.254639  -0.009859 0.984913 -0.172768  0.523155 0.083333 0
borked_crate
0  21.120001 2.886138 6.400000  -0.732146 0.680764 -0.022864  0.526390 0.057963 0
0  21.500000 3.390688 9.254639  -0.732146 0.680764 -0.022864  0.523155 0.083333 0
0  21.500000 3.247796 5.000000  -0.732146 0.680764 -0.022864  0.523719 0.046117 0
borked_crate
0  20.000000 4.098553 0.000000  -0.269199 0.932835 0.239483  0.533230 0.000692 0
0  19.000000 3.168156 2.500000  -0.269199 0.932835 0.239483  0.540357 0.021551 0
0  21.120001 3.682394 2.879999  -0.269199 0.932835 0.239483  0.526023 0.027015 0
borked_crate
0  21.120001 3.682394 2.879999  -0.114652 0.968925 0.219180  0.526023 0.027015 0
0  21.120001 2.886138 6.400000  -0.114652 0.968925 0.219180  0.526390 0.057963 0
0  21.500000 3.247796 5.000000  -0.114652 0.968925 0.219180  0.523719 0.046117 0
borked_crate
0  -6.053852 -19.000000 2.500000  -0.939485 0.221013 0.261766  0.298392 0.463068 0
0  -6.985669 -20.000000 0.000000  -0.939485 0.221013 0.261766  0.312759 0.470271 0
0  -6.446703 -21.120001 2.879999  -0.939485 0.221013 0.261766  0.295455 0.477144 0
borked_crate
0  -7.926674 -24.000000 0.000000  -0.939484 0.221015 0.261767  0.311802 0.497016 0
0  -6.812162 -24.000000 4.000000  -0.939484 0.221015 0.261767  0.287695 0.496117 0
0  -6.446703 -21.120001 2.879999  -0.939484 0.221015 0.261767  0.295455 0.477144 0
borked_crate
0  -4.010527 -21.500000 10.461420  -0.885490 0.311496 0.344786  0.250000 0.477354 0
0  -3.021251 -18.920002 10.671215  -0.885490 0.311496 0.344786  0.250000 0.459603 0
0  -4.341699 -18.920002 7.280001  -0.885490 0.311496 0.344786  0.270114 0.460932 0
borked_crate
0  -4.010527 -21.500000 10.461420  -0.885490 0.311496 0.344786  0.250000 0.477354 0
0  -4.341699 -18.920002 7.280001  -0.885490 0.311496 0.344786  0.270114 0.460932 0
0  -5.458261 -21.120003 6.400000  -0.885490 0.311496 0.344786  0.274632 0.476379 0
borked_crate
0  -5.945410 -21.500000 5.000000  -0.942366 -0.021936 0.333863  0.282743 0.479224 0
0  -4.010527 -21.500000 10.461420  -0.942366 -0.021936 0.333863  0.250000 0.477354 0
0  -5.458261 -21.120003 6.400000  -0.942366 -0.021936 0.333863  0.274632 0.476379 0
borked_crate
0  -5.945410 -21.500000 5.000000  -0.936558 0.231721 0.262993  0.282743 0.479224 0
0  -5.458261 -21.120003 6.400000  -0.936558 0.231721 0.262993  0.274632 0.476379 0
0  -6.446703 -21.120001 2.879999  -0.936558 0.231721 0.262993  0.295455 0.477144 0
borked_crate
0  -4.424406 -16.719999 5.079998  -0.885490 0.311496 0.344786  0.283818 0.446689 0
0  -2.887325 -12.350534 5.079998  -0.885490 0.311496 0.344786  0.284917 0.416667 0
0  -3.842942 -12.211342 2.500000  -0.885490 0.311496 0.344786  0.299688 0.416667 0
borked_crate
0  -5.590595 -17.600000 2.879999  -0.885490 0.311496 0.344787  0.296607 0.453594 0
0  -4.424406 -16.719999 5.079998  -0.885490 0.311496 0.344787  0.283818 0.446689 0
0  -3.842942 -12.211342 2.500000  -0.885490 0.311496 0.344787  0.299688 0.416667 0
borked_crate
0  -5.590595 -17.600000 2.879999  -0.950686 0.309616 0.018287  0.296607 0.453594 0
0  -3.842942 -12.211342 2.500000  -0.950686 0.309616 0.018287  0.299688 0.416667 0
0  -6.053852 -19.000000 2.500000  -0.950686 0.309616 0.018287  0.298392 0.463068 0
borked_crate
0  -6.812162 -24.000000 4.000000  -0.939485 0.221014 0.261765  0.287695 0.496117 0
0  -5.945410 -21.500000 5.000000  -0.939485 0.221014 0.261765  0.282743 0.479224 0
0  -6.446703 -21.120001 2.879999  -0.939485 0.221014 0.261765  0.295455 0.477144 0
borked_crate
0  -6.446703 -21.120001 2.879999  -0.927073 0.225476 0.299493  0.295455 0.477144 0
0  -5.590595 -17.600000 2.879999  -0.927073 0.225476 0.299493  0.296607 0.453594 0
0  -6.053852 -19.000000 2.500000  -0.927073 0.225476 0.299493  0.298392 0.463068 0
borked_crate
0  -1.025177 1.124000 45.500000  -0.997289 0.061799 -0.039946  0.039469 0.333333 0
0  -0.929642 0.998013 42.920002  -0.997289 0.061799 -0.039946  0.053682 0.333333 0
0  -1.331668 -3.822035 45.500000  -0.997289 0.061799 -0.039946  0.024480 0.364014 0
borked_crate
0  0.221891 -12.331187 42.920002  -0.958123 -0.227614 0.173760  0.011010 0.416667 0
0  0.468641 -12.309319 44.309242  -0.958123 -0.227614 0.173760  0.000000 0.416667 0
0  0.217937 -10.344974 45.500000  -0.958123 -0.227614 0.173760  0.000000 0.404790 0
borked_crate
0  0.217937 -10.344974 45.500000  -0.958123 -0.227613 0.173760  0.000000 0.404790 0
0  -1.331668 -3.822035 45.500000  -0.958123 -0.227613 0.173760  0.024480 0.364014 0
0  0.221891 -12.331187 42.920002  -0.958123 -0.227613 0.173760  0.011010 0.416667 0
borked_crate
0  19.000000 -21.500002 36.778034  0.004090 -0.366197 0.930528  0.792878 0.190034 0
0  20.000000 -24.000000 35.789803  0.004090 -0.366197 0.930528  0.800327 0.172664 0
0  21.120001 -21.120001 36.918266  0.004090 -0.366197 0.930528  0.806182 0.193280 0
borked_crate
0  24.000000 -24.000000 35.772263  0.403381 0.039614 0.914174  0.825946 0.173547 0
0  24.000000 -20.000000 35.598930  0.403381 0.039614 0.914174  0.826312 0.200176 0
0  21.120001 -21.120001 36.918266  0.403381 0.039614 0.914174  0.806182 0.193280 0
borked_crate
0  21.500000 -12.517817 36.336365  0.409183 0.046908 0.911246  0.810145 0.250000 0
0  18.920002 -12.531258 37.495575  0.409183 0.046908 0.911246  0.792655 0.250000 0
0  18.920002 -16.719999 37.711197  0.409183 0.046908 0.911246  0.791754 0.222575 0
borked_crate
0  21.500000 -12.517817 36.336365  0.409184 0.046909 0.911245  0.810145 0.250000 0
0  18.920002 -16.719999 37.711197  0.409184 0.046909 0.911245  0.791754 0.222575 0
0  21.120001 -17.600000 36.768616  0.409184 0.046909 0.911245  0.806701 0.216535 0
borked_crate
0  21.500000 -19.000000 36.670052  0.409183 0.046908 0.911246  0.809108 0.207237 0
0  21.500000 -12.517817 36.336365  0.409183 0.046908 0.911246  0.810145 0.250000 0
0  21.120001 -17.600000 36.768616  0.409183 0.046908 0.911246  0.806701 0.216535 0
borked_crate
0  21.500000 -19.000000 36.670052  0.383805 0.039223 0.922581  0.809108 0.207237 0
0  21.120001 -17.600000 36.768616  0.383805 0.039223 0.922581  0.806701 0.216535 0
0  21.120001 -21.120001 36.918266  0.383805 0.039223 0.922581  0.806182 0.193280 0
borked_crate
0  16.719999 -18.920002 37.803356  0.004082 -0.366198 0.930528  0.777467 0.207441 0
0  12.359919 -18.920004 37.822479  0.004082 -0.366198 0.930528  0.750000 0.206064 0
0  12.251096 -21.500000 36.807629  0.004082 -0.366198 0.930528  0.750000 0.188230 0
borked_crate
0  17.600000 -21.120001 36.933716  0.004079 -0.366197 0.930528  0.783827 0.192331 0
0  16.719999 -18.920002 37.803356  0.004079 -0.366197 0.930528  0.777467 0.207441 0
0  12.251096 -21.500000 36.807629  0.004079 -0.366197 0.930528  0.750000 0.188230 0
borked_crate
0  17.600000 -21.120001 36.933716  0.004081 -0.366195 0.930529  0.783827 0.192331 0
0  12.251096 -21.500000 36.807629  0.004081 -0.366195 0.930529  0.750000 0.188230 0
0  19.000000 -21.500002 36.778034  0.004081 -0.366195 0.930529  0.792878 0.190034 0
borked_crate
0  24.000000 -20.000000 35.598930  0.405165 0.034343 0.913598  0.826312 0.200176 0
0  21.500000 -19.000000 36.670052  0.405165 0.034343 0.913598  0.809108 0.207237 0
0  21.120001 -21.120001 36.918266  0.405165 0.034343 0.913598  0.806182 0.193280 0
borked_crate
0  21.120001 -21.120001 36.918266  0.004082 -0.366183 0.930534  0.806182 0.193280 0
0  17.600000 -21.120001 36.933716  0.004082 -0.366183 0.930534  0.783827 0.192331 0
0  19.000000 -21.500002 36.778034  0.004082 -0.366183 0.930534  0.792878 0.190034 0
borked_crate
0  1.280343 -1.281724 5.079997  -0.320499 0.931068 -0.174334  0.666667 0.027293 0
0  12.463875 2.567952 5.079998  -0.320499 0.931068 -0.174334  0.583333 0.036525 0
0  12.555169 2.116297 2.500000  -0.320499 0.931068 -0.174334  0.583333 0.015148 0
borked_crate
0  -3.686838 -21.500002 20.905586  -0.965252 -0.100060 0.241406  0.166667 0.477378 0
0  -1.151524 -21.500000 31.042923  -0.965252 -0.100060 0.241406  0.083333 0.476703 0
0  -1.222264 -18.920002 31.829447  -0.965252 -0.100060 0.241406  0.083333 0.459541 0
borked_crate
0  23.190599 -14.903408 0.000000  -0.052541 0.256900 -0.965009  0.166667 0.787293 0
0  20.000000 -15.555951 0.000000  -0.052541 0.256900 -0.965009  0.147297 0.789243 0
0  19.327892 -9.381729 1.680267  -0.052541 0.256900 -0.965009  0.138590 0.750000 0
borked_crate
0  9.392118 -19.255173 1.862069  -0.273500 0.034734 -0.961245  0.083333 0.804795 0
0  15.841961 -20.000000 0.000000  -0.273500 0.034734 -0.961245  0.124386 0.814120 0
0  15.442987 -23.141548 0.000000  -0.273500 0.034734 -0.961245  0.123897 0.833333 0
bcrate08.vmt.001
0  16.719999 -16.719999 5.079998  -0.000000 0.000000 1.000000  0.895833 0.895833 0
0  16.719999 2.610552 5.079998  0.000000 0.000000 1.000000  0.895833 0.438197 0
0  12.463875 2.567952 5.079998  0.000000 -0.000000 1.000000  0.795073 0.439206 0
bcrate08.vmt.001
0  12.463875 2.567952 5.079998  0.000000 -0.000000 1.000000  0.795073 0.439206 0
0  1.280343 -1.281724 5.079997  -0.000000 0.000000 1.000000  0.530311 0.530344 0
0  16.719999 -16.719999 5.079998  -0.000000 0.000000 1.000000  0.895833 0.895833 0
bcrate08.vmt.001
0  -2.887325 -12.350534 5.079998  0.000000 0.000000 1.000000  0.431645 0.792389 0
0  -4.424406 -16.719999 5.079998  0.000000 0.000000 1.000000  0.395255 0.895833 0
0  16.719999 -16.719999 5.079998  -0.000000 0.000000 1.000000  0.895833 0.895833 0
bcrate08.vmt.001
0  20.000000 -24.000000 4.000000  0.000000 -1.000000 -0.000000  0.083333 0.083333 0
0  -6.812162 -24.000000 4.000000  0.000000 -1.000000 -0.000000  0.641920 0.083333 0
0  8.714286 -24.000000 1.819896  0.000000 -1.000000 0.000001  0.318452 0.037914 0
bcrate08.vmt.001
0  -7.926674 -24.000000 0.000000  0.000000 -1.000000 0.000000  0.665139 0.000000 0
0  2.569843 -24.000000 0.000000  0.000000 -1.000000 -0.000001  0.446462 0.000000 0
0  -6.812162 -24.000000 4.000000  0.000000 -1.000000 -0.000000  0.641920 0.083333 0
bcrate08.vmt.001
0  8.714286 -24.000000 1.819896  0.000000 -1.000000 0.000001  0.318452 0.037914 0
0  14.623963 -24.000000 0.000000  0.000000 -1.000000 -0.000001  0.195334 0.000000 0
0  20.000000 -24.000000 4.000000  0.000000 -1.000000 -0.000000  0.083333 0.083333 0
bcrate08.vmt.001
0  -6.812162 -24.000000 4.000000  0.000000 -1.000000 -0.000000  0.641920 0.083333 0
0  2.569843 -24.000000 0.000000  0.000000 -1.000000 -0.000001  0.446462 0.000000 0
0  8.714286 -24.000000 1.819896  0.000000 -1.000000 0.000001  0.318452 0.037914 0
bcrate08.vmt.001
0  19.000000 -19.000000 2.500000  0.000000 -0.000000 -1.000000  0.895833 0.895833 0
0  -6.053852 -19.000000 2.500000  0.000000 0.000000 -1.000000  0.373878 0.895833 0
0  -3.842942 -12.211342 2.500000  0.000000 0.000000 -1.000000  0.419939 0.754403 0
bcrate08.vmt.001
0  -3.842942 -12.211342 2.500000  0.000000 0.000000 -1.000000  0.419939 0.754403 0
0  1.390909 -1.392015 2.500000  -0.000000 -0.000000 -1.000000  0.528977 0.529000 0
0  19.000000 -19.000000 2.500000  0.000000 -0.000000 -1.000000  0.895833 0.895833 0
bcrate08.vmt.001
0  12.555169 2.116297 2.500000  0.000000 -0.000000 -1.000000  0.761566 0.455910 0
0  19.000000 3.168156 2.500000  0.000000 0.000000 -1.000000  0.895833 0.433997 0
0  19.000000 -19.000000 2.500000  0.000000 -0.000000 -1.000000  0.895833 0.895833 0
borked_crate
0  15.442987 -23.141548 0.000000  -0.283355 0.270341 -0.920123  0.123897 0.833333 0
0  14.623963 -24.000000 0.000000  -0.283355 0.270341 -0.920123  0.119570 0.838288 0
0  8.714286 -24.000000 1.819896  -0.283355 0.270341 -0.920123  0.083333 0.834921 0
bcrate08.vmt.001
0  -0.334995 -18.920002 40.720001  0.000000 1.000000 -0.000000  0.507931 0.895833 0
0  4.350014 -18.920002 40.720001  0.000000 1.000000 0.000000  0.397017 0.895833 0
0  -1.222264 -18.920002 31.829447  0.000000 1.000000 -0.000000  0.528936 0.685356 0
bcrate08.vmt.001
0  12.359919 -18.920004 37.822479  -0.000000 1.000000 0.000000  0.207388 0.827237 0
0  16.719999 -18.920002 37.803356  -0.000000 1.000000 0.000000  0.104167 0.826784 0
0  16.719999 -18.920002 7.280001  -0.000000 1.000000 -0.000000  0.104167 0.104167 0
bcrate08.vmt.001
0  16.719999 -18.920002 7.280001  -0.000000 1.000000 -0.000000  0.104167 0.104167 0
0  -4.341699 -18.920002 7.280001  0.000000 1.000000 -0.000000  0.602786 0.104167 0
0  -3.021251 -18.920002 10.671215  0.000000 1.000000 -0.000000  0.571526 0.184451 0
bcrate08.vmt.001
0  -3.021251 -18.920002 10.671215  0.000000 1.000000 -0.000000  0.571526 0.184451 0
0  -2.475310 -18.920002 21.341812  0.000000 1.000000 -0.000000  0.558601 0.437069 0
0  16.719999 -18.920002 7.280001  -0.000000 1.000000 -0.000000  0.104167 0.104167 0
bcrate08.vmt.001
0  -1.222264 -18.920002 31.829447  0.000000 1.000000 -0.000000  0.528936 0.685356 0
0  4.350014 -18.920002 40.720001  0.000000 1.000000 0.000000  0.397017 0.895833 0
0  12.359919 -18.920004 37.822479  -0.000000 1.000000 0.000000  0.207388 0.827237 0
bcrate08.vmt.001
0  12.359919 -18.920004 37.822479  -0.000000 1.000000 0.000000  0.207388 0.827237 0
0  16.719999 -18.920002 7.280001  -0.000000 1.000000 -0.000000  0.104167 0.104167 0
0  -2.475310 -18.920002 21.341812  0.000000 1.000000 -0.000000  0.558601 0.437069 0
bcrate08.vmt.001
0  19.000000 -21.500000 5.000000  -0.000000 -1.000000 0.000000  0.104167 0.104167 0
0  19.000000 -21.500002 36.778034  -0.000000 -1.000000 0.000000  0.104167 0.766209 0
0  12.251096 -21.500000 36.807629  -0.000000 -1.000000 0.000000  0.244769 0.766826 0
bcrate08.vmt.001
0  12.251096 -21.500000 36.807629  -0.000000 -1.000000 0.000000  0.244769 0.766826 0
0  -0.656293 -21.500000 42.334072  0.000000 -1.000000 0.000000  0.513673 0.881960 0
0  -1.151524 -21.500000 31.042923  -0.000000 -1.000000 0.000000  0.523990 0.646728 0
bcrate08.vmt.001
0  -1.151524 -21.500000 31.042923  -0.000000 -1.000000 0.000000  0.523990 0.646728 0
0  -3.686838 -21.500002 20.905586  0.000000 -1.000000 0.000000  0.576809 0.435533 0
0  12.251096 -21.500000 36.807629  -0.000000 -1.000000 0.000000  0.244769 0.766826 0
bcrate08.vmt.001
0  -4.010527 -21.500000 10.461420  -0.000000 -1.000000 0.000000  0.583552 0.217946 0
0  -5.945410 -21.500000 5.000000  0.000000 -1.000000 0.000000  0.623863 0.104167 0
0  19.000000 -21.500000 5.000000  -0.000000 -1.000000 0.000000  0.104167 0.104167 0
bcrate08.vmt.001
0  19.000000 -21.500000 5.000000  -0.000000 -1.000000 0.000000  0.104167 0.104167 0
0  12.251096 -21.500000 36.807629  -0.000000 -1.000000 0.000000  0.244769 0.766826 0
0  -3.686838 -21.500002 20.905586  0.000000 -1.000000 0.000000  0.576809 0.435533 0
borked_crate
0  24.000000 -8.714286 1.586763  -0.117436 0.261011 -0.958166  0.168254 0.750000 0
0  24.000000 -14.539238 0.000000  -0.117436 0.261011 -0.958166  0.171544 0.785702 0
0  23.190599 -14.903408 0.000000  -0.117436 0.261011 -0.958166  0.166667 0.787293 0
borked_crate
0  0.468641 -12.309319 44.309242  0.265187 -0.474845 0.839165  0.666667 0.250000 0
0  4.705871 -12.398081 42.920002  0.265187 -0.474845 0.839165  0.695706 0.250000 0
0  0.217937 -10.344974 45.500000  0.265187 -0.474845 0.839165  0.666667 0.261876 0
borked_crate
0  11.575386 -0.082209 42.920002  0.550687 -0.307161 0.776141  0.744968 0.333333 0
0  8.168930 0.329786 45.500000  0.550687 -0.307161 0.776141  0.724236 0.333333 0
0  4.705871 -12.398081 42.920002  0.550687 -0.307161 0.776141  0.695706 0.250000 0
borked_crate
0  -2.887325 -12.350534 5.079998  -0.934439 0.351838 -0.055086  0.284917 0.416667 0
0  1.280343 -1.281724 5.079997  -0.934439 0.351838 -0.055086  0.306041 0.333333 0
0  1.390909 -1.392015 2.500000  -0.934439 0.351838 -0.055086  0.325645 0.333333 0
borked_crate
0  21.500002 1.416370 18.549141  0.050704 0.976917 0.207515  0.523774 0.166667 0
0  21.500000 3.390688 9.254639  0.050704 0.976917 0.207515  0.523155 0.083333 0
0  18.920002 3.437109 9.666492  0.050704 0.976917 0.207515  0.539966 0.083333 0
borked_crate
0  11.575386 -0.082209 42.920002  0.085974 0.995262 -0.045418  0.588365 0.333333 0
0  -0.929642 0.998013 42.920002  0.085974 0.995262 -0.045418  0.666667 0.279651 0
0  -1.025177 1.124000 45.500000  0.085974 0.995262 -0.045418  0.666667 0.293864 0
bcrate08.vmt.001
0  1.154651 -21.120003 41.599998  0.000000 0.371389 0.928477  0.472665 0.916667 0
0  4.350014 -18.920002 40.720001  0.000000 0.371390 0.928477  0.397017 0.895833 0
0  -0.334995 -18.920002 40.720001  0.000000 0.371390 0.928477  0.507931 0.895833 0
borked_crate
0  21.500000 -12.517817 36.336365  0.547832 0.000013 0.836588  0.810145 0.250000 0
0  21.500000 -0.571037 36.336182  0.547832 0.000013 0.836588  0.811893 0.333333 0
0  18.920002 -0.460771 38.025665  0.547832 0.000013 0.836588  0.794341 0.333333 0
bcrate08.vmt.001
0  17.599998 2.666585 2.879999  0.928477 0.000000 0.371391  0.916667 0.436871 0
0  16.719999 2.610552 5.079998  0.928477 0.000000 0.371391  0.895833 0.438197 0
0  16.719999 -16.719999 5.079998  0.928477 0.000000 0.371391  0.895833 0.895833 0
borked_crate
0  -4.010527 -21.500000 10.461420  -0.906630 0.420989 0.028099  0.250000 0.477354 0
0  -3.686838 -21.500002 20.905586  -0.906630 0.420989 0.028099  0.166667 0.477378 0
0  -2.475310 -18.920002 21.341812  -0.906630 0.420989 0.028099  0.166667 0.459676 0
bcrate08.vmt.001
0  18.920002 -16.719999 7.280001  -1.000000 0.000000 0.000000  0.895833 0.104167 0
0  18.920002 -16.719999 37.711197  -1.000000 -0.000000 0.000000  0.895833 0.824602 0
0  18.920002 -12.531258 37.495575  -1.000000 -0.000000 -0.000000  0.796668 0.819497 0
bcrate08.vmt.001
0  18.920002 -12.531258 37.495575  -1.000000 -0.000000 -0.000000  0.796668 0.819497 0
0  18.920002 -0.460771 38.025665  -1.000000 -0.000000 -0.000000  0.510908 0.832047 0
0  18.920004 0.719873 28.973173  -1.000000 -0.000000 0.000000  0.482958 0.617736 0
bcrate08.vmt.001
0  18.920002 0.320524 19.284058  -1.000000 0.000000 0.000000  0.492412 0.388354 0
0  18.920002 3.437109 9.666492  -1.000000 0.000000 0.000000  0.418629 0.160665 0
0  18.920002 -16.719999 7.280001  -1.000000 0.000000 0.000000  0.895833 0.104167 0
bcrate08.vmt.001
0  18.920002 -12.531258 37.495575  -1.000000 -0.000000 -0.000000  0.796668 0.819497 0
0  18.920004 0.719873 28.973173  -1.000000 -0.000000 0.000000  0.482958 0.617736 0
0  18.920002 0.320524 19.284058  -1.000000 0.000000 0.000000  0.492412 0.388354 0
bcrate08.vmt.001
0  18.920002 3.018482 7.280001  -1.000000 0.000000 0.000000  0.428540 0.104167 0
0  18.920002 -16.719999 7.280001  -1.000000 0.000000 0.000000  0.895833 0.104167 0
0  18.920002 3.437109 9.666492  -1.000000 0.000000 0.000000  0.418629 0.160665 0
bcrate08.vmt.001
0  8.168930 0.329786 45.500000  0.000000 0.000000 1.000000  0.670186 0.493129 0
0  -1.025177 1.124000 45.500000  0.000000 0.000000 1.000000  0.478642 0.476583 0
0  -1.331668 -3.822035 45.500000  0.000000 0.000000 1.000000  0.472257 0.579626 0
bcrate08.vmt.001
0  21.120001 -17.600000 36.768616  -0.371392 -0.928476 0.000000  0.916667 0.802287 0
0  18.920002 -16.719999 37.711197  -0.371392 -0.928476 0.000000  0.895833 0.824602 0
0  18.920002 -16.719999 7.280001  -0.371391 -0.928477 0.000000  0.895833 0.104167 0
borked_crate
0  -1.222264 -18.920002 31.829447  -0.993413 -0.057462 0.099142  0.083333 0.459541 0
0  -1.151524 -21.500000 31.042923  -0.993413 -0.057462 0.099142  0.083333 0.476703 0
0  -0.334995 -18.920002 40.720001  -0.993413 -0.057462 0.099142  0.016387 0.458739 0
borked_crate
0  -0.656293 -21.500000 42.334072  -0.992524 0.122025 -0.002520  0.000000 0.475081 0
0  -0.609781 -21.119999 42.415737  -0.992524 0.122025 -0.002520  0.000000 0.472666 0
0  -0.607710 -21.120001 41.599998  -0.992524 0.122025 -0.002520  0.006111 0.472716 0
borked_crate
0  -0.607710 -21.120001 41.599998  -0.988955 0.140940 0.045870  0.006111 0.472716 0
0  -0.334995 -18.920002 40.720001  -0.988955 0.140940 0.045870  0.016387 0.458739 0
0  -1.151524 -21.500000 31.042923  -0.988955 0.140940 0.045870  0.083333 0.476703 0
borked_crate
0  0.221891 -12.331187 42.920002  -0.997481 0.066363 -0.025036  0.011010 0.416667 0
0  -0.070105 -16.719999 42.919998  -0.997481 0.066363 -0.025036  0.003366 0.444695 0
0  -0.091121 -16.882561 43.326408  -0.997481 0.066363 -0.025036  0.000000 0.445733 0
bcrate08.vmt.001
0  0.883391 -16.719999 42.920002  0.000005 0.000000 -1.000000  0.520914 0.895833 0
0  -0.070105 -16.719999 42.919998  0.000007 0.000001 -1.000000  0.498340 0.895833 0
0  0.221891 -12.331187 42.920002  -0.000001 0.000000 -1.000000  0.505253 0.791931 0
bcrate08.vmt.001
0  0.221891 -12.331187 42.920002  -0.000001 0.000000 -1.000000  0.505253 0.791931 0
0  -0.929642 0.998013 42.920002  -0.000000 0.000000 -1.000000  0.477991 0.476372 0
0  4.705871 -12.398081 42.920002  -0.000001 0.000000 -1.000000  0.611408 0.793515 0
bcrate08.vmt.001
0  11.575386 -0.082209 42.920002  0.000000 0.000000 -1.000000  0.774038 0.501946 0
0  4.705871 -12.398081 42.920002  -0.000001 0.000000 -1.000000  0.611408 0.793515 0
0  -0.929642 0.998013 42.920002  -0.000000 0.000000 -1.000000  0.477991 0.476372 0
bcrate08.vmt.001
0  20.000000 4.098553 0.000000  0.000000 0.000000 -1.000000  0.916667 0.414614 0
0  24.000000 5.252878 0.000000  0.000000 0.000000 -1.000000  1.000000 0.390565 0
0  24.000000 2.074261 0.000000  0.000000 0.000000 -1.000000  1.000000 0.456786 0
bcrate08.vmt.001
0  20.000000 -20.000000 0.000000  0.000000 -0.000000 -1.000000  0.916667 0.916667 0
0  20.000000 -15.555951 0.000000  0.000000 0.000000 -1.000000  0.916667 0.824082 0
0  23.190599 -14.903408 0.000000  -0.000000 0.000000 -1.000000  0.983137 0.810487 0
bcrate08.vmt.001
0  23.190599 -14.903408 0.000000  -0.000000 0.000000 -1.000000  0.983137 0.810487 0
0  24.000000 -14.539238 0.000000  -0.000000 0.000000 -1.000000  1.000000 0.802901 0
0  24.000000 -24.000000 0.000000  -0.000000 0.000000 -1.000000  1.000000 1.000000 0
borked_crate
0  -0.609781 -21.119999 42.415737  0.407456 -0.239274 0.881321  0.666667 0.194001 0
0  -0.656293 -21.500000 42.334072  0.407456 -0.239274 0.881321  0.666667 0.191585 0
0  1.154651 -21.120003 41.599998  0.407456 -0.239274 0.881321  0.678359 0.193490 0
borked_crate
0  12.251096 -21.500000 36.807629  0.317535 -0.358676 0.877794  0.750000 0.188230 0
0  12.359919 -18.920004 37.822479  0.317535 -0.358676 0.877794  0.750000 0.206064 0
0  4.350014 -18.920002 40.720001  0.317535 -0.358676 0.877794  0.698170 0.206766 0
borked_crate
0  1.154651 -21.120003 41.599998  0.391650 -0.099421 0.914727  0.678359 0.193490 0
0  -0.656293 -21.500000 42.334072  0.391650 -0.099421 0.914727  0.666667 0.191585 0
0  12.251096 -21.500000 36.807629  0.391650 -0.099421 0.914727  0.750000 0.188230 0
borked_crate
0  -0.091121 -16.882561 43.326408  0.409604 -0.362261 0.837252  0.666667 0.220933 0
0  0.883391 -16.719999 42.920002  0.409604 -0.362261 0.837252  0.673163 0.221747 0
0  4.705871 -12.398081 42.920002  0.409604 -0.362261 0.837252  0.695706 0.250000 0
end
