version 1
nodes
0 "root" -1
end
skeleton
time 0
0 0 0 0 0 0 0
end
triangles
bcrate08.vmt.001
0  -21.120001 -21.120001 45.120003  -0.000000 1.000000 -0.000000  1.000000 1.000000 0
0  -18.110666 -21.120001 42.110664  -0.000000 1.000000 -0.000000  0.928756 0.928756 0
0  -21.120003 -21.120003 42.297459  -0.000001 1.000000 -0.000001  1.000000 0.933178 0
bcrate08.vmt.001
0  -21.120001 -21.120001 45.120003  -0.000001 0.000000 -1.000000  0.000000 1.000000 0
0  2.013143 -17.600000 45.120003  0.000000 0.000000 -1.000000  0.547660 0.916667 0
0  1.302626 -21.120001 45.120003  0.000000 0.000000 -1.000000  0.530839 1.000000 0
bcrate08.vmt.001
0  -21.120001 -21.120001 45.120003  1.000000 -0.000001 -0.000000  1.000000 1.000000 0
0  -21.120001 -15.461359 43.232666  1.000000 0.000000 0.000000  0.866036 0.955319 0
0  -21.120001 -13.559794 45.120003  1.000000 0.000000 0.000000  0.821018 1.000000 0
bcrate08.vmt.001
0  -1.469141 -16.719999 42.919998  0.000000 -0.928475 -0.371394  0.465219 0.895833 0
0  1.965504 -16.719999 42.920002  0.000001 -0.928477 -0.371391  0.546532 0.895833 0
0  2.013143 -17.600000 45.120003  0.000000 -0.928477 -0.371391  0.547660 0.916667 0
bcrate08.vmt.001
0  -21.500000 -19.000000 43.000000  -1.000000 0.000000 0.000000  0.895833 0.895833 0
0  -21.500000 -17.381269 43.000000  -1.000000 0.000000 0.000000  0.862110 0.895833 0
0  -21.500000 -19.000002 42.732471  -1.000000 0.000000 0.000000  0.895833 0.890260 0
bcrate08.vmt.001
0  -24.000000 -24.000000 48.000000  0.000000 -1.000000 0.000000  1.000000 1.000000 0
0  -19.999998 -23.999998 42.361965  -0.000000 -1.000000 0.000000  0.916667 0.882541 0
0  -20.000000 -24.000000 44.000000  -0.000001 -1.000000 0.000000  0.916667 0.916667 0
bcrate08.vmt.001
0  -24.000000 -24.000000 48.000000  0.000000 0.000000 1.000000  0.000000 1.000000 0
0  1.823595 -20.000000 48.000000  0.000000 0.000000 1.000000  0.537991 0.916667 0
0  -20.000000 -20.000000 48.000000  0.000000 0.000000 1.000000  0.083333 0.916667 0
bcrate08.vmt.001
0  -24.000000 -5.873611 48.000000  -1.000000 0.000000 0.000000  0.622367 1.000000 0
0  -24.000002 -15.835861 44.000000  -1.000000 0.000000 0.000000  0.829914 0.916667 0
0  -24.000000 -24.000000 48.000000  -1.000000 0.000000 0.000000  1.000000 1.000000 0
bcrate08.vmt.001
0  -20.000000 -24.000000 44.000000  0.928476 -0.371391 0.000001  0.916667 0.916667 0
0  -19.000000 -21.500002 42.019001  0.928477 -0.371390 0.000000  0.895833 0.875396 0
0  -19.000000 -21.500000 43.000000  0.928478 -0.371388 0.000000  0.895833 0.895833 0
bcrate08.vmt.001
0  -20.000000 -20.000000 48.000000  0.000000 0.928477 0.371391  0.083333 0.916667 0
0  1.769459 -19.000000 45.500000  0.000000 0.928477 0.371390  0.536864 0.895833 0
0  -19.000000 -19.000000 45.500000  0.000000 0.928477 0.371391  0.104167 0.895833 0
bcrate08.vmt.001
0  -22.936310 -15.840689 43.574520  -0.371391 -0.000000 -0.928476  0.830014 0.907803 0
0  -21.500000 -17.381269 43.000000  -0.371390 -0.000001 -0.928477  0.862110 0.895833 0
0  -24.000000 -20.000000 44.000000  -0.371390 -0.000000 -0.928477  0.916667 0.916667 0
borked_crate
0  -24.000000 -5.797783 45.955700  -0.043194 0.998380 0.037031  0.494116 0.333333 0
0  -20.000000 -5.700550 48.000000  -0.043194 0.998380 0.037031  0.467960 0.327336 0
0  -19.715382 -5.661844 47.288452  -0.043194 0.998380 0.037031  0.466140 0.333333 0
borked_crate
0  -19.000000 -12.332159 45.500000  -0.270259 0.678233 -0.683344  0.872803 0.278837 0
0  -17.600000 -12.157152 45.120003  -0.270259 0.678233 -0.683344  0.882082 0.277334 0
0  -21.120001 -13.559794 45.120003  -0.270259 0.678233 -0.683344  0.858894 0.270663 0
bcrate08.vmt.001
0  -24.000000 -20.000000 43.124020  -1.000000 0.000000 0.000000  0.916667 0.898417 0
0  -24.000000 -24.000000 48.000000  -1.000000 0.000000 0.000000  1.000000 1.000000 0
0  -24.000000 -20.000000 44.000000  -1.000000 0.000000 -0.000000  0.916667 0.916667 0
bcrate08.vmt.001
0  -17.600000 -12.157152 45.120003  -0.928477 0.000000 -0.371391  0.083333 0.787811 0
0  -16.719999 -16.719999 42.920002  -0.928476 0.000000 -0.371391  0.104167 0.895833 0
0  -17.600000 -17.600000 45.120003  -0.928476 0.000000 -0.371392  0.083333 0.916667 0
borked_crate
0  -4.753429 -21.500000 43.000000  -0.059788 -0.915028 -0.398934  0.963494 0.194197 0
0  -12.254973 -21.119999 43.252655  -0.059788 -0.915028 -0.398934  0.916667 0.203780 0
0  -1.227707 -21.120001 41.599998  -0.059788 -0.915028 -0.398934  0.986467 0.193066 0
borked_crate
0  -4.479881 -16.719999 42.920006  -0.000001 -0.928478 -0.371386  0.961994 0.224254 0
0  -1.469141 -16.719999 42.919998  -0.000001 -0.928478 -0.371386  0.979529 0.221640 0
0  -2.033085 -16.806705 43.136765  -0.000001 -0.928478 -0.371386  0.976143 0.221593 0
bcrate08.vmt.001
0  2.808024 -11.752955 42.920002  0.000019 -0.000004 -1.000000  0.566478 0.778242 0
0  -0.519623 -15.254430 42.920002  0.000000 0.000000 -1.000000  0.487698 0.861137 0
0  2.672853 -11.152408 42.919998  0.000012 -0.000003 -1.000000  0.563278 0.764025 0
bcrate08.vmt.001
0  0.942194 -21.120003 41.599998  0.000000 0.371390 0.928477  0.477694 0.916667 0
0  1.187367 -19.596189 40.990475  0.000000 0.371390 0.928477  0.471890 0.902237 0
0  -1.227707 -21.120001 41.599998  0.000000 0.371390 0.928477  0.529065 0.916667 0
bcrate08.vmt.001
0  -20.000000 -5.700550 48.000000  0.000000 0.000000 1.000000  0.083333 0.618761 0
0  -24.000000 -24.000000 48.000000  0.000000 0.000000 1.000000  0.000000 1.000000 0
0  -20.000000 -20.000000 48.000000  0.000000 0.000000 1.000000  0.083333 0.916667 0
bcrate08.vmt.001
0  -20.000000 -5.700550 48.000000  0.928477 0.000000 0.371389  0.083333 0.618761 0
0  -20.000000 -20.000000 48.000000  0.928477 0.000000 0.371390  0.083333 0.916667 0
0  -19.000000 -12.332159 45.500000  0.928477 0.000000 0.371390  0.104167 0.756920 0
borked_crate
0  2.672853 -11.152408 42.919998  -0.069542 0.634775 -0.769561  1.000000 0.254795 0
0  -12.308821 -9.665869 45.500000  -0.069542 0.634775 -0.769561  0.916667 0.290373 0
0  1.360538 -8.168345 45.500000  -0.069542 0.634775 -0.769561  1.000000 0.279880 0
bcrate08.vmt.001
0  -1.227707 -21.120001 41.599998  0.000000 1.000000 -0.000000  0.529065 0.916667 0
0  -12.254973 -21.119999 43.252655  -0.000000 1.000000 0.000001  0.790127 0.955792 0
0  1.302626 -21.120001 45.120003  0.000000 1.000000 -0.000000  0.469161 1.000000 0
bcrate08.vmt.001
0  -19.000000 -21.500002 42.019001  0.000000 -1.000000 0.000000  0.895833 0.875396 0
0  -13.969815 -21.500000 43.000000  0.000000 -1.000000 0.000000  0.791038 0.895833 0
0  -19.000000 -21.500000 43.000000  0.000000 -1.000000 0.000000  0.895833 0.895833 0
bcrate08.vmt.001
0  -4.753429 -21.500000 43.000000  0.000000 -1.000000 0.000001  0.599030 0.895833 0
0  0.767516 -21.500000 40.643158  0.000000 -1.000000 0.000001  0.484010 0.846733 0
0  1.008843 -21.500000 43.000000  0.000000 -1.000000 0.000001  0.478983 0.895833 0
bcrate08.vmt.001
0  -21.120003 -21.120003 42.297459  1.000000 -0.000002 -0.000001  1.000000 0.933178 0
0  -21.120001 -18.697781 42.697781  1.000000 -0.000001 -0.000000  0.942656 0.942656 0
0  -21.120001 -21.120001 45.120003  1.000000 -0.000001 -0.000000  1.000000 1.000000 0
borked_crate
0  -24.000000 -20.000000 43.124020  -0.214628 0.159260 -0.963624  0.839991 0.221372 0
0  -21.500000 -19.000002 42.732471  -0.214628 0.159260 -0.963624  0.856402 0.226137 0
0  -21.120003 -21.120003 42.297459  -0.214628 0.159260 -0.963624  0.858791 0.210862 0
bcrate08.vmt.001
0  -24.000000 -24.000000 48.000000  0.000000 -1.000000 0.000000  1.000000 1.000000 0
0  -10.793552 -24.000000 44.000000  0.000000 -1.000000 0.000003  0.724866 0.916667 0
0  -9.046518 -24.000000 44.141243  0.000000 -1.000000 0.000000  0.688469 0.919609 0
bcrate08.vmt.001
0  -21.500000 -19.000002 42.732471  -0.371401 0.928472 0.000000  0.895833 0.890260 0
0  -24.000000 -20.000000 44.000000  -0.371388 0.928478 0.000000  0.916667 0.916667 0
0  -21.500000 -19.000000 43.000000  -0.371405 0.928471 0.000000  0.895833 0.895833 0
bcrate08.vmt.001
0  1.008843 -21.500000 43.000000  0.000000 -0.371391 -0.928477  0.478983 0.895833 0
0  -8.715652 -24.000000 44.000000  0.000000 -0.371391 -0.928477  0.681576 0.916667 0
0  -4.753429 -21.500000 43.000000  0.000000 -0.371390 -0.928477  0.599030 0.895833 0
bcrate08.vmt.001
0  -12.190272 -23.377943 43.751179  0.000000 -0.371390 -0.928477  0.753964 0.911483 0
0  -20.000000 -24.000000 44.000000  0.000000 -0.371391 -0.928477  0.916667 0.916667 0
0  -13.969815 -21.500000 43.000000  0.000000 -0.371391 -0.928477  0.791038 0.895833 0
borked_crate
0  1.360538 -8.168345 45.500000  0.948166 0.213416 0.235448  0.613213 0.666667 0
0  2.808024 -11.752955 42.920002  0.948166 0.213416 0.235448  0.583333 0.663559 0
0  2.672853 -11.152408 42.919998  0.948166 0.213416 0.235448  0.588128 0.666667 0
borked_crate
0  1.769459 -19.000000 45.500000  0.975330 -0.196873 -0.099864  0.538987 0.637216 0
0  1.302626 -21.120001 45.120003  0.975330 -0.196873 -0.099864  0.525411 0.636406 0
0  2.013143 -17.600000 45.120003  0.975330 -0.196873 -0.099864  0.547721 0.641860 0
bcrate08.vmt.001
0  2.202864 -11.910693 45.500000  0.000000 0.000000 1.000000  0.545893 0.748139 0
0  -12.308821 -9.665869 45.500000  -0.000000 0.000000 1.000000  0.243566 0.701372 0
0  1.769459 -19.000000 45.500000  0.000000 0.000000 1.000000  0.536864 0.895833 0
bcrate08.vmt.001
0  -21.120001 -13.559794 45.120003  -0.000000 0.000000 -1.000000  0.000000 0.821018 0
0  -17.600000 -17.600000 45.120003  -0.000000 0.000000 -1.000000  0.083333 0.916667 0
0  -21.120001 -21.120001 45.120003  -0.000001 0.000000 -1.000000  0.000000 1.000000 0
bcrate08.vmt.001
0  -21.120001 -21.120001 45.120003  -0.000001 0.000000 -1.000000  0.000000 1.000000 0
0  -17.600000 -17.600000 45.120003  -0.000000 0.000000 -1.000000  0.083333 0.916667 0
0  2.013143 -17.600000 45.120003  0.000000 0.000000 -1.000000  0.547660 0.916667 0
bcrate08.vmt.001
0  -21.120001 -21.120001 45.120003  1.000000 -0.000001 -0.000000  1.000000 1.000000 0
0  -21.120001 -18.697781 42.697781  1.000000 -0.000001 -0.000000  0.942656 0.942656 0
0  -21.120001 -15.461359 43.232666  1.000000 0.000000 0.000000  0.866036 0.955319 0
bcrate08.vmt.001
0  2.013143 -17.600000 45.120003  0.000000 -0.928477 -0.371391  0.547660 0.916667 0
0  -4.479881 -16.719999 42.920006  -0.000000 -0.928476 -0.371392  0.393942 0.895833 0
0  -2.033085 -16.806705 43.136765  -0.000002 -0.928477 -0.371389  0.451868 0.897886 0
bcrate08.vmt.001
0  -16.719999 -16.719999 42.920002  0.000000 -0.928477 -0.371390  0.104167 0.895833 0
0  -4.479881 -16.719999 42.920006  -0.000000 -0.928476 -0.371392  0.393942 0.895833 0
0  -17.600000 -17.600000 45.120003  0.000000 -0.928477 -0.371391  0.083333 0.916667 0
bcrate08.vmt.001
0  -2.033085 -16.806705 43.136765  -0.000002 -0.928477 -0.371389  0.451868 0.897886 0
0  -1.469141 -16.719999 42.919998  0.000000 -0.928475 -0.371394  0.465219 0.895833 0
0  2.013143 -17.600000 45.120003  0.000000 -0.928477 -0.371391  0.547660 0.916667 0
bcrate08.vmt.001
0  -17.600000 -17.600000 45.120003  0.000000 -0.928477 -0.371391  0.083333 0.916667 0
0  -4.479881 -16.719999 42.920006  -0.000000 -0.928476 -0.371392  0.393942 0.895833 0
0  2.013143 -17.600000 45.120003  0.000000 -0.928477 -0.371391  0.547660 0.916667 0
bcrate08.vmt.001
0  -24.000000 -24.000000 48.000000  0.000000 -1.000000 0.000000  1.000000 1.000000 0
0  -24.000000 -24.000000 42.462933  0.000000 -1.000000 0.000000  1.000000 0.884644 0
0  -19.999998 -23.999998 42.361965  -0.000000 -1.000000 0.000000  0.916667 0.882541 0
bcrate08.vmt.001
0  -24.000000 -24.000000 48.000000  0.000000 0.000000 1.000000  0.000000 1.000000 0
0  1.016190 -24.000000 48.000000  0.000000 0.000000 1.000000  0.521171 1.000000 0
0  1.823595 -20.000000 48.000000  0.000000 0.000000 1.000000  0.537991 0.916667 0
bcrate08.vmt.001
0  -24.000000 -20.000000 44.000000  -1.000000 0.000000 -0.000000  0.916667 0.916667 0
0  -24.000000 -24.000000 48.000000  -1.000000 0.000000 0.000000  1.000000 1.000000 0
0  -24.000002 -15.835861 44.000000  -1.000000 0.000000 0.000000  0.829914 0.916667 0
bcrate08.vmt.001
0  -24.000000 -5.873611 48.000000  -1.000000 0.000000 0.000000  0.622367 1.000000 0
0  -24.000000 -5.797783 45.955700  -1.000000 0.000000 0.000000  0.620787 0.957410 0
0  -24.000002 -15.835861 44.000000  -1.000000 0.000000 0.000000  0.829914 0.916667 0
bcrate08.vmt.001
0  -20.000000 -24.000000 44.000000  0.928476 -0.371391 0.000001  0.916667 0.916667 0
0  -19.999998 -23.999998 42.361965  0.928476 -0.371392 0.000001  0.916667 0.882541 0
0  -19.000000 -21.500002 42.019001  0.928477 -0.371390 0.000000  0.895833 0.875396 0
bcrate08.vmt.001
0  -20.000000 -20.000000 48.000000  0.000000 0.928477 0.371391  0.083333 0.916667 0
0  1.823595 -20.000000 48.000000  0.000000 0.928477 0.371390  0.537991 0.916667 0
0  1.769459 -19.000000 45.500000  0.000000 0.928477 0.371390  0.536864 0.895833 0
bcrate08.vmt.001
0  -21.500000 -19.000000 43.000000  -0.371391 0.000000 -0.928477  0.895833 0.895833 0
0  -24.000000 -20.000000 44.000000  -0.371390 -0.000000 -0.928477  0.916667 0.916667 0
0  -21.500000 -17.381269 43.000000  -0.371390 -0.000001 -0.928477  0.862110 0.895833 0
bcrate08.vmt.001
0  -24.000002 -15.835861 44.000000  -0.371393 0.000000 -0.928476  0.829914 0.916667 0
0  -22.936310 -15.840689 43.574520  -0.371391 -0.000000 -0.928476  0.830014 0.907803 0
0  -24.000000 -20.000000 44.000000  -0.371390 -0.000000 -0.928477  0.916667 0.916667 0
borked_crate
0  -24.000000 -5.797783 45.955700  -0.043195 0.998380 0.037033  0.494116 0.333333 0
0  -24.000000 -5.873611 48.000000  -0.043195 0.998380 0.037033  0.494012 0.318705 0
0  -20.000000 -5.700550 48.000000  -0.043195 0.998380 0.037033  0.467960 0.327336 0
borked_crate
0  -21.120001 -15.461359 43.232666  -0.270261 0.678232 -0.683345  0.859169 0.250000 0
0  -22.936310 -15.840689 43.574520  -0.270261 0.678232 -0.683345  0.847097 0.250000 0
0  -21.120001 -13.559794 45.120003  -0.270261 0.678232 -0.683345  0.858894 0.270663 0
borked_crate
0  -24.000002 -15.835861 44.000000  0.224682 0.186343 -0.956449  0.839998 0.252485 0
0  -24.000000 -5.797783 45.955700  0.224682 0.186343 -0.956449  0.839217 0.333333 0
0  -21.120001 -13.559794 45.120003  0.224682 0.186343 -0.956449  0.858894 0.270663 0
borked_crate
0  -21.120001 -13.559794 45.120003  -0.270263 0.678232 -0.683344  0.858894 0.270663 0
0  -22.936310 -15.840689 43.574520  -0.270263 0.678232 -0.683344  0.847097 0.250000 0
0  -24.000002 -15.835861 44.000000  -0.270263 0.678232 -0.683344  0.839998 0.252485 0
borked_crate
0  -12.414836 -12.307567 42.920006  -0.270259 0.678232 -0.683346  0.916667 0.263634 0
0  -16.719999 -14.023079 42.920002  -0.270259 0.678232 -0.683346  0.888314 0.255521 0
0  -17.600000 -12.157152 45.120003  -0.270259 0.678232 -0.683346  0.882082 0.277334 0
borked_crate
0  -21.120001 -13.559794 45.120003  0.094822 0.141277 -0.985418  0.858894 0.270663 0
0  -24.000000 -5.797783 45.955700  0.094822 0.141277 -0.985418  0.839217 0.333333 0
0  -19.000000 -12.332159 45.500000  0.094822 0.141277 -0.985418  0.872803 0.278837 0
borked_crate
0  -12.308821 -9.665869 45.500000  -0.270260 0.678231 -0.683346  0.916667 0.290373 0
0  -12.414836 -12.307567 42.920006  -0.270260 0.678231 -0.683346  0.916667 0.263634 0
0  -17.600000 -12.157152 45.120003  -0.270260 0.678231 -0.683346  0.882082 0.277334 0
borked_crate
0  -24.000000 -5.797783 45.955700  0.277433 0.276456 -0.920111  0.839217 0.333333 0
0  -19.715382 -5.661844 47.288452  0.277433 0.276456 -0.920111  0.867193 0.333333 0
0  -19.000000 -12.332159 45.500000  0.277433 0.276456 -0.920111  0.872803 0.278837 0
borked_crate
0  -19.000000 -12.332159 45.500000  -0.270261 0.678231 -0.683346  0.872803 0.278837 0
0  -12.308821 -9.665869 45.500000  -0.270261 0.678231 -0.683346  0.916667 0.290373 0
0  -17.600000 -12.157152 45.120003  -0.270261 0.678231 -0.683346  0.882082 0.277334 0
bcrate08.vmt.001
0  -24.000000 -20.000000 43.124020  -1.000000 0.000000 0.000000  0.916667 0.898417 0
0  -24.000000 -24.000000 42.462933  -1.000000 0.000000 0.000000  1.000000 0.884644 0
0  -24.000000 -24.000000 48.000000  -1.000000 0.000000 0.000000  1.000000 1.000000 0
bcrate08.vmt.001
0  -17.600000 -12.157152 45.120003  -0.928477 0.000000 -0.371391  0.083333 0.787811 0
0  -16.719999 -14.023079 42.920002  -0.928477 0.000000 -0.371390  0.104167 0.831986 0
0  -16.719999 -16.719999 42.920002  -0.928476 0.000000 -0.371391  0.104167 0.895833 0
borked_crate
0  -4.753429 -21.500000 43.000000  -0.047493 -0.305174 -0.951112  0.963494 0.194197 0
0  -8.715652 -24.000000 44.000000  -0.047493 -0.305174 -0.951112  0.938464 0.182536 0
0  -12.254973 -21.119999 43.252655  -0.047493 -0.305174 -0.951112  0.916667 0.203780 0
borked_crate
0  -9.046518 -24.000000 44.141243  0.078740 -0.212773 -0.973924  0.936214 0.182884 0
0  -10.793552 -24.000000 44.000000  0.078740 -0.212773 -0.973924  0.925197 0.184619 0
0  -12.254973 -21.119999 43.252655  0.078740 -0.212773 -0.973924  0.916667 0.203780 0
borked_crate
0  -1.227707 -21.120001 41.599998  -0.380494 0.246518 -0.891321  0.986467 0.193066 0
0  1.187367 -19.596189 40.990475  -0.380494 0.246518 -0.891321  1.000000 0.200588 0
0  0.767516 -21.500000 40.643158  -0.380494 0.246518 -0.891321  1.000000 0.188640 0
borked_crate
0  -8.715652 -24.000000 44.000000  -0.318447 -0.584917 -0.745965  0.938464 0.182536 0
0  -9.046518 -24.000000 44.141243  -0.318447 -0.584917 -0.745965  0.936214 0.182884 0
0  -12.254973 -21.119999 43.252655  -0.318447 -0.584917 -0.745965  0.916667 0.203780 0
borked_crate
0  -1.227707 -21.120001 41.599998  -0.380496 0.246515 -0.891321  0.986467 0.193066 0
0  0.767516 -21.500000 40.643158  -0.380496 0.246515 -0.891321  1.000000 0.188640 0
0  -4.753429 -21.500000 43.000000  -0.380496 0.246515 -0.891321  0.963494 0.194197 0
borked_crate
0  -10.793552 -24.000000 44.000000  0.078742 -0.212773 -0.973924  0.925197 0.184619 0
0  -12.190272 -23.377943 43.751179  0.078742 -0.212773 -0.973924  0.916667 0.189801 0
0  -12.254973 -21.119999 43.252655  0.078742 -0.212773 -0.973924  0.916667 0.203780 0
borked_crate
0  -4.479881 -16.719999 42.920006  -0.000005 0.000004 -1.000000  0.961994 0.224254 0
0  -0.519623 -15.254430 42.920002  -0.000005 0.000004 -1.000000  0.983629 0.230218 0
0  -1.469141 -16.719999 42.919998  -0.000005 0.000004 -1.000000  0.979529 0.221640 0
bcrate08.vmt.001
0  -16.719999 -16.719999 42.920002  0.000001 0.000000 -1.000000  0.104167 0.895833 0
0  -16.719999 -14.023079 42.920002  0.000001 0.000000 -1.000000  0.104167 0.831986 0
0  -12.414836 -12.307567 42.920006  0.000000 0.000000 -1.000000  0.206088 0.791372 0
bcrate08.vmt.001
0  -12.414836 -12.307567 42.920006  0.000000 0.000000 -1.000000  0.206088 0.791372 0
0  2.672853 -11.152408 42.919998  0.000012 -0.000003 -1.000000  0.563278 0.764025 0
0  -0.519623 -15.254430 42.920002  0.000000 0.000000 -1.000000  0.487698 0.861137 0
bcrate08.vmt.001
0  2.808024 -11.752955 42.920002  0.000019 -0.000004 -1.000000  0.566478 0.778242 0
0  1.965504 -16.719999 42.920002  -0.000000 0.000001 -1.000000  0.546532 0.895833 0
0  -0.519623 -15.254430 42.920002  0.000000 0.000000 -1.000000  0.487698 0.861137 0
bcrate08.vmt.001
0  -0.519623 -15.254430 42.920002  0.000000 0.000000 -1.000000  0.487698 0.861137 0
0  -4.479881 -16.719999 42.920006  0.000000 -0.000001 -1.000000  0.393942 0.895833 0
0  -12.414836 -12.307567 42.920006  0.000000 0.000000 -1.000000  0.206088 0.791372 0
bcrate08.vmt.001
0  1.965504 -16.719999 42.920002  -0.000000 0.000001 -1.000000  0.546532 0.895833 0
0  -1.469141 -16.719999 42.919998  0.000002 0.000002 -1.000000  0.465219 0.895833 0
0  -0.519623 -15.254430 42.920002  0.000000 0.000000 -1.000000  0.487698 0.861137 0
bcrate08.vmt.001
0  -16.719999 -16.719999 42.920002  0.000001 0.000000 -1.000000  0.104167 0.895833 0
0  -12.414836 -12.307567 42.920006  0.000000 0.000000 -1.000000  0.206088 0.791372 0
0  -4.479881 -16.719999 42.920006  0.000000 -0.000001 -1.000000  0.393942 0.895833 0
bcrate08.vmt.001
0  -20.000000 -5.700550 48.000000  0.000000 0.000000 1.000000  0.083333 0.618761 0
0  -24.000000 -5.873611 48.000000  0.000000 0.000000 1.000000  0.000000 0.622367 0
0  -24.000000 -24.000000 48.000000  0.000000 0.000000 1.000000  0.000000 1.000000 0
bcrate08.vmt.001
0  -19.000000 -19.000000 45.500000  0.928477 0.000000 0.371390  0.104167 0.895833 0
0  -19.000000 -12.332159 45.500000  0.928477 0.000000 0.371390  0.104167 0.756920 0
0  -20.000000 -20.000000 48.000000  0.928477 0.000000 0.371390  0.083333 0.916667 0
bcrate08.vmt.001
0  -19.715382 -5.661844 47.288452  0.928477 0.000000 0.371389  0.089263 0.617955 0
0  -20.000000 -5.700550 48.000000  0.928477 0.000000 0.371389  0.083333 0.618761 0
0  -19.000000 -12.332159 45.500000  0.928477 0.000000 0.371390  0.104167 0.756920 0
borked_crate
0  2.672853 -11.152408 42.919998  -0.053503 0.698799 -0.713314  1.000000 0.254795 0
0  -12.414836 -12.307567 42.920006  -0.053503 0.698799 -0.713314  0.916667 0.263634 0
0  -12.308821 -9.665869 45.500000  -0.053503 0.698799 -0.713314  0.916667 0.290373 0
bcrate08.vmt.001
0  -21.120001 -21.120001 45.120003  -0.000000 1.000000 -0.000000  1.000000 1.000000 0
0  1.302626 -21.120001 45.120003  0.000000 1.000000 -0.000000  0.469161 1.000000 0
0  -12.254973 -21.119999 43.252655  -0.000000 1.000000 0.000001  0.790127 0.955792 0
bcrate08.vmt.001
0  0.942194 -21.120003 41.599998  0.000001 1.000000 -0.000001  0.477694 0.916667 0
0  -1.227707 -21.120001 41.599998  0.000000 1.000000 -0.000000  0.529065 0.916667 0
0  1.302626 -21.120001 45.120003  0.000000 1.000000 -0.000000  0.469161 1.000000 0
bcrate08.vmt.001
0  -12.254973 -21.119999 43.252655  -0.000000 1.000000 0.000001  0.790127 0.955792 0
0  -18.110666 -21.120001 42.110664  -0.000000 1.000000 -0.000000  0.928756 0.928756 0
0  -21.120001 -21.120001 45.120003  -0.000000 1.000000 -0.000000  1.000000 1.000000 0
borked_crate
0  -12.254973 -21.119999 43.252655  0.187279 -0.206660 -0.960322  0.916667 0.203780 0
0  -12.190272 -23.377943 43.751179  0.187279 -0.206660 -0.960322  0.916667 0.189801 0
0  -13.969815 -21.500000 43.000000  0.187279 -0.206660 -0.960322  0.905411 0.202735 0
borked_crate
0  -19.000000 -21.500002 42.019001  -0.143550 -0.077923 -0.986571  0.872592 0.206615 0
0  -19.999998 -23.999998 42.361965  -0.143550 -0.077923 -0.986571  0.865937 0.189886 0
0  -21.120003 -21.120003 42.297459  -0.143550 -0.077923 -0.986571  0.858791 0.210862 0
borked_crate
0  -12.254973 -21.119999 43.252655  0.187283 -0.206663 -0.960320  0.916667 0.203780 0
0  -13.969815 -21.500000 43.000000  0.187283 -0.206663 -0.960320  0.905411 0.202735 0
0  -18.110666 -21.120001 42.110664  0.187283 -0.206663 -0.960320  0.878435 0.208464 0
borked_crate
0  -18.110666 -21.120001 42.110664  0.187283 -0.206662 -0.960321  0.878435 0.208464 0
0  -13.969815 -21.500000 43.000000  0.187283 -0.206662 -0.960321  0.905411 0.202735 0
0  -19.000000 -21.500002 42.019001  0.187283 -0.206662 -0.960321  0.872592 0.206615 0
borked_crate
0  -24.000000 -24.000000 42.462933  -0.214626 0.159260 -0.963624  0.840024 0.191849 0
0  -24.000000 -20.000000 43.124020  -0.214626 0.159260 -0.963624  0.839991 0.221372 0
0  -21.120003 -21.120003 42.297459  -0.214626 0.159260 -0.963624  0.858791 0.210862 0
borked_crate
0  -21.500000 -17.381269 43.000000  -0.214631 0.159258 -0.963624  0.856494 0.237436 0
0  -22.936310 -15.840689 43.574520  -0.214631 0.159258 -0.963624  0.847097 0.250000 0
0  -21.120001 -15.461359 43.232666  -0.214631 0.159258 -0.963624  0.859169 0.250000 0
borked_crate
0  -21.500000 -19.000002 42.732471  -0.214610 0.159257 -0.963628  0.856402 0.226137 0
0  -21.500000 -17.381269 43.000000  -0.214610 0.159257 -0.963628  0.856494 0.237436 0
0  -21.120001 -18.697781 42.697781  -0.214610 0.159257 -0.963628  0.858916 0.227840 0
borked_crate
0  -21.120001 -15.461359 43.232666  -0.214614 0.159260 -0.963627  0.859169 0.250000 0
0  -21.120001 -18.697781 42.697781  -0.214614 0.159260 -0.963627  0.858916 0.227840 0
0  -21.500000 -17.381269 43.000000  -0.214614 0.159260 -0.963627  0.856494 0.237436 0
borked_crate
0  -21.120003 -21.120003 42.297459  -0.057800 0.359901 -0.931198  0.858791 0.210862 0
0  -18.110666 -21.120001 42.110664  -0.057800 0.359901 -0.931198  0.878435 0.208464 0
0  -19.000000 -21.500002 42.019001  -0.057800 0.359901 -0.931198  0.872592 0.206615 0
borked_crate
0  -21.500000 -19.000002 42.732471  -0.214635 0.159257 -0.963623  0.856402 0.226137 0
0  -21.120001 -18.697781 42.697781  -0.214635 0.159257 -0.963623  0.858916 0.227840 0
0  -21.120003 -21.120003 42.297459  -0.214635 0.159257 -0.963623  0.858791 0.210862 0
borked_crate
0  -21.120003 -21.120003 42.297459  -0.025221 -0.032187 -0.999164  0.858791 0.210862 0
0  -19.999998 -23.999998 42.361965  -0.025221 -0.032187 -0.999164  0.865937 0.189886 0
0  -24.000000 -24.000000 42.462933  -0.025221 -0.032187 -0.999164  0.840024 0.191849 0
bcrate08.vmt.001
0  -8.715652 -24.000000 44.000000  0.000000 -1.000000 -0.000000  0.681576 0.916667 0
0  0.606612 -24.000000 44.000000  0.000000 -1.000000 -0.000000  0.487362 0.916667 0
0  1.016190 -24.000000 48.000000  0.000000 -1.000000 -0.000000  0.478829 1.000000 0
bcrate08.vmt.001
0  1.016190 -24.000000 48.000000  0.000000 -1.000000 -0.000000  0.478829 1.000000 0
0  -24.000000 -24.000000 48.000000  0.000000 -1.000000 0.000000  1.000000 1.000000 0
0  -9.046518 -24.000000 44.141243  0.000000 -1.000000 0.000000  0.688469 0.919609 0
bcrate08.vmt.001
0  -20.000000 -24.000000 44.000000  -0.000001 -1.000000 0.000000  0.916667 0.916667 0
0  -10.793552 -24.000000 44.000000  0.000000 -1.000000 0.000003  0.724866 0.916667 0
0  -24.000000 -24.000000 48.000000  0.000000 -1.000000 0.000000  1.000000 1.000000 0
bcrate08.vmt.001
0  -9.046518 -24.000000 44.141243  0.000000 -1.000000 0.000000  0.688469 0.919609 0
0  -8.715652 -24.000000 44.000000  0.000000 -1.000000 -0.000000  0.681576 0.916667 0
0  1.016190 -24.000000 48.000000  0.000000 -1.000000 -0.000000  0.478829 1.000000 0
bcrate08.vmt.001
0  -21.500000 -19.000002 42.732471  -0.371401 0.928472 0.000000  0.895833 0.890260 0
0  -24.000000 -20.000000 43.124020  -0.371386 0.928478 0.000000  0.916667 0.898417 0
0  -24.000000 -20.000000 44.000000  -0.371388 0.928478 0.000000  0.916667 0.916667 0
bcrate08.vmt.001
0  1.008843 -21.500000 43.000000  0.000000 -0.371391 -0.928477  0.478983 0.895833 0
0  0.606612 -24.000000 44.000000  0.000000 -0.371391 -0.928477  0.487362 0.916667 0
0  -8.715652 -24.000000 44.000000  0.000000 -0.371391 -0.928477  0.681576 0.916667 0
bcrate08.vmt.001
0  -19.000000 -21.500000 43.000000  0.000000 -0.371391 -0.928477  0.895833 0.895833 0
0  -13.969815 -21.500000 43.000000  0.000000 -0.371391 -0.928477  0.791038 0.895833 0
0  -20.000000 -24.000000 44.000000  0.000000 -0.371391 -0.928477  0.916667 0.916667 0
bcrate08.vmt.001
0  -12.190272 -23.377943 43.751179  0.000000 -0.371390 -0.928477  0.753964 0.911483 0
0  -10.793552 -24.000000 44.000000  0.000000 -0.371389 -0.928477  0.724866 0.916667 0
0  -20.000000 -24.000000 44.000000  0.000000 -0.371391 -0.928477  0.916667 0.916667 0
borked_crate
0  1.360538 -8.168345 45.500000  0.948167 0.213412 0.235447  0.613213 0.666667 0
0  2.202864 -11.910693 45.500000  0.948167 0.213412 0.235447  0.583333 0.647301 0
0  2.808024 -11.752955 42.920002  0.948167 0.213412 0.235447  0.583333 0.663559 0
borked_crate
0  1.769459 -19.000000 45.500000  0.975330 -0.196871 -0.099869  0.538987 0.637216 0
0  1.823595 -20.000000 48.000000  0.975330 -0.196871 -0.099869  0.533350 0.618793 0
0  1.302626 -21.120001 45.120003  0.975330 -0.196871 -0.099869  0.525411 0.636406 0
borked_crate
0  1.016190 -24.000000 48.000000  0.975330 -0.196872 -0.099868  0.507426 0.610991 0
0  0.606612 -24.000000 44.000000  0.975330 -0.196872 -0.099868  0.506867 0.639568 0
0  1.302626 -21.120001 45.120003  0.975330 -0.196872 -0.099868  0.525411 0.636406 0
borked_crate
0  0.767516 -21.500000 40.643158  0.975329 -0.196873 -0.099869  0.521973 0.666667 0
0  1.187367 -19.596189 40.990475  0.975329 -0.196873 -0.099869  0.533921 0.666667 0
0  0.942194 -21.120003 41.599998  0.975329 -0.196873 -0.099869  0.524586 0.660618 0
borked_crate
0  0.767516 -21.500000 40.643158  0.975330 -0.196872 -0.099868  0.521973 0.666667 0
0  0.942194 -21.120003 41.599998  0.975330 -0.196872 -0.099868  0.524586 0.660618 0
0  1.008843 -21.500000 43.000000  0.975330 -0.196872 -0.099868  0.522532 0.650471 0
borked_crate
0  1.008843 -21.500000 43.000000  0.975329 -0.196874 -0.099869  0.522532 0.650471 0
0  0.942194 -21.120003 41.599998  0.975329 -0.196874 -0.099869  0.524586 0.660618 0
0  1.302626 -21.120001 45.120003  0.975329 -0.196874 -0.099869  0.525411 0.636406 0
borked_crate
0  2.013143 -17.600000 45.120003  0.998938 -0.031037 -0.034046  0.547721 0.641860 0
0  1.965504 -16.719999 42.920002  0.998938 -0.031037 -0.034046  0.552454 0.657432 0
0  2.202864 -11.910693 45.500000  0.998938 -0.031037 -0.034046  0.583333 0.647301 0
borked_crate
0  0.606612 -24.000000 44.000000  0.975330 -0.196871 -0.099870  0.506867 0.639568 0
0  1.008843 -21.500000 43.000000  0.975330 -0.196871 -0.099870  0.522532 0.650471 0
0  1.302626 -21.120001 45.120003  0.975330 -0.196871 -0.099870  0.525411 0.636406 0
borked_crate
0  1.965504 -16.719999 42.920002  0.962682 -0.163292 0.215822  0.552454 0.657432 0
0  2.808024 -11.752955 42.920002  0.962682 -0.163292 0.215822  0.583333 0.663559 0
0  2.202864 -11.910693 45.500000  0.962682 -0.163292 0.215822  0.583333 0.647301 0
borked_crate
0  1.823595 -20.000000 48.000000  0.975330 -0.196872 -0.099868  0.533350 0.618793 0
0  1.016190 -24.000000 48.000000  0.975330 -0.196872 -0.099868  0.507426 0.610991 0
0  1.302626 -21.120001 45.120003  0.975330 -0.196872 -0.099868  0.525411 0.636406 0
borked_crate
0  2.013143 -17.600000 45.120003  0.921810 -0.056356 0.383522  0.547721 0.641860 0
0  2.202864 -11.910693 45.500000  0.921810 -0.056356 0.383522  0.583333 0.647301 0
0  1.769459 -19.000000 45.500000  0.921810 -0.056356 0.383522  0.538987 0.637216 0
bcrate08.vmt.001
0  -19.000000 -19.000000 45.500000  -0.000001 0.000000 1.000000  0.104167 0.895833 0
0  1.769459 -19.000000 45.500000  0.000000 0.000000 1.000000  0.536864 0.895833 0
0  -12.308821 -9.665869 45.500000  -0.000000 0.000000 1.000000  0.243566 0.701372 0
bcrate08.vmt.001
0  2.202864 -11.910693 45.500000  0.000000 0.000000 1.000000  0.545893 0.748139 0
0  1.360538 -8.168345 45.500000  0.000000 0.000000 1.000000  0.528344 0.670174 0
0  -12.308821 -9.665869 45.500000  -0.000000 0.000000 1.000000  0.243566 0.701372 0
bcrate08.vmt.001
0  -12.308821 -9.665869 45.500000  -0.000000 0.000000 1.000000  0.243566 0.701372 0
0  -19.000000 -12.332159 45.500000  -0.000001 0.000000 1.000000  0.104167 0.756920 0
0  -19.000000 -19.000000 45.500000  -0.000001 0.000000 1.000000  0.104167 0.895833 0
bcrate08.vmt.001
0  -21.120001 -13.559794 45.120003  -0.000000 0.000000 -1.000000  0.000000 0.821018 0
0  -17.600000 -12.157152 45.120003  0.000000 0.000000 -1.000000  0.083333 0.787811 0
0  -17.600000 -17.600000 45.120003  -0.000000 0.000000 -1.000000  0.083333 0.916667 0
end
