// Created by Crowbar 0.54
version 1
nodes
  0 "Antlion.Body_Bone" -1
  1 "Antlion.Chest_Bone" 0
  2 "Antlion.ArmR1_Bone" 1
  3 "Antlion.ArmR2_Bone" 2
  4 "Antlion.ArmR3_Bone" 3
  5 "Antlion.ArmL1_Bone" 1
  6 "Antlion.ArmL2_Bone" 5
  7 "Antlion.ArmL3_Bone" 6
  8 "Antlion.Head_Bone" 1
  9 "Antlion.FangBottomL1_Bone" 8
  10 "Antlion.FangBottomL2_Bone" 9
  11 "Antlion.FangBottomR1_Bone" 8
  12 "Antlion.FangBottomR2_Bone" 11
  13 "Antlion.FangTopL1_Bone" 8
  14 "Antlion.FangTopL2_Bone" 13
  15 "Antlion.FangTopR1_Bone" 8
  16 "Antlion.FangTopR2_Bone" 15
  17 "Antlion.LegMidL1_Bone" 0
  18 "Antlion.LegMidL2_Bone" 17
  19 "Antlion.LegMidL3_Bone" 18
  20 "Antlion.LegMidR1_Bone" 0
  21 "Antlion.LegMidR2_Bone" 20
  22 "Antlion.LegMidR3_Bone" 21
  23 "Antlion.Back_Bone" 0
  24 "Antlion.LegShoulder_R_Bone" 23
  25 "Antlion.LegL1_Bone" 24
  26 "Antlion.LegL2_Bone" 25
  27 "Antlion.LegL3_Bone" 26
  28 "Antlion.LegShoulder_L_Bone" 23
  29 "Antlion.LegR1_Bone" 28
  30 "Antlion.LegR2_Bone" 29
  31 "Antlion.LegR3_Bone" 30
  32 "Antlion.WingL_Bone" 0
  33 "Antlion.WingR_Bone" 0
  34 "Antlion.bone" 23
end
skeleton
  time 0
    0 -0.059525 1.526386 -115.301276 0.162333 1.481486 0.217129
    1 -5.574535 -0.119304 0.054231 0.003405 0.069847 -0.048708
    2 -5.513216 -2.701017 -3.989360 0.393185 -0.134116 -0.907903
    3 10.569403 0.000000 0.000000 0.000000 0.000000 -2.446638
    4 13.357940 0.000000 0.000000 0.000000 0.000000 2.905515
    5 -5.436410 -2.626257 3.516682 2.761736 0.125569 -0.929008
    6 10.523520 0.000000 0.000000 0.000000 0.000000 2.454404
    7 13.611949 0.000001 0.000000 0.000000 0.000000 -2.922465
    8 -8.417345 1.069929 -0.018171 -0.010560 -0.015086 -0.006102
    9 -9.984112 -4.710447 3.170796 -2.902516 -0.005546 -2.717710
    10 5.945618 0.000000 0.000000 0.000000 0.000000 0.735012
    11 -9.984110 -4.710446 -2.998739 -0.223381 0.004087 -2.697966
    12 5.945625 0.000000 0.000000 0.000000 0.000000 -0.753546
    13 -13.167568 0.616876 1.590356 3.140739 -0.157522 -3.136150
    14 1.939788 0.000000 0.000000 3.040688 0.121169 2.449692
    15 -13.157713 0.632509 -1.795553 1.570796 0.016921 -3.058550
    16 2.215697 0.000000 -0.000001 1.570796 -0.608107 -3.124672
    17 -2.618796 -6.269598 8.263164 -2.760808 0.013168 -0.566451
    18 11.485748 0.000000 0.000000 0.000000 0.000000 -2.079873
    19 24.536900 -0.000001 -0.000001 0.000000 0.000000 2.719966
    20 -2.618795 -6.269599 -8.136835 -2.228380 0.376525 -2.257011
    21 11.659968 0.000000 0.000000 0.000000 0.000000 2.228813
    22 25.724375 0.000000 0.000000 0.000000 0.000000 -2.928636
    23 3.880159 -0.980432 0.090609 0.002502 0.184005 -0.077235
    24 13.389691 0.268266 -6.517195 0.542283 1.306249 -0.395924
    25 9.913784 0.000001 0.000000 1.408703 0.008473 -1.697286
    26 21.016012 0.000002 -0.000001 0.000000 0.000000 -1.740439
    27 28.471630 -0.000002 0.000002 0.000000 0.000000 1.879363
    28 13.389687 0.268266 6.023556 -0.462585 -1.348926 -0.488759
    29 9.768897 0.000001 0.000001 -1.971261 -0.542757 -1.804727
    30 19.931143 0.000001 -0.000001 0.000000 0.000000 -1.988193
    31 26.044123 -0.000001 -0.000001 0.000000 0.000000 2.871627
    32 -5.849911 4.319725 0.063164 0.504001 0.071120 0.390106
    33 -5.827133 4.411094 0.063164 -0.287408 0.076872 0.390350
    34 13.389687 0.268266 6.023556 -0.462585 -1.348926 -0.488759
  time 1
    0 -0.060081 1.594680 -107.972592 0.161950 1.481170 0.217223
    1 -5.574535 -0.119304 0.054231 0.003405 0.069847 -0.029309
    2 -5.513216 -2.701017 -3.989360 0.393185 -0.134116 -0.907903
    3 10.569403 0.000000 0.000000 0.000000 0.000000 -2.446638
    4 13.357940 0.000000 0.000000 0.000000 0.000000 2.905515
    5 -5.436410 -2.626257 3.516682 2.761736 0.125569 -0.929008
    6 10.523520 0.000000 0.000000 0.000000 0.000000 2.454404
    7 13.611949 0.000001 0.000000 0.000000 0.000000 -2.922465
    8 -8.417345 1.069929 -0.018171 -0.010560 -0.015086 -0.006102
    9 -9.984112 -4.710447 3.170796 -2.902516 -0.005546 -2.717710
    10 5.945618 0.000000 0.000000 0.000000 0.000000 0.735012
    11 -9.984110 -4.710446 -2.998739 -0.223381 0.004087 -2.697966
    12 5.945625 0.000000 0.000000 0.000000 0.000000 -0.753546
    13 -13.167568 0.616876 1.590356 3.140739 -0.157522 -3.136150
    14 1.939788 0.000000 0.000000 3.040688 0.121169 2.449692
    15 -13.157713 0.632509 -1.795553 1.570796 0.016921 -3.058550
    16 2.215697 0.000000 -0.000001 1.570796 -0.608107 -3.124672
    17 -2.618796 -6.269598 8.263164 -2.793330 0.093372 -0.618277
    18 11.485748 0.000000 0.000000 0.000000 0.000000 -1.938916
    19 24.536900 -0.000001 -0.000001 0.000000 0.000000 2.420004
    20 -2.618795 -6.269599 -8.136835 -1.546716 0.660327 -1.869720
    21 11.659968 0.000000 0.000000 0.000000 0.000000 2.279378
    22 25.724375 0.000000 0.000000 0.000000 0.000000 -3.073538
    23 3.880159 -0.980432 0.090609 0.002502 0.184005 -0.071273
    24 13.389691 0.268266 -6.517195 0.542283 1.306249 -0.395924
    25 9.913784 0.000001 0.000000 1.406863 0.065763 -1.712843
    26 21.016012 0.000002 -0.000001 0.000000 0.000000 -1.887519
    27 28.471630 -0.000002 0.000002 0.000000 0.000000 2.157890
    28 13.389687 0.268266 6.023556 -0.462585 -1.348926 -0.488759
    29 9.768897 0.000001 0.000001 -2.135298 -0.592893 -1.804727
    30 19.931143 0.000001 -0.000001 0.000000 0.000000 -1.982864
    31 26.044123 -0.000001 -0.000001 0.000000 0.000000 2.823480
    32 -5.849911 4.319725 0.063164 0.504001 0.071120 0.390106
    33 -5.827133 4.411094 0.063164 -0.287408 0.076872 0.390350
    34 13.389687 0.268266 6.023556 -0.462585 -1.348926 -0.488759
  time 2
    0 -0.061748 1.751147 -100.618269 0.160801 1.480275 0.217786
    1 -5.574535 -0.119304 0.054231 0.003405 0.069847 0.022143
    2 -5.513216 -2.701017 -3.989360 0.393185 -0.134116 -0.907903
    3 10.569403 0.000000 0.000000 0.000000 0.000000 -2.446638
    4 13.357940 0.000000 0.000000 0.000000 0.000000 2.905515
    5 -5.436410 -2.626257 3.516682 2.761736 0.125569 -0.929008
    6 10.523520 0.000000 0.000000 0.000000 0.000000 2.454404
    7 13.611949 0.000001 0.000000 0.000000 0.000000 -2.922465
    8 -8.417345 1.069929 -0.018171 -0.010560 -0.015086 -0.006102
    9 -9.984112 -4.710447 3.170796 -2.902516 -0.005546 -2.717710
    10 5.945618 0.000000 0.000000 0.000000 0.000000 0.735012
    11 -9.984110 -4.710446 -2.998739 -0.223381 0.004087 -2.697966
    12 5.945625 0.000000 0.000000 0.000000 0.000000 -0.753546
    13 -13.167568 0.616876 1.590356 3.140739 -0.157522 -3.136150
    14 1.939788 0.000000 0.000000 3.040688 0.121169 2.449692
    15 -13.157713 0.632509 -1.795553 1.570796 0.016921 -3.058550
    16 2.215697 0.000000 -0.000001 1.570796 -0.608107 -3.124672
    17 -2.618796 -6.269598 8.263164 -2.818664 0.145250 -0.663174
    18 11.485748 0.000000 0.000000 0.000000 0.000000 -1.794513
    19 24.536900 -0.000001 -0.000001 0.000000 0.000000 2.106947
    20 -2.618795 -6.269599 -8.136835 -0.789577 0.645907 -1.258118
    21 11.659968 0.000000 0.000000 0.000000 0.000000 2.276672
    22 25.724375 0.000000 0.000000 0.000000 0.000000 -3.060108
    23 3.880159 -0.980432 0.090609 0.002502 0.184005 -0.054847
    24 13.389691 0.268266 -6.517195 0.542283 1.306249 -0.395924
    25 9.913784 0.000001 0.000000 1.402998 0.149718 -1.734412
    26 21.016012 0.000002 -0.000001 0.000000 0.000000 -2.021403
    27 28.471630 -0.000002 0.000002 0.000000 0.000000 2.428098
    28 13.389687 0.268266 6.023556 -0.462585 -1.348926 -0.488759
    29 9.768897 0.000001 0.000001 -2.250841 -0.431381 -2.019744
    30 19.931143 0.000001 -0.000001 0.000000 0.000000 -1.832156
    31 26.044123 -0.000001 -0.000001 0.000000 0.000000 2.303589
    32 -5.849911 4.319725 0.063164 0.504001 0.071120 0.390106
    33 -5.827133 4.411094 0.063164 -0.287408 0.076872 0.390350
    34 13.389687 0.268266 6.023556 -0.462585 -1.348926 -0.488759
  time 3
    0 -0.060621 1.936613 -93.208392 0.159556 1.478853 0.219004
    1 -5.574535 -0.119304 0.054231 0.003405 0.069847 0.095578
    2 -5.513216 -2.701017 -3.989360 0.393185 -0.134116 -0.907903
    3 10.569403 0.000000 0.000000 0.000000 0.000000 -2.446638
    4 13.357940 0.000000 0.000000 0.000000 0.000000 2.905515
    5 -5.436410 -2.626257 3.516682 2.761736 0.125569 -0.929008
    6 10.523520 0.000000 0.000000 0.000000 0.000000 2.454404
    7 13.611949 0.000001 0.000000 0.000000 0.000000 -2.922465
    8 -8.417345 1.069929 -0.018171 -0.010560 -0.015086 -0.006102
    9 -9.984112 -4.710447 3.170796 -2.902516 -0.005546 -2.717710
    10 5.945618 0.000000 0.000000 0.000000 0.000000 0.735012
    11 -9.984110 -4.710446 -2.998739 -0.223381 0.004087 -2.697966
    12 5.945625 0.000000 0.000000 0.000000 0.000000 -0.753546
    13 -13.167568 0.616876 1.590356 3.140739 -0.157522 -3.136150
    14 1.939788 0.000000 0.000000 3.040688 0.121169 2.449692
    15 -13.157713 0.632509 -1.795553 1.570796 0.016921 -3.058550
    16 2.215697 0.000000 -0.000001 1.570796 -0.608107 -3.124672
    17 -2.618796 -6.269598 8.263164 -2.839387 0.183054 -0.702946
    18 11.485748 0.000000 0.000000 0.000000 0.000000 -1.634873
    19 24.536900 -0.000001 -0.000001 0.000000 0.000000 1.763802
    20 -2.618795 -6.269599 -8.136835 -0.484431 0.473487 -1.003840
    21 11.659968 0.000000 0.000000 0.000000 0.000000 2.215232
    22 25.724375 0.000000 0.000000 0.000000 0.000000 -2.899077
    23 3.880159 -0.980432 0.090609 0.002502 0.184005 -0.030147
    24 13.389691 0.268266 -6.517195 0.542283 1.306249 -0.395924
    25 9.913784 0.000001 0.000000 1.395454 0.274484 -1.765811
    26 21.016012 0.000002 -0.000001 0.000000 0.000000 -2.138467
    27 28.471630 -0.000002 0.000002 0.000000 0.000000 2.704256
    28 13.389687 0.268266 6.023556 -0.462585 -1.348926 -0.488759
    29 9.768897 0.000001 0.000001 -1.989721 -0.146074 -2.051047
    30 19.931143 0.000001 -0.000001 0.000000 0.000000 -1.562075
    31 26.044123 -0.000001 -0.000001 0.000000 0.000000 1.705843
    32 -5.849911 4.319725 0.063164 0.504001 0.071120 0.390106
    33 -5.827133 4.411094 0.063164 -0.287408 0.076872 0.390350
    34 13.389687 0.268266 6.023556 -0.462585 -1.348926 -0.488759
  time 4
    0 -0.060606 2.065006 -85.713050 0.158503 1.476957 0.221254
    1 -5.574535 -0.119304 0.054231 0.003405 0.069847 0.180894
    2 -5.513216 -2.701017 -3.989360 0.393185 -0.134116 -0.907903
    3 10.569403 0.000000 0.000000 0.000000 0.000000 -2.446638
    4 13.357940 0.000000 0.000000 0.000000 0.000000 2.905515
    5 -5.436410 -2.626257 3.516682 2.761736 0.125569 -0.929008
    6 10.523520 0.000000 0.000000 0.000000 0.000000 2.454404
    7 13.611949 0.000001 0.000000 0.000000 0.000000 -2.922465
    8 -8.417345 1.069929 -0.018171 -0.010560 -0.015086 -0.006102
    9 -9.984112 -4.710447 3.170796 -2.902516 -0.005546 -2.717710
    10 5.945618 0.000000 0.000000 0.000000 0.000000 0.735012
    11 -9.984110 -4.710446 -2.998739 -0.223381 0.004087 -2.697966
    12 5.945625 0.000000 0.000000 0.000000 0.000000 -0.753546
    13 -13.167568 0.616876 1.590356 3.140739 -0.157522 -3.136150
    14 1.939788 0.000000 0.000000 3.040688 0.121169 2.449692
    15 -13.157713 0.632509 -1.795553 1.570796 0.016921 -3.058550
    16 2.215697 0.000000 -0.000001 1.570796 -0.608107 -3.124672
    17 -2.618796 -6.269598 8.263164 -2.855797 0.210881 -0.731596
    18 11.485748 0.000000 0.000000 0.000000 0.000000 -1.436311
    19 24.536900 -0.000001 -0.000001 0.000000 0.000000 1.363587
    20 -2.618795 -6.269599 -8.136835 -0.366972 0.355102 -0.915271
    21 11.659968 0.000000 0.000000 0.000000 0.000000 2.102725
    22 25.724375 0.000000 0.000000 0.000000 0.000000 -2.673017
    23 3.880159 -0.980432 0.090609 0.002502 0.184005 0.000516
    24 13.389691 0.268266 -6.517195 0.542283 1.306249 -0.395924
    25 9.913784 0.000001 0.000000 1.378341 0.468282 -1.816489
    26 21.016012 0.000002 -0.000001 0.000000 0.000000 -2.202408
    27 28.471630 -0.000002 0.000002 0.000000 0.000000 2.994044
    28 13.389687 0.268266 6.023556 -0.462585 -1.348926 -0.488759
    29 9.768897 0.000001 0.000001 -1.804929 0.101845 -1.968400
    30 19.931143 0.000001 -0.000001 0.000000 0.000000 -1.308462
    31 26.044123 -0.000001 -0.000001 0.000000 0.000000 1.248506
    32 -5.849911 4.319725 0.063164 0.504001 0.071120 0.390106
    33 -5.827133 4.411094 0.063164 -0.287408 0.076872 0.390350
    34 13.389687 0.268266 6.023556 -0.462585 -1.348926 -0.488759
  time 5
    0 -0.077328 2.007218 -78.153608 0.158024 1.474744 0.224723
    1 -5.574535 -0.119304 0.054231 0.003405 0.069847 0.268023
    2 -5.513216 -2.701017 -3.989360 0.393185 -0.134116 -0.907903
    3 10.569403 0.000000 0.000000 0.000000 0.000000 -2.446638
    4 13.357940 0.000000 0.000000 0.000000 0.000000 2.905515
    5 -5.436410 -2.626257 3.516682 2.761736 0.125569 -0.929008
    6 10.523520 0.000000 0.000000 0.000000 0.000000 2.454404
    7 13.611949 0.000001 0.000000 0.000000 0.000000 -2.922465
    8 -8.417345 1.069929 -0.018171 -0.010560 -0.015086 -0.006102
    9 -9.984112 -4.710447 3.170796 -2.902516 -0.005546 -2.717710
    10 5.945618 0.000000 0.000000 0.000000 0.000000 0.735012
    11 -9.984110 -4.710446 -2.998739 -0.223381 0.004087 -2.697966
    12 5.945625 0.000000 0.000000 0.000000 0.000000 -0.753546
    13 -13.167568 0.616876 1.590356 3.140739 -0.157522 -3.136150
    14 1.939788 0.000000 0.000000 3.040688 0.121169 2.449692
    15 -13.157713 0.632509 -1.795553 1.570796 0.016921 -3.058550
    16 2.215697 0.000000 -0.000001 1.570796 -0.608107 -3.124672
    17 -2.618796 -6.269598 8.263164 -2.861966 0.224492 -0.724317
    18 11.485748 0.000000 0.000000 0.000000 0.000000 -1.184702
    19 24.536900 -0.000001 -0.000001 0.000000 0.000000 0.923761
    20 -2.618795 -6.269599 -8.136835 -0.307145 0.281841 -0.874256
    21 11.659968 0.000000 0.000000 0.000000 0.000000 1.977188
    22 25.724375 0.000000 0.000000 0.000000 0.000000 -2.418619
    23 3.880159 -0.980432 0.090609 0.002502 0.184005 0.035011
    24 13.389691 0.268266 -6.517195 0.542283 1.306249 -0.395924
    25 9.913784 0.000001 0.000000 1.344116 0.694585 -1.889309
    26 21.016012 0.000002 -0.000001 0.000000 0.000000 -2.142488
    27 28.471630 -0.000002 0.000002 0.000000 0.000000 3.224133
    28 13.389687 0.268266 6.023556 -0.462585 -1.348926 -0.488759
    29 9.768897 0.000001 0.000001 -1.772600 0.122346 -1.946927
    30 19.931143 0.000001 -0.000001 0.000000 0.000000 -1.415524
    31 26.044123 -0.000001 -0.000001 0.000000 0.000000 1.431172
    32 -5.849911 4.319725 0.063164 0.504001 0.071120 0.390106
    33 -5.827133 4.411094 0.063164 -0.287408 0.076872 0.390350
    34 13.389687 0.268266 6.023556 -0.462585 -1.348926 -0.488759
  time 6
    0 -0.231885 1.305993 -70.636900 0.158694 1.472269 0.229598
    1 -5.574535 -0.119304 0.054231 0.003405 0.069847 0.346895
    2 -5.513216 -2.701017 -3.989360 0.393185 -0.134116 -0.907903
    3 10.569403 0.000000 0.000000 0.000000 0.000000 -2.446638
    4 13.357940 0.000000 0.000000 0.000000 0.000000 2.905515
    5 -5.436410 -2.626257 3.516682 2.761736 0.125569 -0.929008
    6 10.523520 0.000000 0.000000 0.000000 0.000000 2.454404
    7 13.611949 0.000001 0.000000 0.000000 0.000000 -2.922465
    8 -8.417345 1.069929 -0.018171 -0.010560 -0.015086 -0.006102
    9 -9.984112 -4.710447 3.170796 -2.902516 -0.005546 -2.717710
    10 5.945618 0.000000 0.000000 0.000000 0.000000 0.735012
    11 -9.984110 -4.710446 -2.998739 -0.223381 0.004087 -2.697966
    12 5.945625 0.000000 0.000000 0.000000 0.000000 -0.753546
    13 -13.167568 0.616876 1.590356 3.140739 -0.157522 -3.136150
    14 1.939788 0.000000 0.000000 3.040688 0.121169 2.449692
    15 -13.157713 0.632509 -1.795553 1.570796 0.016921 -3.058550
    16 2.215697 0.000000 -0.000001 1.570796 -0.608107 -3.124672
    17 -2.618796 -6.269598 8.263164 -2.857414 0.225134 -0.691940
    18 11.485748 0.000000 0.000000 0.000000 0.000000 -1.241307
    19 24.536900 -0.000001 -0.000001 0.000000 0.000000 1.014887
    20 -2.618795 -6.269599 -8.136835 -0.266974 0.233774 -0.841114
    21 11.659968 0.000000 0.000000 0.000000 0.000000 1.850148
    22 25.724375 0.000000 0.000000 0.000000 0.000000 -2.151434
    23 3.880159 -0.980432 0.090609 0.002502 0.184005 0.071027
    24 13.389691 0.268266 -6.517195 0.542283 1.306249 -0.395924
    25 9.913784 0.000001 0.000000 1.317343 0.814939 -1.941418
    26 21.016012 0.000002 -0.000001 0.000000 0.000000 -2.124139
    27 28.471630 -0.000002 0.000002 0.000000 0.000000 3.249983
    28 13.389687 0.268266 6.023556 -0.462585 -1.348926 -0.488759
    29 9.768897 0.000001 0.000001 -1.762940 0.065179 -1.934807
    30 19.931143 0.000001 -0.000001 0.000000 0.000000 -1.586696
    31 26.044123 -0.000001 -0.000001 0.000000 0.000000 1.754951
    32 -5.849911 4.319725 0.063164 0.504001 0.071120 0.390106
    33 -5.827133 4.411094 0.063164 -0.287408 0.076872 0.390350
    34 13.389687 0.268266 6.023556 -0.462585 -1.348926 -0.488759
  time 7
    0 -0.516464 0.015126 -63.154378 0.160801 1.469583 0.236161
    1 -5.574535 -0.119304 0.054231 0.003405 0.069847 0.407409
    2 -5.513216 -2.701017 -3.989360 0.393185 -0.134116 -0.907903
    3 10.569403 0.000000 0.000000 0.000000 0.000000 -2.446638
    4 13.357940 0.000000 0.000000 0.000000 0.000000 2.905515
    5 -5.436410 -2.626257 3.516682 2.761736 0.125569 -0.929008
    6 10.523520 0.000000 0.000000 0.000000 0.000000 2.454404
    7 13.611949 0.000001 0.000000 0.000000 0.000000 -2.922465
    8 -8.417345 1.069929 -0.018171 -0.010560 -0.015086 -0.006102
    9 -9.984112 -4.710447 3.170796 -2.902516 -0.005546 -2.717710
    10 5.945618 0.000000 0.000000 0.000000 0.000000 0.735012
    11 -9.984110 -4.710446 -2.998739 -0.223381 0.004087 -2.697966
    12 5.945625 0.000000 0.000000 0.000000 0.000000 -0.753546
    13 -13.167568 0.616876 1.590356 3.140739 -0.157522 -3.136150
    14 1.939788 0.000000 0.000000 3.040688 0.121169 2.449692
    15 -13.157713 0.632509 -1.795553 1.570796 0.016921 -3.058550
    16 2.215697 0.000000 -0.000001 1.570796 -0.608107 -3.124672
    17 -2.618796 -6.269598 8.263164 -2.839327 0.207176 -0.613910
    18 11.485748 0.000000 0.000000 0.000000 0.000000 -1.491470
    19 24.536900 -0.000001 -0.000001 0.000000 0.000000 1.470981
    20 -2.618795 -6.269599 -8.136835 -0.237013 0.198636 -0.812544
    21 11.659968 0.000000 0.000000 0.000000 0.000000 1.712984
    22 25.724375 0.000000 0.000000 0.000000 0.000000 -1.861437
    23 3.880159 -0.980432 0.090609 0.002502 0.184005 0.106374
    24 13.389691 0.268266 -6.517195 0.542283 1.306249 -0.395924
    25 9.913784 0.000001 0.000000 1.329763 0.792230 -1.939891
    26 21.016012 0.000002 -0.000001 0.000000 0.000000 -2.192100
    27 28.471630 -0.000002 0.000002 0.000000 0.000000 3.108513
    28 13.389687 0.268266 6.023556 -0.462585 -1.348926 -0.488759
    29 9.768897 0.000001 0.000001 -1.753183 -0.016300 -1.917533
    30 19.931143 0.000001 -0.000001 0.000000 0.000000 -1.727545
    31 26.044123 -0.000001 -0.000001 0.000000 0.000000 2.055361
    32 -5.849911 4.319725 0.063164 0.504001 0.071120 0.390106
    33 -5.827133 4.411094 0.063164 -0.287408 0.076872 0.390350
    34 13.389687 0.268266 6.023556 -0.462585 -1.348926 -0.488759
  time 8
    0 -0.899814 -1.752415 -55.680402 0.164823 1.466791 0.244786
    1 -5.574535 -0.119304 0.054231 0.003405 0.069847 0.439528
    2 -5.513216 -2.701017 -3.989360 0.393185 -0.134116 -0.907903
    3 10.569403 0.000000 0.000000 0.000000 0.000000 -2.446638
    4 13.357940 0.000000 0.000000 0.000000 0.000000 2.905515
    5 -5.436410 -2.626257 3.516682 2.761736 0.125569 -0.929008
    6 10.523520 0.000000 0.000000 0.000000 0.000000 2.454404
    7 13.611949 0.000001 0.000000 0.000000 0.000000 -2.922465
    8 -8.417345 1.069929 -0.018171 -0.010560 -0.015086 -0.006102
    9 -9.984112 -4.710447 3.170796 -2.902516 -0.005546 -2.717710
    10 5.945618 0.000000 0.000000 0.000000 0.000000 0.735012
    11 -9.984110 -4.710446 -2.998739 -0.223381 0.004087 -2.697966
    12 5.945625 0.000000 0.000000 0.000000 0.000000 -0.753546
    13 -13.167568 0.616876 1.590356 3.140739 -0.157522 -3.136150
    14 1.939788 0.000000 0.000000 3.040688 0.121169 2.449692
    15 -13.157713 0.632509 -1.795553 1.570796 0.016921 -3.058550
    16 2.215697 0.000000 -0.000001 1.570796 -0.608107 -3.124672
    17 -2.618796 -6.269598 8.263164 -2.807584 0.158006 -0.467166
    18 11.485748 0.000000 0.000000 0.000000 0.000000 -1.724006
    19 24.536900 -0.000001 -0.000001 0.000000 0.000000 1.954056
    20 -2.618795 -6.269599 -8.136835 -0.213254 0.171784 -0.785751
    21 11.659968 0.000000 0.000000 0.000000 0.000000 1.551215
    22 25.724375 0.000000 0.000000 0.000000 0.000000 -1.530957
    23 3.880159 -0.980432 0.090609 0.002502 0.184005 0.138861
    24 13.389691 0.268266 -6.517195 0.542283 1.306249 -0.395924
    25 9.913784 0.000001 0.000000 1.371441 0.644173 -1.902098
    26 21.016012 0.000002 -0.000001 0.000000 0.000000 -2.169276
    27 28.471630 -0.000002 0.000002 0.000000 0.000000 2.801129
    28 13.389687 0.268266 6.023556 -0.462585 -1.348926 -0.488759
    29 9.768897 0.000001 0.000001 -1.742949 -0.121631 -1.894055
    30 19.931143 0.000001 -0.000001 0.000000 0.000000 -1.849156
    31 26.044123 -0.000001 -0.000001 0.000000 0.000000 2.346743
    32 -5.849911 4.319725 0.063164 0.504001 0.071120 0.390106
    33 -5.827133 4.411094 0.063164 -0.287408 0.076872 0.390350
    34 13.389687 0.268266 6.023556 -0.462585 -1.348926 -0.488759
  time 9
    0 -1.338964 -3.910558 -48.193606 0.171239 1.463947 0.255755
    1 -5.574535 -0.119304 0.054231 0.003436 0.069871 0.455638
    2 -5.513216 -2.701017 -3.989360 0.393185 -0.134116 -0.907903
    3 10.569403 0.000000 0.000000 0.000000 0.000000 -2.446638
    4 13.357940 0.000000 0.000000 0.000000 0.000000 2.905515
    5 -5.436410 -2.626257 3.516682 2.761736 0.125569 -0.929008
    6 10.523520 0.000000 0.000000 0.000000 0.000000 2.454404
    7 13.611949 0.000001 0.000000 0.000000 0.000000 -2.922465
    8 -8.417345 1.069929 -0.018171 -0.010560 -0.015086 -0.006102
    9 -9.984112 -4.710447 3.170796 -2.902516 -0.005546 -2.717710
    10 5.945618 0.000000 0.000000 0.000000 0.000000 0.735012
    11 -9.984110 -4.710446 -2.998739 -0.223381 0.004087 -2.697966
    12 5.945625 0.000000 0.000000 0.000000 0.000000 -0.753546
    13 -13.167568 0.616876 1.590356 3.140739 -0.157522 -3.136150
    14 1.939788 0.000000 0.000000 3.040688 0.121169 2.449692
    15 -13.157713 0.632509 -1.795553 1.570796 0.016921 -3.058550
    16 2.215697 0.000000 -0.000001 1.570796 -0.608107 -3.124672
    17 -2.618796 -6.269598 8.263164 -2.779315 0.083218 -0.296256
    18 11.485748 0.000000 0.000000 0.000000 0.000000 -1.896657
    19 24.536900 -0.000001 -0.000001 0.000000 0.000000 2.329274
    20 -2.618795 -6.269599 -8.136835 -0.192453 0.152723 -0.749244
    21 11.659968 0.000000 0.000000 0.000000 0.000000 1.333066
    22 25.724375 0.000000 0.000000 0.000000 0.000000 -1.126067
    23 3.880159 -0.980432 0.090609 0.002502 0.184005 0.166238
    24 13.389691 0.268266 -6.517195 0.542283 1.306249 -0.395924
    25 9.913784 0.000001 0.000000 1.405390 0.528491 -1.884728
    26 21.016012 0.000002 -0.000001 0.000000 0.000000 -2.048135
    27 28.471630 -0.000002 0.000002 0.000000 0.000000 2.486644
    28 13.389687 0.268266 6.023556 -0.462585 -1.348926 -0.488759
    29 9.768897 0.000001 0.000001 -1.732715 -0.262970 -1.861894
    30 19.931143 0.000001 -0.000001 0.000000 0.000000 -1.946039
    31 26.044123 -0.000001 -0.000001 0.000000 0.000000 2.640174
    32 -5.849911 4.319725 0.063164 0.504001 0.071120 0.390106
    33 -5.827133 4.411094 0.063164 -0.287408 0.076872 0.390350
    34 13.389687 0.268266 6.023556 -0.462585 -1.348926 -0.488759
  time 10
    0 -1.798758 -6.394747 -40.659804 0.180719 1.461103 0.269443
    1 -5.574535 -0.119304 0.054231 0.003436 0.070036 0.518401
    2 -5.513216 -2.701017 -3.989360 0.393185 -0.134116 -0.907903
    3 10.569403 0.000000 0.000000 0.000000 0.000000 -2.446638
    4 13.357940 0.000000 0.000000 0.000000 0.000000 2.905515
    5 -5.436410 -2.626257 3.516682 2.761736 0.125569 -0.929008
    6 10.523520 0.000000 0.000000 0.000000 0.000000 2.454404
    7 13.611949 0.000001 0.000000 0.000000 0.000000 -2.922465
    8 -8.417345 1.069929 -0.018171 -0.010560 -0.015086 0.005373
    9 -9.984112 -4.710447 3.170796 -2.902516 -0.005546 -2.717710
    10 5.945618 0.000000 0.000000 0.000000 0.000000 0.735012
    11 -9.984110 -4.710446 -2.998739 -0.223381 0.004087 -2.697966
    12 5.945625 0.000000 0.000000 0.000000 0.000000 -0.753546
    13 -13.167568 0.616876 1.590356 3.140739 -0.157522 -3.136150
    14 1.939788 0.000000 0.000000 3.040688 0.121169 2.449692
    15 -13.157713 0.632509 -1.795553 1.570796 0.016921 -3.058550
    16 2.215697 0.000000 -0.000001 1.570796 -0.608107 -3.124672
    17 -2.618796 -6.269598 8.263164 -2.768834 0.037646 -0.217585
    18 11.485748 0.000000 0.000000 0.000000 0.000000 -1.956376
    19 24.536900 -0.000001 -0.000001 0.000000 0.000000 2.457499
    20 -2.618795 -6.269599 -8.136835 -0.166308 0.149326 -0.648802
    21 11.659968 0.000000 0.000000 0.000000 0.000000 0.972242
    22 25.724375 0.000000 0.000000 0.000000 0.000000 -0.599021
    23 3.880159 -0.980432 0.090609 0.002502 0.184005 0.186193
    24 13.389691 0.268266 -6.517195 0.542283 1.306249 -0.395924
    25 9.913784 0.000001 0.000000 1.443020 0.331903 -1.816680
    26 21.016012 0.000002 -0.000001 0.000000 0.000000 -1.850027
    27 28.471630 -0.000002 0.000002 0.000000 0.000000 2.085587
    28 13.389687 0.268266 6.023556 -0.462585 -1.348926 -0.488759
    29 9.768897 0.000001 0.000001 -1.724489 -0.458519 -1.818088
    30 19.931143 0.000001 -0.000001 0.000000 0.000000 -1.991390
    31 26.044123 -0.000001 -0.000001 0.000000 0.000000 2.936550
    32 -5.849911 4.319725 0.063164 0.504001 0.071120 0.390106
    33 -5.827133 4.411094 0.063164 -0.287408 0.076872 0.390350
    34 13.389687 0.268266 6.023556 -0.462585 -1.348926 -0.488759
  time 11
    0 -2.247945 -9.151190 -33.053357 0.193839 1.458311 0.286412
    1 -5.574535 -0.119304 0.054231 0.003468 0.070248 0.608248
    2 -5.513216 -2.701017 -3.989360 0.393185 -0.134116 -0.907903
    3 10.569403 0.000000 0.000000 0.000000 0.000000 -2.446638
    4 13.357940 0.000000 0.000000 0.000000 0.000000 2.905515
    5 -5.436410 -2.626257 3.516682 2.761736 0.125569 -0.929008
    6 10.523520 0.000000 0.000000 0.000000 0.000000 2.454404
    7 13.611949 0.000001 0.000000 0.000000 0.000000 -2.922465
    8 -8.417345 1.069929 -0.018171 -0.010560 -0.015086 0.038864
    9 -9.984112 -4.710447 3.170796 -2.902516 -0.005546 -2.717710
    10 5.945618 0.000000 0.000000 0.000000 0.000000 0.735012
    11 -9.984110 -4.710446 -2.998739 -0.223381 0.004087 -2.697966
    12 5.945625 0.000000 0.000000 0.000000 0.000000 -0.753546
    13 -13.167568 0.616876 1.590356 3.140739 -0.157522 -3.136150
    14 1.939788 0.000000 0.000000 3.040688 0.121169 2.449692
    15 -13.157713 0.632509 -1.795553 1.570796 0.016921 -3.058550
    16 2.215697 0.000000 -0.000001 1.570796 -0.608107 -3.124672
    17 -2.618796 -6.269598 8.263164 -2.775422 0.101282 -0.274361
    18 11.485748 0.000000 0.000000 0.000000 0.000000 -1.796236
    19 24.536900 -0.000001 -0.000001 0.000000 0.000000 2.110717
    20 -2.618795 -6.269599 -8.136835 -0.169266 0.148124 -0.679023
    21 11.659968 0.000000 0.000000 0.000000 0.000000 1.287813
    22 25.724375 0.000000 0.000000 0.000000 0.000000 -1.049921
    23 3.880159 -0.980432 0.090609 0.002502 0.184005 0.196657
    24 13.389691 0.268266 -6.517195 0.542283 1.306249 -0.395924
    25 9.913784 0.000001 0.000000 1.464641 0.130903 -1.715324
    26 21.016012 0.000002 -0.000001 0.000000 0.000000 -1.709063
    27 28.471630 -0.000002 0.000002 0.000000 0.000000 1.822161
    28 13.389687 0.268266 6.023556 -0.462585 -1.348926 -0.488759
    29 9.768897 0.000001 0.000001 -1.719707 -0.699801 -1.764072
    30 19.931143 0.000001 -0.000001 0.000000 0.000000 -1.926961
    31 26.044123 -0.000001 -0.000001 0.000000 0.000000 3.199760
    32 -5.849911 4.319725 0.063164 0.504001 0.071120 0.390106
    33 -5.827133 4.411094 0.063164 -0.287408 0.076872 0.390350
    34 13.389687 0.268266 6.023556 -0.462585 -1.348926 -0.488759
  time 12
    0 -2.651368 -12.131469 -25.348624 0.310955 1.451306 0.406040
    1 -5.574535 -0.119304 0.054231 0.003499 0.070484 0.698129
    2 -5.513216 -2.701017 -3.989360 0.393185 -0.134116 -0.907903
    3 10.569403 0.000000 0.000000 0.000000 0.000000 -2.446638
    4 13.357940 0.000000 0.000000 0.000000 0.000000 2.905515
    5 -5.436410 -2.626257 3.516682 2.761736 0.125569 -0.929008
    6 10.523520 0.000000 0.000000 0.000000 0.000000 2.454404
    7 13.611949 0.000001 0.000000 0.000000 0.000000 -2.922465
    8 -8.417345 1.069929 -0.018171 -0.010560 -0.015086 0.082167
    9 -9.984112 -4.710447 3.170796 -2.902516 -0.005546 -2.717710
    10 5.945618 0.000000 0.000000 0.000000 0.000000 0.735012
    11 -9.984110 -4.710446 -2.998739 -0.223381 0.004087 -2.697966
    12 5.945625 0.000000 0.000000 0.000000 0.000000 -0.753546
    13 -13.167568 0.616876 1.590356 3.140739 -0.157522 -3.136150
    14 1.939788 0.000000 0.000000 3.040688 0.121169 2.449692
    15 -13.157713 0.632509 -1.795553 1.570796 0.016921 -3.058550
    16 2.215697 0.000000 -0.000001 1.570796 -0.608107 -3.124672
    17 -2.618796 -6.269598 8.263164 -2.786023 0.148101 -0.328109
    18 11.485748 0.000000 0.000000 0.000000 0.000000 -1.618247
    19 24.536900 -0.000001 -0.000001 0.000000 0.000000 1.729216
    20 -2.618795 -6.269599 -8.136835 -0.173846 0.175389 -0.673182
    21 11.659968 0.000000 0.000000 0.000000 0.000000 1.634054
    22 25.724375 0.000000 0.000000 0.000000 0.000000 -1.698157
    23 3.880159 -0.980432 0.090609 0.002502 0.184055 0.178832
    24 13.389691 0.268266 -6.517195 0.542283 1.306249 -0.395924
    25 9.913784 0.000001 0.000000 1.461697 -0.010407 -1.594499
    26 21.016012 0.000002 -0.000001 0.000000 0.000000 -1.781839
    27 28.471630 -0.000002 0.000002 0.000000 0.000000 1.956145
    28 13.389687 0.268266 6.023556 -0.462585 -1.348926 -0.488759
    29 9.768897 0.000001 0.000001 -2.244815 -1.249848 -1.299872
    30 19.931143 0.000001 -0.000001 0.000000 0.000000 -1.746357
    31 26.044123 -0.000001 -0.000001 0.000000 0.000000 3.377624
    32 -5.849911 4.319725 0.063164 0.504001 0.071120 0.390106
    33 -5.827133 4.411094 0.063164 -0.287408 0.076872 0.390350
    34 13.389687 0.268266 6.023556 -0.462585 -1.348926 -0.488759
  time 13
    0 -2.966055 -15.292550 -17.515692 0.714591 1.409432 0.808517
    1 -5.574535 -0.119304 0.054231 0.003499 0.070696 0.760958
    2 -5.513216 -2.701017 -3.989360 0.393185 -0.134116 -0.907903
    3 10.569403 0.000000 0.000000 0.000000 0.000000 -2.446638
    4 13.357940 0.000000 0.000000 0.000000 0.000000 2.905515
    5 -5.436410 -2.626257 3.516682 2.761736 0.125569 -0.929008
    6 10.523520 0.000000 0.000000 0.000000 0.000000 2.454404
    7 13.611949 0.000001 0.000000 0.000000 0.000000 -2.922465
    8 -8.417345 1.069929 -0.018171 -0.010560 -0.015086 0.122673
    9 -9.984112 -4.710447 3.170796 -2.902516 -0.005546 -2.717710
    10 5.945618 0.000000 0.000000 0.000000 0.000000 0.735012
    11 -9.984110 -4.710446 -2.998739 -0.223381 0.004087 -2.697966
    12 5.945625 0.000000 0.000000 0.000000 0.000000 -0.753546
    13 -13.167568 0.616876 1.590356 3.140739 -0.157522 -3.136150
    14 1.939788 0.000000 0.000000 3.040688 0.121169 2.449692
    15 -13.157713 0.632509 -1.795553 1.570796 0.016921 -3.058550
    16 2.215697 0.000000 -0.000001 1.570796 -0.608107 -3.124672
    17 -2.618796 -6.269598 8.263164 -2.805009 0.182912 -0.416737
    18 11.485748 0.000000 0.000000 0.000000 0.000000 -1.395052
    19 24.536900 -0.000001 -0.000001 0.000000 0.000000 1.285753
    20 -2.618795 -6.269599 -8.136835 -0.179953 0.234396 -0.662643
    21 11.659968 0.000000 0.000000 0.000000 0.000000 1.910335
    22 25.724375 0.000000 0.000000 0.000000 0.000000 -2.279179
    23 3.880159 -0.980432 0.090609 0.002534 0.184254 0.080274
    24 13.389691 0.268266 -6.517195 0.542283 1.306249 -0.395924
    25 9.913784 0.000001 0.000000 1.424067 -0.085214 -1.465943
    26 21.016012 0.000002 -0.000001 0.000000 0.000000 -1.979324
    27 28.471630 -0.000002 0.000002 0.000000 0.000000 2.340886
    28 13.389687 0.268266 6.023556 -0.462585 -1.348926 -0.488759
    29 9.768897 0.000001 0.000001 -1.889386 -0.777140 -1.728570
    30 19.931143 0.000001 -0.000001 0.000000 0.000000 -1.991284
    31 26.044123 -0.000001 -0.000001 0.000000 0.000000 2.930531
    32 -5.849911 4.319725 0.063164 0.504001 0.071120 0.390106
    33 -5.827133 4.411094 0.063164 -0.287408 0.076872 0.390350
    34 13.389687 0.268266 6.023556 -0.462585 -1.348926 -0.488759
  time 14
    0 -3.164663 -18.591397 -9.520376 1.041234 1.305353 1.129992
    1 -5.574535 -0.119304 0.054231 0.003531 0.070814 0.769718
    2 -5.513216 -2.701017 -3.989360 0.393185 -0.134116 -0.907903
    3 10.569403 0.000000 0.000000 0.000000 0.000000 -2.446638
    4 13.357940 0.000000 0.000000 0.000000 0.000000 2.905515
    5 -5.436410 -2.626257 3.516682 2.761736 0.125569 -0.929008
    6 10.523520 0.000000 0.000000 0.000000 0.000000 2.454404
    7 13.611949 0.000001 0.000000 0.000000 0.000000 -2.922465
    8 -8.417345 1.069929 -0.018171 -0.010560 -0.015086 0.147933
    9 -9.984112 -4.710447 3.170796 -2.902516 -0.005546 -2.717710
    10 5.945618 0.000000 0.000000 0.000000 0.000000 0.735012
    11 -9.984110 -4.710446 -2.998739 -0.223381 0.004087 -2.697966
    12 5.945625 0.000000 0.000000 0.000000 0.000000 -0.753546
    13 -13.167568 0.616876 1.590356 3.140739 -0.157522 -3.136150
    14 1.939788 0.000000 0.000000 3.040688 0.121169 2.449692
    15 -13.157713 0.632509 -1.795553 1.570796 0.016921 -3.058550
    16 2.215697 0.000000 -0.000001 1.570796 -0.608107 -3.124672
    17 -2.618796 -6.269598 8.263164 -2.827468 0.196344 -0.538733
    18 11.485748 0.000000 0.000000 0.000000 0.000000 -1.202050
    19 24.536900 -0.000001 -0.000001 0.000000 0.000000 0.951138
    20 -2.618795 -6.269599 -8.136835 -0.150374 0.329618 -0.576233
    21 11.659968 0.000000 0.000000 0.000000 0.000000 2.126679
    22 25.724375 0.000000 0.000000 0.000000 0.000000 -2.720246
    23 3.880159 -0.980432 0.090609 0.002534 0.184577 -0.068718
    24 13.389691 0.268266 -6.517195 0.542283 1.306249 -0.395924
    25 9.913784 0.000001 0.000000 1.412199 -0.024810 -1.467757
    26 21.016012 0.000002 -0.000001 0.000000 0.000000 -2.111736
    27 28.471630 -0.000002 0.000002 0.000000 0.000000 2.635089
    28 13.389687 0.268266 6.023556 -0.462585 -1.348926 -0.488759
    29 9.768897 0.000001 0.000001 -1.743332 -0.561287 -1.757105
    30 19.931143 0.000001 -0.000001 0.000000 0.000000 -1.951102
    31 26.044123 -0.000001 -0.000001 0.000000 0.000000 2.659253
    32 -5.849911 4.319725 0.063164 0.504001 0.071120 0.390106
    33 -5.827133 4.411094 0.063164 -0.287408 0.076872 0.390350
    34 13.389687 0.268266 6.023556 -0.462585 -1.348926 -0.488759
  time 15
    0 -3.204222 -21.947316 -1.315668 1.236971 1.111417 1.314496
    1 -5.574535 -0.119304 0.054231 0.003531 0.070885 0.688698
    2 -5.513216 -2.701017 -3.989360 0.393185 -0.134116 -0.907903
    3 10.569403 0.000000 0.000000 0.000000 0.000000 -2.446638
    4 13.357940 0.000000 0.000000 0.000000 0.000000 2.905515
    5 -5.436410 -2.626257 3.516682 2.761736 0.125569 -0.929008
    6 10.523520 0.000000 0.000000 0.000000 0.000000 2.454404
    7 13.611949 0.000001 0.000000 0.000000 0.000000 -2.922465
    8 -8.417345 1.069929 -0.018171 -0.010489 -0.015058 0.152150
    9 -9.984112 -4.710447 3.170796 -2.902516 -0.005546 -2.717710
    10 5.945618 0.000000 0.000000 0.000000 0.000000 0.735012
    11 -9.984110 -4.710446 -2.998739 -0.223381 0.004087 -2.697966
    12 5.945625 0.000000 0.000000 0.000000 0.000000 -0.753546
    13 -13.167568 0.616876 1.590356 3.140739 -0.157522 -3.136150
    14 1.939788 0.000000 0.000000 3.040688 0.121169 2.449692
    15 -13.157713 0.632509 -1.795553 1.570796 0.016921 -3.058550
    16 2.215697 0.000000 -0.000001 1.570796 -0.608107 -3.124672
    17 -2.618796 -6.269598 8.263164 -2.852084 0.176569 -0.758616
    18 11.485748 0.000000 0.000000 0.000000 0.000000 -1.484130
    19 24.536900 -0.000001 -0.000001 0.000000 0.000000 1.456764
    20 -2.618795 -6.269599 -8.136835 -0.141977 0.324563 -0.639977
    21 11.659968 0.000000 0.000000 0.000000 0.000000 2.109991
    22 25.724375 0.000000 0.000000 0.000000 0.000000 -2.687282
    23 3.880159 -0.980432 0.090609 0.002566 0.184950 -0.229634
    24 13.389691 0.268266 -6.517195 0.542283 1.306249 -0.395924
    25 9.913784 0.000001 0.000000 1.388554 0.093207 -1.482454
    26 21.016012 0.000002 -0.000001 0.000000 0.000000 -2.192270
    27 28.471630 -0.000002 0.000002 0.000000 0.000000 2.898642
    28 13.389687 0.268266 6.023556 -0.462585 -1.348926 -0.488759
    29 9.768897 0.000001 0.000001 -1.542566 -0.532244 -1.692113
    30 19.931143 0.000001 -0.000001 0.000000 0.000000 -1.975243
    31 26.044123 -0.000001 -0.000001 0.000000 0.000000 2.767649
    32 -5.849911 4.319725 0.063164 0.504001 0.071120 0.390106
    33 -5.827133 4.411094 0.063164 -0.287408 0.076872 0.390350
    34 13.389687 0.268266 6.023556 -0.462585 -1.348926 -0.488759
  time 16
    0 -3.053481 -25.849842 6.564270 1.349778 0.807345 1.407873
    1 -5.574535 -0.119304 0.054231 0.003562 0.071144 0.511017
    2 -5.513216 -2.701017 -3.989360 0.393185 -0.134116 -0.907903
    3 10.569403 0.000000 0.000000 0.000000 0.000000 -2.446638
    4 13.357940 0.000000 0.000000 0.000000 0.000000 2.905515
    5 -5.436410 -2.626257 3.516682 2.761736 0.125569 -0.929008
    6 10.523520 0.000000 0.000000 0.000000 0.000000 2.454404
    7 13.611949 0.000001 0.000000 0.000000 0.000000 -2.922465
    8 -8.417345 1.069929 -0.018171 -0.010062 -0.014973 0.158556
    9 -9.984112 -4.710447 3.170796 -2.902516 -0.005546 -2.717710
    10 5.945618 0.000000 0.000000 0.000000 0.000000 0.735012
    11 -9.984110 -4.710446 -2.998739 -0.223381 0.004087 -2.697966
    12 5.945625 0.000000 0.000000 0.000000 0.000000 -0.753546
    13 -13.167568 0.616876 1.590356 3.140739 -0.157522 -3.136150
    14 1.939788 0.000000 0.000000 3.040688 0.121169 2.449692
    15 -13.157713 0.632509 -1.795553 1.570796 0.016921 -3.058550
    16 2.215697 0.000000 -0.000001 1.570796 -0.608107 -3.124672
    17 -2.618796 -6.269598 8.263164 -2.861188 0.111900 -1.023220
    18 11.485748 0.000000 0.000000 0.000000 0.000000 -1.772994
    19 24.536900 -0.000001 -0.000001 0.000000 0.000000 2.060260
    20 -2.618795 -6.269599 -8.136835 -0.208578 0.265846 -0.980539
    21 11.659968 0.000000 0.000000 0.000000 0.000000 1.986359
    22 25.724375 0.000000 0.000000 0.000000 0.000000 -2.437382
    23 3.880159 -0.980432 0.090609 0.002598 0.185274 -0.363904
    24 13.389691 0.268266 -6.517195 0.542283 1.306249 -0.395924
    25 9.913784 0.000001 0.000000 1.347980 0.238151 -1.515190
    26 21.016012 0.000002 -0.000001 0.000000 0.000000 -2.199066
    27 28.471630 -0.000002 0.000002 0.000000 0.000000 3.071977
    28 13.389687 0.268266 6.023556 -0.462585 -1.348926 -0.488759
    29 9.768897 0.000001 0.000001 -1.449596 -0.422905 -1.630843
    30 19.931143 0.000001 -0.000001 0.000000 0.000000 -1.983557
    31 26.044123 -0.000001 -0.000001 0.000000 0.000000 2.828666
    32 -5.849911 4.319725 0.063164 0.504001 0.071120 0.390106
    33 -5.827133 4.411094 0.063164 -0.287408 0.076872 0.390350
    34 13.389687 0.268266 6.023556 -0.462585 -1.348926 -0.488759
  time 17
    0 -2.731971 -31.412529 12.931465 1.401585 0.546779 1.440218
    1 -5.574535 -0.119304 0.054231 0.003562 0.071168 0.347197
    2 -5.513216 -2.701017 -3.989360 0.393185 -0.134116 -0.907903
    3 10.569403 0.000000 0.000000 0.000000 0.000000 -2.446638
    4 13.357940 0.000000 0.000000 0.000000 0.000000 2.905515
    5 -5.436410 -2.626257 3.516682 2.761736 0.125569 -0.929008
    6 10.523520 0.000000 0.000000 0.000000 0.000000 2.454404
    7 13.611949 0.000001 0.000000 0.000000 0.000000 -2.922465
    8 -8.417345 1.069929 -0.018171 -0.009369 -0.014860 0.167436
    9 -9.984112 -4.710447 3.170796 -2.902516 -0.005546 -2.717710
    10 5.945618 0.000000 0.000000 0.000000 0.000000 0.735012
    11 -9.984110 -4.710446 -2.998739 -0.223381 0.004087 -2.697966
    12 5.945625 0.000000 0.000000 0.000000 0.000000 -0.753546
    13 -13.167568 0.616876 1.590356 3.140739 -0.157522 -3.136150
    14 1.939788 0.000000 0.000000 3.040688 0.121169 2.449692
    15 -13.157713 0.632509 -1.795553 1.570796 0.016921 -3.058550
    16 2.215697 0.000000 -0.000001 1.570796 -0.608107 -3.124672
    17 -2.618796 -6.269598 8.263164 -2.841183 0.006826 -1.180679
    18 11.485748 0.000000 0.000000 0.000000 0.000000 -1.997468
    19 24.536900 -0.000001 -0.000001 0.000000 0.000000 2.544988
    20 -2.618795 -6.269599 -8.136835 -0.247127 0.220473 -1.218881
    21 11.659968 0.000000 0.000000 0.000000 0.000000 1.874303
    22 25.724375 0.000000 0.000000 0.000000 0.000000 -2.203033
    23 3.880159 -0.980432 0.090609 0.002598 0.185473 -0.432833
    24 13.389691 0.268266 -6.517195 0.542283 1.306249 -0.395924
    25 9.913784 0.000001 0.000000 1.265912 0.409370 -1.569208
    26 21.016012 0.000002 -0.000001 0.000000 0.000000 -2.143111
    27 28.471630 -0.000002 0.000002 0.000000 0.000000 3.223174
    28 13.389687 0.268266 6.023556 -0.462585 -1.348926 -0.488759
    29 9.768897 0.000001 0.000001 -1.443379 -0.307717 -1.588851
    30 19.931143 0.000001 -0.000001 0.000000 0.000000 -1.980199
    31 26.044123 -0.000001 -0.000001 0.000000 0.000000 2.801391
    32 -5.849911 4.319725 0.063164 0.504001 0.071120 0.390106
    33 -5.827133 4.411094 0.063164 -0.287408 0.076872 0.390350
    34 13.389687 0.268266 6.023556 -0.462585 -1.348926 -0.488759
  time 18
    0 -2.509232 -38.124324 17.730364 1.435868 0.325717 1.454937
    1 -5.574535 -0.119304 0.054231 0.003562 0.071191 0.218216
    2 -5.513216 -2.701017 -3.989360 0.393185 -0.134116 -0.907903
    3 10.569403 0.000000 0.000000 0.000000 0.000000 -2.446638
    4 13.357940 0.000000 0.000000 0.000000 0.000000 2.905515
    5 -5.436410 -2.626257 3.516682 2.761736 0.125569 -0.929008
    6 10.523520 0.000000 0.000000 0.000000 0.000000 2.454404
    7 13.611949 0.000001 0.000000 0.000000 0.000000 -2.922465
    8 -8.417345 1.069929 -0.018171 -0.008551 -0.014718 0.175140
    9 -9.984112 -4.710447 3.170796 -2.902516 -0.005546 -2.717710
    10 5.945618 0.000000 0.000000 0.000000 0.000000 0.735012
    11 -9.984110 -4.710446 -2.998739 -0.223381 0.004087 -2.697966
    12 5.945625 0.000000 0.000000 0.000000 0.000000 -0.753546
    13 -13.167568 0.616876 1.590356 3.140739 -0.157522 -3.136150
    14 1.939788 0.000000 0.000000 3.040688 0.121169 2.449692
    15 -13.157713 0.632509 -1.795553 1.570796 0.016921 -3.058550
    16 2.215697 0.000000 -0.000001 1.570796 -0.608107 -3.124672
    17 -2.618796 -6.269598 8.263164 -2.854420 -0.022462 -1.262960
    18 11.485748 0.000000 0.000000 0.000000 0.000000 -2.034055
    19 24.536900 -0.000001 -0.000001 0.000000 0.000000 2.622756
    20 -2.618795 -6.269599 -8.136835 -0.270314 0.178290 -1.388718
    21 11.659968 0.000000 0.000000 0.000000 0.000000 1.767459
    22 25.724375 0.000000 0.000000 0.000000 0.000000 -1.976073
    23 3.880159 -0.980432 0.090609 0.002630 0.185547 -0.409410
    24 13.389691 0.268266 -6.517195 0.542283 1.306249 -0.395924
    25 9.913784 0.000001 0.000000 1.170964 0.563072 -1.636778
    26 21.016012 0.000002 -0.000001 0.000000 0.000000 -2.051080
    27 28.471630 -0.000002 0.000002 0.000000 0.000000 3.324654
    28 13.389687 0.268266 6.023556 -0.462585 -1.348926 -0.488759
    29 9.768897 0.000001 0.000001 -1.462796 -0.038575 -1.538843
    30 19.931143 0.000001 -0.000001 0.000000 0.000000 -1.976469
    31 26.044123 -0.000001 -0.000001 0.000000 0.000000 2.774180
    32 -5.849911 4.319725 0.063164 0.504001 0.071120 0.390106
    33 -5.827133 4.411094 0.063164 -0.287408 0.076872 0.390350
    34 13.389687 0.268266 6.023556 -0.462585 -1.348926 -0.488759
  time 19
    0 -2.389170 -44.473593 20.965241 1.462873 0.140261 1.462624
    1 -5.574535 -0.119304 0.054231 0.003562 0.071356 0.102022
    2 -5.513216 -2.701017 -3.989360 0.393185 -0.134116 -0.907903
    3 10.569403 0.000000 0.000000 0.000000 0.000000 -2.446638
    4 13.357940 0.000000 0.000000 0.000000 0.000000 2.905515
    5 -5.436410 -2.626257 3.516682 2.761736 0.125569 -0.929008
    6 10.523520 0.000000 0.000000 0.000000 0.000000 2.454404
    7 13.611949 0.000001 0.000000 0.000000 0.000000 -2.922465
    8 -8.417345 1.069929 -0.018171 -0.007769 -0.014577 0.178059
    9 -9.984112 -4.710447 3.170796 -2.902516 -0.005546 -2.717710
    10 5.945618 0.000000 0.000000 0.000000 0.000000 0.735012
    11 -9.984110 -4.710446 -2.998739 -0.223381 0.004087 -2.697966
    12 5.945625 0.000000 0.000000 0.000000 0.000000 -0.753546
    13 -13.167568 0.616876 1.590356 3.140739 -0.157522 -3.136150
    14 1.939788 0.000000 0.000000 3.040688 0.121169 2.449692
    15 -13.157713 0.632509 -1.795553 1.570796 0.016921 -3.058550
    16 2.215697 0.000000 -0.000001 1.570796 -0.608107 -3.124672
    17 -2.618796 -6.269598 8.263164 -2.880473 0.013596 -1.351472
    18 11.485748 0.000000 0.000000 0.000000 0.000000 -1.963883
    19 24.536900 -0.000001 -0.000001 0.000000 0.000000 2.473436
    20 -2.618795 -6.269599 -8.136835 -0.286535 0.139049 -1.524333
    21 11.659968 0.000000 0.000000 0.000000 0.000000 1.670587
    22 25.724375 0.000000 0.000000 0.000000 0.000000 -1.772889
    23 3.880159 -0.980432 0.090609 0.002630 0.185896 -0.338595
    24 13.389691 0.268266 -6.517195 0.542283 1.306249 -0.395924
    25 9.913784 0.000001 0.000000 1.196081 0.570923 -1.629143
    26 21.016012 0.000002 -0.000001 0.000000 0.000000 -2.177885
    27 28.471630 -0.000002 0.000002 0.000000 0.000000 3.153942
    28 13.389687 0.268266 6.023556 -0.462585 -1.348926 -0.488759
    29 9.768897 0.000001 0.000001 -1.500959 -0.057762 -1.552300
    30 19.931143 0.000001 -0.000001 0.000000 0.000000 -1.973271
    31 26.044123 -0.000001 -0.000001 0.000000 0.000000 2.755612
    32 -5.849911 4.319725 0.063164 0.504001 0.071120 0.390106
    33 -5.827133 4.411094 0.063164 -0.287408 0.076872 0.390350
    34 13.389687 0.268266 6.023556 -0.462585 -1.348926 -0.488759
  time 20
    0 -2.336629 -50.982145 23.759969 1.485760 -0.009379 1.467406
    1 -5.574535 -0.119304 0.054231 0.003594 0.071498 -0.010144
    2 -5.513216 -2.701017 -3.989360 0.393185 -0.134116 -0.907903
    3 10.569403 0.000000 0.000000 0.000000 0.000000 -2.446638
    4 13.357940 0.000000 0.000000 0.000000 0.000000 2.905515
    5 -5.436410 -2.626257 3.516682 2.761736 0.125569 -0.929008
    6 10.523520 0.000000 0.000000 0.000000 0.000000 2.454404
    7 13.611949 0.000001 0.000000 0.000000 0.000000 -2.922465
    8 -8.417345 1.069929 -0.018171 -0.007147 -0.014435 0.172585
    9 -9.984112 -4.710447 3.170796 -2.902516 -0.005546 -2.717710
    10 5.945618 0.000000 0.000000 0.000000 0.000000 0.735012
    11 -9.984110 -4.710446 -2.998739 -0.223381 0.004087 -2.697966
    12 5.945625 0.000000 0.000000 0.000000 0.000000 -0.753546
    13 -13.167568 0.616876 1.590356 3.140739 -0.157522 -3.136150
    14 1.939788 0.000000 0.000000 3.040688 0.121169 2.449692
    15 -13.157713 0.632509 -1.795553 1.570796 0.016921 -3.058550
    16 2.215697 0.000000 -0.000001 1.570796 -0.608107 -3.124672
    17 -2.618796 -6.269598 8.263164 -2.891912 0.043632 -1.431774
    18 11.485748 0.000000 0.000000 0.000000 0.000000 -1.880977
    19 24.536900 -0.000001 -0.000001 0.000000 0.000000 2.295416
    20 -2.618795 -6.269599 -8.136835 -0.274703 0.147295 -1.453668
    21 11.659968 0.000000 0.000000 0.000000 0.000000 1.700806
    22 25.724375 0.000000 0.000000 0.000000 0.000000 -1.835926
    23 3.880159 -0.980432 0.090609 0.002662 0.186194 -0.241315
    24 13.389691 0.268266 -6.517195 0.542283 1.306249 -0.395924
    25 9.913784 0.000001 0.000000 1.316606 0.355520 -1.556515
    26 21.016012 0.000002 -0.000001 0.000000 0.000000 -2.085684
    27 28.471630 -0.000002 0.000002 0.000000 0.000000 2.571744
    28 13.389687 0.268266 6.023556 -0.462585 -1.348926 -0.488759
    29 9.768897 0.000001 0.000001 -1.536349 -0.157836 -1.559075
    30 19.931143 0.000001 -0.000001 0.000000 0.000000 -1.982757
    31 26.044123 -0.000001 -0.000001 0.000000 0.000000 2.822519
    32 -5.849911 4.319725 0.063164 0.504001 0.071120 0.390106
    33 -5.827133 4.411094 0.063164 -0.287408 0.076872 0.390350
    34 13.389687 0.268266 6.023556 -0.462585 -1.348926 -0.488759
  time 21
    0 -2.335982 -59.279966 26.362400 1.505582 -0.119936 1.471343
    1 -5.574535 -0.119304 0.054231 0.003594 0.071474 -0.126976
    2 -5.513216 -2.701017 -3.989360 0.393185 -0.134116 -0.907903
    3 10.569403 0.000000 0.000000 0.000000 0.000000 -2.446638
    4 13.357940 0.000000 0.000000 0.000000 0.000000 2.905515
    5 -5.436410 -2.626257 3.516682 2.761736 0.125569 -0.929008
    6 10.523520 0.000000 0.000000 0.000000 0.000000 2.454404
    7 13.611949 0.000001 0.000000 0.000000 0.000000 -2.922465
    8 -8.417345 1.069929 -0.018171 -0.006809 -0.014378 0.155029
    9 -9.984112 -4.710447 3.170796 -2.902516 -0.005546 -2.717710
    10 5.945618 0.000000 0.000000 0.000000 0.000000 0.735012
    11 -9.984110 -4.710446 -2.998739 -0.223381 0.004087 -2.697966
    12 5.945625 0.000000 0.000000 0.000000 0.000000 -0.753546
    13 -13.167568 0.616876 1.590356 3.140739 -0.157522 -3.136150
    14 1.939788 0.000000 0.000000 3.040688 0.121169 2.449692
    15 -13.157713 0.632509 -1.795553 1.570796 0.016921 -3.058550
    16 2.215697 0.000000 -0.000001 1.570796 -0.608107 -3.124672
    17 -2.618796 -6.269598 8.263164 -2.826989 0.105985 -1.464442
    18 11.485748 0.000000 0.000000 0.000000 0.000000 -1.763708
    19 24.536900 -0.000001 -0.000001 0.000000 0.000000 2.039958
    20 -2.618795 -6.269599 -8.136835 -0.193407 0.213346 -1.228151
    21 11.659968 0.000000 0.000000 0.000000 0.000000 1.827245
    22 25.724375 0.000000 0.000000 0.000000 0.000000 -2.102854
    23 3.880159 -0.980432 0.090609 0.002662 0.186144 -0.130712
    24 13.389691 0.268266 -6.517195 0.542283 1.306249 -0.395924
    25 9.913784 0.000001 0.000000 1.365185 0.159645 -1.540576
    26 21.016012 0.000002 -0.000001 0.000000 0.000000 -1.783708
    27 28.471630 -0.000002 0.000002 0.000000 0.000000 1.959728
    28 13.389687 0.268266 6.023556 -0.462585 -1.348926 -0.488759
    29 9.768897 0.000001 0.000001 -1.567626 -0.218157 -1.541611
    30 19.931143 0.000001 -0.000001 0.000000 0.000000 -1.990911
    31 26.044123 -0.000001 -0.000001 0.000000 0.000000 2.915485
    32 -5.849911 4.319725 0.063164 0.504001 0.071120 0.390106
    33 -5.827133 4.411094 0.063164 -0.287408 0.076872 0.390350
    34 13.389687 0.268266 6.023556 -0.462585 -1.348926 -0.488759
  time 22
    0 -2.348166 -68.172808 27.627292 1.522053 -0.184617 1.476406
    1 -5.574535 -0.119304 0.054231 0.003594 0.071569 -0.202794
    2 -5.513216 -2.701017 -3.989360 0.393185 -0.134116 -0.907903
    3 10.569403 0.000000 0.000000 0.000000 0.000000 -2.446638
    4 13.357940 0.000000 0.000000 0.000000 0.000000 2.905515
    5 -5.436410 -2.626257 3.516682 2.761736 0.125569 -0.929008
    6 10.523520 0.000000 0.000000 0.000000 0.000000 2.454404
    7 13.611949 0.000001 0.000000 0.000000 0.000000 -2.922465
    8 -8.417345 1.069929 -0.018171 -0.005582 -0.014152 0.127539
    9 -9.984112 -4.710447 3.170796 -2.902516 -0.005546 -2.717710
    10 5.945618 0.000000 0.000000 0.000000 0.000000 0.735012
    11 -9.984110 -4.710446 -2.998739 -0.223381 0.004087 -2.697966
    12 5.945625 0.000000 0.000000 0.000000 0.000000 -0.753546
    13 -13.167568 0.616876 1.590356 3.140739 -0.157522 -3.136150
    14 1.939788 0.000000 0.000000 3.040688 0.121169 2.449692
    15 -13.157713 0.632509 -1.795553 1.570796 0.016921 -3.058550
    16 2.215697 0.000000 -0.000001 1.570796 -0.608107 -3.124672
    17 -2.618796 -6.269598 8.263164 -2.711636 0.191142 -1.432531
    18 11.485748 0.000000 0.000000 0.000000 0.000000 -1.628645
    19 24.536900 -0.000001 -0.000001 0.000000 0.000000 1.750973
    20 -2.618795 -6.269599 -8.136835 0.170230 0.369439 -0.929175
    21 11.659968 0.000000 0.000000 0.000000 0.000000 1.907278
    22 25.724375 0.000000 0.000000 0.000000 0.000000 -2.272753
    23 3.880159 -0.980432 0.090609 0.002598 0.185373 -0.019865
    24 13.389691 0.268266 -6.517195 0.542283 1.306249 -0.395924
    25 9.913784 0.000001 0.000000 1.351660 0.123896 -1.535423
    26 21.016012 0.000002 -0.000001 0.000000 0.000000 -1.409806
    27 28.471630 -0.000002 0.000002 0.000000 0.000000 1.316873
    28 13.389687 0.268266 6.023556 -0.462585 -1.348926 -0.488759
    29 9.768897 0.000001 0.000001 -1.591825 -0.234124 -1.502291
    30 19.931143 0.000001 -0.000001 0.000000 0.000000 -1.987660
    31 26.044123 -0.000001 -0.000001 0.000000 0.000000 3.005442
    32 -5.849911 4.319725 0.063164 0.504001 0.071120 0.390106
    33 -5.827133 4.411094 0.063164 -0.287408 0.076872 0.390350
    34 13.389687 0.268266 6.023556 -0.462585 -1.348926 -0.488759
  time 23
    0 -2.486465 -76.331939 27.255517 1.534407 -0.192412 1.483531
    1 -5.574535 -0.119304 0.054231 0.003247 0.068244 -0.209674
    2 -5.513216 -2.701017 -3.989360 0.392596 -0.133821 -0.904678
    3 10.569403 0.000000 0.000000 0.000000 0.000000 -2.446790
    4 13.357940 0.000000 0.000000 0.000000 0.000000 2.906005
    5 -5.436410 -2.626257 3.516682 2.762282 0.125941 -0.925399
    6 10.523520 0.000000 0.000000 0.000000 0.000000 2.454297
    7 13.611949 0.000001 0.000000 0.000000 0.000000 -2.921956
    8 -8.417345 1.069929 -0.018171 -0.017351 -0.016275 0.104671
    9 -9.984112 -4.710447 3.170796 -2.902516 -0.005546 -2.717710
    10 5.945618 0.000000 0.000000 0.000000 0.000000 0.735012
    11 -9.984110 -4.710446 -2.998739 -0.223381 0.004087 -2.697966
    12 5.945625 0.000000 0.000000 0.000000 0.000000 -0.753546
    13 -13.167568 0.616876 1.590356 3.140739 -0.157522 -3.136150
    14 1.939788 0.000000 0.000000 3.040688 0.121169 2.449692
    15 -13.157713 0.632509 -1.795553 1.570796 0.016921 -3.058550
    16 2.215697 0.000000 -0.000001 1.570796 -0.608107 -3.124672
    17 -2.618796 -6.269598 8.263164 -2.637370 0.256774 -1.346639
    18 11.485748 0.000000 0.000000 0.000000 0.000000 -1.448599
    19 24.536900 -0.000001 -0.000001 0.000000 0.000000 1.387262
    20 -2.618795 -6.269599 -8.136835 0.452475 0.395378 -0.774068
    21 11.659968 0.000000 0.000000 0.000000 0.000000 1.973429
    22 25.724375 0.000000 0.000000 0.000000 0.000000 -2.410844
    23 3.880159 -0.980432 0.090609 0.002598 0.182687 0.078753
    24 13.389691 0.268266 -6.517195 0.542283 1.306249 -0.395924
    25 9.913784 0.000001 0.000000 1.355524 0.126037 -1.550216
    26 21.016012 0.000002 -0.000001 0.000000 0.000000 -1.171148
    27 28.471630 -0.000002 0.000002 0.000000 0.000000 0.971482
    28 13.389687 0.268266 6.023556 -0.462585 -1.348926 -0.488759
    29 9.768897 0.000001 0.000001 -1.616024 -0.223610 -1.429760
    30 19.931143 0.000001 -0.000001 0.000000 0.000000 -1.971193
    31 26.044123 -0.000001 -0.000001 0.000000 0.000000 3.091620
    32 -5.849911 4.319725 0.063164 0.506191 0.073425 0.393944
    33 -5.827133 4.411094 0.063164 -0.285219 0.079198 0.394247
    34 13.389687 0.268266 6.023556 -0.462585 -1.348926 -0.488759
  time 24
    0 -2.629783 -83.079543 26.242748 1.552122 -0.179929 1.495625
    1 -5.574535 -0.119304 0.054231 0.001545 0.051218 -0.227563
    2 -5.513216 -2.701017 -3.989360 0.384103 -0.123767 -0.866890
    3 10.569403 0.000000 0.000000 0.000000 0.000000 -2.455545
    4 13.357940 0.000000 0.000000 0.000000 0.000000 2.936724
    5 -5.436410 -2.626257 3.516682 2.770231 0.125177 -0.881597
    6 10.523520 0.000000 0.000000 0.000000 0.000000 2.458930
    7 13.611949 0.000001 0.000000 0.000000 0.000000 -2.937600
    8 -8.417345 1.069929 -0.018171 -0.044267 -0.022049 0.084641
    9 -9.984112 -4.710447 3.170796 -2.902516 -0.005511 -2.717861
    10 5.945618 0.000000 0.000000 0.000000 0.000000 0.734664
    11 -9.984110 -4.710446 -2.998739 -0.223381 0.004063 -2.698087
    12 5.945625 0.000000 0.000000 0.000000 0.000000 -0.753242
    13 -13.167568 0.616876 1.590356 3.140739 -0.157522 -3.136150
    14 1.939788 0.000000 0.000000 3.040688 0.121169 2.449692
    15 -13.157713 0.632509 -1.795553 1.570796 0.016921 -3.058550
    16 2.215697 0.000000 -0.000001 1.570796 -0.608107 -3.124672
    17 -2.618796 -6.269598 8.263164 -2.714631 0.216226 -1.282468
    18 11.485748 0.000000 0.000000 0.000000 0.000000 -1.253651
    19 24.536900 -0.000001 -0.000001 0.000000 0.000000 1.035453
    20 -2.618795 -6.269599 -8.136835 0.033782 0.229133 -0.927905
    21 11.659968 0.000000 0.000000 0.000000 0.000000 2.133846
    22 25.724375 0.000000 0.000000 0.000000 0.000000 -2.734255
    23 3.880159 -0.980432 0.090609 -0.003239 0.159154 0.159729
    24 13.389691 0.268266 -6.517195 0.542283 1.306249 -0.395924
    25 9.913784 0.000001 0.000000 1.326635 0.168469 -1.550407
    26 21.016012 0.000002 -0.000001 0.000000 0.000000 -1.401028
    27 28.471630 -0.000002 0.000002 0.000000 0.000000 1.303244
    28 13.389687 0.268266 6.023556 -0.462585 -1.348926 -0.488759
    29 9.768897 0.000001 0.000001 -1.764757 -0.565624 -1.535885
    30 19.931143 0.000001 -0.000001 0.000000 0.000000 -1.990964
    31 26.044123 -0.000001 -0.000001 0.000000 0.000000 2.968883
    32 -5.849911 4.319725 0.063164 0.530902 0.096990 0.440879
    33 -5.827133 4.411094 0.063164 -0.260521 0.102737 0.441278
    34 13.389687 0.268266 6.023556 -0.462585 -1.348926 -0.488759
  time 25
    0 -2.698167 -88.337877 25.759867 1.583628 -0.183352 1.519532
    1 -5.574535 -0.119304 0.054231 0.001166 0.021930 -0.252769
    2 -5.513216 -2.701017 -3.989360 0.374069 -0.111649 -0.835220
    3 10.569403 0.000000 0.000000 0.000000 0.000000 -2.466121
    4 13.357940 0.000000 0.000000 0.000000 0.000000 2.981719
    5 -5.436410 -2.626257 3.516682 2.779427 0.120273 -0.841341
    6 10.523520 0.000000 0.000000 0.000000 0.000000 2.465480
    7 13.611949 0.000001 0.000000 0.000000 0.000000 -2.965250
    8 -8.417345 1.069929 -0.018171 -0.028693 -0.021794 0.067611
    9 -9.984112 -4.710447 3.170796 -2.902516 -0.005487 -2.717973
    10 5.945618 0.000000 0.000000 0.000000 0.000000 0.734466
    11 -9.984110 -4.710446 -2.998739 -0.223561 0.003572 -2.698047
    12 5.945625 0.000000 0.000000 0.000000 0.000000 -0.753089
    13 -13.167568 0.616876 1.590356 3.140739 -0.157522 -3.136150
    14 1.939788 0.000000 0.000000 3.040688 0.121169 2.449692
    15 -13.157713 0.632509 -1.795553 1.570796 0.016921 -3.058550
    16 2.215697 0.000000 -0.000001 1.570796 -0.608107 -3.124672
    17 -2.618796 -6.269598 8.263164 -2.794587 0.096508 -1.200012
    18 11.485748 0.000000 0.000000 0.000000 0.000000 -1.523275
    19 24.536900 -0.000001 -0.000001 0.000000 0.000000 1.533870
    20 -2.618795 -6.269599 -8.136835 -0.051235 0.237172 -1.296593
    21 11.659968 0.000000 0.000000 0.000000 0.000000 2.164917
    22 25.724375 0.000000 0.000000 0.000000 0.000000 -2.796071
    23 3.880159 -0.980432 0.090609 -0.018794 0.101766 0.208886
    24 13.389691 0.268266 -6.517195 0.542283 1.306249 -0.395924
    25 9.913784 0.000001 0.000000 1.345496 0.195913 -1.606524
    26 21.016012 0.000002 -0.000001 0.000000 0.000000 -1.522169
    27 28.471630 -0.000002 0.000002 0.000000 0.000000 1.497886
    28 13.389687 0.268266 6.023556 -0.462585 -1.348926 -0.488759
    29 9.768897 0.000001 0.000001 -1.690916 -0.623119 -1.689059
    30 19.931143 0.000001 -0.000001 0.000000 0.000000 -1.933676
    31 26.044123 -0.000001 -0.000001 0.000000 0.000000 2.594459
    32 -5.849911 4.319725 0.063164 0.531045 0.091782 0.455025
    33 -5.827133 4.411094 0.063164 -0.260117 0.097637 0.455424
    34 13.389687 0.268266 6.023556 -0.462585 -1.348926 -0.488759
  time 26
    0 -2.676992 -91.776751 25.631668 1.611495 -0.198785 1.548501
    1 -5.574535 -0.119304 0.054231 0.001166 0.014243 -0.254883
    2 -5.513216 -2.701017 -3.989360 0.375383 -0.110100 -0.843158
    3 10.569403 0.000000 0.000000 0.000000 0.000000 -2.467032
    4 13.357940 0.000000 0.000000 0.000000 0.000000 2.986407
    5 -5.436410 -2.626257 3.516682 2.778219 0.117458 -0.849616
    6 10.523520 0.000000 0.000000 0.000000 0.000000 2.466598
    7 13.611949 0.000001 0.000000 0.000000 0.000000 -2.970343
    8 -8.417345 1.069929 -0.018171 -0.023360 -0.020266 0.056299
    9 -9.984112 -4.710447 3.170796 -2.902516 -0.005487 -2.717936
    10 5.945618 0.000000 0.000000 0.000000 0.000000 0.734466
    11 -9.984110 -4.710446 -2.998739 -0.222530 0.006268 -2.698694
    12 5.945625 0.000000 0.000000 0.000000 0.000000 -0.753089
    13 -13.167568 0.616876 1.590356 3.140739 -0.157522 -3.136150
    14 1.939788 0.000000 0.000000 3.040688 0.121169 2.449692
    15 -13.157713 0.632509 -1.795553 1.570796 0.016921 -3.058550
    16 2.215697 0.000000 -0.000001 1.570796 -0.608107 -3.124672
    17 -2.618796 -6.269598 8.263164 -2.749848 0.007253 -0.922712
    18 11.485748 0.000000 0.000000 0.000000 0.000000 -1.707826
    19 24.536900 -0.000001 -0.000001 0.000000 0.000000 1.919074
    20 -2.618795 -6.269599 -8.136835 -0.091119 0.226688 -1.413035
    21 11.659968 0.000000 0.000000 0.000000 0.000000 2.125126
    22 25.724375 0.000000 0.000000 0.000000 0.000000 -2.717226
    23 3.880159 -0.980432 0.090609 -0.020687 0.082065 0.235715
    24 13.389691 0.268266 -6.517195 0.542283 1.306249 -0.395924
    25 9.913784 0.000001 0.000000 1.381929 0.218557 -1.611583
    26 21.016012 0.000002 -0.000001 0.000000 0.000000 -1.617655
    27 28.471630 -0.000002 0.000002 0.000000 0.000000 1.659831
    28 13.389687 0.268266 6.023556 -0.462585 -1.348926 -0.488759
    29 9.768897 0.000001 0.000001 -1.666144 -0.672269 -1.744317
    30 19.931143 0.000001 -0.000001 0.000000 0.000000 -1.859548
    31 26.044123 -0.000001 -0.000001 0.000000 0.000000 2.374594
    32 -5.849911 4.319725 0.063164 0.525402 0.082931 0.470652
    33 -5.827133 4.411094 0.063164 -0.266917 0.088417 0.470799
    34 13.389687 0.268266 6.023556 -0.462585 -1.348926 -0.488759
  time 27
    0 -2.636573 -93.180993 25.520563 1.629498 -0.211953 1.570814
    1 -5.574535 -0.119304 0.054231 0.001072 0.011508 -0.252131
    2 -5.513216 -2.701017 -3.989360 0.379256 -0.110346 -0.860109
    3 10.569403 0.000000 0.000000 0.000000 0.000000 -2.466526
    4 13.357940 0.000000 0.000000 0.000000 0.000000 2.983748
    5 -5.436410 -2.626257 3.516682 2.774569 0.114605 -0.869402
    6 10.523520 0.000000 0.000000 0.000000 0.000000 2.466970
    7 13.611949 0.000001 0.000000 0.000000 0.000000 -2.971944
    8 -8.417345 1.069929 -0.018171 -0.020427 -0.018341 0.052204
    9 -9.984112 -4.710447 3.170796 -2.902516 -0.005499 -2.717936
    10 5.945618 0.000000 0.000000 0.000000 0.000000 0.734515
    11 -9.984110 -4.710446 -2.998739 -0.221080 0.010067 -2.699584
    12 5.945625 0.000000 0.000000 0.000000 0.000000 -0.753039
    13 -13.167568 0.616876 1.590356 3.140739 -0.157522 -3.136150
    14 1.939788 0.000000 0.000000 3.040688 0.121169 2.449692
    15 -13.157713 0.632509 -1.795553 1.570796 0.016921 -3.058550
    16 2.215697 0.000000 -0.000001 1.570796 -0.608107 -3.124672
    17 -2.618796 -6.269598 8.263164 -2.686362 -0.056632 -0.673248
    18 11.485748 0.000000 0.000000 0.000000 0.000000 -1.793567
    19 24.536900 -0.000001 -0.000001 0.000000 0.000000 2.104963
    20 -2.618795 -6.269599 -8.136835 -0.128523 0.223954 -1.451510
    21 11.659968 0.000000 0.000000 0.000000 0.000000 2.083932
    22 25.724375 0.000000 0.000000 0.000000 0.000000 -2.635554
    23 3.880159 -0.980432 0.090609 -0.019500 0.071493 0.271975
    24 13.389691 0.268266 -6.517195 0.542283 1.306249 -0.395924
    25 9.913784 0.000001 0.000000 1.425079 0.249829 -1.608051
    26 21.016012 0.000002 -0.000001 0.000000 0.000000 -1.671175
    27 28.471630 -0.000002 0.000002 0.000000 0.000000 1.753825
    28 13.389687 0.268266 6.023556 -0.462585 -1.348926 -0.488759
    29 9.768897 0.000001 0.000001 -1.656387 -0.741395 -1.762449
    30 19.931143 0.000001 -0.000001 0.000000 0.000000 -1.833541
    31 26.044123 -0.000001 -0.000001 0.000000 0.000000 2.306983
    32 -5.849911 4.319725 0.063164 0.520189 0.074934 0.491981
    33 -5.827133 4.411094 0.063164 -0.273468 0.080010 0.491885
    34 13.389687 0.268266 6.023556 -0.462585 -1.348926 -0.488759
  time 28
    0 -2.592535 -93.674915 25.405184 1.639266 -0.222329 1.586283
    1 -5.574535 -0.119304 0.054231 0.000977 0.009102 -0.248574
    2 -5.513216 -2.701017 -3.989360 0.383469 -0.111181 -0.878383
    3 10.569403 0.000000 0.000000 0.000000 0.000000 -2.465564
    4 13.357940 0.000000 0.000000 0.000000 0.000000 2.978850
    5 -5.436410 -2.626257 3.516682 2.770621 0.111809 -0.891116
    6 10.523520 0.000000 0.000000 0.000000 0.000000 2.467024
    7 13.611949 0.000001 0.000000 0.000000 0.000000 -2.972235
    8 -8.417345 1.069929 -0.018171 -0.017547 -0.016275 0.054393
    9 -9.984112 -4.710447 3.170796 -2.902516 -0.005499 -2.717898
    10 5.945618 0.000000 0.000000 0.000000 0.000000 0.734565
    11 -9.984110 -4.710446 -2.998739 -0.219486 0.014238 -2.700595
    12 5.945625 0.000000 0.000000 0.000000 0.000000 -0.752887
    13 -13.167568 0.616876 1.590356 3.140739 -0.157522 -3.136150
    14 1.939788 0.000000 0.000000 3.040688 0.121169 2.449692
    15 -13.157713 0.632509 -1.795553 1.570796 0.016921 -3.058550
    16 2.215697 0.000000 -0.000001 1.570796 -0.608107 -3.124672
    17 -2.618796 -6.269598 8.263164 -2.613713 -0.098676 -0.493079
    18 11.485748 0.000000 0.000000 0.000000 0.000000 -1.833713
    19 24.536900 -0.000001 -0.000001 0.000000 0.000000 2.192585
    20 -2.618795 -6.269599 -8.136835 -0.175564 0.228885 -1.460716
    21 11.659968 0.000000 0.000000 0.000000 0.000000 2.044041
    22 25.724375 0.000000 0.000000 0.000000 0.000000 -2.555232
    23 3.880159 -0.980432 0.090609 -0.017832 0.061219 0.317786
    24 13.389691 0.268266 -6.517195 0.542283 1.306249 -0.395924
    25 9.913784 0.000001 0.000000 1.468689 0.287719 -1.604997
    26 21.016012 0.000002 -0.000001 0.000000 0.000000 -1.701191
    27 28.471630 -0.000002 0.000002 0.000000 0.000000 1.807892
    28 13.389687 0.268266 6.023556 -0.462585 -1.348926 -0.488759
    29 9.768897 0.000001 0.000001 -1.655718 -0.791793 -1.762545
    30 19.931143 0.000001 -0.000001 0.000000 0.000000 -1.811958
    31 26.044123 -0.000001 -0.000001 0.000000 0.000000 2.253073
    32 -5.849911 4.319725 0.063164 0.514350 0.066282 0.515283
    33 -5.827133 4.411094 0.063164 -0.280453 0.071071 0.515000
    34 13.389687 0.268266 6.023556 -0.462585 -1.348926 -0.488759
  time 29
    0 -2.544878 -93.661978 25.285532 1.642138 -0.230388 1.596033
    1 -5.574535 -0.119304 0.054231 0.000820 0.007051 -0.244412
    2 -5.513216 -2.701017 -3.989360 0.387681 -0.112681 -0.896823
    3 10.569403 0.000000 0.000000 0.000000 0.000000 -2.464097
    4 13.357940 0.000000 0.000000 0.000000 0.000000 2.971712
    5 -5.436410 -2.626257 3.516682 2.766620 0.109292 -0.913577
    6 10.523520 0.000000 0.000000 0.000000 0.000000 2.466757
    7 13.611949 0.000001 0.000000 0.000000 0.000000 -2.970925
    8 -8.417345 1.069929 -0.018171 -0.014756 -0.014067 0.061692
    9 -9.984112 -4.710447 3.170796 -2.902516 -0.005511 -2.717898
    10 5.945618 0.000000 0.000000 0.000000 0.000000 0.734615
    11 -9.984110 -4.710446 -2.998739 -0.217808 0.018660 -2.701686
    12 5.945625 0.000000 0.000000 0.000000 0.000000 -0.752582
    13 -13.167568 0.616876 1.590356 3.140739 -0.157522 -3.136150
    14 1.939788 0.000000 0.000000 3.040688 0.121169 2.449692
    15 -13.157713 0.632509 -1.795553 1.570796 0.016921 -3.058550
    16 2.215697 0.000000 -0.000001 1.570796 -0.608107 -3.124672
    17 -2.618796 -6.269598 8.263164 -2.551305 -0.134734 -0.390883
    18 11.485748 0.000000 0.000000 0.000000 0.000000 -1.854509
    19 24.536900 -0.000001 -0.000001 0.000000 0.000000 2.237883
    20 -2.618795 -6.269599 -8.136835 -0.232719 0.237255 -1.452335
    21 11.659968 0.000000 0.000000 0.000000 0.000000 2.005553
    22 25.724375 0.000000 0.000000 0.000000 0.000000 -2.476901
    23 3.880159 -0.980432 0.090609 -0.015844 0.051294 0.370836
    24 13.389691 0.268266 -6.517195 0.542283 1.306249 -0.395924
    25 9.913784 0.000001 0.000000 1.513587 0.330346 -1.602421
    26 21.016012 0.000002 -0.000001 0.000000 0.000000 -1.718974
    27 28.471630 -0.000002 0.000002 0.000000 0.000000 1.839885
    28 13.389687 0.268266 6.023556 -0.462585 -1.348926 -0.488759
    29 9.768897 0.000001 0.000001 -1.663083 -0.825305 -1.745557
    30 19.931143 0.000001 -0.000001 0.000000 0.000000 -1.790642
    31 26.044123 -0.000001 -0.000001 0.000000 0.000000 2.201468
    32 -5.849911 4.319725 0.063164 0.507990 0.057260 0.539902
    33 -5.827133 4.411094 0.063164 -0.287641 0.061852 0.539450
    34 13.389687 0.268266 6.023556 -0.462585 -1.348926 -0.488759
  time 30
    0 -2.493603 -93.341224 25.170153 1.639649 -0.236340 1.600721
    1 -5.574535 -0.119304 0.054231 0.000694 0.005329 -0.239881
    2 -5.513216 -2.701017 -3.989360 0.391713 -0.114844 -0.914601
    3 10.569403 0.000000 0.000000 0.000000 0.000000 -2.462022
    4 13.357940 0.000000 0.000000 0.000000 0.000000 2.962405
    5 -5.436410 -2.626257 3.516682 2.762776 0.107222 -0.935665
    6 10.523520 0.000000 0.000000 0.000000 0.000000 2.466065
    7 13.611949 0.000001 0.000000 0.000000 0.000000 -2.967869
    8 -8.417345 1.069929 -0.018171 -0.012089 -0.011803 0.073004
    9 -9.984112 -4.710447 3.170796 -2.902516 -0.005511 -2.717861
    10 5.945618 0.000000 0.000000 0.000000 0.000000 0.734664
    11 -9.984110 -4.710446 -2.998739 -0.216082 0.023178 -2.702900
    12 5.945625 0.000000 0.000000 0.000000 0.000000 -0.752176
    13 -13.167568 0.616876 1.590356 3.140739 -0.157522 -3.136150
    14 1.939788 0.000000 0.000000 3.040688 0.121169 2.449692
    15 -13.157713 0.632509 -1.795553 1.570796 0.016921 -3.058550
    16 2.215697 0.000000 -0.000001 1.570796 -0.608107 -3.124672
    17 -2.618796 -6.269598 8.263164 -2.530342 -0.181267 -0.366192
    18 11.485748 0.000000 0.000000 0.000000 0.000000 -1.869133
    19 24.536900 -0.000001 -0.000001 0.000000 0.000000 2.269758
    20 -2.618795 -6.269599 -8.136835 -0.298653 0.246122 -1.432526
    21 11.659968 0.000000 0.000000 0.000000 0.000000 1.968318
    22 25.724375 0.000000 0.000000 0.000000 0.000000 -2.400305
    23 3.880159 -0.980432 0.090609 -0.013631 0.041866 0.428572
    24 13.389691 0.268266 -6.517195 0.542283 1.306249 -0.395924
    25 9.913784 0.000001 0.000000 1.559865 0.377060 -1.600703
    26 21.016012 0.000002 -0.000001 0.000000 0.000000 -1.729225
    27 28.471630 -0.000002 0.000002 0.000000 0.000000 1.858696
    28 13.389687 0.268266 6.023556 -0.462585 -1.348926 -0.488759
    29 9.768897 0.000001 0.000001 -1.677334 -0.843900 -1.714731
    30 19.931143 0.000001 -0.000001 0.000000 0.000000 -1.768100
    31 26.044123 -0.000001 -0.000001 0.000000 0.000000 2.148454
    32 -5.849911 4.319725 0.063164 0.501251 0.048068 0.565014
    33 -5.827133 4.411094 0.063164 -0.294813 0.052604 0.564487
    34 13.389687 0.268266 6.023556 -0.462585 -1.348926 -0.488759
  time 31
    0 -2.442616 -92.825623 25.059048 1.632945 -0.240554 1.601377
    1 -5.574535 -0.119304 0.054231 0.000567 0.003891 -0.235148
    2 -5.513216 -2.701017 -3.989360 0.395314 -0.117622 -0.931138
    3 10.569403 0.000000 0.000000 0.000000 0.000000 -2.459340
    4 13.357940 0.000000 0.000000 0.000000 0.000000 2.951209
    5 -5.436410 -2.626257 3.516682 2.759269 0.105712 -0.956571
    6 10.523520 0.000000 0.000000 0.000000 0.000000 2.465000
    7 13.611949 0.000001 0.000000 0.000000 0.000000 -2.963140
    8 -8.417345 1.069929 -0.018171 -0.009582 -0.009595 0.087195
    9 -9.984112 -4.710447 3.170796 -2.902516 -0.005523 -2.717823
    10 5.945618 0.000000 0.000000 0.000000 0.000000 0.734764
    11 -9.984110 -4.710446 -2.998739 -0.214381 0.027661 -2.704113
    12 5.945625 0.000000 0.000000 0.000000 0.000000 -0.751618
    13 -13.167568 0.616876 1.590356 3.140739 -0.157522 -3.136150
    14 1.939788 0.000000 0.000000 3.040688 0.121169 2.449692
    15 -13.157713 0.632509 -1.795553 1.570796 0.016921 -3.058550
    16 2.215697 0.000000 -0.000001 1.570796 -0.608107 -3.124672
    17 -2.618796 -6.269598 8.263164 -2.549508 -0.237385 -0.410740
    18 11.485748 0.000000 0.000000 0.000000 0.000000 -1.880532
    19 24.536900 -0.000001 -0.000001 0.000000 0.000000 2.294490
    20 -2.618795 -6.269599 -8.136835 -0.371266 0.253415 -1.404781
    21 11.659968 0.000000 0.000000 0.000000 0.000000 1.932285
    22 25.724375 0.000000 0.000000 0.000000 0.000000 -2.325252
    23 3.880159 -0.980432 0.090609 -0.011289 0.033085 0.488679
    24 13.389691 0.268266 -6.517195 0.542283 1.306249 -0.395924
    25 9.913784 0.000001 0.000000 1.606972 0.426239 -1.599844
    26 21.016012 0.000002 -0.000001 0.000000 0.000000 -1.735115
    27 28.471630 -0.000002 0.000002 0.000000 0.000000 1.869510
    28 13.389687 0.268266 6.023556 -0.462585 -1.348926 -0.488759
    29 9.768897 0.000001 0.000001 -1.696751 -0.849222 -1.675221
    30 19.931143 0.000001 -0.000001 0.000000 0.000000 -1.743373
    31 26.044123 -0.000001 -0.000001 0.000000 0.000000 2.091535
    32 -5.849911 4.319725 0.063164 0.494318 0.038961 0.589907
    33 -5.827133 4.411094 0.063164 -0.301767 0.043525 0.589364
    34 13.389687 0.268266 6.023556 -0.462585 -1.348926 -0.488759
  time 32
    0 -2.391916 -92.190486 24.952216 1.623465 -0.243293 1.598846
    1 -5.574535 -0.119304 0.054231 0.000441 0.002712 -0.230416
    2 -5.513216 -2.701017 -3.989360 0.398417 -0.120818 -0.946022
    3 10.569403 0.000000 0.000000 0.000000 0.000000 -2.456051
    4 13.357940 0.000000 0.000000 0.000000 0.000000 2.938613
    5 -5.436410 -2.626257 3.516682 2.756190 0.104742 -0.975672
    6 10.523520 0.000000 0.000000 0.000000 0.000000 2.463509
    7 13.611949 0.000001 0.000000 0.000000 0.000000 -2.956882
    8 -8.417345 1.069929 -0.018171 -0.007271 -0.007444 0.103170
    9 -9.984112 -4.710447 3.170796 -2.902516 -0.005523 -2.717786
    10 5.945618 0.000000 0.000000 0.000000 0.000000 0.734813
    11 -9.984110 -4.710446 -2.998739 -0.212739 0.031987 -2.705366
    12 5.945625 0.000000 0.000000 0.000000 0.000000 -0.751010
    13 -13.167568 0.616876 1.590356 3.140739 -0.157522 -3.136150
    14 1.939788 0.000000 0.000000 3.040688 0.121169 2.449692
    15 -13.157713 0.632509 -1.795553 1.570796 0.016921 -3.058550
    16 2.215697 0.000000 -0.000001 1.570796 -0.608107 -3.124672
    17 -2.618796 -6.269598 8.263164 -2.574723 -0.287232 -0.508802
    18 11.485748 0.000000 0.000000 0.000000 0.000000 -1.885926
    19 24.536900 -0.000001 -0.000001 0.000000 0.000000 2.305997
    20 -2.618795 -6.269599 -8.136835 -0.447313 0.257973 -1.371067
    21 11.659968 0.000000 0.000000 0.000000 0.000000 1.897406
    22 25.724375 0.000000 0.000000 0.000000 0.000000 -2.252062
    23 3.880159 -0.980432 0.090609 -0.008916 0.025075 0.548666
    24 13.389691 0.268266 -6.517195 0.542283 1.306249 -0.395924
    25 9.913784 0.000001 0.000000 1.653894 0.476327 -1.599557
    26 21.016012 0.000002 -0.000001 0.000000 0.000000 -1.738683
    27 28.471630 -0.000002 0.000002 0.000000 0.000000 1.876164
    28 13.389687 0.268266 6.023556 -0.462585 -1.348926 -0.488759
    29 9.768897 0.000001 0.000001 -1.719133 -0.843177 -1.633802
    30 19.931143 0.000001 -0.000001 0.000000 0.000000 -1.715821
    31 26.044123 -0.000001 -0.000001 0.000000 0.000000 2.029110
    32 -5.849911 4.319725 0.063164 0.487410 0.030224 0.613868
    33 -5.827133 4.411094 0.063164 -0.308303 0.034922 0.613386
    34 13.389687 0.268266 6.023556 -0.462585 -1.348926 -0.488759
  time 33
    0 -2.349316 -91.500367 24.853930 1.612165 -0.244767 1.594158
    1 -5.574535 -0.119304 0.054231 0.000315 0.001792 -0.225885
    2 -5.513216 -2.701017 -3.989360 0.400908 -0.124382 -0.958508
    3 10.569403 0.000000 0.000000 0.000000 0.000000 -2.452812
    4 13.357940 0.000000 0.000000 0.000000 0.000000 2.925248
    5 -5.436410 -2.626257 3.516682 2.753606 0.104369 -0.992285
    6 10.523520 0.000000 0.000000 0.000000 0.000000 2.462125
    7 13.611949 0.000001 0.000000 0.000000 0.000000 -2.949679
    8 -8.417345 1.069929 -0.018171 -0.005227 -0.005434 0.119754
    9 -9.984112 -4.710447 3.170796 -2.902516 -0.005534 -2.717786
    10 5.945618 0.000000 0.000000 0.000000 0.000000 0.734863
    11 -9.984110 -4.710446 -2.998739 -0.211217 0.036014 -2.706579
    12 5.945625 0.000000 0.000000 0.000000 0.000000 -0.750300
    13 -13.167568 0.616876 1.590356 3.140739 -0.157522 -3.136150
    14 1.939788 0.000000 0.000000 3.040688 0.121169 2.449692
    15 -13.157713 0.632509 -1.795553 1.570796 0.016921 -3.058550
    16 2.215697 0.000000 -0.000001 1.570796 -0.608107 -3.124672
    17 -2.618796 -6.269598 8.263164 -2.577418 -0.314240 -0.641686
    18 11.485748 0.000000 0.000000 0.000000 0.000000 -1.880977
    19 24.536900 -0.000001 -0.000001 0.000000 0.000000 2.295416
    20 -2.618795 -6.269599 -8.136835 -0.523171 0.259507 -1.333100
    21 11.659968 0.000000 0.000000 0.000000 0.000000 1.864280
    22 25.724375 0.000000 0.000000 0.000000 0.000000 -2.181635
    23 3.880159 -0.980432 0.090609 -0.006607 0.017935 0.606036
    24 13.389691 0.268266 -6.517195 0.542283 1.306249 -0.395924
    25 9.913784 0.000001 0.000000 1.699068 0.525571 -1.599271
    26 21.016012 0.000002 -0.000001 0.000000 0.000000 -1.741572
    27 28.471630 -0.000002 0.000002 0.000000 0.000000 1.881475
    28 13.389687 0.268266 6.023556 -0.462585 -1.348926 -0.488759
    29 9.768897 0.000001 0.000001 -1.741993 -0.828984 -1.596486
    30 19.931143 0.000001 -0.000001 0.000000 0.000000 -1.685232
    31 26.044123 -0.000001 -0.000001 0.000000 0.000000 1.961499
    32 -5.849911 4.319725 0.063164 0.480750 0.022084 0.636129
    33 -5.827133 4.411094 0.063164 -0.314264 0.026992 0.635754
    34 13.389687 0.268266 6.023556 -0.462585 -1.348926 -0.488759
  time 34
    0 -2.307005 -90.798304 24.768465 1.600386 -0.245347 1.588252
    1 -5.574535 -0.119304 0.054231 0.000221 0.001085 -0.221723
    2 -5.513216 -2.701017 -3.989360 0.402901 -0.127774 -0.969175
    3 10.569403 0.000000 0.000000 0.000000 0.000000 -2.448764
    4 13.357940 0.000000 0.000000 0.000000 0.000000 2.912162
    5 -5.436410 -2.626257 3.516682 2.751540 0.104425 -1.006160
    6 10.523520 0.000000 0.000000 0.000000 0.000000 2.460208
    7 13.611949 0.000001 0.000000 0.000000 0.000000 -2.941966
    8 -8.417345 1.069929 -0.018171 -0.003449 -0.003651 0.135850
    9 -9.984112 -4.710447 3.170796 -2.902516 -0.005534 -2.717748
    10 5.945618 0.000000 0.000000 0.000000 0.000000 0.734913
    11 -9.984110 -4.710446 -2.998739 -0.209874 0.039597 -2.707671
    12 5.945625 0.000000 0.000000 0.000000 0.000000 -0.749590
    13 -13.167568 0.616876 1.590356 3.140739 -0.157522 -3.136150
    14 1.939788 0.000000 0.000000 3.040688 0.121169 2.449692
    15 -13.157713 0.632509 -1.795553 1.570796 0.016921 -3.058550
    16 2.215697 0.000000 -0.000001 1.570796 -0.608107 -3.124672
    17 -2.618796 -6.269598 8.263164 -2.555677 -0.312672 -0.787033
    18 11.485748 0.000000 0.000000 0.000000 0.000000 -1.863962
    19 24.536900 -0.000001 -0.000001 0.000000 0.000000 2.258516
    20 -2.618795 -6.269599 -8.136835 -0.594161 0.258512 -1.293101
    21 11.659968 0.000000 0.000000 0.000000 0.000000 1.833359
    22 25.724375 0.000000 0.000000 0.000000 0.000000 -2.115899
    23 3.880159 -0.980432 0.090609 -0.004522 0.011816 0.658478
    24 13.389691 0.268266 -6.517195 0.542283 1.306249 -0.395924
    25 9.913784 0.000001 0.000000 1.740746 0.571766 -1.598221
    26 21.016012 0.000002 -0.000001 0.000000 0.000000 -1.745026
    27 28.471630 -0.000002 0.000002 0.000000 0.000000 1.887873
    28 13.389687 0.268266 6.023556 -0.462585 -1.348926 -0.488759
    29 9.768897 0.000001 0.000001 -1.763322 -0.810257 -1.566901
    30 19.931143 0.000001 -0.000001 0.000000 0.000000 -1.652564
    31 26.044123 -0.000001 -0.000001 0.000000 0.000000 1.891262
    32 -5.849911 4.319725 0.063164 0.474637 0.014827 0.656032
    33 -5.827133 4.411094 0.063164 -0.319496 0.019986 0.655719
    34 13.389687 0.268266 6.023556 -0.462585 -1.348926 -0.488759
  time 35
    0 -2.272794 -90.138089 24.704365 1.589182 -0.245347 1.581971
    1 -5.574535 -0.119304 0.054231 0.000126 0.000566 -0.218166
    2 -5.513216 -2.701017 -3.989360 0.404351 -0.130847 -0.977692
    3 10.569403 0.000000 0.000000 0.000000 0.000000 -2.444867
    4 13.357940 0.000000 0.000000 0.000000 0.000000 2.900336
    5 -5.436410 -2.626257 3.516682 2.749956 0.104649 -1.017484
    6 10.523520 0.000000 0.000000 0.000000 0.000000 2.458078
    7 13.611949 0.000001 0.000000 0.000000 0.000000 -2.934690
    8 -8.417345 1.069929 -0.018171 -0.001991 -0.002151 0.150325
    9 -9.984112 -4.710447 3.170796 -2.902516 -0.005546 -2.717710
    10 5.945618 0.000000 0.000000 0.000000 0.000000 0.734962
    11 -9.984110 -4.710446 -2.998739 -0.208736 0.042617 -2.708642
    12 5.945625 0.000000 0.000000 0.000000 0.000000 -0.748930
    13 -13.167568 0.616876 1.590356 3.140739 -0.157522 -3.136150
    14 1.939788 0.000000 0.000000 3.040688 0.121169 2.449692
    15 -13.157713 0.632509 -1.795553 1.570796 0.016921 -3.058550
    16 2.215697 0.000000 -0.000001 1.570796 -0.608107 -3.124672
    17 -2.618796 -6.269598 8.263164 -2.523455 -0.288729 -0.922130
    18 11.485748 0.000000 0.000000 0.000000 0.000000 -1.837328
    19 24.536900 -0.000001 -0.000001 0.000000 0.000000 2.200520
    20 -2.618795 -6.269599 -8.136835 -0.655801 0.256026 -1.254309
    21 11.659968 0.000000 0.000000 0.000000 0.000000 1.805746
    22 25.724375 0.000000 0.000000 0.000000 0.000000 -2.057231
    23 3.880159 -0.980432 0.090609 -0.002694 0.006841 0.703498
    24 13.389691 0.268266 -6.517195 0.542283 1.306249 -0.395924
    25 9.913784 0.000001 0.000000 1.776903 0.612382 -1.595644
    26 21.016012 0.000002 -0.000001 0.000000 0.000000 -1.750123
    27 28.471630 -0.000002 0.000002 0.000000 0.000000 1.897279
    28 13.389687 0.268266 6.023556 -0.462585 -1.348926 -0.488759
    29 9.768897 0.000001 0.000001 -1.781495 -0.790807 -1.546287
    30 19.931143 0.000001 -0.000001 0.000000 0.000000 -1.619950
    31 26.044123 -0.000001 -0.000001 0.000000 0.000000 1.823203
    32 -5.849911 4.319725 0.063164 0.469346 0.008737 0.672755
    33 -5.827133 4.411094 0.063164 -0.323811 0.014130 0.672535
    34 13.389687 0.268266 6.023556 -0.462585 -1.348926 -0.488759
  time 36
    0 -2.242777 -89.573519 24.648813 1.579702 -0.244978 1.576345
    1 -5.574535 -0.119304 0.054231 0.000032 0.000236 -0.215380
    2 -5.513216 -2.701017 -3.989360 0.405324 -0.133330 -0.983893
    3 10.569403 0.000000 0.000000 0.000000 0.000000 -2.441578
    4 13.357940 0.000000 0.000000 0.000000 0.000000 2.890610
    5 -5.436410 -2.626257 3.516682 2.748852 0.105003 -1.025821
    6 10.523520 0.000000 0.000000 0.000000 0.000000 2.456268
    7 13.611949 0.000001 0.000000 0.000000 0.000000 -2.928505
    8 -8.417345 1.069929 -0.018171 -0.000907 -0.000991 0.162084
    9 -9.984112 -4.710447 3.170796 -2.902516 -0.005546 -2.717710
    10 5.945618 0.000000 0.000000 0.000000 0.000000 0.735012
    11 -9.984110 -4.710446 -2.998739 -0.207873 0.044930 -2.709410
    12 5.945625 0.000000 0.000000 0.000000 0.000000 -0.748423
    13 -13.167568 0.616876 1.590356 3.140739 -0.157522 -3.136150
    14 1.939788 0.000000 0.000000 3.040688 0.121169 2.449692
    15 -13.157713 0.632509 -1.795553 1.570796 0.016921 -3.058550
    16 2.215697 0.000000 -0.000001 1.570796 -0.608107 -3.124672
    17 -2.618796 -6.269598 8.263164 -2.494347 -0.255913 -1.029393
    18 11.485748 0.000000 0.000000 0.000000 0.000000 -1.807413
    19 24.536900 -0.000001 -0.000001 0.000000 0.000000 2.135251
    20 -2.618795 -6.269599 -8.136835 -0.703987 0.253042 -1.220595
    21 11.659968 0.000000 0.000000 0.000000 0.000000 1.783044
    22 25.724375 0.000000 0.000000 0.000000 0.000000 -2.009166
    23 3.880159 -0.980432 0.090609 -0.001251 0.003109 0.738663
    24 13.389691 0.268266 -6.517195 0.542283 1.306249 -0.395924
    25 9.913784 0.000001 0.000000 1.805701 0.644627 -1.590777
    26 21.016012 0.000002 -0.000001 0.000000 0.000000 -1.757826
    27 28.471630 -0.000002 0.000002 0.000000 0.000000 1.911548
    28 13.389687 0.268266 6.023556 -0.462585 -1.348926 -0.488759
    29 9.768897 0.000001 0.000001 -1.795460 -0.773592 -1.533880
    30 19.931143 0.000001 -0.000001 0.000000 0.000000 -1.591119
    31 26.044123 -0.000001 -0.000001 0.000000 0.000000 1.763915
    32 -5.849911 4.319725 0.063164 0.465201 0.004041 0.685585
    33 -5.827133 4.411094 0.063164 -0.327087 0.009646 0.685507
    34 13.389687 0.268266 6.023556 -0.462585 -1.348926 -0.488759
  time 37
    0 -2.224766 -89.158389 24.614626 1.573190 -0.244557 1.572314
    1 -5.574535 -0.119304 0.054231 0.000000 0.000047 -0.213568
    2 -5.513216 -2.701017 -3.989360 0.405868 -0.135050 -0.987531
    3 10.569403 0.000000 0.000000 0.000000 0.000000 -2.439706
    4 13.357940 0.000000 0.000000 0.000000 0.000000 2.884172
    5 -5.436410 -2.626257 3.516682 2.748189 0.105283 -1.031048
    6 10.523520 0.000000 0.000000 0.000000 0.000000 2.454990
    7 13.611949 0.000001 0.000000 0.000000 0.000000 -2.924284
    8 -8.417345 1.069929 -0.018171 -0.000231 -0.000255 0.169950
    9 -9.984112 -4.710447 3.170796 -2.902516 -0.005546 -2.717710
    10 5.945618 0.000000 0.000000 0.000000 0.000000 0.735012
    11 -9.984110 -4.710446 -2.998739 -0.207310 0.046429 -2.709895
    12 5.945625 0.000000 0.000000 0.000000 0.000000 -0.748017
    13 -13.167568 0.616876 1.590356 3.140739 -0.157522 -3.136150
    14 1.939788 0.000000 0.000000 3.040688 0.121169 2.449692
    15 -13.157713 0.632509 -1.795553 1.570796 0.016921 -3.058550
    16 2.215697 0.000000 -0.000001 1.570796 -0.608107 -3.124672
    17 -2.618796 -6.269598 8.263164 -2.475301 -0.228264 -1.098921
    18 11.485748 0.000000 0.000000 0.000000 0.000000 -1.782836
    19 24.536900 -0.000001 -0.000001 0.000000 0.000000 2.081752
    20 -2.618795 -6.269599 -8.136835 -0.735189 0.250473 -1.196850
    21 11.659968 0.000000 0.000000 0.000000 0.000000 1.767509
    22 25.724375 0.000000 0.000000 0.000000 0.000000 -1.976073
    23 3.880159 -0.980432 0.090609 -0.000321 0.000796 0.761538
    24 13.389691 0.268266 -6.517195 0.542283 1.306249 -0.395924
    25 9.913784 0.000001 0.000000 1.825389 0.665519 -1.582951
    26 21.016012 0.000002 -0.000001 0.000000 0.000000 -1.769323
    27 28.471630 -0.000002 0.000002 0.000000 0.000000 1.932727
    28 13.389687 0.268266 6.023556 -0.462585 -1.348926 -0.488759
    29 9.768897 0.000001 0.000001 -1.804451 -0.761436 -1.527677
    30 19.931143 0.000001 -0.000001 0.000000 0.000000 -1.570336
    31 26.044123 -0.000001 -0.000001 0.000000 0.000000 1.721978
    32 -5.849911 4.319725 0.063164 0.462503 0.001053 0.693865
    33 -5.827133 4.411094 0.063164 -0.329167 0.006760 0.693835
    34 13.389687 0.268266 6.023556 -0.462585 -1.348926 -0.488759
  time 38
    0 -2.218763 -88.994908 24.601806 1.570796 -0.244346 1.570720
    1 -5.574535 -0.119304 0.054231 0.000000 0.000000 -0.212930
    2 -5.513216 -2.701017 -3.989360 0.406049 -0.135640 -0.988854
    3 10.569403 0.000000 0.000000 0.000000 0.000000 -2.438846
    4 13.357940 0.000000 0.000000 0.000000 0.000000 2.881863
    5 -5.436410 -2.626257 3.516682 2.747968 0.105413 -1.032852
    6 10.523520 0.000000 0.000000 0.000000 0.000000 2.454510
    7 13.611949 0.000001 0.000000 0.000000 0.000000 -2.922756
    8 -8.417345 1.069929 -0.018171 0.000000 0.000000 0.172788
    9 -9.984112 -4.710447 3.170796 -2.902516 -0.005546 -2.717710
    10 5.945618 0.000000 0.000000 0.000000 0.000000 0.735012
    11 -9.984110 -4.710446 -2.998739 -0.207118 0.046944 -2.710057
    12 5.945625 0.000000 0.000000 0.000000 0.000000 -0.747916
    13 -13.167568 0.616876 1.590356 3.140739 -0.157522 -3.136150
    14 1.939788 0.000000 0.000000 3.040688 0.121169 2.449692
    15 -13.157713 0.632509 -1.795553 1.570796 0.016921 -3.058550
    16 2.215697 0.000000 -0.000001 1.570796 -0.608107 -3.124672
    17 -2.618796 -6.269598 8.263164 -2.468653 -0.217111 -1.123903
    18 11.485748 0.000000 0.000000 0.000000 0.000000 -1.772938
    19 24.536900 -0.000001 -0.000001 0.000000 0.000000 2.060128
    20 -2.618795 -6.269599 -8.136835 -0.746257 0.249313 -1.187771
    21 11.659968 0.000000 0.000000 0.000000 0.000000 1.761595
    22 25.724375 0.000000 0.000000 0.000000 0.000000 -1.963607
    23 3.880159 -0.980432 0.090609 0.000000 0.000000 0.769690
    24 13.389691 0.268266 -6.517195 0.542283 1.306249 -0.395924
    25 9.913784 0.000001 0.000000 1.834130 0.672526 -1.571880
    26 21.016012 0.000002 -0.000001 0.000000 0.000000 -1.785803
    27 28.471630 -0.000002 0.000002 0.000000 0.000000 1.963632
    28 13.389687 0.268266 6.023556 -0.462585 -1.348926 -0.488759
    29 9.768897 0.000001 0.000001 -1.807607 -0.756968 -1.525768
    30 19.931143 0.000001 -0.000001 0.000000 0.000000 -1.562182
    31 26.044123 -0.000001 -0.000001 0.000000 0.000000 1.706035
    32 -5.849911 4.319725 0.063164 0.461552 0.000000 0.696771
    33 -5.827133 4.411094 0.063164 -0.329881 0.005779 0.696771
    34 13.389687 0.268266 6.023556 -0.462585 -1.348926 -0.488759
end
