// Created by Crowbar 0.44.0.0
version 1
nodes
  0 "Bip01" -1
  1 "Bip01 Pelvis" 0
  2 "Bip01 L Thigh" 1
  3 "Bip01 L Calf" 2
  4 "Bip01 L Foot" 3
  5 "Bip01 L Toe0" 4
  6 "Bip01 L Toe01" 5
  7 "Bip01 L Toe02" 6
  8 "Bone10" 4
  9 "Bone11" 8
  10 "Bone13" 4
  11 "Bone14" 10
  12 "Bip01 R Thigh" 1
  13 "Bip01 R Calf" 12
  14 "Bip01 R Foot" 13
  15 "Bip01 R Toe0" 14
  16 "Bip01 R Toe01" 15
  17 "Bip01 R Toe02" 16
  18 "Bone16" 14
  19 "Bone17" 18
  20 "Bone19" 14
  21 "Bone20" 20
  22 "Bip01 Spine" 1
  23 "Bip01 Spine1" 22
  24 "Bip01 Spine2" 23
  25 "Bip01 Spine3" 24
  26 "Bip01 Neck" 25
  27 "Bip01 L Clavicle" 26
  28 "Bip01 L UpperArm" 27
  29 "Bip01 L Forearm" 28
  30 "Bip01 L Hand" 29
  31 "Bip01 L Finger0" 30
  32 "Bip01 L Finger01" 31
  33 "Bip01 L Finger02" 32
  34 "Bip01 L Finger1" 30
  35 "Bip01 L Finger11" 34
  36 "Bip01 L Finger12" 35
  37 "Bip01 R Clavicle" 26
  38 "Bip01 R UpperArm" 37
  39 "Bip01 R Forearm" 38
  40 "Bip01 R Hand" 39
  41 "Bip01 R Finger0" 40
  42 "Bip01 R Finger01" 41
  43 "Bip01 R Finger02" 42
  44 "Bip01 R Finger1" 40
  45 "Bip01 R Finger11" 44
  46 "Bip01 R Finger12" 45
  47 "Bip01 Neck1" 26
  48 "Bip01 Head" 47
  49 "Bone05" 24
  50 "Bone06" 49
  51 "Bone07" 50
  52 "Bone08" 51
  53 "Bone09" 52
  54 "Bone22" 53
  55 "Bone23" 54
  56 "Bone26" 53
  57 "Bone27" 56
  58 "Bone30" 52
  59 "Bone31" 58
end
skeleton
  time 0
    0 -0.014656 -0.040179 35.359626 0.000000 -0.244215 -1.570836
    1 -0.851108 -2.074282 0.000000 0.000000 -1.562095 -1.570765
    2 -0.000010 0.000010 6.353376 -0.040809 -0.034223 -2.090038
    3 18.507668 -0.000001 0.000000 0.000000 0.000000 -0.798051
    4 13.411349 -0.000002 0.000000 2.895814 0.048816 0.011007
    5 8.701365 6.675648 -0.000001 0.000000 0.000000 1.614373
    6 2.657023 0.000000 0.000001 0.000000 0.000000 -0.043611
    7 2.657023 0.000000 -0.000001 0.000000 0.000000 -0.043611
    8 6.248514 -0.893519 -3.345192 3.141592 0.078501 -1.570796
    9 5.692027 -3.146075 2.191403 0.000000 0.000000 0.000000
    10 6.262097 -1.288316 1.407514 -1.570796 1.492295 1.570796
    11 -0.950702 5.642264 -3.162059 0.000000 0.000000 0.000000
    12 0.000009 -0.000007 -6.353376 -0.001591 -0.018715 -3.083915
    13 18.507664 -0.000004 0.000001 0.000000 0.000000 -0.773423
    14 13.411347 0.000003 0.000001 -2.934630 0.031907 0.934839
    15 8.701365 6.675650 0.000002 0.000000 0.000000 1.527185
    16 2.639101 0.000000 0.000002 0.000000 0.000000 -0.043611
    17 2.639102 0.000000 0.000001 0.000000 0.000000 -0.043611
    18 6.262097 -1.271892 -1.655766 1.570795 1.492298 -1.570797
    19 0.660781 5.698953 -3.162059 0.000000 0.000000 0.000000
    20 6.280026 -0.875929 3.588311 1.570795 1.492298 -1.570797
    21 -1.268986 5.650651 -3.144119 0.000000 0.000000 0.000000
    22 3.416503 -0.970598 0.027351 0.148103 -0.148703 0.740724
    23 6.150886 -0.004767 0.000000 0.000000 -0.000001 0.305253
    24 6.181767 -0.006273 0.000000 0.016479 -0.005682 0.331371
    25 8.035379 -0.006654 0.000000 -0.045759 0.025363 0.505288
    26 9.041867 -0.002304 0.000000 0.000000 -0.000002 0.527199
    27 -5.186878 6.440299 3.525343 -0.000012 -1.370798 2.613622
    28 8.356072 -0.000003 0.000003 -1.093471 0.501560 -0.963120
    29 22.314190 -0.000002 -0.000002 0.000000 0.000000 -2.190889
    30 13.466391 0.000001 0.000001 -0.601328 -0.123835 -0.277211
    31 6.645410 -0.843859 -1.119302 -0.045896 0.131847 -0.334571
    32 3.530611 0.000001 0.000000 0.000000 0.000000 -0.357609
    33 3.530614 0.000000 0.000001 0.000000 0.000000 0.828535
    34 6.690084 -0.762452 1.047436 0.062279 -0.172366 -0.354159
    35 3.608301 0.000000 0.000001 0.000000 0.000000 -0.357609
    36 3.608302 -0.000001 0.000001 0.000000 0.000000 0.828535
    37 -4.972171 6.351142 -3.100415 -0.000012 1.309458 2.613434
    38 8.356073 -0.000004 0.000002 1.098948 0.396427 -1.162998
    39 22.314186 -0.000002 0.000000 0.000000 0.000000 -1.313134
    40 13.466395 0.000000 0.000000 1.012241 -0.226560 0.603991
    41 6.635592 -0.843574 1.110599 0.070153 -0.169348 -0.389763
    42 3.530612 -0.000001 0.000002 0.000000 0.000000 0.113355
    43 3.530613 0.000003 -0.000001 0.000000 0.000000 0.366404
    44 6.681005 -0.762752 -1.054662 0.013910 0.182656 0.071133
    45 3.608303 0.000001 0.000001 0.000000 0.000000 0.113371
    46 3.608304 -0.000001 0.000001 0.000000 0.000000 0.776220
    47 3.408091 -0.002198 0.000000 -0.000028 -0.034890 0.213179
    48 2.848662 0.000002 0.000000 0.053233 0.219141 -0.848146
    49 4.138185 10.107881 0.022334 -0.000003 0.000000 -2.666027
    50 0.760361 -7.382634 0.000000 0.000000 0.000000 0.000000
    51 -2.209861 -5.858539 0.000000 0.000000 0.000000 0.000000
    52 -2.505794 -2.289769 0.000000 0.000000 0.000000 0.000000
    53 -1.609548 -0.865423 0.000000 0.000000 0.000000 0.000000
    54 -0.372425 -0.406650 -1.764821 0.000000 -1.570456 0.000000
    55 -0.928988 -2.565561 1.783663 0.000000 0.000000 0.000000
    56 -0.365561 -0.396879 1.486638 0.000000 -1.570452 0.000000
    57 1.132204 -2.560903 1.809972 0.000000 0.000000 0.000000
    58 0.494777 -1.362942 -0.110061 0.000000 -1.570454 0.000000
    59 -0.087093 -3.281170 -0.490829 0.000000 0.000000 0.000000
  time 1
    0 -0.096690 1.377833 35.152588 -0.060757 -0.236614 -1.316660
    1 -0.940954 -1.562548 0.000000 0.000000 -1.562095 -1.570765
    2 -0.000010 0.000010 6.353376 -0.098046 -0.166657 -2.093208
    3 18.507668 -0.000001 0.000000 0.000000 0.000000 -1.027839
    4 13.411349 -0.000002 0.000000 3.080307 0.118987 0.239352
    5 8.701365 6.675648 -0.000001 0.000000 0.000000 1.614373
    6 2.657023 0.000000 0.000001 0.000000 0.000000 -0.043611
    7 2.657023 0.000000 -0.000001 0.000000 0.000000 -0.043611
    8 6.248514 -0.893519 -3.345192 3.141592 0.078501 -1.570796
    9 5.692027 -3.146075 2.191403 0.000000 0.000000 0.000000
    10 6.262097 -1.288316 1.407514 -1.570796 1.492295 1.570796
    11 -0.950702 5.642264 -3.162059 0.000000 0.000000 0.000000
    12 0.000009 -0.000007 -6.353376 0.021731 0.053344 -3.065272
    13 18.507664 -0.000004 0.000001 0.000000 0.000000 -0.769529
    14 13.411347 0.000003 0.000001 -2.726904 -0.089289 0.909194
    15 8.701365 6.675650 0.000002 0.000000 0.000000 1.527185
    16 2.639101 0.000000 0.000002 0.000000 0.000000 -0.043611
    17 2.639102 0.000000 0.000001 0.000000 0.000000 -0.043611
    18 6.262097 -1.271892 -1.655766 1.570795 1.492298 -1.570797
    19 0.660781 5.698953 -3.162059 0.000000 0.000000 0.000000
    20 6.280026 -0.875929 3.588311 1.570795 1.492298 -1.570797
    21 -1.268986 5.650651 -3.144119 0.000000 0.000000 0.000000
    22 3.416503 -0.970598 0.027351 0.146775 -0.057547 0.754351
    23 6.150886 -0.004767 0.000000 -0.000012 -0.027625 0.305253
    24 6.181767 -0.006273 0.000000 0.016467 -0.051738 0.330610
    25 8.035379 -0.006654 0.000000 -0.045772 -0.002201 0.506537
    26 9.041867 -0.002304 0.000000 0.000364 -0.092415 0.541891
    27 -4.753271 6.514520 3.970669 0.378784 -1.440639 2.225036
    28 8.356072 -0.000003 0.000003 -1.188734 0.450771 -0.867518
    29 22.314190 -0.000002 -0.000002 0.000000 0.000000 -2.121247
    30 13.466391 0.000001 0.000001 -0.601328 -0.123835 -0.277211
    31 6.645410 -0.843859 -1.119302 -0.045896 0.131847 -0.334571
    32 3.530611 0.000001 0.000000 0.000000 0.000000 -0.357609
    33 3.530614 0.000000 0.000001 0.000000 0.000000 0.828535
    34 6.690084 -0.762452 1.047436 0.062279 -0.172366 -0.354159
    35 3.608301 0.000000 0.000001 0.000000 0.000000 -0.357609
    36 3.608302 -0.000001 0.000001 0.000000 0.000000 0.828573
    37 -5.144051 6.417550 -2.639463 0.134882 1.206076 2.726947
    38 8.356073 -0.000004 0.000002 0.982121 0.423673 -1.181538
    39 22.314186 -0.000002 0.000000 0.000000 0.000000 -1.348414
    40 13.466395 0.000000 0.000000 1.012241 -0.226560 0.603991
    41 6.635592 -0.843574 1.110599 0.070153 -0.169348 -0.389763
    42 3.530612 -0.000001 0.000002 0.000000 0.000000 0.113355
    43 3.530613 0.000003 -0.000001 0.000000 0.000000 0.366368
    44 6.681005 -0.762752 -1.054662 0.013910 0.182656 0.071133
    45 3.608303 0.000001 0.000001 0.000000 0.000000 0.113371
    46 3.608304 -0.000001 0.000001 0.000000 0.000000 0.776220
    47 3.408091 -0.002198 0.000000 0.000739 -0.127243 0.237639
    48 2.848662 0.000002 0.000000 -0.148070 0.176664 -1.129283
    49 4.138185 10.107881 0.022334 -0.000003 0.000000 -2.843680
    50 0.760361 -7.382634 0.000000 0.000000 0.000000 -0.432253
    51 -1.717659 -5.053827 0.000000 0.000000 0.000000 0.000000
    52 -2.443292 -1.715533 0.000000 0.000000 0.000000 0.000000
    53 -1.636892 -0.541194 0.000000 0.000000 0.000000 0.000000
    54 -0.352893 -0.324616 -1.764821 0.000000 -1.570796 -0.148072
    55 -0.928988 -1.952261 1.713348 -0.100755 0.000000 0.000000
    56 -0.346029 -0.314845 1.486638 0.000000 -1.570796 -0.191773
    57 1.132204 -1.916353 1.774815 -0.162186 0.000000 0.000000
    58 0.690096 -1.339503 -0.110061 0.000000 -1.570454 0.000000
    59 -0.087093 -3.109290 -0.900998 0.160737 0.000000 0.000000
  time 2
    0 -0.014656 2.495055 34.929925 -0.108685 -0.219079 -1.105401
    1 -0.991737 -1.058626 0.000000 0.000000 -1.562095 -1.570765
    2 -0.000010 0.000010 6.353376 -0.137364 -0.250215 -2.136111
    3 18.507668 -0.000001 0.000000 0.000000 0.000000 -1.181773
    4 13.411349 -0.000002 0.000000 3.257145 0.157527 0.424555
    5 8.701365 6.675648 -0.000001 0.000000 0.000000 1.614392
    6 2.657023 0.000000 0.000001 0.000000 0.000000 -0.043611
    7 2.657023 0.000000 -0.000001 0.000000 0.000000 -0.043611
    8 6.248514 -0.893519 -3.345192 3.141592 0.078501 -1.570796
    9 5.692027 -3.146075 2.191403 0.000000 0.000000 0.000000
    10 6.262097 -1.288316 1.407514 -1.570796 1.492295 1.570796
    11 -0.950702 5.642264 -3.162059 0.000000 0.000000 0.000000
    12 0.000009 -0.000007 -6.353376 0.046530 0.121625 -3.029948
    13 18.507664 -0.000004 0.000001 0.000000 0.000000 -0.768316
    14 13.411347 0.000003 0.000001 -2.553668 -0.198792 0.867031
    15 8.701365 6.675650 0.000002 0.000000 0.000000 1.527185
    16 2.639101 0.000000 0.000002 0.000000 0.000000 -0.043611
    17 2.639102 0.000000 0.000001 0.000000 0.000000 -0.043611
    18 6.262097 -1.271892 -1.655766 1.570795 1.492298 -1.570797
    19 0.660781 5.698953 -3.162059 0.000000 0.000000 0.000000
    20 6.280026 -0.875929 3.588311 1.570795 1.492298 -1.570797
    21 -1.268986 5.650651 -3.144119 0.000000 0.000000 0.000000
    22 3.416503 -0.970598 0.027351 0.146680 0.031440 0.767489
    23 6.150886 -0.004767 0.000000 -0.000036 -0.054639 0.305253
    24 6.181767 -0.006273 0.000000 0.016491 -0.096741 0.329878
    25 8.035379 -0.006654 0.000000 -0.045811 -0.029186 0.507785
    26 9.041867 -0.002304 0.000000 -0.000116 -0.182116 0.553333
    27 -4.300132 6.569210 4.376931 1.134649 -1.465543 1.462221
    28 8.356072 -0.000003 0.000003 -1.306597 0.407471 -0.760735
    29 22.314190 -0.000002 -0.000002 0.000000 0.000000 -2.044258
    30 13.466391 0.000001 0.000001 -0.601406 -0.123835 -0.277211
    31 6.645410 -0.843859 -1.119302 -0.045896 0.131847 -0.334600
    32 3.530611 0.000001 0.000000 0.000000 0.000000 -0.357609
    33 3.530614 0.000000 0.000001 0.000000 0.000000 0.828535
    34 6.690084 -0.762452 1.047436 0.062279 -0.172366 -0.354159
    35 3.608301 0.000000 0.000001 0.000000 0.000000 -0.357609
    36 3.608302 -0.000001 0.000001 0.000000 0.000000 0.828535
    37 -5.284681 6.472239 -2.178512 0.211389 1.099988 2.783704
    38 8.356073 -0.000004 0.000002 0.841527 0.443846 -1.213938
    39 22.314186 -0.000002 0.000000 0.000000 0.000000 -1.387326
    40 13.466395 0.000000 0.000000 1.012241 -0.226560 0.603991
    41 6.635592 -0.843574 1.110599 0.070153 -0.169348 -0.389763
    42 3.530612 -0.000001 0.000002 0.000000 0.000000 0.113355
    43 3.530613 0.000003 -0.000001 0.000000 0.000000 0.366404
    44 6.681005 -0.762752 -1.054662 0.013910 0.182656 0.071133
    45 3.608303 0.000001 0.000001 0.000000 0.000000 0.113371
    46 3.608304 -0.000001 0.000001 0.000000 0.000000 0.776220
    47 3.408091 -0.002198 0.000000 -0.000172 -0.217032 0.256778
    48 2.848662 0.000002 0.000000 -0.351951 0.067283 -1.296995
    49 4.138185 10.107881 0.022334 -0.000003 0.000000 -3.021373
    50 0.760361 -7.382634 0.000000 0.000000 0.000000 -0.858001
    51 -2.272363 -4.503029 0.000000 0.000000 0.000000 0.000000
    52 -2.849554 -1.492870 0.000000 0.000000 0.000000 0.000000
    53 -1.867368 -0.451348 0.000000 0.000000 0.000000 0.000000
    54 -0.419301 -0.285552 -1.764821 0.000000 -1.570456 -0.311231
    55 -0.928988 -1.971793 2.338367 -0.218938 0.000000 0.000000
    56 -0.408531 -0.271875 1.486638 0.000000 -1.570796 -0.406774
    57 1.132204 -2.060888 2.470149 -0.350839 0.000000 0.000000
    58 0.678377 -1.218406 -0.110061 0.000000 -1.570454 0.000000
    59 -0.087093 -2.816312 -0.791619 0.318689 0.000000 0.000000
  time 3
    0 0.653333 2.780220 34.441629 -0.135295 -0.203879 -0.978893
    1 -1.015175 -0.402356 0.000000 0.000000 -1.562095 -1.570765
    2 -0.000010 0.000010 6.353376 -0.149920 -0.263405 -2.140226
    3 18.507668 -0.000001 0.000000 0.000000 0.000000 -1.299398
    4 13.411349 -0.000002 0.000000 3.376520 0.146995 0.533172
    5 8.701365 6.675648 -0.000001 0.000000 0.000000 1.614373
    6 2.657023 0.000000 0.000001 0.000000 0.000000 -0.043611
    7 2.657023 0.000000 -0.000001 0.000000 0.000000 -0.043611
    8 6.248514 -0.893519 -3.345192 3.141592 0.078501 -1.570796
    9 5.692027 -3.146075 2.191403 0.000000 0.000000 0.000000
    10 6.262097 -1.288316 1.407514 -1.570796 1.492295 1.570796
    11 -0.950702 5.642264 -3.162059 0.000000 0.000000 0.000000
    12 0.000009 -0.000007 -6.353376 0.078711 0.184701 -2.957453
    13 18.507664 -0.000004 0.000001 0.000000 0.000000 -0.825813
    14 13.411347 0.000003 0.000001 -2.455268 -0.289525 0.852079
    15 8.701365 6.675650 0.000002 0.000000 0.000000 1.527185
    16 2.639101 0.000000 0.000002 0.000000 0.000000 -0.043611
    17 2.639102 0.000000 0.000001 0.000000 0.000000 -0.043611
    18 6.262097 -1.271892 -1.655766 1.570795 1.492298 -1.570797
    19 0.660781 5.698953 -3.162059 0.000000 0.000000 0.000000
    20 6.280026 -0.875929 3.588311 1.570795 1.492298 -1.570797
    21 -1.268986 5.650651 -3.144119 0.000000 0.000000 0.000000
    22 3.416503 -0.970598 0.027351 0.148269 0.145776 0.784563
    23 6.150886 -0.004767 0.000000 -0.000060 -0.089298 0.305253
    24 6.181767 -0.006273 0.000000 0.016563 -0.154506 0.328926
    25 8.035379 -0.006654 0.000000 -0.045916 -0.063812 0.509362
    26 9.041867 -0.002304 0.000000 -0.000662 -0.297430 0.556697
    27 -3.745428 6.580929 4.837883 1.907868 -1.406298 0.692085
    28 8.356072 -0.000003 0.000003 -1.383172 0.369967 -0.683248
    29 22.314190 -0.000002 -0.000002 0.000000 0.000000 -1.981924
    30 13.466391 0.000001 0.000001 -0.601406 -0.123835 -0.277211
    31 6.645410 -0.843859 -1.119302 -0.045896 0.131847 -0.334571
    32 3.530611 0.000001 0.000000 0.000000 0.000000 -0.357609
    33 3.530614 0.000000 0.000001 0.000000 0.000000 0.828535
    34 6.690084 -0.762452 1.047436 0.062279 -0.172366 -0.354159
    35 3.608301 0.000000 0.000001 0.000000 0.000000 -0.357609
    36 3.608302 -0.000001 0.000001 0.000000 0.000000 0.828535
    37 -5.479999 6.487865 -1.557399 0.277637 0.972444 2.835476
    38 8.356073 -0.000004 0.000002 0.747989 0.443661 -1.213388
    39 22.314186 -0.000002 0.000000 0.000000 0.000000 -1.418883
    40 13.466395 0.000000 0.000000 1.012241 -0.226560 0.603991
    41 6.635592 -0.843574 1.110599 0.070153 -0.169348 -0.389763
    42 3.530612 -0.000001 0.000002 0.000000 0.000000 0.113355
    43 3.530613 0.000003 -0.000001 0.000000 0.000000 0.366404
    44 6.681005 -0.762752 -1.054662 0.013910 0.182656 0.071133
    45 3.608303 0.000001 0.000001 0.000000 0.000000 0.113371
    46 3.608304 -0.000001 0.000001 0.000000 0.000000 0.776220
    47 3.408091 -0.002198 0.000000 -0.001095 -0.332372 0.262496
    48 2.848662 0.000002 0.000000 -0.620770 -0.029064 -1.239331
    49 4.138185 10.107881 0.022334 -0.000003 0.000000 -3.102128
    50 0.764267 -7.382634 0.000000 0.000000 0.000000 -1.058259
    51 -2.725502 -4.495216 0.000000 0.000000 0.000000 0.000000
    52 -3.091749 -1.602248 0.000000 0.000000 0.000000 0.000000
    53 -1.976747 -0.537288 0.000000 0.000000 0.000000 0.000000
    54 -0.454459 -0.297271 -1.764821 0.000000 -1.570456 -0.393649
    55 -0.928988 -2.280396 2.631345 -0.265783 0.000000 0.000000
    56 -0.447595 -0.287501 1.486638 0.000000 -1.570796 -0.511674
    57 1.132204 -2.431993 2.759220 -0.414466 0.000000 0.000000
    58 0.615875 -1.151998 -0.110061 0.000000 -1.570454 0.000000
    59 -0.087093 -2.695214 -0.608020 0.399058 0.000000 0.000000
  time 4
    0 1.180693 2.495055 34.125213 -0.136583 -0.203009 -0.972552
    1 -1.011269 -0.125004 0.000000 0.000000 -1.562095 -1.570765
    2 -0.000010 0.000010 6.353376 -0.151802 -0.241123 -2.109574
    3 18.507668 -0.000001 0.000000 0.000000 0.000000 -1.333330
    4 13.411349 -0.000002 0.000000 3.390686 0.129123 0.534692
    5 8.701365 6.675648 -0.000001 0.000000 0.000000 1.614392
    6 2.657023 0.000000 0.000001 0.000000 0.000000 -0.043611
    7 2.657023 0.000000 -0.000001 0.000000 0.000000 -0.043611
    8 6.248514 -0.893519 -3.345192 3.141592 0.078501 -1.570796
    9 5.692027 -3.146075 2.191403 0.000000 0.000000 0.000000
    10 6.262097 -1.288316 1.407514 -1.570796 1.492295 1.570796
    11 -0.950702 5.642264 -3.162059 0.000000 0.000000 0.000000
    12 0.000009 -0.000007 -6.353376 0.096082 0.204023 -2.918551
    13 18.507664 -0.000004 0.000001 0.000000 0.000000 -0.876079
    14 13.411347 0.000003 0.000001 -2.459554 -0.313200 0.868509
    15 8.701365 6.675650 0.000002 0.000000 0.000000 1.527185
    16 2.639101 0.000000 0.000002 0.000000 0.000000 -0.043611
    17 2.639102 0.000000 0.000001 0.000000 0.000000 -0.043611
    18 6.262097 -1.271892 -1.655766 1.570795 1.492298 -1.570797
    19 0.660781 5.698953 -3.162059 0.000000 0.000000 0.000000
    20 6.280026 -0.875929 3.588311 1.570795 1.492298 -1.570797
    21 -1.268986 5.650651 -3.144119 0.000000 0.000000 0.000000
    22 3.416503 -0.970598 0.027351 0.149598 0.194626 0.792001
    23 6.150886 -0.004767 0.000000 -0.000072 -0.104111 0.305282
    24 6.181767 -0.006273 0.000000 0.016611 -0.179219 0.328487
    25 8.035379 -0.006654 0.000000 -0.045968 -0.078635 0.510041
    26 9.041867 -0.002304 0.000000 -0.000265 -0.347075 0.553362
    27 -3.522765 6.569210 5.017576 2.067018 -1.366119 0.538533
    28 8.356072 -0.000003 0.000003 -1.414463 0.356077 -0.651612
    29 22.314190 -0.000002 -0.000002 0.000000 0.000000 -1.956288
    30 13.466391 0.000001 0.000001 -0.601328 -0.123835 -0.277211
    31 6.645410 -0.843859 -1.119302 -0.045896 0.131847 -0.334571
    32 3.530611 0.000001 0.000000 0.000000 0.000000 -0.357585
    33 3.530614 0.000000 0.000001 0.000000 0.000000 0.828535
    34 6.690084 -0.762452 1.047436 0.062279 -0.172366 -0.354159
    35 3.608301 0.000000 0.000001 0.000000 0.000000 -0.357609
    36 3.608302 -0.000001 0.000001 0.000000 0.000000 0.828535
    37 -5.569846 6.472239 -1.280047 0.298346 0.917176 2.853979
    38 8.356073 -0.000004 0.000002 0.709558 0.440156 -1.212470
    39 22.314186 -0.000002 0.000000 0.000000 0.000000 -1.431914
    40 13.466395 0.000000 0.000000 1.012241 -0.226560 0.603991
    41 6.635592 -0.843574 1.110599 0.070153 -0.169348 -0.389763
    42 3.530612 -0.000001 0.000002 0.000000 0.000000 0.113355
    43 3.530613 0.000003 -0.000001 0.000000 0.000000 0.366404
    44 6.681005 -0.762752 -1.054662 0.013910 0.182656 0.071133
    45 3.608303 0.000001 0.000001 0.000000 0.000000 0.113371
    46 3.608304 -0.000001 0.000001 0.000000 0.000000 0.776220
    47 3.408091 -0.002198 0.000000 -0.000316 -0.381988 0.256831
    48 2.848662 0.000002 0.000000 -0.733122 -0.005589 -1.127594
    49 4.138185 10.107881 0.022334 -0.000003 0.000000 -3.021373
    50 0.760361 -7.382634 0.000000 0.000000 0.000000 -0.858001
    51 -2.272363 -4.503029 0.000000 0.000000 0.000000 0.000000
    52 -2.853461 -1.492870 0.000000 0.000000 0.000000 0.000000
    53 -1.863462 -0.451348 0.000000 0.000000 0.000000 0.000000
    54 -0.419301 -0.285552 -1.764821 0.000000 -1.570456 -0.311231
    55 -0.928988 -1.971793 2.334461 -0.218938 0.000000 0.000000
    56 -0.412437 -0.275781 1.486638 0.000000 -1.570796 -0.406774
    57 1.132204 -2.064795 2.466242 -0.350839 0.000000 0.000000
    58 0.678377 -1.214500 -0.110061 0.000000 -1.570454 0.000000
    59 -0.087093 -2.816312 -0.791619 0.318714 0.000000 0.000000
  time 5
    0 0.958030 1.795815 34.304906 -0.104726 -0.220910 -1.123341
    1 -0.995643 -1.007843 0.000000 0.000000 -1.562095 -1.570765
    2 -0.000010 0.000010 6.353376 -0.142211 -0.209279 -2.072158
    3 18.507668 -0.000001 0.000000 0.000000 0.000000 -1.222987
    4 13.411349 -0.000002 0.000000 3.256286 0.132369 0.402486
    5 8.701365 6.675648 -0.000001 0.000000 0.000000 1.614373
    6 2.657023 0.000000 0.000001 0.000000 0.000000 -0.043611
    7 2.657023 0.000000 -0.000001 0.000000 0.000000 -0.043611
    8 6.248514 -0.893519 -3.345192 3.141592 0.078501 -1.570796
    9 5.692027 -3.146075 2.191403 0.000000 0.000000 0.000000
    10 6.262097 -1.288316 1.407514 -1.570796 1.492295 1.570796
    11 -0.950702 5.642264 -3.162059 0.000000 0.000000 0.000000
    12 0.000009 -0.000007 -6.353376 0.068238 0.140100 -2.958550
    13 18.507664 -0.000004 0.000001 0.000000 0.000000 -0.896813
    14 13.411347 0.000003 0.000001 -2.585368 -0.216819 0.930275
    15 8.701365 6.675650 0.000002 0.000000 0.000000 1.527185
    16 2.639101 0.000000 0.000002 0.000000 0.000000 -0.043611
    17 2.639102 0.000000 0.000001 0.000000 0.000000 -0.043611
    18 6.262097 -1.271892 -1.655766 1.570795 1.492298 -1.570797
    19 0.660781 5.698953 -3.162059 0.000000 0.000000 0.000000
    20 6.280026 -0.875929 3.588311 1.570795 1.492298 -1.570797
    21 -1.268986 5.650651 -3.144119 0.000000 0.000000 0.000000
    22 3.416503 -0.970598 0.027351 0.146727 0.040305 0.768819
    23 6.150886 -0.004767 0.000000 -0.000024 -0.057311 0.305253
    24 6.181767 -0.006273 0.000000 0.016491 -0.101223 0.329819
    25 8.035379 -0.006654 0.000000 -0.045811 -0.031881 0.507917
    26 9.041867 -0.002304 0.000000 0.000976 -0.176573 0.538441
    27 -4.425136 6.502801 4.361306 1.082782 -1.467515 1.528586
    28 8.356072 -0.000003 0.000003 -1.280434 0.407410 -0.778330
    29 22.314190 -0.000002 -0.000002 0.000000 0.000000 -2.054041
    30 13.466391 0.000001 0.000001 -0.601328 -0.123835 -0.277211
    31 6.645410 -0.843859 -1.119302 -0.045896 0.131847 -0.334571
    32 3.530611 0.000001 0.000000 0.000000 0.000000 -0.357609
    33 3.530614 0.000000 0.000001 0.000000 0.000000 0.828535
    34 6.690084 -0.762452 1.047436 0.062279 -0.172366 -0.354159
    35 3.608301 0.000000 0.000001 0.000000 0.000000 -0.357609
    36 3.608302 -0.000001 0.000001 0.000000 0.000000 0.828535
    37 -5.370621 6.401925 -2.201950 0.187708 1.061236 2.773542
    38 8.356073 -0.000004 0.000002 0.821880 0.455839 -1.216875
    39 22.314186 -0.000002 0.000000 0.000000 0.000000 -1.382377
    40 13.466395 0.000000 0.000000 1.012241 -0.226560 0.603991
    41 6.635592 -0.843574 1.110599 0.070153 -0.169348 -0.389763
    42 3.530612 -0.000001 0.000002 0.000000 0.000000 0.113355
    43 3.530613 0.000003 -0.000001 0.000000 0.000000 0.366368
    44 6.681005 -0.762752 -1.054662 0.013910 0.182656 0.071133
    45 3.608303 0.000001 0.000001 0.000000 0.000000 0.113371
    46 3.608304 -0.000001 0.000001 0.000000 0.000000 0.776220
    47 3.408091 -0.002198 0.000000 0.001973 -0.211351 0.231815
    48 2.848662 0.000002 0.000000 -0.358023 0.154412 -1.059726
    49 4.138185 10.107881 0.022334 -0.000003 0.000000 -2.843720
    50 0.760361 -7.382634 0.000000 0.000000 0.000000 -0.432253
    51 -1.717659 -5.053827 0.000000 0.000000 0.000000 0.000000
    52 -2.443292 -1.715533 0.000000 0.000000 0.000000 0.000000
    53 -1.636892 -0.541194 0.000000 0.000000 0.000000 0.000000
    54 -0.352893 -0.324616 -1.764821 0.000000 -1.570456 -0.148072
    55 -0.928988 -1.948355 1.717254 -0.100755 0.000000 0.000000
    56 -0.349935 -0.310939 1.486638 0.000000 -1.570796 -0.191773
    57 1.132204 -1.916353 1.774815 -0.162158 0.000000 0.000000
    58 0.690096 -1.339503 -0.110061 0.000000 -1.570454 0.000000
    59 -0.087093 -3.109290 -0.900998 0.160737 0.000000 0.000000
  time 6
    0 0.473640 0.877818 34.761952 -0.053794 -0.238309 -1.346431
    1 -0.851108 -2.074282 0.000000 0.000000 -1.562095 -1.570765
    2 -0.000010 0.000010 6.353376 -0.094900 -0.150244 -2.059670
    3 18.507668 -0.000001 0.000000 0.000000 0.000000 -1.022276
    4 13.411349 -0.000002 0.000000 3.056157 0.111233 0.201347
    5 8.701365 6.675648 -0.000001 0.000000 0.000000 1.614392
    6 2.657023 0.000000 0.000001 0.000000 0.000000 -0.043611
    7 2.657023 0.000000 -0.000001 0.000000 0.000000 -0.043611
    8 6.248514 -0.893519 -3.345192 3.141592 0.078501 -1.570796
    9 5.692027 -3.146075 2.191403 0.000000 0.000000 0.000000
    10 6.262097 -1.288316 1.407514 -1.570796 1.492295 1.570796
    11 -0.950702 5.642264 -3.162059 0.000000 0.000000 0.000000
    12 0.000009 -0.000007 -6.353376 0.021339 0.045838 -3.020482
    13 18.507664 -0.000004 0.000001 0.000000 0.000000 -0.862982
    14 13.411347 0.000003 0.000001 -2.752056 -0.076836 0.958615
    15 8.701365 6.675650 0.000002 0.000000 0.000000 1.527185
    16 2.639101 0.000000 0.000002 0.000000 0.000000 -0.043611
    17 2.639102 0.000000 0.000001 0.000000 0.000000 -0.043611
    18 6.262097 -1.271892 -1.655766 1.570795 1.492298 -1.570797
    19 0.660781 5.698953 -3.162059 0.000000 0.000000 0.000000
    20 6.280026 -0.875929 3.588311 1.570795 1.492298 -1.570797
    21 -1.268986 5.650651 -3.144119 0.000000 0.000000 0.000000
    22 3.416503 -0.970598 0.027351 0.148103 -0.148703 0.740724
    23 6.150886 -0.004767 0.000000 0.000000 -0.000001 0.305253
    24 6.181767 -0.006273 0.000000 0.016479 -0.005682 0.331371
    25 8.035379 -0.006654 0.000000 -0.045759 0.025363 0.505288
    26 9.041867 -0.002304 0.000000 0.000000 -0.000002 0.527199
    27 -5.182972 6.440299 3.525343 -0.000012 -1.370798 2.613622
    28 8.356072 -0.000003 0.000003 -1.093471 0.501560 -0.963120
    29 22.314190 -0.000002 -0.000002 0.000000 0.000000 -2.190889
    30 13.466391 0.000001 0.000001 -0.601328 -0.123835 -0.277211
    31 6.645410 -0.843859 -1.119302 -0.045896 0.131847 -0.334600
    32 3.530611 0.000001 0.000000 0.000000 0.000000 -0.357609
    33 3.530614 0.000000 0.000001 0.000000 0.000000 0.828535
    34 6.690084 -0.762452 1.047436 0.062279 -0.172366 -0.354159
    35 3.608301 0.000000 0.000001 0.000000 0.000000 -0.357609
    36 3.608302 -0.000001 0.000001 0.000000 0.000000 0.828535
    37 -4.968265 6.351142 -3.100415 -0.000012 1.309458 2.613434
    38 8.356073 -0.000004 0.000002 1.098948 0.396427 -1.162998
    39 22.314186 -0.000002 0.000000 0.000000 0.000000 -1.313134
    40 13.466395 0.000000 0.000000 1.012241 -0.226560 0.603991
    41 6.635592 -0.843574 1.110599 0.070153 -0.169348 -0.389763
    42 3.530612 -0.000001 0.000002 0.000000 0.000000 0.113355
    43 3.530613 0.000003 -0.000001 0.000000 0.000000 0.366404
    44 6.681005 -0.762752 -1.054662 0.013910 0.182656 0.071133
    45 3.608303 0.000001 0.000001 0.000000 0.000000 0.113371
    46 3.608304 -0.000001 0.000001 0.000000 0.000000 0.776220
    47 3.408091 -0.002198 0.000000 -0.000028 -0.034890 0.213206
    48 2.848662 0.000002 0.000000 0.053233 0.219141 -0.848146
    49 4.138185 10.107881 0.022334 -0.000003 0.000000 -2.666027
    50 0.760361 -7.382634 0.000000 0.000000 0.000000 0.000000
    51 -2.209861 -5.858539 0.000000 0.000000 0.000000 0.000000
    52 -2.501887 -2.289769 0.000000 0.000000 0.000000 0.000000
    53 -1.605641 -0.865423 0.000000 0.000000 0.000000 0.000000
    54 -0.372425 -0.406650 -1.764821 0.000000 -1.570456 0.000000
    55 -0.928988 -2.561655 1.783663 0.000000 0.000000 0.000000
    56 -0.365561 -0.392972 1.486638 0.000000 -1.570452 0.000000
    57 1.132204 -2.560903 1.806066 0.000000 0.000000 0.000000
    58 0.494777 -1.366848 -0.110061 0.000000 -1.570454 0.000000
    59 -0.087093 -3.281170 -0.490829 0.000000 0.000000 0.000000
end
