// Created by Crowbar 0.44.0.0
version 1
nodes
  0 "Bip01" -1
  1 "Bip01 Pelvis" 0
  2 "Bip01 L Thigh" 1
  3 "Bip01 L Calf" 2
  4 "Bip01 L Foot" 3
  5 "Bip01 L Toe0" 4
  6 "Bip01 L Toe01" 5
  7 "Bip01 L Toe02" 6
  8 "Bone10" 4
  9 "Bone11" 8
  10 "Bone13" 4
  11 "Bone14" 10
  12 "Bip01 R Thigh" 1
  13 "Bip01 R Calf" 12
  14 "Bip01 R Foot" 13
  15 "Bip01 R Toe0" 14
  16 "Bip01 R Toe01" 15
  17 "Bip01 R Toe02" 16
  18 "Bone16" 14
  19 "Bone17" 18
  20 "Bone19" 14
  21 "Bone20" 20
  22 "Bip01 Spine" 1
  23 "Bip01 Spine1" 22
  24 "Bip01 Spine2" 23
  25 "Bip01 Spine3" 24
  26 "Bip01 Neck" 25
  27 "Bip01 L Clavicle" 26
  28 "Bip01 L UpperArm" 27
  29 "Bip01 L Forearm" 28
  30 "Bip01 L Hand" 29
  31 "Bip01 L Finger0" 30
  32 "Bip01 L Finger01" 31
  33 "Bip01 L Finger02" 32
  34 "Bip01 L Finger1" 30
  35 "Bip01 L Finger11" 34
  36 "Bip01 L Finger12" 35
  37 "Bip01 R Clavicle" 26
  38 "Bip01 R UpperArm" 37
  39 "Bip01 R Forearm" 38
  40 "Bip01 R Hand" 39
  41 "Bip01 R Finger0" 40
  42 "Bip01 R Finger01" 41
  43 "Bip01 R Finger02" 42
  44 "Bip01 R Finger1" 40
  45 "Bip01 R Finger11" 44
  46 "Bip01 R Finger12" 45
  47 "Bip01 Neck1" 26
  48 "Bip01 Head" 47
  49 "Bone05" 24
  50 "Bone06" 49
  51 "Bone07" 50
  52 "Bone08" 51
  53 "Bone09" 52
  54 "Bone22" 53
  55 "Bone23" 54
  56 "Bone26" 53
  57 "Bone27" 56
  58 "Bone30" 52
  59 "Bone31" 58
end
skeleton
  time 0
    0 -0.014656 -0.040179 35.359626 0.000000 -0.244215 -1.570836
    1 -0.851108 -2.074282 0.000000 0.000000 -1.562095 -1.570765
    2 -0.000010 0.000010 6.353376 -0.040809 -0.034223 -2.090038
    3 18.507668 -0.000001 0.000000 0.000000 0.000000 -0.798051
    4 13.411349 -0.000002 0.000000 2.895814 0.048816 0.011007
    5 8.701365 6.675648 -0.000001 0.000000 0.000000 1.614373
    6 2.657023 0.000000 0.000001 0.000000 0.000000 -0.043611
    7 2.657023 0.000000 -0.000001 0.000000 0.000000 -0.043611
    8 6.248514 -0.893519 -3.345192 3.141592 0.078501 -1.570796
    9 5.692027 -3.146075 2.191403 0.000000 0.000000 0.000000
    10 6.262097 -1.288316 1.407514 -1.570796 1.492295 1.570796
    11 -0.950702 5.642264 -3.162059 0.000000 0.000000 0.000000
    12 0.000009 -0.000007 -6.353376 -0.001591 -0.018715 -3.083915
    13 18.507664 -0.000004 0.000001 0.000000 0.000000 -0.773423
    14 13.411347 0.000003 0.000001 -2.934630 0.031907 0.934839
    15 8.701365 6.675650 0.000002 0.000000 0.000000 1.527185
    16 2.639101 0.000000 0.000002 0.000000 0.000000 -0.043611
    17 2.639102 0.000000 0.000001 0.000000 0.000000 -0.043611
    18 6.262097 -1.271892 -1.655766 1.570795 1.492298 -1.570797
    19 0.660781 5.698953 -3.162059 0.000000 0.000000 0.000000
    20 6.280026 -0.875929 3.588311 1.570795 1.492298 -1.570797
    21 -1.268986 5.650651 -3.144119 0.000000 0.000000 0.000000
    22 3.416503 -0.970598 0.027351 0.148103 -0.148703 0.740724
    23 6.150886 -0.004767 0.000000 0.000000 -0.000001 0.305253
    24 6.181767 -0.006273 0.000000 0.016479 -0.005682 0.331371
    25 8.035379 -0.006654 0.000000 -0.045759 0.025363 0.505288
    26 9.041867 -0.002304 0.000000 0.000000 -0.000002 0.527199
    27 -5.186878 6.440299 3.525343 -0.000012 -1.370798 2.613622
    28 8.356072 -0.000003 0.000003 -1.093471 0.501560 -0.963120
    29 22.314190 -0.000002 -0.000002 0.000000 0.000000 -2.190889
    30 13.466391 0.000001 0.000001 -0.601328 -0.123835 -0.277211
    31 6.645410 -0.843859 -1.119302 -0.045896 0.131847 -0.334571
    32 3.530611 0.000001 0.000000 0.000000 0.000000 -0.357609
    33 3.530614 0.000000 0.000001 0.000000 0.000000 0.828535
    34 6.690084 -0.762452 1.047436 0.062279 -0.172366 -0.354159
    35 3.608301 0.000000 0.000001 0.000000 0.000000 -0.357609
    36 3.608302 -0.000001 0.000001 0.000000 0.000000 0.828535
    37 -4.972171 6.351142 -3.100415 -0.000012 1.309458 2.613434
    38 8.356073 -0.000004 0.000002 1.098948 0.396427 -1.162998
    39 22.314186 -0.000002 0.000000 0.000000 0.000000 -1.313134
    40 13.466395 0.000000 0.000000 1.012241 -0.226560 0.603991
    41 6.635592 -0.843574 1.110599 0.070153 -0.169348 -0.389763
    42 3.530612 -0.000001 0.000002 0.000000 0.000000 0.113355
    43 3.530613 0.000003 -0.000001 0.000000 0.000000 0.366404
    44 6.681005 -0.762752 -1.054662 0.013910 0.182656 0.071133
    45 3.608303 0.000001 0.000001 0.000000 0.000000 0.113371
    46 3.608304 -0.000001 0.000001 0.000000 0.000000 0.776220
    47 3.408091 -0.002198 0.000000 -0.000028 -0.034890 0.213179
    48 2.848662 0.000002 0.000000 0.053233 0.219141 -0.848146
    49 4.138185 10.107881 0.022334 -0.000003 0.000000 -2.666027
    50 0.760361 -7.382634 0.000000 0.000000 0.000000 0.000000
    51 -2.209861 -5.858539 0.000000 0.000000 0.000000 0.000000
    52 -2.505794 -2.289769 0.000000 0.000000 0.000000 0.000000
    53 -1.609548 -0.865423 0.000000 0.000000 0.000000 0.000000
    54 -0.372425 -0.406650 -1.764821 0.000000 -1.570456 0.000000
    55 -0.928988 -2.565561 1.783663 0.000000 0.000000 0.000000
    56 -0.365561 -0.396879 1.486638 0.000000 -1.570452 0.000000
    57 1.132204 -2.560903 1.809972 0.000000 0.000000 0.000000
    58 0.494777 -1.362942 -0.110061 0.000000 -1.570454 0.000000
    59 -0.087093 -3.281170 -0.490829 0.000000 0.000000 0.000000
  time 1
    0 -0.014656 2.284111 32.953303 0.198436 -0.187900 -1.923527
    1 -0.894078 1.054720 0.000000 0.000000 -1.352760 -1.570765
    2 -0.000010 0.000010 6.353376 0.287656 0.453979 -2.072962
    3 18.507668 -0.000001 0.000000 0.000000 0.000000 -0.789049
    4 13.411349 -0.000002 0.000000 2.753167 -0.116144 0.034754
    5 8.701365 6.675648 -0.000001 0.000000 0.000000 1.614373
    6 2.657023 0.000000 0.000001 0.000000 0.000000 -0.043611
    7 2.657023 0.000000 -0.000001 0.000000 0.000000 -0.043611
    8 6.248514 -0.893519 -3.345192 3.141592 0.078501 -1.570796
    9 5.692027 -3.146075 2.191403 0.000000 0.000000 0.000000
    10 6.262097 -1.288316 1.407514 -1.570796 1.492295 1.570796
    11 -0.950702 5.642264 -3.162059 0.000000 0.000000 0.000000
    12 0.000009 -0.000007 -6.353376 -0.187917 0.356712 -3.248992
    13 18.507664 -0.000004 0.000001 0.000000 0.000000 -1.011353
    14 13.411347 0.000003 0.000001 -3.139091 0.013699 1.279398
    15 8.701365 6.675650 0.000002 0.000000 0.000000 1.527185
    16 2.639101 0.000000 0.000002 0.000000 0.000000 -0.043611
    17 2.639102 0.000000 0.000001 0.000000 0.000000 -0.043611
    18 6.262097 -1.271892 -1.655766 1.570795 1.492298 -1.570797
    19 0.660781 5.698953 -3.162059 0.000000 0.000000 0.000000
    20 6.280026 -0.875929 3.588311 1.570795 1.492298 -1.570797
    21 -1.268986 5.650651 -3.144119 0.000000 0.000000 0.000000
    22 3.342282 -0.970598 0.734403 -0.123156 -0.061214 0.750958
    23 6.150886 -0.004767 0.000000 -0.149795 0.047110 0.301733
    24 6.181767 -0.006273 0.000000 -0.132562 -0.092942 0.346817
    25 8.035379 -0.006654 0.000000 0.013388 -0.150753 0.695816
    26 9.041867 -0.002304 0.000000 -0.000083 -0.139531 0.553333
    27 -4.483732 6.569210 4.185519 0.735624 -1.461637 1.859174
    28 8.356072 -0.000003 0.000003 -1.429674 0.432956 -1.003683
    29 22.314190 -0.000002 -0.000002 0.000000 0.000000 -2.158144
    30 13.466391 0.000001 0.000001 -0.582310 -0.201882 -0.394361
    31 6.645410 -0.843859 -1.119302 -0.063839 0.124185 -0.475060
    32 3.530611 0.000001 0.000000 0.000000 0.000000 -0.497159
    33 3.530614 0.000000 0.000001 0.000000 0.000000 0.688986
    34 6.690084 -0.762452 1.047436 0.085800 -0.162025 -0.495257
    35 3.608301 0.000000 0.000001 0.000000 0.000000 -0.497159
    36 3.608302 -0.000001 0.000001 0.000000 0.000000 0.689025
    37 -5.187021 6.472239 -2.401175 0.194803 1.183891 2.772679
    38 8.356073 -0.000004 0.000002 1.369115 0.892265 -0.952994
    39 22.314186 -0.000002 0.000000 0.000000 0.000000 -1.971055
    40 13.466395 0.000000 0.000000 1.451414 -0.244491 0.172856
    41 6.635592 -0.843574 1.110599 0.101320 -0.152853 -0.583479
    42 3.530612 -0.000001 0.000002 0.000000 0.000000 -0.078466
    43 3.530613 0.000003 -0.000001 0.000000 0.000000 0.174514
    44 6.681005 -0.762752 -1.054662 -0.021550 0.181924 -0.123921
    45 3.608303 0.000001 0.000001 0.000000 0.000000 -0.078498
    46 3.608304 -0.000001 0.000001 0.000000 0.000000 0.584390
    47 3.408091 -0.002198 0.000000 -0.000076 -0.104652 0.256778
    48 2.848662 0.000002 0.000000 -0.129714 -0.170303 -1.146960
    49 4.138185 10.107881 0.022334 -0.000003 0.000000 -2.767219
    50 0.760361 -7.382634 0.000000 0.000000 0.000000 -0.248867
    51 -1.787973 -5.405400 0.000000 0.000000 0.000000 0.000000
    52 -2.400322 -1.946009 0.000000 0.000000 0.000000 0.000000
    53 -1.586110 -0.662292 0.000000 0.000000 0.000000 0.000000
    54 -0.348987 -0.363679 -1.764821 0.000000 -1.570796 -0.086329
    55 -0.928988 -2.186643 1.619595 -0.058241 0.000000 0.000000
    56 -0.346029 -0.350002 1.486638 0.000000 -1.570796 -0.111589
    57 1.132204 -2.150735 1.645905 -0.092690 0.000000 0.000000
    58 0.631500 -1.362942 -0.110061 0.000000 -1.570454 0.000000
    59 -0.087093 -3.206949 -0.787713 0.093673 0.000000 0.000000
  time 2
    0 -1.932683 2.135669 30.933710 0.203921 -0.182680 -1.954922
    1 -0.737823 1.945372 0.000000 0.000000 -1.553179 -1.570765
    2 -0.000010 0.000010 6.353376 0.153588 0.337467 -1.933185
    3 18.507668 -0.000001 0.000000 0.000000 0.000000 -1.084224
    4 13.411349 -0.000002 0.000000 2.745302 -0.102564 0.123240
    5 8.701365 6.675648 -0.000001 0.000000 0.000000 1.614373
    6 2.657023 0.000000 0.000001 0.000000 0.000000 -0.043611
    7 2.657023 0.000000 -0.000001 0.000000 0.000000 -0.043611
    8 6.248514 -0.893519 -3.345192 3.141592 0.078501 -1.570796
    9 5.692027 -3.146075 2.191403 0.000000 0.000000 0.000000
    10 6.262097 -1.288316 1.407514 -1.570796 1.492295 1.570796
    11 -0.950702 5.642264 -3.162059 0.000000 0.000000 0.000000
    12 0.000009 -0.000007 -6.353376 -0.183741 0.103175 -3.205702
    13 18.507664 -0.000004 0.000001 0.000000 0.000000 -1.099597
    14 13.411347 0.000003 0.000001 -3.133090 0.071473 1.337513
    15 8.701365 6.675650 0.000002 0.000000 0.000000 1.527185
    16 2.639101 0.000000 0.000002 0.000000 0.000000 -0.043611
    17 2.639102 0.000000 0.000001 0.000000 0.000000 -0.043611
    18 6.262097 -1.271892 -1.655766 1.570795 1.492298 -1.570797
    19 0.660781 5.698953 -3.162059 0.000000 0.000000 0.000000
    20 6.280026 -0.875929 3.588311 1.570795 1.492298 -1.570797
    21 -1.268986 5.650651 -3.144119 0.000000 0.000000 0.000000
    22 3.416503 -0.970598 0.054695 -0.017490 0.136154 0.758748
    23 6.150886 -0.004767 0.000000 -0.196356 0.059179 0.297677
    24 6.181767 -0.006273 0.000000 -0.177899 -0.082659 0.381544
    25 8.035379 -0.006654 0.000000 0.016729 -0.165439 0.761092
    26 9.041867 -0.002304 0.000000 0.002200 0.121967 0.573602
    27 -5.272818 6.674682 2.892511 -0.212084 -1.260546 2.772783
    28 8.356072 -0.000003 0.000003 -1.543364 0.272073 -1.276188
    29 22.314190 -0.000002 -0.000002 0.000000 0.000000 -1.933167
    30 13.466391 0.000001 0.000001 -0.818840 0.067435 -0.296462
    31 6.645410 -0.843859 -1.119302 -0.047292 0.131371 -0.345320
    32 3.530611 0.000001 0.000000 0.000000 0.000000 -0.523853
    33 3.530614 0.000000 0.000001 0.000000 0.000000 0.662310
    34 6.690084 -0.762452 1.047436 0.072184 -0.168495 -0.412463
    35 3.608301 0.000000 0.000001 0.000000 0.000000 -0.526324
    36 3.608302 -0.000001 0.000001 0.000000 0.000000 0.659867
    37 -4.269025 6.558180 -3.655119 -0.389354 1.400669 2.186318
    38 8.356073 -0.000004 0.000002 0.963145 0.875598 -1.231194
    39 22.314186 -0.000002 0.000000 0.000000 0.000000 -1.991124
    40 13.466395 0.000000 0.000000 1.522970 -0.422608 0.033562
    41 6.635592 -0.843574 1.110599 0.049827 -0.219808 -0.386639
    42 3.530612 -0.000001 0.000002 0.000000 0.000000 -0.109058
    43 3.530613 0.000003 -0.000001 0.000000 0.000000 0.143898
    44 6.681005 -0.762752 -1.054662 -0.024964 0.181481 -0.142940
    45 3.608303 0.000001 0.000001 0.000000 0.000000 -0.097169
    46 3.608304 -0.000001 0.000001 0.000000 0.000000 0.565756
    47 3.408091 -0.002198 0.000000 0.001278 0.031505 0.277982
    48 2.848662 0.000002 0.000000 -0.152755 -0.052569 -0.864205
    49 4.138185 10.107881 0.022334 -0.000003 0.000000 -2.882368
    50 0.760361 -7.382634 0.000000 0.000000 0.000000 -0.524043
    51 -1.760629 -4.889759 0.000000 0.000000 0.000000 0.000000
    52 -2.505794 -1.621780 0.000000 0.000000 0.000000 0.000000
    53 -1.675956 -0.494318 0.000000 0.000000 0.000000 0.000000
    54 -0.364612 -0.308990 -1.764821 0.000000 -1.570796 -0.180108
    55 -0.928988 -1.874134 1.814914 -0.124087 0.000000 0.000000
    56 -0.353842 -0.295313 1.486638 0.000000 -1.570796 -0.233863
    57 1.132204 -1.849944 1.899819 -0.201435 0.000000 0.000000
    58 0.705721 -1.323878 -0.110061 0.000000 -1.570454 0.000000
    59 -0.087093 -3.046788 -0.920530 0.194072 0.000000 0.000000
  time 3
    0 -2.870212 1.534088 29.800863 0.184606 -0.189411 -1.944947
    1 -0.690946 1.960997 0.000000 0.000000 -1.396240 -1.570765
    2 -0.000010 0.000010 6.353376 0.290518 0.332494 -1.860481
    3 18.507668 -0.000001 0.000000 0.000000 0.000000 -1.097271
    4 13.411349 -0.000002 0.000000 2.725486 -0.072158 0.109558
    5 8.701365 6.675648 -0.000001 0.000000 0.000000 1.614392
    6 2.657023 0.000000 0.000001 0.000000 0.000000 -0.043611
    7 2.657023 0.000000 -0.000001 0.000000 0.000000 -0.043611
    8 6.248514 -0.893519 -3.345192 3.141592 0.078501 -1.570796
    9 5.692027 -3.146075 2.191403 0.000000 0.000000 0.000000
    10 6.262097 -1.288316 1.407514 -1.570796 1.492295 1.570796
    11 -0.950702 5.642264 -3.162059 0.000000 0.000000 0.000000
    12 0.000009 -0.000007 -6.353376 -0.153660 0.218285 -3.119182
    13 18.507664 -0.000004 0.000001 0.000000 0.000000 -1.342837
    14 13.411347 0.000003 0.000001 -3.133948 0.110279 1.505641
    15 8.701365 6.675650 0.000002 0.000000 0.000000 1.527185
    16 2.639101 0.000000 0.000002 0.000000 0.000000 -0.043611
    17 2.639102 0.000000 0.000001 0.000000 0.000000 -0.043611
    18 6.262097 -1.271892 -1.655766 1.570795 1.492298 -1.570797
    19 0.660781 5.698953 -3.162059 0.000000 0.000000 0.000000
    20 6.280026 -0.875929 3.588311 1.570795 1.492298 -1.570797
    21 -1.268986 5.650651 -3.144119 0.000000 0.000000 0.000000
    22 3.369627 -0.970598 0.589868 -0.131341 0.005517 0.740941
    23 6.150886 -0.004767 0.000000 -0.199843 0.062642 0.298966
    24 6.181767 -0.006273 0.000000 -0.176881 -0.062680 0.419113
    25 8.035379 -0.006654 0.000000 0.012982 -0.151214 0.730732
    26 9.041867 -0.002304 0.000000 0.000265 0.331413 0.553362
    27 -5.890025 6.569210 1.701069 -0.356373 -1.058719 2.926050
    28 8.356072 -0.000003 0.000003 -1.486693 0.151351 -1.495127
    29 22.314190 -0.000002 -0.000002 0.000000 0.000000 -1.675725
    30 13.466391 0.000001 0.000001 -1.078658 0.421099 -0.243642
    31 6.645410 -0.843859 -1.119302 -0.022574 0.137753 -0.161575
    32 3.530611 0.000001 0.000000 0.000000 0.000000 -0.524410
    33 3.530614 0.000000 0.000001 0.000000 0.000000 0.661767
    34 6.690084 -0.762452 1.047436 0.049994 -0.176291 -0.283305
    35 3.608301 0.000000 0.000001 0.000000 0.000000 -0.529352
    36 3.608302 -0.000001 0.000001 0.000000 0.000000 0.656804
    37 -3.542440 6.472239 -4.494989 -1.705215 1.397314 0.905069
    38 8.356073 -0.000004 0.000002 0.597235 0.574786 -1.392643
    39 22.314186 -0.000002 0.000000 0.000000 0.000000 -1.891641
    40 13.466395 0.000000 0.000000 1.545688 -0.643069 -0.061970
    41 6.635592 -0.843574 1.110599 -0.036789 -0.282731 -0.106524
    42 3.530612 -0.000001 0.000002 0.000000 0.000000 -0.103728
    43 3.530613 0.000003 -0.000001 0.000000 0.000000 0.149216
    44 6.681005 -0.762752 -1.054662 -0.021823 0.181890 -0.125376
    45 3.608303 0.000001 0.000001 0.000000 0.000000 -0.079892
    46 3.608304 -0.000001 0.000001 0.000000 0.000000 0.583030
    47 3.408091 -0.002198 0.000000 0.000104 0.139546 0.256778
    48 2.848662 0.000002 0.000000 -0.176047 0.045717 -0.488110
    49 4.138185 10.107881 0.022334 -0.000003 0.000000 -2.990518
    50 0.760361 -7.382634 0.000000 0.000000 0.000000 -0.782837
    51 -2.120015 -4.553811 0.000000 0.000000 0.000000 0.000000
    52 -2.763614 -1.488964 0.000000 0.000000 0.000000 0.000000
    53 -1.820492 -0.439628 0.000000 0.000000 0.000000 0.000000
    54 -0.403676 -0.285552 -1.764821 0.000000 -1.570796 -0.279940
    55 -0.928988 -1.897572 2.217270 -0.197874 0.000000 0.000000
    56 -0.400718 -0.275781 1.486638 0.000000 -1.570796 -0.365893
    57 1.132204 -1.951510 2.341238 -0.320478 0.000000 0.000000
    58 0.694002 -1.241844 -0.110061 0.000000 -1.570454 0.000000
    59 -0.087093 -2.871001 -0.842402 0.289765 0.000000 0.000000
  time 4
    0 0.723648 1.112200 30.527447 0.154180 -0.201086 -1.910381
    1 -0.589381 -0.285165 0.000000 3.141481 -1.502520 -4.712251
    2 -0.000010 0.000010 6.353376 0.076757 0.277109 -1.852818
    3 18.507668 -0.000001 0.000000 0.000000 0.000000 -1.226628
    4 13.411349 -0.000002 0.000000 2.772907 -0.123971 0.168322
    5 8.701365 6.675648 -0.000001 0.000000 0.000000 1.614392
    6 2.657023 0.000000 0.000001 0.000000 0.000000 -0.043611
    7 2.657023 0.000000 -0.000001 0.000000 0.000000 -0.043611
    8 6.248514 -0.893519 -3.345192 3.141592 0.078501 -1.570796
    9 5.692027 -3.146075 2.191403 0.000000 0.000000 0.000000
    10 6.262097 -1.288316 1.407514 -1.570796 1.492295 1.570796
    11 -0.950702 5.642264 -3.162059 0.000000 0.000000 0.000000
    12 0.000009 -0.000007 -6.353376 -0.098664 -0.016342 -3.167204
    13 18.507664 -0.000004 0.000001 0.000000 0.000000 -1.134389
    14 13.411347 0.000003 0.000001 -3.165191 0.076830 1.344815
    15 8.701365 6.675650 0.000002 0.000000 0.000000 1.527185
    16 2.639101 0.000000 0.000002 0.000000 0.000000 -0.043611
    17 2.639102 0.000000 0.000001 0.000000 0.000000 -0.043611
    18 6.262097 -1.271892 -1.655766 1.570795 1.492298 -1.570797
    19 0.660781 5.698953 -3.162059 0.000000 0.000000 0.000000
    20 6.280026 -0.875929 3.588311 1.570795 1.492298 -1.570797
    21 -1.268986 5.650651 -3.144119 0.000000 0.000000 0.000000
    22 3.412597 -0.970598 -0.230470 0.048819 0.031271 0.640044
    23 6.150886 -0.004767 0.000000 -0.092042 0.056590 0.323650
    24 6.181767 -0.006273 0.000000 -0.056268 -0.096561 0.459814
    25 8.035379 -0.006654 0.000000 0.006851 -0.155051 0.345887
    26 9.041867 -0.002304 0.000000 -0.018293 0.118609 0.394720
    27 -6.362695 5.647306 2.900324 -0.207003 -1.262131 2.945826
    28 8.356072 -0.000003 0.000003 -1.133367 0.504942 -1.433675
    29 22.314190 -0.000002 -0.000002 0.000000 0.000000 -1.475266
    30 13.466391 0.000001 0.000001 -1.322485 0.712039 -0.280941
    31 6.645410 -0.843859 -1.119302 0.009431 0.139252 0.069847
    32 3.530611 0.000001 0.000000 0.000000 0.000000 -0.445200
    33 3.530614 0.000000 0.000001 0.000000 0.000000 0.740944
    34 6.690084 -0.762452 1.047436 0.015202 -0.182548 -0.088887
    35 3.608301 0.000000 0.000001 0.000000 0.000000 -0.445200
    36 3.608302 -0.000001 0.000001 0.000000 0.000000 0.740944
    37 -5.358902 5.706591 -3.655119 -0.376890 1.400175 2.376435
    38 8.356073 -0.000004 0.000002 0.585160 -0.165589 -1.308752
    39 22.314186 -0.000002 0.000000 0.000000 0.000000 -1.792567
    40 13.466395 0.000000 0.000000 1.532737 -0.759556 -0.132463
    41 6.635592 -0.843574 1.110599 -0.132788 -0.302050 0.189092
    42 3.530612 -0.000001 0.000002 0.000000 0.000000 -0.007139
    43 3.530613 0.000003 -0.000001 0.000000 0.000000 0.245880
    44 6.681005 -0.762752 -1.054662 -0.008387 0.182997 -0.051384
    45 3.608303 0.000001 0.000001 0.000000 0.000000 -0.007115
    46 3.608304 -0.000001 0.000001 0.000000 0.000000 0.655755
    47 3.408091 -0.002198 0.000000 -0.010107 0.026327 0.100966
    48 2.848662 0.000002 0.000000 -0.085738 0.089296 0.025410
    49 4.138185 10.107881 0.022334 -0.000003 0.000000 -3.070716
    50 0.760361 -7.382634 0.000000 0.000000 0.000000 -0.979720
    51 -2.541903 -4.479590 0.000000 0.000000 0.000000 0.000000
    52 -2.997996 -1.539746 0.000000 0.000000 0.000000 0.000000
    53 -1.933776 -0.494318 0.000000 0.000000 0.000000 0.000000
    54 -0.442739 -0.289458 -1.764821 0.000000 -1.570796 -0.362078
    55 -0.928988 -2.143673 2.521966 -0.249282 0.000000 0.000000
    56 -0.435876 -0.279688 1.486638 0.000000 -1.570796 -0.472000
    57 1.132204 -2.283551 2.661561 -0.391865 0.000000 0.000000
    58 0.643219 -1.179342 -0.110061 0.000000 -1.570454 0.000000
    59 -0.087093 -2.738184 -0.686147 0.366979 0.000000 0.000000
  time 5
    0 4.008904 0.772346 31.550916 0.126520 -0.211525 -1.869011
    1 -0.151868 -1.859432 0.000000 0.000000 -1.512371 -1.570765
    2 -0.000010 0.000010 6.353376 0.177102 0.338342 -1.912561
    3 18.507668 -0.000001 0.000000 0.000000 0.000000 -1.064957
    4 13.411349 -0.000002 0.000000 2.814487 -0.161644 0.104893
    5 8.701365 6.675648 -0.000001 0.000000 0.000000 1.614373
    6 2.657023 0.000000 0.000001 0.000000 0.000000 -0.043611
    7 2.657023 0.000000 -0.000001 0.000000 0.000000 -0.043611
    8 6.248514 -0.893519 -3.345192 3.141592 0.078501 -1.570796
    9 5.692027 -3.146075 2.191403 0.000000 0.000000 0.000000
    10 6.262097 -1.288316 1.407514 -1.570796 1.492295 1.570796
    11 -0.950702 5.642264 -3.162059 0.000000 0.000000 0.000000
    12 0.000009 -0.000007 -6.353376 -0.045675 0.158865 -3.147060
    13 18.507664 -0.000004 0.000001 0.000000 0.000000 -1.138991
    14 13.411347 0.000003 0.000001 -3.190234 0.014658 1.330993
    15 8.701365 6.675650 0.000002 0.000000 0.000000 1.527185
    16 2.639101 0.000000 0.000002 0.000000 0.000000 -0.043611
    17 2.639102 0.000000 0.000001 0.000000 0.000000 -0.043611
    18 6.262097 -1.271892 -1.655766 1.570795 1.492298 -1.570797
    19 0.660781 5.698953 -3.162059 0.000000 0.000000 0.000000
    20 6.280026 -0.875929 3.588311 1.570795 1.492298 -1.570797
    21 -1.268986 5.650651 -3.144119 0.000000 0.000000 0.000000
    22 3.416503 -0.970598 0.195324 0.014206 -0.189630 0.575955
    23 6.150886 -0.004767 0.000000 -0.134707 -0.021489 0.346306
    24 6.181767 -0.006273 0.000000 -0.112104 -0.069979 0.481204
    25 8.035379 -0.006654 0.000000 -0.005777 -0.142992 0.345930
    26 9.041867 -0.002304 0.000000 -0.000083 -0.139531 0.274287
    27 -6.073624 4.936347 4.412089 0.521731 -1.495127 2.348543
    28 8.356072 -0.000003 0.000003 -1.112333 0.453549 -1.095385
    29 22.314190 -0.000002 -0.000002 0.000000 0.000000 -1.589711
    30 13.466391 0.000001 0.000001 -1.267292 0.634878 -0.271355
    31 6.645410 -0.843859 -1.119302 0.070921 0.120290 0.536188
    32 3.530611 0.000001 0.000000 0.000000 0.000000 0.050383
    33 3.530614 0.000000 0.000001 0.000000 0.000000 1.236555
    34 6.690084 -0.762452 1.047436 -0.077795 -0.166003 0.435526
    35 3.608301 0.000000 0.000001 0.000000 0.000000 0.094905
    36 3.608302 -0.000001 0.000001 0.000000 0.000000 1.281146
    37 -6.769101 4.901879 -2.186325 0.097299 1.173383 2.958961
    38 8.356073 -0.000004 0.000002 0.665760 -0.214853 -1.456984
    39 22.314186 -0.000002 0.000000 0.000000 0.000000 -1.735402
    40 13.466395 0.000000 0.000000 1.408365 -0.605498 -0.141655
    41 6.635592 -0.843574 1.110599 -0.215780 -0.244346 0.537971
    42 3.530612 -0.000001 0.000002 0.000000 0.000000 0.361804
    43 3.530613 0.000003 -0.000001 0.000000 0.000000 0.614819
    44 6.681005 -0.762752 -1.054662 0.038204 0.179200 0.205987
    45 3.608303 0.000001 0.000001 0.000000 0.000000 0.246072
    46 3.608304 -0.000001 0.000001 0.000000 0.000000 0.908931
    47 3.408091 -0.002198 0.000000 -0.000076 -0.104652 -0.022313
    48 2.848662 0.000002 0.000000 0.286450 0.076381 -0.207440
    49 4.138185 10.107881 0.022334 -0.000003 0.000000 -3.102128
    50 0.760361 -7.382634 0.000000 0.000000 0.000000 -1.058259
    51 -2.725502 -4.499122 0.000000 0.000000 0.000000 0.000000
    52 -3.087843 -1.602248 0.000000 0.000000 0.000000 0.000000
    53 -1.980653 -0.537288 0.000000 0.000000 0.000000 0.000000
    54 -0.454459 -0.297271 -1.764821 0.000000 -1.570456 -0.393649
    55 -0.928988 -2.284302 2.635251 -0.265783 0.000000 0.000000
    56 -0.447595 -0.287501 1.486638 0.000000 -1.570796 -0.511674
    57 1.132204 -2.431993 2.759220 -0.414466 0.000000 0.000000
    58 0.615875 -1.155904 -0.110061 0.000000 -1.570454 0.000000
    59 -0.087093 -2.695214 -0.604114 0.399058 0.000000 0.000000
  time 6
    0 3.981560 0.569215 32.293126 0.103916 -0.219812 -1.822769
    1 -0.229995 -2.074282 0.000000 3.141481 -1.556690 -4.712347
    2 -0.000010 0.000010 6.353376 0.080419 0.273075 -1.938861
    3 18.507668 -0.000001 0.000000 0.000000 0.000000 -1.048117
    4 13.411349 -0.000002 0.000000 2.835563 -0.143195 0.093465
    5 8.701365 6.675648 -0.000001 0.000000 0.000000 1.614373
    6 2.657023 0.000000 0.000001 0.000000 0.000000 -0.043611
    7 2.657023 0.000000 -0.000001 0.000000 0.000000 -0.043611
    8 6.248514 -0.893519 -3.345192 3.141592 0.078501 -1.570796
    9 5.692027 -3.146075 2.191403 0.000000 0.000000 0.000000
    10 6.262097 -1.288316 1.407514 -1.570796 1.492295 1.570796
    11 -0.950702 5.642264 -3.162059 0.000000 0.000000 0.000000
    12 0.000009 -0.000007 -6.353376 -0.025698 0.075233 -3.138864
    13 18.507664 -0.000004 0.000001 0.000000 0.000000 -1.036638
    14 13.411347 0.000003 0.000001 -3.164626 0.008142 1.228151
    15 8.701365 6.675650 0.000002 0.000000 0.000000 1.527185
    16 2.639101 0.000000 0.000002 0.000000 0.000000 -0.043611
    17 2.639102 0.000000 0.000001 0.000000 0.000000 -0.043611
    18 6.262097 -1.271892 -1.655766 1.570795 1.492298 -1.570797
    19 0.660781 5.698953 -3.162059 0.000000 0.000000 0.000000
    20 6.280026 -0.875929 3.588311 1.570795 1.492298 -1.570797
    21 -1.268986 5.650651 -3.144119 0.000000 0.000000 0.000000
    22 3.416503 -0.970598 -0.042964 0.079423 -0.139787 0.592188
    23 6.150886 -0.004767 0.000000 -0.115280 -0.026403 0.341323
    24 6.181767 -0.006273 0.000000 -0.094726 -0.057323 0.456139
    25 8.035379 -0.006654 0.000000 -0.016375 -0.111419 0.375020
    26 9.041867 -0.002304 0.000000 0.002845 -0.161380 0.290071
    27 -5.897837 5.057445 4.517561 0.815103 -1.503634 2.040203
    28 8.356072 -0.000003 0.000003 -1.121633 0.447027 -0.917789
    29 22.314190 -0.000002 -0.000002 0.000000 0.000000 -1.820638
    30 13.466391 0.000001 0.000001 -1.115453 0.427739 -0.259684
    31 6.645410 -0.843859 -1.119302 0.038201 0.134279 0.279743
    32 3.530611 0.000001 0.000000 0.000000 0.000000 -0.106632
    33 3.530614 0.000000 0.000001 0.000000 0.000000 1.079559
    34 6.690084 -0.762452 1.047436 -0.049200 -0.176521 0.268073
    35 3.608301 0.000000 0.000001 0.000000 0.000000 -0.000632
    36 3.608302 -0.000001 0.000001 0.000000 0.000000 1.185606
    37 -6.741756 4.999538 -2.061321 0.120501 1.152863 2.964425
    38 8.356073 -0.000004 0.000002 0.842197 -0.073580 -1.303979
    39 22.314186 -0.000002 0.000000 0.000000 0.000000 -1.676330
    40 13.466395 0.000000 0.000000 1.238122 -0.326890 -0.137933
    41 6.635592 -0.843574 1.110599 -0.235312 -0.174490 0.756717
    42 3.530612 -0.000001 0.000002 0.000000 0.000000 0.724932
    43 3.530613 0.000003 -0.000001 0.000000 0.000000 0.977865
    44 6.681005 -0.762752 -1.054662 0.075165 0.167197 0.419795
    45 3.608303 0.000001 0.000001 0.000000 0.000000 0.457006
    46 3.608304 -0.000001 0.000001 0.000000 0.000000 1.119887
    47 3.408091 -0.002198 0.000000 0.001686 -0.115978 -0.009421
    48 2.848662 0.000002 0.000000 0.271865 0.119841 -0.339044
    49 4.138185 10.107881 0.022334 -0.000003 0.000000 -3.070716
    50 0.764267 -7.382634 0.000000 0.000000 0.000000 -0.979720
    51 -2.541903 -4.479590 0.000000 0.000000 0.000000 0.000000
    52 -2.997996 -1.539746 0.000000 0.000000 0.000000 0.000000
    53 -1.933776 -0.494318 0.000000 0.000000 0.000000 0.000000
    54 -0.442739 -0.289458 -1.764821 0.000000 -1.570796 -0.362078
    55 -0.928988 -2.143673 2.521966 -0.249282 0.000000 0.000000
    56 -0.435876 -0.283594 1.486638 0.000000 -1.570796 -0.472000
    57 1.132204 -2.283551 2.661561 -0.391865 0.000000 0.000000
    58 0.643219 -1.179342 -0.110061 0.000000 -1.570454 0.000000
    59 -0.087093 -2.738184 -0.682241 0.366979 0.000000 0.000000
  time 7
    0 3.274507 0.401241 33.050962 0.079308 -0.227870 -1.765160
    1 -0.358905 -2.152409 0.000000 0.000000 -1.496288 -1.570765
    2 -0.000010 0.000010 6.353376 0.115560 0.240719 -1.986920
    3 18.507668 -0.000001 0.000000 0.000000 0.000000 -0.943337
    4 13.411349 -0.000002 0.000000 2.848392 -0.099967 0.057085
    5 8.701365 6.675648 -0.000001 0.000000 0.000000 1.614392
    6 2.657023 0.000000 0.000001 0.000000 0.000000 -0.043611
    7 2.657023 0.000000 -0.000001 0.000000 0.000000 -0.043611
    8 6.248514 -0.893519 -3.345192 3.141592 0.078501 -1.570796
    9 5.692027 -3.146075 2.191403 0.000000 0.000000 0.000000
    10 6.262097 -1.288316 1.407514 -1.570796 1.492295 1.570796
    11 -0.950702 5.642264 -3.162059 0.000000 0.000000 0.000000
    12 0.000009 -0.000007 -6.353376 -0.007381 0.144168 -3.094132
    13 18.507664 -0.000004 0.000001 0.000000 0.000000 -1.053680
    14 13.411347 0.000003 0.000001 -3.119192 0.007364 1.208939
    15 8.701365 6.675650 0.000002 0.000000 0.000000 1.527185
    16 2.639101 0.000000 0.000002 0.000000 0.000000 -0.043611
    17 2.639102 0.000000 0.000001 0.000000 0.000000 -0.043611
    18 6.262097 -1.271892 -1.655766 1.570795 1.492298 -1.570797
    19 0.660781 5.698953 -3.162059 0.000000 0.000000 0.000000
    20 6.280026 -0.875929 3.588311 1.570795 1.492298 -1.570797
    21 -1.268986 5.650651 -3.144119 0.000000 0.000000 0.000000
    22 3.408690 -0.970598 0.250014 0.049412 -0.212440 0.633855
    23 6.150886 -0.004767 0.000000 -0.089249 -0.023539 0.333312
    24 6.181767 -0.006273 0.000000 -0.069930 -0.045387 0.426550
    25 8.035379 -0.006654 0.000000 -0.025598 -0.077833 0.406672
    26 9.041867 -0.002304 0.000000 0.000364 -0.138277 0.336761
    27 -5.761114 5.342610 4.353493 0.585007 -1.487392 2.223610
    28 8.356072 -0.000003 0.000003 -1.136322 0.445517 -0.755621
    29 22.314190 -0.000002 -0.000002 0.000000 0.000000 -2.069216
    30 13.466391 0.000001 0.000001 -0.959345 0.199659 -0.283267
    31 6.645410 -0.843859 -1.119302 -0.015117 0.138777 -0.107397
    32 3.530611 0.000001 0.000000 0.000000 0.000000 -0.380815
    33 3.530614 0.000000 0.000001 0.000000 0.000000 0.805348
    34 6.690084 -0.762452 1.047436 0.003827 -0.183149 -0.026567
    35 3.608301 0.000000 0.000001 0.000000 0.000000 -0.212512
    36 3.608302 -0.000001 0.000001 0.000000 0.000000 0.973628
    37 -6.448779 5.292516 -2.241014 0.119926 1.176452 2.917735
    38 8.356073 -0.000004 0.000002 1.048153 0.058775 -1.101961
    39 22.314186 -0.000002 0.000000 0.000000 0.000000 -1.614579
    40 13.466395 0.000000 0.000000 1.075259 -0.045315 -0.171375
    41 6.635592 -0.843574 1.110599 -0.185378 -0.179767 0.632516
    42 3.530612 -0.000001 0.000002 0.000000 0.000000 0.752423
    43 3.530613 0.000003 -0.000001 0.000000 0.000000 1.005354
    44 6.681005 -0.762752 -1.054662 0.053910 0.175165 0.295062
    45 3.608303 0.000001 0.000001 0.000000 0.000000 0.333883
    46 3.608304 -0.000001 0.000001 0.000000 0.000000 0.996776
    47 3.408091 -0.002198 0.000000 0.000475 -0.104904 0.033569
    48 2.848662 0.000002 0.000000 0.222510 0.144718 -0.455092
    49 4.138185 10.107881 0.022334 -0.000003 0.000000 -2.990518
    50 0.760361 -7.382634 0.000000 0.000000 0.000000 -0.782837
    51 -2.120015 -4.557718 0.000000 0.000000 0.000000 0.000000
    52 -2.759708 -1.488964 0.000000 0.000000 0.000000 0.000000
    53 -1.820492 -0.439628 0.000000 0.000000 0.000000 0.000000
    54 -0.403676 -0.285552 -1.764821 0.000000 -1.570796 -0.279940
    55 -0.928988 -1.897572 2.221176 -0.197874 0.000000 0.000000
    56 -0.400718 -0.275781 1.486638 0.000000 -1.570796 -0.365893
    57 1.132204 -1.951510 2.337332 -0.320478 0.000000 0.000000
    58 0.694002 -1.241844 -0.110061 0.000000 -1.570454 0.000000
    59 -0.087093 -2.871001 -0.842402 0.289765 0.000000 0.000000
  time 8
    0 2.172911 0.252799 33.824423 0.053317 -0.234966 -1.700669
    1 -0.526879 -2.132878 0.000000 0.000000 -1.505935 -1.570765
    2 -0.000010 0.000010 6.353376 0.062319 0.159188 -2.023342
    3 18.507668 -0.000001 0.000000 0.000000 0.000000 -0.895245
    4 13.411349 -0.000002 0.000000 2.868896 -0.046910 0.041778
    5 8.701365 6.675648 -0.000001 0.000000 0.000000 1.614373
    6 2.657023 0.000000 0.000001 0.000000 0.000000 -0.043611
    7 2.657023 0.000000 -0.000001 0.000000 0.000000 -0.043611
    8 6.248514 -0.893519 -3.345192 3.141592 0.078501 -1.570796
    9 5.692027 -3.146075 2.191403 0.000000 0.000000 0.000000
    10 6.262097 -1.288316 1.407514 -1.570796 1.492295 1.570796
    11 -0.950702 5.642264 -3.162059 0.000000 0.000000 0.000000
    12 0.000009 -0.000007 -6.353376 -0.004705 0.104507 -3.073988
    13 18.507664 -0.000004 0.000001 0.000000 0.000000 -0.989861
    14 13.411347 0.000003 0.000001 -3.056231 0.013319 1.132047
    15 8.701365 6.675650 0.000002 0.000000 0.000000 1.527185
    16 2.639101 0.000000 0.000002 0.000000 0.000000 -0.043611
    17 2.639102 0.000000 0.000001 0.000000 0.000000 -0.043611
    18 6.262097 -1.271892 -1.655766 1.570795 1.492298 -1.570797
    19 0.660781 5.698953 -3.162059 0.000000 0.000000 0.000000
    20 6.280026 -0.875929 3.588311 1.570795 1.492298 -1.570797
    21 -1.268986 5.650651 -3.144119 0.000000 0.000000 0.000000
    22 3.412597 -0.970598 0.214856 0.074014 -0.198730 0.670962
    23 6.150886 -0.004767 0.000000 -0.059492 -0.015988 0.323766
    24 6.181767 -0.006273 0.000000 -0.040915 -0.033186 0.394487
    25 8.035379 -0.006654 0.000000 -0.033471 -0.043258 0.439793
    26 9.041867 -0.002304 0.000000 -0.002481 -0.090594 0.400470
    27 -5.612672 5.725434 4.064422 0.279075 -1.450577 2.464634
    28 8.356072 -0.000003 0.000003 -1.143710 0.452945 -0.680561
    29 22.314190 -0.000002 -0.000002 0.000000 0.000000 -2.251026
    30 13.466391 0.000001 0.000001 -0.813095 0.013429 -0.317277
    31 6.645410 -0.843859 -1.119302 -0.054612 0.128500 -0.401840
    32 3.530611 0.000001 0.000000 0.000000 0.000000 -0.571258
    33 3.530614 0.000000 0.000001 0.000000 0.000000 0.614966
    34 6.690084 -0.762452 1.047436 0.047613 -0.176962 -0.269823
    35 3.608301 0.000000 0.000001 0.000000 0.000000 -0.379337
    36 3.608302 -0.000001 0.000001 0.000000 0.000000 0.806821
    37 -5.987827 5.675340 -2.561336 0.097204 1.223527 2.833271
    38 8.356073 -0.000004 0.000002 1.255834 0.177291 -0.909396
    39 22.314186 -0.000002 0.000000 0.000000 0.000000 -1.541386
    40 13.466395 0.000000 0.000000 0.941264 0.174502 -0.162803
    41 6.635592 -0.843574 1.110599 -0.093421 -0.201307 0.302973
    42 3.530612 -0.000001 0.000002 0.000000 0.000000 0.589320
    43 3.530613 0.000003 -0.000001 0.000000 0.000000 0.842284
    44 6.681005 -0.762752 -1.054662 0.008361 0.183014 0.040669
    45 3.608303 0.000001 0.000001 0.000000 0.000000 0.083454
    46 3.608304 -0.000001 0.000001 0.000000 0.000000 0.746321
    47 3.408091 -0.002198 0.000000 -0.001095 -0.081222 0.093580
    48 2.848662 0.000002 0.000000 0.160400 0.165210 -0.572362
    49 4.138185 10.107881 0.022334 -0.000003 0.000000 -2.882368
    50 0.764267 -7.382634 0.000000 0.000000 0.000000 -0.524043
    51 -1.760629 -4.889759 0.000000 0.000000 0.000000 0.000000
    52 -2.501887 -1.621780 0.000000 0.000000 0.000000 0.000000
    53 -1.675956 -0.494318 0.000000 0.000000 0.000000 0.000000
    54 -0.364612 -0.308990 -1.764821 0.000000 -1.570796 -0.180108
    55 -0.928988 -1.874134 1.814914 -0.124087 0.000000 0.000000
    56 -0.357748 -0.295313 1.486638 0.000000 -1.570796 -0.233863
    57 1.132204 -1.846038 1.899819 -0.201435 0.000000 0.000000
    58 0.705721 -1.319972 -0.110061 0.000000 -1.570454 0.000000
    59 -0.087093 -3.046788 -0.920530 0.194072 0.000000 0.000000
  time 9
    0 0.981468 0.104357 34.593978 0.026515 -0.240460 -1.634167
    1 -0.702666 -2.089908 0.000000 0.000000 -1.534015 -1.570765
    2 -0.000010 0.000010 6.353376 0.002685 0.061992 -2.056407
    3 18.507668 -0.000001 0.000000 0.000000 0.000000 -0.852514
    4 13.411349 -0.000002 0.000000 2.885657 0.005786 0.029669
    5 8.701365 6.675648 -0.000001 0.000000 0.000000 1.614392
    6 2.657023 0.000000 0.000001 0.000000 0.000000 -0.043611
    7 2.657023 0.000000 -0.000001 0.000000 0.000000 -0.043611
    8 6.248514 -0.893519 -3.345192 3.141592 0.078501 -1.570796
    9 5.692027 -3.146075 2.191403 0.000000 0.000000 0.000000
    10 6.262097 -1.288316 1.407514 -1.570796 1.492295 1.570796
    11 -0.950702 5.642264 -3.162059 0.000000 0.000000 0.000000
    12 0.000009 -0.000007 -6.353376 -0.010103 0.043707 -3.071159
    13 18.507664 -0.000004 0.000001 0.000000 0.000000 -0.893121
    14 13.411347 0.000003 0.000001 -2.987195 0.020794 1.037942
    15 8.701365 6.675650 0.000002 0.000000 0.000000 1.527185
    16 2.639101 0.000000 0.000002 0.000000 0.000000 -0.043611
    17 2.639102 0.000000 0.000001 0.000000 0.000000 -0.043611
    18 6.262097 -1.271892 -1.655766 1.570795 1.492298 -1.570797
    19 0.660781 5.698953 -3.162059 0.000000 0.000000 0.000000
    20 6.280026 -0.875929 3.588311 1.570795 1.492298 -1.570797
    21 -1.268986 5.650651 -3.144119 0.000000 0.000000 0.000000
    22 3.416503 -0.970598 0.125010 0.110430 -0.171008 0.707255
    23 6.150886 -0.004767 0.000000 -0.028823 -0.007024 0.314017
    24 6.181767 -0.006273 0.000000 -0.011002 -0.020063 0.362087
    25 8.035379 -0.006654 0.000000 -0.040112 -0.008564 0.473066
    26 9.041867 -0.002304 0.000000 -0.002531 -0.038420 0.468147
    27 -5.413447 6.112164 3.744100 0.091835 -1.405486 2.582531
    28 8.356072 -0.000003 0.000003 -1.123980 0.474445 -0.787171
    29 22.314190 -0.000002 -0.000002 0.000000 0.000000 -2.258534
    30 13.466391 0.000001 0.000001 -0.699760 -0.073540 -0.308293
    31 6.645410 -0.843859 -1.119302 -0.056961 0.127494 -0.420073
    32 3.530611 0.000001 0.000000 0.000000 0.000000 -0.511499
    33 3.530614 0.000000 0.000001 0.000000 0.000000 0.674679
    34 6.690084 -0.762452 1.047436 0.060004 -0.173180 -0.340892
    35 3.608301 0.000000 0.000001 0.000000 0.000000 -0.393823
    36 3.608302 -0.000001 0.000001 0.000000 0.000000 0.792358
    37 -5.448748 6.054258 -2.877752 0.051472 1.273697 2.722250
    38 8.356073 -0.000004 0.000002 1.218074 0.303373 -1.005312
    39 22.314186 -0.000002 0.000000 0.000000 0.000000 -1.418792
    40 13.466395 0.000000 0.000000 1.002763 0.016218 0.221073
    41 6.635592 -0.843574 1.110599 0.061419 -0.186389 -0.392610
    42 3.530612 -0.000001 0.000002 0.000000 0.000000 0.028880
    43 3.530613 0.000003 -0.000001 0.000000 0.000000 0.281886
    44 6.681005 -0.762752 -1.054662 -0.050624 0.176118 -0.286857
    45 3.608303 0.000001 0.000001 0.000000 0.000000 -0.238903
    46 3.608304 -0.000001 0.000001 0.000000 0.000000 0.424010
    47 3.408091 -0.002198 0.000000 -0.001274 -0.054713 0.157668
    48 2.848662 0.000002 0.000000 0.100370 0.190744 -0.702888
    49 4.138185 10.107881 0.022334 -0.000003 0.000000 -2.767219
    50 0.760361 -7.382634 0.000000 0.000000 0.000000 -0.248867
    51 -1.787973 -5.405400 0.000000 0.000000 0.000000 0.000000
    52 -2.400322 -1.946009 0.000000 0.000000 0.000000 0.000000
    53 -1.586110 -0.662292 0.000000 0.000000 0.000000 0.000000
    54 -0.348987 -0.363679 -1.764821 0.000000 -1.570796 -0.086329
    55 -0.928988 -2.186643 1.619595 -0.058241 0.000000 0.000000
    56 -0.346029 -0.350002 1.486638 0.000000 -1.570796 -0.111589
    57 1.132204 -2.154641 1.645905 -0.092690 0.000000 0.000000
    58 0.631500 -1.362942 -0.110061 0.000000 -1.570454 0.000000
    59 -0.087093 -3.206949 -0.783807 0.093673 0.000000 0.000000
  time 10
    0 -0.014656 -0.040179 35.359626 0.000000 -0.244215 -1.570836
    1 -0.851108 -2.074282 0.000000 0.000000 -1.562095 -1.570765
    2 -0.000010 0.000010 6.353376 -0.040809 -0.034223 -2.090038
    3 18.507668 -0.000001 0.000000 0.000000 0.000000 -0.798051
    4 13.411349 -0.000002 0.000000 2.895814 0.048816 0.011007
    5 8.701365 6.675648 -0.000001 0.000000 0.000000 1.614373
    6 2.657023 0.000000 0.000001 0.000000 0.000000 -0.043611
    7 2.657023 0.000000 -0.000001 0.000000 0.000000 -0.043611
    8 6.248514 -0.893519 -3.345192 3.141592 0.078501 -1.570796
    9 5.692027 -3.146075 2.191403 0.000000 0.000000 0.000000
    10 6.262097 -1.288316 1.407514 -1.570796 1.492295 1.570796
    11 -0.950702 5.642264 -3.162059 0.000000 0.000000 0.000000
    12 0.000009 -0.000007 -6.353376 -0.001591 -0.018715 -3.083915
    13 18.507664 -0.000004 0.000001 0.000000 0.000000 -0.773423
    14 13.411347 0.000003 0.000001 -2.934630 0.031907 0.934839
    15 8.701365 6.675650 0.000002 0.000000 0.000000 1.527185
    16 2.639101 0.000000 0.000002 0.000000 0.000000 -0.043611
    17 2.639102 0.000000 0.000001 0.000000 0.000000 -0.043611
    18 6.262097 -1.271892 -1.655766 1.570795 1.492298 -1.570797
    19 0.660781 5.698953 -3.162059 0.000000 0.000000 0.000000
    20 6.280026 -0.875929 3.588311 1.570795 1.492298 -1.570797
    21 -1.268986 5.650651 -3.144119 0.000000 0.000000 0.000000
    22 3.416503 -0.970598 0.027351 0.148103 -0.148703 0.740724
    23 6.150886 -0.004767 0.000000 0.000000 -0.000001 0.305253
    24 6.181767 -0.006273 0.000000 0.016479 -0.005682 0.331371
    25 8.035379 -0.006654 0.000000 -0.045759 0.025363 0.505288
    26 9.041867 -0.002304 0.000000 0.000000 -0.000002 0.527199
    27 -5.186878 6.440299 3.525343 -0.000012 -1.370798 2.613622
    28 8.356072 -0.000003 0.000003 -1.093471 0.501560 -0.963120
    29 22.314190 -0.000002 -0.000002 0.000000 0.000000 -2.190889
    30 13.466391 0.000001 0.000001 -0.601328 -0.123835 -0.277211
    31 6.645410 -0.843859 -1.119302 -0.045896 0.131847 -0.334571
    32 3.530611 0.000001 0.000000 0.000000 0.000000 -0.357609
    33 3.530614 0.000000 0.000001 0.000000 0.000000 0.828535
    34 6.690084 -0.762452 1.047436 0.062279 -0.172366 -0.354159
    35 3.608301 0.000000 0.000001 0.000000 0.000000 -0.357609
    36 3.608302 -0.000001 0.000001 0.000000 0.000000 0.828535
    37 -4.972171 6.351142 -3.100415 -0.000012 1.309458 2.613434
    38 8.356073 -0.000004 0.000002 1.098948 0.396427 -1.162998
    39 22.314186 -0.000002 0.000000 0.000000 0.000000 -1.313134
    40 13.466395 0.000000 0.000000 1.012241 -0.226560 0.603991
    41 6.635592 -0.843574 1.110599 0.070153 -0.169348 -0.389763
    42 3.530612 -0.000001 0.000002 0.000000 0.000000 0.113355
    43 3.530613 0.000003 -0.000001 0.000000 0.000000 0.366404
    44 6.681005 -0.762752 -1.054662 0.013910 0.182656 0.071133
    45 3.608303 0.000001 0.000001 0.000000 0.000000 0.113371
    46 3.608304 -0.000001 0.000001 0.000000 0.000000 0.776220
    47 3.408091 -0.002198 0.000000 -0.000028 -0.034890 0.213179
    48 2.848662 0.000002 0.000000 0.053233 0.219141 -0.848146
    49 4.138185 10.107881 0.022334 -0.000003 0.000000 -2.666027
    50 0.760361 -7.382634 0.000000 0.000000 0.000000 0.000000
    51 -2.209861 -5.858539 0.000000 0.000000 0.000000 0.000000
    52 -2.505794 -2.289769 0.000000 0.000000 0.000000 0.000000
    53 -1.609548 -0.865423 0.000000 0.000000 0.000000 0.000000
    54 -0.372425 -0.406650 -1.764821 0.000000 -1.570456 0.000000
    55 -0.928988 -2.565561 1.783663 0.000000 0.000000 0.000000
    56 -0.365561 -0.396879 1.486638 0.000000 -1.570452 0.000000
    57 1.132204 -2.560903 1.809972 0.000000 0.000000 0.000000
    58 0.494777 -1.362942 -0.110061 0.000000 -1.570454 0.000000
    59 -0.087093 -3.281170 -0.490829 0.000000 0.000000 0.000000
end
