version 1
nodes
0 "root" -1
end
skeleton
time 0
0 0 0 0 0 0 0
end
triangles
no_material
0  5.000000 183.000000 60.000000  -0.576952 -0.736839 -0.352367  1.000000 0.500000 0
0  5.000000 240.000000 87.000000  -0.578448 0.733421 0.357006  0.503693 0.006750 0
0  5.000000 226.000000 45.000000  -0.576617 0.360271 -0.733268  1.000000 0.000000 0
no_material
0  5.000000 226.000000 45.000000  -0.576617 0.360271 -0.733268  0.100904 0.986064 0
0  8.000000 240.000000 87.000000  0.578448 0.733421 0.357006  0.134538 0.500000 0
0  8.000000 226.000000 45.000000  0.576617 0.360271 -0.733268  0.134538 0.986064 0
no_material
0  8.000000 226.000000 45.000000  0.576617 0.360271 -0.733268  0.500000 0.500000 0
0  8.000000 198.000000 102.000000  0.577349 -0.349528 0.737877  0.000000 0.003616 0
0  8.000000 183.000000 60.000000  0.576952 -0.736839 -0.352367  0.500000 0.000000 0
no_material
0  8.000000 183.000000 60.000000  0.576952 -0.736839 -0.352367  0.033635 0.989647 0
0  5.000000 198.000000 102.000000  -0.577349 -0.349528 0.737877  0.067269 0.500000 0
0  5.000000 183.000000 60.000000  -0.576952 -0.736839 -0.352367  0.067269 0.989647 0
no_material
0  5.000000 226.000000 45.000000  -0.576617 0.360271 -0.733268  0.033635 1.000000 0
0  8.000000 183.000000 60.000000  0.576952 -0.736839 -0.352367  0.000000 0.500000 0
0  5.000000 183.000000 60.000000  -0.576952 -0.736839 -0.352367  0.033635 0.500000 0
no_material
0  8.000000 240.000000 87.000000  0.578448 0.733421 0.357006  0.100904 0.989647 0
0  5.000000 198.000000 102.000000  -0.577349 -0.349528 0.737877  0.067269 0.500000 0
0  8.000000 198.000000 102.000000  0.577349 -0.349528 0.737877  0.100904 0.500000 0
no_material
0  5.000000 183.000000 60.000000  -0.576952 -0.736839 -0.352367  1.000000 0.500000 0
0  5.000000 198.000000 102.000000  -0.577349 -0.349528 0.737877  0.500000 0.496383 0
0  5.000000 240.000000 87.000000  -0.578448 0.733421 0.357006  0.503693 0.006750 0
no_material
0  5.000000 226.000000 45.000000  -0.576617 0.360271 -0.733268  0.100904 0.986064 0
0  5.000000 240.000000 87.000000  -0.578448 0.733421 0.357006  0.100904 0.500000 0
0  8.000000 240.000000 87.000000  0.578448 0.733421 0.357006  0.134538 0.500000 0
no_material
0  8.000000 226.000000 45.000000  0.576617 0.360271 -0.733268  0.500000 0.500000 0
0  8.000000 240.000000 87.000000  0.578448 0.733421 0.357006  0.003693 0.493250 0
0  8.000000 198.000000 102.000000  0.577349 -0.349528 0.737877  0.000000 0.003616 0
no_material
0  8.000000 183.000000 60.000000  0.576952 -0.736839 -0.352367  0.033635 0.989647 0
0  8.000000 198.000000 102.000000  0.577349 -0.349528 0.737877  0.033635 0.500000 0
0  5.000000 198.000000 102.000000  -0.577349 -0.349528 0.737877  0.067269 0.500000 0
no_material
0  5.000000 226.000000 45.000000  -0.576617 0.360271 -0.733268  0.033635 1.000000 0
0  8.000000 226.000000 45.000000  0.576617 0.360271 -0.733268  0.000000 1.000000 0
0  8.000000 183.000000 60.000000  0.576952 -0.736839 -0.352367  0.000000 0.500000 0
no_material
0  8.000000 240.000000 87.000000  0.578448 0.733421 0.357006  0.100904 0.989647 0
0  5.000000 240.000000 87.000000  -0.578448 0.733421 0.357006  0.067269 0.989647 0
0  5.000000 198.000000 102.000000  -0.577349 -0.349528 0.737877  0.067269 0.500000 0
end
