version 1
nodes
0 "root" -1
end
skeleton
time 0
0 0 0 0 0 0 0
end
triangles
no_material
0  -10.000000 150.000000 20.000000  -0.608783 -0.420118 -0.672933  0.604214 0.000000 0
0  -10.000000 186.000000 34.000000  -0.862789 -0.182470 0.471450  0.562038 0.208132 0
0  -10.000000 226.000000 18.000000  -0.606250 0.539506 -0.584246  0.371980 0.345136 0
no_material
0  10.000000 186.000000 34.000000  0.862209 -0.173650 0.475814  0.190114 0.344509 0
0  2.000000 232.000000 72.000000  0.591540 0.788049 0.170354  0.227849 0.016309 0
0  2.000000 220.000000 96.000000  0.521470 0.025575 0.852870  0.371980 0.000000 0
no_material
0  10.000000 226.000000 18.000000  0.613117 0.540178 -0.576403  0.000000 0.207457 0
0  10.000000 138.000000 43.000000  0.550157 -0.670949 0.497085  0.371980 0.539478 0
0  10.000000 150.000000 20.000000  0.608783 -0.420118 -0.672933  0.232386 0.552796 0
no_material
0  10.000000 150.000000 20.000000  0.608783 -0.420118 -0.672933  0.891897 0.591732 0
0  -10.000000 138.000000 43.000000  -0.550157 -0.670949 0.497085  1.000000 0.495988 0
0  -10.000000 150.000000 20.000000  -0.608783 -0.420118 -0.672933  1.000000 0.591732 0
no_material
0  -10.000000 226.000000 18.000000  -0.606250 0.539506 -0.584246  1.000000 1.000000 0
0  10.000000 150.000000 20.000000  0.608783 -0.420118 -0.672933  0.891897 0.591732 0
0  -10.000000 150.000000 20.000000  -0.608783 -0.420118 -0.672933  1.000000 0.591732 0
no_material
0  10.000000 186.000000 34.000000  0.862209 -0.173650 0.475814  0.324310 0.815951 0
0  -10.000000 138.000000 43.000000  -0.550157 -0.670949 0.497085  0.216206 0.552796 0
0  10.000000 138.000000 43.000000  0.550157 -0.670949 0.497085  0.324310 0.552796 0
no_material
0  -2.000000 232.000000 72.000000  -0.544145 0.819575 0.179296  0.043241 0.691829 0
0  2.000000 220.000000 96.000000  0.521470 0.025575 0.852870  0.064862 0.552796 0
0  2.000000 232.000000 72.000000  0.591540 0.788049 0.170354  0.064862 0.691829 0
no_material
0  10.000000 226.000000 18.000000  0.613117 0.540178 -0.576403  0.108103 0.983589 0
0  -2.000000 232.000000 72.000000  -0.544145 0.819575 0.179296  0.043241 0.691829 0
0  2.000000 232.000000 72.000000  0.591540 0.788049 0.170354  0.064862 0.691829 0
no_material
0  -10.000000 186.000000 34.000000  -0.862789 -0.182470 0.471450  0.216206 0.941767 0
0  2.000000 220.000000 96.000000  0.521470 0.025575 0.852870  0.151344 0.552796 0
0  -2.000000 220.000000 96.000000  -0.508591 0.024720 0.860622  0.172965 0.552796 0
no_material
0  -10.000000 226.000000 18.000000  -0.606250 0.539506 -0.584246  0.371980 0.345136 0
0  -2.000000 220.000000 96.000000  -0.508591 0.024720 0.860622  0.743822 0.553001 0
0  -2.000000 232.000000 72.000000  -0.544145 0.819575 0.179296  0.599676 0.536753 0
no_material
0  -45.000000 204.000000 35.000000  -0.582720 -0.761864 -0.282754  0.371980 0.559715 0
0  -45.000000 229.000000 24.000000  -0.616199 0.698019 0.364727  0.400293 0.707385 0
0  -45.000000 229.000000 22.000000  -0.556230 0.431257 -0.710349  0.391433 0.713687 0
no_material
0  -45.000000 229.000000 22.000000  -0.556230 0.431257 -0.710349  0.921289 0.000000 0
0  45.000000 229.000000 24.000000  0.616199 0.698019 0.364727  0.932026 0.495988 0
0  45.000000 229.000000 22.000000  0.556230 0.431257 -0.710349  0.921289 0.495988 0
no_material
0  45.000000 229.000000 22.000000  0.556230 0.431257 -0.710349  0.343775 0.552796 0
0  45.000000 206.000000 40.000000  0.566301 -0.236641 0.789453  0.352640 0.713496 0
0  45.000000 204.000000 35.000000  0.582720 -0.761864 -0.282754  0.324310 0.706802 0
no_material
0  45.000000 204.000000 35.000000  0.582720 -0.761864 -0.282754  0.892235 0.000000 0
0  -45.000000 206.000000 40.000000  -0.566301 -0.236641 0.789453  0.921289 0.495988 0
0  -45.000000 204.000000 35.000000  -0.582720 -0.761864 -0.282754  0.892235 0.495988 0
no_material
0  -45.000000 229.000000 22.000000  -0.556230 0.431257 -0.710349  0.743822 0.495988 0
0  45.000000 204.000000 35.000000  0.582720 -0.761864 -0.282754  0.892235 0.000000 0
0  -45.000000 204.000000 35.000000  -0.582720 -0.761864 -0.282754  0.892235 0.495988 0
no_material
0  45.000000 229.000000 24.000000  0.616199 0.698019 0.364727  0.891897 0.495988 0
0  -45.000000 206.000000 40.000000  -0.566301 -0.236641 0.789453  0.743822 0.991975 0
0  45.000000 206.000000 40.000000  0.566301 -0.236641 0.789453  0.743822 0.495988 0
no_material
0  -10.000000 150.000000 20.000000  -0.608783 -0.420118 -0.672933  0.604214 0.000000 0
0  -10.000000 138.000000 43.000000  -0.550157 -0.670949 0.497085  0.743822 0.013261 0
0  -10.000000 186.000000 34.000000  -0.862789 -0.182470 0.471450  0.562038 0.208132 0
no_material
0  10.000000 186.000000 34.000000  0.862209 -0.173650 0.475814  0.190114 0.344509 0
0  10.000000 226.000000 18.000000  0.613117 0.540178 -0.576403  0.000000 0.207457 0
0  2.000000 232.000000 72.000000  0.591540 0.788049 0.170354  0.227849 0.016309 0
no_material
0  10.000000 226.000000 18.000000  0.613117 0.540178 -0.576403  0.000000 0.207457 0
0  10.000000 186.000000 34.000000  0.862209 -0.173650 0.475814  0.190114 0.344509 0
0  10.000000 138.000000 43.000000  0.550157 -0.670949 0.497085  0.371980 0.539478 0
no_material
0  10.000000 150.000000 20.000000  0.608783 -0.420118 -0.672933  0.891897 0.591732 0
0  10.000000 138.000000 43.000000  0.550157 -0.670949 0.497085  0.891897 0.495988 0
0  -10.000000 138.000000 43.000000  -0.550157 -0.670949 0.497085  1.000000 0.495988 0
no_material
0  -10.000000 226.000000 18.000000  -0.606250 0.539506 -0.584246  1.000000 1.000000 0
0  10.000000 226.000000 18.000000  0.613117 0.540178 -0.576403  0.891897 1.000000 0
0  10.000000 150.000000 20.000000  0.608783 -0.420118 -0.672933  0.891897 0.591732 0
no_material
0  10.000000 186.000000 34.000000  0.862209 -0.173650 0.475814  0.324310 0.815951 0
0  -10.000000 186.000000 34.000000  -0.862789 -0.182470 0.471450  0.216206 0.815951 0
0  -10.000000 138.000000 43.000000  -0.550157 -0.670949 0.497085  0.216206 0.552796 0
no_material
0  -2.000000 232.000000 72.000000  -0.544145 0.819575 0.179296  0.043241 0.691829 0
0  -2.000000 220.000000 96.000000  -0.508591 0.024720 0.860622  0.043241 0.552796 0
0  2.000000 220.000000 96.000000  0.521470 0.025575 0.852870  0.064862 0.552796 0
no_material
0  10.000000 226.000000 18.000000  0.613117 0.540178 -0.576403  0.108103 0.983589 0
0  -10.000000 226.000000 18.000000  -0.606250 0.539506 -0.584246  0.000000 0.983589 0
0  -2.000000 232.000000 72.000000  -0.544145 0.819575 0.179296  0.043241 0.691829 0
no_material
0  -10.000000 186.000000 34.000000  -0.862789 -0.182470 0.471450  0.216206 0.941767 0
0  10.000000 186.000000 34.000000  0.862209 -0.173650 0.475814  0.108103 0.941767 0
0  2.000000 220.000000 96.000000  0.521470 0.025575 0.852870  0.151344 0.552796 0
no_material
0  -10.000000 226.000000 18.000000  -0.606250 0.539506 -0.584246  0.371980 0.345136 0
0  -10.000000 186.000000 34.000000  -0.862789 -0.182470 0.471450  0.562038 0.208132 0
0  -2.000000 220.000000 96.000000  -0.508591 0.024720 0.860622  0.743822 0.553001 0
no_material
0  -45.000000 204.000000 35.000000  -0.582720 -0.761864 -0.282754  0.371980 0.559715 0
0  -45.000000 206.000000 40.000000  -0.566301 -0.236641 0.789453  0.400293 0.553001 0
0  -45.000000 229.000000 24.000000  -0.616199 0.698019 0.364727  0.400293 0.707385 0
no_material
0  -45.000000 229.000000 22.000000  -0.556230 0.431257 -0.710349  0.921289 0.000000 0
0  -45.000000 229.000000 24.000000  -0.616199 0.698019 0.364727  0.932026 0.000000 0
0  45.000000 229.000000 24.000000  0.616199 0.698019 0.364727  0.932026 0.495988 0
no_material
0  45.000000 229.000000 22.000000  0.556230 0.431257 -0.710349  0.343775 0.552796 0
0  45.000000 229.000000 24.000000  0.616199 0.698019 0.364727  0.352640 0.559093 0
0  45.000000 206.000000 40.000000  0.566301 -0.236641 0.789453  0.352640 0.713496 0
no_material
0  45.000000 204.000000 35.000000  0.582720 -0.761864 -0.282754  0.892235 0.000000 0
0  45.000000 206.000000 40.000000  0.566301 -0.236641 0.789453  0.921289 0.000000 0
0  -45.000000 206.000000 40.000000  -0.566301 -0.236641 0.789453  0.921289 0.495988 0
no_material
0  -45.000000 229.000000 22.000000  -0.556230 0.431257 -0.710349  0.743822 0.495988 0
0  45.000000 229.000000 22.000000  0.556230 0.431257 -0.710349  0.743822 0.000000 0
0  45.000000 204.000000 35.000000  0.582720 -0.761864 -0.282754  0.892235 0.000000 0
no_material
0  45.000000 229.000000 24.000000  0.616199 0.698019 0.364727  0.891897 0.495988 0
0  -45.000000 229.000000 24.000000  -0.616199 0.698019 0.364727  0.891897 0.991975 0
0  -45.000000 206.000000 40.000000  -0.566301 -0.236641 0.789453  0.743822 0.991975 0
end
