$modelname "Gibs\apache_gib6.mdl"

$staticprop

$bodygroup "Body"
{
	studio "apache_gib6.smd"
}

$surfaceprop "metal"

$contents "solid"

$cdmaterials "models\apache\"

$definebone "static_prop" "" 0 0 0 0 0 0 0 0 0 0 0 0

$sequence "idle1" {
	"apache_gib1.smd"
	fadein 0.2
	fadeout 0.2
	fps 30
}

$collisionmodel "apache_col6.smd"
{
	$mass 128
	$inertia 1
	$damping 0.2
	$rotdamping 0.5
	$concave
}

$keyvalues
{
	prop_data 
	{
		"base"		"Metal.Base"
		"health"	"128"
	}
}