version 1
nodes
0 "root" -1
end
skeleton
time 0
0 0 0 0 0 0 0
end
triangles
APCHE_TailRotor1
0  7.908263 212.624725 73.123352  0.742523 0.455090 -0.491480  0.499487 0.489189 0
0  6.914502 212.505463 71.511543  0.742523 0.455090 -0.491480  0.497835 0.445363 0
0  6.914544 213.413330 72.352264  0.742523 0.455090 -0.491480  0.511887 0.468438 0
APCHE_TailRotor1
0  7.908206 211.851807 72.407600  0.740830 -0.508504 -0.438857  0.487530 0.469554 0
0  6.911253 210.133530 72.715614  0.740830 -0.508504 -0.438857  0.460664 0.477529 0
0  6.913084 211.109283 71.588112  0.740830 -0.508504 -0.438857  0.476049 0.447119 0
APCHE_TailRotor1
0  2.886756 212.145676 72.091736  -0.137876 -0.055039 -0.988919  0.497508 0.429657 0
0  6.913084 211.109283 71.588112  -0.137876 -0.055039 -0.988919  0.476049 0.447119 0
0  2.886169 211.448273 72.130630  -0.137876 -0.055039 -0.988919  0.475734 0.431404 0
APCHE_TailRotor1
0  2.884843 210.672867 73.028000  -0.127238 -0.989167 0.073202  0.451277 0.479775 0
0  6.912005 210.236435 74.130623  -0.127238 -0.989167 0.073202  0.462072 0.516019 0
0  2.884318 210.725296 73.735641  -0.127238 -0.989167 0.073202  0.452719 0.518286 0
APCHE_TailRotor1
0  7.906824 211.034531 73.349976  0.745326 -0.434050 0.506053  0.474648 0.494986 0
0  6.912014 211.195038 74.952820  0.745326 -0.434050 0.506053  0.476883 0.538597 0
0  6.912005 210.236435 74.130623  0.745326 -0.434050 0.506053  0.462072 0.516019 0
APCHE_TailRotor1
0  2.884394 211.514572 74.411964  -0.126919 0.078191 0.988826  0.477172 0.555501 0
0  6.912336 212.610519 74.842270  -0.126919 0.078191 0.988826  0.498983 0.535921 0
0  2.885002 212.222610 74.356056  -0.126919 0.078191 0.988826  0.499284 0.552837 0
APCHE_TailRotor1
0  7.906906 211.840988 74.042801  0.743081 0.508826 0.434657  0.487117 0.513994 0
0  6.913826 213.498962 73.799660  0.743081 0.508826 0.434657  0.513012 0.507803 0
0  6.912336 212.610519 74.842270  0.743081 0.508826 0.434657  0.498983 0.535921 0
APCHE_TailRotor1
0  2.886261 212.941299 73.512482  -0.132869 0.989391 -0.058753  0.521934 0.507327 0
0  6.914544 213.413330 72.352264  -0.132869 0.989391 -0.058753  0.511887 0.468438 0
0  2.886806 212.898361 72.788712  -0.132869 0.989391 -0.058753  0.520794 0.467945 0
APCHE_TailRotor1
0  6.914502 212.505463 71.511543  0.653664 -0.042102 -0.755613  0.497835 0.445363 0
0  7.908206 211.851807 72.407600  0.653664 -0.042102 -0.755613  0.487530 0.469554 0
0  6.913084 211.109283 71.588112  0.653664 -0.042102 -0.755613  0.476049 0.447119 0
APCHE_TailRotor1
0  7.906824 211.034531 73.349976  0.650608 -0.757438 0.054736  0.474648 0.494986 0
0  6.912005 210.236435 74.130623  0.650608 -0.757438 0.054736  0.462072 0.516019 0
0  6.911253 210.133530 72.715614  0.650608 -0.757438 0.054736  0.460664 0.477529 0
APCHE_TailRotor1
0  7.906906 211.840988 74.042801  0.652682 0.058843 0.755343  0.487117 0.513994 0
0  6.912336 212.610519 74.842270  0.652682 0.058843 0.755343  0.498983 0.535921 0
0  6.912014 211.195038 74.952820  0.652682 0.058843 0.755343  0.476883 0.538597 0
APCHE_TailRotor1
0  6.914544 213.413330 72.352264  0.642170 0.765242 -0.044958  0.511887 0.468438 0
0  6.913826 213.498962 73.799660  0.642170 0.765242 -0.044958  0.513012 0.507803 0
0  7.908263 212.624725 73.123352  0.642170 0.765242 -0.044958  0.499487 0.489189 0
APCHE_TailRotor1
0  2.884318 210.725296 73.735641  -0.151814 -0.643141 0.750548  0.452719 0.518286 0
0  6.912014 211.195038 74.952820  -0.151814 -0.643141 0.750548  0.476883 0.538597 0
0  2.884394 211.514572 74.411964  -0.151814 -0.643141 0.750548  0.477172 0.555501 0
APCHE_TailRotor1
0  7.906906 211.840988 74.042801  0.999999 -0.000805 0.000790  0.487117 0.513994 0
0  7.908206 211.851807 72.407600  0.999999 -0.000805 0.000790  0.487530 0.469554 0
0  7.908263 212.624725 73.123352  0.999999 -0.000805 0.000790  0.499487 0.489189 0
APCHE_TailRotor1
0  2.885002 212.222610 74.356056  -0.149930 0.752704 0.641060  0.499284 0.552837 0
0  6.913826 213.498962 73.799660  -0.149930 0.752704 0.641060  0.513012 0.507803 0
0  2.886261 212.941299 73.512482  -0.149930 0.752704 0.641060  0.521934 0.507327 0
APCHE_TailRotor1
0  6.914502 212.505463 71.511543  -0.164123 0.670233 -0.723776  0.497835 0.445363 0
0  2.886806 212.898361 72.788712  -0.164123 0.670233 -0.723776  0.520794 0.467945 0
0  6.914544 213.413330 72.352264  -0.164123 0.670233 -0.723776  0.511887 0.468438 0
APCHE_TailRotor1
0  6.913084 211.109283 71.588112  -0.150068 -0.747982 -0.646531  0.476049 0.447119 0
0  2.884843 210.672867 73.028000  -0.150068 -0.747982 -0.646531  0.451277 0.479775 0
0  2.886169 211.448273 72.130630  -0.150068 -0.747982 -0.646531  0.475734 0.431404 0
APCHE_TailRotor1
0  4.600000 205.955414 66.358025  0.000000 0.382683 -0.923880  0.412220 0.303187 0
0  5.925000 184.706192 57.556305  0.000000 0.382683 -0.923880  0.080010 0.012583 0
0  5.375000 184.706192 57.556305  0.000000 0.382683 -0.923880  0.080010 0.012583 0
APCHE_TailRotor1
0  6.200000 205.955414 66.358025  0.027944 0.783463 -0.620810  0.412220 0.303187 0
0  6.600000 208.468475 69.547523  0.027944 0.783463 -0.620810  0.426541 0.328189 0
0  7.200000 208.468475 69.574524  0.027944 0.783463 -0.620810  0.426541 0.328189 0
APCHE_TailRotor1
0  5.375000 184.706192 57.556305  -0.999433 -0.031113 -0.012888  0.080010 0.012583 0
0  4.600000 204.041992 70.977425  -0.999433 -0.031113 -0.012888  0.380633 0.447626 0
0  4.600000 205.955414 66.358025  -0.999433 -0.031113 -0.012888  0.412220 0.303187 0
APCHE_TailRotor1
0  5.925000 184.706192 57.556305  0.000000 -0.923879 -0.382685  0.080010 0.012583 0
0  5.375000 182.792770 62.175705  0.000000 -0.923879 -0.382685  0.048423 0.157022 0
0  5.375000 184.706192 57.556305  0.000000 -0.923879 -0.382685  0.080010 0.012583 0
APCHE_TailRotor1
0  6.200000 204.041992 70.977425  0.000000 -0.382684 0.923879  0.380633 0.447626 0
0  5.375000 182.792770 62.175705  0.000000 -0.382684 0.923879  0.048423 0.157022 0
0  5.925000 182.792770 62.175705  0.000000 -0.382684 0.923879  0.048423 0.157022 0
APCHE_TailRotor1
0  6.200000 205.955414 66.358025  0.999929 -0.011046 -0.004575  0.412220 0.303187 0
0  5.925000 182.792770 62.175705  0.999929 -0.011046 -0.004575  0.048423 0.157022 0
0  5.925000 184.706192 57.556305  0.999929 -0.011046 -0.004575  0.080010 0.012583 0
APCHE_TailRotor1
0  6.600000 207.320419 72.264137  -0.009168 -0.545237 0.838232  0.398112 0.458184 0
0  7.200000 209.282837 73.547142  -0.009168 -0.545237 0.838232  0.444102 0.501640 0
0  6.600000 209.282837 73.540588  -0.009168 -0.545237 0.838232  0.444102 0.501640 0
APCHE_TailRotor1
0  4.600000 205.955414 66.358025  -0.871626 0.451507 0.190812  0.412220 0.303187 0
0  6.600000 207.320419 72.264137  -0.871626 0.451507 0.190812  0.398112 0.458184 0
0  6.600000 208.468475 69.547523  -0.871626 0.451507 0.190812  0.426541 0.328189 0
APCHE_TailRotor1
0  6.200000 204.041992 70.977425  0.962184 -0.250950 -0.105955  0.380633 0.447626 0
0  7.200000 208.468475 69.574524  0.962184 -0.250950 -0.105955  0.426541 0.328189 0
0  7.200000 207.320419 72.293625  0.962184 -0.250950 -0.105955  0.398112 0.458184 0
APCHE_TailRotor1
0  4.600000 204.041992 70.977425  -0.046158 -0.340436 0.939134  0.380633 0.447626 0
0  7.200000 207.320419 72.293625  -0.046158 -0.340436 0.939134  0.398112 0.458184 0
0  6.600000 207.320419 72.264137  -0.046158 -0.340436 0.939134  0.398112 0.458184 0
APCHE_TailRotor1
0  6.600000 212.106293 72.368248  0.000000 0.923881 0.382680  0.507622 0.464932 0
0  7.200000 211.245255 74.446976  0.000000 0.923881 0.382680  0.493407 0.529930 0
0  7.200000 212.106293 72.368248  0.000000 0.923881 0.382680  0.507622 0.464932 0
APCHE_TailRotor1
0  7.200000 208.468475 69.574524  0.004285 0.651604 -0.758547  0.426541 0.328189 0
0  6.600000 210.287384 71.133598  0.004285 0.651604 -0.758547  0.468976 0.387894 0
0  7.200000 210.287384 71.136986  0.004285 0.651604 -0.758547  0.468976 0.387894 0
APCHE_TailRotor1
0  6.600000 208.468475 69.547523  -1.000000 0.000000 0.000000  0.426541 0.328189 0
0  6.600000 209.282837 73.540588  -1.000000 0.000000 0.000000  0.444102 0.501640 0
0  6.600000 210.287384 71.133598  -1.000000 0.000000 0.000000  0.468976 0.387894 0
APCHE_TailRotor1
0  7.200000 207.320419 72.293625  1.000000 0.000000 0.000000  0.398112 0.458184 0
0  7.200000 210.287384 71.136986  1.000000 0.000000 0.000000  0.468976 0.387894 0
0  7.200000 209.282837 73.547142  1.000000 0.000000 0.000000  0.444102 0.501640 0
APCHE_TailRotor1
0  4.600000 217.319611 80.641975  0.000000 -0.382683 0.923880  0.587546 0.697453 0
0  5.925000 238.568832 89.443695  0.000000 -0.382683 0.923880  0.919756 0.988056 0
0  5.375000 238.568832 89.443695  0.000000 -0.382683 0.923880  0.919756 0.988056 0
APCHE_TailRotor1
0  6.200000 217.319611 80.641975  0.027944 -0.783463 0.620810  0.587546 0.697453 0
0  6.600000 214.806549 77.452477  0.027944 -0.783463 0.620810  0.573067 0.673173 0
0  7.200000 214.806549 77.425476  0.027944 -0.783463 0.620810  0.573067 0.673173 0
APCHE_TailRotor1
0  5.375000 238.568832 89.443695  -0.999433 0.031113 0.012888  0.919756 0.988056 0
0  4.600000 219.233032 76.022575  -0.999433 0.031113 0.012888  0.619133 0.553014 0
0  4.600000 217.319611 80.641975  -0.999433 0.031113 0.012888  0.587546 0.697453 0
APCHE_TailRotor1
0  5.925000 238.568832 89.443695  0.000000 0.923877 0.382690  0.919756 0.988056 0
0  5.375000 240.482254 84.824295  0.000000 0.923877 0.382690  0.951343 0.843617 0
0  5.375000 238.568832 89.443695  0.000000 0.923877 0.382690  0.919756 0.988056 0
APCHE_TailRotor1
0  6.200000 219.233032 76.022575  0.000000 0.382683 -0.923880  0.619133 0.553014 0
0  5.375000 240.482254 84.824295  0.000000 0.382683 -0.923880  0.951343 0.843617 0
0  5.925000 240.482254 84.824295  0.000000 0.382683 -0.923880  0.951343 0.843617 0
APCHE_TailRotor1
0  6.200000 217.319611 80.641975  0.999929 0.011046 0.004575  0.587546 0.697453 0
0  5.925000 240.482254 84.824295  0.999929 0.011046 0.004575  0.951343 0.843617 0
0  5.925000 238.568832 89.443695  0.999929 0.011046 0.004575  0.919756 0.988056 0
APCHE_TailRotor1
0  6.600000 215.954605 74.735863  -0.008787 0.579785 -0.814722  0.601496 0.543177 0
0  7.200000 214.030441 73.360107  -0.008787 0.579785 -0.814722  0.556454 0.495388 0
0  6.600000 214.030441 73.366585  -0.008787 0.579785 -0.814722  0.556454 0.495388 0
APCHE_TailRotor1
0  4.600000 217.319611 80.641975  -0.871626 -0.451507 -0.190812  0.587546 0.697453 0
0  6.600000 215.954605 74.735863  -0.871626 -0.451507 -0.190812  0.601496 0.543177 0
0  6.600000 214.806549 77.452477  -0.871626 -0.451507 -0.190812  0.573067 0.673173 0
APCHE_TailRotor1
0  6.200000 219.233032 76.022575  0.962184 0.250950 0.105955  0.619133 0.553014 0
0  7.200000 214.806549 77.425476  0.962184 0.250950 0.105955  0.573067 0.673173 0
0  7.200000 215.954605 74.706375  0.962184 0.250950 0.105955  0.601496 0.543177 0
APCHE_TailRotor1
0  4.600000 219.233032 76.022575  -0.046157 0.340427 -0.939137  0.619133 0.553014 0
0  7.200000 215.954605 74.706375  -0.046157 0.340427 -0.939137  0.601496 0.543177 0
0  6.600000 215.954605 74.735863  -0.046157 0.340427 -0.939137  0.601496 0.543177 0
APCHE_TailRotor1
0  7.200000 214.806549 77.425476  0.003765 -0.680918 0.732350  0.573067 0.673173 0
0  6.600000 213.025909 75.772980  0.003765 -0.680918 0.732350  0.531579 0.609134 0
0  7.200000 213.025909 75.769882  0.003765 -0.680918 0.732350  0.531579 0.609134 0
APCHE_TailRotor1
0  6.600000 214.806549 77.452477  -1.000000 -0.000000 0.000000  0.573067 0.673173 0
0  6.600000 214.030441 73.366585  -1.000000 -0.000000 0.000000  0.556454 0.495388 0
0  6.600000 213.025909 75.772980  -1.000000 -0.000000 0.000000  0.531579 0.609134 0
APCHE_TailRotor1
0  7.200000 215.954605 74.706375  1.000000 0.000000 0.000000  0.601496 0.543177 0
0  7.200000 213.025909 75.769882  1.000000 0.000000 0.000000  0.531579 0.609134 0
0  7.200000 214.030441 73.360107  1.000000 0.000000 0.000000  0.556454 0.495388 0
APCHE_TailRotor1
0  7.200000 210.287384 71.136986  1.000000 0.000000 0.000000  0.468976 0.387894 0
0  7.200000 211.245255 74.446976  1.000000 0.000000 0.000000  0.493407 0.529930 0
0  7.200000 209.282837 73.547142  1.000000 0.000000 0.000000  0.444102 0.501640 0
APCHE_TailRotor1
0  6.600000 210.287384 71.133598  0.004678 0.560558 -0.828102  0.468976 0.387894 0
0  7.200000 212.106293 72.368248  0.004678 0.560558 -0.828102  0.507622 0.464932 0
0  7.200000 210.287384 71.136986  0.004678 0.560558 -0.828102  0.468976 0.387894 0
APCHE_TailRotor1
0  7.200000 209.282837 73.547142  -0.009906 -0.419290 0.907798  0.444102 0.501640 0
0  6.600000 211.245255 74.446976  -0.009906 -0.419290 0.907798  0.493407 0.529930 0
0  6.600000 209.282837 73.540588  -0.009906 -0.419290 0.907798  0.444102 0.501640 0
APCHE_TailRotor1
0  6.600000 209.282837 73.540588  -1.000000 0.000000 0.000000  0.444102 0.501640 0
0  6.600000 212.106293 72.368248  -1.000000 0.000000 0.000000  0.507622 0.464932 0
0  6.600000 210.287384 71.133598  -1.000000 0.000000 0.000000  0.468976 0.387894 0
APCHE_TailRotor1
0  6.600000 214.030441 73.366585  -1.000000 0.000000 0.000000  0.556454 0.495388 0
0  6.600000 211.245255 74.446976  -1.000000 0.000000 0.000000  0.493407 0.529930 0
0  6.600000 213.025909 75.772980  -1.000000 0.000000 0.000000  0.531579 0.609134 0
APCHE_TailRotor1
0  7.200000 214.030441 73.360107  -0.009573 0.460519 -0.887598  0.556454 0.495388 0
0  6.600000 212.106293 72.368248  -0.009573 0.460519 -0.887598  0.507622 0.464932 0
0  6.600000 214.030441 73.366585  -0.009573 0.460519 -0.887598  0.556454 0.495388 0
APCHE_TailRotor1
0  7.200000 213.025909 75.769882  1.000000 -0.000000 0.000000  0.531579 0.609134 0
0  7.200000 212.106293 72.368248  1.000000 -0.000000 0.000000  0.507622 0.464932 0
0  7.200000 214.030441 73.360107  1.000000 -0.000000 0.000000  0.556454 0.495388 0
APCHE_TailRotor1
0  6.600000 213.025909 75.772980  0.004150 -0.596359 0.802707  0.531579 0.609134 0
0  7.200000 211.245255 74.446976  0.004150 -0.596359 0.802707  0.493407 0.529930 0
0  7.200000 213.025909 75.769882  0.004150 -0.596359 0.802707  0.531579 0.609134 0
APCHE_TailRotor1
0  4.600000 204.495529 79.182098  0.000000 -0.923879 -0.382684  0.412220 0.303187 0
0  5.925000 195.693817 100.431320  0.000000 -0.923879 -0.382684  0.080010 0.012583 0
0  5.375000 195.693817 100.431320  0.000000 -0.923879 -0.382684  0.080010 0.012583 0
APCHE_TailRotor1
0  6.200000 204.495529 79.182098  0.027942 -0.620809 -0.783463  0.412220 0.303187 0
0  6.600000 207.685028 76.669037  0.027942 -0.620809 -0.783463  0.426541 0.328189 0
0  7.200000 207.712036 76.669037  0.027942 -0.620809 -0.783463  0.426541 0.328189 0
APCHE_TailRotor1
0  5.375000 195.693817 100.431320  -0.999433 -0.012887 0.031113  0.080010 0.012583 0
0  4.600000 209.114929 81.095520  -0.999433 -0.012887 0.031113  0.380633 0.447626 0
0  4.600000 204.495529 79.182098  -0.999433 -0.012887 0.031113  0.412220 0.303187 0
APCHE_TailRotor1
0  5.925000 195.693817 100.431320  0.000000 -0.382686 0.923879  0.080010 0.012583 0
0  5.375000 200.313217 102.344742  0.000000 -0.382686 0.923879  0.048423 0.157022 0
0  5.375000 195.693817 100.431320  0.000000 -0.382686 0.923879  0.080010 0.012583 0
APCHE_TailRotor1
0  6.200000 209.114929 81.095520  0.000000 0.923879 0.382685  0.380633 0.447626 0
0  5.375000 200.313217 102.344742  0.000000 0.923879 0.382685  0.048423 0.157022 0
0  5.925000 200.313217 102.344742  0.000000 0.923879 0.382685  0.048423 0.157022 0
APCHE_TailRotor1
0  6.200000 204.495529 79.182098  0.999929 -0.004575 0.011046  0.412220 0.303187 0
0  5.925000 200.313217 102.344742  0.999929 -0.004575 0.011046  0.048423 0.157022 0
0  5.925000 195.693817 100.431320  0.999929 -0.004575 0.011046  0.080010 0.012583 0
APCHE_TailRotor1
0  6.600000 210.401642 77.817093  -0.009143 0.838238 0.545228  0.398112 0.458184 0
0  7.200000 211.684647 75.854675  -0.009143 0.838238 0.545228  0.444102 0.501640 0
0  6.600000 211.678101 75.854675  -0.009143 0.838238 0.545228  0.444102 0.501640 0
APCHE_TailRotor1
0  4.600000 204.495529 79.182098  -0.871626 0.190810 -0.451509  0.412220 0.303187 0
0  6.600000 210.401642 77.817093  -0.871626 0.190810 -0.451509  0.398112 0.458184 0
0  6.600000 207.685028 76.669037  -0.871626 0.190810 -0.451509  0.426541 0.328189 0
APCHE_TailRotor1
0  6.200000 209.114929 81.095520  0.962183 -0.105956 0.250952  0.380633 0.447626 0
0  7.200000 207.712036 76.669037  0.962183 -0.105956 0.250952  0.426541 0.328189 0
0  7.200000 210.431137 77.817093  0.962183 -0.105956 0.250952  0.398112 0.458184 0
APCHE_TailRotor1
0  4.600000 209.114929 81.095520  -0.046166 0.939141 0.340417  0.380633 0.447626 0
0  7.200000 210.431137 77.817093  -0.046166 0.939141 0.340417  0.398112 0.458184 0
0  6.600000 210.401642 77.817093  -0.046166 0.939141 0.340417  0.398112 0.458184 0
APCHE_TailRotor1
0  6.600000 210.505768 73.031219  0.000000 0.382684 -0.923879  0.507622 0.464932 0
0  7.200000 212.584488 73.892258  0.000000 0.382684 -0.923879  0.493407 0.529930 0
0  7.200000 210.505768 73.031219  0.000000 0.382684 -0.923879  0.507622 0.464932 0
APCHE_TailRotor1
0  7.200000 207.712036 76.669037  0.004280 -0.758546 -0.651605  0.426541 0.328189 0
0  6.600000 209.271118 74.850128  0.004280 -0.758546 -0.651605  0.468976 0.387894 0
0  7.200000 209.274506 74.850128  0.004280 -0.758546 -0.651605  0.468976 0.387894 0
APCHE_TailRotor1
0  6.600000 207.685028 76.669037  -1.000000 0.000000 0.000000  0.426541 0.328189 0
0  6.600000 211.678101 75.854675  -1.000000 0.000000 0.000000  0.444102 0.501640 0
0  6.600000 209.271118 74.850128  -1.000000 0.000000 0.000000  0.468976 0.387894 0
APCHE_TailRotor1
0  7.200000 210.431137 77.817093  1.000000 0.000000 0.000000  0.398112 0.458184 0
0  7.200000 209.274506 74.850128  1.000000 0.000000 0.000000  0.468976 0.387894 0
0  7.200000 211.684647 75.854675  1.000000 0.000000 0.000000  0.444102 0.501640 0
APCHE_TailRotor1
0  4.600000 218.779495 67.817902  0.000000 0.923879 0.382684  0.587546 0.697453 0
0  5.925000 227.581207 46.568680  0.000000 0.923879 0.382684  0.919756 0.988056 0
0  5.375000 227.581207 46.568680  0.000000 0.923879 0.382684  0.919756 0.988056 0
APCHE_TailRotor1
0  6.200000 218.779495 67.817902  0.027942 0.620809 0.783463  0.587546 0.697453 0
0  6.600000 215.589996 70.330963  0.027942 0.620809 0.783463  0.573067 0.673173 0
0  7.200000 215.562988 70.330963  0.027942 0.620809 0.783463  0.573067 0.673173 0
APCHE_TailRotor1
0  5.375000 227.581207 46.568680  -0.999433 0.012887 -0.031113  0.919756 0.988056 0
0  4.600000 214.160095 65.904480  -0.999433 0.012887 -0.031113  0.619133 0.553014 0
0  4.600000 218.779495 67.817902  -0.999433 0.012887 -0.031113  0.587546 0.697453 0
APCHE_TailRotor1
0  5.925000 227.581207 46.568680  0.000000 0.382684 -0.923879  0.919756 0.988056 0
0  5.375000 222.961807 44.655258  0.000000 0.382684 -0.923879  0.951343 0.843617 0
0  5.375000 227.581207 46.568680  0.000000 0.382684 -0.923879  0.919756 0.988056 0
APCHE_TailRotor1
0  6.200000 214.160095 65.904480  0.000000 -0.923880 -0.382682  0.619133 0.553014 0
0  5.375000 222.961807 44.655258  0.000000 -0.923880 -0.382682  0.951343 0.843617 0
0  5.925000 222.961807 44.655258  0.000000 -0.923880 -0.382682  0.951343 0.843617 0
APCHE_TailRotor1
0  6.200000 218.779495 67.817902  0.999929 0.004575 -0.011046  0.587546 0.697453 0
0  5.925000 222.961807 44.655258  0.999929 0.004575 -0.011046  0.951343 0.843617 0
0  5.925000 227.581207 46.568680  0.999929 0.004575 -0.011046  0.919756 0.988056 0
APCHE_TailRotor1
0  6.600000 212.873383 69.182907  -0.008808 -0.814728 -0.579776  0.601496 0.543177 0
0  7.200000 211.497620 71.107071  -0.008808 -0.814728 -0.579776  0.556454 0.495388 0
0  6.600000 211.504105 71.107071  -0.008808 -0.814728 -0.579776  0.556454 0.495388 0
APCHE_TailRotor1
0  4.600000 218.779495 67.817902  -0.871626 -0.190810 0.451508  0.587546 0.697453 0
0  6.600000 212.873383 69.182907  -0.871626 -0.190810 0.451508  0.601496 0.543177 0
0  6.600000 215.589996 70.330963  -0.871626 -0.190810 0.451508  0.573067 0.673173 0
APCHE_TailRotor1
0  6.200000 214.160095 65.904480  0.962183 0.105956 -0.250952  0.619133 0.553014 0
0  7.200000 215.562988 70.330963  0.962183 0.105956 -0.250952  0.573067 0.673173 0
0  7.200000 212.843887 69.182907  0.962183 0.105956 -0.250952  0.601496 0.543177 0
APCHE_TailRotor1
0  4.600000 214.160095 65.904480  -0.046167 -0.939148 -0.340398  0.619133 0.553014 0
0  7.200000 212.843887 69.182907  -0.046167 -0.939148 -0.340398  0.601496 0.543177 0
0  6.600000 212.873383 69.182907  -0.046167 -0.939148 -0.340398  0.601496 0.543177 0
APCHE_TailRotor1
0  7.200000 215.562988 70.330963  0.003779 0.732341 0.680927  0.573067 0.673173 0
0  6.600000 213.910492 72.111603  0.003779 0.732341 0.680927  0.531579 0.609134 0
0  7.200000 213.907394 72.111603  0.003779 0.732341 0.680927  0.531579 0.609134 0
APCHE_TailRotor1
0  6.600000 215.589996 70.330963  -1.000000 0.000000 0.000000  0.573067 0.673173 0
0  6.600000 211.504105 71.107071  -1.000000 0.000000 0.000000  0.556454 0.495388 0
0  6.600000 213.910492 72.111603  -1.000000 0.000000 0.000000  0.531579 0.609134 0
APCHE_TailRotor1
0  7.200000 212.843887 69.182907  1.000000 0.000000 0.000000  0.601496 0.543177 0
0  7.200000 213.907394 72.111603  1.000000 0.000000 0.000000  0.531579 0.609134 0
0  7.200000 211.497620 71.107071  1.000000 0.000000 0.000000  0.556454 0.495388 0
APCHE_TailRotor1
0  7.200000 209.274506 74.850128  1.000000 0.000000 0.000000  0.468976 0.387894 0
0  7.200000 212.584488 73.892258  1.000000 0.000000 0.000000  0.493407 0.529930 0
0  7.200000 211.684647 75.854675  1.000000 0.000000 0.000000  0.444102 0.501640 0
APCHE_TailRotor1
0  6.600000 209.271118 74.850128  0.004678 -0.828101 -0.560559  0.468976 0.387894 0
0  7.200000 210.505768 73.031219  0.004678 -0.828101 -0.560559  0.507622 0.464932 0
0  7.200000 209.274506 74.850128  0.004678 -0.828101 -0.560559  0.468976 0.387894 0
APCHE_TailRotor1
0  7.200000 211.684647 75.854675  -0.009894 0.907798 0.419291  0.444102 0.501640 0
0  6.600000 212.584488 73.892258  -0.009894 0.907798 0.419291  0.493407 0.529930 0
0  6.600000 211.678101 75.854675  -0.009894 0.907798 0.419291  0.444102 0.501640 0
APCHE_TailRotor1
0  6.600000 211.678101 75.854675  -1.000000 0.000000 0.000000  0.444102 0.501640 0
0  6.600000 210.505768 73.031219  -1.000000 0.000000 0.000000  0.507622 0.464932 0
0  6.600000 209.271118 74.850128  -1.000000 0.000000 0.000000  0.468976 0.387894 0
APCHE_TailRotor1
0  6.600000 211.504105 71.107071  -1.000000 -0.000000 0.000000  0.556454 0.495388 0
0  6.600000 212.584488 73.892258  -1.000000 -0.000000 0.000000  0.493407 0.529930 0
0  6.600000 213.910492 72.111603  -1.000000 -0.000000 0.000000  0.531579 0.609134 0
APCHE_TailRotor1
0  7.200000 211.497620 71.107071  -0.009596 -0.887596 -0.460522  0.556454 0.495388 0
0  6.600000 210.505768 73.031219  -0.009596 -0.887596 -0.460522  0.507622 0.464932 0
0  6.600000 211.504105 71.107071  -0.009596 -0.887596 -0.460522  0.556454 0.495388 0
APCHE_TailRotor1
0  7.200000 213.907394 72.111603  1.000000 0.000000 0.000000  0.531579 0.609134 0
0  7.200000 210.505768 73.031219  1.000000 0.000000 0.000000  0.507622 0.464932 0
0  7.200000 211.497620 71.107071  1.000000 0.000000 0.000000  0.556454 0.495388 0
APCHE_TailRotor1
0  6.600000 213.910492 72.111603  0.004139 0.802713 0.596352  0.531579 0.609134 0
0  7.200000 212.584488 73.892258  0.004139 0.802713 0.596352  0.493407 0.529930 0
0  7.200000 213.907394 72.111603  0.004139 0.802713 0.596352  0.531579 0.609134 0
APCHE_TailRotor1
0  2.886806 212.898361 72.788712  -0.999999 0.000797 -0.000788  0.520794 0.467945 0
0  2.886756 212.145676 72.091736  -0.999999 0.000797 -0.000788  0.497508 0.429657 0
0  2.886169 211.448273 72.130630  -0.999999 0.000797 -0.000788  0.475734 0.431404 0
APCHE_TailRotor1
0  7.908263 212.624725 73.123352  0.742535 0.455079 -0.491472  0.499487 0.489189 0
0  7.908206 211.851807 72.407600  0.742535 0.455079 -0.491472  0.487530 0.469554 0
0  6.914502 212.505463 71.511543  0.742535 0.455079 -0.491472  0.497835 0.445363 0
APCHE_TailRotor1
0  7.908206 211.851807 72.407600  0.740339 -0.508391 -0.439815  0.487530 0.469554 0
0  7.906824 211.034531 73.349976  0.740339 -0.508391 -0.439815  0.474648 0.494986 0
0  6.911253 210.133530 72.715614  0.740339 -0.508391 -0.439815  0.460664 0.477529 0
APCHE_TailRotor1
0  2.886756 212.145676 72.091736  -0.137630 -0.054098 -0.989005  0.497508 0.429657 0
0  6.914502 212.505463 71.511543  -0.137630 -0.054098 -0.989005  0.497835 0.445363 0
0  6.913084 211.109283 71.588112  -0.137630 -0.054098 -0.989005  0.476049 0.447119 0
APCHE_TailRotor1
0  2.884843 210.672867 73.028000  -0.126928 -0.989294 0.072018  0.451277 0.479775 0
0  6.911253 210.133530 72.715614  -0.126928 -0.989294 0.072018  0.460664 0.477529 0
0  6.912005 210.236435 74.130623  -0.126928 -0.989294 0.072018  0.462072 0.516019 0
APCHE_TailRotor1
0  7.906824 211.034531 73.349976  0.745020 -0.434721 0.505927  0.474648 0.494986 0
0  7.906906 211.840988 74.042801  0.745020 -0.434721 0.505927  0.487117 0.513994 0
0  6.912014 211.195038 74.952820  0.745020 -0.434721 0.505927  0.476883 0.538597 0
APCHE_TailRotor1
0  2.884394 211.514572 74.411964  -0.126666 0.077265 0.988932  0.477172 0.555501 0
0  6.912014 211.195038 74.952820  -0.126666 0.077265 0.988932  0.476883 0.538597 0
0  6.912336 212.610519 74.842270  -0.126666 0.077265 0.988932  0.498983 0.535921 0
APCHE_TailRotor1
0  7.906906 211.840988 74.042801  0.743011 0.508801 0.434806  0.487117 0.513994 0
0  7.908263 212.624725 73.123352  0.743011 0.508801 0.434806  0.499487 0.489189 0
0  6.913826 213.498962 73.799660  0.743011 0.508801 0.434806  0.513012 0.507803 0
APCHE_TailRotor1
0  2.886261 212.941299 73.512482  -0.132815 0.989406 -0.058619  0.521934 0.507327 0
0  6.913826 213.498962 73.799660  -0.132815 0.989406 -0.058619  0.513012 0.507803 0
0  6.914544 213.413330 72.352264  -0.132815 0.989406 -0.058619  0.511887 0.468438 0
APCHE_TailRotor1
0  2.884318 210.725296 73.735641  -0.151679 -0.643499 0.750269  0.452719 0.518286 0
0  6.912005 210.236435 74.130623  -0.151679 -0.643499 0.750269  0.462072 0.516019 0
0  6.912014 211.195038 74.952820  -0.151679 -0.643499 0.750269  0.476883 0.538597 0
APCHE_TailRotor1
0  7.906906 211.840988 74.042801  0.999999 -0.000780 0.000790  0.487117 0.513994 0
0  7.906824 211.034531 73.349976  0.999999 -0.000780 0.000790  0.474648 0.494986 0
0  7.908206 211.851807 72.407600  0.999999 -0.000780 0.000790  0.487530 0.469554 0
APCHE_TailRotor1
0  2.885002 212.222610 74.356056  -0.149899 0.752639 0.641144  0.499284 0.552837 0
0  6.912336 212.610519 74.842270  -0.149899 0.752639 0.641144  0.498983 0.535921 0
0  6.913826 213.498962 73.799660  -0.149899 0.752639 0.641144  0.513012 0.507803 0
APCHE_TailRotor1
0  6.914502 212.505463 71.511543  -0.164128 0.670223 -0.723784  0.497835 0.445363 0
0  2.886756 212.145676 72.091736  -0.164128 0.670223 -0.723784  0.497508 0.429657 0
0  2.886806 212.898361 72.788712  -0.164128 0.670223 -0.723784  0.520794 0.467945 0
APCHE_TailRotor1
0  6.913084 211.109283 71.588112  -0.150327 -0.747442 -0.647095  0.476049 0.447119 0
0  6.911253 210.133530 72.715614  -0.150327 -0.747442 -0.647095  0.460664 0.477529 0
0  2.884843 210.672867 73.028000  -0.150327 -0.747442 -0.647095  0.451277 0.479775 0
APCHE_TailRotor1
0  4.600000 205.955414 66.358025  0.000000 0.382684 -0.923879  0.412220 0.303187 0
0  6.200000 205.955414 66.358025  0.000000 0.382684 -0.923879  0.412220 0.303187 0
0  5.925000 184.706192 57.556305  0.000000 0.382684 -0.923879  0.080010 0.012583 0
APCHE_TailRotor1
0  6.200000 205.955414 66.358025  0.000000 0.785479 -0.618889  0.412220 0.303187 0
0  4.600000 205.955414 66.358025  0.000000 0.785479 -0.618889  0.412220 0.303187 0
0  6.600000 208.468475 69.547523  0.000000 0.785479 -0.618889  0.426541 0.328189 0
APCHE_TailRotor1
0  5.375000 184.706192 57.556305  -0.999433 -0.031113 -0.012887  0.080010 0.012583 0
0  5.375000 182.792770 62.175705  -0.999433 -0.031113 -0.012887  0.048423 0.157022 0
0  4.600000 204.041992 70.977425  -0.999433 -0.031113 -0.012887  0.380633 0.447626 0
APCHE_TailRotor1
0  5.925000 184.706192 57.556305  0.000000 -0.923879 -0.382684  0.080010 0.012583 0
0  5.925000 182.792770 62.175705  0.000000 -0.923879 -0.382684  0.048423 0.157022 0
0  5.375000 182.792770 62.175705  0.000000 -0.923879 -0.382684  0.048423 0.157022 0
APCHE_TailRotor1
0  6.200000 204.041992 70.977425  0.000000 -0.382684 0.923879  0.380633 0.447626 0
0  4.600000 204.041992 70.977425  0.000000 -0.382684 0.923879  0.380633 0.447626 0
0  5.375000 182.792770 62.175705  0.000000 -0.382684 0.923879  0.048423 0.157022 0
APCHE_TailRotor1
0  6.200000 205.955414 66.358025  0.999929 -0.011046 -0.004575  0.412220 0.303187 0
0  6.200000 204.041992 70.977425  0.999929 -0.011046 -0.004575  0.380633 0.447626 0
0  5.925000 182.792770 62.175705  0.999929 -0.011046 -0.004575  0.048423 0.157022 0
APCHE_TailRotor1
0  6.600000 207.320419 72.264137  -0.041378 -0.537850 0.842025  0.398112 0.458184 0
0  7.200000 207.320419 72.293625  -0.041378 -0.537850 0.842025  0.398112 0.458184 0
0  7.200000 209.282837 73.547142  -0.041378 -0.537850 0.842025  0.444102 0.501640 0
APCHE_TailRotor1
0  4.600000 205.955414 66.358025  -0.869534 0.456280 0.188995  0.412220 0.303187 0
0  4.600000 204.041992 70.977425  -0.869534 0.456280 0.188995  0.380633 0.447626 0
0  6.600000 207.320419 72.264137  -0.869534 0.456280 0.188995  0.398112 0.458184 0
APCHE_TailRotor1
0  6.200000 204.041992 70.977425  0.962593 -0.250325 -0.103688  0.380633 0.447626 0
0  6.200000 205.955414 66.358025  0.962593 -0.250325 -0.103688  0.412220 0.303187 0
0  7.200000 208.468475 69.574524  0.962593 -0.250325 -0.103688  0.426541 0.328189 0
APCHE_TailRotor1
0  4.600000 204.041992 70.977425  0.000000 -0.372565 0.928006  0.380633 0.447626 0
0  6.200000 204.041992 70.977425  0.000000 -0.372565 0.928006  0.380633 0.447626 0
0  7.200000 207.320419 72.293625  0.000000 -0.372565 0.928006  0.398112 0.458184 0
APCHE_TailRotor1
0  6.600000 212.106293 72.368248  0.000000 0.923877 0.382689  0.507622 0.464932 0
0  6.600000 211.245255 74.446976  0.000000 0.923877 0.382689  0.493407 0.529930 0
0  7.200000 211.245255 74.446976  0.000000 0.923877 0.382689  0.493407 0.529930 0
APCHE_TailRotor1
0  7.200000 208.468475 69.574524  0.033912 0.656839 -0.753268  0.426541 0.328189 0
0  6.600000 208.468475 69.547523  0.033912 0.656839 -0.753268  0.426541 0.328189 0
0  6.600000 210.287384 71.133598  0.033912 0.656839 -0.753268  0.468976 0.387894 0
APCHE_TailRotor1
0  6.600000 208.468475 69.547523  -1.000000 -0.000000 0.000000  0.426541 0.328189 0
0  6.600000 207.320419 72.264137  -1.000000 -0.000000 0.000000  0.398112 0.458184 0
0  6.600000 209.282837 73.540588  -1.000000 -0.000000 0.000000  0.444102 0.501640 0
APCHE_TailRotor1
0  7.200000 207.320419 72.293625  1.000000 0.000000 0.000000  0.398112 0.458184 0
0  7.200000 208.468475 69.574524  1.000000 0.000000 0.000000  0.426541 0.328189 0
0  7.200000 210.287384 71.136986  1.000000 0.000000 0.000000  0.468976 0.387894 0
APCHE_TailRotor1
0  4.600000 217.319611 80.641975  0.000000 -0.382684 0.923879  0.587546 0.697453 0
0  6.200000 217.319611 80.641975  0.000000 -0.382684 0.923879  0.587546 0.697453 0
0  5.925000 238.568832 89.443695  0.000000 -0.382684 0.923879  0.919756 0.988056 0
APCHE_TailRotor1
0  6.200000 217.319611 80.641975  0.000000 -0.785474 0.618894  0.587546 0.697453 0
0  4.600000 217.319611 80.641975  0.000000 -0.785474 0.618894  0.587546 0.697453 0
0  6.600000 214.806549 77.452477  0.000000 -0.785474 0.618894  0.573067 0.673173 0
APCHE_TailRotor1
0  5.375000 238.568832 89.443695  -0.999433 0.031113 0.012887  0.919756 0.988056 0
0  5.375000 240.482254 84.824295  -0.999433 0.031113 0.012887  0.951343 0.843617 0
0  4.600000 219.233032 76.022575  -0.999433 0.031113 0.012887  0.619133 0.553014 0
APCHE_TailRotor1
0  5.925000 238.568832 89.443695  0.000000 0.923881 0.382679  0.919756 0.988056 0
0  5.925000 240.482254 84.824295  0.000000 0.923881 0.382679  0.951343 0.843617 0
0  5.375000 240.482254 84.824295  0.000000 0.923881 0.382679  0.951343 0.843617 0
APCHE_TailRotor1
0  6.200000 219.233032 76.022575  0.000000 0.382684 -0.923879  0.619133 0.553014 0
0  4.600000 219.233032 76.022575  0.000000 0.382684 -0.923879  0.619133 0.553014 0
0  5.375000 240.482254 84.824295  0.000000 0.382684 -0.923879  0.951343 0.843617 0
APCHE_TailRotor1
0  6.200000 217.319611 80.641975  0.999929 0.011046 0.004575  0.587546 0.697453 0
0  6.200000 219.233032 76.022575  0.999929 0.011046 0.004575  0.619133 0.553014 0
0  5.925000 240.482254 84.824295  0.999929 0.011046 0.004575  0.951343 0.843617 0
APCHE_TailRotor1
0  6.600000 215.954605 74.735863  -0.040231 0.572809 -0.818701  0.601496 0.543177 0
0  7.200000 215.954605 74.706375  -0.040231 0.572809 -0.818701  0.601496 0.543177 0
0  7.200000 214.030441 73.360107  -0.040231 0.572809 -0.818701  0.556454 0.495388 0
APCHE_TailRotor1
0  4.600000 217.319611 80.641975  -0.869534 -0.456280 -0.188995  0.587546 0.697453 0
0  4.600000 219.233032 76.022575  -0.869534 -0.456280 -0.188995  0.619133 0.553014 0
0  6.600000 215.954605 74.735863  -0.869534 -0.456280 -0.188995  0.601496 0.543177 0
APCHE_TailRotor1
0  6.200000 219.233032 76.022575  0.962593 0.250325 0.103688  0.619133 0.553014 0
0  6.200000 217.319611 80.641975  0.962593 0.250325 0.103688  0.587546 0.697453 0
0  7.200000 214.806549 77.425476  0.962593 0.250325 0.103688  0.573067 0.673173 0
APCHE_TailRotor1
0  4.600000 219.233032 76.022575  0.000000 0.372571 -0.928004  0.619133 0.553014 0
0  6.200000 219.233032 76.022575  0.000000 0.372571 -0.928004  0.619133 0.553014 0
0  7.200000 215.954605 74.706375  0.000000 0.372571 -0.928004  0.601496 0.543177 0
APCHE_TailRotor1
0  7.200000 214.806549 77.425476  0.032731 -0.685775 0.727078  0.573067 0.673173 0
0  6.600000 214.806549 77.452477  0.032731 -0.685775 0.727078  0.573067 0.673173 0
0  6.600000 213.025909 75.772980  0.032731 -0.685775 0.727078  0.531579 0.609134 0
APCHE_TailRotor1
0  6.600000 214.806549 77.452477  -1.000000 0.000000 0.000000  0.573067 0.673173 0
0  6.600000 215.954605 74.735863  -1.000000 0.000000 0.000000  0.601496 0.543177 0
0  6.600000 214.030441 73.366585  -1.000000 0.000000 0.000000  0.556454 0.495388 0
APCHE_TailRotor1
0  7.200000 215.954605 74.706375  1.000000 0.000000 0.000000  0.601496 0.543177 0
0  7.200000 214.806549 77.425476  1.000000 0.000000 0.000000  0.573067 0.673173 0
0  7.200000 213.025909 75.769882  1.000000 0.000000 0.000000  0.531579 0.609134 0
APCHE_TailRotor1
0  7.200000 210.287384 71.136986  1.000000 0.000000 0.000000  0.468976 0.387894 0
0  7.200000 212.106293 72.368248  1.000000 0.000000 0.000000  0.507622 0.464932 0
0  7.200000 211.245255 74.446976  1.000000 0.000000 0.000000  0.493407 0.529930 0
APCHE_TailRotor1
0  6.600000 210.287384 71.133598  0.000000 0.561626 -0.827391  0.468976 0.387894 0
0  6.600000 212.106293 72.368248  0.000000 0.561626 -0.827391  0.507622 0.464932 0
0  7.200000 212.106293 72.368248  0.000000 0.561626 -0.827391  0.507622 0.464932 0
APCHE_TailRotor1
0  7.200000 209.282837 73.547142  0.000000 -0.416803 0.908997  0.444102 0.501640 0
0  7.200000 211.245255 74.446976  0.000000 -0.416803 0.908997  0.493407 0.529930 0
0  6.600000 211.245255 74.446976  0.000000 -0.416803 0.908997  0.493407 0.529930 0
APCHE_TailRotor1
0  6.600000 209.282837 73.540588  -1.000000 0.000000 0.000000  0.444102 0.501640 0
0  6.600000 211.245255 74.446976  -1.000000 0.000000 0.000000  0.493407 0.529930 0
0  6.600000 212.106293 72.368248  -1.000000 0.000000 0.000000  0.507622 0.464932 0
APCHE_TailRotor1
0  6.600000 214.030441 73.366585  -1.000000 0.000000 0.000000  0.556454 0.495388 0
0  6.600000 212.106293 72.368248  -1.000000 0.000000 0.000000  0.507622 0.464932 0
0  6.600000 211.245255 74.446976  -1.000000 0.000000 0.000000  0.493407 0.529930 0
APCHE_TailRotor1
0  7.200000 214.030441 73.360107  0.000000 0.458191 -0.888854  0.556454 0.495388 0
0  7.200000 212.106293 72.368248  0.000000 0.458191 -0.888854  0.507622 0.464932 0
0  6.600000 212.106293 72.368248  0.000000 0.458191 -0.888854  0.507622 0.464932 0
APCHE_TailRotor1
0  7.200000 213.025909 75.769882  1.000000 -0.000000 0.000000  0.531579 0.609134 0
0  7.200000 211.245255 74.446976  1.000000 -0.000000 0.000000  0.493407 0.529930 0
0  7.200000 212.106293 72.368248  1.000000 -0.000000 0.000000  0.507622 0.464932 0
APCHE_TailRotor1
0  6.600000 213.025909 75.772980  0.000000 -0.597258 0.802049  0.531579 0.609134 0
0  6.600000 211.245255 74.446976  0.000000 -0.597258 0.802049  0.493407 0.529930 0
0  7.200000 211.245255 74.446976  0.000000 -0.597258 0.802049  0.493407 0.529930 0
APCHE_TailRotor1
0  4.600000 204.495529 79.182098  0.000000 -0.923879 -0.382684  0.412220 0.303187 0
0  6.200000 204.495529 79.182098  0.000000 -0.923879 -0.382684  0.412220 0.303187 0
0  5.925000 195.693817 100.431320  0.000000 -0.923879 -0.382684  0.080010 0.012583 0
APCHE_TailRotor1
0  6.200000 204.495529 79.182098  0.000000 -0.618895 -0.785474  0.412220 0.303187 0
0  4.600000 204.495529 79.182098  0.000000 -0.618895 -0.785474  0.412220 0.303187 0
0  6.600000 207.685028 76.669037  0.000000 -0.618895 -0.785474  0.426541 0.328189 0
APCHE_TailRotor1
0  5.375000 195.693817 100.431320  -0.999433 -0.012888 0.031113  0.080010 0.012583 0
0  5.375000 200.313217 102.344742  -0.999433 -0.012888 0.031113  0.048423 0.157022 0
0  4.600000 209.114929 81.095520  -0.999433 -0.012888 0.031113  0.380633 0.447626 0
APCHE_TailRotor1
0  5.925000 195.693817 100.431320  0.000000 -0.382683 0.923880  0.080010 0.012583 0
0  5.925000 200.313217 102.344742  0.000000 -0.382683 0.923880  0.048423 0.157022 0
0  5.375000 200.313217 102.344742  0.000000 -0.382683 0.923880  0.048423 0.157022 0
APCHE_TailRotor1
0  6.200000 209.114929 81.095520  0.000000 0.923880 0.382683  0.380633 0.447626 0
0  4.600000 209.114929 81.095520  0.000000 0.923880 0.382683  0.380633 0.447626 0
0  5.375000 200.313217 102.344742  0.000000 0.923880 0.382683  0.048423 0.157022 0
APCHE_TailRotor1
0  6.200000 204.495529 79.182098  0.999929 -0.004575 0.011046  0.412220 0.303187 0
0  6.200000 209.114929 81.095520  0.999929 -0.004575 0.011046  0.380633 0.447626 0
0  5.925000 200.313217 102.344742  0.999929 -0.004575 0.011046  0.048423 0.157022 0
APCHE_TailRotor1
0  6.600000 210.401642 77.817093  -0.041400 0.842019 0.537857  0.398112 0.458184 0
0  7.200000 210.431137 77.817093  -0.041400 0.842019 0.537857  0.398112 0.458184 0
0  7.200000 211.684647 75.854675  -0.041400 0.842019 0.537857  0.444102 0.501640 0
APCHE_TailRotor1
0  4.600000 204.495529 79.182098  -0.869533 0.188998 -0.456281  0.412220 0.303187 0
0  4.600000 209.114929 81.095520  -0.869533 0.188998 -0.456281  0.380633 0.447626 0
0  6.600000 210.401642 77.817093  -0.869533 0.188998 -0.456281  0.398112 0.458184 0
APCHE_TailRotor1
0  6.200000 209.114929 81.095520  0.962593 -0.103688 0.250325  0.380633 0.447626 0
0  6.200000 204.495529 79.182098  0.962593 -0.103688 0.250325  0.412220 0.303187 0
0  7.200000 207.712036 76.669037  0.962593 -0.103688 0.250325  0.426541 0.328189 0
APCHE_TailRotor1
0  4.600000 209.114929 81.095520  0.000000 0.928004 0.372570  0.380633 0.447626 0
0  6.200000 209.114929 81.095520  0.000000 0.928004 0.372570  0.380633 0.447626 0
0  7.200000 210.431137 77.817093  0.000000 0.928004 0.372570  0.398112 0.458184 0
APCHE_TailRotor1
0  6.600000 210.505768 73.031219  0.000000 0.382687 -0.923878  0.507622 0.464932 0
0  6.600000 212.584488 73.892258  0.000000 0.382687 -0.923878  0.493407 0.529930 0
0  7.200000 212.584488 73.892258  0.000000 0.382687 -0.923878  0.493407 0.529930 0
APCHE_TailRotor1
0  7.200000 207.712036 76.669037  0.033902 -0.753266 -0.656842  0.426541 0.328189 0
0  6.600000 207.685028 76.669037  0.033902 -0.753266 -0.656842  0.426541 0.328189 0
0  6.600000 209.271118 74.850128  0.033902 -0.753266 -0.656842  0.468976 0.387894 0
APCHE_TailRotor1
0  6.600000 207.685028 76.669037  -1.000000 0.000000 0.000000  0.426541 0.328189 0
0  6.600000 210.401642 77.817093  -1.000000 0.000000 0.000000  0.398112 0.458184 0
0  6.600000 211.678101 75.854675  -1.000000 0.000000 0.000000  0.444102 0.501640 0
APCHE_TailRotor1
0  7.200000 210.431137 77.817093  1.000000 0.000000 0.000000  0.398112 0.458184 0
0  7.200000 207.712036 76.669037  1.000000 0.000000 0.000000  0.426541 0.328189 0
0  7.200000 209.274506 74.850128  1.000000 0.000000 0.000000  0.468976 0.387894 0
APCHE_TailRotor1
0  4.600000 218.779495 67.817902  0.000000 0.923880 0.382683  0.587546 0.697453 0
0  6.200000 218.779495 67.817902  0.000000 0.923880 0.382683  0.587546 0.697453 0
0  5.925000 227.581207 46.568680  0.000000 0.923880 0.382683  0.919756 0.988056 0
APCHE_TailRotor1
0  6.200000 218.779495 67.817902  0.000000 0.618890 0.785478  0.587546 0.697453 0
0  4.600000 218.779495 67.817902  0.000000 0.618890 0.785478  0.587546 0.697453 0
0  6.600000 215.589996 70.330963  0.000000 0.618890 0.785478  0.573067 0.673173 0
APCHE_TailRotor1
0  5.375000 227.581207 46.568680  -0.999433 0.012888 -0.031113  0.919756 0.988056 0
0  5.375000 222.961807 44.655258  -0.999433 0.012888 -0.031113  0.951343 0.843617 0
0  4.600000 214.160095 65.904480  -0.999433 0.012888 -0.031113  0.619133 0.553014 0
APCHE_TailRotor1
0  5.925000 227.581207 46.568680  0.000000 0.382683 -0.923880  0.919756 0.988056 0
0  5.925000 222.961807 44.655258  0.000000 0.382683 -0.923880  0.951343 0.843617 0
0  5.375000 222.961807 44.655258  0.000000 0.382683 -0.923880  0.951343 0.843617 0
APCHE_TailRotor1
0  6.200000 214.160095 65.904480  0.000000 -0.923880 -0.382683  0.619133 0.553014 0
0  4.600000 214.160095 65.904480  0.000000 -0.923880 -0.382683  0.619133 0.553014 0
0  5.375000 222.961807 44.655258  0.000000 -0.923880 -0.382683  0.951343 0.843617 0
APCHE_TailRotor1
0  6.200000 218.779495 67.817902  0.999929 0.004575 -0.011046  0.587546 0.697453 0
0  6.200000 214.160095 65.904480  0.999929 0.004575 -0.011046  0.619133 0.553014 0
0  5.925000 222.961807 44.655258  0.999929 0.004575 -0.011046  0.951343 0.843617 0
APCHE_TailRotor1
0  6.600000 212.873383 69.182907  -0.040252 -0.818694 -0.572817  0.601496 0.543177 0
0  7.200000 212.843887 69.182907  -0.040252 -0.818694 -0.572817  0.601496 0.543177 0
0  7.200000 211.497620 71.107071  -0.040252 -0.818694 -0.572817  0.556454 0.495388 0
APCHE_TailRotor1
0  4.600000 218.779495 67.817902  -0.869533 -0.188998 0.456281  0.587546 0.697453 0
0  4.600000 214.160095 65.904480  -0.869533 -0.188998 0.456281  0.619133 0.553014 0
0  6.600000 212.873383 69.182907  -0.869533 -0.188998 0.456281  0.601496 0.543177 0
APCHE_TailRotor1
0  6.200000 214.160095 65.904480  0.962594 0.103688 -0.250323  0.619133 0.553014 0
0  6.200000 218.779495 67.817902  0.962594 0.103688 -0.250323  0.587546 0.697453 0
0  7.200000 215.562988 70.330963  0.962594 0.103688 -0.250323  0.573067 0.673173 0
APCHE_TailRotor1
0  4.600000 214.160095 65.904480  0.000000 -0.928001 -0.372579  0.619133 0.553014 0
0  6.200000 214.160095 65.904480  0.000000 -0.928001 -0.372579  0.619133 0.553014 0
0  7.200000 212.843887 69.182907  0.000000 -0.928001 -0.372579  0.601496 0.543177 0
APCHE_TailRotor1
0  7.200000 215.562988 70.330963  0.032721 0.727079 0.685773  0.573067 0.673173 0
0  6.600000 215.589996 70.330963  0.032721 0.727079 0.685773  0.573067 0.673173 0
0  6.600000 213.910492 72.111603  0.032721 0.727079 0.685773  0.531579 0.609134 0
APCHE_TailRotor1
0  6.600000 215.589996 70.330963  -1.000000 0.000000 0.000000  0.573067 0.673173 0
0  6.600000 212.873383 69.182907  -1.000000 0.000000 0.000000  0.601496 0.543177 0
0  6.600000 211.504105 71.107071  -1.000000 0.000000 0.000000  0.556454 0.495388 0
APCHE_TailRotor1
0  7.200000 212.843887 69.182907  1.000000 -0.000000 0.000000  0.601496 0.543177 0
0  7.200000 215.562988 70.330963  1.000000 -0.000000 0.000000  0.573067 0.673173 0
0  7.200000 213.907394 72.111603  1.000000 -0.000000 0.000000  0.531579 0.609134 0
APCHE_TailRotor1
0  7.200000 209.274506 74.850128  1.000000 -0.000000 0.000000  0.468976 0.387894 0
0  7.200000 210.505768 73.031219  1.000000 -0.000000 0.000000  0.507622 0.464932 0
0  7.200000 212.584488 73.892258  1.000000 -0.000000 0.000000  0.493407 0.529930 0
APCHE_TailRotor1
0  6.600000 209.271118 74.850128  0.000000 -0.827390 -0.561627  0.468976 0.387894 0
0  6.600000 210.505768 73.031219  0.000000 -0.827390 -0.561627  0.507622 0.464932 0
0  7.200000 210.505768 73.031219  0.000000 -0.827390 -0.561627  0.507622 0.464932 0
APCHE_TailRotor1
0  7.200000 211.684647 75.854675  0.000000 0.908996 0.416806  0.444102 0.501640 0
0  7.200000 212.584488 73.892258  0.000000 0.908996 0.416806  0.493407 0.529930 0
0  6.600000 212.584488 73.892258  0.000000 0.908996 0.416806  0.493407 0.529930 0
APCHE_TailRotor1
0  6.600000 211.678101 75.854675  -1.000000 0.000000 0.000000  0.444102 0.501640 0
0  6.600000 212.584488 73.892258  -1.000000 0.000000 0.000000  0.493407 0.529930 0
0  6.600000 210.505768 73.031219  -1.000000 0.000000 0.000000  0.507622 0.464932 0
APCHE_TailRotor1
0  6.600000 211.504105 71.107071  -1.000000 0.000000 0.000000  0.556454 0.495388 0
0  6.600000 210.505768 73.031219  -1.000000 0.000000 0.000000  0.507622 0.464932 0
0  6.600000 212.584488 73.892258  -1.000000 0.000000 0.000000  0.493407 0.529930 0
APCHE_TailRotor1
0  7.200000 211.497620 71.107071  0.000000 -0.888858 -0.458182  0.556454 0.495388 0
0  7.200000 210.505768 73.031219  0.000000 -0.888858 -0.458182  0.507622 0.464932 0
0  6.600000 210.505768 73.031219  0.000000 -0.888858 -0.458182  0.507622 0.464932 0
APCHE_TailRotor1
0  7.200000 213.907394 72.111603  1.000000 0.000000 0.000000  0.531579 0.609134 0
0  7.200000 212.584488 73.892258  1.000000 0.000000 0.000000  0.493407 0.529930 0
0  7.200000 210.505768 73.031219  1.000000 0.000000 0.000000  0.507622 0.464932 0
APCHE_TailRotor1
0  6.600000 213.910492 72.111603  0.000000 0.802045 0.597264  0.531579 0.609134 0
0  6.600000 212.584488 73.892258  0.000000 0.802045 0.597264  0.493407 0.529930 0
0  7.200000 212.584488 73.892258  0.000000 0.802045 0.597264  0.493407 0.529930 0
APCHE_TailRotor1
0  2.884318 210.725296 73.735641  -0.999999 0.000783 -0.000801  0.452719 0.518286 0
0  2.884394 211.514572 74.411964  -0.999999 0.000783 -0.000801  0.477172 0.555501 0
0  2.884843 210.672867 73.028000  -0.999999 0.000783 -0.000801  0.451277 0.479775 0
APCHE_TailRotor1
0  2.884394 211.514572 74.411964  -0.999999 0.000794 -0.000808  0.477172 0.555501 0
0  2.885002 212.222610 74.356056  -0.999999 0.000794 -0.000808  0.499284 0.552837 0
0  2.884843 210.672867 73.028000  -0.999999 0.000794 -0.000808  0.451277 0.479775 0
APCHE_TailRotor1
0  2.885002 212.222610 74.356056  -0.999999 0.000798 -0.000812  0.499284 0.552837 0
0  2.886261 212.941299 73.512482  -0.999999 0.000798 -0.000812  0.521934 0.507327 0
0  2.884843 210.672867 73.028000  -0.999999 0.000798 -0.000812  0.451277 0.479775 0
APCHE_TailRotor1
0  2.886261 212.941299 73.512482  -0.999999 0.000803 -0.000801  0.521934 0.507327 0
0  2.886806 212.898361 72.788712  -0.999999 0.000803 -0.000801  0.520794 0.467945 0
0  2.886169 211.448273 72.130630  -0.999999 0.000803 -0.000801  0.475734 0.431404 0
APCHE_TailRotor1
0  2.884843 210.672867 73.028000  -0.999999 0.000794 -0.000792  0.451277 0.479775 0
0  2.886261 212.941299 73.512482  -0.999999 0.000794 -0.000792  0.521934 0.507327 0
0  2.886169 211.448273 72.130630  -0.999999 0.000794 -0.000792  0.475734 0.431404 0
end
