// Created by Crowbar 0.42.0.0
version 1
nodes
  0 "Bip01" -1
  1 "Bip01 Pelvis" 0
  2 "Bip01 L Thigh" 1
  3 "Bip01 L Calf" 2
  4 "Bip01 L Foot" 3
  5 "Bip01 R Thigh" 1
  6 "Bip01 R Calf" 5
  7 "Bip01 R Foot" 6
  8 "Bip01 Spine" 1
  9 "Bip01 Spine1" 8
  10 "Bip01 Spine2" 9
  11 "Bip01 Spine3" 10
  12 "Bip01 Neck" 11
  13 "Bip01 L Clavicle" 12
  14 "Bip01 L UpperArm" 13
  15 "Bip01 L Forearm" 14
  16 "Bip01 L Hand" 15
  17 "Bip01 L Finger0" 16
  18 "Bip01 L Finger01" 17
  19 "Bip01 L Finger02" 18
  20 "Bip01 L Finger1" 16
  21 "Bip01 L Finger11" 20
  22 "Bip01 L Finger12" 21
  23 "Bip01 L Finger2" 16
  24 "Bip01 L Finger21" 23
  25 "Bip01 L Finger22" 24
  26 "Bip01 R Clavicle" 12
  27 "Bip01 R UpperArm" 26
  28 "Bip01 R Forearm" 27
  29 "Bip01 R Hand" 28
  30 "Bip01 R Finger0" 29
  31 "Bip01 R Finger01" 30
  32 "Bip01 R Finger02" 31
  33 "Bip01 R Finger1" 29
  34 "Bip01 R Finger11" 33
  35 "Bip01 R Finger12" 34
  36 "Bip01 R Finger2" 29
  37 "Bip01 R Finger21" 36
  38 "Bip01 R Finger22" 37
  39 "Bip01 Head" 12
  40 "Bone05" 39
  41 "m4" 29
  42 "SHOTGUN" 29
end
skeleton
  time 0
    0 0.075446 5.385825 4.404133 -0.327898 0.329241 -2.048743
    1 -0.526041 0.000001 9.745319 0.000000 -1.570796 -1.570861
    2 -0.000008 0.000010 5.615749 -2.666854 -0.195119 0.091353
    3 15.693463 0.000000 0.000000 0.000000 0.000000 -2.276930
    4 22.146631 -0.000002 0.000000 -0.166847 0.232124 -0.236026
    5 0.000008 -0.000006 -5.615750 -3.286831 0.352268 2.361985
    6 15.693462 0.000000 0.000000 0.000000 0.000000 -2.305171
    7 22.146631 -0.000001 0.000000 -0.656091 0.599380 0.175235
    8 1.384163 -0.004350 0.000002 -0.361842 0.294554 -0.084467
    9 5.934389 -0.004352 0.000000 0.000000 0.000000 0.000000
    10 5.934387 -0.004352 0.000000 0.000000 0.000000 0.165792
    11 4.992950 -0.004352 0.000000 0.000000 0.000000 0.000000
    12 4.992959 -0.001575 0.000000 0.000000 0.000000 0.000000
    13 0.000008 0.001564 3.638375 -0.000010 -1.284203 3.140806
    14 8.842830 0.000000 0.000000 -0.862504 0.398497 -1.122985
    15 9.341935 0.000000 -0.000003 0.000000 0.000000 -0.616346
    16 11.168050 0.000001 0.000002 -4.229884 0.602383 -0.623393
    17 1.517249 -0.028662 -1.542789 1.340822 0.669808 1.073159
    18 1.304994 -0.000032 0.000000 0.073375 0.019385 0.161222
    19 1.339555 0.000032 0.000002 0.029386 -0.015904 -0.088352
    20 4.291193 -1.106261 -1.537607 1.799064 -0.155480 0.478532
    21 1.556233 0.000001 0.000000 -0.110501 0.627319 -0.337152
    22 1.376937 0.000000 -0.000001 -0.047314 0.122357 -0.002898
    23 4.179307 -1.331745 -0.599849 1.721115 -0.276334 0.419196
    24 1.527707 0.000001 0.000001 -0.107780 0.590061 -0.342527
    25 1.426605 0.000018 0.000000 -0.034954 0.176430 0.038718
    26 0.000016 0.001585 -3.638375 -0.000010 1.284211 3.140787
    27 8.842833 0.000000 0.000000 0.718097 -0.540531 -2.070280
    28 9.341931 0.000000 0.000002 0.000000 0.000000 -1.015639
    29 11.164143 0.000000 0.000003 1.833742 -0.006123 0.980763
    30 1.498255 0.120084 1.545498 -1.949017 -0.233378 0.750109
    31 1.304991 -0.000033 -0.000001 -0.478812 0.323316 0.277347
    32 1.339555 0.000031 0.000000 -0.244395 0.051758 0.312287
    33 4.201562 -0.682690 1.351848 -1.267882 -0.032527 0.325199
    34 1.556231 0.000000 -0.000001 -0.395383 -0.751741 0.571842
    35 1.376933 -0.000001 -0.000001 0.036658 -0.123708 0.028364
    36 4.262988 -0.685306 0.382316 -1.454826 0.269163 0.541435
    37 1.527709 0.000000 0.000002 0.189848 -1.055847 0.094465
    38 1.426606 0.000018 -0.000001 -0.252304 -0.770306 0.317640
    39 1.977383 0.000000 0.000000 0.756950 -0.083434 0.209187
    40 3.723979 2.768054 -0.049087 -3.128564 0.061647 1.733825
    41 12.421014 0.304722 4.492689 -0.091859 -0.075839 1.616818
    42 19.916998 1.704575 4.956910 2.262592 1.451744 0.734330
  time 1
    0 0.075446 6.328202 4.251785 -0.378617 0.309490 -2.082413
    1 -0.526041 0.000001 9.745319 0.000000 -1.570796 -1.570765
    2 -0.000008 0.000010 5.615749 -2.652889 -0.179584 0.059041
    3 15.693463 0.000000 0.000000 0.000000 0.000000 -2.249581
    4 22.146631 -0.000002 0.000000 -0.173859 0.278657 -0.282952
    5 0.000008 -0.000006 -5.615750 -3.319649 0.377284 2.271746
    6 15.693462 0.000000 0.000000 0.000000 0.000000 -2.351319
    7 22.146631 -0.000001 0.000000 -0.743016 0.510567 -0.055865
    8 1.384163 -0.004350 0.000002 -0.361842 0.294554 -0.084467
    9 5.934389 -0.004352 0.000000 0.000000 0.000000 0.000000
    10 5.938294 -0.004352 0.000000 0.000000 0.000000 0.165792
    11 4.996857 -0.004352 0.000000 0.000000 0.000000 0.000000
    12 4.996865 -0.001575 0.000000 0.000000 0.000000 0.000000
    13 0.000008 0.001564 3.638375 -0.000010 -1.284203 3.140806
    14 8.842830 0.000000 0.000000 -0.801533 0.550944 -1.046355
    15 9.341935 0.000000 -0.000003 0.000000 0.000000 -0.980901
    16 11.164144 0.000001 0.000002 -4.111114 0.563799 -0.327746
    17 1.517249 -0.028662 -1.542789 1.340822 0.669808 1.073159
    18 1.304994 -0.000032 0.000000 0.073375 0.019385 0.161222
    19 1.339555 0.000032 0.000002 0.029386 -0.015904 -0.088352
    20 4.291193 -1.106261 -1.537607 1.799064 -0.155480 0.478532
    21 1.556233 0.000001 0.000000 -0.110501 0.627319 -0.337152
    22 1.376937 0.000000 -0.000001 -0.047314 0.122357 -0.002898
    23 4.179307 -1.331745 -0.599849 1.721115 -0.276334 0.419196
    24 1.527707 0.000001 0.000001 -0.107780 0.590061 -0.342527
    25 1.426605 0.000018 0.000000 -0.034954 0.176430 0.038718
    26 0.000016 0.001585 -3.638375 -0.000010 1.284211 3.140787
    27 8.842833 0.000000 0.000000 0.628996 -0.631891 -1.852121
    28 9.341931 0.000000 0.000002 0.000000 0.000000 -1.348800
    29 11.164143 0.000000 0.000003 1.839173 -0.088583 1.074723
    30 1.498255 0.120084 1.545498 -1.949017 -0.233378 0.750109
    31 1.304991 -0.000033 -0.000001 -0.478812 0.323316 0.277347
    32 1.339555 0.000031 0.000000 -0.244395 0.051758 0.312287
    33 4.201562 -0.682690 1.351848 -1.267882 -0.032527 0.325199
    34 1.556231 0.000000 -0.000001 -0.395383 -0.751741 0.571842
    35 1.376933 -0.000001 -0.000001 0.036658 -0.123708 0.028364
    36 4.262988 -0.685306 0.382316 -1.454826 0.269163 0.541435
    37 1.527709 0.000000 0.000002 0.189848 -1.055847 0.094465
    38 1.426606 0.000018 -0.000001 -0.252304 -0.770306 0.317640
    39 1.977383 0.000000 0.000000 0.756950 -0.083457 0.209187
    40 3.723979 2.768054 -0.049087 -3.128564 0.061647 1.733825
    41 12.421014 0.304722 4.492689 -0.091859 -0.075839 1.616818
    42 19.916998 1.704575 4.956910 2.262592 1.451744 0.734330
  time 2
    0 0.075446 6.173995 3.841616 -0.355990 0.263134 -2.025440
    1 -0.526041 0.000001 9.745319 0.000000 -1.570796 -1.570765
    2 -0.000008 0.000010 5.615749 -2.713092 -0.207091 0.126760
    3 15.693463 0.000000 0.000000 0.000000 0.000000 -2.222093
    4 22.146631 -0.000002 0.000000 -0.181865 0.311644 -0.303990
    5 0.000008 -0.000006 -5.615750 -3.312289 0.399838 2.346411
    6 15.693462 0.000000 0.000000 0.000000 0.000000 -2.361293
    7 22.146631 -0.000001 0.000000 -0.747202 0.515520 -0.087556
    8 1.384163 -0.004350 0.000002 -0.361842 0.294554 -0.084467
    9 5.934389 -0.004352 0.000000 0.000000 0.000000 0.000000
    10 5.938294 -0.004352 0.000000 0.000000 0.000000 0.165792
    11 4.996857 -0.004352 0.000000 0.000000 0.000000 0.000000
    12 4.992959 -0.001575 0.000000 0.000000 0.000000 0.000000
    13 0.000008 0.001564 3.638375 -0.000010 -1.284203 3.140806
    14 8.842830 0.000000 0.000000 -0.788517 0.619791 -1.144402
    15 9.341935 0.000000 -0.000003 0.000000 0.000000 -1.001820
    16 11.164144 0.000001 0.000002 -4.050470 0.516706 -0.258190
    17 1.517249 -0.028662 -1.542789 1.340822 0.669808 1.073159
    18 1.304994 -0.000032 0.000000 0.073375 0.019385 0.161222
    19 1.339555 0.000032 0.000002 0.029386 -0.015904 -0.088352
    20 4.291193 -1.106261 -1.537607 1.799064 -0.155480 0.478532
    21 1.556233 0.000001 0.000000 -0.110501 0.627319 -0.337152
    22 1.376937 0.000000 -0.000001 -0.047314 0.122357 -0.002898
    23 4.179307 -1.331745 -0.599849 1.721115 -0.276334 0.419196
    24 1.527707 0.000001 0.000001 -0.107780 0.590061 -0.342527
    25 1.426605 0.000018 0.000000 -0.034954 0.176430 0.038718
    26 0.000016 0.001585 -3.638375 -0.000010 1.284211 3.140787
    27 8.842833 0.000000 0.000000 0.528383 -0.703365 -1.638498
    28 9.341931 0.000000 0.000002 0.000000 0.000000 -1.615368
    29 11.164143 0.000000 0.000003 1.848470 -0.104852 1.204397
    30 1.498255 0.120084 1.545498 -1.949017 -0.233378 0.750109
    31 1.304991 -0.000033 -0.000001 -0.478812 0.323316 0.277347
    32 1.339555 0.000031 0.000000 -0.244395 0.051758 0.312287
    33 4.201562 -0.682690 1.351848 -1.267882 -0.032527 0.325199
    34 1.556231 0.000000 -0.000001 -0.395383 -0.751741 0.571842
    35 1.376933 -0.000001 -0.000001 0.036658 -0.123708 0.028364
    36 4.262988 -0.685306 0.382316 -1.454826 0.269163 0.541435
    37 1.527709 0.000000 0.000002 0.189848 -1.055847 0.094465
    38 1.426606 0.000018 -0.000001 -0.252304 -0.770306 0.317640
    39 1.977383 0.000000 0.000000 0.756950 -0.083457 0.209187
    40 3.723979 2.768054 -0.049087 -3.128564 0.061647 1.733825
    41 12.421014 0.304722 4.492689 -0.091859 -0.075839 1.616818
    42 19.916998 1.704575 4.956910 2.262592 1.451744 0.734330
  time 3
    0 0.075446 6.236820 3.884586 -0.355511 0.264332 -2.025916
    1 -0.526041 0.000001 9.745319 0.000000 -1.570796 -1.570765
    2 -0.000008 0.000010 5.615749 -2.713092 -0.208831 0.130401
    3 15.693463 0.000000 0.000000 0.000000 0.000000 -2.217639
    4 22.146631 -0.000002 0.000000 -0.181516 0.310134 -0.303441
    5 0.000008 -0.000006 -5.615750 -3.306544 0.392938 2.351959
    6 15.693462 0.000000 0.000000 0.000000 0.000000 -2.350128
    7 22.146631 -0.000001 0.000000 -0.738971 0.526699 -0.059136
    8 1.384163 -0.004350 0.000002 -0.361842 0.294554 -0.084467
    9 5.934389 -0.004352 0.000000 0.000000 0.000000 0.000000
    10 5.938294 -0.004352 0.000000 0.000000 0.000000 0.165792
    11 4.996857 -0.004352 0.000000 0.000000 0.000000 0.000000
    12 4.996865 -0.001575 0.000000 0.000000 0.000000 0.000000
    13 0.000008 0.001564 3.638375 -0.000010 -1.284203 3.140806
    14 8.842830 0.000000 0.000000 -0.791662 0.602644 -1.141129
    15 9.341935 0.000000 -0.000003 0.000000 0.000000 -1.014925
    16 11.164144 0.000001 0.000002 -4.041793 0.526027 -0.244977
    17 1.517249 -0.028662 -1.542789 1.340822 0.669808 1.073159
    18 1.304994 -0.000032 0.000000 0.073375 0.019385 0.161222
    19 1.339555 0.000032 0.000002 0.029386 -0.015904 -0.088352
    20 4.291193 -1.106261 -1.537607 1.799064 -0.155480 0.478532
    21 1.556233 0.000001 0.000000 -0.110501 0.627319 -0.337152
    22 1.376937 0.000000 -0.000001 -0.047314 0.122357 -0.002898
    23 4.179307 -1.331745 -0.599849 1.721115 -0.276334 0.419196
    24 1.527707 0.000001 0.000001 -0.107780 0.590061 -0.342527
    25 1.426605 0.000018 0.000000 -0.034954 0.176430 0.038718
    26 0.000016 0.001585 -3.638375 -0.000010 1.284211 3.140787
    27 8.842833 0.000000 0.000000 0.531028 -0.702220 -1.644011
    28 9.341931 0.000000 0.000002 0.000000 0.000000 -1.613913
    29 11.164143 0.000000 0.000003 1.851048 -0.095071 1.184356
    30 1.498255 0.120084 1.545498 -1.949017 -0.233378 0.750109
    31 1.304991 -0.000033 -0.000001 -0.478812 0.323329 0.277347
    32 1.339555 0.000031 0.000000 -0.244395 0.051758 0.312287
    33 4.201562 -0.682690 1.351848 -1.267882 -0.032527 0.325199
    34 1.556231 0.000000 -0.000001 -0.395383 -0.751741 0.571842
    35 1.376933 -0.000001 -0.000001 0.036658 -0.123708 0.028364
    36 4.262988 -0.685306 0.382316 -1.454826 0.269163 0.541435
    37 1.527709 0.000000 0.000002 0.189848 -1.055847 0.094465
    38 1.426606 0.000018 -0.000001 -0.252304 -0.770306 0.317640
    39 1.977383 0.000000 0.000000 0.756950 -0.083457 0.209187
    40 3.723979 2.768054 -0.049087 -3.128564 0.061647 1.733825
    41 12.421014 0.304722 4.492689 -0.091859 -0.075839 1.616818
    42 19.916998 1.704575 4.956910 2.262592 1.451744 0.734330
  time 4
    0 0.075446 6.345336 3.978339 -0.353977 0.267832 -2.027152
    1 -0.526041 0.000001 9.745319 0.000000 -1.570796 -1.570765
    2 -0.000008 0.000010 5.615749 -2.712337 -0.211690 0.136226
    3 15.693463 0.000000 0.000000 0.000000 0.000000 -2.210193
    4 22.146631 -0.000002 0.000000 -0.180710 0.306047 -0.301795
    5 0.000008 -0.000006 -5.615750 -3.297457 0.376828 2.358710
    6 15.693462 0.000000 0.000000 0.000000 0.000000 -2.341717
    7 22.146631 -0.000001 0.000000 -0.719433 0.550766 0.016311
    8 1.384163 -0.004350 0.000002 -0.361842 0.294554 -0.084467
    9 5.934389 -0.004352 0.000000 0.000000 0.000000 0.000000
    10 5.938294 -0.004352 0.000000 0.000000 0.000000 0.165792
    11 4.996857 -0.004352 0.000000 0.000000 0.000000 0.000000
    12 4.996865 -0.001575 0.000000 0.000000 0.000000 0.000000
    13 0.000008 0.001564 3.638375 -0.000010 -1.284203 3.140806
    14 8.842830 0.000000 0.000000 -0.793496 0.587438 -1.132093
    15 9.341935 0.000000 -0.000003 0.000000 0.000000 -1.034457
    16 11.164144 0.000001 0.000002 -4.034236 0.536420 -0.233033
    17 1.517249 -0.028662 -1.542789 1.340822 0.669808 1.073159
    18 1.304994 -0.000032 0.000000 0.073375 0.019385 0.161222
    19 1.339555 0.000032 0.000002 0.029386 -0.015904 -0.088352
    20 4.291193 -1.106261 -1.537607 1.799064 -0.155480 0.478532
    21 1.556233 0.000001 0.000000 -0.110501 0.627319 -0.337152
    22 1.376937 0.000000 -0.000001 -0.047314 0.122357 -0.002898
    23 4.179307 -1.331745 -0.599849 1.721115 -0.276334 0.419196
    24 1.527707 0.000001 0.000001 -0.107780 0.590061 -0.342527
    25 1.426605 0.000018 0.000000 -0.034954 0.176430 0.038718
    26 0.000016 0.001585 -3.638375 -0.000010 1.284211 3.140787
    27 8.842833 0.000000 0.000000 0.533031 -0.702428 -1.653712
    28 9.341931 0.000000 0.000002 0.000000 0.000000 -1.610877
    29 11.164143 0.000000 0.000003 1.853349 -0.080461 1.163093
    30 1.498255 0.120084 1.545498 -1.949017 -0.233378 0.750109
    31 1.304991 -0.000033 -0.000001 -0.478812 0.323316 0.277347
    32 1.339555 0.000031 0.000000 -0.244395 0.051758 0.312287
    33 4.201562 -0.682690 1.351848 -1.267882 -0.032527 0.325199
    34 1.556231 0.000000 -0.000001 -0.395383 -0.751741 0.571842
    35 1.376933 -0.000001 -0.000001 0.036658 -0.123708 0.028364
    36 4.262988 -0.685306 0.382316 -1.454826 0.269163 0.541435
    37 1.527709 0.000000 0.000002 0.189848 -1.055847 0.094465
    38 1.426606 0.000018 -0.000001 -0.252304 -0.770306 0.317640
    39 1.977383 0.000000 0.000000 0.756950 -0.083457 0.209187
    40 3.723979 2.768054 -0.049087 -3.128564 0.061647 1.733825
    41 12.421014 0.304722 4.492689 -0.091859 -0.075839 1.616818
    42 19.916998 1.704575 4.956910 2.262592 1.451744 0.734330
  time 5
    0 0.075446 6.425295 4.083811 -0.351676 0.273201 -2.029149
    1 -0.526041 0.000001 9.745319 0.000000 -1.570796 -1.570765
    2 -0.000008 0.000010 5.615749 -2.710355 -0.214010 0.140322
    3 15.693463 0.000000 0.000000 0.000000 0.000000 -2.204764
    4 22.146631 -0.000002 0.000000 -0.179582 0.299807 -0.298502
    5 0.000008 -0.000006 -5.615750 -3.289497 0.360232 2.362587
    6 15.693462 0.000000 0.000000 0.000000 0.000000 -2.334274
    7 22.146631 -0.000001 0.000000 -0.695908 0.572765 0.094987
    8 1.384163 -0.004350 0.000002 -0.361842 0.294554 -0.084467
    9 5.934389 -0.004352 0.000000 0.000000 0.000000 0.000000
    10 5.938294 -0.004352 0.000000 0.000000 0.000000 0.165792
    11 4.996857 -0.004352 0.000000 0.000000 0.000000 0.000000
    12 4.996865 -0.001575 0.000000 0.000000 0.000000 0.000000
    13 0.000008 0.001564 3.638375 -0.000010 -1.284203 3.140806
    14 8.842830 0.000000 0.000000 -0.792186 0.578444 -1.116368
    15 9.341935 0.000000 -0.000003 0.000000 0.000000 -1.068669
    16 11.164144 0.000001 0.000002 -4.026026 0.545741 -0.216209
    17 1.517249 -0.028662 -1.542789 1.340822 0.669808 1.073159
    18 1.304994 -0.000032 0.000000 0.073375 0.019385 0.161222
    19 1.339555 0.000032 0.000002 0.029386 -0.015904 -0.088352
    20 4.291193 -1.106261 -1.537607 1.799064 -0.155480 0.478532
    21 1.556233 0.000001 0.000000 -0.110501 0.627319 -0.337152
    22 1.376937 0.000000 -0.000001 -0.047314 0.122357 -0.002898
    23 4.179307 -1.331745 -0.599849 1.721115 -0.276334 0.419196
    24 1.527707 0.000001 0.000001 -0.107780 0.590061 -0.342527
    25 1.426605 0.000018 0.000000 -0.034954 0.176430 0.038718
    26 0.000016 0.001585 -3.638375 -0.000010 1.284211 3.140787
    27 8.842833 0.000000 0.000000 0.531601 -0.705812 -1.662226
    28 9.341931 0.000000 0.000002 0.000000 0.000000 -1.615241
    29 11.164143 0.000000 0.000003 1.854822 -0.061963 1.145498
    30 1.498255 0.120084 1.545498 -1.949017 -0.233378 0.750109
    31 1.304991 -0.000033 -0.000001 -0.478812 0.323316 0.277347
    32 1.339555 0.000031 0.000000 -0.244395 0.051758 0.312287
    33 4.201562 -0.682690 1.351848 -1.267882 -0.032527 0.325199
    34 1.556231 0.000000 -0.000001 -0.395383 -0.751741 0.571842
    35 1.376933 -0.000001 -0.000001 0.036658 -0.123708 0.028364
    36 4.262988 -0.685306 0.382316 -1.454826 0.269163 0.541435
    37 1.527709 0.000000 0.000002 0.189848 -1.055847 0.094465
    38 1.426606 0.000018 -0.000001 -0.252304 -0.770306 0.317640
    39 1.977383 0.000000 0.000000 0.756950 -0.083457 0.209187
    40 3.723979 2.768054 -0.049087 -3.128564 0.061647 1.733825
    41 12.421014 0.304722 4.492689 -0.091859 -0.075839 1.616818
    42 19.916998 1.704575 4.956910 2.262592 1.451744 0.734330
  time 6
    0 0.075446 6.419584 4.158032 -0.348704 0.279960 -2.031622
    1 -0.526041 0.000001 9.745319 0.000000 -1.570796 -1.570765
    2 -0.000008 0.000010 5.615749 -2.706392 -0.214175 0.139321
    3 15.693463 0.000000 0.000000 0.000000 0.000000 -2.205948
    4 22.146631 -0.000002 0.000000 -0.178185 0.291857 -0.293014
    5 0.000008 -0.000006 -5.615750 -3.284240 0.352845 2.366063
    6 15.693462 0.000000 0.000000 0.000000 0.000000 -2.326533
    7 22.146631 -0.000001 0.000000 -0.681183 0.582382 0.135005
    8 1.384163 -0.004350 0.000002 -0.361842 0.294554 -0.084467
    9 5.934389 -0.004352 0.000000 0.000000 0.000000 0.000000
    10 5.934387 -0.004352 0.000000 0.000000 0.000000 0.165792
    11 4.996857 -0.004352 0.000000 0.000000 0.000000 0.000000
    12 4.992959 -0.001575 0.000000 0.000000 0.000000 0.000000
    13 0.000008 0.001564 3.638375 -0.000010 -1.284203 3.140806
    14 8.842830 0.000000 0.000000 -0.785984 0.579091 -1.093386
    15 9.341935 0.000000 -0.000003 0.000000 0.000000 -1.124871
    16 11.164144 0.000001 0.000002 -4.015296 0.552172 -0.188871
    17 1.517249 -0.028662 -1.542789 1.340822 0.669808 1.073159
    18 1.304994 -0.000032 0.000000 0.073375 0.019385 0.161222
    19 1.339555 0.000032 0.000002 0.029386 -0.015904 -0.088352
    20 4.291193 -1.106261 -1.537607 1.799064 -0.155480 0.478532
    21 1.556233 0.000001 0.000000 -0.110501 0.627319 -0.337152
    22 1.376937 0.000000 -0.000001 -0.047314 0.122357 -0.002898
    23 4.179307 -1.331745 -0.599849 1.721115 -0.276334 0.419196
    24 1.527707 0.000001 0.000001 -0.107780 0.590061 -0.342527
    25 1.426605 0.000018 0.000000 -0.034954 0.176430 0.038718
    26 0.000016 0.001585 -3.638375 -0.000010 1.284211 3.140787
    27 8.842833 0.000000 0.000000 0.523735 -0.714245 -1.664180
    28 9.341931 0.000000 0.000002 0.000000 0.000000 -1.635732
    29 11.164143 0.000000 0.000003 1.855374 -0.040444 1.136285
    30 1.498255 0.120084 1.545498 -1.949017 -0.233378 0.750109
    31 1.304991 -0.000033 -0.000001 -0.478812 0.323316 0.277347
    32 1.339555 0.000031 0.000000 -0.244395 0.051758 0.312287
    33 4.201562 -0.682690 1.351848 -1.267882 -0.032527 0.325199
    34 1.556231 0.000000 -0.000001 -0.395383 -0.751741 0.571842
    35 1.376933 -0.000001 -0.000001 0.036658 -0.123708 0.028364
    36 4.262988 -0.685306 0.382316 -1.454826 0.269163 0.541435
    37 1.527709 0.000000 0.000002 0.189848 -1.055847 0.094465
    38 1.426606 0.000018 -0.000001 -0.252304 -0.770306 0.317640
    39 1.977383 0.000000 0.000000 0.756950 -0.083457 0.209187
    40 3.723979 2.768054 -0.049087 -3.128564 0.061647 1.733825
    41 12.421014 0.304722 4.492689 -0.091859 -0.075839 1.616818
    42 19.916998 1.704575 4.956910 2.262592 1.451744 0.734330
  time 7
    0 0.075446 6.311068 4.212721 -0.345348 0.287822 -2.034381
    1 -0.526041 0.000001 9.745319 0.000000 -1.570796 -1.570765
    2 -0.000008 0.000010 5.615749 -2.700825 -0.212063 0.133314
    3 15.693463 0.000000 0.000000 0.000000 0.000000 -2.213881
    4 22.146631 -0.000002 0.000000 -0.176573 0.282620 -0.285330
    5 0.000008 -0.000006 -5.615750 -3.281950 0.353149 2.368804
    6 15.693462 0.000000 0.000000 0.000000 0.000000 -2.319611
    7 22.146631 -0.000001 0.000000 -0.676142 0.583896 0.141547
    8 1.384163 -0.004350 0.000002 -0.361842 0.294554 -0.084467
    9 5.934389 -0.004352 0.000000 0.000000 0.000000 0.000000
    10 5.938294 -0.004352 0.000000 0.000000 0.000000 0.165792
    11 4.996857 -0.004352 0.000000 0.000000 0.000000 0.000000
    12 4.992959 -0.001575 0.000000 0.000000 0.000000 0.000000
    13 0.000008 0.001564 3.638375 -0.000010 -1.284203 3.140806
    14 8.842830 0.000000 0.000000 -0.800659 0.554633 -1.090611
    15 9.341935 0.000000 -0.000003 0.000000 0.000000 -1.051532
    16 11.164144 0.000001 0.000002 -4.051683 0.566235 -0.259261
    17 1.517249 -0.028662 -1.542789 1.340822 0.669808 1.073159
    18 1.304994 -0.000032 0.000000 0.073375 0.019385 0.161222
    19 1.339555 0.000032 0.000002 0.029386 -0.015904 -0.088352
    20 4.291193 -1.106261 -1.537607 1.799064 -0.155480 0.478532
    21 1.556233 0.000001 0.000000 -0.110501 0.627319 -0.337152
    22 1.376937 0.000000 -0.000001 -0.047314 0.122357 -0.002898
    23 4.179307 -1.331745 -0.599849 1.721115 -0.276334 0.419196
    24 1.527707 0.000001 0.000001 -0.107780 0.590061 -0.342527
    25 1.426605 0.000018 0.000000 -0.034954 0.176430 0.038718
    26 0.000016 0.001585 -3.638375 -0.000010 1.284211 3.140787
    27 8.842833 0.000000 0.000000 0.559632 -0.691288 -1.735504
    28 9.341931 0.000000 0.000002 0.000000 0.000000 -1.537896
    29 11.164143 0.000000 0.000003 1.851876 -0.033659 1.113144
    30 1.498255 0.120084 1.545498 -1.949017 -0.233378 0.750109
    31 1.304991 -0.000033 -0.000001 -0.478812 0.323316 0.277347
    32 1.339555 0.000031 0.000000 -0.244395 0.051758 0.312287
    33 4.201562 -0.682690 1.351848 -1.267882 -0.032527 0.325199
    34 1.556231 0.000000 -0.000001 -0.395383 -0.751741 0.571842
    35 1.376933 -0.000001 -0.000001 0.036658 -0.123708 0.028364
    36 4.262988 -0.685306 0.382316 -1.454826 0.269163 0.541435
    37 1.527709 0.000000 0.000002 0.189848 -1.055847 0.094465
    38 1.426606 0.000018 -0.000001 -0.252304 -0.770306 0.317640
    39 1.977383 0.000000 0.000000 0.756906 -0.083457 0.209187
    40 3.723979 2.768054 -0.049087 -3.128564 0.061647 1.733825
    41 12.421014 0.304722 4.492689 -0.091859 -0.075839 1.616818
    42 19.916998 1.704575 4.956910 2.262592 1.451744 0.734330
  time 8
    0 0.075446 6.151149 4.251785 -0.341705 0.296403 -2.037424
    1 -0.526041 0.000001 9.745319 0.000000 -1.570796 -1.570765
    2 -0.000008 0.000010 5.615749 -2.694219 -0.209121 0.125213
    3 15.693463 0.000000 0.000000 0.000000 0.000000 -2.224946
    4 22.146631 -0.000002 0.000000 -0.174746 0.272491 -0.276320
    5 0.000008 -0.000006 -5.615750 -3.281574 0.353149 2.369004
    6 15.693462 0.000000 0.000000 0.000000 0.000000 -2.314847
    7 22.146631 -0.000001 0.000000 -0.671499 0.586493 0.148599
    8 1.384163 -0.004350 0.000002 -0.361842 0.294554 -0.084467
    9 5.934389 -0.004352 0.000000 0.000000 0.000000 0.000000
    10 5.934387 -0.004352 0.000000 0.000000 0.000000 0.165792
    11 4.996857 -0.004352 0.000000 0.000000 0.000000 0.000000
    12 4.996865 -0.001575 0.000000 0.000000 0.000000 0.000000
    13 0.000008 0.001564 3.638375 -0.000010 -1.284203 3.140806
    14 8.842830 0.000000 0.000000 -0.812801 0.531144 -1.088050
    15 9.341935 0.000000 -0.000003 0.000000 0.000000 -0.981531
    16 11.164144 0.000001 0.000002 -4.087696 0.577115 -0.327072
    17 1.517249 -0.028662 -1.542789 1.340822 0.669808 1.073159
    18 1.304994 -0.000032 0.000000 0.073375 0.019385 0.161222
    19 1.339555 0.000032 0.000002 0.029386 -0.015904 -0.088352
    20 4.291193 -1.106261 -1.537607 1.799064 -0.155480 0.478532
    21 1.556233 0.000001 0.000000 -0.110501 0.627319 -0.337152
    22 1.376937 0.000000 -0.000001 -0.047314 0.122357 -0.002898
    23 4.179307 -1.331745 -0.599849 1.721115 -0.276334 0.419196
    24 1.527707 0.000001 0.000001 -0.107780 0.590061 -0.342527
    25 1.426605 0.000018 0.000000 -0.034954 0.176430 0.038718
    26 0.000016 0.001585 -3.638375 -0.000010 1.284211 3.140787
    27 8.842833 0.000000 0.000000 0.592670 -0.667758 -1.803548
    28 9.341931 0.000000 0.000002 0.000000 0.000000 -1.443221
    29 11.164143 0.000000 0.000003 1.848286 -0.026453 1.091576
    30 1.498255 0.120084 1.545498 -1.949017 -0.233378 0.750109
    31 1.304991 -0.000033 -0.000001 -0.478812 0.323316 0.277347
    32 1.339555 0.000031 0.000000 -0.244395 0.051758 0.312287
    33 4.201562 -0.682690 1.351848 -1.267882 -0.032527 0.325199
    34 1.556231 0.000000 -0.000001 -0.395383 -0.751741 0.571842
    35 1.376933 -0.000001 -0.000001 0.036658 -0.123708 0.028364
    36 4.262988 -0.685306 0.382316 -1.454826 0.269163 0.541435
    37 1.527709 0.000000 0.000002 0.189848 -1.055847 0.094465
    38 1.426606 0.000018 -0.000001 -0.252304 -0.770306 0.317640
    39 1.977383 0.000000 0.000000 0.756950 -0.083457 0.209187
    40 3.723979 2.768054 -0.049087 -3.128564 0.061647 1.733825
    41 12.421014 0.304722 4.492689 -0.091859 -0.075839 1.616818
    42 19.916998 1.704575 4.956910 2.262592 1.451744 0.734330
  time 9
    0 0.075446 5.974097 4.294755 -0.337965 0.305176 -2.040468
    1 -0.526041 0.000001 9.745319 0.000000 -1.570796 -1.570765
    2 -0.000008 0.000010 5.615749 -2.687237 -0.205476 0.116111
    3 15.693463 0.000000 0.000000 0.000000 0.000000 -2.237890
    4 22.146631 -0.000002 0.000000 -0.172757 0.261916 -0.266395
    5 0.000008 -0.000006 -5.615750 -3.282438 0.352936 2.367534
    6 15.693462 0.000000 0.000000 0.000000 0.000000 -2.311870
    7 22.146631 -0.000001 0.000000 -0.667227 0.589739 0.155821
    8 1.384163 -0.004350 0.000002 -0.361842 0.294554 -0.084467
    9 5.934389 -0.004352 0.000000 0.000000 0.000000 0.000000
    10 5.934387 -0.004352 0.000000 0.000000 0.000000 0.165792
    11 4.996857 -0.004352 0.000000 0.000000 0.000000 0.000000
    12 4.996865 -0.001575 0.000000 0.000000 0.000000 0.000000
    13 0.000008 0.001564 3.638375 -0.000010 -1.284203 3.140806
    14 8.842830 0.000000 0.000000 -0.823807 0.507138 -1.087196
    15 9.341935 0.000000 -0.000003 0.000000 0.000000 -0.910523
    16 11.164144 0.000001 0.000002 -4.123430 0.585462 -0.394208
    17 1.517249 -0.028662 -1.542789 1.340822 0.669808 1.073159
    18 1.304994 -0.000032 0.000000 0.073375 0.019385 0.161222
    19 1.339555 0.000032 0.000002 0.029386 -0.015904 -0.088352
    20 4.291193 -1.106261 -1.537607 1.799064 -0.155480 0.478532
    21 1.556233 0.000001 0.000000 -0.110501 0.627319 -0.337152
    22 1.376937 0.000000 -0.000001 -0.047314 0.122357 -0.002898
    23 4.179307 -1.331745 -0.599849 1.721115 -0.276334 0.419196
    24 1.527707 0.000001 0.000001 -0.107780 0.590061 -0.342527
    25 1.426605 0.000018 0.000000 -0.034954 0.176430 0.038718
    26 0.000016 0.001585 -3.638375 -0.000010 1.284211 3.140787
    27 8.842833 0.000000 0.000000 0.623991 -0.642615 -1.869568
    28 9.341931 0.000000 0.000002 0.000000 0.000000 -1.348231
    29 11.164143 0.000000 0.000003 1.844696 -0.019446 1.069789
    30 1.498255 0.120084 1.545498 -1.949017 -0.233378 0.750109
    31 1.304991 -0.000033 -0.000001 -0.478812 0.323316 0.277347
    32 1.339555 0.000031 0.000000 -0.244395 0.051758 0.312287
    33 4.201562 -0.682690 1.351848 -1.267882 -0.032527 0.325199
    34 1.556231 0.000000 -0.000001 -0.395383 -0.751741 0.571842
    35 1.376933 -0.000001 -0.000001 0.036658 -0.123708 0.028364
    36 4.262988 -0.685306 0.382316 -1.454826 0.269163 0.541435
    37 1.527709 0.000000 0.000002 0.189848 -1.055847 0.094465
    38 1.426606 0.000018 -0.000001 -0.252304 -0.770306 0.317640
    39 1.977383 0.000000 0.000000 0.756906 -0.083457 0.209187
    40 3.723979 2.768054 -0.049087 -3.128564 0.061647 1.733825
    41 12.421014 0.304722 4.492689 -0.091859 -0.075839 1.616818
    42 19.916998 1.704575 4.956910 2.262592 1.451744 0.734330
  time 10
    0 0.075446 5.762776 4.326006 -0.334322 0.313852 -2.043511
    1 -0.526041 0.000001 9.745319 0.000000 -1.570796 -1.570765
    2 -0.000008 0.000010 5.615749 -2.679971 -0.201747 0.106827
    3 15.693463 0.000000 0.000000 0.000000 0.000000 -2.251599
    4 22.146631 -0.000002 0.000000 -0.170715 0.251341 -0.256013
    5 0.000008 -0.000006 -5.615750 -3.284052 0.352663 2.365395
    6 15.693462 0.000000 0.000000 0.000000 0.000000 -2.309637
    7 22.146631 -0.000001 0.000000 -0.663211 0.593201 0.162873
    8 1.384163 -0.004350 0.000002 -0.361842 0.294572 -0.084467
    9 5.934389 -0.004352 0.000000 0.000000 0.000000 0.000000
    10 5.938294 -0.004352 0.000000 0.000000 0.000000 0.165792
    11 4.996857 -0.004352 0.000000 0.000000 0.000000 0.000000
    12 4.996865 -0.001575 0.000000 0.000000 0.000000 0.000000
    13 0.000008 0.001564 3.638375 -0.000010 -1.284203 3.140806
    14 8.842830 0.000000 0.000000 -0.834813 0.479833 -1.090398
    15 9.341935 0.000000 -0.000003 0.000000 0.000000 -0.832647
    16 11.168050 0.000001 0.000002 -4.158883 0.592120 -0.463289
    17 1.517249 -0.028662 -1.542789 1.340822 0.669808 1.073159
    18 1.304994 -0.000032 0.000000 0.073375 0.019385 0.161222
    19 1.339555 0.000032 0.000002 0.029386 -0.015904 -0.088352
    20 4.291193 -1.106261 -1.537607 1.799064 -0.155480 0.478532
    21 1.556233 0.000001 0.000000 -0.110501 0.627319 -0.337152
    22 1.376937 0.000000 -0.000001 -0.047314 0.122357 -0.002898
    23 4.179307 -1.331745 -0.599849 1.721115 -0.276334 0.419196
    24 1.527707 0.000001 0.000001 -0.107780 0.590061 -0.342527
    25 1.426605 0.000018 0.000000 -0.034954 0.176430 0.038718
    26 0.000016 0.001585 -3.638375 -0.000010 1.284211 3.140787
    27 8.842833 0.000000 0.000000 0.654668 -0.614452 -1.934820
    28 9.341931 0.000000 0.000002 0.000000 0.000000 -1.249130
    29 11.164143 0.000000 0.000003 1.841014 -0.013280 1.045950
    30 1.498255 0.120084 1.545498 -1.949017 -0.233378 0.750109
    31 1.304991 -0.000033 -0.000001 -0.478812 0.323316 0.277347
    32 1.339555 0.000031 0.000000 -0.244395 0.051758 0.312287
    33 4.201562 -0.682690 1.351848 -1.267882 -0.032527 0.325199
    34 1.556231 0.000000 -0.000001 -0.395383 -0.751741 0.571842
    35 1.376933 -0.000001 -0.000001 0.036658 -0.123708 0.028364
    36 4.262988 -0.685306 0.382316 -1.454826 0.269163 0.541435
    37 1.527709 0.000000 0.000002 0.189848 -1.055847 0.094465
    38 1.426606 0.000018 -0.000001 -0.252304 -0.770306 0.317640
    39 1.977383 0.000000 0.000000 0.756950 -0.083457 0.209187
    40 3.723979 2.768054 -0.049087 -3.128564 0.061647 1.733825
    41 12.421014 0.304722 4.492689 -0.091859 -0.075839 1.616818
    42 19.916998 1.704575 4.956910 2.262592 1.451744 0.734330
  time 11
    0 0.075446 5.568589 4.361163 -0.330966 0.322002 -2.046270
    1 -0.526041 0.000001 9.745319 0.000000 -1.570796 -1.570765
    2 -0.000008 0.000010 5.615749 -2.672988 -0.198102 0.098362
    3 15.693463 0.000000 0.000000 0.000000 0.000000 -2.264891
    4 22.146631 -0.000002 0.000000 -0.168727 0.241237 -0.245768
    5 0.000008 -0.000006 -5.615750 -3.285667 0.352480 2.363256
    6 15.693462 0.000000 0.000000 0.000000 0.000000 -2.307627
    7 22.146631 -0.000001 0.000000 -0.659509 0.596543 0.169500
    8 1.384163 -0.004350 0.000002 -0.361842 0.294554 -0.084467
    9 5.934389 -0.004352 0.000000 0.000000 0.000000 0.000000
    10 5.938294 -0.004352 0.000000 0.000000 0.000000 0.165792
    11 4.996857 -0.004352 0.000000 0.000000 0.000000 0.000000
    12 4.996865 -0.001575 0.000000 0.000000 0.000000 0.000000
    13 0.000008 0.001564 3.638375 -0.000010 -1.284203 3.140806
    14 8.842830 0.000000 0.000000 -0.847217 0.445603 -1.100715
    15 9.341935 0.000000 -0.000003 0.000000 0.000000 -0.739335
    16 11.164144 0.000001 0.000002 -4.194337 0.597609 -0.537647
    17 1.517249 -0.028662 -1.542789 1.340822 0.669808 1.073159
    18 1.304994 -0.000032 0.000000 0.073375 0.019385 0.161222
    19 1.339555 0.000032 0.000002 0.029386 -0.015904 -0.088352
    20 4.291193 -1.106261 -1.537607 1.799064 -0.155480 0.478532
    21 1.556233 0.000001 0.000000 -0.110501 0.627319 -0.337152
    22 1.376937 0.000000 -0.000001 -0.047314 0.122357 -0.002898
    23 4.179307 -1.331745 -0.599849 1.721115 -0.276334 0.419196
    24 1.527707 0.000001 0.000001 -0.107780 0.590061 -0.342527
    25 1.426605 0.000018 0.000000 -0.034954 0.176430 0.038718
    26 0.000016 0.001585 -3.638375 -0.000010 1.284211 3.140787
    27 8.842833 0.000000 0.000000 0.685703 -0.581396 -2.000980
    28 9.341931 0.000000 0.000002 0.000000 0.000000 -1.140669
    29 11.164143 0.000000 0.000003 1.837332 -0.008624 1.017352
    30 1.498255 0.120084 1.545498 -1.949017 -0.233378 0.750109
    31 1.304991 -0.000033 -0.000001 -0.478812 0.323316 0.277347
    32 1.339555 0.000031 0.000000 -0.244395 0.051758 0.312287
    33 4.201562 -0.682690 1.351848 -1.267882 -0.032527 0.325199
    34 1.556231 0.000000 -0.000001 -0.395383 -0.751741 0.571842
    35 1.376933 -0.000001 -0.000001 0.036658 -0.123708 0.028364
    36 4.262988 -0.685306 0.382316 -1.454826 0.269163 0.541435
    37 1.527709 0.000000 0.000002 0.189848 -1.055847 0.094465
    38 1.426606 0.000018 -0.000001 -0.252304 -0.770306 0.317640
    39 1.977383 0.000000 0.000000 0.756950 -0.083457 0.209187
    40 3.723979 2.768054 -0.049087 -3.128564 0.061647 1.733825
    41 12.421014 0.304722 4.492689 -0.091859 -0.075839 1.616818
    42 19.916998 1.704575 4.956910 2.262592 1.451744 0.734330
  time 12
    0 0.075446 5.385825 4.404133 -0.327898 0.329241 -2.048743
    1 -0.526041 0.000001 9.745319 0.000000 -1.570796 -1.570765
    2 -0.000008 0.000010 5.615749 -2.666854 -0.195119 0.091353
    3 15.693463 0.000000 0.000000 0.000000 0.000000 -2.276930
    4 22.146631 -0.000002 0.000000 -0.166847 0.232124 -0.236026
    5 0.000008 -0.000006 -5.615750 -3.286831 0.352268 2.361985
    6 15.693462 0.000000 0.000000 0.000000 0.000000 -2.305171
    7 22.146631 -0.000001 0.000000 -0.656091 0.599380 0.175235
    8 1.384163 -0.004350 0.000002 -0.361842 0.294554 -0.084467
    9 5.934389 -0.004352 0.000000 0.000000 0.000000 0.000000
    10 5.938294 -0.004352 0.000000 0.000000 0.000000 0.165792
    11 4.992950 -0.004352 0.000000 0.000000 0.000000 0.000000
    12 4.992959 -0.001575 0.000000 0.000000 0.000000 0.000000
    13 0.000008 0.001564 3.638375 -0.000010 -1.284203 3.140806
    14 8.842830 0.000000 0.000000 -0.862504 0.398497 -1.122985
    15 9.341935 0.000000 -0.000003 0.000000 0.000000 -0.616346
    16 11.164144 0.000001 0.000002 -4.229884 0.602383 -0.623393
    17 1.517249 -0.028662 -1.542789 1.340822 0.669808 1.073159
    18 1.304994 -0.000032 0.000000 0.073375 0.019385 0.161222
    19 1.339555 0.000032 0.000002 0.029386 -0.015904 -0.088352
    20 4.291193 -1.106261 -1.537607 1.799064 -0.155480 0.478532
    21 1.556233 0.000001 0.000000 -0.110501 0.627319 -0.337152
    22 1.376937 0.000000 -0.000001 -0.047314 0.122357 -0.002898
    23 4.179307 -1.331745 -0.599849 1.721115 -0.276334 0.419196
    24 1.527707 0.000001 0.000001 -0.107780 0.590061 -0.342527
    25 1.426605 0.000018 0.000000 -0.034954 0.176430 0.038718
    26 0.000016 0.001585 -3.638375 -0.000010 1.284211 3.140787
    27 8.842833 0.000000 0.000000 0.718097 -0.540531 -2.070280
    28 9.341931 0.000000 0.000002 0.000000 0.000000 -1.015576
    29 11.164143 0.000000 0.000003 1.833742 -0.006123 0.980763
    30 1.498255 0.120084 1.545498 -1.949017 -0.233378 0.750109
    31 1.304991 -0.000033 -0.000001 -0.478812 0.323316 0.277347
    32 1.339555 0.000031 0.000000 -0.244395 0.051758 0.312287
    33 4.201562 -0.682690 1.351848 -1.267882 -0.032527 0.325199
    34 1.556231 0.000000 -0.000001 -0.395383 -0.751741 0.571842
    35 1.376933 -0.000001 -0.000001 0.036658 -0.123708 0.028364
    36 4.262988 -0.685306 0.382316 -1.454826 0.269163 0.541435
    37 1.527709 0.000000 0.000002 0.189848 -1.055847 0.094465
    38 1.426606 0.000018 -0.000001 -0.252304 -0.770306 0.317640
    39 1.977383 0.000000 0.000000 0.756950 -0.083457 0.209187
    40 3.723979 2.768054 -0.049087 -3.128564 0.061647 1.733825
    41 12.421014 0.304722 4.492689 -0.091859 -0.075839 1.616818
    42 19.916998 1.704575 4.956910 2.262592 1.451744 0.734330
end
