// Created by Crowbar 0.42.0.0
version 1
nodes
  0 "Bip01" -1
  1 "Bip01 Pelvis" 0
  2 "Bip01 L Thigh" 1
  3 "Bip01 L Calf" 2
  4 "Bip01 L Foot" 3
  5 "Bip01 R Thigh" 1
  6 "Bip01 R Calf" 5
  7 "Bip01 R Foot" 6
  8 "Bip01 Spine" 1
  9 "Bip01 Spine1" 8
  10 "Bip01 Spine2" 9
  11 "Bip01 Spine3" 10
  12 "Bip01 Neck" 11
  13 "Bip01 L Clavicle" 12
  14 "Bip01 L UpperArm" 13
  15 "Bip01 L Forearm" 14
  16 "Bip01 L Hand" 15
  17 "Bip01 L Finger0" 16
  18 "Bip01 L Finger01" 17
  19 "Bip01 L Finger02" 18
  20 "Bip01 L Finger1" 16
  21 "Bip01 L Finger11" 20
  22 "Bip01 L Finger12" 21
  23 "Bip01 L Finger2" 16
  24 "Bip01 L Finger21" 23
  25 "Bip01 L Finger22" 24
  26 "Bip01 R Clavicle" 12
  27 "Bip01 R UpperArm" 26
  28 "Bip01 R Forearm" 27
  29 "Bip01 R Hand" 28
  30 "Bip01 R Finger0" 29
  31 "Bip01 R Finger01" 30
  32 "Bip01 R Finger02" 31
  33 "Bip01 R Finger1" 29
  34 "Bip01 R Finger11" 33
  35 "Bip01 R Finger12" 34
  36 "Bip01 R Finger2" 29
  37 "Bip01 R Finger21" 36
  38 "Bip01 R Finger22" 37
  39 "Bip01 Head" 12
  40 "Bone05" 39
  41 "m4" 29
  42 "SHOTGUN" 29
end
skeleton
  time 0
    0 -0.061277 11.165735 26.096202 0.037008 0.364571 -1.492427
    1 -3.432380 -0.285164 9.745319 3.141480 -1.530000 1.570732
    2 -0.000008 0.000010 5.615749 -3.135458 -0.015326 2.317709
    3 15.693463 0.000000 0.000000 0.000000 0.000000 -1.398280
    4 22.146631 -0.000002 0.000000 -0.027620 0.055028 0.654006
    5 0.000008 -0.000006 -5.615750 -3.092027 -0.058086 2.014395
    6 15.693462 0.000000 0.000000 0.000000 0.000000 -0.926683
    7 22.146631 -0.000001 0.000000 0.080203 -0.076912 0.215380
    8 1.384163 -0.004350 -0.050781 0.006143 0.011225 0.152347
    9 5.938295 -0.004352 0.000000 -0.000012 -0.017438 0.162189
    10 5.934387 -0.004352 0.000000 0.000012 0.029099 0.162181
    11 4.992950 -0.004352 0.000000 0.000012 0.017450 0.162189
    12 4.992959 -0.001575 0.000000 0.000000 0.000000 0.000000
    13 0.000008 0.001564 3.638375 -0.000010 -1.283530 3.140806
    14 8.842830 0.000000 0.000000 -0.870802 0.773015 -1.139848
    15 9.341935 0.000000 -0.000003 0.000000 0.000000 -0.310576
    16 11.168050 0.000001 0.000002 -1.568809 -0.135163 0.000000
    17 1.517249 -0.028662 -1.542789 1.225775 0.497010 0.334409
    18 1.304994 -0.000032 0.000000 0.073375 0.019385 0.161222
    19 1.339555 0.000032 0.000002 0.029386 -0.015904 -0.088352
    20 4.174002 -1.211733 -1.342288 1.483541 0.124479 0.319658
    21 1.556233 0.000001 0.000000 -0.086148 0.492339 -0.280276
    22 1.392563 0.019531 0.136722 -0.122591 0.371558 -0.055247
    23 4.187120 -1.046580 -0.381092 1.391886 -0.008500 0.302902
    24 1.527707 0.000001 0.000001 -0.104652 0.498059 -0.328541
    25 1.477388 0.011737 0.117191 -0.090646 0.432811 0.022179
    26 0.000016 0.001585 -3.638375 -0.578998 1.231515 2.588333
    27 8.842833 0.000000 0.000000 0.319504 -0.011425 -1.741924
    28 9.341931 0.000000 0.000002 0.000000 0.000000 -0.609053
    29 11.164143 0.000000 0.000003 1.568911 -0.016350 0.000000
    30 1.498255 0.120084 1.545498 -1.949017 -0.233378 0.750109
    31 1.304991 -0.000033 -0.000001 -0.478812 0.323316 0.277347
    32 1.339555 0.000031 0.000000 -0.244395 0.051758 0.312287
    33 4.201562 -0.682690 1.351848 -1.267882 -0.032527 0.325199
    34 1.556231 0.000000 -0.000001 -0.395383 -0.751741 0.571842
    35 1.376933 -0.000001 -0.000001 0.036658 -0.123708 0.028364
    36 4.262988 -0.685306 0.382316 -1.454826 0.269163 0.541435
    37 1.527709 0.000000 0.000002 0.189848 -1.055847 0.094465
    38 1.426606 0.000018 -0.000001 -0.252304 -0.770306 0.317640
    39 1.977383 0.000000 0.000000 0.053668 -0.034872 0.022981
    40 3.723979 2.768054 -0.049087 -3.141592 -0.000002 1.570799
    41 12.421014 0.304722 4.492689 -0.091859 -0.075839 1.616818
    42 19.916998 1.704575 4.956910 2.262592 1.451744 0.734330
  time 1
    0 0.376237 10.303318 25.557123 0.044103 0.364475 -1.497372
    1 -3.655043 -0.410168 9.745319 3.141480 -1.520557 1.570732
    2 -0.000008 0.000010 5.615749 -3.133854 -0.017149 2.228236
    3 15.693463 0.000000 0.000000 0.000000 0.000000 -1.435511
    4 22.146631 -0.000002 0.000000 -0.028856 0.061269 0.625055
    5 0.000008 -0.000006 -5.615750 -3.081438 -0.066810 2.129768
    6 15.693462 0.000000 0.000000 0.000000 0.000000 -1.060364
    7 22.146631 -0.000001 0.000000 0.065421 -0.085904 0.443973
    8 1.384163 -0.004350 -0.062500 0.021600 0.013054 0.164587
    9 5.934389 -0.004352 0.000000 0.013267 -0.022998 0.175020
    10 5.938294 -0.004352 0.000000 0.013015 0.031507 0.175761
    11 4.996857 -0.004352 0.000000 0.013075 0.017869 0.175574
    12 4.992959 -0.001575 0.000000 0.000000 0.000000 0.000000
    13 0.000008 0.001564 3.638375 -0.000010 -1.283530 3.140806
    14 8.842830 0.000000 0.000000 -0.864251 0.731474 -1.192998
    15 9.341935 0.000000 -0.000003 0.000000 0.000000 -0.291863
    16 11.164144 0.000001 0.000002 -1.568809 -0.134806 0.000000
    17 1.517249 -0.028662 -1.542789 1.225775 0.497010 0.334409
    18 1.304994 -0.000032 0.000000 0.073375 0.019385 0.161222
    19 1.339555 0.000032 0.000002 0.029386 -0.015904 -0.088352
    20 4.174002 -1.211733 -1.342288 1.483541 0.124479 0.319658
    21 1.556233 0.000001 0.000000 -0.086148 0.492339 -0.280276
    22 1.392563 0.019531 0.136722 -0.122591 0.371558 -0.055247
    23 4.187120 -1.046580 -0.381092 1.391886 -0.008500 0.302902
    24 1.527707 0.000001 0.000001 -0.104652 0.498059 -0.328541
    25 1.477388 0.011737 0.117191 -0.090646 0.432811 0.022179
    26 0.000016 0.001585 -3.638375 -0.500080 1.246081 2.662936
    27 8.842833 0.000000 0.000000 0.249282 0.081808 -1.788962
    28 9.341931 0.000000 0.000002 0.000000 0.000000 -0.646050
    29 11.164143 0.000000 0.000003 1.568911 -0.026280 0.000000
    30 1.498255 0.120084 1.545498 -1.949017 -0.233378 0.750109
    31 1.304991 -0.000033 -0.000001 -0.478812 0.323316 0.277347
    32 1.339555 0.000031 0.000000 -0.244395 0.051758 0.312287
    33 4.201562 -0.682690 1.351848 -1.267882 -0.032527 0.325199
    34 1.556231 0.000000 -0.000001 -0.395383 -0.751741 0.571842
    35 1.376933 -0.000001 -0.000001 0.036658 -0.123708 0.028364
    36 4.262988 -0.685306 0.382316 -1.454826 0.269163 0.541435
    37 1.527709 0.000000 0.000002 0.189848 -1.055847 0.094465
    38 1.426606 0.000018 -0.000001 -0.252304 -0.770306 0.317640
    39 1.977383 0.000000 0.000000 0.012116 -0.015424 -0.050661
    40 3.723979 2.768054 -0.049087 -3.141592 -0.000002 1.570799
    41 12.421014 0.304722 4.492689 -0.091859 -0.075839 1.616818
    42 19.916998 1.704575 4.956910 2.262592 1.451744 0.734330
  time 2
    0 0.829376 10.880166 26.439962 0.047555 0.364859 -1.513922
    1 -3.940208 -0.535172 9.745319 3.141480 -1.520808 1.570732
    2 -0.000008 0.000010 5.615749 -3.140082 -0.013006 2.112913
    3 15.693463 0.000000 0.000000 0.000000 0.000000 -1.432101
    4 22.146631 -0.000002 0.000000 -0.029554 0.068178 0.533582
    5 0.000008 -0.000006 -5.615750 -3.091389 -0.067661 2.381237
    6 15.693462 0.000000 0.000000 0.000000 0.000000 -0.905768
    7 22.146631 -0.000001 0.000000 0.037367 -0.079677 0.512793
    8 1.384163 -0.004350 -0.062500 0.040106 0.007871 0.181135
    9 5.934389 -0.004352 0.000000 0.031016 -0.027409 0.192000
    10 5.938294 -0.004352 0.000000 0.031064 0.029434 0.193776
    11 4.992950 -0.004352 0.000000 0.031040 0.015220 0.193322
    12 4.996865 -0.001575 0.000000 0.000000 0.000000 0.000000
    13 0.000008 0.001564 3.638375 -0.000010 -1.283530 3.140806
    14 8.842830 0.000000 0.000000 -0.857001 0.666768 -1.274254
    15 9.341935 0.000000 -0.000003 0.000000 0.000000 -0.269937
    16 11.164144 0.000001 0.000002 -1.568809 -0.134676 0.000000
    17 1.517249 -0.028662 -1.542789 1.225775 0.497010 0.334409
    18 1.304994 -0.000032 0.000000 0.073375 0.019385 0.161222
    19 1.339555 0.000032 0.000002 0.029386 -0.015904 -0.088352
    20 4.174002 -1.211733 -1.342288 1.483541 0.124479 0.319658
    21 1.556233 0.000001 0.000000 -0.086148 0.492339 -0.280276
    22 1.392563 0.019531 0.136722 -0.122591 0.371558 -0.055247
    23 4.187120 -1.046580 -0.381092 1.391886 -0.008500 0.302902
    24 1.527707 0.000001 0.000001 -0.104652 0.498059 -0.328541
    25 1.477388 0.011737 0.117191 -0.090646 0.432811 0.022179
    26 0.000016 0.001585 -3.638375 -0.336624 1.267456 2.818486
    27 8.842833 0.000000 0.000000 0.231905 0.160675 -1.798872
    28 9.341931 0.000000 0.000002 0.000000 0.000000 -0.666983
    29 11.164143 0.000000 0.000003 1.568911 -0.029078 0.000000
    30 1.498255 0.120084 1.545498 -1.949017 -0.233378 0.750109
    31 1.304991 -0.000033 -0.000001 -0.478812 0.323316 0.277347
    32 1.339555 0.000031 0.000000 -0.244395 0.051758 0.312287
    33 4.201562 -0.682690 1.351848 -1.267882 -0.032527 0.325199
    34 1.556231 0.000000 -0.000001 -0.395383 -0.751741 0.571842
    35 1.376933 -0.000001 -0.000001 0.036658 -0.123708 0.028364
    36 4.262988 -0.685306 0.382316 -1.454826 0.269163 0.541435
    37 1.527709 0.000000 0.000002 0.189848 -1.055847 0.094465
    38 1.426606 0.000018 -0.000001 -0.252304 -0.770306 0.317640
    39 1.977383 0.000000 0.000000 -0.051918 0.004823 -0.159971
    40 3.723979 2.768054 -0.049087 -3.141592 -0.000002 1.570799
    41 12.421014 0.304722 4.492689 -0.091859 -0.075839 1.616818
    42 19.916998 1.704575 4.956910 2.262592 1.451744 0.734330
  time 3
    0 1.173136 11.908214 27.713438 0.046788 0.365434 -1.535703
    1 -3.393316 -0.582048 9.745319 3.141480 -1.530755 1.570732
    2 -0.000008 0.000010 5.615749 -3.148386 -0.007911 2.008149
    3 15.693463 0.000000 0.000000 0.000000 0.000000 -1.384014
    4 22.146631 -0.000002 0.000000 -0.029071 0.069887 0.462141
    5 0.000008 -0.000006 -5.615750 -3.104944 -0.056931 2.544671
    6 15.693462 0.000000 0.000000 0.000000 0.000000 -0.896613
    7 22.146631 -0.000001 0.000000 0.024551 -0.066502 0.454296
    8 1.384163 -0.004350 -0.050781 0.053299 -0.002386 0.149432
    9 5.934389 -0.004352 0.000000 0.047231 -0.028547 0.160430
    10 5.934387 -0.004352 0.000000 0.047243 0.027181 0.163031
    11 4.996857 -0.004352 0.000000 0.047231 0.013243 0.162397
    12 4.996865 -0.001575 0.000000 0.000000 0.000000 0.000000
    13 0.000008 0.001564 3.638375 -0.000010 -1.283530 3.140806
    14 8.842830 0.000000 0.000000 -0.768863 0.774568 -1.247003
    15 9.341935 0.000000 -0.000003 0.000000 0.000000 -0.248515
    16 11.164144 0.000001 0.000002 -1.568809 -0.134741 0.000000
    17 1.517249 -0.028662 -1.542789 1.225775 0.497010 0.334409
    18 1.304994 -0.000032 0.000000 0.073375 0.019385 0.161222
    19 1.339555 0.000032 0.000002 0.029386 -0.015904 -0.088352
    20 4.174002 -1.211733 -1.342288 1.483541 0.124479 0.319658
    21 1.556233 0.000001 0.000000 -0.086148 0.492339 -0.280276
    22 1.392563 0.019531 0.136722 -0.122591 0.371558 -0.055247
    23 4.187120 -1.046580 -0.381092 1.391886 -0.008500 0.302902
    24 1.527707 0.000001 0.000001 -0.104652 0.498059 -0.328541
    25 1.477388 0.011737 0.117191 -0.090646 0.432811 0.022179
    26 0.000016 0.001585 -3.638375 -0.106355 1.282022 3.038833
    27 8.842833 0.000000 0.000000 0.311495 0.034333 -1.728874
    28 9.341931 0.000000 0.000002 0.000000 0.000000 -0.677418
    29 11.164143 0.000000 0.000003 1.568911 -0.027097 0.000000
    30 1.498255 0.120084 1.545498 -1.949017 -0.233378 0.750109
    31 1.304991 -0.000033 -0.000001 -0.478812 0.323316 0.277347
    32 1.339555 0.000031 0.000000 -0.244395 0.051758 0.312287
    33 4.201562 -0.682690 1.351848 -1.267882 -0.032527 0.325199
    34 1.556231 0.000000 -0.000001 -0.395383 -0.751741 0.571842
    35 1.376933 -0.000001 -0.000001 0.036658 -0.123708 0.028364
    36 4.262988 -0.685306 0.382316 -1.454826 0.269163 0.541435
    37 1.527709 0.000000 0.000002 0.189848 -1.055847 0.094465
    38 1.426606 0.000018 -0.000001 -0.252304 -0.770306 0.317640
    39 1.977383 0.000000 0.000000 -0.116215 0.028360 -0.074756
    40 3.723979 2.768054 -0.049087 -3.141592 -0.000002 1.570799
    41 12.421014 0.304722 4.492689 -0.091859 -0.075839 1.616818
    42 19.916998 1.704575 4.956910 2.262592 1.451744 0.734330
  time 4
    0 1.282514 12.399392 28.373615 0.040843 0.365961 -1.556247
    1 -2.936271 -0.550797 9.745319 3.141480 -1.543411 1.570732
    2 -0.000008 0.000010 5.615749 -3.138383 -0.009278 1.924137
    3 15.693463 0.000000 0.000000 0.000000 0.000000 -1.234046
    4 22.146631 -0.000002 0.000000 -0.029017 0.055845 0.465572
    5 0.000008 -0.000006 -5.615750 -3.117035 -0.044469 2.713186
    6 15.693462 0.000000 0.000000 0.000000 0.000000 -0.871380
    7 22.146631 -0.000001 0.000000 0.015465 -0.057991 0.346393
    8 1.384163 -0.004350 -0.031249 0.055289 -0.012661 0.123818
    9 5.934389 -0.004352 0.000000 0.051833 -0.027097 0.134692
    10 5.938294 -0.004352 0.000000 0.051869 0.026150 0.137458
    11 4.992950 -0.004352 0.000000 0.051845 0.012835 0.136772
    12 4.992959 -0.001575 0.000000 0.000000 0.000000 0.000000
    13 0.000008 0.001564 3.638375 -0.000010 -1.283530 3.140806
    14 8.842830 0.000000 0.000000 -0.707456 0.861403 -1.197694
    15 9.341935 0.000000 -0.000003 0.000000 0.000000 -0.231440
    16 11.168050 0.000001 0.000002 -1.568809 -0.134903 0.000000
    17 1.517249 -0.028662 -1.542789 1.225775 0.497010 0.334409
    18 1.304994 -0.000032 0.000000 0.073375 0.019385 0.161222
    19 1.339555 0.000032 0.000002 0.029386 -0.015904 -0.088352
    20 4.174002 -1.211733 -1.342288 1.483541 0.124479 0.319658
    21 1.556233 0.000001 0.000000 -0.086148 0.492339 -0.280276
    22 1.392563 0.019531 0.136722 -0.122591 0.371558 -0.055247
    23 4.187120 -1.046580 -0.381092 1.391886 -0.008500 0.302902
    24 1.527707 0.000001 0.000001 -0.104652 0.498059 -0.328541
    25 1.477388 0.011737 0.117191 -0.090646 0.432811 0.022179
    26 0.000016 0.001585 -3.638375 0.143080 1.280734 3.277975
    27 8.842833 0.000000 0.000000 0.367415 -0.110385 -1.696143
    28 9.341931 0.000000 0.000002 0.000000 0.000000 -0.682857
    29 11.164143 0.000000 0.000003 1.568911 -0.022714 0.000000
    30 1.498255 0.120084 1.545498 -1.949017 -0.233378 0.750109
    31 1.304991 -0.000033 -0.000001 -0.478812 0.323316 0.277347
    32 1.339555 0.000031 0.000000 -0.244395 0.051758 0.312287
    33 4.201562 -0.682690 1.351848 -1.267882 -0.032527 0.325199
    34 1.556231 0.000000 -0.000001 -0.395383 -0.751741 0.571842
    35 1.376933 -0.000001 -0.000001 0.036658 -0.123708 0.028364
    36 4.262988 -0.685306 0.382316 -1.454826 0.269163 0.541435
    37 1.527709 0.000000 0.000002 0.189848 -1.055847 0.094465
    38 1.426606 0.000018 -0.000001 -0.252304 -0.770306 0.317640
    39 1.977383 0.000000 0.000000 -0.136422 0.040673 0.010594
    40 3.723979 2.768054 -0.049087 -3.141592 -0.000002 1.570799
    41 12.421014 0.304722 4.492689 -0.091859 -0.075839 1.616818
    42 19.916998 1.704575 4.956910 2.262592 1.451744 0.734330
  time 5
    0 1.114541 12.170937 28.865817 0.029722 0.366297 -1.576316
    1 -3.256593 -0.472670 9.745319 3.141480 -1.557733 1.570732
    2 -0.000008 0.000010 5.615749 -3.129324 -0.011764 1.880720
    3 15.693463 0.000000 0.000000 0.000000 0.000000 -1.039123
    4 22.146631 -0.000002 0.000000 -0.034471 0.043785 0.484003
    5 0.000008 -0.000006 -5.615750 -3.113205 -0.025015 2.417132
    6 15.693462 0.000000 0.000000 0.000000 0.000000 -1.494379
    7 22.146631 -0.000001 0.000000 0.061320 -0.004977 -0.494614
    8 1.384163 -0.004350 -0.011717 0.035435 -0.024192 0.141660
    9 5.934389 -0.004352 0.000000 0.033569 -0.024377 0.152208
    10 5.934387 -0.004352 0.000000 0.033641 0.028068 0.153999
    11 4.996857 -0.004352 0.000000 0.033617 0.014945 0.153543
    12 4.996865 -0.001575 0.000000 0.000000 0.000000 0.000000
    13 0.000008 0.001564 3.638375 -0.000010 -1.283530 3.140806
    14 8.842830 0.000000 0.000000 -0.794894 0.800450 -1.217973
    15 9.341935 0.000000 -0.000003 0.000000 0.000000 -0.222682
    16 11.164144 0.000001 0.000002 -1.568809 -0.135098 0.000000
    17 1.517249 -0.028662 -1.542789 1.225775 0.497010 0.334409
    18 1.304994 -0.000032 0.000000 0.073375 0.019385 0.161222
    19 1.339555 0.000032 0.000002 0.029386 -0.015904 -0.088352
    20 4.174002 -1.211733 -1.342288 1.483541 0.124479 0.319658
    21 1.556233 0.000001 0.000000 -0.086148 0.492339 -0.280276
    22 1.392563 0.019531 0.136722 -0.122591 0.371558 -0.055247
    23 4.187120 -1.046580 -0.381092 1.391886 -0.008500 0.302902
    24 1.527707 0.000001 0.000001 -0.104652 0.498059 -0.328541
    25 1.477388 0.011737 0.117191 -0.090646 0.432811 0.022179
    26 0.000016 0.001585 -3.638375 0.349477 1.266143 3.475394
    27 8.842833 0.000000 0.000000 0.358119 -0.126159 -1.775842
    28 9.341931 0.000000 0.000002 0.000000 0.000000 -0.688801
    29 11.164143 0.000000 0.000003 1.568911 -0.018356 0.000000
    30 1.498255 0.120084 1.545498 -1.949017 -0.233378 0.750109
    31 1.304991 -0.000033 -0.000001 -0.478812 0.323316 0.277347
    32 1.339555 0.000031 0.000000 -0.244395 0.051758 0.312287
    33 4.201562 -0.682690 1.351848 -1.267882 -0.032527 0.325199
    34 1.556231 0.000000 -0.000001 -0.395383 -0.751741 0.571842
    35 1.376933 -0.000001 -0.000001 0.036658 -0.123708 0.028364
    36 4.262988 -0.685306 0.382316 -1.454826 0.269163 0.541435
    37 1.527709 0.000000 0.000002 0.189848 -1.055847 0.094465
    38 1.426606 0.000018 -0.000001 -0.252304 -0.770306 0.317640
    39 1.977383 0.000000 0.000000 -0.068670 0.013780 -0.029866
    40 3.723979 2.768054 -0.049087 -3.141592 -0.000002 1.570799
    41 12.421014 0.304722 4.492689 -0.091859 -0.075839 1.616818
    42 19.916998 1.704575 4.956910 2.262592 1.451744 0.734330
  time 6
    0 0.778593 11.799697 28.893162 0.014190 0.366297 -1.599619
    1 -3.811297 -0.339853 9.745319 0.000000 -1.568878 -1.570765
    2 -0.000008 0.000010 5.615749 -3.148197 -0.011557 1.904750
    3 15.693463 0.000000 0.000000 0.000000 0.000000 -0.912886
    4 22.146631 -0.000002 0.000000 -0.026760 0.046360 0.522697
    5 0.000008 -0.000006 -5.615750 -3.128600 -0.013798 2.401691
    6 15.693462 0.000000 0.000000 0.000000 0.000000 -1.465648
    7 22.146631 -0.000001 0.000000 0.060238 0.003751 -0.533187
    8 1.384163 -0.004350 0.000002 0.005870 -0.034879 0.174335
    9 5.934389 -0.004352 0.000000 0.006232 -0.020122 0.184466
    10 5.938294 -0.004352 0.000000 0.006292 0.031759 0.184806
    11 4.996857 -0.004352 0.000000 0.006280 0.018792 0.184715
    12 4.992959 -0.001575 0.000000 0.000000 0.000000 0.000000
    13 0.000008 0.001564 3.638375 -0.000010 -1.283530 3.140806
    14 8.842830 0.000000 0.000000 -0.914565 0.698668 -1.232559
    15 9.341935 0.000000 -0.000003 0.000000 0.000000 -0.226085
    16 11.164144 0.000001 0.000002 -1.568809 -0.135163 0.000000
    17 1.517249 -0.028662 -1.542789 1.225775 0.497010 0.334409
    18 1.304994 -0.000032 0.000000 0.073375 0.019385 0.161222
    19 1.339555 0.000032 0.000002 0.029386 -0.015904 -0.088352
    20 4.174002 -1.211733 -1.342288 1.483541 0.124479 0.319658
    21 1.556233 0.000001 0.000000 -0.086148 0.492339 -0.280276
    22 1.392563 0.019531 0.136722 -0.122591 0.371558 -0.055247
    23 4.187120 -1.046580 -0.381092 1.391886 -0.008500 0.302902
    24 1.527707 0.000001 0.000001 -0.104652 0.498059 -0.328541
    25 1.477388 0.011737 0.117191 -0.090646 0.432811 0.022179
    26 0.000016 0.001585 -3.638375 0.474939 1.250069 3.594797
    27 8.842833 0.000000 0.000000 0.312782 -0.082014 -1.891063
    28 9.341931 0.000000 0.000002 0.000000 0.000000 -0.700628
    29 11.164143 0.000000 0.000003 1.568911 -0.016350 0.000000
    30 1.498255 0.120084 1.545498 -1.949017 -0.233378 0.750109
    31 1.304991 -0.000033 -0.000001 -0.478812 0.323316 0.277347
    32 1.339555 0.000031 0.000000 -0.244395 0.051758 0.312287
    33 4.201562 -0.682690 1.351848 -1.267882 -0.032527 0.325199
    34 1.556231 0.000000 -0.000001 -0.395383 -0.751741 0.571842
    35 1.376933 -0.000001 -0.000001 0.036658 -0.123708 0.028364
    36 4.262988 -0.685306 0.382316 -1.454826 0.269163 0.541435
    37 1.527709 0.000000 0.000002 0.189848 -1.055847 0.094465
    38 1.426606 0.000018 -0.000001 -0.252304 -0.770306 0.317640
    39 1.977383 0.000000 0.000000 0.032761 -0.025226 -0.044151
    40 3.723979 2.768054 -0.049087 -3.141592 -0.000002 1.570799
    41 12.421014 0.304722 4.492689 -0.091859 -0.075839 1.616818
    42 19.916998 1.704575 4.956910 2.262592 1.451744 0.734330
  time 7
    0 0.341079 11.417035 28.459555 -0.003164 0.365961 -1.623302
    1 -4.323032 -0.175786 9.745319 0.000000 -1.554365 -1.570765
    2 -0.000008 0.000010 5.615749 -3.171316 -0.005342 1.984210
    3 15.693463 0.000000 0.000000 0.000000 0.000000 -0.737657
    4 22.146631 -0.000002 0.000000 -0.022246 0.050471 0.449290
    5 0.000008 -0.000006 -5.615750 -3.142718 -0.004497 2.401892
    6 15.693462 0.000000 0.000000 0.000000 0.000000 -1.363899
    7 22.146631 -0.000001 0.000000 0.061177 -0.001226 -0.407781
    8 1.384163 -0.004350 0.019534 -0.023293 -0.044061 0.205519
    9 5.934389 -0.004352 0.000000 -0.019858 -0.014909 0.215156
    10 5.934387 -0.004352 0.000000 -0.019823 0.036433 0.214139
    11 4.996857 -0.004352 0.000000 -0.019834 0.023598 0.214390
    12 4.992959 -0.001575 0.000000 0.000000 0.000000 0.000000
    13 0.000008 0.001564 3.638375 -0.000010 -1.283530 3.140806
    14 8.842830 0.000000 0.000000 -1.013534 0.627232 -1.223451
    15 9.341935 0.000000 -0.000003 0.000000 0.000000 -0.243537
    16 11.168050 0.000001 0.000002 -1.568809 -0.135163 0.000000
    17 1.517249 -0.028662 -1.542789 1.225775 0.497010 0.334409
    18 1.304994 -0.000032 0.000000 0.073375 0.019385 0.161222
    19 1.339555 0.000032 0.000002 0.029386 -0.015904 -0.088352
    20 4.174002 -1.211733 -1.342288 1.483541 0.124479 0.319658
    21 1.556233 0.000001 0.000000 -0.086148 0.492339 -0.280276
    22 1.392563 0.019531 0.136722 -0.122591 0.371558 -0.055247
    23 4.187120 -1.046580 -0.381092 1.391886 -0.008500 0.302902
    24 1.527707 0.000001 0.000001 -0.104652 0.498059 -0.328541
    25 1.477388 0.011737 0.117191 -0.090646 0.432811 0.022179
    26 0.000016 0.001585 -3.638375 0.413361 1.258726 3.536201
    27 8.842833 0.000000 0.000000 0.247208 -0.027407 -1.901322
    28 9.341931 0.000000 0.000002 0.000000 0.000000 -0.721498
    29 11.164143 0.000000 0.000003 1.568911 -0.016350 0.000000
    30 1.498255 0.120084 1.545498 -1.949017 -0.233378 0.750109
    31 1.304991 -0.000033 -0.000001 -0.478812 0.323316 0.277347
    32 1.339555 0.000031 0.000000 -0.244395 0.051758 0.312287
    33 4.201562 -0.682690 1.351848 -1.267882 -0.032527 0.325199
    34 1.556231 0.000000 -0.000001 -0.395383 -0.751741 0.571842
    35 1.376933 -0.000001 -0.000001 0.036658 -0.123708 0.028364
    36 4.262988 -0.685306 0.382316 -1.454826 0.269163 0.541435
    37 1.527709 0.000000 0.000002 0.189848 -1.055847 0.094465
    38 1.426606 0.000018 -0.000001 -0.252304 -0.770306 0.317640
    39 1.977383 0.000000 0.000000 0.118839 -0.078989 0.009283
    40 3.723979 2.768054 -0.049087 -3.141592 -0.000002 1.570799
    41 12.421014 0.304722 4.492689 -0.091859 -0.075839 1.616818
    42 19.916998 1.704575 4.956910 2.262592 1.451744 0.734330
  time 8
    0 -0.104247 11.177158 27.568903 -0.020613 0.365194 -1.644512
    1 -4.791796 0.019533 9.745319 0.000000 -1.541230 -1.570765
    2 -0.000008 0.000010 5.615749 -3.178204 0.014460 2.140765
    3 15.693463 0.000000 0.000000 0.000000 0.000000 -0.298610
    4 22.146631 -0.000002 0.000000 -0.046373 0.053220 -0.041326
    5 0.000008 -0.000006 -5.615750 -3.151730 0.001126 2.318938
    6 15.693462 0.000000 0.000000 0.000000 0.000000 -1.401711
    7 22.146631 -0.000001 0.000000 0.065905 -0.005073 -0.322861
    8 1.384163 -0.004350 0.039066 -0.050033 -0.050140 0.236218
    9 5.934389 -0.004352 0.000000 -0.042965 -0.008209 0.245406
    10 5.938294 -0.004352 0.000000 -0.042965 0.042521 0.243222
    11 4.996857 -0.004352 0.000000 -0.042953 0.029842 0.243778
    12 4.992959 -0.001575 0.000000 0.000000 0.000000 0.000000
    13 0.000008 0.001564 3.638375 -0.000010 -1.283530 3.140806
    14 8.842830 0.000000 0.000000 -1.104641 0.582521 -1.214984
    15 9.341935 0.000000 -0.000003 0.000000 0.000000 -0.272205
    16 11.164144 0.000001 0.000002 -1.568809 -0.135163 0.000000
    17 1.517249 -0.028662 -1.542789 1.225775 0.497010 0.334409
    18 1.304994 -0.000032 0.000000 0.073375 0.019385 0.161222
    19 1.339555 0.000032 0.000002 0.029386 -0.015904 -0.088352
    20 4.174002 -1.211733 -1.342288 1.483541 0.124479 0.319658
    21 1.556233 0.000001 0.000000 -0.086148 0.492339 -0.280276
    22 1.392563 0.019531 0.136722 -0.122591 0.371558 -0.055247
    23 4.187120 -1.046580 -0.381092 1.391886 -0.008500 0.302902
    24 1.527707 0.000001 0.000001 -0.104652 0.498059 -0.328541
    25 1.477388 0.011737 0.117191 -0.090646 0.432811 0.022179
    26 0.000016 0.001585 -3.638375 0.138613 1.280928 3.273745
    27 8.842833 0.000000 0.000000 0.179703 0.054062 -1.843467
    28 9.341931 0.000000 0.000002 0.000000 0.000000 -0.743127
    29 11.164143 0.000000 0.000003 1.568911 -0.016350 0.000000
    30 1.498255 0.120084 1.545498 -1.949017 -0.233378 0.750109
    31 1.304991 -0.000033 -0.000001 -0.478812 0.323316 0.277347
    32 1.339555 0.000031 0.000000 -0.244395 0.051758 0.312287
    33 4.201562 -0.682690 1.351848 -1.267882 -0.032527 0.325199
    34 1.556231 0.000000 -0.000001 -0.395383 -0.751741 0.571842
    35 1.376933 -0.000001 -0.000001 0.036658 -0.123708 0.028364
    36 4.262988 -0.685306 0.382316 -1.454826 0.269163 0.541435
    37 1.527709 0.000000 0.000002 0.189848 -1.055847 0.094465
    38 1.426606 0.000018 -0.000001 -0.252304 -0.770306 0.317640
    39 1.977383 0.000000 0.000000 0.181036 -0.145599 0.044092
    40 3.723979 2.768054 -0.049087 -3.141592 -0.000002 1.570799
    41 12.421014 0.304722 4.492689 -0.091859 -0.075839 1.616818
    42 19.916998 1.704575 4.956910 2.262592 1.451744 0.734330
  time 9
    0 -0.475352 11.205715 26.209486 -0.036146 0.364331 -1.660491
    1 -4.967583 0.167975 9.745319 0.000000 -1.530576 -1.570765
    2 -0.000008 0.000010 5.615749 -3.177544 0.034759 2.299869
    3 15.693463 0.000000 0.000000 0.000000 0.000000 -0.001945
    4 22.146631 -0.000002 0.000000 -0.072838 0.047351 -0.426290
    5 0.000008 -0.000006 -5.615750 -3.158902 0.002950 2.220275
    6 15.693462 0.000000 0.000000 0.000000 0.000000 -1.466244
    7 22.146631 -0.000001 0.000000 0.070890 -0.010603 -0.227490
    8 1.384163 -0.004350 0.050785 -0.069133 -0.055394 0.248653
    9 5.934389 -0.004352 0.000000 -0.059036 -0.003248 0.257491
    10 5.934387 -0.004352 0.000000 -0.059060 0.046872 0.254528
    11 4.996857 -0.004352 0.000000 -0.059036 0.034336 0.255275
    12 4.992959 -0.001575 0.000000 0.000000 0.000000 0.000000
    13 0.000008 0.001564 3.638375 -0.000010 -1.283530 3.140806
    14 8.842830 0.000000 0.000000 -1.153383 0.619338 -1.190935
    15 9.341935 0.000000 -0.000003 0.000000 0.000000 -0.308308
    16 11.164144 0.000001 0.000002 -1.568809 -0.135163 0.000000
    17 1.517249 -0.028662 -1.542789 1.225775 0.497010 0.334409
    18 1.304994 -0.000032 0.000000 0.073375 0.019385 0.161222
    19 1.339555 0.000032 0.000002 0.029386 -0.015904 -0.088352
    20 4.174002 -1.211733 -1.342288 1.483541 0.124479 0.319658
    21 1.556233 0.000001 0.000000 -0.086148 0.492339 -0.280276
    22 1.392563 0.019531 0.136722 -0.122591 0.371558 -0.055247
    23 4.187120 -1.046580 -0.381092 1.391886 -0.008500 0.302902
    24 1.527707 0.000001 0.000001 -0.104652 0.498059 -0.328541
    25 1.477388 0.011737 0.117191 -0.090646 0.432811 0.022179
    26 0.000016 0.001585 -3.638375 -0.428607 1.256732 2.730809
    27 8.842833 0.000000 0.000000 0.127573 0.118977 -1.743181
    28 9.341931 0.000000 0.000002 0.000000 0.000000 -0.767032
    29 11.164143 0.000000 0.000003 1.568911 -0.016350 0.000000
    30 1.498255 0.120084 1.545498 -1.949017 -0.233378 0.750109
    31 1.304991 -0.000033 -0.000001 -0.478812 0.323316 0.277347
    32 1.339555 0.000031 0.000000 -0.244395 0.051758 0.312287
    33 4.201562 -0.682690 1.351848 -1.267882 -0.032527 0.325199
    34 1.556231 0.000000 -0.000001 -0.395383 -0.751741 0.571842
    35 1.376933 -0.000001 -0.000001 0.036658 -0.123708 0.028364
    36 4.262988 -0.685306 0.382316 -1.454826 0.269163 0.541435
    37 1.527709 0.000000 0.000002 0.189848 -1.055847 0.094465
    38 1.426606 0.000018 -0.000001 -0.252304 -0.770306 0.317640
    39 1.977383 0.000000 0.000000 0.221058 -0.191606 0.055168
    40 3.723979 2.768054 -0.049087 -3.141592 -0.000002 1.570799
    41 12.421014 0.304722 4.492689 -0.091859 -0.075839 1.616818
    42 19.916998 1.704575 4.956910 2.262592 1.451744 0.734330
  time 10
    0 -0.830831 11.651202 25.803224 -0.047363 0.363612 -1.668576
    1 -4.616010 0.179694 9.745319 0.000000 -1.523421 -1.570765
    2 -0.000008 0.000010 5.615749 -3.194246 0.021626 1.928142
    3 15.693463 0.000000 0.000000 0.000000 0.000000 -0.938217
    4 22.146631 -0.000002 0.000000 -0.083558 0.046856 0.000660
    5 0.000008 -0.000006 -5.615750 -3.163408 0.001126 2.113993
    6 15.693462 0.000000 0.000000 0.000000 0.000000 -1.537401
    7 22.146631 -0.000001 0.000000 0.075276 -0.017599 -0.129358
    8 1.384163 -0.004350 0.058598 -0.076837 -0.062065 0.226503
    9 5.938295 -0.004352 0.000000 -0.066011 -0.002828 0.235176
    10 5.938294 -0.004352 0.000000 -0.066071 0.046476 0.231916
    11 4.996857 -0.004352 0.000000 -0.066035 0.034144 0.232736
    12 4.992959 -0.001575 0.000000 0.000000 0.000000 0.000000
    13 0.000008 0.001564 3.638375 -0.000010 -1.283530 3.140806
    14 8.842830 0.000000 0.000000 -1.118442 0.785309 -1.117080
    15 9.341935 0.000000 -0.000003 0.000000 0.000000 -0.347750
    16 11.164144 0.000001 0.000002 -1.568809 -0.135163 0.000000
    17 1.517249 -0.028662 -1.542789 1.225775 0.497010 0.334409
    18 1.304994 -0.000032 0.000000 0.073375 0.019385 0.161222
    19 1.339555 0.000032 0.000002 0.029386 -0.015904 -0.088352
    20 4.174002 -1.211733 -1.342288 1.483541 0.124479 0.319658
    21 1.556233 0.000001 0.000000 -0.086148 0.492339 -0.280276
    22 1.392563 0.019531 0.136722 -0.122591 0.371558 -0.055247
    23 4.187120 -1.046580 -0.381092 1.391886 -0.008500 0.302902
    24 1.527707 0.000001 0.000001 -0.104652 0.498059 -0.328541
    25 1.477388 0.011737 0.117191 -0.090646 0.432811 0.022179
    26 0.000016 0.001585 -3.638375 -0.730494 1.193215 2.446482
    27 8.842833 0.000000 0.000000 0.126286 0.065567 -1.649943
    28 9.341931 0.000000 0.000002 0.000000 0.000000 -0.774179
    29 11.164143 0.000000 0.000003 1.568911 -0.016350 0.000000
    30 1.498255 0.120084 1.545498 -1.949017 -0.233378 0.750109
    31 1.304991 -0.000033 -0.000001 -0.478812 0.323316 0.277347
    32 1.339555 0.000031 0.000000 -0.244395 0.051758 0.312287
    33 4.201562 -0.682690 1.351848 -1.267882 -0.032527 0.325199
    34 1.556231 0.000000 -0.000001 -0.395383 -0.751741 0.571842
    35 1.376933 -0.000001 -0.000001 0.036658 -0.123708 0.028364
    36 4.262988 -0.685306 0.382316 -1.454826 0.269163 0.541435
    37 1.527709 0.000000 0.000002 0.189848 -1.055847 0.094465
    38 1.426606 0.000018 -0.000001 -0.252304 -0.770306 0.317640
    39 1.977383 0.000000 0.000000 0.247914 -0.191072 0.058468
    40 3.723979 2.768054 -0.049087 -3.141592 -0.000002 1.570799
    41 12.421014 0.304722 4.492689 -0.091859 -0.075839 1.616818
    42 19.916998 1.704575 4.956910 2.262592 1.451744 0.734330
  time 11
    0 -1.186311 12.347989 26.834505 -0.050719 0.363948 -1.652882
    1 -4.053492 0.136724 9.745319 0.000000 -1.520808 -1.570765
    2 -0.000008 0.000010 5.615749 -3.196699 0.031693 2.050200
    3 15.693463 0.000000 0.000000 0.000000 0.000000 -1.109688
    4 22.146631 -0.000002 0.000000 -0.071951 0.048540 0.193577
    5 0.000008 -0.000006 -5.615750 -3.164046 -0.003251 2.008312
    6 15.693462 0.000000 0.000000 0.000000 0.000000 -1.595384
    7 22.146631 -0.000001 0.000000 0.078295 -0.025822 -0.036111
    8 1.384163 -0.004350 0.062504 -0.079951 -0.066028 0.191756
    9 5.934389 -0.004352 0.000000 -0.070266 -0.004063 0.200375
    10 5.938294 -0.004352 0.000000 -0.070338 0.044451 0.196974
    11 4.996857 -0.004352 0.000000 -0.070302 0.032298 0.197827
    12 4.992959 -0.001575 0.000000 0.000000 0.000000 0.000000
    13 0.000008 0.001564 3.638375 -0.000010 -1.283530 3.140806
    14 8.842830 0.000000 0.000000 -1.015805 0.981950 -0.983884
    15 9.341935 0.000000 -0.000003 0.000000 0.000000 -0.387066
    16 11.164144 0.000001 0.000002 -1.568809 -0.135163 0.000000
    17 1.517249 -0.028662 -1.542789 1.225775 0.497010 0.334409
    18 1.304994 -0.000032 0.000000 0.073375 0.019385 0.161222
    19 1.339555 0.000032 0.000002 0.029386 -0.015904 -0.088352
    20 4.174002 -1.211733 -1.342288 1.483541 0.124479 0.319658
    21 1.556233 0.000001 0.000000 -0.086148 0.492339 -0.280276
    22 1.392563 0.019531 0.136722 -0.122591 0.371558 -0.055247
    23 4.187120 -1.046580 -0.381092 1.391886 -0.008500 0.302902
    24 1.527707 0.000001 0.000001 -0.104652 0.498059 -0.328541
    25 1.477388 0.011737 0.117191 -0.090646 0.432811 0.022179
    26 0.000016 0.001585 -3.638375 -0.702106 1.201605 2.472872
    27 8.842833 0.000000 0.000000 0.151600 -0.062493 -1.671298
    28 9.341931 0.000000 0.000002 0.000000 0.000000 -0.756661
    29 11.164143 0.000000 0.000003 1.568911 -0.016350 0.000000
    30 1.498255 0.120084 1.545498 -1.949017 -0.233378 0.750109
    31 1.304991 -0.000033 -0.000001 -0.478812 0.323316 0.277347
    32 1.339555 0.000031 0.000000 -0.244395 0.051758 0.312287
    33 4.201562 -0.682690 1.351848 -1.267882 -0.032527 0.325199
    34 1.556231 0.000000 -0.000001 -0.395383 -0.751741 0.571842
    35 1.376933 -0.000001 -0.000001 0.036658 -0.123708 0.028364
    36 4.262988 -0.685306 0.382316 -1.454826 0.269163 0.541435
    37 1.527709 0.000000 0.000002 0.189848 -1.055847 0.094465
    38 1.426606 0.000018 -0.000001 -0.252304 -0.770306 0.317640
    39 1.977383 0.000000 0.000000 0.277569 -0.160779 0.019726
    40 3.723979 2.768054 -0.049087 -3.141592 -0.000002 1.570799
    41 12.421014 0.304722 4.492689 -0.091859 -0.075839 1.616818
    42 19.916998 1.704575 4.956910 2.262592 1.451744 0.734330
  time 12
    0 -1.459757 12.999086 28.240798 -0.045829 0.365194 -1.616359
    1 -3.471443 0.074222 9.745319 0.000000 -1.524991 -1.570765
    2 -0.000008 0.000010 5.615749 -3.185093 0.041263 2.324535
    3 15.693463 0.000000 0.000000 0.000000 0.000000 -1.047126
    4 22.146631 -0.000002 0.000000 -0.039764 0.046732 0.296347
    5 0.000008 -0.000006 -5.615750 -3.158789 -0.009482 1.911254
    6 15.693462 0.000000 0.000000 0.000000 0.000000 -1.620691
    7 22.146631 -0.000001 0.000000 0.079234 -0.034717 0.044434
    8 1.384163 -0.004350 0.062504 -0.078699 -0.063912 0.157269
    9 5.934389 -0.004352 0.000000 -0.071368 -0.005956 0.165956
    10 5.934387 -0.004352 0.000000 -0.071416 0.041718 0.162544
    11 4.996857 -0.004352 0.000000 -0.071392 0.029806 0.163400
    12 4.992959 -0.001575 0.000000 0.000000 0.000000 0.000000
    13 0.000008 0.001564 3.638375 -0.000010 -1.283530 3.140806
    14 8.842830 0.000000 0.000000 -0.823196 1.143197 -0.772848
    15 9.341935 0.000000 -0.000003 0.000000 0.000000 -0.422287
    16 11.164144 0.000001 0.000002 -1.568809 -0.135163 0.000000
    17 1.517249 -0.028662 -1.542789 1.225775 0.497010 0.334409
    18 1.304994 -0.000032 0.000000 0.073375 0.019385 0.161222
    19 1.339555 0.000032 0.000002 0.029386 -0.015904 -0.088352
    20 4.174002 -1.211733 -1.342288 1.483541 0.124479 0.319658
    21 1.556233 0.000001 0.000000 -0.086148 0.492339 -0.280276
    22 1.392563 0.019531 0.136722 -0.122591 0.371558 -0.055247
    23 4.187120 -1.046580 -0.381092 1.391886 -0.008500 0.302902
    24 1.527707 0.000001 0.000001 -0.104652 0.498059 -0.328541
    25 1.477388 0.011737 0.117191 -0.090646 0.432811 0.022179
    26 0.000016 0.001585 -3.638375 -0.617473 1.223174 2.552137
    27 8.842833 0.000000 0.000000 0.189929 -0.188627 -1.715544
    28 9.341931 0.000000 0.000002 0.000000 0.000000 -0.734779
    29 11.164143 0.000000 0.000003 1.568911 -0.016350 0.000000
    30 1.498255 0.120084 1.545498 -1.949017 -0.233378 0.750109
    31 1.304991 -0.000033 -0.000001 -0.478812 0.323316 0.277347
    32 1.339555 0.000031 0.000000 -0.244395 0.051758 0.312287
    33 4.201562 -0.682690 1.351848 -1.267882 -0.032527 0.325199
    34 1.556231 0.000000 -0.000001 -0.395383 -0.751741 0.571842
    35 1.376933 -0.000001 -0.000001 0.036658 -0.123708 0.028364
    36 4.262988 -0.685306 0.382316 -1.454826 0.269163 0.541435
    37 1.527709 0.000000 0.000002 0.189848 -1.055847 0.094465
    38 1.426606 0.000018 -0.000001 -0.252304 -0.770306 0.317640
    39 1.977383 0.000000 0.000000 0.294321 -0.119017 -0.027018
    40 3.723979 2.768054 -0.049087 -3.141592 -0.000002 1.570799
    41 12.421014 0.304722 4.492689 -0.091859 -0.075839 1.616818
    42 19.916998 1.704575 4.956910 2.262592 1.451744 0.734330
  time 13
    0 -1.549603 13.290366 28.947851 -0.036241 0.366057 -1.583925
    1 -3.096432 0.011720 9.745319 0.000000 -1.536101 -1.570765
    2 -0.000008 0.000010 5.615749 -3.164993 0.039647 2.645290
    3 15.693463 0.000000 0.000000 0.000000 0.000000 -0.888877
    4 22.146631 -0.000002 0.000000 -0.014482 0.041903 0.295935
    5 0.000008 -0.000006 -5.615750 -3.149327 -0.013677 1.825158
    6 15.693462 0.000000 0.000000 0.000000 0.000000 -1.547524
    7 22.146631 -0.000001 0.000000 0.074136 -0.046282 0.101572
    8 1.384163 -0.004350 0.042972 -0.073867 -0.054425 0.135896
    9 5.934389 -0.004352 0.000000 -0.069043 -0.007562 0.144731
    10 5.934387 -0.004352 0.000000 -0.069055 0.039417 0.141481
    11 4.996857 -0.004352 0.000000 -0.069043 0.027660 0.142293
    12 4.992959 -0.001575 0.000000 0.000000 0.000000 0.000000
    13 0.000008 0.001564 3.638375 -0.000010 -1.283530 3.140806
    14 8.842830 0.000000 0.000000 -0.625433 1.216379 -0.574620
    15 9.341935 0.000000 -0.000003 0.000000 0.000000 -0.449505
    16 11.164144 0.000001 0.000002 -1.568809 -0.135163 0.000000
    17 1.517249 -0.028662 -1.542789 1.225775 0.497010 0.334409
    18 1.304994 -0.000032 0.000000 0.073375 0.019385 0.161222
    19 1.339555 0.000032 0.000002 0.029386 -0.015904 -0.088352
    20 4.174002 -1.211733 -1.342288 1.483541 0.124479 0.319658
    21 1.556233 0.000001 0.000000 -0.086148 0.492339 -0.280276
    22 1.392563 0.019531 0.136722 -0.122591 0.371558 -0.055247
    23 4.187120 -1.046580 -0.381092 1.391886 -0.008500 0.302902
    24 1.527707 0.000001 0.000001 -0.104652 0.498059 -0.328541
    25 1.477388 0.011737 0.117191 -0.090646 0.432811 0.022179
    26 0.000016 0.001585 -3.638375 -0.482212 1.248926 2.679904
    27 8.842833 0.000000 0.000000 0.229116 -0.262652 -1.786380
    28 9.341931 0.000000 0.000002 0.000000 0.000000 -0.709798
    29 11.164143 0.000000 0.000003 1.568911 -0.016350 0.000000
    30 1.498255 0.120084 1.545498 -1.949017 -0.233378 0.750109
    31 1.304991 -0.000033 -0.000001 -0.478812 0.323316 0.277347
    32 1.339555 0.000031 0.000000 -0.244395 0.051758 0.312287
    33 4.201562 -0.682690 1.351848 -1.267882 -0.032527 0.325199
    34 1.556231 0.000000 -0.000001 -0.395383 -0.751741 0.571842
    35 1.376933 -0.000001 -0.000001 0.036658 -0.123708 0.028364
    36 4.262988 -0.685306 0.382316 -1.454826 0.269163 0.541435
    37 1.527709 0.000000 0.000002 0.189848 -1.055847 0.094465
    38 1.426606 0.000018 -0.000001 -0.252304 -0.770306 0.317640
    39 1.977383 0.000000 0.000000 0.291522 -0.090680 -0.051882
    40 3.723979 2.768054 -0.049087 -3.141592 -0.000002 1.570799
    41 12.421014 0.304722 4.492689 -0.091859 -0.075839 1.616818
    42 19.916998 1.704575 4.956910 2.262592 1.451744 0.734330
  time 14
    0 -1.420693 12.873436 29.154889 -0.022819 0.366297 -1.560623
    1 -3.119870 -0.007812 9.745319 0.000000 -1.552004 -1.570765
    2 -0.000008 0.000010 5.615749 -3.151500 0.021254 2.783641
    3 15.693463 0.000000 0.000000 0.000000 0.000000 -1.029102
    4 22.146631 -0.000002 0.000000 -0.037722 0.012680 -0.305362
    5 0.000008 -0.000006 -5.615750 -3.136072 -0.016565 1.771616
    6 15.693462 0.000000 0.000000 0.000000 0.000000 -1.379307
    7 22.146631 -0.000001 0.000000 0.067358 -0.055971 0.094477
    8 1.384163 -0.004350 0.019534 -0.062985 -0.039470 0.136544
    9 5.938295 -0.004352 0.000000 -0.060318 -0.008605 0.145534
    10 5.934387 -0.004352 0.000000 -0.060306 0.037787 0.142743
    11 4.996857 -0.004352 0.000000 -0.060294 0.026186 0.143439
    12 4.992959 -0.001575 0.000000 0.000000 0.000000 0.000000
    13 0.000008 0.001564 3.638375 -0.000010 -1.283530 3.140806
    14 8.842830 0.000000 0.000000 -0.689025 1.159244 -0.674730
    15 9.341935 0.000000 -0.000003 0.000000 0.000000 -0.465572
    16 11.164144 0.000001 0.000002 -1.568809 -0.136592 0.000000
    17 1.517249 -0.028662 -1.542789 1.225775 0.497010 0.334409
    18 1.304994 -0.000032 0.000000 0.073375 0.019385 0.161222
    19 1.339555 0.000032 0.000002 0.029386 -0.015904 -0.088352
    20 4.174002 -1.211733 -1.342288 1.483541 0.124479 0.319658
    21 1.556233 0.000001 0.000000 -0.086148 0.492339 -0.280276
    22 1.392563 0.019531 0.136722 -0.122591 0.371558 -0.055247
    23 4.187120 -1.046580 -0.381092 1.391886 -0.008500 0.302902
    24 1.527707 0.000001 0.000001 -0.104652 0.498059 -0.328541
    25 1.477388 0.011737 0.117191 -0.090646 0.432811 0.022179
    26 0.000016 0.001585 -3.638375 -0.308861 1.270083 2.844972
    27 8.842833 0.000000 0.000000 0.256719 -0.245837 -1.868381
    28 9.341931 0.000000 0.000002 0.000000 0.000000 -0.683489
    29 11.164143 0.000000 0.000003 1.568911 -0.016350 0.000000
    30 1.498255 0.120084 1.545498 -1.949017 -0.233378 0.750109
    31 1.304991 -0.000033 -0.000001 -0.478812 0.323316 0.277347
    32 1.339555 0.000031 0.000000 -0.244395 0.051758 0.312287
    33 4.201562 -0.682690 1.351848 -1.267882 -0.032527 0.325199
    34 1.556231 0.000000 -0.000001 -0.395383 -0.751741 0.571842
    35 1.376933 -0.000001 -0.000001 0.036658 -0.123708 0.028364
    36 4.262988 -0.685306 0.382316 -1.454826 0.269163 0.541435
    37 1.527709 0.000000 0.000002 0.189848 -1.055847 0.094465
    38 1.426606 0.000018 -0.000001 -0.252304 -0.770306 0.317640
    39 1.977383 0.000000 0.000000 0.262829 -0.077234 -0.072089
    40 3.723979 2.768054 -0.049087 -3.141592 -0.000002 1.570799
    41 12.421014 0.304722 4.492689 -0.091859 -0.075839 1.616818
    42 19.916998 1.704575 4.956910 2.262592 1.451744 0.734330
  time 15
    0 -1.170685 11.988173 28.900975 -0.005944 0.366249 -1.536939
    1 -3.416754 -0.046875 9.745319 0.000000 -1.570796 -1.570765
    2 -0.000008 0.000010 5.615749 -3.150462 0.004600 2.579847
    3 15.693463 0.000000 0.000000 0.000000 0.000000 -1.210664
    4 22.146631 -0.000002 0.000000 -0.040973 0.003764 -0.659363
    5 0.000008 -0.000006 -5.615750 -3.118461 -0.021732 1.771816
    6 15.693462 0.000000 0.000000 0.000000 0.000000 -1.107703
    7 22.146631 -0.000001 0.000000 0.066902 -0.061549 -0.061940
    8 1.384163 -0.004350 0.000002 -0.045940 -0.021950 0.152962
    9 5.934389 -0.004352 0.000000 -0.045781 -0.009743 0.162208
    10 5.938294 -0.004352 0.000000 -0.045757 0.036169 0.160095
    11 4.996857 -0.004352 0.000000 -0.045757 0.024676 0.160626
    12 4.992959 -0.001575 0.000000 0.000000 0.000000 0.000000
    13 0.000008 0.001564 3.638375 -0.000010 -1.283530 3.140806
    14 8.842830 0.000000 0.000000 -0.863028 0.983309 -0.919492
    15 9.341935 0.000000 -0.000003 0.000000 0.000000 -0.471810
    16 11.164144 0.000001 0.000002 -1.568809 -0.139028 0.000000
    17 1.517249 -0.028662 -1.542789 1.225775 0.497010 0.334409
    18 1.304994 -0.000032 0.000000 0.073375 0.019385 0.161222
    19 1.339555 0.000032 0.000002 0.029386 -0.015904 -0.088352
    20 4.174002 -1.211733 -1.342288 1.483541 0.124479 0.319658
    21 1.556233 0.000001 0.000000 -0.086148 0.492339 -0.280276
    22 1.392563 0.019531 0.136722 -0.122591 0.371558 -0.055247
    23 4.187120 -1.046580 -0.381092 1.391886 -0.008500 0.302902
    24 1.527707 0.000001 0.000001 -0.104652 0.498059 -0.328541
    25 1.477388 0.011737 0.117191 -0.090646 0.432811 0.022179
    26 0.000016 0.001585 -3.638375 -0.126961 1.281341 3.019125
    27 8.842833 0.000000 0.000000 0.268303 -0.160672 -1.943613
    28 9.341931 0.000000 0.000002 0.000000 0.000000 -0.656864
    29 11.164143 0.000000 0.000003 1.568911 -0.016350 0.000000
    30 1.498255 0.120084 1.545498 -1.949017 -0.233378 0.750109
    31 1.304991 -0.000033 -0.000001 -0.478812 0.323316 0.277347
    32 1.339555 0.000031 0.000000 -0.244395 0.051758 0.312287
    33 4.201562 -0.682690 1.351848 -1.267882 -0.032527 0.325199
    34 1.556231 0.000000 -0.000001 -0.395383 -0.751741 0.571842
    35 1.376933 -0.000001 -0.000001 0.036658 -0.123708 0.028364
    36 4.262988 -0.685306 0.382316 -1.454826 0.269163 0.541435
    37 1.527709 0.000000 0.000002 0.189848 -1.055847 0.094465
    38 1.426606 0.000018 -0.000001 -0.252304 -0.770306 0.317640
    39 1.977383 0.000000 0.000000 0.213710 -0.065721 -0.112775
    40 3.723979 2.768054 -0.049087 -3.141592 -0.000002 1.570799
    41 12.421014 0.304722 4.492689 -0.091859 -0.075839 1.616818
    42 19.916998 1.704575 4.956910 2.262592 1.451744 0.734330
  time 16
    0 -0.830831 11.217137 28.186109 0.011601 0.365722 -1.515729
    1 -3.823017 -0.101565 9.745319 -3.141480 -1.551980 1.570732
    2 -0.000008 0.000010 5.615749 -3.144234 -0.007165 2.371228
    3 15.693463 0.000000 0.000000 0.000000 0.000000 -1.359031
    4 22.146631 -0.000002 0.000000 -0.045110 0.006389 -0.718043
    5 0.000008 -0.000006 -5.615750 -3.101151 -0.030091 1.810987
    6 15.693462 0.000000 0.000000 0.000000 0.000000 -0.868105
    7 22.146631 -0.000001 0.000000 0.069693 -0.066165 -0.184244
    8 1.384163 -0.004350 -0.023436 -0.027370 -0.004592 0.175598
    9 5.934389 -0.004352 0.000000 -0.030597 -0.011385 0.185040
    10 5.938294 -0.004352 0.000000 -0.030573 0.034288 0.183644
    11 4.996857 -0.004352 0.000000 -0.030573 0.022867 0.183986
    12 4.996865 -0.001575 0.000000 0.000000 0.000000 0.000000
    13 0.000008 0.001564 3.638375 -0.000010 -1.283530 3.140806
    14 8.842830 0.000000 0.000000 -0.964006 0.768097 -1.100501
    15 9.341935 0.000000 -0.000003 0.000000 0.000000 -0.471747
    16 11.164144 0.000001 0.000002 -1.568809 -0.139515 0.000000
    17 1.517249 -0.028662 -1.542789 1.225775 0.497010 0.334409
    18 1.304994 -0.000032 0.000000 0.073375 0.019385 0.161222
    19 1.339555 0.000032 0.000002 0.029386 -0.015904 -0.088352
    20 4.174002 -1.211733 -1.342288 1.483541 0.124479 0.319658
    21 1.556233 0.000001 0.000000 -0.086148 0.492339 -0.280276
    22 1.392563 0.019531 0.136722 -0.122591 0.371558 -0.055247
    23 4.187120 -1.046580 -0.381092 1.391886 -0.008500 0.302902
    24 1.527707 0.000001 0.000001 -0.104652 0.498059 -0.328541
    25 1.477388 0.011737 0.117191 -0.090646 0.432811 0.022179
    26 0.000016 0.001585 -3.638375 0.021076 1.283481 3.161024
    27 8.842833 0.000000 0.000000 0.265085 -0.049479 -2.009634
    28 9.341931 0.000000 0.000002 0.000000 0.000000 -0.631630
    29 11.164143 0.000000 0.000003 1.568911 -0.016350 0.000000
    30 1.498255 0.120084 1.545498 -1.949017 -0.233378 0.750109
    31 1.304991 -0.000033 -0.000001 -0.478812 0.323316 0.277347
    32 1.339555 0.000031 0.000000 -0.244395 0.051758 0.312287
    33 4.201562 -0.682690 1.351848 -1.267882 -0.032527 0.325199
    34 1.556231 0.000000 -0.000001 -0.395383 -0.751741 0.571842
    35 1.376933 -0.000001 -0.000001 0.036658 -0.123708 0.028364
    36 4.262988 -0.685306 0.382316 -1.454826 0.269163 0.541435
    37 1.527709 0.000000 0.000002 0.189848 -1.055847 0.094465
    38 1.426606 0.000018 -0.000001 -0.252304 -0.770306 0.317640
    39 1.977383 0.000000 0.000000 0.162841 -0.057097 -0.155269
    40 3.723979 2.768054 -0.049087 -3.141592 -0.000002 1.570799
    41 12.421014 0.304722 4.492689 -0.091859 -0.075839 1.616818
    42 19.916998 1.704575 4.956910 2.262592 1.451744 0.734330
  time 17
    0 -0.061277 11.160024 26.096202 0.037008 0.364571 -1.492427
    1 -4.377721 -0.285164 9.745319 3.141480 -1.530000 1.570732
    2 -0.000008 0.000010 5.615749 -3.135458 -0.015326 2.317709
    3 15.693463 0.000000 0.000000 0.000000 0.000000 -1.398280
    4 22.146631 -0.000002 0.000000 -0.027620 0.055028 0.654006
    5 0.000008 -0.000006 -5.615750 -3.092027 -0.058086 2.014395
    6 15.693462 0.000000 0.000000 0.000000 0.000000 -0.926683
    7 22.146631 -0.000001 0.000000 0.080203 -0.076912 0.215380
    8 1.384163 -0.004350 -0.050781 0.006143 0.011225 0.152347
    9 5.938295 -0.004352 0.000000 -0.000012 -0.017438 0.162189
    10 5.938294 -0.004352 0.000000 0.000012 0.029099 0.162181
    11 4.996857 -0.004352 0.000000 0.000012 0.017450 0.162189
    12 4.992959 -0.001575 0.000000 0.000000 0.000000 0.000000
    13 0.000008 0.001564 3.638375 -0.000010 -1.283530 3.140806
    14 8.842830 0.000000 0.000000 -0.870802 0.773015 -1.139848
    15 9.341935 0.000000 -0.000003 0.000000 0.000000 -0.310576
    16 11.168050 0.000001 0.000002 -1.568809 -0.135163 0.000000
    17 1.517249 -0.028662 -1.542789 1.225775 0.497010 0.334409
    18 1.304994 -0.000032 0.000000 0.073375 0.019385 0.161222
    19 1.339555 0.000032 0.000002 0.029386 -0.015904 -0.088352
    20 4.174002 -1.211733 -1.342288 1.483541 0.124479 0.319658
    21 1.556233 0.000001 0.000000 -0.086148 0.492339 -0.280276
    22 1.392563 0.019531 0.136722 -0.122591 0.371558 -0.055247
    23 4.187120 -1.046580 -0.381092 1.391886 -0.008500 0.302902
    24 1.527707 0.000001 0.000001 -0.104652 0.498059 -0.328541
    25 1.477388 0.011737 0.117191 -0.090646 0.432811 0.022179
    26 0.000016 0.001585 -3.638375 -0.578998 1.231515 2.588333
    27 8.842833 0.000000 0.000000 0.319504 -0.011425 -1.741924
    28 9.341931 0.000000 0.000002 0.000000 0.000000 -0.609053
    29 11.164143 0.000000 0.000003 1.568911 -0.016350 0.000000
    30 1.498255 0.120084 1.545498 -1.949017 -0.233378 0.750109
    31 1.304991 -0.000033 -0.000001 -0.478812 0.323316 0.277347
    32 1.339555 0.000031 0.000000 -0.244395 0.051758 0.312287
    33 4.201562 -0.682690 1.351848 -1.267882 -0.032527 0.325199
    34 1.556231 0.000000 -0.000001 -0.395383 -0.751741 0.571842
    35 1.376933 -0.000001 -0.000001 0.036658 -0.123708 0.028364
    36 4.262988 -0.685306 0.382316 -1.454826 0.269163 0.541435
    37 1.527709 0.000000 0.000002 0.189848 -1.055847 0.094465
    38 1.426606 0.000018 -0.000001 -0.252304 -0.770306 0.317640
    39 1.977383 0.000000 0.000000 0.053668 -0.034872 0.022981
    40 3.723979 2.768054 -0.049087 -3.141592 -0.000002 1.570799
    41 12.421014 0.304722 4.492689 -0.091859 -0.075839 1.616818
    42 19.916998 1.704575 4.956910 2.262592 1.451744 0.734330
end
