// Created by Crowbar 0.42.0.0
version 1
nodes
  0 "Bip01" -1
  1 "Bip01 Pelvis" 0
  2 "Bip01 L Thigh" 1
  3 "Bip01 L Calf" 2
  4 "Bip01 L Foot" 3
  5 "Bip01 R Thigh" 1
  6 "Bip01 R Calf" 5
  7 "Bip01 R Foot" 6
  8 "Bip01 Spine" 1
  9 "Bip01 Spine1" 8
  10 "Bip01 Spine2" 9
  11 "Bip01 Spine3" 10
  12 "Bip01 Neck" 11
  13 "Bip01 L Clavicle" 12
  14 "Bip01 L UpperArm" 13
  15 "Bip01 L Forearm" 14
  16 "Bip01 L Hand" 15
  17 "Bip01 L Finger0" 16
  18 "Bip01 L Finger01" 17
  19 "Bip01 L Finger02" 18
  20 "Bip01 L Finger1" 16
  21 "Bip01 L Finger11" 20
  22 "Bip01 L Finger12" 21
  23 "Bip01 L Finger2" 16
  24 "Bip01 L Finger21" 23
  25 "Bip01 L Finger22" 24
  26 "Bip01 R Clavicle" 12
  27 "Bip01 R UpperArm" 26
  28 "Bip01 R Forearm" 27
  29 "Bip01 R Hand" 28
  30 "Bip01 R Finger0" 29
  31 "Bip01 R Finger01" 30
  32 "Bip01 R Finger02" 31
  33 "Bip01 R Finger1" 29
  34 "Bip01 R Finger11" 33
  35 "Bip01 R Finger12" 34
  36 "Bip01 R Finger2" 29
  37 "Bip01 R Finger21" 36
  38 "Bip01 R Finger22" 37
  39 "Bip01 Head" 12
  40 "Bone05" 39
  41 "m4" 29
  42 "SHOTGUN" 29
end
skeleton
  time 0
    0 0.071540 0.000000 28.029854 0.000000 0.000000 -2.033429
    1 -0.526041 0.000001 9.745319 0.000000 -1.570796 -1.571053
    2 -0.000008 0.000010 5.615749 -3.374572 -0.330668 2.577662
    3 15.693463 0.000000 0.000000 0.000000 0.000000 -0.487270
    4 22.146631 -0.000002 0.000000 0.114966 -0.144034 -0.143089
    5 0.000008 -0.000006 -5.615750 -2.929552 0.242050 3.196003
    6 15.693462 0.000000 0.000000 0.000000 0.000000 -0.482099
    7 22.146631 -0.000001 0.000000 0.274871 0.248047 0.485010
    8 1.384163 -0.004350 0.000002 -0.372596 -0.003462 0.086545
    9 5.934389 -0.004352 0.000000 0.000000 0.000000 0.000000
    10 5.938294 -0.004352 0.000000 0.000000 0.000000 0.000000
    11 4.996857 -0.004352 0.000000 0.000000 0.000000 0.000000
    12 4.992959 -0.001575 0.000000 0.000000 0.000000 0.000000
    13 0.000008 0.001564 3.638375 -0.000010 -1.284203 3.140806
    14 8.842830 0.000000 0.000000 -0.414917 -0.110867 -0.914725
    15 9.341935 0.000000 -0.000003 0.000000 0.000000 -0.852998
    16 11.164144 0.000001 0.000002 -4.515846 0.471561 -0.520863
    17 1.517249 -0.028662 -1.542789 1.340822 0.669808 1.073159
    18 1.304994 -0.000032 0.000000 0.073375 0.019385 0.161222
    19 1.339555 0.000032 0.000002 0.029386 -0.015904 -0.088352
    20 4.291193 -1.106261 -1.537607 1.799064 -0.155480 0.478532
    21 1.556233 0.000001 0.000000 -0.110501 0.627319 -0.337152
    22 1.376937 0.000000 -0.000001 -0.047314 0.122357 -0.002898
    23 4.179307 -1.331745 -0.599849 1.721115 -0.276334 0.419196
    24 1.527707 0.000001 0.000001 -0.107780 0.590061 -0.342527
    25 1.426605 0.000018 0.000000 -0.034954 0.176430 0.038718
    26 0.000016 0.001585 -3.638375 -0.000010 1.284211 3.140787
    27 8.842833 0.000000 0.000000 0.956009 -0.539646 -2.199040
    28 9.341931 0.000000 0.000002 0.000000 0.000000 -0.994895
    29 11.164143 0.000000 0.000003 1.805022 0.075445 0.649462
    30 1.498255 0.120084 1.545498 -1.949017 -0.233378 0.750109
    31 1.304991 -0.000033 -0.000001 -0.478812 0.323316 0.277347
    32 1.339555 0.000031 0.000000 -0.244395 0.051758 0.312287
    33 4.201562 -0.682690 1.351848 -1.267882 -0.032527 0.325199
    34 1.556231 0.000000 -0.000001 -0.395383 -0.751741 0.571842
    35 1.376933 -0.000001 -0.000001 0.036658 -0.123708 0.028364
    36 4.262988 -0.685306 0.382316 -1.454826 0.269163 0.541435
    37 1.527709 0.000000 0.000002 0.189848 -1.055847 0.094465
    38 1.426606 0.000018 -0.000001 -0.252304 -0.770306 0.317640
    39 1.977383 0.000000 0.000000 0.835680 0.294310 0.196032
    40 3.723979 2.768054 -0.049087 -3.141592 -0.000002 1.570799
    41 12.421014 0.304722 4.492689 -0.091859 -0.075839 1.616818
    42 19.916998 1.704575 4.956910 2.262592 1.451744 0.734330
  time 1
    0 0.048102 0.131362 27.436086 0.000096 -0.016730 -2.023252
    1 -0.526041 0.000001 9.745319 0.000000 -1.570796 -1.570765
    2 -0.000008 0.000010 5.615749 -3.354945 -0.345499 2.520957
    3 15.693463 0.000000 0.000000 0.000000 0.000000 -0.580452
    4 22.146631 -0.000002 0.000000 0.128346 -0.140641 -0.121456
    5 0.000008 -0.000006 -5.615750 -2.945173 0.256427 3.136311
    6 15.693462 0.000000 0.000000 0.000000 0.000000 -0.613472
    7 22.146631 -0.000001 0.000000 0.281593 0.246652 0.540151
    8 1.384163 -0.004350 0.000002 -0.231594 -0.001454 0.089978
    9 5.934389 -0.004352 0.000000 0.085654 0.013303 0.000727
    10 5.934387 -0.004352 0.000000 -0.032934 0.016970 -0.001387
    11 4.996857 -0.004352 0.000000 0.041622 0.036709 0.001120
    12 4.992959 -0.001575 0.000000 0.000000 0.004374 0.000000
    13 -0.015617 0.001564 3.638375 -0.071531 -1.279166 3.209549
    14 8.842830 0.000000 0.000000 -0.182651 0.254009 -0.701412
    15 9.341935 0.000000 -0.000003 0.000000 0.000000 -0.842413
    16 11.164144 0.000001 0.000002 -3.857434 0.396147 -0.286322
    17 1.517249 -0.028662 -1.542789 1.289669 0.554513 0.922876
    18 1.304994 -0.000032 0.000000 0.073375 0.019385 0.161222
    19 1.339555 0.000032 0.000002 0.029386 -0.015904 -0.088352
    20 4.291193 -1.106261 -1.537607 1.799064 -0.155480 0.478532
    21 1.556233 0.000001 0.000000 -0.110453 0.600200 -0.339355
    22 1.376937 0.000000 -0.000001 -0.047314 0.122357 -0.002898
    23 4.179307 -1.331745 -0.599849 1.721115 -0.276334 0.419196
    24 1.527707 0.000001 0.000001 -0.108703 0.565255 -0.348124
    25 1.426605 0.000018 0.000000 -0.034954 0.176430 0.038718
    26 0.011736 0.001585 -3.638375 -0.000010 1.288637 3.140787
    27 8.842833 0.000000 0.000000 0.688349 -0.766042 -1.744925
    28 9.341931 0.000000 0.000002 0.000000 0.000000 -1.212386
    29 11.164143 0.000000 0.000003 1.754854 0.023840 0.733859
    30 1.498255 0.120084 1.545498 -1.949017 -0.233378 0.750109
    31 1.304991 -0.000033 -0.000001 -0.478812 0.323316 0.277347
    32 1.339555 0.000031 0.000000 -0.244395 0.051758 0.312287
    33 4.201562 -0.682690 1.351848 -1.267882 -0.032527 0.325199
    34 1.556231 0.000000 -0.000001 -0.395383 -0.751741 0.571842
    35 1.376933 -0.000001 -0.000001 0.036658 -0.123708 0.028364
    36 4.262988 -0.685306 0.382316 -1.454826 0.269163 0.541435
    37 1.527709 0.000000 0.000002 0.189848 -1.055847 0.094465
    38 1.426606 0.000018 -0.000001 -0.252304 -0.770306 0.317640
    39 1.977383 0.000000 0.000000 0.550589 0.221966 0.082156
    40 3.723979 2.768054 -0.049087 -3.141592 -0.000002 1.570799
    41 12.421014 0.304722 4.492689 -0.091859 -0.075839 1.616818
    42 19.916998 1.704575 4.956910 2.262592 1.451744 0.734330
  time 2
    0 0.005132 0.239878 27.189985 -0.001822 -0.036529 -1.941836
    1 -0.526041 0.000001 9.745319 0.000000 -1.570796 -1.570765
    2 -0.000008 0.000010 5.615749 -3.356549 -0.325489 2.500659
    3 15.693463 0.000000 0.000000 0.000000 0.000000 -0.580730
    4 22.146631 -0.000002 0.000000 0.202500 -0.108149 -0.152282
    5 0.000008 -0.000006 -5.615750 -2.932068 0.232535 3.157969
    6 15.693462 0.000000 0.000000 0.000000 0.000000 -0.647711
    7 22.146631 -0.000001 0.000000 0.351571 0.224846 0.577832
    8 1.384163 -0.004350 0.000002 -0.006456 0.001290 0.082400
    9 5.934389 -0.004352 0.000000 0.188745 0.029410 0.002199
    10 5.934387 -0.004352 0.000000 -0.072603 0.038111 -0.003873
    11 4.996857 -0.004352 0.000000 0.091838 0.081603 0.003359
    12 4.992959 -0.001575 0.000000 0.000000 0.009672 0.000000
    13 -0.035149 0.001564 3.638375 -0.155037 -1.271220 3.289414
    14 8.842830 0.000000 0.000000 -0.386528 -0.203525 -0.582518
    15 9.341935 0.000000 -0.000003 0.000000 0.000000 -0.914115
    16 11.164144 0.000001 0.000002 -2.888990 0.086890 -0.075866
    17 1.517249 -0.028662 -1.542789 1.194720 0.340394 0.643815
    18 1.304994 -0.000032 0.000000 0.073375 0.019385 0.161222
    19 1.339555 0.000032 0.000002 0.029386 -0.015904 -0.088352
    20 4.291193 -1.106261 -1.537607 1.799064 -0.155480 0.478532
    21 1.556233 0.000001 0.000000 -0.110201 0.530290 -0.345038
    22 1.376937 0.000000 -0.000001 -0.047314 0.122357 -0.002898
    23 4.179307 -1.331745 -0.599849 1.721115 -0.276334 0.419196
    24 1.527707 0.000001 0.000001 -0.111076 0.501278 -0.362577
    25 1.426605 0.000018 0.000000 -0.034954 0.176430 0.038718
    26 0.031267 0.001585 -3.638375 -0.000010 1.293889 3.140787
    27 8.842833 0.000000 0.000000 0.093963 -0.912842 -0.743877
    28 9.341931 0.000000 0.000002 0.000000 0.000000 -1.636364
    29 11.164143 0.000000 0.000003 1.699900 0.039638 0.845413
    30 1.498255 0.120084 1.545498 -1.949017 -0.233378 0.750109
    31 1.304991 -0.000033 -0.000001 -0.478812 0.323316 0.277347
    32 1.339555 0.000031 0.000000 -0.244395 0.051758 0.312287
    33 4.201562 -0.682690 1.351848 -1.267882 -0.032527 0.325199
    34 1.556231 0.000000 -0.000001 -0.395383 -0.751741 0.571842
    35 1.376933 -0.000001 -0.000001 0.036658 -0.123708 0.028364
    36 4.262988 -0.685306 0.382316 -1.454826 0.269163 0.541435
    37 1.527709 0.000000 0.000002 0.189848 -1.055847 0.094465
    38 1.426606 0.000018 -0.000001 -0.252304 -0.770306 0.317640
    39 1.977383 0.000000 0.000000 0.106899 0.034605 -0.044287
    40 3.723979 2.768054 -0.049087 -3.141592 -0.000002 1.570799
    41 12.421014 0.304722 4.492689 -0.091859 -0.075839 1.616818
    42 19.916998 1.704575 4.956910 2.262592 1.451744 0.734330
  time 3
    0 -0.006587 0.336971 27.100138 -0.003547 -0.055225 -1.838448
    1 -0.526041 0.000001 9.745319 0.000000 -1.570796 -1.570765
    2 -0.000008 0.000010 5.615749 -3.369099 -0.287335 2.502935
    3 15.693463 0.000000 0.000000 0.000000 0.000000 -0.537932
    4 22.146631 -0.000002 0.000000 0.291270 -0.064563 -0.199986
    5 0.000008 -0.000006 -5.615750 -2.910140 0.195360 3.202019
    6 15.693462 0.000000 0.000000 0.000000 0.000000 -0.645999
    7 22.146631 -0.000001 0.000000 0.439635 0.194913 0.604978
    8 1.384163 -0.004350 0.000002 0.216643 0.002940 0.077446
    9 5.934389 -0.004352 0.000000 0.282693 0.043121 0.007343
    10 5.934387 -0.004352 0.000000 -0.108772 0.055309 -0.006634
    11 4.996857 -0.004352 0.000000 0.138039 0.120122 0.010260
    12 4.996865 -0.001575 0.000000 0.000000 0.014465 0.000000
    13 -0.050774 0.001564 3.638375 -0.422043 -1.389526 3.557866
    14 8.842830 0.000000 0.000000 -1.143599 -0.470955 -0.424704
    15 9.341935 0.000000 -0.000003 0.000000 0.000000 -0.991171
    16 11.164144 0.000001 0.000002 -1.891623 -0.112136 -0.025871
    17 1.517249 -0.028662 -1.542789 1.143605 0.225099 0.493573
    18 1.304994 -0.000032 0.000000 0.073375 0.019385 0.161222
    19 1.339555 0.000032 0.000002 0.029386 -0.015904 -0.088352
    20 4.291193 -1.106261 -1.537607 1.799064 -0.155480 0.478532
    21 1.556233 0.000001 0.000000 -0.109650 0.434689 -0.352803
    22 1.376937 0.000000 -0.000001 -0.047314 0.122357 -0.002898
    23 4.179307 -1.331745 -0.599849 1.721115 -0.276334 0.419196
    24 1.527707 0.000001 0.000001 -0.114312 0.413781 -0.382340
    25 1.426605 0.000018 0.000000 -0.034954 0.176430 0.038718
    26 0.046893 0.001585 -3.638375 -0.000010 1.298704 3.140787
    27 8.842833 0.000000 0.000000 -0.450437 -0.790560 0.404983
    28 9.341931 0.000000 0.000002 0.000000 0.000000 -1.921525
    29 11.164143 0.000000 0.000003 1.587781 0.002791 0.679370
    30 1.498255 0.120084 1.545498 -1.949017 -0.233378 0.750109
    31 1.304991 -0.000033 -0.000001 -0.478812 0.323316 0.277347
    32 1.339555 0.000031 0.000000 -0.244395 0.051758 0.312287
    33 4.201562 -0.682690 1.351848 -1.267882 -0.032527 0.325199
    34 1.556231 0.000000 -0.000001 -0.395383 -0.751741 0.571842
    35 1.376933 -0.000001 -0.000001 0.036658 -0.123708 0.028364
    36 4.262988 -0.685306 0.382316 -1.454826 0.269163 0.541435
    37 1.527709 0.000000 0.000002 0.189848 -1.055847 0.094465
    38 1.426606 0.000018 -0.000001 -0.252304 -0.770306 0.317640
    39 1.977383 0.000000 0.000000 -0.307924 -0.191028 -0.074711
    40 3.723979 2.768054 -0.049087 -3.141592 -0.000002 1.570799
    41 12.421014 0.304722 4.492689 -0.091859 -0.075839 1.616818
    42 19.916998 1.704575 4.956910 2.262592 1.451744 0.734330
  time 4
    0 0.071540 0.422642 26.998573 0.000000 -0.069702 -1.762833
    1 -0.526041 0.000001 9.745319 0.000000 -1.570796 -1.570765
    2 -0.000008 0.000010 5.615749 -3.381178 -0.251004 2.510398
    3 15.693463 0.000000 0.000000 0.000000 0.000000 -0.501745
    4 22.146631 -0.000002 0.000000 0.352662 -0.031278 -0.235020
    5 0.000008 -0.000006 -5.615750 -2.897598 0.173779 3.224546
    6 15.693462 0.000000 0.000000 0.000000 0.000000 -0.657387
    7 22.146631 -0.000001 0.000000 0.505056 0.171856 0.628003
    8 1.384163 -0.004350 0.000002 0.351690 -0.004036 0.086545
    9 5.934389 -0.004352 0.000000 0.340806 0.049077 0.017439
    10 5.934387 -0.004352 0.000000 -0.131075 0.060654 -0.007983
    11 4.992950 -0.004352 0.000000 0.167509 0.137547 0.023177
    12 4.992959 -0.001575 0.000000 0.000000 0.017450 0.000000
    13 -0.062493 0.001564 3.638375 -1.235333 -1.469124 4.376263
    14 8.842830 0.000000 0.000000 -1.898749 -0.386708 -0.067096
    15 9.341935 0.000000 -0.000003 0.000000 0.000000 -0.997724
    16 11.164144 0.000001 0.000002 -1.108005 -0.227758 -0.081183
    17 1.517249 -0.028662 -1.542789 1.151757 0.225320 0.493820
    18 1.304994 -0.000032 0.000000 0.073375 0.019385 0.161222
    19 1.339555 0.000032 0.000002 0.029386 -0.015904 -0.088352
    20 4.291193 -1.106261 -1.537607 1.799064 -0.155480 0.478532
    21 1.556233 0.000001 0.000000 -0.108667 0.330517 -0.361266
    22 1.376937 0.000000 -0.000001 -0.047314 0.122357 -0.002898
    23 4.179307 -1.331745 -0.599849 1.721115 -0.276334 0.419196
    24 1.527707 0.000001 0.000001 -0.117847 0.318459 -0.403864
    25 1.426605 0.000018 0.000000 -0.034954 0.176430 0.038718
    26 0.058612 0.001585 -3.638375 -0.000010 1.301671 3.140787
    27 8.842833 0.000000 0.000000 -0.477253 -0.717525 0.887642
    28 9.341931 0.000000 0.000002 0.000000 0.000000 -1.711876
    29 11.164143 0.000000 0.000003 1.484500 -0.161014 0.334533
    30 1.498255 0.120084 1.545498 -1.949017 -0.233378 0.750109
    31 1.304991 -0.000033 -0.000001 -0.478812 0.323316 0.277347
    32 1.339555 0.000031 0.000000 -0.244395 0.051758 0.312287
    33 4.201562 -0.682690 1.351848 -1.267882 -0.032527 0.325199
    34 1.556231 0.000000 -0.000001 -0.395383 -0.751741 0.571842
    35 1.376933 -0.000001 -0.000001 0.036658 -0.123708 0.028364
    36 4.262988 -0.685306 0.382316 -1.454826 0.269163 0.541435
    37 1.527709 0.000000 0.000002 0.189848 -1.055847 0.094465
    38 1.426606 0.000018 -0.000001 -0.252304 -0.770306 0.317640
    39 1.977383 0.000000 0.000000 -0.544859 -0.311423 -0.052650
    40 3.723979 2.768054 -0.049087 -3.141592 -0.000002 1.570799
    41 12.421014 0.304722 4.492689 -0.091859 -0.075839 1.616818
    42 19.916998 1.704575 4.956910 2.262592 1.451744 0.734330
  time 5
    0 0.548117 0.439776 27.006386 0.032406 -0.072866 -1.736011
    1 -0.526041 0.000001 9.745319 0.000000 -1.570796 -1.570765
    2 -0.000008 0.000010 5.615749 -3.402032 -0.198226 2.543985
    3 15.693463 0.000000 0.000000 0.000000 0.000000 -0.441201
    4 22.146631 -0.000002 0.000000 0.363812 -0.019664 -0.263971
    5 0.000008 -0.000006 -5.615750 -2.908037 0.198339 3.217460
    6 15.693462 0.000000 0.000000 0.000000 0.000000 -0.681950
    7 22.146631 -0.000001 0.000000 0.543534 0.162143 0.646100
    8 1.384163 -0.004350 0.000002 0.395588 -0.021448 0.109666
    9 5.938295 -0.004352 0.000000 0.363852 0.047531 0.031704
    10 5.934387 -0.004352 0.000000 -0.139788 0.054182 -0.007471
    11 4.996857 -0.004352 0.000000 0.180224 0.134156 0.041068
    12 4.992959 -0.001575 0.000000 0.000012 0.018720 0.000000
    13 -0.066400 0.001564 3.638375 -1.931178 -1.464814 5.075677
    14 8.842830 0.000000 0.000000 -2.157919 -0.434719 0.112562
    15 9.341935 0.000000 -0.000003 0.000000 0.000000 -0.791819
    16 11.164144 0.000001 0.000002 -0.999218 -0.240587 -0.100109
    17 1.517249 -0.028662 -1.542789 1.174736 0.226050 0.494683
    18 1.304994 -0.000032 0.000000 0.073375 0.019385 0.161222
    19 1.339555 0.000032 0.000002 0.029386 -0.015904 -0.088352
    20 4.291193 -1.106261 -1.537607 1.799064 -0.155480 0.478532
    21 1.556233 0.000001 0.000000 -0.107145 0.234916 -0.369031
    22 1.376937 0.000000 -0.000001 -0.047314 0.122357 -0.002898
    23 4.179307 -1.331745 -0.599849 1.721115 -0.276334 0.419196
    24 1.527707 0.000001 0.000001 -0.121083 0.230983 -0.423627
    25 1.426605 0.000018 0.000000 -0.034954 0.176430 0.038718
    26 0.062518 0.001585 -3.638375 -0.000010 1.302960 3.140787
    27 8.842833 0.000000 0.000000 -0.528383 -0.683688 1.137276
    28 9.341931 0.000000 0.000002 0.000000 0.000000 -1.696318
    29 11.164143 0.000000 0.000003 1.480542 -0.131869 0.198703
    30 1.498255 0.120084 1.545498 -1.949017 -0.233378 0.750109
    31 1.304991 -0.000033 -0.000001 -0.478812 0.323316 0.277347
    32 1.339555 0.000031 0.000000 -0.244395 0.051758 0.312287
    33 4.201562 -0.682690 1.351848 -1.267882 -0.032527 0.325199
    34 1.556231 0.000000 -0.000001 -0.395383 -0.751741 0.571842
    35 1.376933 -0.000001 -0.000001 0.036658 -0.123708 0.028364
    36 4.262988 -0.685306 0.382316 -1.454826 0.269163 0.541435
    37 1.527709 0.000000 0.000002 0.189848 -1.055847 0.094465
    38 1.426606 0.000018 -0.000001 -0.252304 -0.770306 0.317640
    39 1.977383 0.000000 0.000000 -0.580944 -0.326470 -0.052921
    40 3.723979 2.768054 -0.049087 -3.141592 -0.000002 1.570799
    41 12.421014 0.304722 4.492689 -0.091859 -0.075839 1.616818
    42 19.916998 1.704575 4.956910 2.262592 1.451744 0.734330
  time 6
    0 0.927035 0.422642 26.951696 0.060978 -0.069702 -1.762833
    1 -0.526041 0.000001 9.745319 0.000000 -1.570796 -1.570765
    2 -0.000008 0.000010 5.615749 -3.409958 -0.178963 2.554725
    3 15.693463 0.000000 0.000000 0.000000 0.000000 -0.434799
    4 22.146631 -0.000002 0.000000 0.333451 -0.031774 -0.261227
    5 0.000008 -0.000006 -5.615750 -2.930604 0.240317 3.184038
    6 15.693462 0.000000 0.000000 0.000000 0.000000 -0.723260
    7 22.146631 -0.000001 0.000000 0.533993 0.169476 0.658165
    8 1.384163 -0.004350 0.000002 0.408155 -0.043881 0.138617
    9 5.934389 -0.004352 0.000000 0.372948 0.042749 0.048206
    10 5.938294 -0.004352 0.000000 -0.143120 0.042378 -0.006184
    11 4.996857 -0.004352 0.000000 0.186145 0.121716 0.061680
    12 4.992959 -0.001575 0.000000 0.000012 0.019427 0.000000
    13 -0.070306 0.001564 3.638375 -2.063483 -1.461798 5.208561
    14 8.842830 0.000000 0.000000 -2.114243 -0.559343 0.056708
    15 9.341935 0.000000 -0.000003 0.000000 0.000000 -0.556427
    16 11.164144 0.000001 0.000002 -1.108005 -0.227758 -0.081183
    17 1.517249 -0.028662 -1.542789 1.210266 0.227421 0.496163
    18 1.304994 -0.000032 0.000000 0.073375 0.019385 0.161222
    19 1.339555 0.000032 0.000002 0.029386 -0.015904 -0.088352
    20 4.291193 -1.106261 -1.537607 1.799064 -0.155480 0.478532
    21 1.556233 0.000001 0.000000 -0.104976 0.164986 -0.374714
    22 1.376937 0.000000 -0.000001 -0.047314 0.122357 -0.002898
    23 4.179307 -1.331745 -0.599849 1.721115 -0.276334 0.419196
    24 1.527707 0.000001 0.000001 -0.123456 0.167005 -0.438068
    25 1.426605 0.000018 0.000000 -0.034954 0.176430 0.038718
    26 0.066425 0.001585 -3.638375 -0.000010 1.303665 3.140787
    27 8.842833 0.000000 0.000000 -0.540825 -0.719399 1.201342
    28 9.341931 0.000000 0.000002 0.000000 0.000000 -1.604047
    29 11.164143 0.000000 0.000003 1.446483 -0.103812 0.109503
    30 1.498255 0.120084 1.545498 -1.949017 -0.233378 0.750109
    31 1.304991 -0.000033 -0.000001 -0.478812 0.323316 0.277347
    32 1.339555 0.000031 0.000000 -0.244395 0.051758 0.312287
    33 4.201562 -0.682690 1.351848 -1.267882 -0.032527 0.325199
    34 1.556231 0.000000 -0.000001 -0.395383 -0.751741 0.571842
    35 1.376933 -0.000001 -0.000001 0.036658 -0.123708 0.028364
    36 4.262988 -0.685306 0.382316 -1.454826 0.269163 0.541435
    37 1.527709 0.000000 0.000002 0.189848 -1.055847 0.094465
    38 1.426606 0.000018 -0.000001 -0.252304 -0.770306 0.317640
    39 1.977383 0.000000 0.000000 -0.540704 -0.309823 -0.062912
    40 3.723979 2.768054 -0.049087 -3.141592 -0.000002 1.570799
    41 12.421014 0.304722 4.492689 -0.091859 -0.075839 1.616818
    42 19.916998 1.704575 4.956910 2.262592 1.451744 0.734330
  time 7
    0 0.747342 0.428353 26.623561 0.056280 -0.069175 -1.845962
    1 -0.526041 0.000001 9.745319 0.000000 -1.570796 -1.570765
    2 -0.000008 0.000010 5.615749 -3.389293 -0.234930 2.509943
    3 15.693463 0.000000 0.000000 0.000000 0.000000 -0.545378
    4 22.146631 -0.000002 0.000000 0.269776 -0.067237 -0.206069
    5 0.000008 -0.000006 -5.615750 -2.955198 0.272051 3.123276
    6 15.693462 0.000000 0.000000 0.000000 0.000000 -0.790398
    7 22.146631 -0.000001 0.000000 0.457834 0.194528 0.662243
    8 1.384163 -0.004350 0.000002 0.397546 -0.068682 0.171874
    9 5.934389 -0.004352 0.000000 0.371834 0.035966 0.066046
    10 5.938294 -0.004352 0.000000 -0.142581 0.026989 -0.004335
    11 4.996857 -0.004352 0.000000 0.186744 0.103175 0.083790
    12 4.992959 -0.001575 0.000000 0.000000 0.019643 0.000000
    13 -0.070306 0.001564 3.638375 -1.686990 -1.474135 4.830235
    14 8.842830 0.000000 0.000000 -1.819259 -0.513531 -0.266605
    15 9.341935 0.000000 -0.000003 0.000000 0.000000 -0.423799
    16 11.168050 0.000001 0.000002 -1.062008 -0.227758 -0.081183
    17 1.517249 -0.028662 -1.542789 1.256073 0.229521 0.498260
    18 1.304994 -0.000032 0.000000 0.073375 0.019385 0.161222
    19 1.339555 0.000032 0.000002 0.029386 -0.015904 -0.088352
    20 4.291193 -1.106261 -1.537607 1.799064 -0.155480 0.478532
    21 1.556233 0.000001 0.000000 -0.102040 0.137887 -0.376917
    22 1.376937 0.000000 -0.000001 -0.047314 0.122357 -0.002898
    23 4.179307 -1.331745 -0.599849 1.721115 -0.276334 0.419196
    24 1.527707 0.000001 0.000001 -0.124367 0.142199 -0.443677
    25 1.426605 0.000018 0.000000 -0.034954 0.176430 0.038718
    26 0.066425 0.001585 -3.638375 -0.000010 1.303884 3.140787
    27 8.842833 0.000000 0.000000 -0.501567 -0.822731 1.103289
    28 9.341931 0.000000 0.000002 0.000000 0.000000 -1.464092
    29 11.164143 0.000000 0.000003 1.378273 -0.096111 0.070426
    30 1.498255 0.120084 1.545498 -1.949017 -0.233378 0.750109
    31 1.304991 -0.000033 -0.000001 -0.478812 0.323316 0.277347
    32 1.339555 0.000031 0.000000 -0.244395 0.051758 0.312287
    33 4.201562 -0.682690 1.351848 -1.267882 -0.032527 0.325199
    34 1.556231 0.000000 -0.000001 -0.395383 -0.751741 0.571842
    35 1.376933 -0.000001 -0.000001 0.036658 -0.123708 0.028364
    36 4.262988 -0.685306 0.382316 -1.454826 0.269163 0.541435
    37 1.527709 0.000000 0.000002 0.189848 -1.055847 0.094465
    38 1.426606 0.000018 -0.000001 -0.252304 -0.770306 0.317640
    39 1.977383 0.000000 0.000000 -0.447452 -0.276907 -0.082803
    40 3.723979 2.768054 -0.049087 -3.141592 -0.000002 1.570799
    41 12.421014 0.304722 4.492689 -0.091859 -0.075839 1.616818
    42 19.916998 1.704575 4.956910 2.262592 1.451744 0.734330
  time 8
    0 0.419207 0.428353 26.260269 0.043528 -0.070086 -1.954676
    1 -0.526041 0.000001 9.745319 0.000000 -1.570796 -1.570765
    2 -0.000008 0.000010 5.615749 -3.358531 -0.305936 2.474081
    3 15.693463 0.000000 0.000000 0.000000 0.000000 -0.657906
    4 22.146631 -0.000002 0.000000 0.187696 -0.113474 -0.142541
    5 0.000008 -0.000006 -5.615750 -2.983135 0.301384 3.053558
    6 15.693462 0.000000 0.000000 0.000000 0.000000 -0.855675
    7 22.146631 -0.000001 0.000000 0.352853 0.225206 0.654214
    8 1.384163 -0.004350 0.000002 0.372170 -0.093392 0.207786
    9 5.934389 -0.004352 0.000000 0.364224 0.028236 0.084345
    10 5.934387 -0.004352 0.000000 -0.139620 0.009827 -0.002174
    11 4.996857 -0.004352 0.000000 0.183712 0.081447 0.106238
    12 4.992959 -0.001575 0.000000 0.000012 0.019463 0.000000
    13 -0.070306 0.001564 3.638375 -1.089797 -1.462471 4.230052
    14 8.842830 0.000000 0.000000 -1.481910 -0.322002 -0.606069
    15 9.341935 0.000000 -0.000003 0.000000 0.000000 -0.313601
    16 11.164144 0.000001 0.000002 -0.996979 -0.227758 -0.081183
    17 1.517249 -0.028662 -1.542789 1.309842 0.232483 0.501097
    18 1.304994 -0.000032 0.000000 0.073375 0.019385 0.161222
    19 1.339555 0.000032 0.000002 0.029386 -0.015904 -0.088352
    20 4.291193 -1.106261 -1.537607 1.799064 -0.155480 0.478532
    21 1.556233 0.000001 0.000000 -0.096671 0.138958 -0.370186
    22 1.376937 0.000000 -0.000001 -0.047314 0.122357 -0.002898
    23 4.179307 -1.331745 -0.599849 1.721115 -0.276334 0.419196
    24 1.527707 0.000001 0.000001 -0.122461 0.142601 -0.437937
    25 1.426605 0.000018 0.000000 -0.034954 0.176430 0.038718
    26 0.066425 0.001585 -3.638375 -0.000010 1.303689 3.140787
    27 8.842833 0.000000 0.000000 -0.397020 -0.946679 0.899227
    28 9.341931 0.000000 0.000002 0.000000 0.000000 -1.303582
    29 11.164143 0.000000 0.000003 1.287418 -0.086157 0.051477
    30 1.498255 0.120084 1.545498 -1.949017 -0.233378 0.750109
    31 1.304991 -0.000033 -0.000001 -0.478812 0.323316 0.277347
    32 1.339555 0.000031 0.000000 -0.244395 0.051758 0.312287
    33 4.201562 -0.682690 1.351848 -1.267882 -0.032527 0.325199
    34 1.556231 0.000000 -0.000001 -0.395383 -0.751741 0.571842
    35 1.376933 -0.000001 -0.000001 0.036658 -0.123708 0.028364
    36 4.262988 -0.685306 0.382316 -1.454826 0.269163 0.541435
    37 1.527709 0.000000 0.000002 0.189848 -1.055847 0.094465
    38 1.426606 0.000018 -0.000001 -0.252304 -0.770306 0.317640
    39 1.977383 0.000000 0.000000 -0.326032 -0.239146 -0.111690
    40 3.723979 2.768054 -0.049087 -3.141592 -0.000002 1.570799
    41 12.421014 0.304722 4.492689 -0.091859 -0.075839 1.616818
    42 19.916998 1.704575 4.956910 2.262592 1.451744 0.734330
  time 9
    0 0.048102 0.439776 25.842288 0.027804 -0.072483 -2.065578
    1 -0.526041 0.000001 9.745319 0.000000 -1.570796 -1.570765
    2 -0.000008 0.000010 5.615749 -3.321824 -0.374995 2.446593
    3 15.693463 0.000000 0.000000 0.000000 0.000000 -0.762848
    4 22.146631 -0.000002 0.000000 0.102472 -0.160850 -0.076726
    5 0.000008 -0.000006 -5.615750 -3.010883 0.324485 2.982970
    6 15.693462 0.000000 0.000000 0.000000 0.000000 -0.917156
    7 22.146631 -0.000001 0.000000 0.242232 0.254274 0.640790
    8 1.384163 -0.004350 0.000002 0.340680 -0.116238 0.244152
    9 5.938295 -0.004352 0.000000 0.353941 0.020554 0.102186
    10 5.938294 -0.004352 0.000000 -0.135737 -0.007323 0.000075
    11 4.996857 -0.004352 0.000000 0.178882 0.059372 0.127866
    12 4.996865 -0.001575 0.000000 0.000012 0.018984 0.000000
    13 -0.066400 0.001564 3.638375 -0.675818 -1.416975 3.812512
    14 8.842830 0.000000 0.000000 -1.208326 -0.003390 -0.847842
    15 9.341935 0.000000 -0.000003 0.000000 0.000000 -0.212664
    16 11.164144 0.000001 0.000002 -0.952568 -0.227758 -0.081183
    17 1.517249 -0.028662 -1.542789 1.369299 0.236419 0.504675
    18 1.304994 -0.000032 0.000000 0.073375 0.019385 0.161222
    19 1.339555 0.000032 0.000002 0.029386 -0.015904 -0.088352
    20 4.291193 -1.106261 -1.537607 1.799064 -0.155480 0.478532
    21 1.556233 0.000001 0.000000 -0.087790 0.142192 -0.351557
    22 1.376937 0.000000 -0.000001 -0.047314 0.122357 -0.002898
    23 4.179307 -1.331745 -0.599849 1.721115 -0.276334 0.419196
    24 1.527707 0.000001 0.000001 -0.117116 0.143949 -0.421937
    25 1.426605 0.000018 0.000000 -0.034954 0.176430 0.038718
    26 0.062518 0.001585 -3.638375 -0.000010 1.303227 3.140787
    27 8.842833 0.000000 0.000000 -0.206376 -1.053239 0.608766
    28 9.341931 0.000000 0.000002 0.000000 0.000000 -1.131689
    29 11.164143 0.000000 0.000003 1.195735 -0.069194 0.024756
    30 1.498255 0.120084 1.545498 -1.949017 -0.233378 0.750109
    31 1.304991 -0.000033 -0.000001 -0.478812 0.323316 0.277347
    32 1.339555 0.000031 0.000000 -0.244395 0.051758 0.312287
    33 4.201562 -0.682690 1.351848 -1.267882 -0.032527 0.325199
    34 1.556231 0.000000 -0.000001 -0.395383 -0.751741 0.571842
    35 1.376933 -0.000001 -0.000001 0.036658 -0.123708 0.028364
    36 4.262988 -0.685306 0.382316 -1.454826 0.269163 0.541435
    37 1.527709 0.000000 0.000002 0.189848 -1.055847 0.094465
    38 1.426606 0.000018 -0.000001 -0.252304 -0.770306 0.317640
    39 1.977383 0.000000 0.000000 -0.202119 -0.202652 -0.149302
    40 3.723979 2.768054 -0.049087 -3.141592 -0.000002 1.570799
    41 12.421014 0.304722 4.492689 -0.091859 -0.075839 1.616818
    42 19.916998 1.704575 4.956910 2.262592 1.451744 0.734330
  time 10
    0 -0.268314 0.439776 25.369617 0.013710 -0.074832 -2.155269
    1 -0.526041 0.000001 9.745319 0.000000 -1.570796 -1.570765
    2 -0.000008 0.000010 5.615749 -3.284362 -0.429347 2.419651
    3 15.693463 0.000000 0.000000 0.000000 0.000000 -0.856448
    4 22.146631 -0.000002 0.000000 0.031327 -0.199904 -0.016674
    5 0.000008 -0.000006 -5.615750 -3.035591 0.340474 2.918666
    6 15.693462 0.000000 0.000000 0.000000 0.000000 -0.976032
    7 22.146631 -0.000001 0.000000 0.151064 0.276970 0.632251
    8 1.384163 -0.004350 0.000002 0.311982 -0.136089 0.278380
    9 5.934389 -0.004352 0.000000 0.344821 0.013698 0.118592
    10 5.934387 -0.004352 0.000000 -0.132382 -0.022699 0.002349
    11 4.996857 -0.004352 0.000000 0.174268 0.039681 0.147423
    12 4.992959 -0.001575 0.000000 0.000012 0.018277 0.000000
    13 -0.066400 0.001564 3.638375 -0.478416 -1.361108 3.612036
    14 8.842830 0.000000 0.000000 -0.996675 0.357215 -0.983599
    15 9.341935 0.000000 -0.000003 0.000000 0.000000 -0.108263
    16 11.164144 0.000001 0.000002 -0.968429 -0.227758 -0.081183
    17 1.517249 -0.028662 -1.542789 1.432207 0.241415 0.509033
    18 1.304994 -0.000032 0.000000 0.073375 0.019385 0.161222
    19 1.339555 0.000032 0.000002 0.029386 -0.015904 -0.088352
    20 4.291193 -1.106261 -1.537607 1.799064 -0.155480 0.478532
    21 1.556233 0.000001 0.000000 -0.076165 0.147588 -0.323430
    22 1.376937 0.000000 -0.000001 -0.047314 0.122357 -0.002898
    23 4.179307 -1.331745 -0.599849 1.721115 -0.276334 0.419196
    24 1.527707 0.000001 0.000001 -0.108955 0.146444 -0.397525
    25 1.426605 0.000018 0.000000 -0.034954 0.176430 0.038718
    26 0.062518 0.001585 -3.638375 -0.000010 1.302522 3.140787
    27 8.842833 0.000000 0.000000 0.048269 -1.110554 0.283412
    28 9.341931 0.000000 0.000002 0.000000 0.000000 -0.958531
    29 11.164143 0.000000 0.000003 1.125776 -0.045991 -0.025629
    30 1.498255 0.120084 1.545498 -1.949017 -0.233378 0.750109
    31 1.304991 -0.000033 -0.000001 -0.478812 0.323316 0.277347
    32 1.339555 0.000031 0.000000 -0.244395 0.051758 0.312287
    33 4.201562 -0.682690 1.351848 -1.267882 -0.032527 0.325199
    34 1.556231 0.000000 -0.000001 -0.395383 -0.751741 0.571842
    35 1.376933 -0.000001 -0.000001 0.036658 -0.123708 0.028364
    36 4.262988 -0.685306 0.382316 -1.454826 0.269163 0.541435
    37 1.527709 0.000000 0.000002 0.189848 -1.055847 0.094465
    38 1.426606 0.000018 -0.000001 -0.252304 -0.770306 0.317640
    39 1.977383 0.000000 0.000000 -0.100994 -0.168825 -0.196543
    40 3.723979 2.768054 -0.049087 -3.141592 -0.000002 1.570799
    41 12.421014 0.304722 4.492689 -0.091859 -0.075839 1.616818
    42 19.916998 1.704575 4.956910 2.262592 1.451744 0.734330
  time 11
    0 -0.412850 0.422642 24.811006 0.005753 -0.074257 -2.200353
    1 -0.526041 0.000001 9.745319 0.000000 -1.570796 -1.570765
    2 -0.000008 0.000010 5.615749 -3.251052 -0.459795 2.379420
    3 15.693463 0.000000 0.000000 0.000000 0.000000 -0.937521
    4 22.146631 -0.000002 0.000000 -0.004944 -0.221400 0.026410
    5 0.000008 -0.000006 -5.615750 -3.055604 0.350565 2.867663
    6 15.693462 0.000000 0.000000 0.000000 0.000000 -1.035057
    7 22.146631 -0.000001 0.000000 0.105665 0.290914 0.641427
    8 1.384163 -0.004350 0.000002 0.295209 -0.152622 0.307330
    9 5.934389 -0.004352 0.000000 0.340770 0.008389 0.132513
    10 5.938294 -0.004352 0.000000 -0.131004 -0.034504 0.004535
    11 4.996857 -0.004352 0.000000 0.172003 0.025024 0.163582
    12 4.992959 -0.001575 0.000000 0.000012 0.017450 0.000000
    13 -0.062493 0.001564 3.638375 -0.368833 -1.301739 3.498998
    14 8.842830 0.000000 0.000000 -0.774978 0.749979 -1.031342
    15 9.341935 0.000000 -0.000003 0.000000 0.000000 -0.002475
    16 11.164144 0.000001 0.000002 -1.404789 -0.227758 -0.081183
    17 1.517249 -0.028662 -1.542789 1.496252 0.247628 0.514214
    18 1.304994 -0.000032 0.000000 0.073375 0.019385 0.161222
    19 1.339555 0.000032 0.000002 0.029386 -0.015904 -0.088352
    20 4.291193 -1.106261 -1.537607 1.799064 -0.155480 0.478532
    21 1.556233 0.000001 0.000000 -0.062550 0.155206 -0.288163
    22 1.376937 0.000000 -0.000001 -0.047314 0.122357 -0.002898
    23 4.179307 -1.331745 -0.599849 1.721115 -0.276334 0.419196
    24 1.527707 0.000001 0.000001 -0.098564 0.150246 -0.366544
    25 1.426605 0.000018 0.000000 -0.034954 0.176430 0.038718
    26 0.058612 0.001585 -3.638375 -0.000010 1.301695 3.140787
    27 8.842833 0.000000 0.000000 0.267874 -1.113365 0.043688
    28 9.341931 0.000000 0.000002 0.000000 0.000000 -0.791254
    29 11.164143 0.000000 0.000003 1.101751 -0.019718 -0.108455
    30 1.498255 0.120084 1.545498 -1.949017 -0.233378 0.750109
    31 1.304991 -0.000033 -0.000001 -0.478812 0.323316 0.277347
    32 1.339555 0.000031 0.000000 -0.244395 0.051758 0.312287
    33 4.201562 -0.682690 1.351848 -1.267882 -0.032527 0.325199
    34 1.556231 0.000000 -0.000001 -0.395383 -0.751741 0.571842
    35 1.376933 -0.000001 -0.000001 0.036658 -0.123708 0.028364
    36 4.262988 -0.685306 0.382316 -1.454826 0.269163 0.541435
    37 1.527709 0.000000 0.000002 0.189848 -1.055847 0.094465
    38 1.426606 0.000018 -0.000001 -0.252304 -0.770306 0.317640
    39 1.977383 0.000000 0.000000 -0.047544 -0.137176 -0.254317
    40 3.723979 2.768054 -0.049087 -3.141592 -0.000002 1.570799
    41 12.421014 0.304722 4.492689 -0.091859 -0.075839 1.616818
    42 19.916998 1.704575 4.956910 2.262592 1.451744 0.734330
  time 12
    0 -0.448007 0.394085 23.775818 0.002493 -0.070757 -2.211291
    1 -0.526041 0.000001 9.745319 0.000000 -1.570796 -1.570765
    2 -0.000008 0.000010 5.615749 -3.205381 -0.478313 2.293042
    3 15.693463 0.000000 0.000000 0.000000 0.000000 -1.051719
    4 22.146631 -0.000002 0.000000 -0.011284 -0.232099 0.065698
    5 0.000008 -0.000006 -5.615750 -3.082752 0.361569 2.804362
    6 15.693462 0.000000 0.000000 0.000000 0.000000 -1.133680
    7 22.146631 -0.000001 0.000000 0.097405 0.303032 0.683611
    8 1.384163 -0.004350 0.000002 0.301870 -0.165032 0.327893
    9 5.934389 -0.004352 0.000000 0.346487 0.005417 0.142379
    10 5.934387 -0.004352 0.000000 -0.133365 -0.038962 0.007858
    11 4.992950 -0.004352 0.000000 0.174783 0.020182 0.172606
    12 4.992959 -0.001575 0.000000 0.000012 0.016503 0.000000
    13 -0.058587 0.001564 3.638375 -0.367012 -1.296029 3.496697
    14 8.842830 0.000000 0.000000 -0.777599 0.885215 -1.073677
    15 9.341935 0.000000 -0.000003 0.000000 0.000000 -0.101647
    16 11.164144 0.000001 0.000002 -1.411693 -0.236917 -0.100348
    17 1.517249 -0.028662 -1.542789 1.559122 0.255144 0.520258
    18 1.304994 -0.000032 0.000000 0.073375 0.019385 0.161222
    19 1.339555 0.000032 0.000002 0.029386 -0.015904 -0.088352
    20 4.291193 -1.106261 -1.537607 1.799064 -0.155480 0.478532
    21 1.556233 0.000001 0.000000 -0.047701 0.165046 -0.248139
    22 1.376937 0.000000 -0.000001 -0.047314 0.122357 -0.002898
    23 4.179307 -1.331745 -0.599849 1.721115 -0.276334 0.419196
    24 1.527707 0.000001 0.000001 -0.086567 0.155558 -0.330830
    25 1.426605 0.000018 0.000000 -0.034954 0.176430 0.038718
    26 0.054706 0.001585 -3.638375 -0.000010 1.300747 3.140787
    27 8.842833 0.000000 0.000000 -0.106763 -1.132834 0.505409
    28 9.341931 0.000000 0.000002 0.000000 0.000000 -1.058707
    29 11.164143 0.000000 0.000003 1.096228 -0.029598 -0.050429
    30 1.498255 0.120084 1.545498 -1.949017 -0.233378 0.750109
    31 1.304991 -0.000033 -0.000001 -0.478812 0.323316 0.277347
    32 1.339555 0.000031 0.000000 -0.244395 0.051758 0.312287
    33 4.201562 -0.682690 1.351848 -1.267882 -0.032527 0.325199
    34 1.556231 0.000000 -0.000001 -0.395383 -0.751741 0.571842
    35 1.376933 -0.000001 -0.000001 0.036658 -0.123708 0.028364
    36 4.262988 -0.685306 0.382316 -1.454826 0.269163 0.541435
    37 1.527709 0.000000 0.000002 0.189848 -1.055847 0.094465
    38 1.426606 0.000018 -0.000001 -0.252304 -0.770306 0.317640
    39 1.977383 0.000000 0.000000 -0.049425 -0.115817 -0.308068
    40 3.723979 2.768054 -0.049087 -3.141592 -0.000002 1.570799
    41 12.421014 0.304722 4.492689 -0.091859 -0.075839 1.616818
    42 19.916998 1.704575 4.956910 2.262592 1.451744 0.734330
  time 13
    0 -0.463633 0.365528 22.545312 0.000000 -0.066490 -2.214525
    1 -0.526041 0.000001 9.745319 0.000000 -1.570796 -1.570765
    2 -0.000008 0.000010 5.615749 -3.153387 -0.491611 2.193284
    3 15.693463 0.000000 0.000000 0.000000 0.000000 -1.171902
    4 22.146631 -0.000002 0.000000 -0.010022 -0.241410 0.100732
    5 0.000008 -0.000006 -5.615750 -3.113467 0.371843 2.738253
    6 15.693462 0.000000 0.000000 0.000000 0.000000 -1.241458
    7 22.146631 -0.000001 0.000000 0.097975 0.316303 0.734037
    8 1.384163 -0.004350 0.000002 0.312832 -0.169264 0.337187
    9 5.934389 -0.004352 0.000000 0.352395 0.004710 0.145859
    10 5.938294 -0.004352 0.000000 -0.135725 -0.036889 0.011656
    11 4.996857 -0.004352 0.000000 0.177851 0.022867 0.172332
    12 4.992959 -0.001575 0.000000 0.000012 0.015424 0.000000
    13 -0.054681 0.001564 3.638375 -0.379667 -1.300689 3.509449
    14 8.842830 0.000000 0.000000 -0.828786 0.989650 -1.129033
    15 9.341935 0.000000 -0.000003 0.000000 0.000000 -0.238119
    16 11.164144 0.000001 0.000002 -1.346290 -0.244809 -0.120187
    17 1.517249 -0.028662 -1.542789 1.618617 0.264098 0.527207
    18 1.304994 -0.000032 0.000000 0.073375 0.019385 0.161222
    19 1.339555 0.000032 0.000002 0.029386 -0.015904 -0.088352
    20 4.291193 -1.106261 -1.537607 1.799064 -0.155480 0.478532
    21 1.556233 0.000001 0.000000 -0.032361 0.177108 -0.205729
    22 1.376937 0.000000 -0.000001 -0.047314 0.122357 -0.002898
    23 4.179307 -1.331745 -0.599849 1.721115 -0.276334 0.419196
    24 1.527707 0.000001 0.000001 -0.073564 0.162559 -0.292228
    25 1.426605 0.000018 0.000000 -0.034954 0.176430 0.038718
    26 0.050799 0.001585 -3.638375 -0.000010 1.299677 3.140787
    27 8.842833 0.000000 0.000000 -0.446504 -1.059590 0.939634
    28 9.341931 0.000000 0.000002 0.000000 0.000000 -1.288783
    29 11.164143 0.000000 0.000003 1.104696 -0.039503 -0.012400
    30 1.498255 0.120084 1.545498 -1.949017 -0.233378 0.750109
    31 1.304991 -0.000033 -0.000001 -0.478812 0.323316 0.277347
    32 1.339555 0.000031 0.000000 -0.244395 0.051758 0.312287
    33 4.201562 -0.682690 1.351848 -1.267882 -0.032527 0.325199
    34 1.556231 0.000000 -0.000001 -0.395383 -0.751741 0.571842
    35 1.376933 -0.000001 -0.000001 0.036658 -0.123708 0.028364
    36 4.262988 -0.685306 0.382316 -1.454826 0.269163 0.541435
    37 1.527709 0.000000 0.000002 0.189848 -1.055847 0.094465
    38 1.426606 0.000018 -0.000001 -0.252304 -0.770306 0.317640
    39 1.977383 0.000000 0.000000 -0.060273 -0.102926 -0.339441
    40 3.723979 2.768054 -0.049087 -3.141592 -0.000002 1.570799
    41 12.421014 0.304722 4.492689 -0.091859 -0.075839 1.616818
    42 19.916998 1.704575 4.956910 2.262592 1.451744 0.734330
  time 14
    0 -0.455820 0.336971 22.084360 -0.001726 -0.061745 -2.211291
    1 -0.526041 0.000001 9.745319 0.000000 -1.570796 -1.570765
    2 -0.000008 0.000010 5.615749 -3.133571 -0.494138 2.152052
    3 15.693463 0.000000 0.000000 0.000000 0.000000 -1.215396
    4 22.146631 -0.000002 0.000000 -0.006180 -0.243218 0.112669
    5 0.000008 -0.000006 -5.615750 -3.123042 0.373940 2.717130
    6 15.693462 0.000000 0.000000 0.000000 0.000000 -1.276367
    7 22.146631 -0.000001 0.000000 0.103415 0.321448 0.754173
    8 1.384163 -0.004350 0.000002 0.291245 -0.160208 0.332718
    9 5.934389 -0.004352 0.000000 0.340818 0.005477 0.140735
    10 5.938294 -0.004352 0.000000 -0.131279 -0.033341 0.013205
    11 4.996857 -0.004352 0.000000 0.172003 0.025024 0.163582
    12 4.996865 -0.001575 0.000000 0.000012 0.014250 0.000000
    13 -0.050774 0.001564 3.638375 -0.373052 -1.304729 3.503217
    14 8.842830 0.000000 0.000000 -0.862678 1.013850 -1.158134
    15 9.341935 0.000000 -0.000003 0.000000 0.000000 -0.356886
    16 11.164144 0.000001 0.000002 -1.422236 -0.227758 -0.081183
    17 1.517249 -0.028662 -1.542789 1.672386 0.274556 0.535142
    18 1.304994 -0.000032 0.000000 0.073375 0.019385 0.161222
    19 1.339555 0.000032 0.000002 0.029386 -0.015904 -0.088352
    20 4.291193 -1.106261 -1.537607 1.799064 -0.155480 0.478532
    21 1.556233 0.000001 0.000000 -0.017321 0.191451 -0.163335
    22 1.376937 0.000000 -0.000001 -0.047314 0.122357 -0.002898
    23 4.179307 -1.331745 -0.599849 1.721115 -0.276334 0.419196
    24 1.527707 0.000001 0.000001 -0.060165 0.171451 -0.252583
    25 1.426605 0.000018 0.000000 -0.034954 0.176430 0.038718
    26 0.046893 0.001585 -3.638375 -0.000010 1.298461 3.140787
    27 8.842833 0.000000 0.000000 -0.551695 -0.994207 1.037897
    28 9.341931 0.000000 0.000002 0.000000 0.000000 -1.354998
    29 11.164143 0.000000 0.000003 1.106077 -0.014146 0.019910
    30 1.498255 0.120084 1.545498 -1.949017 -0.233378 0.750109
    31 1.304991 -0.000033 -0.000001 -0.478812 0.323316 0.277347
    32 1.339555 0.000031 0.000000 -0.244395 0.051758 0.312287
    33 4.201562 -0.682690 1.351848 -1.267882 -0.032527 0.325199
    34 1.556231 0.000000 -0.000001 -0.395383 -0.751741 0.571842
    35 1.376933 -0.000001 -0.000001 0.036658 -0.123708 0.028364
    36 4.262988 -0.685306 0.382316 -1.454826 0.269163 0.541435
    37 1.527709 0.000000 0.000002 0.189848 -1.055847 0.094465
    38 1.426606 0.000018 -0.000001 -0.252304 -0.770306 0.317640
    39 1.977383 0.000000 0.000000 -0.026243 -0.080901 -0.341385
    40 3.723979 2.768054 -0.049087 -3.141592 -0.000002 1.570799
    41 12.421014 0.304722 4.492689 -0.091859 -0.075839 1.616818
    42 19.916998 1.704575 4.956910 2.262592 1.451744 0.734330
  time 15
    0 -0.424569 0.302703 22.396870 -0.003068 -0.056328 -2.202350
    1 -0.526041 0.000001 9.745319 0.000000 -1.570796 -1.570765
    2 -0.000008 0.000010 5.615749 -3.145272 -0.489043 2.166615
    3 15.693463 0.000000 0.000000 0.000000 0.000000 -1.189856
    4 22.146631 -0.000002 0.000000 -0.000994 -0.237597 0.106083
    5 0.000008 -0.000006 -5.615750 -3.111552 0.369259 2.737116
    6 15.693462 0.000000 0.000000 0.000000 0.000000 -1.244361
    7 22.146631 -0.000001 0.000000 0.112244 0.317962 0.745591
    8 1.384163 -0.004350 0.000002 0.238118 -0.142186 0.318599
    9 5.934389 -0.004352 0.000000 0.313109 0.006639 0.129836
    10 5.934387 -0.004352 0.000000 -0.120613 -0.030645 0.012493
    11 4.996857 -0.004352 0.000000 0.157885 0.024029 0.150144
    12 4.996865 -0.001575 0.000000 0.000000 0.012967 0.000000
    13 -0.046868 0.001564 3.638375 -0.342564 -1.304648 3.473304
    14 8.842830 0.000000 0.000000 -0.844946 0.973861 -1.143619
    15 9.341935 0.000000 -0.000003 0.000000 0.000000 -0.449505
    16 11.164144 0.000001 0.000002 -1.652125 -0.173487 0.007182
    17 1.517249 -0.028662 -1.542789 1.718154 0.286693 0.544024
    18 1.304994 -0.000032 0.000000 0.073375 0.019385 0.161222
    19 1.339555 0.000032 0.000002 0.029386 -0.015904 -0.088352
    20 4.291193 -1.106261 -1.537607 1.799064 -0.155480 0.478532
    21 1.556233 0.000001 0.000000 -0.003311 0.208055 -0.123311
    22 1.376937 0.000000 -0.000001 -0.047314 0.122357 -0.002898
    23 4.179307 -1.331745 -0.599849 1.721115 -0.276334 0.419196
    24 1.527707 0.000001 0.000001 -0.046958 0.182416 -0.213741
    25 1.426605 0.000018 0.000000 -0.034954 0.176430 0.038718
    26 0.042987 0.001585 -3.638375 -0.000010 1.297221 3.140787
    27 8.842833 0.000000 0.000000 -0.536320 -0.977288 0.916744
    28 9.341931 0.000000 0.000002 0.000000 0.000000 -1.294602
    29 11.168049 0.000000 0.000003 1.102947 0.040555 0.064488
    30 1.498255 0.120084 1.545498 -1.949017 -0.233378 0.750109
    31 1.304991 -0.000033 -0.000001 -0.478812 0.323316 0.277347
    32 1.339555 0.000031 0.000000 -0.244395 0.051758 0.312287
    33 4.201562 -0.682690 1.351848 -1.267882 -0.032527 0.325199
    34 1.556231 0.000000 -0.000001 -0.395383 -0.751741 0.571842
    35 1.376933 -0.000001 -0.000001 0.036658 -0.123708 0.028364
    36 4.262988 -0.685306 0.382316 -1.454826 0.269163 0.541435
    37 1.527709 0.000000 0.000002 0.189848 -1.055847 0.094465
    38 1.426606 0.000018 -0.000001 -0.252304 -0.770306 0.317640
    39 1.977383 0.000000 0.000000 0.049207 -0.045362 -0.322398
    40 3.723979 2.768054 -0.049087 -3.141592 -0.000002 1.570799
    41 12.421014 0.304722 4.492689 -0.091859 -0.075839 1.616818
    42 19.916998 1.704575 4.956910 2.262592 1.451744 0.734330
  time 16
    0 -0.389412 0.274146 22.826571 -0.003643 -0.050527 -2.188844
    1 -0.526041 0.000001 9.745319 0.000000 -1.570796 -1.570765
    2 -0.000008 0.000010 5.615749 -3.162729 -0.481006 2.188824
    3 15.693463 0.000000 0.000000 0.000000 0.000000 -1.151999
    4 22.146631 -0.000002 0.000000 0.007577 -0.229350 0.094695
    5 0.000008 -0.000006 -5.615750 -3.096345 0.362633 2.765391
    6 15.693462 0.000000 0.000000 0.000000 0.000000 -1.200669
    7 22.146631 -0.000001 0.000000 0.125488 0.312481 0.733697
    8 1.384163 -0.004350 0.000002 0.179872 -0.123106 0.301275
    9 5.934389 -0.004352 0.000000 0.282716 0.007670 0.117560
    10 5.934387 -0.004352 0.000000 -0.108904 -0.027684 0.011481
    11 4.996857 -0.004352 0.000000 0.142425 0.022759 0.135418
    12 4.992959 -0.001575 0.000000 0.000000 0.011613 0.000000
    13 -0.039055 0.001564 3.638375 -0.307858 -1.304164 3.439268
    14 8.842830 0.000000 0.000000 -0.808695 0.919509 -1.117791
    15 9.341935 0.000000 -0.000003 0.000000 0.000000 -0.543196
    16 11.164144 0.000001 0.000002 -1.903286 -0.090993 0.091182
    17 1.517249 -0.028662 -1.542789 1.753685 0.300577 0.553974
    18 1.304994 -0.000032 0.000000 0.073375 0.019385 0.161222
    19 1.339555 0.000032 0.000002 0.029386 -0.015904 -0.088352
    20 4.291193 -1.106261 -1.537607 1.799064 -0.155480 0.478532
    21 1.556233 0.000001 0.000000 0.008914 0.226981 -0.088043
    22 1.376937 0.000000 -0.000001 -0.047314 0.122357 -0.002898
    23 4.179307 -1.331745 -0.599849 1.721115 -0.276334 0.419196
    24 1.527707 0.000001 0.000001 -0.034566 0.195634 -0.177535
    25 1.426605 0.000018 0.000000 -0.034954 0.176430 0.038718
    26 0.035174 0.001585 -3.638375 -0.000010 1.295859 3.140787
    27 8.842833 0.000000 0.000000 -0.695643 -0.891603 0.971528
    28 9.341931 0.000000 0.000002 0.000000 0.000000 -1.585454
    29 11.164143 0.000000 0.000003 1.156521 0.002593 0.049032
    30 1.498255 0.120084 1.545498 -1.949017 -0.233378 0.750109
    31 1.304991 -0.000033 -0.000001 -0.478812 0.323316 0.277347
    32 1.339555 0.000031 0.000000 -0.244395 0.051758 0.312287
    33 4.201562 -0.682690 1.351848 -1.267882 -0.032527 0.325199
    34 1.556231 0.000000 -0.000001 -0.395383 -0.751741 0.571842
    35 1.376933 -0.000001 -0.000001 0.036658 -0.123708 0.028364
    36 4.262988 -0.685306 0.382316 -1.454826 0.269163 0.541435
    37 1.527709 0.000000 0.000002 0.189848 -1.055847 0.094465
    38 1.426606 0.000018 -0.000001 -0.252304 -0.770306 0.317640
    39 1.977383 0.000000 0.000000 0.127631 -0.005201 -0.297535
    40 3.723979 2.768054 -0.049087 -3.141592 -0.000002 1.570799
    41 12.421014 0.304722 4.492689 -0.091859 -0.075839 1.616818
    42 19.916998 1.704575 4.956910 2.262592 1.451744 0.734330
  time 17
    0 -0.338629 0.239878 23.353930 -0.003931 -0.044439 -2.171629
    1 -0.526041 0.000001 9.745319 0.000000 -1.570796 -1.570765
    2 -0.000008 0.000010 5.615749 -3.184621 -0.470152 2.217859
    3 15.693463 0.000000 0.000000 0.000000 0.000000 -1.103077
    4 22.146631 -0.000002 0.000000 0.018942 -0.219196 0.078641
    5 0.000008 -0.000006 -5.615750 -3.078359 0.354183 2.800752
    6 15.693462 0.000000 0.000000 0.000000 0.000000 -1.146110
    7 22.146631 -0.000001 0.000000 0.142206 0.305436 0.718276
    8 1.384163 -0.004350 0.000002 0.117227 -0.103667 0.280906
    9 5.934389 -0.004352 0.000000 0.250106 0.008425 0.104174
    10 5.934387 -0.004352 0.000000 -0.096320 -0.024532 0.010232
    11 4.996857 -0.004352 0.000000 0.125850 0.021129 0.119662
    12 4.996865 -0.001575 0.000000 0.000000 0.010211 0.000000
    13 -0.035149 0.001564 3.638375 -0.269796 -1.303221 3.402259
    14 8.842830 0.000000 0.000000 -0.759779 0.852409 -1.084990
    15 9.341935 0.000000 -0.000003 0.000000 0.000000 -0.635626
    16 11.164144 0.000001 0.000002 -2.167602 0.019303 0.156890
    17 1.517249 -0.028662 -1.542789 1.776701 0.316362 0.564993
    18 1.304994 -0.000032 0.000000 0.073375 0.019385 0.161222
    19 1.339555 0.000032 0.000002 0.029386 -0.015904 -0.088352
    20 4.291193 -1.106261 -1.537607 1.799064 -0.155480 0.478532
    21 1.556233 0.000001 0.000000 0.018561 0.248228 -0.059916
    22 1.376937 0.000000 -0.000001 -0.047314 0.122357 -0.002898
    23 4.179307 -1.331745 -0.599849 1.721115 -0.276334 0.419196
    24 1.527707 0.000001 0.000001 -0.023600 0.211307 -0.145800
    25 1.426605 0.000018 0.000000 -0.034954 0.176430 0.038718
    26 0.031267 0.001585 -3.638375 -0.000010 1.294424 3.140787
    27 8.842833 0.000000 0.000000 -0.758142 -0.842305 0.885688
    28 9.341931 0.000000 0.000002 0.000000 0.000000 -1.788715
    29 11.164143 0.000000 0.000003 1.224455 -0.010704 0.032528
    30 1.498255 0.120084 1.545498 -1.949017 -0.233378 0.750109
    31 1.304991 -0.000033 -0.000001 -0.478812 0.323316 0.277347
    32 1.339555 0.000031 0.000000 -0.244395 0.051758 0.312287
    33 4.201562 -0.682690 1.351848 -1.267882 -0.032527 0.325199
    34 1.556231 0.000000 -0.000001 -0.395383 -0.751741 0.571842
    35 1.376933 -0.000001 -0.000001 0.036658 -0.123708 0.028364
    36 4.262988 -0.685306 0.382316 -1.454826 0.269163 0.541435
    37 1.527709 0.000000 0.000002 0.189848 -1.055847 0.094465
    38 1.426606 0.000018 -0.000001 -0.252304 -0.770306 0.317640
    39 1.977383 0.000000 0.000000 0.208373 0.038539 -0.265483
    40 3.723979 2.768054 -0.049087 -3.141592 -0.000002 1.570799
    41 12.421014 0.304722 4.492689 -0.091859 -0.075839 1.616818
    42 19.916998 1.704575 4.956910 2.262592 1.451744 0.734330
  time 18
    0 -0.287846 0.199898 23.959418 -0.003739 -0.038015 -2.151940
    1 -0.526041 0.000001 9.745319 0.000000 -1.570796 -1.570765
    2 -0.000008 0.000010 5.615749 -3.209532 -0.456564 2.253084
    3 15.693463 0.000000 0.000000 0.000000 0.000000 -1.043716
    4 22.146631 -0.000002 0.000000 0.032321 -0.207804 0.058471
    5 0.000008 -0.000006 -5.615750 -3.058270 0.343757 2.842263
    6 15.693462 0.000000 0.000000 0.000000 0.000000 -1.081354
    7 22.146631 -0.000001 0.000000 0.161374 0.297334 0.699032
    8 1.384163 -0.004350 0.000002 0.051036 -0.084534 0.257752
    9 5.938295 -0.004352 0.000000 0.215771 0.008797 0.089929
    10 5.938294 -0.004352 0.000000 -0.083089 -0.021225 0.008795
    11 4.996857 -0.004352 0.000000 0.108461 0.019115 0.103100
    12 4.996865 -0.001575 0.000000 0.000000 0.008749 0.000000
    13 -0.031242 0.001564 3.638375 -0.229913 -1.301766 3.363334
    14 8.842830 0.000000 0.000000 -0.703088 0.774762 -1.049059
    15 9.341935 0.000000 -0.000003 0.000000 0.000000 -0.724969
    16 11.164144 0.000001 0.000002 -2.442461 0.150612 0.191966
    17 1.517249 -0.028662 -1.542789 1.784854 0.334115 0.577123
    18 1.304994 -0.000032 0.000000 0.073375 0.019385 0.161222
    19 1.339555 0.000032 0.000002 0.029386 -0.015904 -0.088352
    20 4.291193 -1.106261 -1.537607 1.799064 -0.155480 0.478532
    21 1.556233 0.000001 0.000000 0.024913 0.271796 -0.041287
    22 1.376937 0.000000 -0.000001 -0.047314 0.122357 -0.002898
    23 4.179307 -1.331745 -0.599849 1.721115 -0.276334 0.419196
    24 1.527707 0.000001 0.000001 -0.014624 0.229594 -0.120405
    25 1.426605 0.000018 0.000000 -0.034954 0.176430 0.038718
    26 0.027361 0.001585 -3.638375 -0.000010 1.292965 3.140787
    27 8.842833 0.000000 0.000000 -0.741337 -0.838609 0.684627
    28 9.341931 0.000000 0.000002 0.000000 0.000000 -1.912418
    29 11.164143 0.000000 0.000003 1.309418 -0.000799 0.022224
    30 1.498255 0.120084 1.545498 -1.949017 -0.233378 0.750109
    31 1.304991 -0.000033 -0.000001 -0.478812 0.323316 0.277347
    32 1.339555 0.000031 0.000000 -0.244395 0.051758 0.312287
    33 4.201562 -0.682690 1.351848 -1.267882 -0.032527 0.325199
    34 1.556231 0.000000 -0.000001 -0.395383 -0.751741 0.571842
    35 1.376933 -0.000001 -0.000001 0.036658 -0.123708 0.028364
    36 4.262988 -0.685306 0.382316 -1.454826 0.269163 0.541435
    37 1.527709 0.000000 0.000002 0.189848 -1.055847 0.094465
    38 1.426606 0.000018 -0.000001 -0.252304 -0.770306 0.317640
    39 1.977383 0.000000 0.000000 0.291478 0.084590 -0.225204
    40 3.723979 2.768054 -0.049087 -3.141592 -0.000002 1.570799
    41 12.421014 0.304722 4.492689 -0.091859 -0.075839 1.616818
    42 19.916998 1.704575 4.956910 2.262592 1.451744 0.734330
  time 19
    0 -0.217531 0.165630 24.623500 -0.003260 -0.031495 -2.130540
    1 -0.526041 0.000001 9.745319 0.000000 -1.570796 -1.570765
    2 -0.000008 0.000010 5.615749 -3.236709 -0.440366 2.294043
    3 15.693463 0.000000 0.000000 0.000000 0.000000 -0.974543
    4 22.146631 -0.000002 0.000000 0.047072 -0.195768 0.034322
    5 0.000008 -0.000006 -5.615750 -3.036943 0.331476 2.889187
    6 15.693462 0.000000 0.000000 0.000000 0.000000 -1.006847
    7 22.146631 -0.000001 0.000000 0.182023 0.288510 0.675752
    8 1.384163 -0.004350 0.000002 -0.017884 -0.066297 0.232170
    9 5.934389 -0.004352 0.000000 0.180152 0.008677 0.075033
    10 5.934387 -0.004352 0.000000 -0.069391 -0.017761 0.007271
    11 4.992950 -0.004352 0.000000 0.090448 0.016730 0.085964
    12 4.992959 -0.001575 0.000000 0.000000 0.007263 0.000000
    13 -0.023430 0.001564 3.638375 -0.189071 -1.299827 3.323545
    14 8.842830 0.000000 0.000000 -0.642204 0.688574 -1.012985
    15 9.341935 0.000000 -0.000003 0.000000 0.000000 -0.809083
    16 11.164144 0.000001 0.000002 -2.731408 0.291015 0.186569
    17 1.517249 -0.028662 -1.542789 1.751978 0.372031 0.622680
    18 1.304994 -0.000032 0.000000 0.073375 0.019385 0.161222
    19 1.339555 0.000032 0.000002 0.029386 -0.015904 -0.088352
    20 4.291193 -1.106261 -1.537607 1.799064 -0.155480 0.478532
    21 1.556233 0.000001 0.000000 0.027202 0.297745 -0.034556
    22 1.376937 0.000000 -0.000001 -0.047314 0.122357 -0.002898
    23 4.179307 -1.331745 -0.599849 1.721115 -0.276334 0.419196
    24 1.527707 0.000001 0.000001 -0.008284 0.250719 -0.103159
    25 1.426605 0.000018 0.000000 -0.034954 0.176430 0.038718
    26 0.019548 0.001585 -3.638375 -0.000010 1.291482 3.140787
    27 8.842833 0.000000 0.000000 -0.634002 -0.873539 0.377277
    28 9.341931 0.000000 0.000002 0.000000 0.000000 -1.953968
    29 11.164143 0.000000 0.000003 1.411687 0.023741 0.007291
    30 1.498255 0.120084 1.545498 -1.949017 -0.233378 0.750109
    31 1.304991 -0.000033 -0.000001 -0.478812 0.323316 0.277347
    32 1.339555 0.000031 0.000000 -0.244395 0.051758 0.312287
    33 4.201562 -0.682690 1.351848 -1.267882 -0.032527 0.325199
    34 1.556231 0.000000 -0.000001 -0.395383 -0.751741 0.571842
    35 1.376933 -0.000001 -0.000001 0.036658 -0.123708 0.028364
    36 4.262988 -0.685306 0.382316 -1.454826 0.269163 0.541435
    37 1.527709 0.000000 0.000002 0.189848 -1.055847 0.094465
    38 1.426606 0.000018 -0.000001 -0.252304 -0.770306 0.317640
    39 1.977383 0.000000 0.000000 0.376725 0.131064 -0.175974
    40 3.723979 2.768054 -0.049087 -3.141592 -0.000002 1.570799
    41 12.421014 0.304722 4.492689 -0.091859 -0.075839 1.616818
    42 19.916998 1.704575 4.956910 2.262592 1.451744 0.734330
  time 20
    0 -0.151123 0.137073 25.318834 -0.002493 -0.024880 -2.108474
    1 -0.526041 0.000001 9.745319 0.000000 -1.570796 -1.570765
    2 -0.000008 0.000010 5.615749 -3.264829 -0.421890 2.340373
    3 15.693463 0.000000 0.000000 0.000000 0.000000 -0.895836
    4 22.146631 -0.000002 0.000000 0.062359 -0.183658 0.006515
    5 0.000008 -0.000006 -5.615750 -3.015014 0.317281 2.940791
    6 15.693462 0.000000 0.000000 0.000000 0.000000 -0.922962
    7 22.146631 -0.000001 0.000000 0.203241 0.279446 0.648139
    8 1.384163 -0.004350 0.000002 -0.088714 -0.049548 0.204612
    9 5.934389 -0.004352 0.000000 0.143755 0.008018 0.059755
    10 5.934387 -0.004352 0.000000 -0.055381 -0.014226 0.005672
    11 4.996857 -0.004352 0.000000 0.072075 0.013974 0.068503
    12 4.996865 -0.001575 0.000000 0.000000 0.005765 0.000000
    13 -0.019523 0.001564 3.638375 -0.148517 -1.297402 3.284140
    14 8.842830 0.000000 0.000000 -0.580447 0.595785 -0.978832
    15 9.341935 0.000000 -0.000003 0.000000 0.000000 -0.885888
    16 11.164144 0.000001 0.000002 -3.041441 0.424338 0.132805
    17 1.517249 -0.028662 -1.542789 1.669732 0.437848 0.717044
    18 1.304994 -0.000032 0.000000 0.073375 0.019385 0.161222
    19 1.339555 0.000032 0.000002 0.029386 -0.015904 -0.088352
    20 4.291193 -1.106261 -1.537607 1.799064 -0.155480 0.478532
    21 1.556233 0.000001 0.000000 0.026255 0.346487 -0.036698
    22 1.376937 0.000000 -0.000001 -0.047314 0.122357 -0.002898
    23 4.179307 -1.331745 -0.599849 1.721115 -0.276334 0.419196
    24 1.527707 0.000001 0.000001 -0.004257 0.293854 -0.092696
    25 1.426605 0.000018 0.000000 -0.034954 0.176430 0.038718
    26 0.015642 0.001585 -3.638375 -0.000010 1.289974 3.140787
    27 8.842833 0.000000 0.000000 -0.464453 -0.939287 -0.041734
    28 9.341931 0.000000 0.000002 0.000000 0.000000 -2.006902
    29 11.164143 0.000000 0.000003 1.503094 0.104864 0.302573
    30 1.498255 0.120084 1.545498 -1.949017 -0.233378 0.750109
    31 1.304991 -0.000033 -0.000001 -0.478812 0.323316 0.277347
    32 1.339555 0.000031 0.000000 -0.244395 0.051758 0.312287
    33 4.201562 -0.682690 1.351848 -1.267882 -0.032527 0.325199
    34 1.556231 0.000000 -0.000001 -0.395383 -0.751741 0.571842
    35 1.376933 -0.000001 -0.000001 0.036658 -0.123708 0.028364
    36 4.262988 -0.685306 0.382316 -1.454826 0.269163 0.541435
    37 1.527709 0.000000 0.000002 0.189848 -1.055847 0.094465
    38 1.426606 0.000018 -0.000001 -0.252304 -0.770306 0.317640
    39 1.977383 0.000000 0.000000 0.464510 0.175892 -0.117341
    40 3.723979 2.768054 -0.049087 -3.141592 -0.000002 1.570799
    41 12.421014 0.304722 4.492689 -0.091859 -0.075839 1.616818
    42 19.916998 1.704575 4.956910 2.262592 1.451744 0.734330
  time 21
    0 -0.088621 0.102805 26.021981 -0.001630 -0.018408 -2.086693
    1 -0.526041 0.000001 9.745319 0.000000 -1.570796 -1.570765
    2 -0.000008 0.000010 5.615749 -3.293138 -0.401383 2.391708
    3 15.693463 0.000000 0.000000 0.000000 0.000000 -0.808152
    4 22.146631 -0.000002 0.000000 0.077620 -0.171994 -0.025044
    5 0.000008 -0.000006 -5.615750 -2.993010 0.301384 2.996941
    6 15.693462 0.000000 0.000000 0.000000 0.000000 -0.829549
    7 22.146631 -0.000001 0.000000 0.224061 0.270502 0.615938
    8 1.384163 -0.004350 0.000002 -0.160555 -0.034610 0.175662
    9 5.934389 -0.004352 0.000000 0.107058 0.006795 0.044362
    10 5.934387 -0.004352 0.000000 -0.041251 -0.010618 0.004098
    11 4.996857 -0.004352 0.000000 0.053607 0.010882 0.050951
    12 4.996865 -0.001575 0.000000 0.000000 0.004267 0.000000
    13 -0.011711 0.001564 3.638375 -0.109209 -1.294628 3.246174
    14 8.842830 0.000000 0.000000 -0.519651 0.498338 -0.947668
    15 9.341935 0.000000 -0.000003 0.000000 0.000000 -0.953305
    16 11.168050 0.000001 0.000002 -3.378064 0.532003 0.027974
    17 1.517249 -0.028662 -1.542789 1.562838 0.516067 0.834680
    18 1.304994 -0.000032 0.000000 0.073375 0.019385 0.161222
    19 1.339555 0.000032 0.000002 0.029386 -0.015904 -0.088352
    20 4.291193 -1.106261 -1.537607 1.799064 -0.155480 0.478532
    21 1.556233 0.000001 0.000000 0.024002 0.423420 -0.041834
    22 1.376937 0.000000 -0.000001 -0.047314 0.122357 -0.002898
    23 4.179307 -1.331745 -0.599849 1.721115 -0.276334 0.419196
    24 1.527707 0.000001 0.000001 -0.001633 0.364008 -0.085853
    25 1.426605 0.000018 0.000000 -0.034954 0.176430 0.038718
    26 0.007829 0.001585 -3.638375 -0.000010 1.288491 3.140787
    27 8.842833 0.000000 0.000000 -0.090245 -0.984889 -0.645056
    28 9.341931 0.000000 0.000002 0.000000 0.000000 -1.927596
    29 11.164143 0.000000 0.000003 1.617053 0.134480 0.551224
    30 1.498255 0.120084 1.545498 -1.949017 -0.233378 0.750109
    31 1.304991 -0.000033 -0.000001 -0.478812 0.323316 0.277347
    32 1.339555 0.000031 0.000000 -0.244395 0.051758 0.312287
    33 4.201562 -0.682690 1.351848 -1.267882 -0.032527 0.325199
    34 1.556231 0.000000 -0.000001 -0.395383 -0.751741 0.571842
    35 1.376933 -0.000001 -0.000001 0.036658 -0.123708 0.028364
    36 4.262988 -0.685306 0.382316 -1.454826 0.269163 0.541435
    37 1.527709 0.000000 0.000002 0.189848 -1.055847 0.094465
    38 1.426606 0.000018 -0.000001 -0.252304 -0.770306 0.317640
    39 1.977383 0.000000 0.000000 0.554613 0.216765 -0.049576
    40 3.723979 2.768054 -0.049087 -3.141592 -0.000002 1.570799
    41 12.421014 0.304722 4.492689 -0.091859 -0.075839 1.616818
    42 19.916998 1.704575 4.956910 2.262592 1.451744 0.734330
  time 22
    0 -0.026119 0.057114 26.725127 -0.000767 -0.012033 -2.066243
    1 -0.526041 0.000001 9.745319 0.000000 -1.570796 -1.570765
    2 -0.000008 0.000010 5.615749 -3.321163 -0.379137 2.448050
    3 15.693463 0.000000 0.000000 0.000000 0.000000 -0.711282
    4 22.146631 -0.000002 0.000000 0.091940 -0.161221 -0.060261
    5 0.000008 -0.000006 -5.615750 -2.971382 0.283541 3.057435
    6 15.693462 0.000000 0.000000 0.000000 0.000000 -0.726237
    7 22.146631 -0.000001 0.000000 0.243542 0.262039 0.578682
    8 1.384163 -0.004350 0.000002 -0.232460 -0.021878 0.145870
    9 5.934389 -0.004352 0.000000 0.070553 0.005034 0.029103
    10 5.938294 -0.004352 0.000000 -0.027181 -0.007035 0.002574
    11 4.996857 -0.004352 0.000000 0.035295 0.007478 0.033529
    12 4.992959 -0.001575 0.000000 0.000000 0.002792 0.000000
    13 -0.007804 0.001564 3.638375 -0.072202 -1.291557 3.210220
    14 8.842830 0.000000 0.000000 -0.462261 0.397850 -0.920274
    15 9.341935 0.000000 -0.000003 0.000000 0.000000 -1.009254
    16 11.164144 0.000001 0.000002 -3.735586 0.596472 -0.119076
    17 1.517249 -0.028662 -1.542789 1.455944 0.591125 0.950219
    18 1.304994 -0.000032 0.000000 0.073375 0.019385 0.161222
    19 1.339555 0.000032 0.000002 0.029386 -0.015904 -0.088352
    20 4.291193 -1.106261 -1.537607 1.799064 -0.155480 0.478532
    21 1.556233 0.000001 0.000000 0.021318 0.506146 -0.047958
    22 1.376937 0.000000 -0.000001 -0.047314 0.122357 -0.002898
    23 4.179307 -1.331745 -0.599849 1.721115 -0.276334 0.419196
    24 1.527707 0.000001 0.000001 -0.000134 0.440177 -0.081898
    25 1.426605 0.000018 0.000000 -0.034954 0.176430 0.038718
    26 0.003923 0.001585 -3.638375 -0.000010 1.287032 3.140787
    27 8.842833 0.000000 0.000000 0.355545 -0.934758 -1.282855
    28 9.341931 0.000000 0.000002 0.000000 0.000000 -1.731544
    29 11.164143 0.000000 0.000003 1.708000 0.120737 0.697882
    30 1.498255 0.120084 1.545498 -1.949017 -0.233378 0.750109
    31 1.304991 -0.000033 -0.000001 -0.478812 0.323316 0.277347
    32 1.339555 0.000031 0.000000 -0.244395 0.051758 0.312287
    33 4.201562 -0.682690 1.351848 -1.267882 -0.032527 0.325199
    34 1.556231 0.000000 -0.000001 -0.395383 -0.751741 0.571842
    35 1.376933 -0.000001 -0.000001 0.036658 -0.123708 0.028364
    36 4.262988 -0.685306 0.382316 -1.454826 0.269163 0.541435
    37 1.527709 0.000000 0.000002 0.189848 -1.055847 0.094465
    38 1.426606 0.000018 -0.000001 -0.252304 -0.770306 0.317640
    39 1.977383 0.000000 0.000000 0.646990 0.251459 0.026326
    40 3.723979 2.768054 -0.049087 -3.141592 -0.000002 1.570799
    41 12.421014 0.304722 4.492689 -0.091859 -0.075839 1.616818
    42 19.916998 1.704575 4.956910 2.262592 1.451744 0.734330
  time 23
    0 0.028570 0.028557 27.400929 -0.000096 -0.005801 -2.048172
    1 -0.526041 0.000001 9.745319 0.000000 -1.570796 -1.570765
    2 -0.000008 0.000010 5.615749 -3.348340 -0.355483 2.509761
    3 15.693463 0.000000 0.000000 0.000000 0.000000 -0.604878
    4 22.146631 -0.000002 0.000000 0.104649 -0.151785 -0.099457
    5 0.000008 -0.000006 -5.615750 -2.950242 0.263905 3.123210
    6 15.693462 0.000000 0.000000 0.000000 0.000000 -0.611611
    7 22.146631 -0.000001 0.000000 0.260802 0.254466 0.535563
    8 1.384163 -0.004350 0.000002 -0.303483 -0.011496 0.115916
    9 5.934389 -0.004352 0.000000 0.034695 0.002732 0.014226
    10 5.938294 -0.004352 0.000000 -0.013375 -0.003476 0.001187
    11 4.996857 -0.004352 0.000000 0.017330 0.003823 0.016458
    12 4.992959 -0.001575 0.000000 0.000000 0.001354 0.000000
    13 -0.003898 0.001564 3.638375 -0.035866 -1.288136 3.175321
    14 8.842830 0.000000 0.000000 -0.441559 0.182509 -0.910954
    15 9.341935 0.000000 -0.000003 0.000000 0.000000 -0.963134
    16 11.164144 0.000001 0.000002 -4.131547 0.578804 -0.325445
    17 1.517249 -0.028662 -1.542789 1.373698 0.647545 1.038168
    18 1.304994 -0.000032 0.000000 0.073375 0.019385 0.161222
    19 1.339555 0.000032 0.000002 0.029386 -0.015904 -0.088352
    20 4.291193 -1.106261 -1.537607 1.799064 -0.155480 0.478532
    21 1.556233 0.000001 0.000000 0.019077 0.572228 -0.053079
    22 1.376937 0.000000 -0.000001 -0.047314 0.122357 -0.002898
    23 4.179307 -1.331745 -0.599849 1.721115 -0.276334 0.419196
    24 1.527707 0.000001 0.000001 0.000561 0.501298 -0.080065
    25 1.426605 0.000018 0.000000 -0.034954 0.176430 0.038718
    26 0.000016 0.001585 -3.638375 -0.000010 1.285573 3.140787
    27 8.842833 0.000000 0.000000 0.711375 -0.784001 -1.801873
    28 9.341931 0.000000 0.000002 0.000000 0.000000 -1.430636
    29 11.168049 0.000000 0.000003 1.766821 0.095578 0.730890
    30 1.498255 0.120084 1.545498 -1.949017 -0.233378 0.750109
    31 1.304991 -0.000033 -0.000001 -0.478812 0.323316 0.277347
    32 1.339555 0.000031 0.000000 -0.244395 0.051758 0.312287
    33 4.201562 -0.682690 1.351848 -1.267882 -0.032527 0.325199
    34 1.556231 0.000000 -0.000001 -0.395383 -0.751741 0.571842
    35 1.376933 -0.000001 -0.000001 0.036658 -0.123708 0.028364
    36 4.262988 -0.685306 0.382316 -1.454826 0.269163 0.541435
    37 1.527709 0.000000 0.000002 0.189848 -1.055847 0.094465
    38 1.426606 0.000018 -0.000001 -0.252304 -0.770306 0.317640
    39 1.977383 0.000000 0.000000 0.741029 0.277863 0.109009
    40 3.723979 2.768054 -0.049087 -3.141592 -0.000002 1.570799
    41 12.421014 0.304722 4.492689 -0.091859 -0.075839 1.616818
    42 19.916998 1.704575 4.956910 2.262592 1.451744 0.734330
  time 24
    0 0.071540 0.000000 28.029854 0.000000 0.000000 -2.033429
    1 -0.526041 0.000001 9.745319 0.000000 -1.570796 -1.570765
    2 -0.000008 0.000010 5.615749 -3.374572 -0.330668 2.577662
    3 15.693463 0.000000 0.000000 0.000000 0.000000 -0.487270
    4 22.146631 -0.000002 0.000000 0.114966 -0.144034 -0.143089
    5 0.000008 -0.000006 -5.615750 -2.929552 0.242050 3.196003
    6 15.693462 0.000000 0.000000 0.000000 0.000000 -0.482099
    7 22.146631 -0.000001 0.000000 0.274871 0.248047 0.485010
    8 1.384163 -0.004350 0.000002 -0.372596 -0.003462 0.086545
    9 5.938295 -0.004352 0.000000 0.000000 0.000000 0.000000
    10 5.934387 -0.004352 0.000000 0.000000 0.000000 0.000000
    11 4.996857 -0.004352 0.000000 0.000000 0.000000 0.000000
    12 4.992959 -0.001575 0.000000 0.000000 0.000000 0.000000
    13 0.000008 0.001564 3.638375 -0.000010 -1.284203 3.140806
    14 8.842830 0.000000 0.000000 -0.414917 -0.110867 -0.914725
    15 9.341935 0.000000 -0.000003 0.000000 0.000000 -0.852998
    16 11.164144 0.000001 0.000002 -4.515846 0.471529 -0.520863
    17 1.517249 -0.028662 -1.542789 1.340822 0.669808 1.073159
    18 1.304994 -0.000032 0.000000 0.073375 0.019385 0.161222
    19 1.339555 0.000032 0.000002 0.029386 -0.015904 -0.088352
    20 4.291193 -1.106261 -1.537607 1.799064 -0.155480 0.478532
    21 1.556233 0.000001 0.000000 0.018130 0.599248 -0.055221
    22 1.376937 0.000000 -0.000001 -0.047314 0.122357 -0.002898
    23 4.179307 -1.331745 -0.599849 1.721115 -0.276334 0.419196
    24 1.527707 0.000001 0.000001 0.000716 0.526346 -0.079621
    25 1.426605 0.000018 0.000000 -0.034954 0.176430 0.038718
    26 0.000016 0.001585 -3.638375 -0.000010 1.284211 3.140787
    27 8.842833 0.000000 0.000000 0.956009 -0.539646 -2.199040
    28 9.341931 0.000000 0.000002 0.000000 0.000000 -0.994895
    29 11.168049 0.000000 0.000003 1.805022 0.075445 0.649462
    30 1.498255 0.120084 1.545498 -1.949017 -0.233378 0.750109
    31 1.304991 -0.000033 -0.000001 -0.478812 0.323316 0.277347
    32 1.339555 0.000031 0.000000 -0.244395 0.051758 0.312287
    33 4.201562 -0.682690 1.351848 -1.267882 -0.032527 0.325199
    34 1.556231 0.000000 -0.000001 -0.395383 -0.751741 0.571842
    35 1.376933 -0.000001 -0.000001 0.036658 -0.123708 0.028364
    36 4.262988 -0.685306 0.382316 -1.454826 0.269163 0.541435
    37 1.527709 0.000000 0.000002 0.189848 -1.055847 0.094465
    38 1.426606 0.000018 -0.000001 -0.252304 -0.770306 0.317640
    39 1.977383 0.000000 0.000000 0.835680 0.294310 0.196032
    40 3.723979 2.768054 -0.049087 -3.141592 -0.000002 1.570799
    41 12.421014 0.304722 4.492689 -0.091859 -0.075839 1.616818
    42 19.916998 1.704575 4.956910 2.262592 1.451744 0.734330
end
