// Created by Crowbar 0.42.0.0
version 1
nodes
  0 "Bip01" -1
  1 "Bip01 Pelvis" 0
  2 "Bip01 L Thigh" 1
  3 "Bip01 L Calf" 2
  4 "Bip01 L Foot" 3
  5 "Bip01 R Thigh" 1
  6 "Bip01 R Calf" 5
  7 "Bip01 R Foot" 6
  8 "Bip01 Spine" 1
  9 "Bip01 Spine1" 8
  10 "Bip01 Spine2" 9
  11 "Bip01 Spine3" 10
  12 "Bip01 Neck" 11
  13 "Bip01 L Clavicle" 12
  14 "Bip01 L UpperArm" 13
  15 "Bip01 L Forearm" 14
  16 "Bip01 L Hand" 15
  17 "Bip01 L Finger0" 16
  18 "Bip01 L Finger01" 17
  19 "Bip01 L Finger02" 18
  20 "Bip01 L Finger1" 16
  21 "Bip01 L Finger11" 20
  22 "Bip01 L Finger12" 21
  23 "Bip01 L Finger2" 16
  24 "Bip01 L Finger21" 23
  25 "Bip01 L Finger22" 24
  26 "Bip01 R Clavicle" 12
  27 "Bip01 R UpperArm" 26
  28 "Bip01 R Forearm" 27
  29 "Bip01 R Hand" 28
  30 "Bip01 R Finger0" 29
  31 "Bip01 R Finger01" 30
  32 "Bip01 R Finger02" 31
  33 "Bip01 R Finger1" 29
  34 "Bip01 R Finger11" 33
  35 "Bip01 R Finger12" 34
  36 "Bip01 R Finger2" 29
  37 "Bip01 R Finger21" 36
  38 "Bip01 R Finger22" 37
  39 "Bip01 Head" 12
  40 "Bone05" 39
  41 "m4" 29
  42 "SHOTGUN" 29
end
skeleton
  time 0
    0 0.071540 -0.285569 31.139324 0.000000 0.000000 -1.570895
    1 -0.526041 0.000001 9.745319 0.000000 -1.570796 -1.570765
    2 -0.000008 0.000010 5.615749 -3.141592 0.000002 3.041593
    3 15.693463 0.000000 0.000000 0.000000 0.000000 -0.200000
    4 22.146631 -0.000002 0.000000 0.000000 0.000000 0.100000
    5 0.000008 -0.000006 -5.615750 -3.141592 0.000002 3.041593
    6 15.693462 0.000000 0.000000 0.000000 0.000000 -0.200000
    7 22.146631 -0.000001 0.000000 0.000000 0.000000 0.100000
    8 1.384163 -0.004350 0.000002 -0.000004 -0.000001 0.000796
    9 5.934389 -0.004352 0.000000 0.000000 0.000000 0.000000
    10 5.934387 -0.004352 0.000000 0.000000 0.000000 0.000000
    11 4.996857 -0.004352 0.000000 0.000000 0.000000 0.000000
    12 4.996865 -0.001575 0.000000 0.000000 0.000000 0.000000
    13 0.000008 0.001564 3.638375 -0.000010 -1.284203 3.140806
    14 8.842830 0.000000 0.000000 0.000000 0.765315 0.000000
    15 9.341935 0.000000 -0.000003 0.000000 0.000000 -0.200000
    16 11.164144 0.000001 0.000002 -1.513016 0.101375 -0.076461
    17 1.517249 -0.028662 -1.542789 1.496517 0.467893 0.316646
    18 1.304994 -0.000032 0.000000 0.073375 0.019385 0.161222
    19 1.339555 0.000032 0.000002 0.029386 -0.015904 -0.088352
    20 4.291193 -1.106261 -1.537607 1.640488 0.093734 0.374809
    21 1.556233 0.000001 0.000000 -0.024140 0.321332 -0.103739
    22 1.376937 0.000000 -0.000001 -0.047314 0.122357 -0.002898
    23 4.179307 -1.331745 -0.599849 1.534419 -0.016449 0.425063
    24 1.527707 0.000001 0.000001 -0.053610 0.268745 -0.165778
    25 1.426605 0.000018 0.000000 -0.034954 0.176430 0.038718
    26 0.000016 0.001585 -3.638375 -0.000010 1.284211 3.140787
    27 8.842833 0.000000 0.000000 0.000000 -0.765261 0.000000
    28 9.341931 0.000000 0.000002 0.000000 0.000000 -0.200000
    29 11.164143 0.000000 0.000003 1.512852 -0.101386 -0.076451
    30 1.498255 0.120084 1.545498 -1.949017 -0.233378 0.750109
    31 1.304991 -0.000033 -0.000001 -0.478812 0.323316 0.277347
    32 1.339555 0.000031 0.000000 -0.244395 0.051758 0.312287
    33 4.201562 -0.682690 1.351848 -1.267882 -0.032527 0.325199
    34 1.556231 0.000000 -0.000001 -0.395383 -0.751741 0.571842
    35 1.376933 -0.000001 -0.000001 0.036658 -0.123708 0.028364
    36 4.262988 -0.685306 0.382316 -1.454826 0.269163 0.541435
    37 1.527709 0.000000 0.000002 0.189848 -1.055847 0.094465
    38 1.426606 0.000018 -0.000001 -0.252304 -0.770306 0.317640
    39 1.977383 0.000000 0.000000 0.000000 0.000000 -0.000798
    40 3.723979 2.768054 -0.049087 -3.141592 -0.000002 1.570799
    41 12.421014 0.304722 4.492689 -0.091859 -0.075839 1.616818
    42 19.916998 1.704575 4.956910 2.262592 1.451744 0.734330
  time 1
    0 0.071540 -0.285569 31.139324 0.000000 0.000000 -1.570895
    1 -0.526041 0.000001 9.745319 0.000000 -1.570796 -1.570765
    2 -0.000008 0.000010 5.615749 -3.141592 0.000002 3.041593
    3 15.693463 0.000000 0.000000 0.000000 0.000000 -0.200000
    4 22.146631 -0.000002 0.000000 0.000000 0.000000 0.100000
    5 0.000008 -0.000006 -5.615750 -3.141592 0.000002 3.041593
    6 15.693462 0.000000 0.000000 0.000000 0.000000 -0.200000
    7 22.146631 -0.000001 0.000000 0.000000 0.000000 0.100000
    8 1.384163 -0.004350 0.000002 -0.000004 -0.000001 0.000796
    9 5.934389 -0.004352 0.000000 0.000000 0.000000 0.000000
    10 5.934387 -0.004352 0.000000 0.000000 0.000000 0.000000
    11 4.996857 -0.004352 0.000000 0.000000 0.000000 0.000000
    12 4.996865 -0.001575 0.000000 0.000000 0.000000 0.000000
    13 0.000008 0.001564 3.638375 -0.000010 -1.284203 3.140806
    14 8.842830 0.000000 0.000000 0.000000 0.765315 0.000000
    15 9.341935 0.000000 -0.000003 0.000000 0.000000 -0.200000
    16 11.168050 0.000001 0.000002 -1.513016 0.101375 -0.076461
    17 1.517249 -0.028662 -1.542789 1.496517 0.467893 0.316646
    18 1.304994 -0.000032 0.000000 0.073375 0.019385 0.161222
    19 1.339555 0.000032 0.000002 0.029386 -0.015904 -0.088352
    20 4.291193 -1.106261 -1.537607 1.640488 0.093734 0.374809
    21 1.556233 0.000001 0.000000 -0.024140 0.321332 -0.103739
    22 1.376937 0.000000 -0.000001 -0.047314 0.122357 -0.002898
    23 4.179307 -1.331745 -0.599849 1.534419 -0.016449 0.425063
    24 1.527707 0.000001 0.000001 -0.053610 0.268745 -0.165778
    25 1.426605 0.000018 0.000000 -0.034954 0.176430 0.038718
    26 0.000016 0.001585 -3.638375 -0.000010 1.284211 3.140787
    27 8.842833 0.000000 0.000000 0.000000 -0.765261 0.000000
    28 9.341931 0.000000 0.000002 0.000000 0.000000 -0.200000
    29 11.164143 0.000000 0.000003 1.512852 -0.101386 -0.076451
    30 1.498255 0.120084 1.545498 -1.949017 -0.233378 0.750109
    31 1.304991 -0.000033 -0.000001 -0.478812 0.323316 0.277347
    32 1.339555 0.000031 0.000000 -0.244395 0.051758 0.312287
    33 4.201562 -0.682690 1.351848 -1.267882 -0.032527 0.325199
    34 1.556231 0.000000 -0.000001 -0.395383 -0.751741 0.571842
    35 1.376933 -0.000001 -0.000001 0.036658 -0.123708 0.028364
    36 4.262988 -0.685306 0.382316 -1.454826 0.269163 0.541435
    37 1.527709 0.000000 0.000002 0.189848 -1.055847 0.094465
    38 1.426606 0.000018 -0.000001 -0.252304 -0.770306 0.317640
    39 1.977383 0.000000 0.000000 0.000000 0.000000 -0.000798
    40 3.723979 2.768054 -0.049087 -3.141592 -0.000002 1.570799
    41 12.421014 0.304722 4.492689 -0.091859 -0.075839 1.616818
    42 19.916998 1.704575 4.956910 2.262592 1.451744 0.734330
end
