// Created by Crowbar 0.54
version 1
nodes
  0 "Bip01" -1
  1 "Bip01 Pelvis" 0
  2 "Bip01 L Leg" 1
  3 "Bip01 L Leg1" 2
  4 "Bip01 L Foot" 3
  5 "Bip01 L Toe0" 4
  6 "Bip01 L Toe01" 5
  7 "Bip01 L Toe02" 6
  8 "Bip01 L Toe1" 4
  9 "Bip01 L Toe11" 8
  10 "Bip01 L Toe12" 9
  11 "Bip01 R Leg" 1
  12 "Bip01 R Leg1" 11
  13 "Bip01 R Foot" 12
  14 "Bip01 R Toe0" 13
  15 "Bip01 R Toe01" 14
  16 "Bip01 R Toe02" 15
  17 "Bip01 R Toe1" 13
  18 "Bip01 R Toe11" 17
  19 "Bip01 R Toe12" 18
  20 "Bip01 Spine" 1
  21 "Bip01 Spine1" 20
  22 "Bip01 Neck" 21
  23 "Bip01 Head" 22
  24 "Bone13" 23
  25 "Bone14" 24
  26 "Bone15" 25
  27 "Bone16" 26
  28 "Bone17" 27
  29 "Bone07" 23
  30 "Bone08" 29
  31 "Bone09" 30
  32 "Bone10" 31
  33 "Bone11" 32
  34 "Bone31" 23
  35 "Bone32" 34
  36 "Bone33" 35
  37 "Bone34" 36
  38 "Bone35" 37
  39 "Bone01" 23
  40 "Bone02" 39
  41 "Bone03" 40
  42 "Bone04" 41
  43 "Bone05" 42
  44 "Bone19" 23
  45 "Bone20" 44
  46 "Bone21" 45
  47 "Bone22" 46
  48 "Bone23" 47
  49 "Bone25" 23
  50 "Bone26" 49
  51 "Bone27" 50
  52 "Bone28" 51
  53 "Bone29" 52
  54 "Bip01 Tail" 1
  55 "Bip01 Tail1" 54
  56 "Bip01 Tail2" 55
  57 "Bip01 Tail3" 56
end
skeleton
  time 0
    0 0.152748 4.452156 34.202477 0.000000 0.000000 -1.570871
    1 0.000000 0.000000 0.000000 0.000000 -1.570796 -1.570795
    2 -0.000020 0.000021 14.561969 0.060711 -0.415458 -2.363137
    3 17.731710 0.000002 -0.000002 0.000000 0.000000 -1.360542
    4 21.987322 -0.000001 0.000000 2.685254 0.246733 0.526347
    5 4.324765 6.780502 -1.982552 0.000000 0.000000 1.832463
    6 1.707565 0.000000 -0.000003 0.000000 0.000000 -0.130833
    7 1.707564 0.000000 -0.000002 0.000000 0.000000 -0.479722
    8 4.324765 6.333148 1.238803 0.000000 -0.331445 1.832463
    9 1.821401 0.000000 0.000000 0.000000 0.000000 -0.130833
    10 1.821402 0.000000 0.000003 0.000000 0.000000 -0.479722
    11 0.000018 -0.000019 -14.561969 -0.060707 0.415458 -2.363135
    12 17.731709 0.000002 -0.000001 0.000000 0.000000 -1.360542
    13 21.987322 -0.000001 0.000001 -2.685254 -0.246733 0.526347
    14 4.324765 6.904408 1.903421 0.000000 -0.069778 1.832463
    15 1.707564 0.000000 0.000000 0.000000 0.000000 -0.130833
    16 1.707564 0.000000 -0.000001 0.000000 0.000000 -0.479722
    17 4.324765 7.017687 -1.342620 0.000000 0.366333 1.832463
    18 1.821401 0.000000 -0.000001 0.000000 0.000000 -0.130833
    19 1.821401 0.000000 0.000001 0.000000 0.000000 -0.479722
    20 1.249476 0.004294 0.000002 -0.000003 0.000002 2.050519
    21 11.689318 -0.009310 0.000000 0.000000 0.000000 0.000000
    22 11.689318 -0.001414 0.000000 0.000000 0.000000 0.000000
    23 1.773172 0.000001 0.000000 -0.000004 0.000002 -2.050520
    24 4.327651 4.634944 -2.428680 0.000000 -1.570796 -3.141591
    25 0.000000 -0.000001 -0.346259 0.000000 0.000000 0.000000
    26 0.827268 -7.688719 -2.908663 0.000000 0.000000 0.000000
    27 1.167906 -7.494070 0.088223 0.000000 0.000000 0.000000
    28 1.508547 -6.764126 -3.865244 0.000000 0.000000 0.000000
    29 2.243071 5.364872 3.362189 0.000000 -1.570796 -3.141591
    30 0.000000 0.000001 0.000000 0.000000 0.000000 0.000000
    31 1.021918 -6.472149 -0.595725 0.000000 0.000000 0.000000
    32 0.973257 -7.396745 -2.793421 0.000000 0.000000 0.000000
    33 1.021919 -5.839535 -3.557765 0.000000 0.000000 0.000000
    34 -3.776780 2.834424 -11.528622 0.000000 -1.570796 -3.141591
    35 -0.145987 0.000000 0.730172 0.000000 0.000000 0.000000
    36 -2.384475 -6.374823 -2.048885 0.000000 0.000000 0.000000
    37 -1.021919 -3.601048 -1.439222 0.000000 0.000000 0.000000
    38 -0.243314 -4.720287 -1.673703 0.000000 0.000000 0.000000
    39 -2.264710 4.780908 8.909744 0.000000 -1.570796 -3.141591
    40 0.000000 0.000001 -0.000001 0.000000 0.000000 0.000000
    41 1.946512 -7.250753 -2.204916 0.000000 0.000000 0.000000
    42 1.605872 -3.649706 -1.822481 0.000000 0.000000 0.000000
    43 -0.729940 -3.941682 -1.419925 0.000000 0.000000 0.000000
    44 -4.189922 3.272375 -1.309439 0.000000 -1.570796 -3.141591
    45 0.000000 -0.000001 -0.000001 0.000000 0.000000 0.000000
    46 -1.265231 -7.396744 -6.605810 0.000000 0.000000 0.000000
    47 0.000001 -5.742206 -3.281358 0.000000 0.000000 0.000000
    48 0.048663 -5.596216 0.775173 0.000000 0.000000 0.000000
    49 0.256295 2.737097 -7.294960 0.000000 -1.570796 -3.141591
    50 0.000000 -0.000001 1.089265 0.000000 0.000000 0.000000
    51 -2.335813 -8.126682 -0.811257 0.000000 0.000000 0.000000
    52 0.145988 -7.348079 -0.880992 0.000000 0.000000 0.000000
    53 0.048664 -7.299416 -5.811588 0.000000 0.000000 0.000000
    54 -0.388544 -14.131889 0.000034 -0.000002 -0.000001 -1.554463
    55 15.490297 -0.012332 0.000000 0.000000 0.000000 -0.009833
    56 15.491479 -0.012287 0.000000 0.000000 0.000000 0.086111
    57 15.487943 -0.014718 0.000000 0.000000 0.000001 -0.166833
  time 1
    0 -0.526960 4.452156 32.885371 0.000000 0.000000 -1.570871
    1 0.148442 1.804743 0.000000 0.000000 -1.570796 -1.570795
    2 -0.000020 0.000021 14.561969 0.049233 -0.401519 -2.287873
    3 17.731710 0.000002 -0.000002 0.000000 0.000000 -1.483131
    4 21.987322 -0.000001 0.000000 2.686880 0.221224 0.581052
    5 4.324765 6.780502 -1.982552 0.000000 0.000000 1.832463
    6 1.707565 0.000000 -0.000003 0.000000 0.000000 -0.130833
    7 1.707564 0.000000 -0.000002 0.000000 0.000000 -0.479722
    8 4.324765 6.333148 1.238803 0.000000 -0.331445 1.832463
    9 1.821401 0.000000 0.000000 0.000000 0.000000 -0.130833
    10 1.821402 0.000000 0.000003 0.000000 0.000000 -0.479722
    11 0.000018 -0.000019 -14.561969 -0.000530 0.448327 -2.292345
    12 17.731709 0.000002 -0.000001 0.000000 0.000000 -1.437752
    13 21.987322 -0.000001 0.000001 -2.681342 -0.289986 0.537148
    14 4.324765 6.904408 1.903421 0.000000 -0.069778 1.832463
    15 1.707564 0.000000 0.000000 0.000000 0.000000 -0.130833
    16 1.707564 0.000000 -0.000001 0.000000 0.000000 -0.479722
    17 4.324765 7.017687 -1.342620 0.000000 0.366333 1.832463
    18 1.821401 0.000000 -0.000001 0.000000 0.000000 -0.130833
    19 1.821401 0.000000 0.000001 0.000000 0.000000 -0.479722
    20 1.249476 0.004294 0.000002 0.000069 0.092898 2.050519
    21 11.689318 -0.009310 0.000000 0.000132 0.165575 0.000000
    22 11.689318 -0.001414 0.000000 0.000000 0.000000 0.000000
    23 1.773172 0.000001 0.000000 -0.004739 0.122614 -2.032527
    24 4.327651 4.634944 -2.428680 0.008629 -1.559030 -3.147823
    25 0.000000 -0.000001 -0.346259 0.006096 -0.098475 0.063870
    26 0.827268 -7.688719 -2.908663 0.122884 -0.218431 0.097159
    27 1.167906 -7.494070 0.088223 -0.125950 0.207472 0.085072
    28 1.508547 -6.764126 -3.865244 0.159863 0.187415 -0.025057
    29 2.243071 5.364872 3.362189 0.006711 -1.560731 -3.146768
    30 0.000000 0.000001 0.000000 0.092511 -0.100483 0.045628
    31 1.021918 -6.472149 -0.595725 0.048218 -0.158907 0.137417
    32 0.973257 -7.396745 -2.793421 0.050460 -0.094857 0.128206
    33 1.021919 -5.839535 -3.557765 -0.137144 0.341716 0.064512
    34 -3.776780 2.834424 -11.528622 -0.346023 -1.556663 -2.777233
    35 -0.145987 0.000000 0.730172 -0.065942 -0.424858 0.043898
    36 -2.384475 -6.374823 -2.048885 0.007907 -0.097399 -0.000949
    37 -1.021919 -3.601048 -1.439222 0.215173 0.113405 0.091597
    38 -0.243314 -4.720287 -1.673703 0.071823 0.526277 0.169065
    39 -2.264710 4.780908 8.909744 -0.032213 -1.549134 -3.105351
    40 0.000000 0.000001 -0.000001 0.073440 -0.231273 0.152208
    41 1.946512 -7.250753 -2.204916 -0.125345 0.348378 0.084782
    42 1.605872 -3.649706 -1.822481 -0.014258 -0.188470 0.342793
    43 -0.729940 -3.941682 -1.419925 -0.295324 0.278463 0.256922
    44 -4.189922 3.272375 -1.309439 0.009683 -1.566863 -3.150507
    45 0.000000 -0.000001 -0.000001 -0.023018 -0.078540 0.003950
    46 -1.265231 -7.396744 -6.605810 -0.077185 -0.122105 0.015698
    47 0.000001 -5.742206 -3.281358 0.152682 0.073594 0.134209
    48 0.048663 -5.596216 0.775173 0.147490 0.043614 0.101677
    49 0.256295 2.737097 -7.294960 0.050431 -1.507481 -3.170450
    50 0.000000 -0.000001 1.089265 0.018959 -0.336746 0.086141
    51 -2.335813 -8.126682 -0.811257 0.103724 -0.038107 0.036201
    52 0.145988 -7.348079 -0.880992 -0.091221 0.112263 0.160865
    53 0.048664 -7.299416 -5.811588 0.107671 -0.108172 0.281495
    54 -0.388544 -14.131889 0.000034 -0.000002 -0.000001 -1.401350
    55 15.490297 -0.012332 0.000000 0.014435 -0.068431 0.014002
    56 15.491479 -0.012287 0.000000 -0.000026 -0.041338 0.012500
    57 15.487943 -0.014718 0.000000 0.000096 0.138112 -0.392808
  time 2
    0 -2.023099 4.452156 31.047928 0.000000 0.000000 -1.570871
    1 0.753929 3.929807 0.000000 0.000000 -1.570796 -1.570795
    2 -0.000020 0.000021 14.561969 0.016292 -0.396174 -2.176234
    3 17.731710 0.000002 -0.000002 0.000000 0.000000 -1.623926
    4 21.987322 -0.000001 0.000000 2.687986 0.207725 0.619458
    5 4.324765 6.780502 -1.982552 0.000000 0.000000 1.832463
    6 1.707565 0.000000 -0.000003 0.000000 0.000000 -0.130833
    7 1.707564 0.000000 -0.000002 0.000000 0.000000 -0.479722
    8 4.324765 6.333148 1.238803 0.000000 -0.331445 1.832463
    9 1.821401 0.000000 0.000000 0.000000 0.000000 -0.130833
    10 1.821402 0.000000 0.000003 0.000000 0.000000 -0.479722
    11 0.000018 -0.000019 -14.561969 0.073096 0.465756 -2.178088
    12 17.731709 0.000002 -0.000001 0.000000 0.000000 -1.553634
    13 21.987322 -0.000001 0.000001 -2.677347 -0.321052 0.550026
    14 4.324765 6.904408 1.903421 0.000000 -0.069778 1.832463
    15 1.707564 0.000000 0.000000 0.000000 0.000000 -0.130833
    16 1.707564 0.000000 -0.000001 0.000000 0.000000 -0.479722
    17 4.324765 7.017687 -1.342620 0.000000 0.366333 1.832463
    18 1.821401 0.000000 -0.000001 0.000000 0.000000 -0.130833
    19 1.821401 0.000000 0.000001 0.000000 0.000000 -0.479722
    20 1.249476 0.004294 0.000002 0.000153 0.205807 2.050535
    21 11.689318 -0.009310 0.000000 0.000312 0.378841 0.000059
    22 11.689318 -0.001414 0.000000 0.000000 0.000000 0.000000
    23 1.773172 0.000001 0.000000 0.004811 0.265877 -1.968577
    24 4.327651 4.634944 -2.428680 0.009875 -1.547265 -3.146768
    25 0.000000 -0.000001 -0.346259 0.005858 -0.197110 0.128145
    26 0.827268 -7.688719 -2.908663 0.232042 -0.446574 0.171817
    27 1.167906 -7.494070 0.088223 -0.241445 0.423873 0.147302
    28 1.508547 -6.764126 -3.865244 0.323752 0.376543 -0.019240
    29 2.243071 5.364872 3.362189 0.007478 -1.550635 -3.146097
    30 0.000000 0.000001 0.000000 0.181924 -0.204704 0.082300
    31 1.021918 -6.472149 -0.595725 0.075034 -0.322963 0.272367
    32 0.973257 -7.396745 -2.793421 0.088997 -0.195534 0.253365
    33 1.021919 -5.839535 -3.557765 -0.276012 0.689004 0.083331
    34 -3.776780 2.834424 -11.528622 -0.336826 -1.542444 -2.768131
    35 -0.145987 0.000000 0.730172 -0.183913 -0.844331 0.145167
    36 -2.384475 -6.374823 -2.048885 0.016047 -0.194798 -0.002704
    37 -1.021919 -3.601048 -1.439222 0.443669 0.204228 0.207288
    38 -0.243314 -4.720287 -1.673703 0.354704 1.020762 0.522592
    39 -2.264710 4.780908 8.909744 -0.030200 -1.527450 -3.103338
    40 0.000000 0.000001 -0.000001 0.113827 -0.470691 0.299524
    41 1.946512 -7.250753 -2.204916 -0.241610 0.704224 0.132041
    42 1.605872 -3.649706 -1.822481 -0.095839 -0.360654 0.706469
    43 -0.729940 -3.941682 -1.419925 -0.543707 0.615616 0.446570
    44 -4.189922 3.272375 -1.309439 0.010258 -1.562874 -3.150316
    45 0.000000 -0.000001 -0.000001 -0.046665 -0.156990 0.009761
    46 -1.265231 -7.396744 -6.605810 -0.158119 -0.242592 0.041413
    47 0.000001 -5.742206 -3.281358 0.314947 0.125216 0.278918
    48 0.048663 -5.596216 0.775173 0.298989 0.071458 0.209067
    49 0.256295 2.737097 -7.294960 0.061265 -1.444166 -3.159616
    50 0.000000 -0.000001 1.089265 0.005526 -0.673854 0.182046
    51 -2.335813 -8.126682 -0.811257 0.206337 -0.079792 0.068412
    52 0.145988 -7.348079 -0.880992 -0.164900 0.237483 0.314210
    53 0.048664 -7.299416 -5.811588 0.182469 -0.241631 0.555899
    54 -0.388544 -14.135796 0.000034 -0.000002 -0.000001 -1.183533
    55 15.490297 -0.012332 0.000000 0.035351 -0.167081 0.044402
    56 15.491479 -0.012287 0.000000 -0.000079 -0.100240 -0.091739
    57 15.484036 -0.014718 0.000000 0.000257 0.334897 -0.712438
  time 3
    0 -3.527051 4.452156 29.812125 0.000000 0.000000 -1.570871
    1 0.980499 4.343883 0.000000 0.000000 -1.570796 -1.570795
    2 -0.000020 0.000021 14.561969 -0.047820 -0.421886 -2.105181
    3 17.731710 0.000002 -0.000002 0.000000 0.000000 -1.689077
    4 21.987322 -0.000001 0.000000 2.683075 0.252139 0.618709
    5 4.324765 6.780502 -1.982552 0.000000 0.000000 1.832463
    6 1.707565 0.000000 -0.000003 0.000000 0.000000 -0.130833
    7 1.707564 0.000000 -0.000002 0.000000 0.000000 -0.479722
    8 4.324765 6.333148 1.238803 0.000000 -0.331445 1.832463
    9 1.821401 0.000000 0.000000 0.000000 0.000000 -0.130833
    10 1.821402 0.000000 0.000003 0.000000 0.000000 -0.479722
    11 0.000018 -0.000019 -14.561969 0.086392 0.445456 -2.104793
    12 17.731709 0.000002 -0.000001 0.000000 0.000000 -1.662333
    13 21.987322 -0.000001 0.000001 -2.680765 -0.297114 0.592566
    14 4.324765 6.904408 1.903421 0.000000 -0.069778 1.832463
    15 1.707564 0.000000 0.000000 0.000000 0.000000 -0.130833
    16 1.707564 0.000000 -0.000001 0.000000 0.000000 -0.479722
    17 4.324765 7.017687 -1.342620 0.000000 0.366333 1.832463
    18 1.821401 0.000000 -0.000001 0.000000 0.000000 -0.130833
    19 1.821401 0.000000 0.000001 0.000000 0.000000 -0.479722
    20 1.249476 0.004294 0.000002 0.000165 0.218331 2.050535
    21 11.689318 -0.009310 0.000000 0.000395 0.462259 0.000079
    22 11.689318 -0.001414 0.000000 0.000000 0.000000 0.000000
    23 1.773172 0.000001 0.000000 0.030874 0.304055 -1.940102
    24 4.327651 4.634944 -2.428680 0.010163 -1.541323 -3.146001
    25 0.000000 -0.000001 -0.346259 -0.000237 -0.251090 0.169027
    26 0.827268 -7.688719 -2.908663 0.327619 -0.522117 0.156121
    27 1.167906 -7.494070 0.088223 -0.291159 0.657712 0.116939
    28 1.508547 -6.764126 -3.865244 0.434768 0.539843 0.055125
    29 2.243071 5.364872 3.362189 0.007958 -1.549142 -3.143796
    30 0.000000 0.000001 0.000000 0.246107 -0.161045 0.097478
    31 1.021918 -6.472149 -0.595725 0.069275 -0.437919 0.316223
    32 0.973257 -7.396745 -2.793421 0.115515 -0.308789 0.219862
    33 1.021919 -5.839535 -3.557765 -0.326484 0.933237 0.125372
    34 -3.776780 2.834424 -11.528622 -0.545474 -1.544499 -2.544706
    35 -0.145987 0.000000 0.730172 -0.352103 -1.078100 0.287218
    36 -2.384475 -6.374823 -2.048885 -0.013256 -0.248526 -0.020639
    37 -1.021919 -3.601048 -1.439222 0.552071 0.331372 0.242569
    38 -0.243314 -4.720287 -1.673703 0.849363 1.230120 0.990965
    39 -2.264710 4.780908 8.909744 0.003451 -1.526608 -3.135551
    40 0.000000 0.000001 -0.000001 0.146602 -0.442607 0.387387
    41 1.946512 -7.250753 -2.204916 -0.292340 0.743398 0.092151
    42 1.605872 -3.649706 -1.822481 -0.178552 -0.479694 0.929583
    43 -0.729940 -3.941682 -1.419925 -0.632142 1.022478 0.581596
    44 -4.189922 3.272375 -1.309439 0.003931 -1.566002 -3.141016
    45 0.000000 -0.000001 -0.000001 -0.088769 -0.160820 0.012394
    46 -1.265231 -7.396744 -6.605810 -0.161259 -0.231477 0.057583
    47 0.000001 -5.742206 -3.281358 0.491954 0.137619 0.358043
    48 0.048663 -5.596216 0.775173 0.355884 0.000187 0.225156
    49 0.256295 2.737097 -7.294960 0.073154 -1.407358 -3.154918
    50 0.000000 -0.000001 1.089265 -0.011718 -0.872096 0.227126
    51 -2.335813 -8.126682 -0.811257 0.232083 -0.112319 0.033066
    52 0.145988 -7.348079 -0.880992 -0.207227 0.422428 0.385791
    53 0.048664 -7.299416 -5.811588 0.201029 -0.284397 0.712073
    54 -0.388544 -14.135796 0.000034 -0.000002 -0.000001 -0.952661
    55 15.490297 -0.012332 0.000000 0.059534 -0.277865 0.069842
    56 15.491479 -0.012287 0.000000 -0.000131 -0.165695 -0.184262
    57 15.480130 -0.010812 0.000000 0.000482 0.552218 -0.986561
  time 4
    0 -2.183260 4.452156 31.194273 0.000000 0.000000 -1.570871
    1 0.523454 2.925871 0.000000 0.000000 -1.570796 -1.570795
    2 -0.000020 0.000021 14.561969 -0.009297 -0.421344 -2.190328
    3 17.731710 0.000002 -0.000002 0.000000 0.000000 -1.594771
    4 21.987322 -0.000001 0.000000 2.683563 0.247551 0.602160
    5 4.324765 6.780502 -1.982552 0.000000 0.000000 1.832463
    6 1.707565 0.000000 -0.000003 0.000000 0.000000 -0.130833
    7 1.707564 0.000000 -0.000002 0.000000 0.000000 -0.479722
    8 4.324765 6.333148 1.238803 0.000000 -0.331445 1.832463
    9 1.821401 0.000000 0.000000 0.000000 0.000000 -0.130833
    10 1.821402 0.000000 0.000003 0.000000 0.000000 -0.479722
    11 0.000018 -0.000019 -14.561969 0.040548 0.443211 -2.190985
    12 17.731709 0.000002 -0.000001 0.000000 0.000000 -1.571064
    13 21.987322 -0.000001 0.000001 -2.682454 -0.285899 0.579272
    14 4.324765 6.904408 1.903421 0.000000 -0.069778 1.832463
    15 1.707564 0.000000 0.000000 0.000000 0.000000 -0.130833
    16 1.707564 0.000000 -0.000001 0.000000 0.000000 -0.479722
    17 4.324765 7.017687 -1.342620 0.000000 0.366333 1.832463
    18 1.821401 0.000000 -0.000001 0.000000 0.000000 -0.130833
    19 1.821401 0.000000 0.000001 0.000000 0.000000 -0.479722
    20 1.249476 0.004294 0.000002 0.000081 0.109775 2.050519
    21 11.689318 -0.009310 0.000000 0.000336 0.410220 0.000059
    22 11.689318 -0.001414 0.000000 0.000000 0.000000 0.000000
    23 1.773172 0.000001 0.000000 0.063157 0.240764 -1.982064
    24 4.327651 4.634944 -2.428680 0.008820 -1.546259 -3.145810
    25 0.000000 -0.000001 -0.346259 -0.006927 -0.222914 0.161274
    26 0.827268 -7.688719 -2.908663 0.392475 -0.269282 0.001111
    27 1.167906 -7.494070 0.088223 -0.251140 0.907726 -0.107539
    28 1.508547 -6.764126 -3.865244 0.507595 0.693561 0.202781
    29 2.243071 5.364872 3.362189 -0.000288 -1.564224 -3.129990
    30 0.000000 0.000001 0.000000 0.270629 0.185422 0.093141
    31 1.021918 -6.472149 -0.595725 0.043233 -0.465347 0.174421
    32 0.973257 -7.396745 -2.793421 0.164639 -0.405664 -0.157521
    33 1.021919 -5.839535 -3.557765 -0.228989 1.075161 0.270312
    34 -3.776780 2.834424 -11.528622 -2.065119 -1.552037 -1.017045
    35 -0.145987 0.000000 0.730172 -0.348577 -1.008001 0.235438
    36 -2.384475 -6.374823 -2.048885 -0.128667 -0.223674 -0.075155
    37 -1.021919 -3.601048 -1.439222 0.366993 0.592483 0.036906
    38 -0.243314 -4.720287 -1.673703 0.519770 1.149547 0.439972
    39 -2.264710 4.780908 8.909744 0.715307 -1.562072 -3.850757
    40 0.000000 0.000001 -0.000001 0.214935 0.064828 0.384001
    41 1.946512 -7.250753 -2.204916 -0.175417 0.239168 -0.044014
    42 1.605872 -3.649706 -1.822481 -0.179025 -0.589643 0.868628
    43 -0.729940 -3.941682 -1.419925 0.276681 1.451098 1.473107
    44 -4.189922 3.272375 -1.309439 -3.112808 -1.558155 -0.016018
    45 0.000000 -0.000001 -0.000001 -0.170931 -0.016964 -0.001541
    46 -1.265231 -7.396744 -6.605810 -0.002343 0.048133 0.066634
    47 0.000001 -5.742206 -3.281358 0.733831 0.136163 0.298814
    48 0.048663 -5.596216 0.775173 0.258513 -0.249142 0.066547
    49 0.256295 2.737097 -7.294960 0.089932 -1.418607 -3.163163
    50 0.000000 -0.000001 1.089265 0.044968 -0.820852 0.113228
    51 -2.335813 -8.126682 -0.811257 0.107706 -0.135117 -0.137299
    52 0.145988 -7.348079 -0.880992 -0.250672 0.748392 0.278991
    53 0.048664 -7.299416 -5.811588 0.181176 -0.126475 0.640310
    54 -0.388544 -14.135796 0.000034 -0.000002 -0.000001 -0.964533
    55 15.490297 -0.012332 0.000000 0.066569 -0.314584 0.049754
    56 15.491479 -0.012287 0.000000 -0.000144 -0.188974 -0.022272
    57 15.487943 -0.014718 0.000000 0.000546 0.617749 -0.406447
  time 5
    0 -1.034788 4.452156 32.739026 0.000000 0.000000 -1.570871
    1 0.125004 0.621113 0.000000 0.000000 -1.570796 -1.570795
    2 -0.000020 0.000021 14.561969 0.009060 -0.438721 -2.284130
    3 17.731710 0.000002 -0.000002 0.000000 0.000000 -1.460737
    4 21.987322 -0.000001 0.000000 2.681448 0.274521 0.552888
    5 4.324765 6.780502 -1.982552 0.000000 0.000000 1.832463
    6 1.707565 0.000000 -0.000003 0.000000 0.000000 -0.130833
    7 1.707564 0.000000 -0.000002 0.000000 0.000000 -0.479722
    8 4.324765 6.333148 1.238803 0.000000 -0.331445 1.832463
    9 1.821401 0.000000 0.000000 0.000000 0.000000 -0.130833
    10 1.821402 0.000000 0.000003 0.000000 0.000000 -0.479722
    11 0.000018 -0.000019 -14.561969 -0.032655 0.414069 -2.282047
    12 17.731709 0.000002 -0.000001 0.000000 0.000000 -1.483431
    13 21.987322 -0.000001 0.000001 -2.685995 -0.240092 0.575284
    14 4.324765 6.904408 1.903421 0.000000 -0.069778 1.832463
    15 1.707564 0.000000 0.000000 0.000000 0.000000 -0.130833
    16 1.707564 0.000000 -0.000001 0.000000 0.000000 -0.479722
    17 4.324765 7.017687 -1.342620 0.000000 0.366333 1.832463
    18 1.821401 0.000000 -0.000001 0.000000 0.000000 -0.130833
    19 1.821401 0.000000 0.000001 0.000000 0.000000 -0.479722
    20 1.249476 0.004294 0.000002 -0.000039 -0.050337 2.050519
    21 11.689318 -0.009310 0.000000 0.000252 0.306548 0.000039
    22 11.689318 -0.001414 0.000000 0.000000 0.000000 0.000000
    23 1.773172 0.000001 0.000000 0.109805 0.125461 -2.028149
    24 4.327651 4.634944 -2.428680 0.005177 -1.557050 -3.144467
    25 0.000000 -0.000001 -0.346259 -0.015279 -0.150525 0.128550
    26 0.827268 -7.688719 -2.908663 0.354128 0.143574 -0.194874
    27 1.167906 -7.494070 0.088223 -0.286692 1.179524 -0.507142
    28 1.508547 -6.764126 -3.865244 0.618670 0.854870 0.423640
    29 2.243071 5.364872 3.362189 -3.117144 -1.553714 -0.006235
    30 0.000000 0.000001 0.000000 0.260094 0.682402 0.071270
    31 1.021918 -6.472149 -0.595725 0.002922 -0.449293 -0.061582
    32 0.973257 -7.396745 -2.793421 0.269375 -0.471797 -0.720311
    33 1.021919 -5.839535 -3.557765 -0.017813 1.178830 0.518808
    34 -3.776780 2.834424 -11.528622 -2.817325 -1.509466 -0.260448
    35 -0.145987 0.000000 0.730172 -0.280348 -0.766917 0.103193
    36 -2.384475 -6.374823 -2.048885 -0.284487 -0.166230 -0.153821
    37 -1.021919 -3.601048 -1.439222 -0.144919 0.778573 -0.463530
    38 -0.243314 -4.720287 -1.673703 0.267310 0.787210 -0.138752
    39 -2.264710 4.780908 8.909744 2.883852 -1.517273 -6.025422
    40 0.000000 0.000001 -0.000001 0.280576 0.845615 0.370831
    41 1.946512 -7.250753 -2.204916 0.204368 -0.514493 -0.408022
    42 1.605872 -3.649706 -1.822481 -0.078748 -0.669621 0.602319
    43 -0.729940 -3.941682 -1.419925 2.107903 1.077946 -3.136055
    44 -4.189922 3.272375 -1.309439 -3.111657 -1.533603 -0.006718
    45 0.000000 -0.000001 -0.000001 -0.276897 0.198255 -0.042963
    46 -1.265231 -7.396744 -6.605810 0.262251 0.446944 0.160043
    47 0.000001 -5.742206 -3.281358 0.983264 0.152661 0.166172
    48 0.048663 -5.596216 0.775173 0.134507 -0.616304 -0.149755
    49 0.256295 2.737097 -7.294960 0.118312 -1.456320 -3.188283
    50 0.000000 -0.000001 1.089265 0.093365 -0.624327 -0.042114
    51 -2.335813 -8.126682 -0.811257 -0.085943 -0.190919 -0.365245
    52 0.145988 -7.348079 -0.880992 -0.451405 1.106288 -0.053495
    53 0.048664 -7.299416 -5.811588 0.093635 0.124375 0.438434
    54 -0.388544 -14.135796 0.000034 -0.000002 -0.000001 -1.027862
    55 15.490297 -0.012332 0.000000 0.068419 -0.331987 0.022529
    56 15.491479 -0.012287 0.000000 -0.000157 -0.201242 0.173284
    57 15.487943 -0.014718 0.000000 0.000643 0.693263 -0.187919
  time 6
    0 -0.312110 4.452156 32.690244 0.000000 0.000000 -1.570871
    1 0.152349 -1.734428 0.000000 0.000000 -1.570796 -1.570795
    2 -0.000020 0.000021 14.561969 -0.025728 -0.472721 -2.286645
    3 17.731710 0.000002 -0.000002 0.000000 0.000000 -1.425735
    4 21.987322 -0.000001 0.000000 2.676569 0.323756 0.518978
    5 4.324765 6.780502 -1.982552 0.000000 0.000000 1.832463
    6 1.707565 0.000000 -0.000003 0.000000 0.000000 -0.130833
    7 1.707564 0.000000 -0.000002 0.000000 0.000000 -0.479722
    8 4.324765 6.333148 1.238803 0.000000 -0.331445 1.832463
    9 1.821401 0.000000 0.000000 0.000000 0.000000 -0.130833
    10 1.821402 0.000000 0.000003 0.000000 0.000000 -0.479722
    11 0.000018 -0.000019 -14.561969 -0.070352 0.380506 -2.278475
    12 17.731709 0.000002 -0.000001 0.000000 0.000000 -1.514569
    13 21.987322 -0.000001 0.000001 -2.688590 -0.188519 0.605444
    14 4.324765 6.904408 1.903421 0.000000 -0.069778 1.832463
    15 1.707564 0.000000 0.000000 0.000000 0.000000 -0.130833
    16 1.707564 0.000000 -0.000001 0.000000 0.000000 -0.479722
    17 4.324765 7.017687 -1.342620 0.000000 0.366333 1.832463
    18 1.821401 0.000000 -0.000001 0.000000 0.000000 -0.130833
    19 1.821401 0.000000 0.000001 0.000000 0.000000 -0.479722
    20 1.249476 0.004294 0.000002 -0.000159 -0.206119 2.050535
    21 11.689318 -0.009310 0.000000 0.000144 0.190896 0.000000
    22 11.689318 -0.001414 0.000000 0.000000 0.000000 0.000000
    23 1.773172 0.000001 0.000000 0.161148 -0.001137 -2.045375
    24 4.327651 4.634944 -2.428680 -0.001917 -1.564292 -3.139002
    25 0.000000 -0.000001 -0.346259 -0.025016 -0.101730 0.118048
    26 0.827268 -7.688719 -2.908663 0.280993 0.367777 -0.309604
    27 1.167906 -7.494070 0.088223 -0.988497 1.416121 -1.353257
    28 1.508547 -6.764126 -3.865244 0.802335 0.993962 0.734523
    29 2.243071 5.364872 3.362189 -3.117623 -1.536728 -0.001058
    30 0.000000 0.000001 0.000000 0.227427 1.021098 0.033467
    31 1.021918 -6.472149 -0.595725 -0.038935 -0.451774 -0.212612
    32 0.973257 -7.396745 -2.793421 0.439928 -0.550038 -1.115588
    33 1.021919 -5.839535 -3.557765 0.316524 1.225992 0.882377
    34 -3.776780 2.834424 -11.528622 -2.908525 -1.452590 -0.162437
    35 -0.145987 0.000000 0.730172 -0.273964 -0.585072 0.037941
    36 -2.384475 -6.374823 -2.048885 -0.372978 -0.137866 -0.204446
    37 -1.021919 -3.601048 -1.439222 -0.504340 0.754509 -0.798174
    38 -0.243314 -4.720287 -1.673703 0.260740 0.520294 -0.346259
    39 -2.264710 4.780908 8.909744 2.946074 -1.470071 -6.090711
    40 0.000000 0.000001 -0.000001 0.957227 1.529090 1.009483
    41 1.946512 -7.250753 -2.204916 1.140409 -0.881852 -1.330145
    42 1.605872 -3.649706 -1.822481 0.056653 -0.632898 0.326550
    43 -0.729940 -3.941682 -1.419925 2.299592 0.566264 -3.118135
    44 -4.189922 3.272375 -1.309439 -3.109069 -1.516992 -0.002500
    45 0.000000 -0.000001 -0.000001 -0.358745 0.338818 -0.086986
    46 -1.265231 -7.396744 -6.605810 0.489307 0.671017 0.300924
    47 0.000001 -5.742206 -3.281358 1.085451 0.134548 0.079678
    48 0.048663 -5.596216 0.775173 0.073506 -0.906299 -0.273424
    49 0.256295 2.737097 -7.294960 0.149471 -1.482396 -3.217908
    50 0.000000 -0.000001 1.089265 0.098700 -0.486863 -0.125479
    51 -2.335813 -8.126682 -0.811257 -0.197354 -0.257118 -0.498554
    52 0.145988 -7.348079 -0.880992 -0.787252 1.270545 -0.444140
    53 0.048664 -7.299416 -5.811588 -0.032597 0.272896 0.300274
    54 -0.388544 -14.135796 0.000034 -0.000002 -0.000001 -1.097567
    55 15.490297 -0.012332 0.000000 0.068487 -0.334372 -0.000592
    56 15.491479 -0.012287 0.000000 -0.000157 -0.204100 0.317908
    57 15.487943 -0.014718 0.000000 0.000579 0.644800 0.045070
  time 7
    0 0.273846 4.452156 32.381294 0.000000 0.000000 -1.570871
    1 0.496109 -3.632923 0.000000 0.000000 -1.570796 -1.570795
    2 -0.000020 0.000021 14.561969 -0.062560 -0.498503 -2.265709
    3 17.731710 0.000002 -0.000002 0.000000 0.000000 -1.412589
    4 21.987322 -0.000001 0.000000 2.671690 0.361420 0.486879
    5 4.324765 6.780502 -1.982552 0.000000 0.000000 1.832463
    6 1.707565 0.000000 -0.000003 0.000000 0.000000 -0.130833
    7 1.707564 0.000000 -0.000002 0.000000 0.000000 -0.479722
    8 4.324765 6.333148 1.238803 0.000000 -0.331445 1.832463
    9 1.821401 0.000000 0.000000 0.000000 0.000000 -0.130833
    10 1.821402 0.000000 0.000003 0.000000 0.000000 -0.479722
    11 0.000018 -0.000019 -14.561969 -0.095676 0.353980 -2.253749
    12 17.731709 0.000002 -0.000001 0.000000 0.000000 -1.554072
    13 21.987322 -0.000001 0.000001 -2.690402 -0.144146 0.624470
    14 4.324765 6.904408 1.903421 0.000000 -0.069778 1.832463
    15 1.707564 0.000000 0.000000 0.000000 0.000000 -0.130833
    16 1.707564 0.000000 -0.000001 0.000000 0.000000 -0.479722
    17 4.324765 7.017687 -1.342620 0.000000 0.366333 1.832463
    18 1.821401 0.000000 -0.000001 0.000000 0.000000 -0.130833
    19 1.821401 0.000000 0.000001 0.000000 0.000000 -0.479722
    20 1.249476 0.004294 0.000002 -0.000267 -0.327686 2.050551
    21 11.689318 -0.009310 0.000000 0.000060 0.080894 0.000000
    22 11.689318 -0.001414 0.000000 0.000000 0.000000 0.000000
    23 1.773172 0.000001 0.000000 0.203282 -0.110131 -2.036075
    24 4.327651 4.634944 -2.428680 -0.004027 -1.564972 -3.136893
    25 0.000000 -0.000001 -0.346259 -0.033843 -0.096827 0.143019
    26 0.827268 -7.688719 -2.908663 0.278741 0.307764 -0.251544
    27 1.167906 -7.494070 0.088223 -2.699712 1.311216 -2.902133
    28 1.508547 -6.764126 -3.865244 1.065813 1.079500 1.128095
    29 2.243071 5.364872 3.362189 -3.117431 -1.530822 -6.282987
    30 0.000000 0.000001 0.000000 0.215211 1.107396 0.015932
    31 1.021918 -6.472149 -0.595725 -0.067556 -0.490482 -0.225586
    32 0.973257 -7.396745 -2.793421 0.697284 -0.701030 -1.267588
    33 1.021919 -5.839535 -3.557765 0.671643 1.205811 1.259990
    34 -3.776780 2.834424 -11.528622 -2.909099 -1.386034 -0.149982
    35 -0.145987 0.000000 0.730172 -0.309984 -0.540329 0.031801
    36 -2.384475 -6.374823 -2.048885 -0.361176 -0.143320 -0.201600
    37 -1.021919 -3.601048 -1.439222 -0.481528 0.724923 -0.742145
    38 -0.243314 -4.720287 -1.673703 0.229149 0.499332 -0.320823
    39 -2.264710 4.780908 8.909744 2.983177 -1.491143 -6.115254
    40 0.000000 0.000001 -0.000001 -3.042236 1.476666 -2.914435
    41 1.946512 -7.250753 -2.204916 1.673569 -0.738800 -1.843908
    42 1.605872 -3.649706 -1.822481 0.147771 -0.114274 0.243284
    43 -0.729940 -3.941682 -1.419925 2.345482 0.096836 3.086702
    44 -4.189922 3.272375 -1.309439 -3.109452 -1.512160 -0.001062
    45 0.000000 -0.000001 -0.000001 -0.388684 0.374786 -0.104036
    46 -1.265231 -7.396744 -6.605810 0.515082 0.679499 0.319544
    47 0.000001 -5.742206 -3.281358 0.981697 0.037132 0.083086
    48 0.048663 -5.596216 0.775173 -0.013842 -1.047623 -0.192501
    49 0.256295 2.737097 -7.294960 0.154745 -1.485801 -3.222415
    50 0.000000 -0.000001 1.089265 0.092222 -0.473894 -0.133136
    51 -2.335813 -8.126682 -0.811257 -0.196983 -0.274622 -0.501309
    52 0.145988 -7.348079 -0.880992 -0.653928 1.259469 -0.243963
    53 0.048664 -7.299416 -5.811588 -0.151442 0.258701 0.352012
    54 -0.388544 -14.135796 0.000034 -0.000002 -0.000001 -1.153758
    55 15.490297 -0.012332 0.000000 0.069040 -0.342391 -0.021608
    56 15.491479 -0.012287 0.000000 -0.000157 -0.210272 0.354789
    57 15.499662 -0.014718 0.000000 0.000129 0.190614 0.672033
  time 8
    0 0.793393 4.452156 31.844695 0.000000 0.000000 -1.570871
    1 0.722678 -4.394665 0.000000 0.000000 -1.570796 -1.570795
    2 -0.000020 0.000021 14.561969 -0.087049 -0.503659 -2.231323
    3 17.731710 0.000002 -0.000002 0.000000 0.000000 -1.442945
    4 21.987322 -0.000001 0.000000 2.670324 0.372173 0.487067
    5 4.324765 6.780502 -1.982552 0.000000 0.000000 1.832463
    6 1.707565 0.000000 -0.000003 0.000000 0.000000 -0.130833
    7 1.707564 0.000000 -0.000002 0.000000 0.000000 -0.479722
    8 4.324765 6.333148 1.238803 0.000000 -0.331445 1.832463
    9 1.821401 0.000000 0.000000 0.000000 0.000000 -0.130833
    10 1.821402 0.000000 0.000003 0.000000 0.000000 -0.479722
    11 0.000018 -0.000019 -14.561969 -0.091257 0.352082 -2.221648
    12 17.731709 0.000002 -0.000001 0.000000 0.000000 -1.593881
    13 21.987322 -0.000001 0.000001 -2.690319 -0.135948 0.634440
    14 4.324765 6.904408 1.903421 0.000000 -0.069778 1.832463
    15 1.707564 0.000000 0.000000 0.000000 0.000000 -0.130833
    16 1.707564 0.000000 -0.000001 0.000000 0.000000 -0.479722
    17 4.324765 7.017687 -1.342620 0.000000 0.366333 1.832463
    18 1.821401 0.000000 -0.000001 0.000000 0.000000 -0.130833
    19 1.821401 0.000000 0.000001 0.000000 0.000000 -0.479722
    20 1.249476 0.004294 0.000002 -0.000303 -0.366328 2.050567
    21 11.689318 -0.009310 0.000000 0.000000 0.000000 0.000000
    22 11.689318 -0.001414 0.000000 0.000000 0.000000 0.000000
    23 1.773172 0.000001 0.000000 0.221319 -0.165820 -2.023003
    24 4.327651 4.634944 -2.428680 -0.001150 -1.563228 -3.139386
    25 0.000000 -0.000001 -0.346259 -0.042987 -0.106835 0.182324
    26 0.827268 -7.688719 -2.908663 0.285350 0.123463 -0.117438
    27 1.167906 -7.494070 0.088223 3.088115 1.020624 -3.080267
    28 1.508547 -6.764126 -3.865244 1.331778 1.100005 1.513075
    29 2.243071 5.364872 3.362189 -3.117623 -1.529235 -6.282796
    30 0.000000 0.000001 0.000000 0.215476 1.087435 0.012161
    31 1.021918 -6.472149 -0.595725 -0.095834 -0.538786 -0.179994
    32 0.973257 -7.396745 -2.793421 1.060616 -0.892762 -1.395222
    33 1.021919 -5.839535 -3.557765 0.928501 1.134125 1.534235
    34 -3.776780 2.834424 -11.528622 -2.898178 -1.310914 -0.146724
    35 -0.145987 0.000000 0.730172 -0.357820 -0.536694 0.044723
    36 -2.384475 -6.374823 -2.048885 -0.304139 -0.159480 -0.174840
    37 -1.021919 -3.601048 -1.439222 -0.312073 0.679894 -0.528260
    38 -0.243314 -4.720287 -1.673703 0.169657 0.569205 -0.202821
    39 -2.264710 4.780908 8.909744 3.039358 -1.541021 -6.158396
    40 0.000000 0.000001 -0.000001 -0.770238 1.499695 -0.533951
    41 1.946512 -7.250753 -2.204916 1.880042 -0.666079 -2.032132
    42 1.605872 -3.649706 -1.822481 0.184029 -0.208995 0.248906
    43 -0.729940 -3.941682 -1.419925 2.053982 0.030676 2.844922
    44 -4.189922 3.272375 -1.309439 -3.111370 -1.512179 -0.000870
    45 0.000000 -0.000001 -0.000001 -0.392669 0.371028 -0.106220
    46 -1.265231 -7.396744 -6.605810 0.440849 0.602416 0.268019
    47 0.000001 -5.742206 -3.281358 0.762488 -0.094345 0.145815
    48 0.048663 -5.596216 0.775173 -0.185866 -1.116648 0.039985
    49 0.256295 2.737097 -7.294960 0.145636 -1.482138 -3.213786
    50 0.000000 -0.000001 1.089265 0.080503 -0.501097 -0.110165
    51 -2.335813 -8.126682 -0.811257 -0.153271 -0.266132 -0.446674
    52 0.145988 -7.348079 -0.880992 -0.386833 1.134333 0.142399
    53 0.048664 -7.299416 -5.811588 -0.282845 0.188092 0.496975
    54 -0.388544 -14.131889 0.000034 -0.000002 -0.000001 -1.257933
    55 15.490297 -0.012332 0.000000 0.063113 -0.269321 -0.026674
    56 15.491479 -0.012287 0.000000 -0.000131 -0.165695 0.339042
    57 15.499662 -0.010812 0.000000 -0.000161 -0.200594 0.993222
  time 9
    0 1.305127 4.452156 30.917843 0.000000 0.000000 -1.570871
    1 0.285165 -2.800867 0.000000 0.000000 -1.570796 -1.570795
    2 -0.000020 0.000021 14.561969 -0.071522 -0.468788 -2.188047
    3 17.731710 0.000002 -0.000002 0.000000 0.000000 -1.565368
    4 21.987322 -0.000001 0.000000 2.676895 0.324778 0.570686
    5 4.324765 6.780502 -1.982552 0.000000 0.000000 1.832463
    6 1.707565 0.000000 -0.000003 0.000000 0.000000 -0.130833
    7 1.707564 0.000000 -0.000002 0.000000 0.000000 -0.479722
    8 4.324765 6.333148 1.238803 0.000000 -0.331445 1.832463
    9 1.821401 0.000000 0.000000 0.000000 0.000000 -0.130833
    10 1.821402 0.000000 0.000003 0.000000 0.000000 -0.479722
    11 0.000018 -0.000019 -14.561969 -0.014249 0.404394 -2.187134
    12 17.731709 0.000002 -0.000001 0.000000 0.000000 -1.631632
    13 21.987322 -0.000001 0.000001 -2.684307 -0.217516 0.636268
    14 4.324765 6.904408 1.903421 0.000000 -0.069778 1.832463
    15 1.707564 0.000000 0.000000 0.000000 0.000000 -0.130833
    16 1.707564 0.000000 -0.000001 0.000000 0.000000 -0.479722
    17 4.324765 7.017687 -1.342620 0.000000 0.366333 1.832463
    18 1.821401 0.000000 -0.000001 0.000000 0.000000 -0.130833
    19 1.821401 0.000000 0.000001 0.000000 0.000000 -0.479722
    20 1.249476 0.004294 0.000002 -0.000183 -0.230292 2.050535
    21 11.689318 -0.009310 0.000000 0.000000 0.000000 0.000000
    22 11.689318 -0.001414 0.000000 0.000000 0.000000 0.000000
    23 1.773172 0.000001 0.000000 0.225893 -0.106437 -2.040485
    24 4.327651 4.634944 -2.428680 0.001822 -1.560361 -3.141687
    25 0.000000 -0.000001 -0.346259 -0.052012 -0.125284 0.231589
    26 0.827268 -7.688719 -2.908663 0.272350 -0.109994 0.043614
    27 1.167906 -7.494070 0.088223 2.769579 0.755558 -3.000271
    28 1.508547 -6.764126 -3.865244 1.493654 1.081675 1.767313
    29 2.243071 5.364872 3.362189 -3.117719 -1.530346 -0.000291
    30 0.000000 0.000001 0.000000 0.217689 1.014048 0.013669
    31 1.021918 -6.472149 -0.595725 -0.134339 -0.579274 -0.100047
    32 0.973257 -7.396745 -2.793421 1.555297 -1.062387 -1.611373
    33 1.021919 -5.839535 -3.557765 1.082885 1.035765 1.702209
    34 -3.776780 2.834424 -11.528622 -2.886683 -1.238705 -0.144329
    35 -0.145987 0.000000 0.730172 -0.406324 -0.554196 0.064794
    36 -2.384475 -6.374823 -2.048885 -0.220589 -0.188730 -0.140346
    37 -1.021919 -3.601048 -1.439222 -0.098146 0.586287 -0.268002
    38 -0.243314 -4.720287 -1.673703 0.128795 0.683885 -0.035381
    39 -2.264710 4.780908 8.909744 -0.247831 -1.545404 -2.858193
    40 0.000000 0.000001 -0.000001 -0.422628 1.305540 -0.070648
    41 1.946512 -7.250753 -2.204916 2.032101 -0.613221 -2.162821
    42 1.605872 -3.649706 -1.822481 0.215471 -0.418740 0.258545
    43 -0.729940 -3.941682 -1.419925 1.712098 -0.036839 2.594325
    44 -4.189922 3.272375 -1.309439 -3.113191 -1.515868 -0.001158
    45 0.000000 -0.000001 -0.000001 -0.380399 0.330783 -0.097454
    46 -1.265231 -7.396744 -6.605810 0.332781 0.466562 0.209140
    47 0.000001 -5.742206 -3.281358 0.503472 -0.222908 0.256995
    48 0.048663 -5.596216 0.775173 -0.321900 -1.133120 0.260286
    49 0.256295 2.737097 -7.294960 0.132022 -1.473345 -3.201034
    50 0.000000 -0.000001 1.089265 0.067261 -0.551980 -0.069583
    51 -2.335813 -8.126682 -0.811257 -0.080664 -0.270139 -0.365055
    52 0.145988 -7.348079 -0.880992 -0.246940 0.933840 0.419011
    53 0.048664 -7.299416 -5.811588 -0.381467 0.143956 0.637148
    54 -0.388544 -14.131889 0.000034 0.000058 0.087035 -1.413336
    55 15.490297 -0.012332 0.000000 0.052877 -0.109553 -0.015613
    56 15.491479 -0.012287 0.000000 -0.000052 -0.066903 0.333354
    57 15.499662 -0.010812 0.000000 -0.000225 -0.305558 0.796820
  time 10
    0 0.851988 4.452156 27.421823 0.000000 0.000000 -1.570871
    1 0.015626 0.671896 0.000000 0.000000 -1.570796 -1.570795
    2 -0.000020 0.000021 14.561969 -0.088032 -0.422310 -2.031203
    3 17.731710 0.000002 -0.000002 0.000000 0.000000 -1.854049
    4 21.987322 -0.000001 0.000000 2.683042 0.263184 0.716317
    5 4.324765 6.780502 -1.982552 0.000000 0.000000 1.832463
    6 1.707565 0.000000 -0.000003 0.000000 0.000000 -0.130833
    7 1.707564 0.000000 -0.000002 0.000000 0.000000 -0.479722
    8 4.324765 6.333148 1.238803 0.000000 -0.331445 1.832463
    9 1.821401 0.000000 0.000000 0.000000 0.000000 -0.130833
    10 1.821402 0.000000 0.000003 0.000000 0.000000 -0.479722
    11 0.000018 -0.000019 -14.561969 0.175466 0.475872 -2.024215
    12 17.731709 0.000002 -0.000001 0.000000 0.000000 -1.797177
    13 21.987322 -0.000001 0.000001 -2.668617 -0.362408 0.655793
    14 4.324765 6.904408 1.903421 0.000000 -0.069778 1.832463
    15 1.707564 0.000000 0.000000 0.000000 0.000000 -0.130833
    16 1.707564 0.000000 -0.000001 0.000000 0.000000 -0.479722
    17 4.324765 7.017687 -1.342620 0.000000 0.366333 1.832463
    18 1.821401 0.000000 -0.000001 0.000000 0.000000 -0.130833
    19 1.821401 0.000000 0.000001 0.000000 0.000000 -0.479722
    20 1.249476 0.004294 0.000002 0.000033 0.054888 2.050519
    21 11.689318 -0.009310 0.000000 0.000000 0.000000 0.000000
    22 11.689318 -0.001414 0.000000 0.000000 0.000000 0.000000
    23 1.773172 0.000001 0.000000 0.158961 0.024331 -2.050776
    24 4.327651 4.634944 -2.428680 0.003547 -1.557759 -3.142837
    25 0.000000 -0.000001 -0.346259 -0.060047 -0.145823 0.286264
    26 0.827268 -7.688719 -2.908663 0.242864 -0.315689 0.195082
    27 1.167906 -7.494070 0.088223 2.518153 0.552714 -2.873556
    28 1.508547 -6.764126 -3.865244 1.514791 1.060754 1.836040
    29 2.243071 5.364872 3.362189 -3.116856 -1.532632 -0.001345
    30 0.000000 0.000001 0.000000 0.210607 0.939853 0.011313
    31 1.021918 -6.472149 -0.595725 -0.187628 -0.594767 -0.013431
    32 0.973257 -7.396745 -2.793421 2.127338 -1.129552 -1.933362
    33 1.021919 -5.839535 -3.557765 1.173867 0.927051 1.804360
    34 -3.776780 2.834424 -11.528622 -2.878348 -1.180715 -0.141646
    35 -0.145987 0.000000 0.730172 -0.442820 -0.574077 0.077991
    36 -2.384475 -6.374823 -2.048885 -0.128900 -0.231003 -0.114725
    37 -1.021919 -3.601048 -1.439222 0.074568 0.454070 -0.055551
    38 -0.243314 -4.720287 -1.673703 0.143286 0.783586 0.144394
    39 -2.264710 4.780908 8.909744 -0.178707 -1.495652 -2.916100
    40 0.000000 0.000001 -0.000001 -0.361072 1.081522 0.117590
    41 1.946512 -7.250753 -2.204916 2.155933 -0.639963 -2.215421
    42 1.605872 -3.649706 -1.822481 0.276563 -0.614140 0.238464
    43 -0.729940 -3.941682 -1.419925 1.515342 -0.030256 2.485557
    44 -4.189922 3.272375 -1.309439 -3.113000 -1.522048 -0.001925
    45 0.000000 -0.000001 -0.000001 -0.363097 0.256896 -0.083358
    46 -1.265231 -7.396744 -6.605810 0.236804 0.306901 0.186701
    47 0.000001 -5.742206 -3.281358 0.290989 -0.334539 0.376189
    48 0.048663 -5.596216 0.775173 -0.298511 -1.151511 0.301319
    49 0.256295 2.737097 -7.294960 0.122242 -1.461449 -3.191447
    50 0.000000 -0.000001 1.089265 0.057448 -0.610364 -0.025651
    51 -2.335813 -8.126682 -0.811257 0.002593 -0.321934 -0.290182
    52 0.145988 -7.348079 -0.880992 -0.187444 0.736523 0.595391
    53 0.048664 -7.299416 -5.811588 -0.382759 0.177001 0.661005
    54 -0.388544 -14.131889 0.000034 0.000142 0.183956 -1.571412
    55 15.490297 -0.012332 0.000000 0.043857 0.062508 -0.007121
    56 15.491479 -0.012287 0.000000 0.000026 0.039395 0.326347
    57 15.495755 -0.014718 0.000000 -0.000257 -0.345677 0.493773
  time 11
    0 0.512134 4.452156 25.096563 0.000000 0.000000 -1.570871
    1 0.683615 4.285287 0.000000 0.000000 -1.570796 -1.570795
    2 -0.000020 0.000021 14.561969 -0.021444 -0.363658 -1.914710
    3 17.731710 0.000002 -0.000002 0.000000 0.000000 -2.039177
    4 21.987322 -0.000001 0.000000 2.691044 0.140578 0.792254
    5 4.324765 6.780502 -1.982552 0.000000 0.000000 1.832463
    6 1.707565 0.000000 -0.000003 0.000000 0.000000 -0.130833
    7 1.707564 0.000000 -0.000002 0.000000 0.000000 -0.479722
    8 4.324765 6.333148 1.238803 0.000000 -0.331445 1.832463
    9 1.821401 0.000000 0.000000 0.000000 0.000000 -0.130833
    10 1.821402 0.000000 0.000003 0.000000 0.000000 -0.479722
    11 0.000018 -0.000019 -14.561969 0.363913 0.519851 -1.886021
    12 17.731709 0.000002 -0.000001 0.000000 0.000000 -1.839220
    13 21.987322 -0.000001 0.000001 -2.640738 -0.503285 0.580601
    14 4.324765 6.904408 1.903421 0.000000 -0.069778 1.832463
    15 1.707564 0.000000 0.000000 0.000000 0.000000 -0.130833
    16 1.707564 0.000000 -0.000001 0.000000 0.000000 -0.479722
    17 4.324765 7.017687 -1.342620 0.000000 0.366333 1.832463
    18 1.821401 0.000000 -0.000001 0.000000 0.000000 -0.130833
    19 1.821401 0.000000 0.000001 0.000000 0.000000 -0.479722
    20 1.249476 0.004294 0.000002 0.000285 0.356726 2.050567
    21 11.689318 -0.009310 0.000000 0.000000 0.000000 0.000000
    22 11.689318 -0.001414 0.000000 0.000000 0.000000 0.000000
    23 1.773172 0.000001 0.000000 0.068975 0.161285 -2.024825
    24 4.327651 4.634944 -2.428680 0.004985 -1.554034 -3.144084
    25 0.000000 -0.000001 -0.346259 -0.059810 -0.202777 0.396740
    26 0.827268 -7.688719 -2.908663 0.323624 -0.498158 0.292172
    27 1.167906 -7.494070 0.088223 2.384028 0.652850 -2.893297
    28 1.508547 -6.764126 -3.865244 1.238051 1.028862 1.507080
    29 2.243071 5.364872 3.362189 -3.104584 -1.548507 -0.012371
    30 0.000000 0.000001 0.000000 0.159881 0.736296 0.008767
    31 1.021918 -6.472149 -0.595725 -0.298159 -0.446110 0.143995
    32 0.973257 -7.396745 -2.793421 1.997324 -1.175549 -1.547413
    33 1.021919 -5.839535 -3.557765 0.927735 0.638595 1.450904
    34 -3.776780 2.834424 -11.528622 -2.875187 -1.216777 -0.153431
    35 -0.145987 0.000000 0.730172 -0.401273 -0.663519 0.057645
    36 -2.384475 -6.374823 -2.048885 0.083433 -0.365801 -0.128580
    37 -1.021919 -3.601048 -1.439222 0.331626 0.188246 0.185871
    38 -0.243314 -4.720287 -1.673703 0.431207 0.819527 0.481282
    39 -2.264710 4.780908 8.909744 -0.130770 -1.475254 -2.963365
    40 0.000000 0.000001 -0.000001 -0.224962 0.721717 0.433482
    41 1.946512 -7.250753 -2.204916 2.044274 -1.142538 -1.809495
    42 1.605872 -3.649706 -1.822481 0.504592 -0.677125 0.075502
    43 -0.729940 -3.941682 -1.419925 2.282096 0.476758 -3.030929
    44 -4.189922 3.272375 -1.309439 -3.082129 -1.552237 -0.024359
    45 0.000000 -0.000001 -0.000001 -0.291369 -0.112057 -0.027743
    46 -1.265231 -7.396744 -6.605810 0.029009 -0.096701 0.299604
    47 0.000001 -5.742206 -3.281358 0.421280 -0.555479 0.382729
    48 0.048663 -5.596216 0.775173 0.632630 -0.891091 -0.627962
    49 0.256295 2.737097 -7.294960 0.116969 -1.418693 -3.182626
    50 0.000000 -0.000001 1.089265 0.070309 -0.774353 0.073125
    51 -2.335813 -8.126682 -0.811257 0.223377 -0.671912 -0.234692
    52 0.145988 -7.348079 -0.880992 -0.028292 0.485749 0.730461
    53 0.048664 -7.299416 -5.811588 0.181915 0.830325 0.059020
    54 -0.388544 -14.131889 0.000034 0.000214 0.277259 -1.723036
    55 15.490297 -0.012332 0.000000 0.035661 0.229720 -0.001769
    56 15.491479 -0.012287 0.000000 0.000105 0.142683 0.307511
    57 15.491849 -0.014718 0.000000 -0.000289 -0.361489 0.159855
  time 12
    0 0.328535 4.452156 27.763295 0.000000 0.000000 -1.570871
    1 1.433638 6.086123 0.000000 0.000000 -1.570796 -1.570795
    2 -0.000020 0.000021 14.561969 0.098290 -0.325585 -2.021203
    3 17.731710 0.000002 -0.000002 0.000000 0.000000 -1.884904
    4 21.987322 -0.000001 0.000000 2.692182 0.050232 0.739797
    5 4.324765 6.780502 -1.982552 0.000000 0.000000 1.832463
    6 1.707565 0.000000 -0.000003 0.000000 0.000000 -0.130833
    7 1.707564 0.000000 -0.000002 0.000000 0.000000 -0.479722
    8 4.324765 6.333148 1.238803 0.000000 -0.331445 1.832463
    9 1.821401 0.000000 0.000000 0.000000 0.000000 -0.130833
    10 1.821402 0.000000 0.000003 0.000000 0.000000 -0.479722
    11 0.000018 -0.000019 -14.561969 0.299893 0.544942 -2.006494
    12 17.731709 0.000002 -0.000001 0.000000 0.000000 -1.628742
    13 21.987322 -0.000001 0.000001 -2.650333 -0.497033 0.481066
    14 4.324765 6.904408 1.903421 0.000000 -0.069778 1.832463
    15 1.707564 0.000000 0.000000 0.000000 0.000000 -0.130833
    16 1.707564 0.000000 -0.000001 0.000000 0.000000 -0.479722
    17 4.324765 7.017687 -1.342620 0.000000 0.366333 1.832463
    18 1.821401 0.000000 -0.000001 0.000000 0.000000 -0.130833
    19 1.821401 0.000000 0.000001 0.000000 0.000000 -0.479722
    20 1.249476 0.004294 0.000002 0.000440 0.518929 2.050631
    21 11.689318 -0.009310 0.000000 0.000000 0.000000 0.000000
    22 11.689318 -0.001414 0.000000 0.000000 0.000000 0.000000
    23 1.773172 0.000001 0.000000 0.013439 0.230577 -1.995199
    24 4.327651 4.634944 -2.428680 -3.114745 -1.554419 -0.021668
    25 0.000000 -0.000001 -0.346259 0.009223 0.182399 0.214551
    26 0.827268 -7.688719 -2.908663 0.473017 -0.210230 0.166608
    27 1.167906 -7.494070 0.088223 -0.709125 1.531825 0.224760
    28 1.508547 -6.764126 -3.865244 0.804585 0.858527 0.926029
    29 2.243071 5.364872 3.362189 -3.084833 -1.509486 -0.019274
    30 0.000000 0.000001 0.000000 0.194407 0.926305 -0.120386
    31 1.021918 -6.472149 -0.595725 -0.278907 -0.391581 0.101966
    32 0.973257 -7.396745 -2.793421 1.397144 -1.176675 -1.189542
    33 1.021919 -5.839535 -3.557765 0.664652 0.718880 1.175910
    34 -3.776780 2.834424 -11.528622 -2.884479 -1.281362 -0.164736
    35 -0.145987 0.000000 0.730172 -0.306458 -0.558953 0.014205
    36 -2.384475 -6.374823 -2.048885 0.110992 -0.307675 -0.131094
    37 -1.021919 -3.601048 -1.439222 0.211627 0.402845 0.008510
    38 -0.243314 -4.720287 -1.673703 0.480079 0.949709 0.297681
    39 -2.264710 4.780908 8.909744 0.277456 -1.542096 -3.365069
    40 0.000000 0.000001 -0.000001 -0.115963 0.997316 0.208933
    41 1.946512 -7.250753 -2.204916 0.878007 -1.132533 -0.763241
    42 1.605872 -3.649706 -1.822481 0.409037 -0.742185 0.121017
    43 -0.729940 -3.941682 -1.419925 2.617575 0.797616 -2.877504
    44 -4.189922 3.272375 -1.309439 -3.089607 -1.534165 -0.015251
    45 0.000000 -0.000001 -0.000001 -0.322723 0.042589 -0.170504
    46 -1.265231 -7.396744 -6.605810 0.088151 -0.056469 0.201645
    47 0.000001 -5.742206 -3.281358 0.580412 -0.531105 0.161566
    48 0.048663 -5.596216 0.775173 0.576212 -1.029045 -0.583311
    49 0.256295 2.737097 -7.294960 0.124064 -1.453734 -3.199021
    50 0.000000 -0.000001 1.089265 0.129663 -0.620531 0.017898
    51 -2.335813 -8.126682 -0.811257 0.229212 -0.508608 -0.341111
    52 0.145988 -7.348079 -0.880992 -0.181995 0.703755 0.411396
    53 0.048664 -7.299416 -5.811588 0.191795 0.554509 -0.064673
    54 -0.388544 -14.131889 0.000034 0.000286 0.348858 -1.850955
    55 15.490297 -0.012332 0.000000 0.027154 0.368862 -0.000092
    56 15.491479 -0.012287 0.000000 0.000183 0.228522 0.251831
    57 15.487943 -0.014718 0.000000 -0.000289 -0.363660 -0.166790
  time 13
    0 0.223063 4.452156 31.617047 0.000000 0.000000 -1.570871
    1 1.207068 5.621265 0.000000 0.000000 -1.570796 -1.570795
    2 -0.000020 0.000021 14.561969 0.146325 -0.317980 -2.203077
    3 17.731710 0.000002 -0.000002 0.000000 0.000000 -1.625460
    4 21.987322 -0.000001 0.000000 2.685124 0.065192 0.652119
    5 4.324765 6.780502 -1.982552 0.000000 0.000000 1.832463
    6 1.707565 0.000000 -0.000003 0.000000 0.000000 -0.130833
    7 1.707564 0.000000 -0.000002 0.000000 0.000000 -0.479722
    8 4.324765 6.333148 1.238803 0.000000 -0.331445 1.832463
    9 1.821401 0.000000 0.000000 0.000000 0.000000 -0.130833
    10 1.821402 0.000000 0.000003 0.000000 0.000000 -0.479722
    11 0.000018 -0.000019 -14.561969 0.136885 0.533669 -2.218957
    12 17.731709 0.000002 -0.000001 0.000000 0.000000 -1.396498
    13 21.987322 -0.000001 0.000001 -2.669935 -0.425780 0.433126
    14 4.324765 6.904408 1.903421 0.000000 -0.069778 1.832463
    15 1.707564 0.000000 0.000000 0.000000 0.000000 -0.130833
    16 1.707564 0.000000 -0.000001 0.000000 0.000000 -0.479722
    17 4.324765 7.017687 -1.342620 0.000000 0.366333 1.832463
    18 1.821401 0.000000 -0.000001 0.000000 0.000000 -0.130833
    19 1.821401 0.000000 0.000001 0.000000 0.000000 -0.479722
    20 1.249476 0.004294 0.000002 0.000404 0.475764 2.050615
    21 11.689318 -0.009310 0.000000 0.000000 0.000000 0.000000
    22 11.689318 -0.001414 0.000000 0.000000 0.000000 0.000000
    23 1.773172 0.000001 0.000000 -0.004920 0.212665 -2.004052
    24 4.327651 4.634944 -2.428680 -3.120593 -1.515485 -0.012848
    25 0.000000 -0.000001 -0.346259 -0.013735 0.642898 -0.028396
    26 0.827268 -7.688719 -2.908663 0.570700 0.174085 0.058476
    27 1.167906 -7.494070 0.088223 -0.665494 0.432849 0.142319
    28 1.508547 -6.764126 -3.865244 0.555554 0.554423 0.496394
    29 2.243071 5.364872 3.362189 -3.075533 -1.461861 -0.014097
    30 0.000000 0.000001 0.000000 0.173868 1.178788 -0.323543
    31 1.021918 -6.472149 -0.595725 -0.241175 -0.352217 0.028964
    32 0.973257 -7.396745 -2.793421 0.794866 -1.097073 -0.918759
    33 1.021919 -5.839535 -3.557765 0.304552 0.796796 0.820300
    34 -3.776780 2.834424 -11.528622 -2.896454 -1.351429 -0.175467
    35 -0.145987 0.000000 0.730172 -0.216026 -0.415165 -0.014480
    36 -2.384475 -6.374823 -2.048885 0.102097 -0.214196 -0.127915
    37 -1.021919 -3.601048 -1.439222 -0.073897 0.645683 -0.328716
    38 -0.243314 -4.720287 -1.673703 0.390705 1.087622 -0.057280
    39 -2.264710 4.780908 8.909744 2.627297 -1.508591 -5.707990
    40 0.000000 0.000001 -0.000001 -0.348260 1.375797 -0.406766
    41 1.946512 -7.250753 -2.204916 0.313987 -0.769625 -0.401464
    42 1.605872 -3.649706 -1.822481 0.235583 -0.793429 0.223560
    43 -0.729940 -3.941682 -1.419925 2.947126 1.158208 -2.736537
    44 -4.189922 3.272375 -1.309439 -3.095455 -1.507946 -0.009307
    45 0.000000 -0.000001 -0.000001 -0.409500 0.278567 -0.358990
    46 -1.265231 -7.396744 -6.605810 0.182863 0.074781 0.069981
    47 0.000001 -5.742206 -3.281358 0.705820 -0.430538 -0.067979
    48 0.048663 -5.596216 0.775173 0.227010 -1.237896 -0.247434
    49 0.256295 2.737097 -7.294960 0.151964 -1.502826 -3.238809
    50 0.000000 -0.000001 1.089265 0.172153 -0.405433 -0.042114
    51 -2.335813 -8.126682 -0.811257 0.162625 -0.256641 -0.459882
    52 0.145988 -7.348079 -0.880992 -0.586893 0.895638 -0.163911
    53 0.048664 -7.299416 -5.811588 0.150149 0.087314 -0.074925
    54 -0.388544 -14.131889 0.000034 0.000250 0.315118 -1.851566
    55 15.490297 -0.012332 0.000000 0.018026 0.359899 -0.003553
    56 15.491479 -0.012287 0.000000 0.000170 0.222807 0.016267
    57 15.487943 -0.014718 0.000000 -0.000225 -0.308644 -0.416536
  time 14
    0 0.144936 4.452156 34.836638 0.000000 0.000000 -1.570871
    1 0.535173 3.796991 0.000000 0.000000 -1.570796 -1.570795
    2 -0.000020 0.000021 14.561969 0.157410 -0.331801 -2.375242
    3 17.731710 0.000002 -0.000002 0.000000 0.000000 -1.368256
    4 21.987322 -0.000001 0.000000 2.682782 0.123368 0.553949
    5 4.324765 6.780502 -1.982552 0.000000 0.000000 1.832463
    6 1.707565 0.000000 -0.000003 0.000000 0.000000 -0.130833
    7 1.707564 0.000000 -0.000002 0.000000 0.000000 -0.479722
    8 4.324765 6.333148 1.238803 0.000000 -0.331445 1.832463
    9 1.821401 0.000000 0.000000 0.000000 0.000000 -0.130833
    10 1.821402 0.000000 0.000003 0.000000 0.000000 -0.479722
    11 0.000018 -0.000019 -14.561969 -0.013096 0.483140 -2.406648
    12 17.731709 0.000002 -0.000001 0.000000 0.000000 -1.209888
    13 21.987322 -0.000001 0.000001 -2.680271 -0.342508 0.411025
    14 4.324765 6.904408 1.903421 0.000000 -0.069778 1.832463
    15 1.707564 0.000000 0.000000 0.000000 0.000000 -0.130833
    16 1.707564 0.000000 -0.000001 0.000000 0.000000 -0.479722
    17 4.324765 7.017687 -1.342620 0.000000 0.366333 1.832463
    18 1.821401 0.000000 -0.000001 0.000000 0.000000 -0.130833
    19 1.821401 0.000000 0.000001 0.000000 0.000000 -0.479722
    20 1.249476 0.004294 0.000002 0.000249 0.314777 2.050551
    21 11.689318 -0.009310 0.000000 0.000000 0.000000 0.000000
    22 11.689318 -0.001414 0.000000 0.000000 0.000000 0.000000
    23 1.773172 0.000001 0.000000 -0.009334 0.143157 -2.030226
    24 4.327651 4.634944 -2.428680 -3.121072 -1.494940 -0.011122
    25 0.000000 -0.000001 -0.346259 -0.122549 0.875941 -0.261924
    26 0.827268 -7.688719 -2.908663 0.545789 0.425592 -0.023057
    27 1.167906 -7.494070 0.088223 -0.494296 -0.360435 0.025851
    28 1.508547 -6.764126 -3.865244 0.437492 0.271240 0.239024
    29 2.243071 5.364872 3.362189 -3.072849 -1.441065 -0.012563
    30 0.000000 0.000001 0.000000 0.108181 1.219261 -0.470136
    31 1.021918 -6.472149 -0.595725 -0.189691 -0.286782 -0.027502
    32 0.973257 -7.396745 -2.793421 0.299994 -0.913507 -0.653781
    33 1.021919 -5.839535 -3.557765 -0.023177 0.707430 0.451488
    34 -3.776780 2.834424 -11.528622 -2.909004 -1.422953 -0.185910
    35 -0.145987 0.000000 0.730172 -0.136648 -0.269357 -0.025386
    36 -2.384475 -6.374823 -2.048885 0.081747 -0.125934 -0.111499
    37 -1.021919 -3.601048 -1.439222 -0.312744 0.688917 -0.577118
    38 -0.243314 -4.720287 -1.673703 0.222399 1.040195 -0.369974
    39 -2.264710 4.780908 8.909744 2.752123 -1.458102 -5.834924
    40 0.000000 0.000001 -0.000001 -0.991951 1.423634 -1.309760
    41 1.946512 -7.250753 -2.204916 0.067903 -0.409255 -0.313031
    42 1.605872 -3.649706 -1.822481 0.093384 -0.731018 0.276037
    43 -0.729940 -3.941682 -1.419925 -1.352049 1.434709 -0.927927
    44 -4.189922 3.272375 -1.309439 -3.099673 -1.496597 -0.009115
    45 0.000000 -0.000001 -0.000001 -0.443319 0.415246 -0.457375
    46 -1.265231 -7.396744 -6.605810 0.219042 0.167791 -0.024301
    47 0.000001 -5.742206 -3.281358 0.684903 -0.308945 -0.188371
    48 0.048663 -5.596216 0.775173 -0.246580 -1.190913 0.218968
    49 0.256295 2.737097 -7.294960 0.247553 -1.544117 -3.348587
    50 0.000000 -0.000001 1.089265 0.170439 -0.211935 -0.068626
    51 -2.335813 -8.126682 -0.811257 0.078163 -0.060667 -0.497603
    52 0.145988 -7.348079 -0.880992 -0.820993 0.843269 -0.551225
    53 0.048664 -7.299416 -5.811588 0.096036 -0.249755 -0.048577
    54 -0.388544 -14.131889 0.000034 0.000154 0.196241 -1.739756
    55 15.490297 -0.012332 0.000000 0.010708 0.224400 -0.007478
    56 15.491479 -0.012287 0.000000 0.000105 0.138911 -0.221859
    57 15.484036 -0.014718 0.000000 -0.000129 -0.192021 -0.506943
  time 15
    0 0.152748 4.452156 35.178110 0.000000 0.000000 -1.570871
    1 0.085940 1.543016 0.000000 0.000000 -1.570796 -1.570795
    2 -0.000020 0.000021 14.561969 0.116725 -0.375266 -2.407757
    3 17.731710 0.000002 -0.000002 0.000000 0.000000 -1.310321
    4 21.987322 -0.000001 0.000000 2.684961 0.193553 0.520664
    5 4.324765 6.780502 -1.982552 0.000000 0.000000 1.832463
    6 1.707565 0.000000 -0.000003 0.000000 0.000000 -0.130833
    7 1.707564 0.000000 -0.000002 0.000000 0.000000 -0.479722
    8 4.324765 6.333148 1.238803 0.000000 -0.331445 1.832463
    9 1.821401 0.000000 0.000000 0.000000 0.000000 -0.130833
    10 1.821402 0.000000 0.000003 0.000000 0.000000 -0.479722
    11 0.000018 -0.000019 -14.561969 -0.060899 0.438304 -2.421122
    12 17.731709 0.000002 -0.000001 0.000000 0.000000 -1.245668
    13 21.987322 -0.000001 0.000001 -2.682783 -0.281910 0.462205
    14 4.324765 6.904408 1.903421 0.000000 -0.069778 1.832463
    15 1.707564 0.000000 0.000000 0.000000 0.000000 -0.130833
    16 1.707564 0.000000 -0.000001 0.000000 0.000000 -0.479722
    17 4.324765 7.017687 -1.342620 0.000000 0.366333 1.832463
    18 1.821401 0.000000 -0.000001 0.000000 0.000000 -0.130833
    19 1.821401 0.000000 0.000001 0.000000 0.000000 -0.479722
    20 1.249476 0.004294 0.000002 0.000093 0.126141 2.050519
    21 11.689318 -0.009310 0.000000 0.000000 0.000000 0.000000
    22 11.689318 -0.001414 0.000000 0.000000 0.000000 0.000000
    23 1.773172 0.000001 0.000000 -0.004037 0.058015 -2.047292
    24 4.327651 4.634944 -2.428680 -3.123086 -1.522551 -0.012752
    25 0.000000 -0.000001 -0.346259 -0.043818 0.559858 -0.157353
    26 0.827268 -7.688719 -2.908663 0.310334 0.289851 -0.061323
    27 1.167906 -7.494070 0.088223 -0.240209 -0.345849 -0.054145
    28 1.508547 -6.764126 -3.865244 0.246959 0.120947 0.096916
    29 2.243071 5.364872 3.362189 -3.083779 -1.490849 -0.023972
    30 0.000000 0.000001 0.000000 0.145362 0.719011 -0.255101
    31 1.021918 -6.472149 -0.595725 -0.105031 -0.155584 -0.029603
    32 0.973257 -7.396745 -2.793421 0.029952 -0.513428 -0.305523
    33 1.021919 -5.839535 -3.557765 -0.087439 0.386509 0.210295
    34 -3.776780 2.834424 -11.528622 -2.920691 -1.496103 -0.197311
    35 -0.145987 0.000000 0.730172 -0.067467 -0.134409 -0.018787
    36 -2.384475 -6.374823 -2.048885 0.045583 -0.061501 -0.062155
    37 -1.021919 -3.601048 -1.439222 -0.149711 0.435663 -0.322788
    38 -0.243314 -4.720287 -1.673703 0.164076 0.595976 -0.255702
    39 -2.264710 4.780908 8.909744 2.756533 -1.495737 -5.863782
    40 0.000000 0.000001 -0.000001 -0.012998 0.898179 -0.275442
    41 1.946512 -7.250753 -2.204916 -0.007435 -0.175789 -0.174094
    42 1.605872 -3.649706 -1.822481 0.059297 -0.419490 0.163766
    43 -0.729940 -3.941682 -1.419925 -0.263488 0.804386 -0.015620
    44 -4.189922 3.272375 -1.309439 -3.106960 -1.525344 -0.015826
    45 0.000000 -0.000001 -0.000001 -0.233588 0.291272 -0.254343
    46 -1.265231 -7.396744 -6.605810 0.133797 0.109787 -0.034507
    47 0.000001 -5.742206 -3.281358 0.389859 -0.182154 -0.108049
    48 0.048663 -5.596216 0.775173 -0.102336 -0.695623 0.082541
    49 0.256295 2.737097 -7.294960 0.360016 -1.561572 -3.479938
    50 0.000000 -0.000001 1.089265 0.098509 -0.095122 -0.040774
    51 -2.335813 -8.126682 -0.811257 0.032969 -0.009110 -0.300919
    52 0.145988 -7.348079 -0.880992 -0.394148 0.543051 -0.248817
    53 0.048664 -7.299416 -5.811588 0.050696 -0.198362 -0.026636
    54 -0.388544 -14.131889 0.000034 0.000058 0.088575 -1.640162
    55 15.490297 -0.012332 0.000000 0.004307 0.103158 -0.009405
    56 15.491479 -0.012287 0.000000 0.000039 0.063855 -0.097466
    57 15.487943 -0.014718 0.000000 -0.000064 -0.085266 -0.358169
  time 16
    0 0.152748 4.452156 34.202477 0.000000 0.000000 -1.570871
    1 0.000000 0.000000 0.000000 0.000000 -1.570796 -1.570795
    2 -0.000020 0.000021 14.561969 0.060711 -0.415458 -2.363137
    3 17.731710 0.000002 -0.000002 0.000000 0.000000 -1.360542
    4 21.987322 -0.000001 0.000000 2.685254 0.246733 0.526347
    5 4.324765 6.780502 -1.982552 0.000000 0.000000 1.832463
    6 1.707565 0.000000 -0.000003 0.000000 0.000000 -0.130833
    7 1.707564 0.000000 -0.000002 0.000000 0.000000 -0.479722
    8 4.324765 6.333148 1.238803 0.000000 -0.331445 1.832463
    9 1.821401 0.000000 0.000000 0.000000 0.000000 -0.130833
    10 1.821402 0.000000 0.000003 0.000000 0.000000 -0.479722
    11 0.000018 -0.000019 -14.561969 -0.060707 0.415458 -2.363135
    12 17.731709 0.000002 -0.000001 0.000000 0.000000 -1.360542
    13 21.987322 -0.000001 0.000001 -2.685254 -0.246733 0.526347
    14 4.324765 6.904408 1.903421 0.000000 -0.069778 1.832463
    15 1.707564 0.000000 0.000000 0.000000 0.000000 -0.130833
    16 1.707564 0.000000 -0.000001 0.000000 0.000000 -0.479722
    17 4.324765 7.017687 -1.342620 0.000000 0.366333 1.832463
    18 1.821401 0.000000 -0.000001 0.000000 0.000000 -0.130833
    19 1.821401 0.000000 0.000001 0.000000 0.000000 -0.479722
    20 1.249476 0.004294 0.000002 -0.000003 0.000002 2.050519
    21 11.689318 -0.009310 0.000000 0.000000 0.000000 0.000000
    22 11.689318 -0.001414 0.000000 0.000000 0.000000 0.000000
    23 1.773172 0.000001 0.000000 -0.000004 0.000002 -2.050520
    24 4.327651 4.634944 -2.428680 0.000000 -1.570796 -3.141591
    25 0.000000 -0.000001 -0.346259 0.000000 0.000000 0.000000
    26 0.827268 -7.688719 -2.908663 0.000000 0.000000 0.000000
    27 1.167906 -7.494070 0.088223 0.000000 0.000000 0.000000
    28 1.508547 -6.764126 -3.865244 0.000000 0.000000 0.000000
    29 2.243071 5.364872 3.362189 0.000000 -1.570796 -3.141591
    30 0.000000 0.000001 0.000000 0.000000 0.000000 0.000000
    31 1.021918 -6.472149 -0.595725 0.000000 0.000000 0.000000
    32 0.973257 -7.396745 -2.793421 0.000000 0.000000 0.000000
    33 1.021919 -5.839535 -3.557765 0.000000 0.000000 0.000000
    34 -3.776780 2.834424 -11.528622 0.000000 -1.570796 -3.141591
    35 -0.145987 0.000000 0.730172 0.000000 0.000000 0.000000
    36 -2.384475 -6.374823 -2.048885 0.000000 0.000000 0.000000
    37 -1.021919 -3.601048 -1.439222 0.000000 0.000000 0.000000
    38 -0.243314 -4.720287 -1.673703 0.000000 0.000000 0.000000
    39 -2.264710 4.780908 8.909744 0.000000 -1.570796 -3.141591
    40 0.000000 0.000001 -0.000001 0.000000 0.000000 0.000000
    41 1.946512 -7.250753 -2.204916 0.000000 0.000000 0.000000
    42 1.605872 -3.649706 -1.822481 0.000000 0.000000 0.000000
    43 -0.729940 -3.941682 -1.419925 0.000000 0.000000 0.000000
    44 -4.189922 3.272375 -1.309439 0.000000 -1.570796 -3.141591
    45 0.000000 -0.000001 -0.000001 0.000000 0.000000 0.000000
    46 -1.265231 -7.396744 -6.605810 0.000000 0.000000 0.000000
    47 0.000001 -5.742206 -3.281358 0.000000 0.000000 0.000000
    48 0.048663 -5.596216 0.775173 0.000000 0.000000 0.000000
    49 0.256295 2.737097 -7.294960 0.000000 -1.570796 -3.141591
    50 0.000000 -0.000001 1.089265 0.000000 0.000000 0.000000
    51 -2.335813 -8.126682 -0.811257 0.000000 0.000000 0.000000
    52 0.145988 -7.348079 -0.880992 0.000000 0.000000 0.000000
    53 0.048664 -7.299416 -5.811588 0.000000 0.000000 0.000000
    54 -0.388544 -14.131889 0.000034 -0.000002 -0.000001 -1.554463
    55 15.490297 -0.012332 0.000000 0.000000 0.000000 -0.009833
    56 15.491479 -0.012287 0.000000 0.000000 0.000000 0.086111
    57 15.487943 -0.014718 0.000000 0.000000 0.000001 -0.166833
end
