version 1
nodes
0 "Bip01" -1
1 "Bip01 Pelvis" 0
2 "Bip01 Spine" 1
3 "Bip01 Spine1" 2
4 "Bip01 Spine2" 3
5 "m40a1_stock" 4
6 "m40a1_clip" 5
7 "m40a1_sideknob" 5
8 "m40a1_topknob" 5
9 "m40a1_bolt" 5
10 "m40a1_shell" 5
11 "Bip01 Spine3" 4
12 "Bip01 Neck" 11
13 "Bip01 L Arm" 12
14 "Bip01 L Arm1" 13
15 "Bip01 L Arm2" 14
16 "Bip01 L Hand" 15
17 "Bip01 L Finger0" 16
18 "Bip01 L Finger01" 17
19 "Bip01 L Finger02" 18
20 "Bip01 L Finger1" 16
21 "Bip01 L Finger11" 20
22 "Bip01 L Finger12" 21
23 "Bip01 L Finger2" 16
24 "Bip01 L Finger21" 23
25 "Bip01 L Finger22" 24
26 "Bip01 L Finger3" 16
27 "Bip01 L Finger31" 26
28 "Bip01 L Finger32" 27
29 "Bip01 L Finger4" 16
30 "Bip01 L Finger41" 29
31 "Bip01 L Finger42" 30
32 "Bip01 R Arm" 12
33 "Bip01 R Arm1" 32
34 "Bip01 R Arm2" 33
35 "Bip01 R Hand" 34
36 "Bip01 R Finger0" 35
37 "Bip01 R Finger01" 36
38 "Bip01 R Finger02" 37
39 "Bip01 R Finger1" 35
40 "Bip01 R Finger11" 39
41 "Bip01 R Finger12" 40
42 "Bip01 R Finger2" 35
43 "Bip01 R Finger21" 42
44 "Bip01 R Finger22" 43
45 "Bip01 R Finger3" 35
46 "Bip01 R Finger31" 45
47 "Bip01 R Finger32" 46
48 "Bip01 R Finger4" 35
49 "Bip01 R Finger41" 48
50 "Bip01 R Finger42" 49
end
skeleton
time 0
0  -0.001490 -2.722739 -24.602341  0.000000 -0.000000 1.570797
1  0.000000 -0.000000 0.000002  -1.570795 -1.570451 0.000000
2  1.326318 -0.003921 0.000002  -0.000004 -0.000001 0.000796
3  4.926309 -0.003923 0.000000  -0.000000 0.000000 -0.000000
4  4.926314 -0.003923 -0.000000  -0.000000 0.000000 0.000000
5  7.032466 11.163652 -5.893199  -1.605703 0.000002 -1.571593
6  -2.944952 -0.010476 -2.815030  -0.000000 -0.000000 -0.000000
7  -2.844290 -0.796221 3.163410  -0.000000 0.000000 -0.000000
8  -2.844289 -0.032289 3.975634  0.000000 -0.000000 0.000000
9  -2.783006 -0.009045 1.158094  -0.000000 0.000000 -0.000000
10  -2.255527 0.213388 1.555575  -0.000000 0.000000 0.000000
11  4.926313 -0.003923 0.000000  -0.000000 0.000000 -0.000000
12  4.926363 -0.001508 0.000000  -0.000000 -0.000000 0.059997
13  0.000002 0.001504 1.894737  1.399243 -1.473360 1.682936
14  4.926316 -0.000000 0.000001  0.567856 2.373725 0.299047
15  11.368427 -0.000001 -0.000002  -0.000000 0.000000 -1.445607
16  11.368418 -0.000001 0.000001  -2.403379 0.170160 0.637313
17  1.126227 0.104084 -1.358369  2.526277 0.795826 0.832220
18  2.373626 0.000000 -0.000001  0.000000 -0.000000 0.383903
19  1.071910 -0.000098 -0.000037  0.000000 0.104371 0.017442
20  3.789472 -0.000905 -1.136843  0.059908 0.051339 0.795097
21  1.136844 0.000004 0.000000  0.000000 -0.000000 0.942466
22  1.136841 -0.000001 -0.000001  0.000000 -0.000000 0.776666
23  3.789471 -0.000303 -0.378948  -0.052454 0.053337 1.097143
24  1.326317 0.000000 0.000001  0.000000 0.000000 0.811570
25  1.326317 0.000002 0.000001  -0.000000 -0.000000 0.959922
26  3.789473 0.000302 0.378945  -0.203082 -0.051293 1.401495
27  1.136845 0.000001 0.000001  -0.000000 0.000000 0.619574
28  1.136840 0.000000 0.000001  -0.000000 0.000000 1.021016
29  3.789471 0.000905 1.136841  -0.400983 -0.004658 1.608246
30  0.947368 -0.000000 0.000002  -0.000000 0.000000 0.698128
31  0.947368 -0.000000 0.000002  -0.000000 -0.000000 0.733038
32  0.000002 0.001514 -1.894737  -0.000045 1.370796 3.080786
33  4.926316 0.000000 -0.000001  -0.749342 -0.842937 0.553399
34  11.368423 -0.000002 0.000001  -0.000000 0.000000 -2.450528
35  11.368418 0.000001 -0.000000  1.112222 0.649666 0.563621
36  0.876224 0.104085 1.358370  -2.286633 -0.428938 0.353362
37  2.373624 -0.000000 0.000000  -0.000000 0.000000 0.715517
38  1.071901 0.000001 0.000002  -0.000000 0.000000 0.017445
39  2.937887 -0.000905 1.136842  0.658810 -0.245274 -0.081114
40  1.136842 -0.000001 0.000000  -0.000000 0.000000 -0.000000
41  1.136839 0.000000 0.000002  0.000000 -0.000000 1.701693
42  2.937886 -0.000301 0.378949  0.248123 -0.595389 1.163434
43  1.326317 -0.000001 -0.000001  0.000000 -0.000000 0.959916
44  1.326316 -0.000000 -0.000001  0.000000 0.000000 0.706854
45  2.937886 0.000303 -0.378947  0.291062 -0.330429 1.180700
46  1.136843 -0.000001 0.000002  -0.000000 -0.000000 0.872634
47  1.136842 -0.000001 0.000000  0.000000 0.000000 0.427594
48  2.937886 0.000905 -1.136843  0.278754 -0.147605 1.451705
49  0.947368 0.000001 0.000000  0.000000 -0.000000 0.549769
50  0.947369 -0.000001 0.000002  -0.000000 -0.000000 0.130889
time 1
0  -0.001490 -2.722739 -24.602341  0.000000 -0.000000 1.570797
1  0.000000 -0.000000 0.000002  -1.570795 -1.570451 0.000000
2  1.326318 -0.003921 0.000002  -0.000004 -0.000001 0.000796
3  4.926309 -0.003923 0.000000  -0.000000 0.000000 -0.000000
4  4.926314 -0.003923 -0.000000  -0.000000 0.000000 0.000000
5  7.032319 11.163653 -5.893199  -1.606256 -0.001179 -1.580518
6  -2.944952 -0.010476 -2.815030  -0.000000 -0.000000 -0.000000
7  -2.844291 -0.796221 3.163410  -0.000000 0.000000 -0.000000
8  -2.844289 -0.032289 3.975634  0.000000 -0.000000 0.000000
9  -2.783006 -0.009045 1.158094  -0.000000 0.000000 -0.000000
10  -2.255528 0.213388 1.555575  -0.000000 0.000000 0.000000
11  4.926313 -0.003923 0.000000  -0.000000 0.000000 -0.000000
12  4.926363 -0.001508 0.000000  -0.000000 -0.000000 0.059997
13  0.000002 0.001504 1.894737  1.399243 -1.473360 1.682936
14  4.926316 -0.000000 0.000001  0.567879 2.374358 0.298444
15  11.368429 -0.000000 -0.000003  -0.000000 0.000000 -1.446748
16  11.368419 -0.000002 0.000002  -2.402506 0.176150 0.634154
17  1.126228 0.104085 -1.358369  2.526277 0.795826 0.832220
18  2.373625 -0.000000 0.000001  0.000000 -0.000000 0.383903
19  1.071910 -0.000099 -0.000037  0.000000 0.104371 0.017442
20  3.789472 -0.000905 -1.136842  0.059908 0.051339 0.795097
21  1.136843 0.000004 0.000001  -0.000000 -0.000000 0.942466
22  1.136841 -0.000000 -0.000002  0.000000 -0.000000 0.776666
23  3.789471 -0.000302 -0.378947  -0.052454 0.053337 1.097143
24  1.326318 0.000001 0.000001  0.000000 0.000000 0.811570
25  1.326317 0.000002 -0.000001  0.000000 -0.000000 0.959922
26  3.789474 0.000303 0.378947  -0.203082 -0.051293 1.401495
27  1.136846 -0.000001 0.000000  -0.000000 0.000000 0.619574
28  1.136839 0.000001 -0.000001  0.000000 -0.000000 1.021016
29  3.789472 0.000906 1.136843  -0.400983 -0.004658 1.608246
30  0.947368 -0.000002 0.000001  -0.000000 -0.000000 0.698128
31  0.947368 -0.000000 0.000002  -0.000000 -0.000000 0.733038
32  0.000002 0.001514 -1.894737  -0.000045 1.370796 3.080786
33  4.926316 0.000000 -0.000001  -0.749342 -0.842937 0.553399
34  11.368423 -0.000002 0.000001  -0.000000 0.000000 -2.450528
35  11.368418 0.000001 -0.000000  1.112222 0.649666 0.563621
36  0.876224 0.104085 1.358370  -2.286633 -0.428938 0.353362
37  2.373624 -0.000000 0.000000  -0.000000 0.000000 0.715517
38  1.071901 0.000001 0.000002  -0.000000 0.000000 0.017445
39  2.937887 -0.000905 1.136842  0.658810 -0.245274 -0.081114
40  1.136842 -0.000001 0.000000  -0.000000 0.000000 -0.000000
41  1.136839 0.000000 0.000002  0.000000 -0.000000 1.701693
42  2.937886 -0.000301 0.378949  0.248123 -0.595389 1.163434
43  1.326317 -0.000001 -0.000001  0.000000 -0.000000 0.959916
44  1.326316 -0.000000 -0.000001  0.000000 0.000000 0.706854
45  2.937886 0.000303 -0.378947  0.291062 -0.330429 1.180700
46  1.136843 -0.000001 0.000002  -0.000000 -0.000000 0.872634
47  1.136842 -0.000001 0.000000  0.000000 0.000000 0.427594
48  2.937886 0.000905 -1.136843  0.278754 -0.147605 1.451705
49  0.947368 0.000001 0.000000  0.000000 -0.000000 0.549769
50  0.947369 -0.000001 0.000002  -0.000000 -0.000000 0.130889
time 2
0  -0.001490 -2.722739 -24.602341  0.000000 -0.000000 1.570797
1  0.000000 -0.000000 0.000002  -1.570795 -1.570451 0.000000
2  1.326318 -0.003921 0.000002  -0.000004 -0.000001 0.000796
3  4.926309 -0.003923 0.000000  -0.000000 0.000000 -0.000000
4  4.926314 -0.003923 -0.000000  -0.000000 0.000000 0.000000
5  7.031121 11.163652 -5.893199  -1.607927 -0.004704 -1.607233
6  -2.944951 -0.010476 -2.815031  -0.000000 -0.000000 -0.000000
7  -2.844289 -0.796222 3.163409  -0.000000 -0.000000 -0.000000
8  -2.844288 -0.032289 3.975634  0.000000 -0.000000 0.000000
9  -2.783005 -0.009046 1.158094  0.000000 -0.000000 -0.000000
10  -2.255527 0.213387 1.555575  -0.000000 -0.000000 0.000000
11  4.926313 -0.003923 0.000000  -0.000000 0.000000 -0.000000
12  4.926363 -0.001508 0.000000  -0.000000 -0.000000 0.059997
13  0.000002 0.001504 1.894737  1.399243 -1.473360 1.682936
14  4.926316 -0.000000 0.000001  0.567970 2.376223 0.296590
15  11.368427 -0.000000 -0.000002  -0.000000 0.000000 -1.450253
16  11.368418 -0.000002 0.000001  -2.400118 0.194182 0.624841
17  1.126227 0.104084 -1.358368  2.526277 0.795826 0.832220
18  2.373625 0.000000 -0.000000  0.000000 0.000000 0.383903
19  1.071911 -0.000098 -0.000037  0.000000 0.104371 0.017442
20  3.789471 -0.000905 -1.136842  0.059908 0.051339 0.795097
21  1.136844 0.000003 0.000001  -0.000000 0.000000 0.942466
22  1.136841 -0.000000 -0.000003  0.000000 -0.000000 0.776666
23  3.789470 -0.000302 -0.378947  -0.052454 0.053337 1.097143
24  1.326318 0.000001 0.000001  0.000000 0.000000 0.811570
25  1.326317 0.000001 -0.000000  0.000000 -0.000000 0.959922
26  3.789472 0.000303 0.378947  -0.203082 -0.051293 1.401495
27  1.136846 -0.000000 -0.000001  -0.000000 0.000000 0.619574
28  1.136840 0.000000 -0.000001  0.000000 0.000000 1.021016
29  3.789471 0.000905 1.136841  -0.400983 -0.004658 1.608246
30  0.947367 -0.000000 -0.000000  -0.000000 0.000000 0.698128
31  0.947368 0.000000 0.000001  -0.000000 -0.000000 0.733038
32  0.000002 0.001514 -1.894737  -0.000045 1.370796 3.080786
33  4.926316 0.000000 -0.000001  -0.749342 -0.842937 0.553399
34  11.368423 -0.000002 0.000001  -0.000000 0.000000 -2.450528
35  11.368418 0.000001 -0.000000  1.112222 0.649666 0.563621
36  0.876224 0.104085 1.358370  -2.286633 -0.428938 0.353362
37  2.373624 -0.000000 0.000000  -0.000000 0.000000 0.715517
38  1.071901 0.000001 0.000002  -0.000000 0.000000 0.017445
39  2.937887 -0.000905 1.136842  0.658810 -0.245274 -0.081114
40  1.136842 -0.000001 0.000000  -0.000000 0.000000 -0.000000
41  1.136839 0.000000 0.000002  0.000000 -0.000000 1.701693
42  2.937886 -0.000301 0.378949  0.248123 -0.595389 1.163434
43  1.326317 -0.000001 -0.000001  0.000000 -0.000000 0.959916
44  1.326316 -0.000000 -0.000001  0.000000 0.000000 0.706854
45  2.937886 0.000303 -0.378947  0.291062 -0.330429 1.180700
46  1.136843 -0.000001 0.000002  -0.000000 -0.000000 0.872634
47  1.136842 -0.000001 0.000000  0.000000 0.000000 0.427594
48  2.937886 0.000905 -1.136843  0.278754 -0.147605 1.451705
49  0.947368 0.000001 0.000000  0.000000 -0.000000 0.549769
50  0.947369 -0.000001 0.000002  -0.000000 -0.000000 0.130889
time 3
0  -0.001490 -2.722739 -24.602341  0.000000 -0.000000 1.570797
1  0.000000 -0.000000 0.000002  -1.570795 -1.570451 0.000000
2  1.326318 -0.003921 0.000002  -0.000004 -0.000001 0.000796
3  4.926309 -0.003923 0.000000  -0.000000 0.000000 -0.000000
4  4.926314 -0.003923 -0.000000  -0.000000 0.000000 0.000000
5  7.027369 11.163653 -5.893199  -1.610547 -0.010240 -1.649469
6  -2.944952 -0.010475 -2.815030  -0.000000 -0.000000 -0.000000
7  -2.844290 -0.796221 3.163410  -0.000000 0.000000 -0.000000
8  -2.844290 -0.032288 3.975634  0.000000 -0.000000 0.000000
9  -2.783007 -0.009044 1.158094  0.000000 -0.000000 -0.000000
10  -2.255528 0.213389 1.555575  -0.000000 -0.000000 0.000000
11  4.926313 -0.003923 0.000000  -0.000000 0.000000 -0.000000
12  4.926363 -0.001508 0.000000  -0.000000 -0.000000 0.059997
13  0.000002 0.001504 1.894737  1.399243 -1.473360 1.682936
14  4.926316 -0.000000 0.000001  0.568165 2.379096 0.293548
15  11.368427 -0.000000 -0.000002  -0.000000 0.000000 -1.456018
16  11.368420 -0.000001 0.000000  -2.397012 0.223019 0.610522
17  1.126228 0.104084 -1.358369  2.526277 0.795826 0.832220
18  2.373626 0.000000 0.000002  0.000000 -0.000000 0.383903
19  1.071910 -0.000098 -0.000037  0.000000 0.104371 0.017442
20  3.789473 -0.000905 -1.136842  0.059908 0.051339 0.795097
21  1.136843 0.000004 0.000000  -0.000000 0.000000 0.942466
22  1.136840 -0.000002 -0.000003  0.000000 -0.000000 0.776666
23  3.789472 -0.000302 -0.378947  -0.052454 0.053337 1.097143
24  1.326317 0.000001 0.000001  0.000000 -0.000000 0.811570
25  1.326316 0.000001 0.000000  0.000000 -0.000000 0.959922
26  3.789473 0.000303 0.378947  -0.203082 -0.051293 1.401495
27  1.136845 0.000000 0.000001  0.000000 -0.000000 0.619574
28  1.136840 0.000001 -0.000001  0.000000 -0.000000 1.021016
29  3.789471 0.000906 1.136842  -0.400983 -0.004658 1.608246
30  0.947367 -0.000001 0.000002  -0.000000 0.000000 0.698128
31  0.947369 0.000000 0.000001  -0.000000 -0.000000 0.733038
32  0.000002 0.001514 -1.894737  -0.000045 1.370796 3.080786
33  4.926316 0.000000 -0.000001  -0.749342 -0.842937 0.553399
34  11.368423 -0.000002 0.000001  -0.000000 0.000000 -2.450528
35  11.368418 0.000001 -0.000000  1.112222 0.649666 0.563621
36  0.876224 0.104085 1.358370  -2.286633 -0.428938 0.353362
37  2.373624 -0.000000 0.000000  -0.000000 0.000000 0.715517
38  1.071901 0.000001 0.000002  -0.000000 0.000000 0.017445
39  2.937887 -0.000905 1.136842  0.658810 -0.245274 -0.081114
40  1.136842 -0.000001 0.000000  -0.000000 0.000000 -0.000000
41  1.136839 0.000000 0.000002  0.000000 -0.000000 1.701693
42  2.937886 -0.000301 0.378949  0.248123 -0.595389 1.163434
43  1.326317 -0.000001 -0.000001  0.000000 -0.000000 0.959916
44  1.326316 -0.000000 -0.000001  0.000000 0.000000 0.706854
45  2.937886 0.000303 -0.378947  0.291062 -0.330429 1.180700
46  1.136843 -0.000001 0.000002  -0.000000 -0.000000 0.872634
47  1.136842 -0.000001 0.000000  0.000000 0.000000 0.427594
48  2.937886 0.000905 -1.136843  0.278754 -0.147605 1.451705
49  0.947368 0.000001 0.000000  0.000000 -0.000000 0.549769
50  0.947369 -0.000001 0.000002  -0.000000 -0.000000 0.130889
time 4
0  -0.001490 -2.722739 -24.602341  0.000000 -0.000000 1.570797
1  0.000000 -0.000000 0.000002  -1.570795 -1.570451 0.000000
2  1.326318 -0.003921 0.000002  -0.000004 -0.000001 0.000796
3  4.926309 -0.003923 0.000000  -0.000000 0.000000 -0.000000
4  4.926314 -0.003923 -0.000000  -0.000000 0.000000 0.000000
5  7.019282 11.163652 -5.893199  -1.613791 -0.016932 -1.701260
6  -2.944952 -0.010476 -2.815030  -0.000000 -0.000000 -0.000000
7  -2.844290 -0.796221 3.163410  -0.000000 -0.000000 -0.000000
8  -2.844290 -0.032288 3.975634  0.000000 -0.000000 0.000000
9  -2.783006 -0.009045 1.158095  0.000000 -0.000000 -0.000000
10  -2.255527 0.213387 1.555575  -0.000000 -0.000000 0.000000
11  4.926313 -0.003923 0.000000  -0.000000 0.000000 -0.000000
12  4.926363 -0.001508 0.000000  -0.000000 -0.000000 0.059997
13  0.000002 0.001504 1.894737  1.399243 -1.473360 1.682936
14  4.926316 -0.000000 0.000001  0.568504 2.382481 0.289610
15  11.368427 -0.000001 -0.000003  -0.000000 0.000000 -1.463505
16  11.368419 0.000001 0.000001  -2.394301 0.258854 0.593619
17  1.126228 0.104084 -1.358370  2.526277 0.795826 0.832220
18  2.373626 0.000001 0.000001  0.000000 -0.000000 0.383903
19  1.071910 -0.000098 -0.000036  0.000000 0.104371 0.017442
20  3.789472 -0.000905 -1.136843  0.059908 0.051339 0.795097
21  1.136844 0.000004 -0.000000  -0.000000 0.000000 0.942466
22  1.136843 0.000000 -0.000001  0.000000 -0.000000 0.776666
23  3.789471 -0.000302 -0.378947  -0.052454 0.053337 1.097143
24  1.326318 -0.000000 0.000003  0.000000 0.000000 0.811570
25  1.326317 0.000001 -0.000001  0.000000 -0.000000 0.959922
26  3.789473 0.000303 0.378946  -0.203082 -0.051293 1.401495
27  1.136844 0.000001 -0.000001  0.000000 -0.000000 0.619574
28  1.136840 0.000001 0.000000  -0.000000 -0.000000 1.021016
29  3.789472 0.000905 1.136841  -0.400983 -0.004658 1.608246
30  0.947370 -0.000001 0.000001  -0.000000 0.000000 0.698128
31  0.947369 -0.000000 0.000002  -0.000000 -0.000000 0.733038
32  0.000002 0.001514 -1.894737  -0.000045 1.370796 3.080786
33  4.926316 0.000000 -0.000001  -0.749342 -0.842937 0.553399
34  11.368423 -0.000002 0.000001  -0.000000 0.000000 -2.450528
35  11.368418 0.000001 -0.000000  1.112222 0.649666 0.563621
36  0.876224 0.104085 1.358370  -2.286633 -0.428938 0.353362
37  2.373624 -0.000000 0.000000  -0.000000 0.000000 0.715517
38  1.071901 0.000001 0.000002  -0.000000 0.000000 0.017445
39  2.937887 -0.000905 1.136842  0.658810 -0.245274 -0.081114
40  1.136842 -0.000001 0.000000  -0.000000 0.000000 -0.000000
41  1.136839 0.000000 0.000002  0.000000 -0.000000 1.701693
42  2.937886 -0.000301 0.378949  0.248123 -0.595389 1.163434
43  1.326317 -0.000001 -0.000001  0.000000 -0.000000 0.959916
44  1.326316 -0.000000 -0.000001  0.000000 0.000000 0.706854
45  2.937886 0.000303 -0.378947  0.291062 -0.330429 1.180700
46  1.136843 -0.000001 0.000002  -0.000000 -0.000000 0.872634
47  1.136842 -0.000001 0.000000  0.000000 0.000000 0.427594
48  2.937886 0.000905 -1.136843  0.278754 -0.147605 1.451705
49  0.947368 0.000001 0.000000  0.000000 -0.000000 0.549769
50  0.947369 -0.000001 0.000002  -0.000000 -0.000000 0.130889
time 5
0  -0.001490 -2.722739 -24.602341  0.000000 -0.000000 1.570797
1  0.000000 -0.000000 0.000002  -1.570795 -1.570451 0.000000
2  1.326318 -0.003921 0.000002  -0.000004 -0.000001 0.000796
3  4.926309 -0.003923 0.000000  -0.000000 0.000000 -0.000000
4  4.926314 -0.003923 -0.000000  -0.000000 0.000000 0.000000
5  7.005363 11.163653 -5.893199  -1.617427 -0.023528 -1.753618
6  -2.944951 -0.010477 -2.815030  0.000000 -0.000000 -0.000000
7  -2.844288 -0.796222 3.163410  -0.000000 0.000000 -0.000000
8  -2.844288 -0.032289 3.975634  0.000000 -0.000000 0.000000
9  -2.783006 -0.009045 1.158095  0.000000 0.000000 -0.000000
10  -2.255526 0.213387 1.555575  0.000000 0.000000 0.000000
11  4.926313 -0.003923 0.000000  -0.000000 0.000000 -0.000000
12  4.926363 -0.001508 0.000000  -0.000000 -0.000000 0.059997
13  0.000002 0.001504 1.894737  1.399243 -1.473360 1.682936
14  4.926316 -0.000000 0.000001  0.568998 2.385676 0.285279
15  11.368428 0.000000 -0.000003  -0.000000 0.000000 -1.471763
16  11.368419 -0.000002 0.000001  -2.392755 0.295420 0.577271
17  1.126228 0.104084 -1.358368  2.526277 0.795826 0.832220
18  2.373626 -0.000001 -0.000000  0.000000 -0.000000 0.383903
19  1.071910 -0.000099 -0.000037  0.000000 0.104371 0.017442
20  3.789472 -0.000905 -1.136842  0.059908 0.051339 0.795097
21  1.136842 0.000004 0.000001  0.000000 0.000000 0.942466
22  1.136842 -0.000001 -0.000001  0.000000 -0.000000 0.776666
23  3.789473 -0.000302 -0.378947  -0.052454 0.053337 1.097143
24  1.326318 0.000002 0.000002  0.000000 0.000000 0.811570
25  1.326317 0.000000 0.000000  -0.000000 0.000000 0.959922
26  3.789474 0.000302 0.378947  -0.203082 -0.051293 1.401495
27  1.136845 0.000000 0.000001  0.000000 0.000000 0.619574
28  1.136841 0.000002 0.000001  0.000000 -0.000000 1.021016
29  3.789472 0.000905 1.136841  -0.400983 -0.004658 1.608246
30  0.947370 -0.000001 0.000002  -0.000000 0.000000 0.698128
31  0.947368 0.000000 0.000003  -0.000000 -0.000000 0.733038
32  0.000002 0.001514 -1.894737  -0.000045 1.370796 3.080786
33  4.926316 0.000000 -0.000001  -0.749342 -0.842937 0.553399
34  11.368423 -0.000002 0.000001  -0.000000 0.000000 -2.450528
35  11.368418 0.000001 -0.000000  1.112222 0.649666 0.563621
36  0.876224 0.104085 1.358370  -2.286633 -0.428938 0.353362
37  2.373624 -0.000000 0.000000  -0.000000 0.000000 0.715517
38  1.071901 0.000001 0.000002  -0.000000 0.000000 0.017445
39  2.937887 -0.000905 1.136842  0.658810 -0.245274 -0.081114
40  1.136842 -0.000001 0.000000  -0.000000 0.000000 -0.000000
41  1.136839 0.000000 0.000002  0.000000 -0.000000 1.701693
42  2.937886 -0.000301 0.378949  0.248123 -0.595389 1.163434
43  1.326317 -0.000001 -0.000001  0.000000 -0.000000 0.959916
44  1.326316 -0.000000 -0.000001  0.000000 0.000000 0.706854
45  2.937886 0.000303 -0.378947  0.291062 -0.330429 1.180700
46  1.136843 -0.000001 0.000002  -0.000000 -0.000000 0.872634
47  1.136842 -0.000001 0.000000  0.000000 0.000000 0.427594
48  2.937886 0.000905 -1.136843  0.278754 -0.147605 1.451705
49  0.947368 0.000001 0.000000  0.000000 -0.000000 0.549769
50  0.947369 -0.000001 0.000002  -0.000000 -0.000000 0.130889
time 6
0  -0.001490 -2.722739 -24.602341  0.000000 -0.000000 1.570797
1  0.000000 -0.000000 0.000002  -1.570795 -1.570451 0.000000
2  1.326318 -0.003921 0.000002  -0.000004 -0.000001 0.000796
3  4.926309 -0.003923 0.000000  -0.000000 0.000000 -0.000000
4  4.926314 -0.003923 -0.000000  -0.000000 0.000000 0.000000
5  6.984999 11.163652 -5.893199  -1.621480 -0.028850 -1.797459
6  -2.944951 -0.010476 -2.815031  -0.000000 -0.000000 -0.000000
7  -2.844290 -0.796222 3.163410  -0.000000 -0.000000 -0.000000
8  -2.844289 -0.032289 3.975634  0.000000 -0.000000 0.000000
9  -2.783006 -0.009045 1.158094  -0.000000 0.000000 -0.000000
10  -2.255527 0.213388 1.555575  -0.000000 0.000000 0.000000
11  4.926313 -0.003923 0.000000  -0.000000 0.000000 -0.000000
12  4.926363 -0.001508 0.000000  -0.000000 -0.000000 0.059997
13  0.000002 0.001504 1.894737  1.399243 -1.473360 1.682936
14  4.926316 -0.000000 0.000001  0.569621 2.388007 0.281104
15  11.368429 -0.000000 -0.000002  -0.000000 0.000000 -1.479723
16  11.368420 -0.000001 0.000002  -2.392348 0.325951 0.564237
17  1.126227 0.104084 -1.358369  2.526277 0.795826 0.832220
18  2.373627 0.000001 0.000001  0.000000 0.000000 0.383903
19  1.071908 -0.000097 -0.000037  0.000000 0.104371 0.017442
20  3.789471 -0.000905 -1.136842  0.059908 0.051339 0.795097
21  1.136843 0.000004 0.000002  -0.000000 0.000000 0.942466
22  1.136841 -0.000001 -0.000001  0.000000 -0.000000 0.776666
23  3.789471 -0.000302 -0.378947  -0.052454 0.053337 1.097143
24  1.326317 -0.000000 0.000002  0.000000 0.000000 0.811570
25  1.326316 0.000001 -0.000001  0.000000 -0.000000 0.959922
26  3.789473 0.000303 0.378947  -0.203082 -0.051293 1.401495
27  1.136845 0.000000 0.000000  0.000000 -0.000000 0.619574
28  1.136839 -0.000000 0.000000  0.000000 -0.000000 1.021016
29  3.789472 0.000905 1.136841  -0.400983 -0.004658 1.608246
30  0.947369 -0.000002 0.000002  -0.000000 0.000000 0.698128
31  0.947369 0.000001 0.000002  -0.000000 -0.000000 0.733038
32  0.000002 0.001514 -1.894737  -0.000045 1.370796 3.080786
33  4.926316 0.000000 -0.000001  -0.749342 -0.842937 0.553399
34  11.368423 -0.000002 0.000001  -0.000000 0.000000 -2.450528
35  11.368418 0.000001 -0.000000  1.112222 0.649666 0.563621
36  0.876224 0.104085 1.358370  -2.286633 -0.428938 0.353362
37  2.373624 -0.000000 0.000000  -0.000000 0.000000 0.715517
38  1.071901 0.000001 0.000002  -0.000000 0.000000 0.017445
39  2.937887 -0.000905 1.136842  0.658810 -0.245274 -0.081114
40  1.136842 -0.000001 0.000000  -0.000000 0.000000 -0.000000
41  1.136839 0.000000 0.000002  0.000000 -0.000000 1.701693
42  2.937886 -0.000301 0.378949  0.248123 -0.595389 1.163434
43  1.326317 -0.000001 -0.000001  0.000000 -0.000000 0.959916
44  1.326316 -0.000000 -0.000001  0.000000 0.000000 0.706854
45  2.937886 0.000303 -0.378947  0.291062 -0.330429 1.180700
46  1.136843 -0.000001 0.000002  -0.000000 -0.000000 0.872634
47  1.136842 -0.000001 0.000000  0.000000 0.000000 0.427594
48  2.937886 0.000905 -1.136843  0.278754 -0.147605 1.451705
49  0.947368 0.000001 0.000000  0.000000 -0.000000 0.549769
50  0.947369 -0.000001 0.000002  -0.000000 -0.000000 0.130889
time 7
0  -0.001490 -2.722739 -24.602341  0.000000 -0.000000 1.570797
1  0.000000 -0.000000 0.000002  -1.570795 -1.570451 0.000000
2  1.326318 -0.003921 0.000002  -0.000004 -0.000001 0.000796
3  4.926309 -0.003923 0.000000  -0.000000 0.000000 -0.000000
4  4.926314 -0.003923 -0.000000  -0.000000 0.000000 0.000000
5  6.958561 11.163652 -5.893199  -1.626130 -0.032197 -1.826591
6  -2.944951 -0.010477 -2.815032  0.000000 -0.000000 -0.000000
7  -2.844289 -0.796222 3.163409  0.000000 0.000000 -0.000000
8  -2.844288 -0.032289 3.975633  0.000000 -0.000000 0.000000
9  -2.783005 -0.009045 1.158093  0.000000 0.000000 -0.000000
10  -2.255527 0.213387 1.555574  0.000000 -0.000000 0.000000
11  4.926313 -0.003923 0.000000  -0.000000 0.000000 -0.000000
12  4.926363 -0.001508 0.000000  -0.000000 -0.000000 0.059997
13  0.000002 0.001504 1.894737  1.399243 -1.473360 1.682936
14  4.926316 -0.000000 0.000001  0.570322 2.389043 0.277490
15  11.368429 0.000000 -0.000002  -0.000000 -0.000000 -1.486565
16  11.368419 0.000001 0.000002  -2.392491 0.345572 0.556127
17  1.126228 0.104084 -1.358370  2.526277 0.795826 0.832220
18  2.373624 -0.000001 0.000001  0.000000 0.000000 0.383903
19  1.071910 -0.000098 -0.000036  0.000000 0.104371 0.017442
20  3.789471 -0.000906 -1.136843  0.059908 0.051339 0.795097
21  1.136843 0.000005 0.000000  0.000000 0.000000 0.942466
22  1.136841 -0.000002 -0.000000  0.000000 -0.000000 0.776666
23  3.789471 -0.000303 -0.378947  -0.052454 0.053337 1.097143
24  1.326318 0.000002 0.000001  -0.000000 0.000000 0.811570
25  1.326318 0.000001 -0.000001  0.000000 0.000000 0.959922
26  3.789473 0.000302 0.378946  -0.203082 -0.051293 1.401495
27  1.136846 0.000001 -0.000000  0.000000 0.000000 0.619574
28  1.136840 0.000001 0.000000  0.000000 -0.000000 1.021016
29  3.789472 0.000906 1.136840  -0.400983 -0.004658 1.608246
30  0.947368 -0.000001 0.000000  -0.000000 -0.000000 0.698128
31  0.947368 -0.000000 0.000001  -0.000000 -0.000000 0.733038
32  0.000002 0.001514 -1.894737  -0.000045 1.370796 3.080786
33  4.926316 0.000000 -0.000001  -0.749342 -0.842937 0.553399
34  11.368423 -0.000002 0.000001  -0.000000 0.000000 -2.450528
35  11.368418 0.000001 -0.000000  1.112222 0.649666 0.563621
36  0.876224 0.104085 1.358370  -2.286633 -0.428938 0.353362
37  2.373624 -0.000000 0.000000  -0.000000 0.000000 0.715517
38  1.071901 0.000001 0.000002  -0.000000 0.000000 0.017445
39  2.937887 -0.000905 1.136842  0.658810 -0.245274 -0.081114
40  1.136842 -0.000001 0.000000  -0.000000 0.000000 -0.000000
41  1.136839 0.000000 0.000002  0.000000 -0.000000 1.701693
42  2.937886 -0.000301 0.378949  0.248123 -0.595389 1.163434
43  1.326317 -0.000001 -0.000001  0.000000 -0.000000 0.959916
44  1.326316 -0.000000 -0.000001  0.000000 0.000000 0.706854
45  2.937886 0.000303 -0.378947  0.291062 -0.330429 1.180700
46  1.136843 -0.000001 0.000002  -0.000000 -0.000000 0.872634
47  1.136842 -0.000001 0.000000  0.000000 0.000000 0.427594
48  2.937886 0.000905 -1.136843  0.278754 -0.147605 1.451705
49  0.947368 0.000001 0.000000  0.000000 -0.000000 0.549769
50  0.947369 -0.000001 0.000002  -0.000000 -0.000000 0.130889
time 8
0  -0.001490 -2.722739 -24.602341  0.000000 -0.000000 1.570797
1  0.000000 -0.000000 0.000002  -1.570795 -1.570451 0.000000
2  1.326318 -0.003921 0.000002  -0.000004 -0.000001 0.000796
3  4.926309 -0.003923 0.000000  -0.000000 0.000000 -0.000000
4  4.926314 -0.003923 -0.000000  -0.000000 0.000000 0.000000
5  6.926994 11.163653 -5.893199  -1.631492 -0.033362 -1.838495
6  -2.944952 -0.010476 -2.815030  0.000000 -0.000000 -0.000000
7  -2.844290 -0.796222 3.163410  0.000000 0.000000 -0.000000
8  -2.844289 -0.032289 3.975635  0.000000 -0.000000 0.000000
9  -2.783007 -0.009045 1.158095  0.000000 0.000000 -0.000000
10  -2.255527 0.213387 1.555575  0.000000 0.000000 0.000000
11  4.926313 -0.003923 0.000000  -0.000000 0.000000 -0.000000
12  4.926363 -0.001508 0.000000  -0.000000 -0.000000 0.059997
13  0.000002 0.001504 1.894737  1.399243 -1.473360 1.682936
14  4.926316 -0.000000 0.000001  0.571045 2.388634 0.274630
15  11.368429 0.000000 -0.000002  -0.000000 -0.000000 -1.491858
16  11.368420 -0.000002 0.000001  -2.392608 0.352184 0.553438
17  1.126229 0.104084 -1.358369  2.526277 0.795826 0.832220
18  2.373626 -0.000001 -0.000000  0.000000 0.000000 0.383903
19  1.071908 -0.000098 -0.000037  0.000000 0.104371 0.017442
20  3.789473 -0.000906 -1.136842  0.059908 0.051339 0.795097
21  1.136843 0.000003 0.000000  -0.000000 0.000000 0.942466
22  1.136842 -0.000001 -0.000002  -0.000000 -0.000000 0.776666
23  3.789473 -0.000303 -0.378947  -0.052454 0.053337 1.097143
24  1.326318 0.000000 0.000001  0.000000 0.000000 0.811570
25  1.326318 0.000000 0.000000  0.000000 0.000000 0.959922
26  3.789475 0.000301 0.378946  -0.203082 -0.051293 1.401495
27  1.136845 0.000001 0.000000  0.000000 -0.000000 0.619574
28  1.136839 0.000002 0.000000  -0.000000 0.000000 1.021016
29  3.789473 0.000905 1.136841  -0.400983 -0.004658 1.608246
30  0.947368 -0.000000 -0.000000  -0.000000 -0.000000 0.698128
31  0.947368 -0.000000 0.000002  -0.000000 -0.000000 0.733038
32  0.000002 0.001514 -1.894737  -0.000045 1.370796 3.080786
33  4.926316 0.000000 -0.000001  -0.749342 -0.842937 0.553399
34  11.368423 -0.000002 0.000001  -0.000000 0.000000 -2.450528
35  11.368418 0.000001 -0.000000  1.112222 0.649666 0.563621
36  0.876224 0.104085 1.358370  -2.286633 -0.428938 0.353362
37  2.373624 -0.000000 0.000000  -0.000000 0.000000 0.715517
38  1.071901 0.000001 0.000002  -0.000000 0.000000 0.017445
39  2.937887 -0.000905 1.136842  0.658810 -0.245274 -0.081114
40  1.136842 -0.000001 0.000000  -0.000000 0.000000 -0.000000
41  1.136839 0.000000 0.000002  0.000000 -0.000000 1.701693
42  2.937886 -0.000301 0.378949  0.248123 -0.595389 1.163434
43  1.326317 -0.000001 -0.000001  0.000000 -0.000000 0.959916
44  1.326316 -0.000000 -0.000001  0.000000 0.000000 0.706854
45  2.937886 0.000303 -0.378947  0.291062 -0.330429 1.180700
46  1.136843 -0.000001 0.000002  -0.000000 -0.000000 0.872634
47  1.136842 -0.000001 0.000000  0.000000 0.000000 0.427594
48  2.937886 0.000905 -1.136843  0.278754 -0.147605 1.451705
49  0.947368 0.000001 0.000000  0.000000 -0.000000 0.549769
50  0.947369 -0.000001 0.000002  -0.000000 -0.000000 0.130889
time 9
0  -0.001490 -2.722739 -24.602341  0.000000 -0.000000 1.570797
1  0.000000 -0.000000 0.000002  -1.570795 -1.570451 0.000000
2  1.326318 -0.003921 0.000002  -0.000004 -0.000001 0.000796
3  4.926309 -0.003923 0.000000  -0.000000 0.000000 -0.000000
4  4.926314 -0.003923 -0.000000  -0.000000 0.000000 0.000000
5  6.835463 11.163652 -5.893199  -1.637224 -0.032130 -1.840706
6  -2.944951 -0.010476 -2.815031  0.000000 -0.000000 -0.000000
7  -2.844290 -0.796222 3.163409  0.000000 -0.000000 -0.000000
8  -2.844288 -0.032289 3.975633  0.000000 -0.000000 0.000000
9  -2.783006 -0.009045 1.158093  -0.000000 -0.000000 -0.000000
10  -2.255527 0.213388 1.555574  0.000000 -0.000000 0.000000
11  4.926313 -0.003923 0.000000  -0.000000 0.000000 -0.000000
12  4.926363 -0.001508 0.000000  -0.000000 -0.000000 0.059997
13  0.000002 0.001504 1.894737  1.399243 -1.473360 1.682936
14  4.926316 -0.000000 0.000001  0.570207 2.386182 0.269745
15  11.368428 -0.000000 -0.000002  -0.000000 0.000000 -1.496311
16  11.368420 -0.000001 0.000001  -2.386805 0.346770 0.564321
17  1.126228 0.104085 -1.358369  2.526277 0.795826 0.832220
18  2.373625 0.000000 0.000001  0.000000 -0.000000 0.383903
19  1.071909 -0.000098 -0.000036  0.000000 0.104371 0.017442
20  3.789471 -0.000905 -1.136843  0.059908 0.051339 0.795097
21  1.136843 0.000005 0.000001  -0.000000 0.000000 0.942466
22  1.136842 -0.000001 -0.000002  0.000000 -0.000000 0.776666
23  3.789472 -0.000303 -0.378948  -0.052454 0.053337 1.097143
24  1.326317 0.000002 0.000001  0.000000 0.000000 0.811570
25  1.326316 0.000000 -0.000001  0.000000 -0.000000 0.959922
26  3.789473 0.000303 0.378946  -0.203082 -0.051293 1.401495
27  1.136846 -0.000000 0.000000  0.000000 0.000000 0.619574
28  1.136840 0.000000 0.000001  0.000000 -0.000000 1.021016
29  3.789472 0.000906 1.136841  -0.400983 -0.004658 1.608246
30  0.947369 -0.000002 0.000002  -0.000000 -0.000000 0.698128
31  0.947370 0.000001 0.000002  -0.000000 -0.000000 0.733038
32  0.000002 0.001514 -1.894737  -0.000045 1.370796 3.080786
33  4.926316 0.000000 -0.000001  -0.749342 -0.842937 0.553399
34  11.368423 -0.000002 0.000001  -0.000000 0.000000 -2.450528
35  11.368418 0.000001 -0.000000  1.112222 0.649666 0.563621
36  0.876224 0.104085 1.358370  -2.286633 -0.428938 0.353362
37  2.373624 -0.000000 0.000000  -0.000000 0.000000 0.715517
38  1.071901 0.000001 0.000002  -0.000000 0.000000 0.017445
39  2.937887 -0.000905 1.136842  0.658810 -0.245274 -0.081114
40  1.136842 -0.000001 0.000000  -0.000000 0.000000 -0.000000
41  1.136839 0.000000 0.000002  0.000000 -0.000000 1.701693
42  2.937886 -0.000301 0.378949  0.248123 -0.595389 1.163434
43  1.326317 -0.000001 -0.000001  0.000000 -0.000000 0.959916
44  1.326316 -0.000000 -0.000001  0.000000 0.000000 0.706854
45  2.937886 0.000303 -0.378947  0.291062 -0.330429 1.180700
46  1.136843 -0.000001 0.000002  -0.000000 -0.000000 0.872634
47  1.136842 -0.000001 0.000000  0.000000 0.000000 0.427594
48  2.937886 0.000905 -1.136843  0.278754 -0.147605 1.451705
49  0.947368 0.000001 0.000000  0.000000 -0.000000 0.549769
50  0.947369 -0.000001 0.000002  -0.000000 -0.000000 0.130889
time 10
0  -0.001490 -2.722739 -24.602341  0.000000 -0.000000 1.570797
1  0.000000 -0.000000 0.000002  -1.570795 -1.570451 0.000000
2  1.326318 -0.003921 0.000002  -0.000004 -0.000001 0.000796
3  4.926309 -0.003923 0.000000  -0.000000 0.000000 -0.000000
4  4.926314 -0.003923 -0.000000  -0.000000 0.000000 0.000000
5  6.630110 11.163652 -5.893199  -1.649133 -0.023104 -1.841276
6  -2.944951 -0.010476 -2.815030  -0.000000 -0.000000 -0.000000
7  -2.844289 -0.796221 3.163410  -0.000000 0.000000 -0.000000
8  -2.844289 -0.032288 3.975635  -0.000000 -0.000000 0.000000
9  -2.783005 -0.009044 1.158095  -0.000000 0.000000 -0.000000
10  -2.255527 0.213388 1.555576  -0.000000 0.000000 0.000000
11  4.926313 -0.003923 0.000000  -0.000000 0.000000 -0.000000
12  4.926363 -0.001508 0.000000  -0.000000 -0.000000 0.059997
13  0.000002 0.001504 1.894737  1.399243 -1.473360 1.682936
14  4.926316 -0.000000 0.000001  0.561684 2.381780 0.263590
15  11.368428 0.000000 -0.000002  -0.000000 -0.000000 -1.498149
16  11.368419 -0.000002 0.000001  -2.387984 0.323082 0.571090
17  1.126228 0.104085 -1.358369  2.526277 0.795826 0.832220
18  2.373625 -0.000001 -0.000001  0.000000 0.000000 0.383903
19  1.071908 -0.000097 -0.000037  0.000000 0.104371 0.017442
20  3.789473 -0.000905 -1.136842  0.059908 0.051339 0.795097
21  1.136843 0.000003 0.000000  -0.000000 0.000000 0.942466
22  1.136841 -0.000001 -0.000002  -0.000000 -0.000000 0.776666
23  3.789473 -0.000302 -0.378948  -0.052454 0.053337 1.097143
24  1.326317 0.000001 0.000000  0.000000 0.000000 0.811570
25  1.326316 0.000001 -0.000002  0.000000 -0.000000 0.959922
26  3.789474 0.000304 0.378946  -0.203082 -0.051293 1.401495
27  1.136845 -0.000001 0.000000  0.000000 0.000000 0.619574
28  1.136840 0.000000 -0.000000  0.000000 0.000000 1.021016
29  3.789472 0.000906 1.136842  -0.400983 -0.004658 1.608246
30  0.947369 -0.000002 0.000002  -0.000000 0.000000 0.698128
31  0.947368 0.000000 0.000001  -0.000000 -0.000000 0.733038
32  0.000002 0.001514 -1.894737  -0.000045 1.370796 3.080786
33  4.926316 0.000000 -0.000001  -0.749342 -0.842937 0.553399
34  11.368423 -0.000002 0.000001  -0.000000 0.000000 -2.450528
35  11.368418 0.000001 -0.000000  1.112222 0.649666 0.563621
36  0.876224 0.104085 1.358370  -2.286633 -0.428938 0.353362
37  2.373624 -0.000000 0.000000  -0.000000 0.000000 0.715517
38  1.071901 0.000001 0.000002  -0.000000 0.000000 0.017445
39  2.937887 -0.000905 1.136842  0.658810 -0.245274 -0.081114
40  1.136842 -0.000001 0.000000  -0.000000 0.000000 -0.000000
41  1.136839 0.000000 0.000002  0.000000 -0.000000 1.701693
42  2.937886 -0.000301 0.378949  0.248123 -0.595389 1.163434
43  1.326317 -0.000001 -0.000001  0.000000 -0.000000 0.959916
44  1.326316 -0.000000 -0.000001  0.000000 0.000000 0.706854
45  2.937886 0.000303 -0.378947  0.291062 -0.330429 1.180700
46  1.136843 -0.000001 0.000002  -0.000000 -0.000000 0.872634
47  1.136842 -0.000001 0.000000  0.000000 0.000000 0.427594
48  2.937886 0.000905 -1.136843  0.278754 -0.147605 1.451705
49  0.947368 0.000001 0.000000  0.000000 -0.000000 0.549769
50  0.947369 -0.000001 0.000002  -0.000000 -0.000000 0.130889
time 11
0  -0.001490 -2.722739 -24.602341  0.000000 -0.000000 1.570797
1  0.000000 -0.000000 0.000002  -1.570795 -1.570451 0.000000
2  1.326318 -0.003921 0.000002  -0.000004 -0.000001 0.000796
3  4.926309 -0.003923 0.000000  -0.000000 0.000000 -0.000000
4  4.926314 -0.003923 -0.000000  -0.000000 0.000000 0.000000
5  6.396234 11.163600 -5.893199  -1.661769 -0.012282 -1.826040
6  -2.944952 -0.010476 -2.815031  0.000000 -0.000000 -0.000000
7  -2.844291 -0.796221 3.163409  0.000000 -0.000000 -0.000000
8  -2.844289 -0.032289 3.975633  0.000000 -0.000000 0.000000
9  -2.783006 -0.009045 1.158093  0.000000 -0.000000 -0.000000
10  -2.255528 0.213387 1.555574  -0.000000 -0.000000 0.000000
11  4.926313 -0.003923 0.000000  -0.000000 0.000000 -0.000000
12  4.926363 -0.001508 0.000000  -0.000000 -0.000000 0.059997
13  0.000002 0.001504 1.894737  1.399243 -1.473360 1.682936
14  4.926316 -0.000000 0.000001  0.550272 2.375570 0.260348
15  11.368428 -0.000001 -0.000002  -0.000000 0.000000 -1.493738
16  11.368418 -0.000000 0.000001  -2.400510 0.287199 0.561460
17  1.126227 0.104084 -1.358368  2.526277 0.795826 0.832220
18  2.373626 0.000000 0.000000  0.000000 0.000000 0.383903
19  1.071909 -0.000097 -0.000036  0.000000 0.104371 0.017442
20  3.789471 -0.000905 -1.136842  0.059908 0.051339 0.795097
21  1.136843 0.000004 0.000001  0.000000 0.000000 0.942466
22  1.136841 -0.000002 -0.000002  0.000000 -0.000000 0.776666
23  3.789472 -0.000302 -0.378947  -0.052454 0.053337 1.097143
24  1.326319 0.000000 0.000000  0.000000 -0.000000 0.811570
25  1.326316 0.000000 0.000000  0.000000 -0.000000 0.959922
26  3.789474 0.000302 0.378947  -0.203082 -0.051293 1.401495
27  1.136845 0.000001 0.000000  -0.000000 0.000000 0.619574
28  1.136839 0.000000 -0.000000  -0.000000 0.000000 1.021016
29  3.789472 0.000905 1.136843  -0.400983 -0.004658 1.608246
30  0.947368 -0.000002 0.000001  -0.000000 0.000000 0.698128
31  0.947369 -0.000000 0.000002  -0.000000 -0.000000 0.733038
32  0.000002 0.001514 -1.894737  -0.000045 1.370796 3.080786
33  4.926316 0.000000 -0.000001  -0.749342 -0.842937 0.553399
34  11.368423 -0.000002 0.000001  -0.000000 0.000000 -2.450528
35  11.368418 0.000001 -0.000000  1.112222 0.649666 0.563621
36  0.876224 0.104085 1.358370  -2.286633 -0.428938 0.353362
37  2.373624 -0.000000 0.000000  -0.000000 0.000000 0.715517
38  1.071901 0.000001 0.000002  -0.000000 0.000000 0.017445
39  2.937887 -0.000905 1.136842  0.658810 -0.245274 -0.081114
40  1.136842 -0.000001 0.000000  -0.000000 0.000000 -0.000000
41  1.136839 0.000000 0.000002  0.000000 -0.000000 1.701693
42  2.937886 -0.000301 0.378949  0.248123 -0.595389 1.163434
43  1.326317 -0.000001 -0.000001  0.000000 -0.000000 0.959916
44  1.326316 -0.000000 -0.000001  0.000000 0.000000 0.706854
45  2.937886 0.000303 -0.378947  0.291062 -0.330429 1.180700
46  1.136843 -0.000001 0.000002  -0.000000 -0.000000 0.872634
47  1.136842 -0.000001 0.000000  0.000000 0.000000 0.427594
48  2.937886 0.000905 -1.136843  0.278754 -0.147605 1.451705
49  0.947368 0.000001 0.000000  0.000000 -0.000000 0.549769
50  0.947369 -0.000001 0.000002  -0.000000 -0.000000 0.130889
time 12
0  -0.001490 -2.722739 -24.602341  0.000000 -0.000000 1.570797
1  0.000000 -0.000000 0.000002  -1.570795 -1.570451 0.000000
2  1.326318 -0.003921 0.000002  -0.000004 -0.000001 0.000796
3  4.926309 -0.003923 0.000000  -0.000000 0.000000 -0.000000
4  4.926314 -0.003923 -0.000000  -0.000000 0.000000 0.000000
5  6.138947 11.163472 -5.893199  -1.670658 -0.001536 -1.776156
6  -2.944952 -0.010476 -2.815029  0.000000 -0.000000 -0.000000
7  -2.844290 -0.796221 3.163411  0.000000 0.000000 -0.000000
8  -2.844288 -0.032289 3.975635  0.000000 -0.000000 0.000000
9  -2.783006 -0.009045 1.158095  0.000000 0.000000 -0.000000
10  -2.255527 0.213387 1.555576  0.000000 -0.000000 0.000000
11  4.926313 -0.003923 0.000000  -0.000000 0.000000 -0.000000
12  4.926363 -0.001508 0.000000  -0.000000 -0.000000 0.059997
13  0.000002 0.001504 1.894737  1.399243 -1.473360 1.682936
14  4.926316 -0.000000 0.000001  0.540998 2.365191 0.260313
15  11.368427 -0.000000 -0.000002  -0.000000 0.000000 -1.478210
16  11.368419 -0.000001 0.000001  -2.417550 0.238255 0.546063
17  1.126228 0.104084 -1.358369  2.526277 0.795826 0.832220
18  2.373625 0.000000 0.000000  0.000000 0.000000 0.383903
19  1.071910 -0.000098 -0.000038  0.000000 0.104371 0.017442
20  3.789471 -0.000905 -1.136843  0.059908 0.051339 0.795097
21  1.136843 0.000003 0.000001  0.000000 -0.000000 0.942466
22  1.136841 -0.000002 -0.000003  0.000000 -0.000000 0.776666
23  3.789472 -0.000302 -0.378948  -0.052454 0.053337 1.097143
24  1.326317 0.000002 0.000001  0.000000 0.000000 0.811570
25  1.326317 0.000001 -0.000001  0.000000 -0.000000 0.959922
26  3.789473 0.000303 0.378946  -0.203082 -0.051293 1.401495
27  1.136844 -0.000000 -0.000001  0.000000 -0.000000 0.619574
28  1.136839 0.000001 0.000000  0.000000 -0.000000 1.021016
29  3.789473 0.000906 1.136841  -0.400983 -0.004658 1.608246
30  0.947369 -0.000000 0.000001  -0.000000 -0.000000 0.698128
31  0.947367 0.000001 0.000003  -0.000000 -0.000000 0.733038
32  0.000002 0.001514 -1.894737  -0.000045 1.370796 3.080786
33  4.926316 0.000000 -0.000001  -0.749342 -0.842937 0.553399
34  11.368423 -0.000002 0.000001  -0.000000 0.000000 -2.450528
35  11.368418 0.000001 -0.000000  1.112222 0.649666 0.563621
36  0.876224 0.104085 1.358370  -2.286633 -0.428938 0.353362
37  2.373624 -0.000000 0.000000  -0.000000 0.000000 0.715517
38  1.071901 0.000001 0.000002  -0.000000 0.000000 0.017445
39  2.937887 -0.000905 1.136842  0.658810 -0.245274 -0.081114
40  1.136842 -0.000001 0.000000  -0.000000 0.000000 -0.000000
41  1.136839 0.000000 0.000002  0.000000 -0.000000 1.701693
42  2.937886 -0.000301 0.378949  0.248123 -0.595389 1.163434
43  1.326317 -0.000001 -0.000001  0.000000 -0.000000 0.959916
44  1.326316 -0.000000 -0.000001  0.000000 0.000000 0.706854
45  2.937886 0.000303 -0.378947  0.291062 -0.330429 1.180700
46  1.136843 -0.000001 0.000002  -0.000000 -0.000000 0.872634
47  1.136842 -0.000001 0.000000  0.000000 0.000000 0.427594
48  2.937886 0.000905 -1.136843  0.278754 -0.147605 1.451705
49  0.947368 0.000001 0.000000  0.000000 -0.000000 0.549769
50  0.947369 -0.000001 0.000002  -0.000000 -0.000000 0.130889
time 13
0  -0.001490 -2.722739 -24.602341  0.000000 -0.000000 1.570797
1  0.000000 -0.000000 0.000002  -1.570795 -1.570451 0.000000
2  1.326318 -0.003921 0.000002  -0.000004 -0.000001 0.000796
3  4.926309 -0.003923 0.000000  -0.000000 0.000000 -0.000000
4  4.926314 -0.003923 -0.000000  -0.000000 0.000000 0.000000
5  5.838555 11.163372 -5.893199  -1.683909 0.020119 -1.695283
6  -2.944953 -0.010476 -2.815031  -0.000000 -0.000000 -0.000000
7  -2.844291 -0.796222 3.163410  0.000000 -0.000000 -0.000000
8  -2.844290 -0.032288 3.975634  0.000000 -0.000000 0.000000
9  -2.783007 -0.009045 1.158094  0.000000 -0.000000 -0.000000
10  -2.255528 0.213388 1.555575  0.000000 -0.000000 0.000000
11  4.926313 -0.003923 0.000000  -0.000000 0.000000 -0.000000
12  4.926363 -0.001508 0.000000  -0.000000 -0.000000 0.059997
13  0.000002 0.001504 1.894737  1.399243 -1.473360 1.682936
14  4.926316 -0.000000 0.000001  0.533595 2.350426 0.263488
15  11.368429 0.000000 -0.000002  -0.000000 0.000000 -1.449944
16  11.368420 -0.000001 0.000001  -2.443691 0.171825 0.527271
17  1.126227 0.104085 -1.358369  2.526277 0.795826 0.832220
18  2.373626 0.000000 0.000000  0.000000 0.000000 0.383903
19  1.071910 -0.000098 -0.000036  0.000000 0.104371 0.017442
20  3.789472 -0.000906 -1.136843  0.059908 0.051339 0.795097
21  1.136844 0.000002 0.000001  0.000000 0.000000 0.942466
22  1.136843 -0.000001 -0.000002  0.000000 -0.000000 0.776666
23  3.789471 -0.000303 -0.378947  -0.052454 0.053337 1.097143
24  1.326318 0.000001 0.000001  0.000000 0.000000 0.811570
25  1.326317 0.000000 -0.000000  0.000000 -0.000000 0.959922
26  3.789472 0.000303 0.378947  -0.203082 -0.051293 1.401495
27  1.136845 -0.000000 -0.000001  0.000000 0.000000 0.619574
28  1.136840 0.000001 0.000000  -0.000000 -0.000000 1.021016
29  3.789472 0.000905 1.136842  -0.400983 -0.004658 1.608246
30  0.947370 -0.000002 0.000000  -0.000000 0.000000 0.698128
31  0.947369 0.000000 0.000003  -0.000000 -0.000000 0.733038
32  0.000002 0.001514 -1.894737  -0.000045 1.370796 3.080786
33  4.926316 0.000000 -0.000001  -0.749342 -0.842937 0.553399
34  11.368423 -0.000002 0.000001  -0.000000 0.000000 -2.450528
35  11.368418 0.000001 -0.000000  1.112222 0.649666 0.563621
36  0.876224 0.104085 1.358370  -2.286633 -0.428938 0.353362
37  2.373624 -0.000000 0.000000  -0.000000 0.000000 0.715517
38  1.071901 0.000001 0.000002  -0.000000 0.000000 0.017445
39  2.937887 -0.000905 1.136842  0.658810 -0.245274 -0.081114
40  1.136842 -0.000001 0.000000  -0.000000 0.000000 -0.000000
41  1.136839 0.000000 0.000002  0.000000 -0.000000 1.701693
42  2.937886 -0.000301 0.378949  0.248123 -0.595389 1.163434
43  1.326317 -0.000001 -0.000001  0.000000 -0.000000 0.959916
44  1.326316 -0.000000 -0.000001  0.000000 0.000000 0.706854
45  2.937886 0.000303 -0.378947  0.291062 -0.330429 1.180700
46  1.136843 -0.000001 0.000002  -0.000000 -0.000000 0.872634
47  1.136842 -0.000001 0.000000  0.000000 0.000000 0.427594
48  2.937886 0.000905 -1.136843  0.278754 -0.147605 1.451705
49  0.947368 0.000001 0.000000  0.000000 -0.000000 0.549769
50  0.947369 -0.000001 0.000002  -0.000000 -0.000000 0.130889
time 14
0  -0.001490 -2.722739 -24.602341  0.000000 -0.000000 1.570797
1  0.000000 -0.000000 0.000002  -1.570795 -1.570451 0.000000
2  1.326318 -0.003921 0.000002  -0.000004 -0.000001 0.000796
3  4.926309 -0.003923 0.000000  -0.000000 0.000000 -0.000000
4  4.926314 -0.003923 -0.000000  -0.000000 0.000000 0.000000
5  5.486359 11.163416 -5.893199  -1.706290 0.062636 -1.599839
6  -2.944952 -0.010476 -2.815031  0.000000 -0.000000 -0.000000
7  -2.844289 -0.796222 3.163410  0.000000 0.000000 -0.000000
8  -2.844289 -0.032289 3.975633  -0.000000 -0.000000 0.000000
9  -2.783005 -0.009045 1.158093  0.000000 0.000000 -0.000000
10  -2.255527 0.213387 1.555575  -0.000000 0.000000 0.000000
11  4.926313 -0.003923 0.000000  -0.000000 0.000000 -0.000000
12  4.926363 -0.001508 0.000000  -0.000000 -0.000000 0.059997
13  0.000002 0.001504 1.894737  1.399243 -1.473360 1.682936
14  4.926316 -0.000000 0.000001  0.527016 2.332694 0.268641
15  11.368430 0.000000 -0.000002  -0.000000 0.000000 -1.411722
16  11.368421 -0.000002 0.000002  -2.481321 0.089004 0.510216
17  1.126228 0.104084 -1.358369  2.526277 0.795826 0.832220
18  2.373625 0.000001 0.000000  0.000000 0.000000 0.383903
19  1.071908 -0.000098 -0.000037  0.000000 0.104371 0.017442
20  3.789474 -0.000905 -1.136843  0.059908 0.051339 0.795097
21  1.136843 0.000003 0.000002  -0.000000 0.000000 0.942466
22  1.136841 -0.000002 -0.000001  -0.000000 -0.000000 0.776666
23  3.789473 -0.000301 -0.378949  -0.052454 0.053337 1.097143
24  1.326318 0.000002 0.000001  0.000000 0.000000 0.811570
25  1.326317 0.000002 -0.000001  0.000000 -0.000000 0.959922
26  3.789475 0.000303 0.378946  -0.203082 -0.051293 1.401495
27  1.136846 0.000000 0.000000  0.000000 0.000000 0.619574
28  1.136839 0.000002 0.000000  0.000000 0.000000 1.021016
29  3.789474 0.000905 1.136841  -0.400983 -0.004658 1.608246
30  0.947368 -0.000002 0.000002  -0.000000 0.000000 0.698128
31  0.947369 0.000001 0.000002  0.000000 -0.000000 0.733038
32  0.000002 0.001514 -1.894737  -0.000045 1.370796 3.080786
33  4.926316 0.000000 -0.000001  -0.749342 -0.842937 0.553399
34  11.368423 -0.000002 0.000001  -0.000000 0.000000 -2.450528
35  11.368418 0.000001 -0.000000  1.112222 0.649666 0.563621
36  0.876224 0.104085 1.358370  -2.286633 -0.428938 0.353362
37  2.373624 -0.000000 0.000000  -0.000000 0.000000 0.715517
38  1.071901 0.000001 0.000002  -0.000000 0.000000 0.017445
39  2.937887 -0.000905 1.136842  0.658810 -0.245274 -0.081114
40  1.136842 -0.000001 0.000000  -0.000000 0.000000 -0.000000
41  1.136839 0.000000 0.000002  0.000000 -0.000000 1.701693
42  2.937886 -0.000301 0.378949  0.248123 -0.595389 1.163434
43  1.326317 -0.000001 -0.000001  0.000000 -0.000000 0.959916
44  1.326316 -0.000000 -0.000001  0.000000 0.000000 0.706854
45  2.937886 0.000303 -0.378947  0.291062 -0.330429 1.180700
46  1.136843 -0.000001 0.000002  -0.000000 -0.000000 0.872634
47  1.136842 -0.000001 0.000000  0.000000 0.000000 0.427594
48  2.937886 0.000905 -1.136843  0.278754 -0.147605 1.451705
49  0.947368 0.000001 0.000000  0.000000 -0.000000 0.549769
50  0.947369 -0.000001 0.000002  -0.000000 -0.000000 0.130889
time 15
0  -0.001490 -2.722739 -24.602341  0.000000 -0.000000 1.570797
1  0.000000 -0.000000 0.000002  -1.570795 -1.570451 0.000000
2  1.326318 -0.003921 0.000002  -0.000004 -0.000001 0.000796
3  4.926309 -0.003923 0.000000  -0.000000 0.000000 -0.000000
4  4.926314 -0.003923 -0.000000  -0.000000 0.000000 0.000000
5  5.091001 11.163653 -5.893199  -1.734630 0.126939 -1.506473
6  -2.944953 -0.010476 -2.815032  0.000000 -0.000000 -0.000000
7  -2.844291 -0.796221 3.163409  0.000000 -0.000000 -0.000000
8  -2.844289 -0.032288 3.975634  0.000000 -0.000000 0.000000
9  -2.783008 -0.009044 1.158094  0.000000 -0.000000 -0.000000
10  -2.255529 0.213388 1.555574  0.000000 -0.000000 0.000000
11  4.926313 -0.003923 0.000000  -0.000000 0.000000 -0.000000
12  4.926363 -0.001508 0.000000  -0.000000 -0.000000 0.059997
13  0.000002 0.001504 1.894737  1.399243 -1.473360 1.682936
14  4.926316 -0.000000 0.000001  0.520150 2.313986 0.274147
15  11.368428 0.000000 -0.000002  0.000000 0.000000 -1.368698
16  11.368420 -0.000003 0.000001  -2.529345 -0.004221 0.499253
17  1.126227 0.104084 -1.358369  2.526277 0.795826 0.832220
18  2.373625 0.000000 0.000000  0.000000 0.000000 0.383903
19  1.071910 -0.000099 -0.000037  0.000000 0.104371 0.017442
20  3.789471 -0.000906 -1.136842  0.059908 0.051339 0.795097
21  1.136844 0.000003 0.000002  -0.000000 0.000000 0.942466
22  1.136842 -0.000002 -0.000001  -0.000000 -0.000000 0.776666
23  3.789471 -0.000302 -0.378947  -0.052454 0.053337 1.097143
24  1.326318 0.000000 0.000001  0.000000 0.000000 0.811570
25  1.326316 -0.000000 -0.000000  0.000000 -0.000000 0.959922
26  3.789474 0.000302 0.378946  -0.203082 -0.051293 1.401495
27  1.136846 0.000000 0.000001  -0.000000 0.000000 0.619574
28  1.136838 0.000000 -0.000000  0.000000 -0.000000 1.021016
29  3.789471 0.000904 1.136841  -0.400983 -0.004658 1.608246
30  0.947368 -0.000002 0.000002  -0.000000 0.000000 0.698128
31  0.947370 0.000000 0.000001  -0.000000 -0.000000 0.733038
32  0.000002 0.001514 -1.894737  -0.000045 1.370796 3.080786
33  4.926316 0.000000 -0.000001  -0.749342 -0.842937 0.553399
34  11.368423 -0.000002 0.000001  -0.000000 0.000000 -2.450528
35  11.368418 0.000001 -0.000000  1.112222 0.649666 0.563621
36  0.876224 0.104085 1.358370  -2.286633 -0.428938 0.353362
37  2.373624 -0.000000 0.000000  -0.000000 0.000000 0.715517
38  1.071901 0.000001 0.000002  -0.000000 0.000000 0.017445
39  2.937887 -0.000905 1.136842  0.658810 -0.245274 -0.081114
40  1.136842 -0.000001 0.000000  -0.000000 0.000000 -0.000000
41  1.136839 0.000000 0.000002  0.000000 -0.000000 1.701693
42  2.937886 -0.000301 0.378949  0.248123 -0.595389 1.163434
43  1.326317 -0.000001 -0.000001  0.000000 -0.000000 0.959916
44  1.326316 -0.000000 -0.000001  0.000000 0.000000 0.706854
45  2.937886 0.000303 -0.378947  0.291062 -0.330429 1.180700
46  1.136843 -0.000001 0.000002  -0.000000 -0.000000 0.872634
47  1.136842 -0.000001 0.000000  0.000000 0.000000 0.427594
48  2.937886 0.000905 -1.136843  0.278754 -0.147605 1.451705
49  0.947368 0.000001 0.000000  0.000000 -0.000000 0.549769
50  0.947369 -0.000001 0.000002  -0.000000 -0.000000 0.130889
time 16
0  -0.001490 -2.722739 -24.602341  0.000000 -0.000000 1.570797
1  0.000000 -0.000000 0.000002  -1.570795 -1.570451 0.000000
2  1.326318 -0.003921 0.000002  -0.000004 -0.000001 0.000796
3  4.926309 -0.003923 0.000000  -0.000000 0.000000 -0.000000
4  4.926314 -0.003923 -0.000000  -0.000000 0.000000 0.000000
5  4.607257 11.164062 -5.893199  -1.773973 0.222185 -1.399983
6  -2.944952 -0.010475 -2.815030  0.000000 -0.000000 -0.000000
7  -2.844290 -0.796222 3.163410  0.000000 -0.000000 -0.000000
8  -2.844288 -0.032289 3.975634  0.000000 -0.000000 0.000000
9  -2.783005 -0.009045 1.158095  0.000000 -0.000000 -0.000000
10  -2.255528 0.213388 1.555575  0.000000 -0.000000 0.000000
11  4.926313 -0.003923 0.000000  -0.000000 0.000000 -0.000000
12  4.926363 -0.001508 0.000000  -0.000000 -0.000000 0.059997
13  0.000002 0.001504 1.894737  1.399243 -1.473360 1.682936
14  4.926316 -0.000000 0.000001  0.511377 2.291903 0.280897
15  11.368429 0.000001 -0.000002  0.000000 -0.000000 -1.315149
16  11.368421 -0.000001 0.000002  -2.593626 -0.118970 0.495015
17  1.126229 0.104083 -1.358369  2.526277 0.795826 0.832220
18  2.373627 0.000001 0.000000  0.000000 0.000000 0.383903
19  1.071909 -0.000098 -0.000036  0.000000 0.104371 0.017442
20  3.789471 -0.000907 -1.136842  0.059908 0.051339 0.795097
21  1.136844 0.000003 0.000001  -0.000000 0.000000 0.942466
22  1.136842 -0.000003 -0.000003  -0.000000 -0.000000 0.776666
23  3.789472 -0.000304 -0.378948  -0.052454 0.053337 1.097143
24  1.326316 0.000000 0.000000  0.000000 0.000000 0.811570
25  1.326316 0.000000 -0.000001  0.000000 -0.000000 0.959922
26  3.789474 0.000303 0.378945  -0.203082 -0.051293 1.401495
27  1.136845 0.000000 0.000000  0.000000 -0.000000 0.619574
28  1.136838 0.000000 0.000001  -0.000000 -0.000000 1.021016
29  3.789473 0.000904 1.136841  -0.400983 -0.004658 1.608246
30  0.947369 -0.000001 0.000001  -0.000000 0.000000 0.698128
31  0.947368 0.000000 0.000002  -0.000000 -0.000000 0.733038
32  0.000002 0.001514 -1.894737  -0.000045 1.370796 3.080786
33  4.926316 0.000000 -0.000001  -0.749342 -0.842937 0.553399
34  11.368423 -0.000002 0.000001  -0.000000 0.000000 -2.450528
35  11.368418 0.000001 -0.000000  1.112222 0.649666 0.563621
36  0.876224 0.104085 1.358370  -2.286633 -0.428938 0.353362
37  2.373624 -0.000000 0.000000  -0.000000 0.000000 0.715517
38  1.071901 0.000001 0.000002  -0.000000 0.000000 0.017445
39  2.937887 -0.000905 1.136842  0.658810 -0.245274 -0.081114
40  1.136842 -0.000001 0.000000  -0.000000 0.000000 -0.000000
41  1.136839 0.000000 0.000002  0.000000 -0.000000 1.701693
42  2.937886 -0.000301 0.378949  0.248123 -0.595389 1.163434
43  1.326317 -0.000001 -0.000001  0.000000 -0.000000 0.959916
44  1.326316 -0.000000 -0.000001  0.000000 0.000000 0.706854
45  2.937886 0.000303 -0.378947  0.291062 -0.330429 1.180700
46  1.136843 -0.000001 0.000002  -0.000000 -0.000000 0.872634
47  1.136842 -0.000001 0.000000  0.000000 0.000000 0.427594
48  2.937886 0.000905 -1.136843  0.278754 -0.147605 1.451705
49  0.947368 0.000001 0.000000  0.000000 -0.000000 0.549769
50  0.947369 -0.000001 0.000002  -0.000000 -0.000000 0.130889
time 17
0  -0.001490 -2.722739 -24.602341  0.000000 -0.000000 1.570797
1  0.000000 -0.000000 0.000002  -1.570795 -1.570451 0.000000
2  1.326318 -0.003921 0.000002  -0.000004 -0.000001 0.000796
3  4.926309 -0.003923 0.000000  -0.000000 0.000000 -0.000000
4  4.926314 -0.003923 -0.000000  -0.000000 0.000000 0.000000
5  3.990310 11.164618 -5.893199  -1.814628 0.352034 -1.253721
6  -2.944952 -0.010475 -2.815032  -0.000000 -0.000000 -0.000000
7  -2.844291 -0.796221 3.163409  -0.000000 -0.000000 -0.000000
8  -2.844287 -0.032288 3.975633  -0.000000 -0.000000 0.000000
9  -2.783006 -0.009043 1.158094  0.000000 -0.000000 -0.000000
10  -2.255527 0.213388 1.555574  -0.000000 -0.000000 0.000000
11  4.926313 -0.003923 0.000000  -0.000000 0.000000 -0.000000
12  4.926363 -0.001508 0.000000  -0.000000 -0.000000 0.059997
13  0.000002 0.001504 1.894737  1.399243 -1.473360 1.682936
14  4.926316 -0.000000 0.000001  0.499863 2.263460 0.290420
15  11.368428 -0.000000 -0.000002  0.000000 -0.000000 -1.243554
16  11.368420 -0.000002 0.000002  -2.681586 -0.268045 0.501497
17  1.126228 0.104086 -1.358370  2.526277 0.795826 0.832220
18  2.373625 0.000000 0.000001  0.000000 0.000000 0.383903
19  1.071912 -0.000097 -0.000036  0.000000 0.104371 0.017442
20  3.789472 -0.000904 -1.136842  0.059908 0.051339 0.795097
21  1.136844 0.000005 0.000001  -0.000000 0.000000 0.942466
22  1.136842 -0.000003 -0.000002  -0.000000 -0.000000 0.776666
23  3.789472 -0.000300 -0.378948  -0.052454 0.053337 1.097143
24  1.326317 -0.000002 0.000001  0.000000 0.000000 0.811570
25  1.326316 0.000000 -0.000001  -0.000000 -0.000000 0.959922
26  3.789474 0.000304 0.378946  -0.203082 -0.051293 1.401495
27  1.136845 0.000001 0.000001  0.000000 0.000000 0.619574
28  1.136840 -0.000000 -0.000001  0.000000 -0.000000 1.021016
29  3.789472 0.000906 1.136841  -0.400983 -0.004658 1.608246
30  0.947367 -0.000000 0.000003  -0.000000 0.000000 0.698128
31  0.947369 0.000002 0.000002  -0.000000 -0.000000 0.733038
32  0.000002 0.001514 -1.894737  -0.000045 1.370796 3.080786
33  4.926316 0.000000 -0.000001  -0.749342 -0.842937 0.553399
34  11.368423 -0.000002 0.000001  -0.000000 0.000000 -2.450528
35  11.368418 0.000001 -0.000000  1.112222 0.649666 0.563621
36  0.876224 0.104085 1.358370  -2.286633 -0.428938 0.353362
37  2.373624 -0.000000 0.000000  -0.000000 0.000000 0.715517
38  1.071901 0.000001 0.000002  -0.000000 0.000000 0.017445
39  2.937887 -0.000905 1.136842  0.658810 -0.245274 -0.081114
40  1.136842 -0.000001 0.000000  -0.000000 0.000000 -0.000000
41  1.136839 0.000000 0.000002  0.000000 -0.000000 1.701693
42  2.937886 -0.000301 0.378949  0.248123 -0.595389 1.163434
43  1.326317 -0.000001 -0.000001  0.000000 -0.000000 0.959916
44  1.326316 -0.000000 -0.000001  0.000000 0.000000 0.706854
45  2.937886 0.000303 -0.378947  0.291062 -0.330429 1.180700
46  1.136843 -0.000001 0.000002  -0.000000 -0.000000 0.872634
47  1.136842 -0.000001 0.000000  0.000000 0.000000 0.427594
48  2.937886 0.000905 -1.136843  0.278754 -0.147605 1.451705
49  0.947368 0.000001 0.000000  0.000000 -0.000000 0.549769
50  0.947369 -0.000001 0.000002  -0.000000 -0.000000 0.130889
time 18
0  -0.001490 -2.722739 -24.602341  0.000000 -0.000000 1.570797
1  0.000000 -0.000000 0.000002  -1.570795 -1.570451 0.000000
2  1.326318 -0.003921 0.000002  -0.000004 -0.000001 0.000796
3  4.926309 -0.003923 0.000000  -0.000000 0.000000 -0.000000
4  4.926314 -0.003923 -0.000000  -0.000000 0.000000 0.000000
5  3.278394 11.165287 -5.893199  -1.822026 0.488643 -1.058787
6  -2.944951 -0.010476 -2.815031  -0.000000 -0.000000 -0.000000
7  -2.844289 -0.796222 3.163408  -0.000000 -0.000000 -0.000000
8  -2.844289 -0.032288 3.975632  -0.000000 -0.000000 0.000000
9  -2.783006 -0.009045 1.158093  -0.000000 -0.000000 -0.000000
10  -2.255527 0.213387 1.555574  -0.000000 -0.000000 0.000000
11  4.926313 -0.003923 0.000000  -0.000000 0.000000 -0.000000
12  4.926363 -0.001508 0.000000  -0.000000 -0.000000 0.059997
13  0.000002 0.001504 1.894737  1.399243 -1.473360 1.682936
14  4.926316 -0.000000 0.000001  0.486578 2.230359 0.302083
15  11.368429 0.000000 -0.000002  0.000001 -0.000001 -1.158515
16  11.368420 -0.000002 0.000002  -2.793077 -0.440973 0.527053
17  1.126228 0.104086 -1.358369  2.526277 0.795826 0.832220
18  2.373626 0.000000 0.000000  0.000000 -0.000000 0.383903
19  1.071911 -0.000096 -0.000036  0.000000 0.104371 0.017442
20  3.789472 -0.000905 -1.136842  0.059908 0.051339 0.795097
21  1.136843 0.000003 0.000001  0.000000 0.000000 0.942466
22  1.136841 -0.000002 -0.000002  0.000000 -0.000000 0.776666
23  3.789471 -0.000301 -0.378947  -0.052454 0.053337 1.097143
24  1.326318 -0.000001 0.000001  0.000000 0.000000 0.811570
25  1.326318 0.000001 -0.000001  0.000000 -0.000000 0.959922
26  3.789472 0.000304 0.378946  -0.203082 -0.051293 1.401495
27  1.136844 0.000001 0.000000  0.000000 0.000000 0.619574
28  1.136840 0.000002 0.000000  0.000000 -0.000000 1.021016
29  3.789470 0.000906 1.136841  -0.400983 -0.004658 1.608246
30  0.947368 -0.000003 0.000001  -0.000000 0.000000 0.698128
31  0.947368 0.000001 0.000002  -0.000000 -0.000000 0.733038
32  0.000002 0.001514 -1.894737  -0.000045 1.370796 3.080786
33  4.926316 0.000000 -0.000001  -0.749342 -0.842937 0.553399
34  11.368423 -0.000002 0.000001  -0.000000 0.000000 -2.450528
35  11.368418 0.000001 -0.000000  1.112222 0.649666 0.563621
36  0.876224 0.104085 1.358370  -2.286633 -0.428938 0.353362
37  2.373624 -0.000000 0.000000  -0.000000 0.000000 0.715517
38  1.071901 0.000001 0.000002  -0.000000 0.000000 0.017445
39  2.937887 -0.000905 1.136842  0.658810 -0.245274 -0.081114
40  1.136842 -0.000001 0.000000  -0.000000 0.000000 -0.000000
41  1.136839 0.000000 0.000002  0.000000 -0.000000 1.701693
42  2.937886 -0.000301 0.378949  0.248123 -0.595389 1.163434
43  1.326317 -0.000001 -0.000001  0.000000 -0.000000 0.959916
44  1.326316 -0.000000 -0.000001  0.000000 0.000000 0.706854
45  2.937886 0.000303 -0.378947  0.291062 -0.330429 1.180700
46  1.136843 -0.000001 0.000002  -0.000000 -0.000000 0.872634
47  1.136842 -0.000001 0.000000  0.000000 0.000000 0.427594
48  2.937886 0.000905 -1.136843  0.278754 -0.147605 1.451705
49  0.947368 0.000001 0.000000  0.000000 -0.000000 0.549769
50  0.947369 -0.000001 0.000002  -0.000000 -0.000000 0.130889
time 19
0  -0.001490 -2.722739 -24.602341  0.000000 -0.000000 1.570797
1  0.000000 -0.000000 0.000002  -1.570795 -1.570451 0.000000
2  1.326318 -0.003921 0.000002  -0.000004 -0.000001 0.000796
3  4.926309 -0.003923 0.000000  -0.000000 0.000000 -0.000000
4  4.926314 -0.003923 -0.000000  -0.000000 0.000000 0.000000
5  2.543964 11.165994 -5.893199  -1.772655 0.589266 -0.820378
6  -2.944952 -0.010476 -2.815031  -0.000000 -0.000000 -0.000000
7  -2.844290 -0.796221 3.163410  -0.000000 0.000000 -0.000000
8  -2.844289 -0.032288 3.975634  0.000000 -0.000000 0.000000
9  -2.783007 -0.009045 1.158094  0.000000 0.000000 -0.000000
10  -2.255528 0.213388 1.555576  0.000000 -0.000000 0.000000
11  4.926313 -0.003923 0.000000  -0.000000 0.000000 -0.000000
12  4.926363 -0.001508 0.000000  -0.000000 -0.000000 0.059997
13  0.000002 0.001504 1.894737  1.399243 -1.473360 1.682936
14  4.926316 -0.000000 0.000001  0.473151 2.195959 0.314665
15  11.368428 0.000001 -0.000001  0.000001 -0.000001 -1.069094
16  11.368420 -0.000002 0.000001  -2.926520 -0.617407 0.579280
17  1.126227 0.104084 -1.358369  2.526277 0.795826 0.832220
18  2.373626 -0.000002 0.000000  0.000000 0.000000 0.383903
19  1.071910 -0.000099 -0.000036  0.000000 0.104371 0.017442
20  3.789472 -0.000907 -1.136842  0.059908 0.051339 0.795097
21  1.136844 0.000002 0.000001  -0.000000 0.000000 0.942466
22  1.136840 -0.000001 -0.000002  0.000000 -0.000000 0.776666
23  3.789472 -0.000304 -0.378947  -0.052454 0.053337 1.097143
24  1.326318 0.000003 0.000001  0.000000 0.000000 0.811570
25  1.326317 -0.000000 -0.000001  0.000000 -0.000000 0.959922
26  3.789474 0.000302 0.378947  -0.203082 -0.051293 1.401495
27  1.136844 -0.000001 0.000000  0.000000 0.000000 0.619574
28  1.136841 0.000002 -0.000000  0.000000 0.000000 1.021016
29  3.789471 0.000905 1.136842  -0.400983 -0.004658 1.608246
30  0.947368 -0.000001 0.000000  -0.000000 0.000000 0.698128
31  0.947366 -0.000001 0.000002  0.000000 -0.000000 0.733038
32  0.000002 0.001514 -1.894737  -0.000045 1.370796 3.080786
33  4.926316 0.000000 -0.000001  -0.749342 -0.842937 0.553399
34  11.368423 -0.000002 0.000001  -0.000000 0.000000 -2.450528
35  11.368418 0.000001 -0.000000  1.112222 0.649666 0.563621
36  0.876224 0.104085 1.358370  -2.286633 -0.428938 0.353362
37  2.373624 -0.000000 0.000000  -0.000000 0.000000 0.715517
38  1.071901 0.000001 0.000002  -0.000000 0.000000 0.017445
39  2.937887 -0.000905 1.136842  0.658810 -0.245274 -0.081114
40  1.136842 -0.000001 0.000000  -0.000000 0.000000 -0.000000
41  1.136839 0.000000 0.000002  0.000000 -0.000000 1.701693
42  2.937886 -0.000301 0.378949  0.248123 -0.595389 1.163434
43  1.326317 -0.000001 -0.000001  0.000000 -0.000000 0.959916
44  1.326316 -0.000000 -0.000001  0.000000 0.000000 0.706854
45  2.937886 0.000303 -0.378947  0.291062 -0.330429 1.180700
46  1.136843 -0.000001 0.000002  -0.000000 -0.000000 0.872634
47  1.136842 -0.000001 0.000000  0.000000 0.000000 0.427594
48  2.937886 0.000905 -1.136843  0.278754 -0.147605 1.451705
49  0.947368 0.000001 0.000000  0.000000 -0.000000 0.549769
50  0.947369 -0.000001 0.000002  -0.000000 -0.000000 0.130889
time 20
0  -0.001490 -2.722739 -24.602341  0.000000 -0.000000 1.570797
1  0.000000 -0.000000 0.000002  -1.570795 -1.570451 0.000000
2  1.326318 -0.003921 0.000002  -0.000004 -0.000001 0.000796
3  4.926309 -0.003923 0.000000  -0.000000 0.000000 -0.000000
4  4.926314 -0.003923 -0.000000  -0.000000 0.000000 0.000000
5  1.880689 11.166644 -5.893199  -1.686837 0.625143 -0.582783
6  -2.944950 -0.010475 -2.815031  -0.000000 -0.000000 0.000000
7  -2.844289 -0.796221 3.163409  -0.000000 0.000000 -0.000000
8  -2.844287 -0.032288 3.975633  0.000000 -0.000000 -0.000000
9  -2.783005 -0.009044 1.158094  -0.000000 0.000000 -0.000000
10  -2.255526 0.213388 1.555575  -0.000000 0.000000 -0.000000
11  4.926313 -0.003923 0.000000  -0.000000 0.000000 -0.000000
12  4.926363 -0.001508 0.000000  -0.000000 -0.000000 0.059997
13  0.000002 0.001504 1.894737  1.399243 -1.473360 1.682936
14  4.926316 -0.000000 0.000001  0.461437 2.164705 0.326496
15  11.368429 0.000000 -0.000001  0.000000 -0.000001 -0.987265
16  11.368420 0.000001 0.000002  -3.074679 -0.771599 0.659091
17  1.126225 0.104085 -1.358369  2.526277 0.795826 0.832220
18  2.373625 -0.000001 0.000000  0.000000 -0.000000 0.383903
19  1.071911 -0.000096 -0.000037  0.000000 0.104371 0.017442
20  3.789469 -0.000905 -1.136842  0.059908 0.051339 0.795097
21  1.136841 0.000004 0.000001  0.000000 0.000000 0.942466
22  1.136842 0.000000 -0.000001  0.000000 -0.000000 0.776666
23  3.789469 -0.000303 -0.378948  -0.052454 0.053337 1.097143
24  1.326318 0.000000 0.000001  0.000000 0.000000 0.811570
25  1.326317 -0.000001 0.000000  0.000000 -0.000000 0.959922
26  3.789470 0.000302 0.378947  -0.203082 -0.051293 1.401495
27  1.136845 -0.000001 0.000000  0.000000 0.000000 0.619574
28  1.136837 0.000002 0.000000  0.000000 -0.000000 1.021016
29  3.789469 0.000905 1.136841  -0.400983 -0.004658 1.608246
30  0.947367 -0.000003 0.000001  -0.000000 -0.000000 0.698128
31  0.947369 0.000000 0.000002  0.000000 -0.000000 0.733038
32  0.000002 0.001514 -1.894737  -0.000045 1.370796 3.080786
33  4.926316 0.000000 -0.000001  -0.749342 -0.842937 0.553399
34  11.368423 -0.000002 0.000001  -0.000000 0.000000 -2.450528
35  11.368418 0.000001 -0.000000  1.112222 0.649666 0.563621
36  0.876224 0.104085 1.358370  -2.286633 -0.428938 0.353362
37  2.373624 -0.000000 0.000000  -0.000000 0.000000 0.715517
38  1.071901 0.000001 0.000002  -0.000000 0.000000 0.017445
39  2.937887 -0.000905 1.136842  0.658810 -0.245274 -0.081114
40  1.136842 -0.000001 0.000000  -0.000000 0.000000 -0.000000
41  1.136839 0.000000 0.000002  0.000000 -0.000000 1.701693
42  2.937886 -0.000301 0.378949  0.248123 -0.595389 1.163434
43  1.326317 -0.000001 -0.000001  0.000000 -0.000000 0.959916
44  1.326316 -0.000000 -0.000001  0.000000 0.000000 0.706854
45  2.937886 0.000303 -0.378947  0.291062 -0.330429 1.180700
46  1.136843 -0.000001 0.000002  -0.000000 -0.000000 0.872634
47  1.136842 -0.000001 0.000000  0.000000 0.000000 0.427594
48  2.937886 0.000905 -1.136843  0.278754 -0.147605 1.451705
49  0.947368 0.000001 0.000000  0.000000 -0.000000 0.549769
50  0.947369 -0.000001 0.000002  -0.000000 -0.000000 0.130889
time 21
0  -0.001490 -2.722739 -24.602341  0.000000 -0.000000 1.570797
1  0.000000 -0.000000 0.000002  -1.570795 -1.570451 0.000000
2  1.326318 -0.003921 0.000002  -0.000004 -0.000001 0.000796
3  4.926309 -0.003923 0.000000  -0.000000 0.000000 -0.000000
4  4.926314 -0.003923 -0.000000  -0.000000 0.000000 0.000000
5  1.371433 11.167149 -5.893199  -1.611995 0.610987 -0.404750
6  -2.944950 -0.010477 -2.815031  0.000000 -0.000000 0.000000
7  -2.844290 -0.796221 3.163409  0.000000 0.000000 0.000000
8  -2.844288 -0.032288 3.975636  0.000000 -0.000000 0.000000
9  -2.783005 -0.009045 1.158094  0.000000 0.000000 -0.000000
10  -2.255526 0.213388 1.555575  0.000000 0.000000 0.000000
11  4.926313 -0.003923 0.000000  -0.000000 0.000000 -0.000000
12  4.926363 -0.001508 0.000000  -0.000000 -0.000000 0.059997
13  0.000002 0.001504 1.894737  1.399243 -1.473360 1.682936
14  4.926316 -0.000000 0.000001  0.452799 2.140603 0.335930
15  11.368428 0.000000 -0.000002  0.000000 -0.000000 -0.923851
16  11.368420 0.000000 0.000001  3.065535 -0.883402 0.752022
17  1.126231 0.104084 -1.358369  2.526277 0.795826 0.832220
18  2.373626 0.000002 0.000001  -0.000000 -0.000000 0.383903
19  1.071908 -0.000097 -0.000036  0.000000 0.104371 0.017442
20  3.789474 -0.000904 -1.136842  0.059908 0.051339 0.795097
21  1.136844 0.000003 0.000000  -0.000000 0.000000 0.942466
22  1.136842 -0.000004 -0.000002  -0.000000 -0.000000 0.776666
23  3.789473 -0.000302 -0.378947  -0.052454 0.053337 1.097143
24  1.326318 0.000001 0.000001  0.000000 0.000000 0.811570
25  1.326315 0.000001 -0.000001  0.000000 -0.000000 0.959922
26  3.789476 0.000303 0.378947  -0.203082 -0.051293 1.401495
27  1.136844 -0.000001 0.000000  0.000000 0.000000 0.619574
28  1.136839 0.000001 -0.000000  0.000000 -0.000000 1.021016
29  3.789475 0.000906 1.136842  -0.400983 -0.004658 1.608246
30  0.947367 -0.000001 0.000001  -0.000000 0.000000 0.698128
31  0.947366 0.000002 0.000002  -0.000000 -0.000000 0.733038
32  0.000002 0.001514 -1.894737  -0.000045 1.370796 3.080786
33  4.926316 0.000000 -0.000001  -0.749342 -0.842937 0.553399
34  11.368423 -0.000002 0.000001  -0.000000 0.000000 -2.450528
35  11.368418 0.000001 -0.000000  1.112222 0.649666 0.563621
36  0.876224 0.104085 1.358370  -2.286633 -0.428938 0.353362
37  2.373624 -0.000000 0.000000  -0.000000 0.000000 0.715517
38  1.071901 0.000001 0.000002  -0.000000 0.000000 0.017445
39  2.937887 -0.000905 1.136842  0.658810 -0.245274 -0.081114
40  1.136842 -0.000001 0.000000  -0.000000 0.000000 -0.000000
41  1.136839 0.000000 0.000002  0.000000 -0.000000 1.701693
42  2.937886 -0.000301 0.378949  0.248123 -0.595389 1.163434
43  1.326317 -0.000001 -0.000001  0.000000 -0.000000 0.959916
44  1.326316 -0.000000 -0.000001  0.000000 0.000000 0.706854
45  2.937886 0.000303 -0.378947  0.291062 -0.330429 1.180700
46  1.136843 -0.000001 0.000002  -0.000000 -0.000000 0.872634
47  1.136842 -0.000001 0.000000  0.000000 0.000000 0.427594
48  2.937886 0.000905 -1.136843  0.278754 -0.147605 1.451705
49  0.947368 0.000001 0.000000  0.000000 -0.000000 0.549769
50  0.947369 -0.000001 0.000002  -0.000000 -0.000000 0.130889
time 22
0  -0.001490 -2.722739 -24.602341  0.000000 -0.000000 1.570797
1  0.000000 -0.000000 0.000002  -1.570795 -1.570451 0.000000
2  1.326318 -0.003921 0.000002  -0.000004 -0.000001 0.000796
3  4.926309 -0.003923 0.000000  -0.000000 0.000000 -0.000000
4  4.926314 -0.003923 -0.000000  -0.000000 0.000000 0.000000
5  1.062401 11.167458 -5.893200  -1.569983 0.585209 -0.306224
6  -2.944952 -0.010475 -2.815031  0.000000 -0.000000 -0.000000
7  -2.844290 -0.796221 3.163408  0.000000 0.000000 -0.000000
8  -2.844289 -0.032287 3.975634  -0.000000 -0.000000 -0.000000
9  -2.783006 -0.009043 1.158093  -0.000000 -0.000000 -0.000000
10  -2.255527 0.213389 1.555573  -0.000000 -0.000000 0.000000
11  4.926313 -0.003923 0.000000  -0.000000 0.000000 -0.000000
12  4.926363 -0.001508 0.000000  -0.000000 -0.000000 0.059997
13  0.000002 0.001504 1.894737  1.399243 -1.473360 1.682936
14  4.926316 -0.000000 0.000001  0.447740 2.125935 0.341846
15  11.368427 -0.000000 -0.000002  -0.000000 -0.000000 -0.885112
16  11.368420 -0.000001 0.000001  -0.180977 -2.194917 -2.314251
17  1.126229 0.104085 -1.358367  2.526277 0.795826 0.832220
18  2.373625 -0.000001 0.000002  0.000000 -0.000000 0.383903
19  1.071908 -0.000100 -0.000036  0.000000 0.104371 0.017442
20  3.789474 -0.000905 -1.136840  0.059908 0.051339 0.795097
21  1.136842 0.000005 0.000001  0.000000 -0.000000 0.942466
22  1.136841 -0.000001 -0.000002  -0.000000 -0.000000 0.776666
23  3.789474 -0.000301 -0.378946  -0.052454 0.053337 1.097143
24  1.326318 -0.000001 0.000001  0.000000 0.000000 0.811570
25  1.326316 0.000001 -0.000000  0.000000 -0.000000 0.959922
26  3.789475 0.000304 0.378948  -0.203082 -0.051293 1.401495
27  1.136845 0.000001 -0.000000  0.000000 -0.000000 0.619574
28  1.136839 0.000000 -0.000000  -0.000000 -0.000000 1.021016
29  3.789474 0.000906 1.136843  -0.400983 -0.004658 1.608246
30  0.947367 -0.000004 0.000001  -0.000000 0.000000 0.698128
31  0.947367 -0.000001 0.000002  -0.000000 -0.000000 0.733038
32  0.000002 0.001514 -1.894737  -0.000045 1.370796 3.080786
33  4.926316 0.000000 -0.000001  -0.749342 -0.842937 0.553399
34  11.368423 -0.000002 0.000001  -0.000000 0.000000 -2.450528
35  11.368418 0.000001 -0.000000  1.112222 0.649666 0.563621
36  0.876224 0.104085 1.358370  -2.286633 -0.428938 0.353362
37  2.373624 -0.000000 0.000000  -0.000000 0.000000 0.715517
38  1.071901 0.000001 0.000002  -0.000000 0.000000 0.017445
39  2.937887 -0.000905 1.136842  0.658810 -0.245274 -0.081114
40  1.136842 -0.000001 0.000000  -0.000000 0.000000 -0.000000
41  1.136839 0.000000 0.000002  0.000000 -0.000000 1.701693
42  2.937886 -0.000301 0.378949  0.248123 -0.595389 1.163434
43  1.326317 -0.000001 -0.000001  0.000000 -0.000000 0.959916
44  1.326316 -0.000000 -0.000001  0.000000 0.000000 0.706854
45  2.937886 0.000303 -0.378947  0.291062 -0.330429 1.180700
46  1.136843 -0.000001 0.000002  -0.000000 -0.000000 0.872634
47  1.136842 -0.000001 0.000000  0.000000 0.000000 0.427594
48  2.937886 0.000905 -1.136843  0.278754 -0.147605 1.451705
49  0.947368 0.000001 0.000000  0.000000 -0.000000 0.549769
50  0.947369 -0.000001 0.000002  -0.000000 -0.000000 0.130889
time 23
0  -0.001490 -2.722739 -24.602341  0.000000 -0.000000 1.570797
1  0.000000 -0.000000 0.000002  -1.570795 -1.570451 0.000000
2  1.326318 -0.003921 0.000002  -0.000004 -0.000001 0.000796
3  4.926309 -0.003923 0.000000  -0.000000 0.000000 -0.000000
4  4.926314 -0.003923 -0.000000  -0.000000 0.000000 0.000000
5  0.961970 11.167559 -5.893199  -1.557499 0.574285 -0.276363
6  -2.944953 -0.010476 -2.815030  0.000000 -0.000000 0.000000
7  -2.844291 -0.796221 3.163409  -0.000000 0.000000 -0.000000
8  -2.844290 -0.032288 3.975633  0.000000 -0.000000 0.000000
9  -2.783007 -0.009044 1.158095  0.000000 0.000000 -0.000000
10  -2.255528 0.213388 1.555575  -0.000000 0.000000 0.000000
11  4.926313 -0.003923 0.000000  -0.000000 0.000000 -0.000000
12  4.926363 -0.001508 0.000000  -0.000000 -0.000000 0.059997
13  0.000002 0.001504 1.894737  1.399243 -1.473360 1.682936
14  4.926316 -0.000000 0.000001  0.446130 2.121162 0.343812
15  11.368429 0.000000 -0.000002  -0.000000 0.000000 -0.872464
16  11.368419 0.000001 0.000002  -0.218819 -2.175359 -2.285950
17  1.126227 0.104084 -1.358370  2.526277 0.795826 0.832220
18  2.373625 0.000003 0.000001  0.000000 -0.000000 0.383903
19  1.071908 -0.000098 -0.000038  0.000000 0.104371 0.017442
20  3.789471 -0.000906 -1.136842  0.059908 0.051339 0.795097
21  1.136843 0.000006 -0.000000  -0.000000 0.000000 0.942466
22  1.136840 -0.000002 -0.000000  0.000000 -0.000000 0.776666
23  3.789469 -0.000303 -0.378949  -0.052454 0.053337 1.097143
24  1.326317 -0.000001 0.000001  0.000000 0.000000 0.811570
25  1.326315 0.000001 -0.000000  0.000000 -0.000000 0.959922
26  3.789474 0.000303 0.378946  -0.203082 -0.051293 1.401495
27  1.136844 -0.000002 0.000000  0.000000 0.000000 0.619574
28  1.136839 0.000002 0.000001  0.000000 0.000000 1.021016
29  3.789471 0.000905 1.136840  -0.400983 -0.004658 1.608246
30  0.947369 0.000001 0.000001  -0.000000 0.000000 0.698128
31  0.947368 0.000003 0.000002  -0.000000 -0.000000 0.733038
32  0.000002 0.001514 -1.894737  -0.000045 1.370796 3.080786
33  4.926316 0.000000 -0.000001  -0.749342 -0.842937 0.553399
34  11.368423 -0.000002 0.000001  -0.000000 0.000000 -2.450528
35  11.368418 0.000001 -0.000000  1.112222 0.649666 0.563621
36  0.876224 0.104085 1.358370  -2.286633 -0.428938 0.353362
37  2.373624 -0.000000 0.000000  -0.000000 0.000000 0.715517
38  1.071901 0.000001 0.000002  -0.000000 0.000000 0.017445
39  2.937887 -0.000905 1.136842  0.658810 -0.245274 -0.081114
40  1.136842 -0.000001 0.000000  -0.000000 0.000000 -0.000000
41  1.136839 0.000000 0.000002  0.000000 -0.000000 1.701693
42  2.937886 -0.000301 0.378949  0.248123 -0.595389 1.163434
43  1.326317 -0.000001 -0.000001  0.000000 -0.000000 0.959916
44  1.326316 -0.000000 -0.000001  0.000000 0.000000 0.706854
45  2.937886 0.000303 -0.378947  0.291062 -0.330429 1.180700
46  1.136843 -0.000001 0.000002  -0.000000 -0.000000 0.872634
47  1.136842 -0.000001 0.000000  0.000000 0.000000 0.427594
48  2.937886 0.000905 -1.136843  0.278754 -0.147605 1.451705
49  0.947368 0.000001 0.000000  0.000000 -0.000000 0.549769
50  0.947369 -0.000001 0.000002  -0.000000 -0.000000 0.130889
end
