// Created by Crowbar 0.56
version 1
nodes
  0 "static_prop" -1
end
skeleton
  time 0
    0 0.000000 0.000000 0.000000 0.000000 0.000000 0.000000
end
triangles
HandrailMetal001a
  0 4.954800 1.000500 19.134001 0.930828 0.316509 0.182705 0.518200 0.847900 1 0 1.000000
  0 4.954800 0.500500 20.000000 0.930828 0.316509 0.182705 0.509100 0.863600 1 0 1.000000
  0 5.294800 0.000500 19.134001 0.930828 0.316509 0.182705 0.500000 0.847900 1 0 1.000000
HandrailMetal001a
  0 -3.946700 -0.030700 19.158100 0.000000 -1.000000 0.000000 0.434200 0.848100 1 0 1.000000
  0 0.403900 -0.030700 17.673700 0.000000 -1.000000 0.000000 0.500500 0.821300 1 0 1.000000
  0 0.404000 -0.030700 19.149099 0.000000 -1.000000 0.000000 0.500500 0.848200 1 0 1.000000
HandrailMetal001a
  0 0.403900 -0.030700 17.673700 0.000000 -1.000000 0.000000 0.500500 0.821300 1 0 1.000000
  0 -3.946700 -0.030700 19.158100 0.000000 -1.000000 0.000000 0.434200 0.848100 1 0 1.000000
  0 -3.946700 -0.030700 15.702800 0.000000 -1.000000 0.000000 0.435700 0.785300 1 0 1.000000
HandrailMetal001a
  0 -3.946700 -0.877400 -19.455099 -1.000000 0.000000 0.000000 0.516000 0.146300 1 0 1.000000
  0 -3.946700 0.816000 -19.455099 -1.000000 0.000000 0.000000 0.485200 0.146300 1 0 1.000000
  0 -3.946700 0.816000 -20.000000 -1.000000 0.000000 0.000000 0.485200 0.136400 1 0 1.000000
HandrailMetal001a
  0 -3.946700 0.816000 -20.000000 -1.000000 0.000000 0.000000 0.485200 0.136400 1 0 1.000000
  0 -3.946700 -0.877400 -20.000000 -1.000000 0.000000 0.000000 0.516000 0.136400 1 0 1.000000
  0 -3.946700 -0.877400 -19.455099 -1.000000 0.000000 0.000000 0.516000 0.146300 1 0 1.000000
HandrailMetal001a
  0 -3.946700 0.816000 -19.455099 0.000000 1.000000 0.000000 0.581700 0.146300 1 0 1.000000
  0 -0.634900 0.816000 -19.455099 0.000000 1.000000 0.000000 0.525200 0.146300 1 0 1.000000
  0 -0.634900 0.816000 -20.000000 0.000000 1.000000 0.000000 0.525200 0.136400 1 0 1.000000
HandrailMetal001a
  0 -0.634900 0.816000 -20.000000 0.000000 1.000000 0.000000 0.525200 0.136400 1 0 1.000000
  0 -3.946700 0.816000 -20.000000 0.000000 1.000000 0.000000 0.581700 0.136400 1 0 1.000000
  0 -3.946700 0.816000 -19.455099 0.000000 1.000000 0.000000 0.581700 0.146300 1 0 1.000000
HandrailMetal001a
  0 -0.634900 0.816000 -19.455099 1.000000 0.000000 0.000000 0.514800 0.146300 1 0 1.000000
  0 -0.634900 -0.877400 -19.455099 1.000000 0.000000 0.000000 0.484000 0.146300 1 0 1.000000
  0 -0.634900 -0.877400 -20.000000 1.000000 0.000000 0.000000 0.484000 0.136400 1 0 1.000000
HandrailMetal001a
  0 -0.634900 -0.877400 -20.000000 1.000000 0.000000 0.000000 0.484000 0.136400 1 0 1.000000
  0 -0.634900 0.816000 -20.000000 1.000000 0.000000 0.000000 0.514800 0.136400 1 0 1.000000
  0 -0.634900 0.816000 -19.455099 1.000000 0.000000 0.000000 0.514800 0.146300 1 0 1.000000
HandrailMetal001a
  0 -0.634900 -0.877400 -19.455099 0.000000 -1.000000 0.000000 0.474800 0.146300 1 0 1.000000
  0 -3.946700 -0.877400 -19.455099 0.000000 -1.000000 0.000000 0.418300 0.146300 1 0 1.000000
  0 -3.946700 -0.877400 -20.000000 0.000000 -1.000000 0.000000 0.418300 0.136400 1 0 1.000000
HandrailMetal001a
  0 -3.946700 -0.877400 -20.000000 0.000000 -1.000000 0.000000 0.418300 0.136400 1 0 1.000000
  0 -0.634900 -0.877400 -20.000000 0.000000 -1.000000 0.000000 0.474800 0.136400 1 0 1.000000
  0 -0.634900 -0.877400 -19.455099 0.000000 -1.000000 0.000000 0.474800 0.146300 1 0 1.000000
HandrailMetal001a
  0 -0.634900 0.816000 -19.455099 0.000000 0.000000 1.000000 0.474800 0.514800 1 0 1.000000
  0 -3.946700 0.816000 -19.455099 0.000000 0.000000 1.000000 0.418300 0.514800 1 0 1.000000
  0 -3.946700 -0.877400 -19.455099 0.000000 0.000000 1.000000 0.418300 0.484000 1 0 1.000000
HandrailMetal001a
  0 -3.946700 -0.877400 -19.455099 0.000000 0.000000 1.000000 0.418300 0.484000 1 0 1.000000
  0 -0.634900 -0.877400 -19.455099 0.000000 0.000000 1.000000 0.474800 0.484000 1 0 1.000000
  0 -0.634900 0.816000 -19.455099 0.000000 0.000000 1.000000 0.474800 0.514800 1 0 1.000000
HandrailMetal001a
  0 -0.634900 0.816000 -20.000000 0.000000 0.000000 -1.000000 0.525200 0.514800 1 0 1.000000
  0 -0.634900 -0.877400 -20.000000 0.000000 0.000000 -1.000000 0.525200 0.484000 1 0 1.000000
  0 -3.946700 -0.877400 -20.000000 0.000000 0.000000 -1.000000 0.581700 0.484000 1 0 1.000000
HandrailMetal001a
  0 -3.946700 -0.877400 -20.000000 0.000000 0.000000 -1.000000 0.581700 0.484000 1 0 1.000000
  0 -3.946700 0.816000 -20.000000 0.000000 0.000000 -1.000000 0.581700 0.514800 1 0 1.000000
  0 -0.634900 0.816000 -20.000000 0.000000 0.000000 -1.000000 0.525200 0.514800 1 0 1.000000
HandrailMetal001a
  0 -3.946700 -0.499500 18.280899 -0.001400 -0.327306 -0.944917 0.582600 0.490900 1 0 1.000000
  0 4.954800 0.500500 18.268000 -0.001400 0.327306 -0.944917 0.423600 0.509100 1 0 1.000000
  0 4.954800 -0.499500 18.268000 -0.001100 -0.654694 -0.755893 0.423600 0.490900 1 0 1.000000
HandrailMetal001a
  0 -3.946700 -0.499500 18.280899 -0.001400 -0.327306 -0.944917 0.582600 0.490900 1 0 1.000000
  0 -3.946700 0.500500 18.280899 -0.001100 0.654694 -0.755893 0.582600 0.509100 1 0 1.000000
  0 4.954800 0.500500 18.268000 -0.001400 0.327306 -0.944917 0.423600 0.509100 1 0 1.000000
HandrailMetal001a
  0 -3.946700 0.500500 20.013000 0.001400 0.327306 0.944917 0.417400 0.509100 1 0 1.000000
  0 4.954800 -0.499500 20.000000 0.001400 -0.327306 0.944917 0.576400 0.490900 1 0 1.000000
  0 4.954800 0.500500 20.000000 0.001100 0.654694 0.755893 0.576400 0.509100 1 0 1.000000
HandrailMetal001a
  0 -3.946700 0.500500 20.013000 0.001400 0.327306 0.944917 0.417400 0.509100 1 0 1.000000
  0 -3.946700 -0.499500 20.013000 0.001100 -0.654694 0.755893 0.417400 0.490900 1 0 1.000000
  0 4.954800 -0.499500 20.000000 0.001400 -0.327306 0.944917 0.576400 0.490900 1 0 1.000000
HandrailMetal001a
  0 -3.946700 -0.499500 20.013000 0.001100 -0.654694 0.755893 0.417400 0.863600 1 0 1.000000
  0 4.954800 -0.999500 19.134001 0.000300 -0.981978 0.188996 0.576400 0.847900 1 0 1.000000
  0 4.954800 -0.499500 20.000000 0.001400 -0.327306 0.944917 0.576400 0.863600 1 0 1.000000
HandrailMetal001a
  0 -3.946700 -0.499500 20.013000 0.001100 -0.654694 0.755893 0.417400 0.863600 1 0 1.000000
  0 -3.946700 -0.999500 19.146900 -0.000300 -0.981978 -0.188996 0.417400 0.847900 1 0 1.000000
  0 4.954800 -0.999500 19.134001 0.000300 -0.981978 0.188996 0.576400 0.847900 1 0 1.000000
HandrailMetal001a
  0 -3.946700 -0.999500 19.146900 -0.000300 -0.981978 -0.188996 0.417400 0.847900 1 0 1.000000
  0 4.954800 -0.499500 18.268000 -0.001100 -0.654694 -0.755893 0.576400 0.832100 1 0 1.000000
  0 4.954800 -0.999500 19.134001 0.000300 -0.981978 0.188996 0.576400 0.847900 1 0 1.000000
HandrailMetal001a
  0 -3.946700 -0.999500 19.146900 -0.000300 -0.981978 -0.188996 0.417400 0.847900 1 0 1.000000
  0 -3.946700 -0.499500 18.280899 -0.001400 -0.327306 -0.944917 0.417400 0.832100 1 0 1.000000
  0 4.954800 -0.499500 18.268000 -0.001100 -0.654694 -0.755893 0.576400 0.832100 1 0 1.000000
HandrailMetal001a
  0 -3.946700 0.500500 18.280899 -0.001100 0.654694 -0.755893 0.582600 0.832100 1 0 1.000000
  0 4.954800 1.000500 19.134001 -0.000300 0.981978 -0.188996 0.423600 0.847900 1 0 1.000000
  0 4.954800 0.500500 18.268000 -0.001400 0.327306 -0.944917 0.423600 0.832100 1 0 1.000000
HandrailMetal001a
  0 -3.946700 0.500500 18.280899 -0.001100 0.654694 -0.755893 0.582600 0.832100 1 0 1.000000
  0 -3.946700 1.000500 19.146900 0.000300 0.981978 0.188996 0.582600 0.847900 1 0 1.000000
  0 4.954800 1.000500 19.134001 -0.000300 0.981978 -0.188996 0.423600 0.847900 1 0 1.000000
HandrailMetal001a
  0 -3.946700 1.000500 19.146900 0.000300 0.981978 0.188996 0.582600 0.847900 1 0 1.000000
  0 4.954800 0.500500 20.000000 0.001100 0.654694 0.755893 0.423600 0.863600 1 0 1.000000
  0 4.954800 1.000500 19.134001 -0.000300 0.981978 -0.188996 0.423600 0.847900 1 0 1.000000
HandrailMetal001a
  0 -3.946700 1.000500 19.146900 0.000300 0.981978 0.188996 0.582600 0.847900 1 0 1.000000
  0 -3.946700 0.500500 20.013000 0.001400 0.327306 0.944917 0.582600 0.863600 1 0 1.000000
  0 4.954800 0.500500 20.000000 0.001100 0.654694 0.755893 0.423600 0.863600 1 0 1.000000
HandrailMetal001a
  0 4.954800 0.500500 18.268000 0.930828 0.316509 -0.182705 0.509100 0.832100 1 0 1.000000
  0 4.954800 1.000500 19.134001 0.930828 0.316509 -0.182705 0.518200 0.847900 1 0 1.000000
  0 5.294800 0.000500 19.134001 0.930828 0.316509 -0.182705 0.500000 0.847900 1 0 1.000000
HandrailMetal001a
  0 0.404000 -0.030700 19.149099 0.000000 1.000000 0.000000 0.499500 0.848200 1 0 1.000000
  0 0.403900 -0.030700 17.673700 0.000000 1.000000 0.000000 0.499500 0.821300 1 0 1.000000
  0 -3.946700 -0.030700 19.158100 0.000000 1.000000 0.000000 0.565800 0.848100 1 0 1.000000
HandrailMetal001a
  0 -3.946700 -0.030700 19.158100 0.000000 1.000000 0.000000 0.565800 0.848100 1 0 1.000000
  0 0.403900 -0.030700 17.673700 0.000000 1.000000 0.000000 0.499500 0.821300 1 0 1.000000
  0 -3.946700 -0.030700 15.702800 0.000000 1.000000 0.000000 0.564300 0.785300 1 0 1.000000
HandrailMetal001a
  0 4.954800 0.500500 20.000000 0.930844 0.000000 0.365417 0.509100 0.863600 1 0 1.000000
  0 4.954800 -0.499500 20.000000 0.930844 0.000000 0.365417 0.490900 0.863600 1 0 1.000000
  0 5.294800 0.000500 19.134001 0.930844 0.000000 0.365417 0.500000 0.847900 1 0 1.000000
HandrailMetal001a
  0 4.954800 -0.499500 18.268000 0.930844 0.000000 -0.365417 0.490900 0.832100 1 0 1.000000
  0 4.954800 0.500500 18.268000 0.930844 0.000000 -0.365417 0.509100 0.832100 1 0 1.000000
  0 5.294800 0.000500 19.134001 0.930844 0.000000 -0.365417 0.500000 0.847900 1 0 1.000000
HandrailMetal001a
  0 4.954800 -0.499500 20.000000 0.930828 -0.316509 0.182705 0.490900 0.863600 1 0 1.000000
  0 4.954800 -0.999500 19.134001 0.930828 -0.316509 0.182705 0.481800 0.847900 1 0 1.000000
  0 5.294800 0.000500 19.134001 0.930828 -0.316509 0.182705 0.500000 0.847900 1 0 1.000000
HandrailMetal001a
  0 4.954800 -0.999500 19.134001 0.930828 -0.316509 -0.182705 0.481800 0.847900 1 0 1.000000
  0 4.954800 -0.499500 18.268000 0.930828 -0.316509 -0.182705 0.490900 0.832100 1 0 1.000000
  0 5.294800 0.000500 19.134001 0.930828 -0.316509 -0.182705 0.500000 0.847900 1 0 1.000000
end
