// Created by Crowbar 0.56
version 1
nodes
  0 "static_prop" -1
end
skeleton
  time 0
    0 0.000000 0.000000 0.000000 0.000000 0.000000 0.000000
end
triangles
HandrailMetal001a
  0 16.608000 -0.760599 30.678801 -0.576090 0.000000 0.817386 0.543400 0.703500 1 0 1.000000
  0 18.067900 -0.760599 31.707701 -0.576090 0.000000 0.817386 0.492900 0.714700 1 0 1.000000
  0 18.067900 0.699201 31.707701 -0.576090 0.000000 0.817386 0.442400 0.725800 1 0 1.000000
HandrailMetal001a
  0 18.067900 0.699201 31.707701 -0.576090 0.000000 0.817386 0.644400 0.681100 1 0 1.000000
  0 16.608000 0.699201 30.678801 -1.000000 0.000000 0.000000 0.593900 0.692300 1 0 1.000000
  0 16.608000 -0.760599 30.678801 -0.576090 0.000000 0.817386 0.543400 0.703500 1 0 1.000000
HandrailMetal001a
  0 16.608000 0.699201 -12.722100 -1.000000 0.000000 0.000000 0.594700 0.007600 1 0 1.000000
  0 16.608000 -0.760599 30.678801 -0.576090 0.000000 0.817386 0.543400 0.703500 1 0 1.000000
  0 16.608000 0.699201 30.678801 -1.000000 0.000000 0.000000 0.593900 0.692300 1 0 1.000000
HandrailMetal001a
  0 -92.347038 0.816041 -83.941368 -0.057302 0.158570 -0.985683 0.504653 0.890796 1 0 1.000000
  0 -87.660896 -0.877404 -84.486198 0.000000 0.000000 -1.000000 0.336800 0.849500 1 0 1.000000
  0 -92.347000 -0.877404 -84.486198 0.000000 0.000000 -1.000000 0.504700 0.849500 1 0 1.000000
HandrailMetal001a
  0 -92.347038 0.816041 -83.941368 -0.057302 0.158570 -0.985683 0.504653 0.890796 1 0 1.000000
  0 -87.660896 0.815996 -84.486198 0.000000 0.000000 -1.000000 0.336800 0.890800 1 0 1.000000
  0 -87.660896 -0.877404 -84.486198 0.000000 0.000000 -1.000000 0.336800 0.849500 1 0 1.000000
HandrailMetal001a
  0 -18.612499 -0.504681 -12.086033 0.564677 0.000000 -0.825312 0.835640 -0.351791 1 0 1.000000
  0 17.079472 0.443276 12.334316 0.564677 0.000000 -0.825312 0.733847 0.720203 1 0 1.000000
  0 17.079472 -0.504681 12.334316 0.564677 0.000000 -0.825312 0.832881 0.735685 1 0 1.000000
HandrailMetal001a
  0 -18.612499 -0.504681 -12.086033 0.564677 0.000000 -0.825312 0.835640 -0.351791 1 0 1.000000
  0 -18.612499 0.443276 -12.086033 0.564677 0.000000 -0.825312 0.731793 -0.368247 1 0 1.000000
  0 17.079472 0.443276 12.334316 0.564677 0.000000 -0.825312 0.733847 0.720203 1 0 1.000000
HandrailMetal001a
  0 -54.283367 -0.504680 -36.480431 0.564676 0.000000 -0.825312 0.843702 -1.870448 1 0 1.000000
  0 -18.591389 0.443277 -12.060081 0.564676 0.000000 -0.825312 0.951966 -0.798454 1 0 1.000000
  0 -18.591389 -0.504680 -12.060081 0.564676 0.000000 -0.825312 0.845944 -0.782972 1 0 1.000000
HandrailMetal001a
  0 -54.283367 -0.504680 -36.480431 0.564676 0.000000 -0.825312 0.843702 -1.870448 1 0 1.000000
  0 -54.283367 0.443277 -36.480431 0.564676 0.000000 -0.825312 0.954479 -1.886904 1 0 1.000000
  0 -18.591389 0.443277 -12.060081 0.564676 0.000000 -0.825312 0.951966 -0.798454 1 0 1.000000
HandrailMetal001a
  0 53.992649 -0.504683 37.518024 0.564677 0.000007 -0.825312 0.854997 1.427352 1 0 1.000000
  0 89.684608 0.443275 61.938389 0.564677 0.000007 -0.825312 0.941179 2.499347 1 0 1.000000
  0 89.684608 -0.504682 61.938389 0.564677 0.000007 -0.825312 0.859519 2.514828 1 0 1.000000
HandrailMetal001a
  0 53.992649 -0.504683 37.518024 0.564677 0.000007 -0.825312 0.854997 1.427352 1 0 1.000000
  0 53.992649 0.443274 37.518040 0.564677 0.000007 -0.825312 0.942415 1.410896 1 0 1.000000
  0 89.684608 0.443275 61.938389 0.564677 0.000007 -0.825312 0.941179 2.499347 1 0 1.000000
HandrailMetal001a
  0 -87.660912 -0.877390 -84.486221 0.057302 -0.158570 0.985683 0.615372 0.827488 1 0 1.000000
  0 -92.347000 0.815996 -83.941399 0.000000 0.000000 1.000000 0.447500 0.868800 1 0 1.000000
  0 -92.347038 -0.877390 -84.486221 0.057302 -0.158570 0.985683 0.447523 0.827488 1 0 1.000000
HandrailMetal001a
  0 -87.660912 -0.877390 -84.486221 0.057302 -0.158570 0.985683 0.615372 0.827488 1 0 1.000000
  0 -87.660912 0.816039 -84.486221 0.057302 -0.158570 0.985683 0.615372 0.868750 1 0 1.000000
  0 -92.347000 0.815996 -83.941399 0.000000 0.000000 1.000000 0.447500 0.868800 1 0 1.000000
HandrailMetal001a
  0 89.684601 -0.504696 61.938400 -0.564698 0.000000 0.825297 0.859500 2.514800 1 0 1.000000
  0 53.992599 0.443302 37.518002 -0.564698 0.000000 0.825297 0.793400 1.427400 1 0 1.000000
  0 53.992599 -0.504698 37.518002 -0.564698 0.000000 0.825297 0.855000 1.427400 1 0 1.000000
HandrailMetal001a
  0 89.684601 -0.504696 61.938400 -0.564698 0.000000 0.825297 0.859500 2.514800 1 0 1.000000
  0 89.684601 0.443304 61.938400 -0.564698 0.000000 0.825297 0.788900 2.514800 1 0 1.000000
  0 53.992599 0.443302 37.518002 -0.564698 0.000000 0.825297 0.793400 1.427400 1 0 1.000000
HandrailMetal001a
  0 17.700321 -0.504682 12.650921 0.564677 0.000007 -0.825312 0.851486 1.100379 1 0 1.000000
  0 53.392292 0.443275 37.071285 0.564677 0.000007 -0.825312 0.941798 2.172373 1 0 1.000000
  0 53.392292 -0.504682 37.071278 0.564677 0.000007 -0.825312 0.855505 2.187854 1 0 1.000000
HandrailMetal001a
  0 17.700321 -0.504682 12.650921 0.564677 0.000007 -0.825312 0.851486 1.100379 1 0 1.000000
  0 17.700321 0.443275 12.650928 0.564677 0.000007 -0.825312 0.943202 1.083923 1 0 1.000000
  0 53.392292 0.443275 37.071285 0.564677 0.000007 -0.825312 0.941798 2.172373 1 0 1.000000
HandrailMetal001a
  0 15.646500 0.816001 -14.053900 0.573570 0.000000 -0.819157 0.504700 0.890800 1 0 1.000000
  0 19.485201 -0.877399 -11.366000 0.573570 0.000000 -0.819157 0.336800 0.849500 1 0 1.000000
  0 15.646500 -0.877399 -14.053900 0.573570 0.000000 -0.819157 0.504700 0.849500 1 0 1.000000
HandrailMetal001a
  0 15.646500 0.816001 -14.053900 0.573570 0.000000 -0.819157 0.504700 0.890800 1 0 1.000000
  0 19.485201 0.816001 -11.366000 0.573570 0.000000 -0.819157 0.336800 0.890800 1 0 1.000000
  0 19.485201 -0.877399 -11.366000 0.573570 0.000000 -0.819157 0.336800 0.849500 1 0 1.000000
HandrailMetal001a
  0 -52.233509 -0.877390 -59.093853 -0.573576 0.000000 0.819152 0.615372 0.827488 1 0 1.000000
  0 -56.072163 0.816040 -61.781704 -0.573576 0.000000 0.819152 0.447523 0.868750 1 0 1.000000
  0 -56.072163 -0.877390 -61.781704 -0.573576 0.000000 0.819152 0.447523 0.827488 1 0 1.000000
HandrailMetal001a
  0 -52.233509 -0.877390 -59.093853 -0.573576 0.000000 0.819152 0.615372 0.827488 1 0 1.000000
  0 -52.233509 0.816039 -59.093853 -0.573576 0.000000 0.819152 0.615372 0.868750 1 0 1.000000
  0 -56.072163 0.816040 -61.781704 -0.573576 0.000000 0.819152 0.447523 0.868750 1 0 1.000000
HandrailMetal001a
  0 55.865971 -0.877393 12.884620 -0.573576 0.000000 0.819152 0.615372 0.827488 1 0 1.000000
  0 52.027317 0.816037 10.196770 -0.573576 0.000000 0.819152 0.447523 0.868750 1 0 1.000000
  0 52.027317 -0.877392 10.196770 -0.573576 0.000000 0.819152 0.447523 0.827488 1 0 1.000000
HandrailMetal001a
  0 55.865971 -0.877393 12.884620 -0.573576 0.000000 0.819152 0.615372 0.827488 1 0 1.000000
  0 55.865971 0.816036 12.884620 -0.573576 0.000000 0.819152 0.615372 0.868750 1 0 1.000000
  0 52.027317 0.816037 10.196770 -0.573576 0.000000 0.819152 0.447523 0.868750 1 0 1.000000
HandrailMetal001a
  0 17.079500 -0.504699 12.334300 -0.564698 0.000000 0.825297 0.832900 0.735700 1 0 1.000000
  0 -18.612499 0.443299 -12.086000 -0.564698 0.000000 0.825297 0.879600 -0.351800 1 0 1.000000
  0 -18.612499 -0.504701 -12.086000 -0.564698 0.000000 0.825297 0.835600 -0.351800 1 0 1.000000
HandrailMetal001a
  0 17.079500 -0.504699 12.334300 -0.564698 0.000000 0.825297 0.832900 0.735700 1 0 1.000000
  0 17.079500 0.443301 12.334300 -0.564698 0.000000 0.825297 0.882400 0.735700 1 0 1.000000
  0 -18.612499 0.443299 -12.086000 -0.564698 0.000000 0.825297 0.879600 -0.351800 1 0 1.000000
HandrailMetal001a
  0 -90.062721 -0.504680 -60.997417 0.564676 0.000000 -0.825312 0.838609 -1.022298 1 0 1.000000
  0 -54.370747 0.443278 -36.577068 0.564676 0.000000 -0.825312 0.726243 0.049696 1 0 1.000000
  0 -54.370747 -0.504679 -36.577072 0.564676 0.000000 -0.825312 0.836625 0.065177 1 0 1.000000
HandrailMetal001a
  0 -90.062721 -0.504680 -60.997417 0.564676 0.000000 -0.825312 0.838609 -1.022298 1 0 1.000000
  0 -90.062721 0.443277 -60.997421 0.564676 0.000000 -0.825312 0.723434 -1.038755 1 0 1.000000
  0 -54.370747 0.443278 -36.577068 0.564676 0.000000 -0.825312 0.726243 0.049696 1 0 1.000000
HandrailMetal001a
  0 -16.810223 -0.877391 -35.563271 -0.573577 0.000000 0.819152 0.615372 0.827488 1 0 1.000000
  0 -20.648876 0.816038 -38.251125 -0.573577 0.000000 0.819152 0.447523 0.868750 1 0 1.000000
  0 -20.648876 -0.877391 -38.251125 -0.573577 0.000000 0.819152 0.447523 0.827488 1 0 1.000000
HandrailMetal001a
  0 -16.810223 -0.877391 -35.563271 -0.573577 0.000000 0.819152 0.615372 0.827488 1 0 1.000000
  0 -16.810223 0.816038 -35.563271 -0.573577 0.000000 0.819152 0.615372 0.868750 1 0 1.000000
  0 -20.648876 0.816038 -38.251125 -0.573577 0.000000 0.819152 0.447523 0.868750 1 0 1.000000
HandrailMetal001a
  0 -20.648899 0.815999 -38.251099 0.573570 0.000000 -0.819157 0.504700 0.890800 1 0 1.000000
  0 -16.810200 -0.877401 -35.563301 0.573570 0.000000 -0.819157 0.336800 0.849500 1 0 1.000000
  0 -20.648899 -0.877401 -38.251099 0.573570 0.000000 -0.819157 0.504700 0.849500 1 0 1.000000
HandrailMetal001a
  0 -20.648899 0.815999 -38.251099 0.573570 0.000000 -0.819157 0.504700 0.890800 1 0 1.000000
  0 -16.810200 0.815999 -35.563301 0.573570 0.000000 -0.819157 0.336800 0.890800 1 0 1.000000
  0 -16.810200 -0.877401 -35.563301 0.573570 0.000000 -0.819157 0.336800 0.849500 1 0 1.000000
HandrailMetal001a
  0 91.585091 -0.877393 36.645573 -0.573576 0.000000 0.819152 0.615372 0.827488 1 0 1.000000
  0 87.746437 0.816037 33.957722 -0.573576 0.000000 0.819152 0.447523 0.868750 1 0 1.000000
  0 87.746437 -0.877392 33.957722 -0.573576 0.000000 0.819152 0.447523 0.827488 1 0 1.000000
HandrailMetal001a
  0 91.585091 -0.877393 36.645573 -0.573576 0.000000 0.819152 0.615372 0.827488 1 0 1.000000
  0 91.585091 0.816036 36.645573 -0.573576 0.000000 0.819152 0.615372 0.868750 1 0 1.000000
  0 87.746437 0.816037 33.957722 -0.573576 0.000000 0.819152 0.447523 0.868750 1 0 1.000000
HandrailMetal001a
  0 -56.072201 0.815998 -61.781700 0.573570 0.000000 -0.819157 0.504700 0.890800 1 0 1.000000
  0 -52.233501 -0.877402 -59.093899 0.573570 0.000000 -0.819157 0.336800 0.849500 1 0 1.000000
  0 -56.072201 -0.877402 -61.781700 0.573570 0.000000 -0.819157 0.504700 0.849500 1 0 1.000000
HandrailMetal001a
  0 -56.072201 0.815998 -61.781700 0.573570 0.000000 -0.819157 0.504700 0.890800 1 0 1.000000
  0 -52.233501 0.815998 -59.093899 0.573570 0.000000 -0.819157 0.336800 0.890800 1 0 1.000000
  0 -52.233501 -0.877402 -59.093899 0.573570 0.000000 -0.819157 0.336800 0.849500 1 0 1.000000
HandrailMetal001a
  0 -18.591400 -0.504701 -12.060100 -0.564698 0.000000 0.825297 0.845900 -0.783000 1 0 1.000000
  0 -54.283401 0.443298 -36.480400 -0.564698 0.000000 0.825297 0.804700 -1.870400 1 0 1.000000
  0 -54.283401 -0.504702 -36.480400 -0.564698 0.000000 0.825297 0.843700 -1.870400 1 0 1.000000
HandrailMetal001a
  0 -18.591400 -0.504701 -12.060100 -0.564698 0.000000 0.825297 0.845900 -0.783000 1 0 1.000000
  0 -18.591400 0.443299 -12.060100 -0.564698 0.000000 0.825297 0.802500 -0.783000 1 0 1.000000
  0 -54.283401 0.443298 -36.480400 -0.564698 0.000000 0.825297 0.804700 -1.870400 1 0 1.000000
HandrailMetal001a
  0 87.746399 0.816004 33.957699 0.573570 0.000000 -0.819157 0.504700 0.890800 1 0 1.000000
  0 91.585098 -0.877396 36.645599 0.573570 0.000000 -0.819157 0.336800 0.849500 1 0 1.000000
  0 87.746399 -0.877396 33.957699 0.573570 0.000000 -0.819157 0.504700 0.849500 1 0 1.000000
HandrailMetal001a
  0 87.746399 0.816004 33.957699 0.573570 0.000000 -0.819157 0.504700 0.890800 1 0 1.000000
  0 91.585098 0.816004 36.645599 0.573570 0.000000 -0.819157 0.336800 0.890800 1 0 1.000000
  0 91.585098 -0.877396 36.645599 0.573570 0.000000 -0.819157 0.336800 0.849500 1 0 1.000000
HandrailMetal001a
  0 -54.370701 -0.504702 -36.577099 -0.564698 0.000000 0.825297 0.836600 0.065200 1 0 1.000000
  0 -90.062698 0.443296 -60.997398 -0.564698 0.000000 0.825297 0.875000 -1.022300 1 0 1.000000
  0 -90.062698 -0.504704 -60.997398 -0.564698 0.000000 0.825297 0.838600 -1.022300 1 0 1.000000
HandrailMetal001a
  0 -54.370701 -0.504702 -36.577099 -0.564698 0.000000 0.825297 0.836600 0.065200 1 0 1.000000
  0 -54.370701 0.443298 -36.577099 -0.564698 0.000000 0.825297 0.877000 0.065200 1 0 1.000000
  0 -90.062698 0.443296 -60.997398 -0.564698 0.000000 0.825297 0.875000 -1.022300 1 0 1.000000
HandrailMetal001a
  0 52.027302 0.816002 10.196800 0.573570 0.000000 -0.819157 0.504700 0.890800 1 0 1.000000
  0 55.866001 -0.877398 12.884600 0.573570 0.000000 -0.819157 0.336800 0.849500 1 0 1.000000
  0 52.027302 -0.877398 10.196800 0.573570 0.000000 -0.819157 0.504700 0.849500 1 0 1.000000
HandrailMetal001a
  0 52.027302 0.816002 10.196800 0.573570 0.000000 -0.819157 0.504700 0.890800 1 0 1.000000
  0 55.866001 0.816002 12.884600 0.573570 0.000000 -0.819157 0.336800 0.890800 1 0 1.000000
  0 55.866001 -0.877398 12.884600 0.573570 0.000000 -0.819157 0.336800 0.849500 1 0 1.000000
HandrailMetal001a
  0 53.392300 -0.504698 37.071301 -0.564698 0.000000 0.825297 0.855500 2.187900 1 0 1.000000
  0 17.700300 0.443301 12.650900 -0.564698 0.000000 0.825297 0.795300 1.100400 1 0 1.000000
  0 17.700300 -0.504699 12.650900 -0.564698 0.000000 0.825297 0.851500 1.100400 1 0 1.000000
HandrailMetal001a
  0 53.392300 -0.504698 37.071301 -0.564698 0.000000 0.825297 0.855500 2.187900 1 0 1.000000
  0 53.392300 0.443302 37.071301 -0.564698 0.000000 0.825297 0.791300 2.187900 1 0 1.000000
  0 17.700300 0.443301 12.650900 -0.564698 0.000000 0.825297 0.795300 1.100400 1 0 1.000000
HandrailMetal001a
  0 19.485203 -0.877392 -11.366013 -0.573576 0.000000 0.819152 0.615372 0.827488 1 0 1.000000
  0 15.646548 0.816038 -14.053867 -0.573576 0.000000 0.819152 0.447523 0.868750 1 0 1.000000
  0 15.646548 -0.877391 -14.053867 -0.573576 0.000000 0.819152 0.447523 0.827488 1 0 1.000000
HandrailMetal001a
  0 19.485203 -0.877392 -11.366013 -0.573576 0.000000 0.819152 0.615372 0.827488 1 0 1.000000
  0 19.485203 0.816037 -11.366013 -0.573576 0.000000 0.819152 0.615372 0.868750 1 0 1.000000
  0 15.646548 0.816038 -14.053867 -0.573576 0.000000 0.819152 0.447523 0.868750 1 0 1.000000
HandrailMetal001a
  0 90.167732 0.699248 35.289524 0.451222 -0.892295 -0.014411 0.298072 0.007588 1 0 1.000000
  0 88.707901 -0.760596 79.969002 0.000000 -1.000000 0.000000 0.402200 0.704600 1 0 1.000000
  0 88.707863 0.699248 35.289524 0.451222 -0.892295 -0.014411 0.453233 0.007588 1 0 1.000000
HandrailMetal001a
  0 90.167732 0.699248 35.289524 0.451222 -0.892295 -0.014411 0.298072 0.007588 1 0 1.000000
  0 90.167732 0.699245 80.997940 0.451222 -0.892295 -0.014411 0.303041 0.734004 1 0 1.000000
  0 88.707901 -0.760596 79.969002 0.000000 -1.000000 0.000000 0.402200 0.704600 1 0 1.000000
HandrailMetal001a
  0 16.608000 0.699201 -12.722100 0.000000 1.000000 0.000000 0.594700 0.007600 1 0 1.000000
  0 18.067900 0.699201 31.707701 0.000000 1.000000 0.000000 0.644400 0.681100 1 0 1.000000
  0 18.067860 -0.760603 -12.722054 0.451340 0.892229 -0.014830 0.646442 0.007588 1 0 1.000000
HandrailMetal001a
  0 16.608000 0.699201 -12.722100 0.000000 1.000000 0.000000 0.594700 0.007600 1 0 1.000000
  0 16.608000 0.699201 30.678801 0.000000 1.000000 0.000000 0.593900 0.692300 1 0 1.000000
  0 18.067900 0.699201 31.707701 0.000000 1.000000 0.000000 0.644400 0.681100 1 0 1.000000
HandrailMetal001a
  0 18.067900 -0.760599 -12.722100 0.000000 -1.000000 0.000000 0.491300 0.007600 1 0 1.000000
  0 16.608000 -0.760599 30.678801 0.000000 -1.000000 0.000000 0.543400 0.703500 1 0 1.000000
  0 16.608006 0.699250 -12.722054 -0.442958 -0.896418 -0.014900 0.594722 0.007588 1 0 1.000000
HandrailMetal001a
  0 18.067900 -0.760599 -12.722100 0.000000 -1.000000 0.000000 0.491300 0.007600 1 0 1.000000
  0 18.067900 -0.760599 31.707701 0.000000 -1.000000 0.000000 0.492900 0.714700 1 0 1.000000
  0 16.608000 -0.760599 30.678801 0.000000 -1.000000 0.000000 0.543400 0.703500 1 0 1.000000
HandrailMetal001a
  0 54.448601 -0.760598 11.528600 0.000000 -1.000000 0.000000 0.465200 0.007600 1 0 1.000000
  0 52.988758 0.699246 56.208057 -0.011377 -0.999414 0.032283 0.362410 0.692855 1 0 1.000000
  0 52.988800 -0.760598 11.528600 0.000000 -1.000000 0.000000 0.413400 0.007600 1 0 1.000000
HandrailMetal001a
  0 54.448601 -0.760598 11.528600 0.000000 -1.000000 0.000000 0.465200 0.007600 1 0 1.000000
  0 54.448627 0.699245 57.236988 -0.011377 -0.999414 0.032283 0.514456 0.723789 1 0 1.000000
  0 52.988758 0.699246 56.208057 -0.011377 -0.999414 0.032283 0.362410 0.692855 1 0 1.000000
HandrailMetal001a
  0 52.988800 0.699202 11.528600 0.000000 1.000000 0.000000 0.361700 0.007600 1 0 1.000000
  0 54.448601 0.699202 57.237000 0.000000 1.000000 0.000000 0.311700 0.682500 1 0 1.000000
  0 54.448601 0.699202 11.528600 0.000000 1.000000 0.000000 0.310000 0.007600 1 0 1.000000
HandrailMetal001a
  0 52.988800 0.699202 11.528600 0.000000 1.000000 0.000000 0.361700 0.007600 1 0 1.000000
  0 52.988800 0.699202 56.208099 0.000000 1.000000 0.000000 0.362400 0.692900 1 0 1.000000
  0 54.448601 0.699202 57.237000 0.000000 1.000000 0.000000 0.311700 0.682500 1 0 1.000000
HandrailMetal001a
  0 88.707901 0.699204 35.289501 0.000000 1.000000 0.000000 0.453200 0.007600 1 0 1.000000
  0 90.167702 0.699204 80.997902 0.000000 1.000000 0.000000 0.501400 0.675200 1 0 1.000000
  0 90.167702 0.699204 35.289501 0.000000 1.000000 0.000000 0.505000 0.007600 1 0 1.000000
HandrailMetal001a
  0 88.707901 0.699204 35.289501 0.000000 1.000000 0.000000 0.453200 0.007600 1 0 1.000000
  0 88.707863 -0.760608 79.968979 -0.451222 0.892295 0.014411 0.402222 0.704625 1 0 1.000000
  0 90.167702 0.699204 80.997902 0.000000 1.000000 0.000000 0.501400 0.675200 1 0 1.000000
HandrailMetal001a
  0 -18.227600 -0.760601 -36.919300 0.000000 -1.000000 0.000000 0.571500 0.007600 1 0 1.000000
  0 -19.687401 -0.760601 5.877900 0.000000 -1.000000 0.000000 0.519200 0.704200 1 0 1.000000
  0 -19.687401 -0.760601 -36.919300 0.000000 -1.000000 0.000000 0.519800 0.007600 1 0 1.000000
HandrailMetal001a
  0 -18.227600 -0.760601 -36.919300 0.000000 -1.000000 0.000000 0.571500 0.007600 1 0 1.000000
  0 -18.227573 0.699247 6.906875 0.442898 -0.896445 0.015108 0.619150 0.730963 1 0 1.000000
  0 -19.687401 -0.760601 5.877900 0.000000 -1.000000 0.000000 0.519200 0.704200 1 0 1.000000
HandrailMetal001a
  0 -55.110699 0.699298 -60.449902 0.000000 1.000000 0.000000 0.488300 0.007600 1 0 1.000000
  0 -53.650902 0.699198 -17.970600 0.000000 1.000000 0.000000 0.536900 0.669000 1 0 1.000000
  0 -53.650902 0.699298 -60.449902 0.000000 1.000000 0.000000 0.540100 0.007600 1 0 1.000000
HandrailMetal001a
  0 -55.110699 0.699298 -60.449902 0.000000 1.000000 0.000000 0.488300 0.007600 1 0 1.000000
  0 -55.110714 -0.760605 -18.999565 -0.451529 0.892121 0.015517 0.437246 0.696673 1 0 1.000000
  0 -53.650902 0.699198 -17.970600 0.000000 1.000000 0.000000 0.536900 0.669000 1 0 1.000000
HandrailMetal001a
  0 -19.687428 -0.760603 -36.919312 -0.442898 0.896445 -0.015108 0.519822 0.007588 1 0 1.000000
  0 -18.227600 0.699199 6.906900 0.000000 1.000000 0.000000 0.419300 0.677400 1 0 1.000000
  0 -18.227573 -0.760603 -36.919312 -0.442898 0.896445 -0.015108 0.416381 0.007588 1 0 1.000000
HandrailMetal001a
  0 -19.687428 -0.760603 -36.919312 -0.442898 0.896445 -0.015108 0.519822 0.007588 1 0 1.000000
  0 -19.687428 -0.760606 5.877937 -0.442898 0.896445 -0.015108 0.519234 0.704191 1 0 1.000000
  0 -18.227600 0.699199 6.906900 0.000000 1.000000 0.000000 0.419300 0.677400 1 0 1.000000
HandrailMetal001a
  0 -53.650860 0.699251 -60.449894 0.012251 -0.999320 -0.034764 0.333178 0.007588 1 0 1.000000
  0 -55.110699 -0.760602 -18.999599 0.000000 -1.000000 0.000000 0.437200 0.696700 1 0 1.000000
  0 -55.110714 0.699251 -60.449894 0.012251 -0.999320 -0.034764 0.488339 0.007588 1 0 1.000000
HandrailMetal001a
  0 -53.650860 0.699251 -60.449894 0.012251 -0.999320 -0.034764 0.333178 0.007588 1 0 1.000000
  0 -53.650902 -0.760602 -17.970600 0.000000 -1.000000 0.000000 0.387400 0.710500 1 0 1.000000
  0 -55.110699 -0.760602 -18.999599 0.000000 -1.000000 0.000000 0.437200 0.696700 1 0 1.000000
HandrailMetal001a
  0 -89.345703 -0.760604 -84.486198 0.000000 -1.000000 0.000000 0.491300 0.007600 1 0 1.000000
  0 -90.805603 -0.760604 -43.643398 0.000000 -1.000000 0.000000 0.543000 0.699700 1 0 1.000000
  0 -90.805603 -0.760604 -84.486198 0.000000 -1.000000 0.000000 0.543000 0.007600 1 0 1.000000
HandrailMetal001a
  0 -89.345703 -0.760604 -84.486198 0.000000 -1.000000 0.000000 0.491300 0.007600 1 0 1.000000
  0 -89.345703 -0.760604 -42.614498 0.000000 -1.000000 0.000000 0.492100 0.708700 1 0 1.000000
  0 -90.805603 -0.760604 -43.643398 0.000000 -1.000000 0.000000 0.543000 0.699700 1 0 1.000000
HandrailMetal001a
  0 -90.805595 -0.760602 -84.486221 0.012431 0.999300 -0.035274 0.543002 0.007588 1 0 1.000000
  0 -89.345703 0.699296 -42.614498 0.000000 1.000000 0.000000 0.644900 0.681800 1 0 1.000000
  0 -89.345741 -0.760602 -84.486221 0.012431 0.999300 -0.035274 0.646442 0.007588 1 0 1.000000
HandrailMetal001a
  0 -90.805595 -0.760602 -84.486221 0.012431 0.999300 -0.035274 0.543002 0.007588 1 0 1.000000
  0 -90.805603 0.699296 -43.643398 0.000000 1.000000 0.000000 0.593900 0.690700 1 0 1.000000
  0 -89.345703 0.699296 -42.614498 0.000000 1.000000 0.000000 0.644900 0.681800 1 0 1.000000
HandrailMetal001a
  0 -100.319374 0.499996 -46.207504 -1.000000 0.000000 0.000000 0.004069 0.609725 1 0 1.000000
  0 -100.319374 -0.500004 -46.207504 -1.000000 0.000000 0.000000 0.024962 0.609725 1 0 1.000000
  0 -100.319374 -1.000004 -45.341476 -1.000000 0.000000 0.000000 0.045835 0.609725 1 0 1.000000
HandrailMetal001a
  0 -100.319374 0.499996 -46.207504 -1.000000 0.000000 0.000000 0.004069 0.609725 1 0 1.000000
  0 -100.319374 -1.000004 -45.341476 -1.000000 0.000000 0.000000 0.045835 0.609725 1 0 1.000000
  0 -100.319374 -0.500004 -44.475456 -1.000000 0.000000 0.000000 0.066700 0.609725 1 0 1.000000
HandrailMetal001a
  0 -100.319374 -0.500004 -44.475456 -1.000000 0.000000 0.000000 0.066700 0.609725 1 0 1.000000
  0 -100.319374 0.499996 -44.475456 -1.000000 0.000000 0.000000 0.087580 0.609725 1 0 1.000000
  0 -100.319374 0.499996 -46.207504 -1.000000 0.000000 0.000000 0.004069 0.609725 1 0 1.000000
HandrailMetal001a
  0 -100.319374 0.499996 -44.475456 -1.000000 0.000000 0.000000 0.087580 0.609725 1 0 1.000000
  0 -100.319374 0.999997 -45.341476 -1.000000 0.000000 0.000000 0.108480 0.609725 1 0 1.000000
  0 -100.319374 0.499996 -46.207504 -1.000000 0.000000 0.000000 0.004069 0.609725 1 0 1.000000
HandrailMetal001a
  0 100.319397 0.500004 84.489197 0.497599 0.543899 0.675699 0.080400 0.383800 1 0 1.000000
  0 93.462799 0.998504 83.625397 -0.029200 0.981504 0.189201 0.102700 0.488300 1 0 1.000000
  0 93.462799 0.498504 84.491402 -0.109095 0.397582 0.911058 0.080400 0.488300 1 0 1.000000
HandrailMetal001a
  0 93.462799 -0.501496 84.491402 -0.158498 -0.568895 0.806992 0.058100 0.488300 1 0 1.000000
  0 100.319397 0.500004 84.489197 0.497599 0.543899 0.675699 0.080400 0.383800 1 0 1.000000
  0 93.462799 0.498504 84.491402 -0.109095 0.397582 0.911058 0.080400 0.488300 1 0 1.000000
HandrailMetal001a
  0 93.462799 -0.501496 84.491402 -0.158498 -0.568895 0.806992 0.058100 0.488300 1 0 1.000000
  0 100.319397 -0.499996 84.489197 0.497711 -0.313207 0.808817 0.058100 0.383800 1 0 1.000000
  0 100.319397 0.500004 84.489197 0.497599 0.543899 0.675699 0.080400 0.383800 1 0 1.000000
HandrailMetal001a
  0 100.319397 -0.999996 83.623199 0.497683 -0.857071 0.133195 0.035800 0.383800 1 0 1.000000
  0 100.319397 -0.499996 84.489197 0.497711 -0.313207 0.808817 0.058100 0.383800 1 0 1.000000
  0 93.462799 -0.501496 84.491402 -0.158498 -0.568895 0.806992 0.058100 0.488300 1 0 1.000000
HandrailMetal001a
  0 93.470200 -0.500496 82.755096 0.220193 -0.582582 -0.782376 0.013500 0.488200 1 0 1.000000
  0 100.319397 -0.999996 83.623199 0.497683 -0.857071 0.133195 0.035800 0.383800 1 0 1.000000
  0 93.462799 -0.501496 84.491402 -0.158498 -0.568895 0.806992 0.058100 0.488300 1 0 1.000000
HandrailMetal001a
  0 93.470200 -0.500496 82.755096 0.220193 -0.582582 -0.782376 0.013500 0.488200 1 0 1.000000
  0 100.319397 -0.499996 82.757103 0.497721 -0.544123 -0.675429 0.013500 0.383800 1 0 1.000000
  0 100.319397 -0.999996 83.623199 0.497683 -0.857071 0.133195 0.035800 0.383800 1 0 1.000000
HandrailMetal001a
  0 100.319397 -0.499996 82.757103 0.497721 -0.544123 -0.675429 0.013500 0.383800 1 0 1.000000
  0 93.470200 -0.500496 82.755096 0.220193 -0.582582 -0.782376 0.013500 0.488200 1 0 1.000000
  0 93.470200 0.499504 82.755096 0.269191 0.582481 -0.766975 -0.008800 0.488200 1 0 1.000000
HandrailMetal001a
  0 100.319397 -0.499996 82.757103 0.497721 -0.544123 -0.675429 0.013500 0.383800 1 0 1.000000
  0 93.470200 0.499504 82.755096 0.269191 0.582481 -0.766975 -0.008800 0.488200 1 0 1.000000
  0 100.319397 0.500004 82.757103 0.497711 0.313207 -0.808817 -0.008800 0.383800 1 0 1.000000
HandrailMetal001a
  0 93.462799 0.998504 83.625397 -0.029200 0.981504 0.189201 -0.031100 0.488300 1 0 1.000000
  0 100.319397 0.500004 82.757103 0.497711 0.313207 -0.808817 -0.008800 0.383800 1 0 1.000000
  0 93.470200 0.499504 82.755096 0.269191 0.582481 -0.766975 -0.008800 0.488200 1 0 1.000000
HandrailMetal001a
  0 93.462799 0.998504 83.625397 -0.029200 0.981504 0.189201 -0.031100 0.488300 1 0 1.000000
  0 100.319397 1.000004 83.623199 0.497376 0.857358 -0.132493 -0.031100 0.383800 1 0 1.000000
  0 100.319397 0.500004 82.757103 0.497711 0.313207 -0.808817 -0.008800 0.383800 1 0 1.000000
HandrailMetal001a
  0 100.319397 0.500004 84.489197 0.497599 0.543899 0.675699 -0.053400 0.383800 1 0 1.000000
  0 100.319397 1.000004 83.623199 0.497376 0.857358 -0.132493 -0.031100 0.383800 1 0 1.000000
  0 93.462799 0.998504 83.625397 -0.029200 0.981504 0.189201 -0.031100 0.488300 1 0 1.000000
HandrailMetal001a
  0 -100.319397 0.999996 -45.341499 -0.471307 0.871913 0.132802 -0.016800 0.609700 1 0 1.000000
  0 -93.532204 0.500496 -44.492699 -0.264206 0.581412 0.769516 -0.037600 0.492300 1 0 1.000000
  0 -93.498802 0.501996 -46.208199 0.116204 0.498217 -0.859230 0.004000 0.491700 1 0 1.000000
HandrailMetal001a
  0 -100.319397 0.499996 -46.207500 -0.471220 0.549123 -0.690229 0.004100 0.609700 1 0 1.000000
  0 -100.319397 0.999996 -45.341499 -0.471307 0.871913 0.132802 -0.016800 0.609700 1 0 1.000000
  0 -93.498802 0.501996 -46.208199 0.116204 0.498217 -0.859230 0.004000 0.491700 1 0 1.000000
HandrailMetal001a
  0 -93.498802 -0.498004 -46.208199 0.143805 -0.501317 -0.853230 0.024900 0.491700 1 0 1.000000
  0 -100.319397 0.499996 -46.207500 -0.471220 0.549123 -0.690229 0.004100 0.609700 1 0 1.000000
  0 -93.498802 0.501996 -46.208199 0.116204 0.498217 -0.859230 0.004000 0.491700 1 0 1.000000
HandrailMetal001a
  0 -93.498802 -0.498004 -46.208199 0.143805 -0.501317 -0.853230 0.024900 0.491700 1 0 1.000000
  0 -100.319397 -0.500004 -46.207500 -0.471114 -0.323209 -0.820724 0.025000 0.609700 1 0 1.000000
  0 -100.319397 0.499996 -46.207500 -0.471220 0.549123 -0.690229 0.004100 0.609700 1 0 1.000000
HandrailMetal001a
  0 -93.498802 -0.998004 -45.342201 0.028800 -0.999583 0.001800 0.045800 0.491700 1 0 1.000000
  0 -100.319397 -0.500004 -46.207500 -0.471114 -0.323209 -0.820724 0.025000 0.609700 1 0 1.000000
  0 -93.498802 -0.498004 -46.208199 0.143805 -0.501317 -0.853230 0.024900 0.491700 1 0 1.000000
HandrailMetal001a
  0 -93.498802 -0.998004 -45.342201 0.028800 -0.999583 0.001800 0.045800 0.491700 1 0 1.000000
  0 -100.319397 -1.000004 -45.341499 -0.470970 -0.872444 -0.130492 0.045800 0.609700 1 0 1.000000
  0 -100.319397 -0.500004 -46.207500 -0.471114 -0.323209 -0.820724 0.025000 0.609700 1 0 1.000000
HandrailMetal001a
  0 -93.532204 -0.499504 -44.492699 -0.216598 -0.581893 0.783891 0.066500 0.492300 1 0 1.000000
  0 -100.319397 -1.000004 -45.341499 -0.470970 -0.872444 -0.130492 0.045800 0.609700 1 0 1.000000
  0 -93.498802 -0.998004 -45.342201 0.028800 -0.999583 0.001800 0.045800 0.491700 1 0 1.000000
HandrailMetal001a
  0 -93.532204 -0.499504 -44.492699 -0.216598 -0.581893 0.783891 0.066500 0.492300 1 0 1.000000
  0 -100.319397 -0.500004 -44.475498 -0.469997 -0.548197 0.691796 0.066700 0.609700 1 0 1.000000
  0 -100.319397 -1.000004 -45.341499 -0.470970 -0.872444 -0.130492 0.045800 0.609700 1 0 1.000000
HandrailMetal001a
  0 -100.319397 -0.500004 -44.475498 -0.469997 -0.548197 0.691796 0.066700 0.609700 1 0 1.000000
  0 -93.532204 -0.499504 -44.492699 -0.216598 -0.581893 0.783891 0.066500 0.492300 1 0 1.000000
  0 -93.532204 0.500496 -44.492699 -0.264206 0.581412 0.769516 0.087800 0.492300 1 0 1.000000
HandrailMetal001a
  0 -100.319397 -0.500004 -44.475498 -0.469997 -0.548197 0.691796 0.066700 0.609700 1 0 1.000000
  0 -93.532204 0.500496 -44.492699 -0.264206 0.581412 0.769516 0.087800 0.492300 1 0 1.000000
  0 -100.319397 0.499996 -44.475498 -0.469785 0.323490 0.821374 0.087600 0.609700 1 0 1.000000
HandrailMetal001a
  0 -100.319397 0.999996 -45.341499 -0.471307 0.871913 0.132802 0.108500 0.609700 1 0 1.000000
  0 -100.319397 0.499996 -44.475498 -0.469785 0.323490 0.821374 0.087600 0.609700 1 0 1.000000
  0 -93.532204 0.500496 -44.492699 -0.264206 0.581412 0.769516 0.087800 0.492300 1 0 1.000000
HandrailMetal001a
  0 -89.345703 -0.760604 -84.486198 1.000000 0.000000 0.000000 0.491300 0.007600 1 0 1.000000
  0 -89.345703 0.699296 -42.614498 1.000000 0.000000 0.000000 0.441100 0.717700 1 0 1.000000
  0 -89.345703 -0.760604 -42.614498 1.000000 0.000000 0.000000 0.492100 0.708700 1 0 1.000000
HandrailMetal001a
  0 93.462799 0.498504 84.491402 -0.109095 0.397582 0.911058 0.037300 0.022600 1 0 1.000000
  0 -93.532204 0.500496 -44.492699 -0.264206 0.581412 0.769516 0.029400 3.632300 1 0 1.000000
  0 -93.532204 -0.499504 -44.492699 -0.216598 -0.581893 0.783891 0.075200 3.632300 1 0 1.000000
HandrailMetal001a
  0 93.462799 0.498504 84.491402 -0.109095 0.397582 0.911058 0.037300 0.022600 1 0 1.000000
  0 -93.532204 -0.499504 -44.492699 -0.216598 -0.581893 0.783891 0.075200 3.632300 1 0 1.000000
  0 93.462799 -0.501496 84.491402 -0.158498 -0.568895 0.806992 0.067400 0.022600 1 0 1.000000
HandrailMetal001a
  0 -93.498802 -0.998004 -45.342201 0.028800 -0.999583 0.001800 0.104900 3.639500 1 0 1.000000
  0 93.462799 -0.501496 84.491402 -0.158498 -0.568895 0.806992 0.067400 0.022600 1 0 1.000000
  0 -93.532204 -0.499504 -44.492699 -0.216598 -0.581893 0.783891 0.075200 3.632300 1 0 1.000000
HandrailMetal001a
  0 -93.498802 -0.998004 -45.342201 0.028800 -0.999583 0.001800 0.104900 3.639500 1 0 1.000000
  0 93.470200 -0.500496 82.755096 0.220193 -0.582582 -0.782376 0.123200 0.038200 1 0 1.000000
  0 93.462799 -0.501496 84.491402 -0.158498 -0.568895 0.806992 0.067400 0.022600 1 0 1.000000
HandrailMetal001a
  0 -93.498802 -0.998004 -45.342201 0.028800 -0.999583 0.001800 0.104900 3.639500 1 0 1.000000
  0 -93.498802 -0.498004 -46.208199 0.143805 -0.501317 -0.853230 0.130600 3.647300 1 0 1.000000
  0 93.470200 -0.500496 82.755096 0.220193 -0.582582 -0.782376 0.123200 0.038200 1 0 1.000000
HandrailMetal001a
  0 -93.498802 0.501996 -46.208199 0.116204 0.498217 -0.859230 0.160100 3.647300 1 0 1.000000
  0 93.470200 -0.500496 82.755096 0.220193 -0.582582 -0.782376 0.123200 0.038200 1 0 1.000000
  0 -93.498802 -0.498004 -46.208199 0.143805 -0.501317 -0.853230 0.130600 3.647300 1 0 1.000000
HandrailMetal001a
  0 -93.498802 0.501996 -46.208199 0.116204 0.498217 -0.859230 0.160100 3.647300 1 0 1.000000
  0 93.470200 0.499504 82.755096 0.269191 0.582481 -0.766975 0.167400 0.038200 1 0 1.000000
  0 93.470200 -0.500496 82.755096 0.220193 -0.582582 -0.782376 0.123200 0.038200 1 0 1.000000
HandrailMetal001a
  0 -93.498802 0.501996 -46.208199 0.116204 0.498217 -0.859230 0.160100 3.647300 1 0 1.000000
  0 93.462799 0.998504 83.625397 -0.029200 0.981504 0.189201 0.197200 0.030400 1 0 1.000000
  0 93.470200 0.499504 82.755096 0.269191 0.582481 -0.766975 0.167400 0.038200 1 0 1.000000
HandrailMetal001a
  0 -93.532204 0.500496 -44.492699 -0.264206 0.581412 0.769516 0.215400 3.632300 1 0 1.000000
  0 93.462799 0.998504 83.625397 -0.029200 0.981504 0.189201 0.197200 0.030400 1 0 1.000000
  0 -93.498802 0.501996 -46.208199 0.116204 0.498217 -0.859230 0.160100 3.647300 1 0 1.000000
HandrailMetal001a
  0 -93.532204 0.500496 -44.492699 -0.264206 0.581412 0.769516 0.215400 3.632300 1 0 1.000000
  0 93.462776 0.498482 84.491394 -0.263913 0.498049 0.826013 0.226494 0.038336 1 0 1.000000
  0 93.462799 0.998504 83.625397 -0.029200 0.981504 0.189201 0.197200 0.030400 1 0 1.000000
HandrailMetal001a
  0 100.319405 -1.000008 83.623169 1.000000 0.000000 0.000000 0.035804 0.383815 1 0 1.000000
  0 100.319405 -0.500008 82.757141 1.000000 0.000000 0.000000 0.013492 0.383815 1 0 1.000000
  0 100.319405 -0.500008 84.489182 1.000000 0.000000 0.000000 -0.075677 0.383815 1 0 1.000000
HandrailMetal001a
  0 100.319405 -0.500008 82.757141 1.000000 0.000000 0.000000 0.013492 0.383815 1 0 1.000000
  0 100.319405 0.499992 84.489182 1.000000 0.000000 0.000000 -0.053376 0.383815 1 0 1.000000
  0 100.319405 -0.500008 84.489182 1.000000 0.000000 0.000000 -0.075677 0.383815 1 0 1.000000
HandrailMetal001a
  0 100.319405 -0.500008 82.757141 1.000000 0.000000 0.000000 0.013492 0.383815 1 0 1.000000
  0 100.319405 0.999992 83.623154 1.000000 0.000000 0.000000 -0.031090 0.383815 1 0 1.000000
  0 100.319405 0.499992 84.489182 1.000000 0.000000 0.000000 -0.053376 0.383815 1 0 1.000000
HandrailMetal001a
  0 100.319405 -0.500008 82.757141 1.000000 0.000000 0.000000 0.013492 0.383815 1 0 1.000000
  0 100.319405 0.499992 82.757126 1.000000 0.000000 0.000000 -0.008806 0.383815 1 0 1.000000
  0 100.319405 0.999992 83.623154 1.000000 0.000000 0.000000 -0.031090 0.383815 1 0 1.000000
HandrailMetal001a
  0 18.067900 -0.760599 -12.722100 1.000000 0.000000 0.000000 0.491300 0.007600 1 0 1.000000
  0 18.067900 0.699201 31.707701 1.000000 0.000000 0.000000 0.442400 0.725800 1 0 1.000000
  0 18.067900 -0.760599 31.707701 1.000000 0.000000 0.000000 0.492900 0.714700 1 0 1.000000
HandrailMetal001a
  0 52.988800 -0.760598 11.528600 0.000000 0.000000 -1.000000 0.413400 0.007600 1 0 1.000000
  0 52.988800 0.699202 11.528600 0.000000 0.000000 -1.000000 0.361700 0.007600 1 0 1.000000
  0 54.448601 0.699202 11.528600 0.000000 0.000000 -1.000000 0.310000 0.007600 1 0 1.000000
HandrailMetal001a
  0 54.448601 0.699202 11.528600 0.000000 0.000000 -1.000000 0.516900 0.007600 1 0 1.000000
  0 54.448601 -0.760598 11.528600 0.000000 0.000000 -1.000000 0.465200 0.007600 1 0 1.000000
  0 52.988800 -0.760598 11.528600 0.000000 0.000000 -1.000000 0.413400 0.007600 1 0 1.000000
HandrailMetal001a
  0 -55.110699 -0.760602 -18.999599 -0.576090 0.000000 0.817386 0.437200 0.696700 1 0 1.000000
  0 -53.650902 -0.760602 -17.970600 -0.576090 0.000000 0.817386 0.387400 0.710500 1 0 1.000000
  0 -53.650902 0.699198 -17.970600 -0.576090 0.000000 0.817386 0.337600 0.724300 1 0 1.000000
HandrailMetal001a
  0 -90.805603 -0.760604 -84.486198 -1.000000 0.000000 0.000000 0.543000 0.007600 1 0 1.000000
  0 -90.805603 -0.760604 -43.643398 -0.576090 0.000000 0.817386 0.543000 0.699700 1 0 1.000000
  0 -90.805603 0.699296 -43.643398 -1.000000 0.000000 0.000000 0.593900 0.690700 1 0 1.000000
HandrailMetal001a
  0 -89.345703 0.699296 -42.614498 -0.576090 0.000000 0.817386 0.646400 0.699700 1 0 1.000000
  0 -90.805603 0.699296 -43.643398 -0.576090 0.000000 0.817386 0.594700 0.699700 1 0 1.000000
  0 -90.805603 -0.760604 -43.643398 -0.576090 0.000000 0.817386 0.543000 0.699700 1 0 1.000000
HandrailMetal001a
  0 -90.805603 -0.760604 -43.643398 -0.576090 0.000000 0.817386 0.543000 0.699700 1 0 1.000000
  0 -89.345703 -0.760604 -42.614498 -0.576090 0.000000 0.817386 0.491300 0.699700 1 0 1.000000
  0 -89.345703 0.699296 -42.614498 -0.576090 0.000000 0.817386 0.439600 0.699700 1 0 1.000000
HandrailMetal001a
  0 -53.650902 0.699298 -60.449902 1.000000 0.000000 0.000000 0.333200 0.007600 1 0 1.000000
  0 -53.650902 0.699198 -17.970600 1.000000 0.000000 0.000000 0.337600 0.724300 1 0 1.000000
  0 -53.650902 -0.760602 -17.970600 1.000000 0.000000 0.000000 0.387400 0.710500 1 0 1.000000
HandrailMetal001a
  0 54.448601 0.699202 11.528600 1.000000 0.000000 0.000000 0.516900 0.007600 1 0 1.000000
  0 54.448601 0.699202 57.237000 1.000000 0.000000 0.000000 0.514500 0.723800 1 0 1.000000
  0 54.448601 -0.760598 11.528600 1.000000 0.000000 0.000000 0.465200 0.007600 1 0 1.000000
HandrailMetal001a
  0 52.988800 -0.760598 11.528600 -1.000000 0.000000 0.000000 0.413400 0.007600 1 0 1.000000
  0 52.988800 0.699202 56.208099 -1.000000 0.000000 0.000000 0.362400 0.692900 1 0 1.000000
  0 52.988800 0.699202 11.528600 -1.000000 0.000000 0.000000 0.361700 0.007600 1 0 1.000000
end
