// Created by Crowbar 0.54
version 1
nodes
  0 "Hands biped" -1
  1 "Bip01 Pelvis" 0
  2 "Bip01 Spine" 1
  3 "Bip01 Spine1" 2
  4 "Bip01 Spine2" 3
  5 "Bip01 Spine3" 4
  6 "Bip01 Neck" 5
  7 "Bip01 R Arm" 6
  8 "Bip01 R Arm1" 7
  9 "Bip01 R Arm2" 8
  10 "Bip01 R Hand" 9
  11 "Gauss Master" 10
  12 "Spinner" 11
  13 "Bip01 L Arm" 6
  14 "Bip01 L Arm1" 13
  15 "Bip01 L Arm2" 14
  16 "Bip01 L Hand" 15
  17 "Bip01 L Finger0" 16
  18 "Bip01 L Finger01" 17
  19 "Bip01 L Finger02" 18
  20 "Bip01 L Finger1" 16
  21 "Bip01 L Finger11" 20
  22 "Bip01 L Finger12" 21
  23 "Bip01 L Finger2" 16
  24 "Bip01 L Finger21" 23
  25 "Bip01 L Finger22" 24
  26 "Bip01 L Finger3" 16
  27 "Bip01 L Finger31" 26
  28 "Bip01 L Finger32" 27
  29 "Bip01 L Finger4" 16
  30 "Bip01 L Finger41" 29
  31 "Bip01 L Finger42" 30
end
skeleton
  time 0
    0 2.665634 3.968871 -24.602341 0.000000 0.000000 -1.483529
    1 0.000000 0.000000 0.000000 0.000000 -1.570796 -1.570795
    2 1.326316 -0.003921 0.000002 -0.000004 -0.000001 0.000796
    3 4.926312 -0.003923 0.000000 0.000000 0.000000 0.000000
    4 4.926314 -0.003923 0.000000 0.000000 0.000000 0.000000
    5 4.926313 -0.003923 0.000000 0.000000 0.000000 0.000000
    6 4.926317 -0.001509 0.000000 0.000000 0.000000 0.000000
    7 -0.000002 0.001514 -1.894737 -0.000014 1.370797 3.140783
    8 4.926314 0.000000 0.000000 0.614787 -1.166577 -0.602415
    9 11.368421 -0.000001 -0.000001 0.000000 0.000000 -1.674920
    10 11.368422 0.000005 0.000000 1.616027 0.122513 0.360435
    11 5.073513 0.334713 5.123069 1.652175 -0.023464 0.173451
    12 -1.928779 -0.976111 -0.000205 0.000000 0.000000 0.000000
    13 -0.000003 0.001503 1.894737 -0.000014 -1.370797 3.140810
    14 4.926316 0.000000 0.000005 0.628865 1.413335 -0.963788
    15 11.368423 0.000001 -0.000002 0.000000 0.000000 -0.002355
    16 11.368423 -0.000001 0.000000 -1.457802 -0.390183 0.387764
    17 1.126228 0.104081 -1.358370 2.984948 0.159546 1.191772
    18 2.373627 -0.000001 0.000000 0.000000 0.000000 0.305278
    19 1.071901 0.000001 0.000001 0.000000 0.000000 0.540778
    20 3.789471 -0.000907 -1.136842 0.140342 0.070615 1.112625
    21 1.136841 -0.000004 0.000000 0.000000 0.000000 0.540778
    22 1.136842 0.000000 0.000001 0.000000 0.000000 1.055389
    23 3.789473 -0.000304 -0.378948 0.069906 0.035750 1.108941
    24 1.326315 -0.000003 0.000000 0.000000 0.000000 0.540778
    25 1.326319 0.000002 0.000000 0.000000 0.000000 1.064111
    26 3.789472 0.000299 0.378947 -0.000356 0.000712 1.107722
    27 1.136841 -0.000002 0.000000 0.000000 0.000000 0.540778
    28 1.136845 0.000003 0.000000 0.000000 0.000000 1.055389
    29 3.789472 0.000902 1.136841 -0.133209 -0.065327 1.112141
    30 0.947373 0.000001 0.000000 0.000000 0.000000 0.540778
    31 0.947369 0.000000 0.000000 0.000000 0.000000 1.055389
  time 1
    0 2.665634 3.968871 -24.602341 0.000000 0.000000 -1.483529
    1 0.000000 0.000000 0.000000 0.000000 -1.570796 -1.570795
    2 1.326316 -0.003921 0.000002 -0.000004 -0.000001 0.000796
    3 4.926312 -0.003923 0.000000 0.000000 0.000000 0.000000
    4 4.926314 -0.003923 0.000000 0.000000 0.000000 0.000000
    5 4.926313 -0.003923 0.000000 0.000000 0.000000 0.000000
    6 4.926317 -0.001509 0.000000 0.000000 0.000000 0.000000
    7 -0.000002 0.001514 -1.894737 -0.000014 1.370797 3.140783
    8 4.926314 0.000000 0.000000 0.579275 -1.176679 -0.564083
    9 11.368421 -0.000001 -0.000001 0.000000 0.000000 -1.681111
    10 11.368422 0.000005 0.000000 1.619167 0.122621 0.365421
    11 5.073513 0.334713 5.123069 1.652175 -0.023464 0.173451
    12 -1.928779 -0.976111 -0.000205 0.009066 0.000000 0.000000
    13 -0.000003 0.001503 1.894737 -0.000014 -1.370797 3.140810
    14 4.926316 0.000000 0.000005 0.628865 1.413335 -0.963788
    15 11.368423 0.000001 -0.000002 0.000000 0.000000 -0.002355
    16 11.368423 -0.000001 0.000000 -1.457802 -0.390183 0.387764
    17 1.126228 0.104081 -1.358370 2.984948 0.159546 1.191772
    18 2.373627 -0.000001 0.000000 0.000000 0.000000 0.305278
    19 1.071901 0.000001 0.000001 0.000000 0.000000 0.540778
    20 3.789471 -0.000907 -1.136842 0.140342 0.070615 1.112625
    21 1.136841 -0.000004 0.000000 0.000000 0.000000 0.540778
    22 1.136842 0.000000 0.000001 0.000000 0.000000 1.055389
    23 3.789473 -0.000304 -0.378948 0.069906 0.035750 1.108941
    24 1.326315 -0.000003 0.000000 0.000000 0.000000 0.540778
    25 1.326319 0.000002 0.000000 0.000000 0.000000 1.064111
    26 3.789472 0.000299 0.378947 -0.000356 0.000712 1.107722
    27 1.136841 -0.000002 0.000000 0.000000 0.000000 0.540778
    28 1.136845 0.000003 0.000000 0.000000 0.000000 1.055389
    29 3.789472 0.000902 1.136841 -0.133209 -0.065327 1.112141
    30 0.947373 0.000001 0.000000 0.000000 0.000000 0.540778
    31 0.947369 0.000000 0.000000 0.000000 0.000000 1.055389
  time 2
    0 2.665634 3.968871 -24.602341 0.000000 0.000000 -1.483529
    1 0.000000 0.000000 0.000000 0.000000 -1.570796 -1.570795
    2 1.326316 -0.003921 0.000002 -0.000004 -0.000001 0.000796
    3 4.926312 -0.003923 0.000000 0.000000 0.000000 0.000000
    4 4.926314 -0.003923 0.000000 0.000000 0.000000 0.000000
    5 4.926313 -0.003923 0.000000 0.000000 0.000000 0.000000
    6 4.926317 -0.001509 0.000000 0.000000 0.000000 0.000000
    7 -0.000002 0.001514 -1.894737 -0.000014 1.370797 3.140783
    8 4.926314 0.000000 0.000000 0.535295 -1.187798 -0.516834
    9 11.368421 -0.000001 -0.000001 0.000000 0.000000 -1.688346
    10 11.368422 0.000005 0.000000 1.622846 0.122729 0.371257
    11 5.073513 0.334713 5.123069 1.652175 -0.023464 0.173451
    12 -1.928779 -0.976111 -0.000205 0.034452 0.000000 0.000000
    13 -0.000003 0.001503 1.894737 -0.000014 -1.370797 3.140810
    14 4.926316 0.000000 0.000005 0.628865 1.413335 -0.963788
    15 11.368423 0.000001 -0.000002 0.000000 0.000000 -0.002355
    16 11.368423 -0.000001 0.000000 -1.457802 -0.390183 0.387764
    17 1.126228 0.104081 -1.358370 2.984948 0.159546 1.191772
    18 2.373627 -0.000001 0.000000 0.000000 0.000000 0.305278
    19 1.071901 0.000001 0.000001 0.000000 0.000000 0.540778
    20 3.789471 -0.000907 -1.136842 0.140342 0.070615 1.112625
    21 1.136841 -0.000004 0.000000 0.000000 0.000000 0.540778
    22 1.136842 0.000000 0.000001 0.000000 0.000000 1.055389
    23 3.789473 -0.000304 -0.378948 0.069906 0.035750 1.108941
    24 1.326315 -0.000003 0.000000 0.000000 0.000000 0.540778
    25 1.326319 0.000002 0.000000 0.000000 0.000000 1.064111
    26 3.789472 0.000299 0.378947 -0.000356 0.000712 1.107722
    27 1.136841 -0.000002 0.000000 0.000000 0.000000 0.540778
    28 1.136845 0.000003 0.000000 0.000000 0.000000 1.055389
    29 3.789472 0.000902 1.136841 -0.133209 -0.065327 1.112141
    30 0.947373 0.000001 0.000000 0.000000 0.000000 0.540778
    31 0.947369 0.000000 0.000000 0.000000 0.000000 1.055389
  time 3
    0 2.665634 3.968871 -24.602341 0.000000 0.000000 -1.483529
    1 0.000000 0.000000 0.000000 0.000000 -1.570796 -1.570795
    2 1.326316 -0.003921 0.000002 -0.000004 -0.000001 0.000796
    3 4.926312 -0.003923 0.000000 0.000000 0.000000 0.000000
    4 4.926314 -0.003923 0.000000 0.000000 0.000000 0.000000
    5 4.926313 -0.003923 0.000000 0.000000 0.000000 0.000000
    6 4.926317 -0.001509 0.000000 0.000000 0.000000 0.000000
    7 -0.000002 0.001514 -1.894737 -0.000014 1.370797 3.140783
    8 4.926314 0.000000 0.000000 0.482279 -1.199425 -0.460124
    9 11.368421 -0.000001 -0.000001 0.000000 0.000000 -1.696572
    10 11.368422 0.000005 0.000000 1.627029 0.122825 0.377873
    11 5.073513 0.334713 5.123069 1.652175 -0.023464 0.173451
    12 -1.928779 -0.976111 -0.000205 0.073389 0.000000 0.000000
    13 -0.000003 0.001503 1.894737 -0.000014 -1.370797 3.140810
    14 4.926316 0.000000 0.000005 0.628865 1.413335 -0.963788
    15 11.368423 0.000001 -0.000002 0.000000 0.000000 -0.002355
    16 11.368423 -0.000001 0.000000 -1.457802 -0.390183 0.387764
    17 1.126228 0.104081 -1.358370 2.984948 0.159546 1.191772
    18 2.373627 -0.000001 0.000000 0.000000 0.000000 0.305278
    19 1.071901 0.000001 0.000001 0.000000 0.000000 0.540778
    20 3.789471 -0.000907 -1.136842 0.140342 0.070615 1.112625
    21 1.136841 -0.000004 0.000000 0.000000 0.000000 0.540778
    22 1.136842 0.000000 0.000001 0.000000 0.000000 1.055389
    23 3.789473 -0.000304 -0.378948 0.069906 0.035750 1.108941
    24 1.326315 -0.000003 0.000000 0.000000 0.000000 0.540778
    25 1.326319 0.000002 0.000000 0.000000 0.000000 1.064111
    26 3.789472 0.000299 0.378947 -0.000356 0.000712 1.107722
    27 1.136841 -0.000002 0.000000 0.000000 0.000000 0.540778
    28 1.136845 0.000003 0.000000 0.000000 0.000000 1.055389
    29 3.789472 0.000902 1.136841 -0.133209 -0.065327 1.112141
    30 0.947373 0.000001 0.000000 0.000000 0.000000 0.540778
    31 0.947369 0.000000 0.000000 0.000000 0.000000 1.055389
  time 4
    0 2.665634 3.968871 -24.602341 0.000000 0.000000 -1.483529
    1 0.000000 0.000000 0.000000 0.000000 -1.570796 -1.570795
    2 1.326316 -0.003921 0.000002 -0.000004 -0.000001 0.000796
    3 4.926312 -0.003923 0.000000 0.000000 0.000000 0.000000
    4 4.926314 -0.003923 0.000000 0.000000 0.000000 0.000000
    5 4.926313 -0.003923 0.000000 0.000000 0.000000 0.000000
    6 4.926317 -0.001509 0.000000 0.000000 0.000000 0.000000
    7 -0.000002 0.001514 -1.894737 -0.000014 1.370797 3.140783
    8 4.926314 0.000000 0.000000 0.419532 -1.210956 -0.393225
    9 11.368421 -0.000001 -0.000001 0.000000 0.000000 -1.705703
    10 11.368422 0.000005 0.000000 1.631679 0.122896 0.385231
    11 5.073513 0.334713 5.123069 1.652175 -0.023464 0.173451
    12 -1.928779 -0.976111 -0.000205 0.122728 0.000000 0.000000
    13 -0.000003 0.001503 1.894737 -0.000014 -1.370797 3.140810
    14 4.926316 0.000000 0.000005 0.628865 1.413335 -0.963788
    15 11.368423 0.000001 -0.000002 0.000000 0.000000 -0.002355
    16 11.368423 -0.000001 0.000000 -1.457802 -0.390183 0.387764
    17 1.126228 0.104081 -1.358370 2.984948 0.159546 1.191772
    18 2.373627 -0.000001 0.000000 0.000000 0.000000 0.305278
    19 1.071901 0.000001 0.000001 0.000000 0.000000 0.540778
    20 3.789471 -0.000907 -1.136842 0.140342 0.070615 1.112625
    21 1.136841 -0.000004 0.000000 0.000000 0.000000 0.540778
    22 1.136842 0.000000 0.000001 0.000000 0.000000 1.055389
    23 3.789473 -0.000304 -0.378948 0.069906 0.035750 1.108941
    24 1.326315 -0.000003 0.000000 0.000000 0.000000 0.540778
    25 1.326319 0.000002 0.000000 0.000000 0.000000 1.064111
    26 3.789472 0.000299 0.378947 -0.000356 0.000712 1.107722
    27 1.136841 -0.000002 0.000000 0.000000 0.000000 0.540778
    28 1.136845 0.000003 0.000000 0.000000 0.000000 1.055389
    29 3.789472 0.000902 1.136841 -0.133209 -0.065327 1.112141
    30 0.947373 0.000001 0.000000 0.000000 0.000000 0.540778
    31 0.947369 0.000000 0.000000 0.000000 0.000000 1.055389
  time 5
    0 2.665634 3.968871 -24.602341 0.000000 0.000000 -1.483529
    1 0.000000 0.000000 0.000000 0.000000 -1.570796 -1.570795
    2 1.326316 -0.003921 0.000002 -0.000004 -0.000001 0.000796
    3 4.926312 -0.003923 0.000000 0.000000 0.000000 0.000000
    4 4.926314 -0.003923 0.000000 0.000000 0.000000 0.000000
    5 4.926313 -0.003923 0.000000 0.000000 0.000000 0.000000
    6 4.926317 -0.001509 0.000000 0.000000 0.000000 0.000000
    7 -0.000002 0.001514 -1.894737 -0.000014 1.370797 3.140783
    8 4.926314 0.000000 0.000000 0.346612 -1.221748 -0.315832
    9 11.368421 -0.000001 -0.000001 0.000000 0.000000 -1.715650
    10 11.368422 0.000005 0.000000 1.636736 0.122944 0.393249
    11 5.073513 0.334713 5.123069 1.652175 -0.023464 0.173451
    12 -1.928779 -0.976111 -0.000205 0.179893 0.000000 0.000000
    13 -0.000003 0.001503 1.894737 -0.000014 -1.370797 3.140810
    14 4.926316 0.000000 0.000005 0.628865 1.413335 -0.963788
    15 11.368423 0.000001 -0.000002 0.000000 0.000000 -0.002355
    16 11.368423 -0.000001 0.000000 -1.457802 -0.390183 0.387764
    17 1.126228 0.104081 -1.358370 2.984948 0.159546 1.191772
    18 2.373627 -0.000001 0.000000 0.000000 0.000000 0.305278
    19 1.071901 0.000001 0.000001 0.000000 0.000000 0.540778
    20 3.789471 -0.000907 -1.136842 0.140342 0.070615 1.112625
    21 1.136841 -0.000004 0.000000 0.000000 0.000000 0.540778
    22 1.136842 0.000000 0.000001 0.000000 0.000000 1.055389
    23 3.789473 -0.000304 -0.378948 0.069906 0.035750 1.108941
    24 1.326315 -0.000003 0.000000 0.000000 0.000000 0.540778
    25 1.326319 0.000002 0.000000 0.000000 0.000000 1.064111
    26 3.789472 0.000299 0.378947 -0.000356 0.000712 1.107722
    27 1.136841 -0.000002 0.000000 0.000000 0.000000 0.540778
    28 1.136845 0.000003 0.000000 0.000000 0.000000 1.055389
    29 3.789472 0.000902 1.136841 -0.133209 -0.065327 1.112141
    30 0.947373 0.000001 0.000000 0.000000 0.000000 0.540778
    31 0.947369 0.000000 0.000000 0.000000 0.000000 1.055389
  time 6
    0 2.665634 3.968871 -24.602341 0.000000 0.000000 -1.483529
    1 0.000000 0.000000 0.000000 0.000000 -1.570796 -1.570795
    2 1.326316 -0.003921 0.000002 -0.000004 -0.000001 0.000796
    3 4.926312 -0.003923 0.000000 0.000000 0.000000 0.000000
    4 4.926314 -0.003923 0.000000 0.000000 0.000000 0.000000
    5 4.926313 -0.003923 0.000000 0.000000 0.000000 0.000000
    6 4.926317 -0.001509 0.000000 0.000000 0.000000 0.000000
    7 -0.000002 0.001514 -1.894737 -0.000014 1.370797 3.140783
    8 4.926314 0.000000 0.000000 0.263455 -1.231063 -0.227825
    9 11.368421 -0.000001 -0.000001 0.000000 0.000000 -1.726346
    10 11.368422 0.000005 0.000000 1.642177 0.122944 0.401866
    11 5.073513 0.334713 5.123069 1.652175 -0.023464 0.173451
    12 -1.928779 -0.976111 -0.000205 0.241734 0.000000 0.000000
    13 -0.000003 0.001503 1.894737 -0.000014 -1.370797 3.140810
    14 4.926316 0.000000 0.000005 0.628865 1.413335 -0.963788
    15 11.368423 0.000001 -0.000002 0.000000 0.000000 -0.002355
    16 11.368423 -0.000001 0.000000 -1.457802 -0.390183 0.387764
    17 1.126228 0.104081 -1.358370 2.984948 0.159546 1.191772
    18 2.373627 -0.000001 0.000000 0.000000 0.000000 0.305278
    19 1.071901 0.000001 0.000001 0.000000 0.000000 0.540778
    20 3.789471 -0.000907 -1.136842 0.140342 0.070615 1.112625
    21 1.136841 -0.000004 0.000000 0.000000 0.000000 0.540778
    22 1.136842 0.000000 0.000001 0.000000 0.000000 1.055389
    23 3.789473 -0.000304 -0.378948 0.069906 0.035750 1.108941
    24 1.326315 -0.000003 0.000000 0.000000 0.000000 0.540778
    25 1.326319 0.000002 0.000000 0.000000 0.000000 1.064111
    26 3.789472 0.000299 0.378947 -0.000356 0.000712 1.107722
    27 1.136841 -0.000002 0.000000 0.000000 0.000000 0.540778
    28 1.136845 0.000003 0.000000 0.000000 0.000000 1.055389
    29 3.789472 0.000902 1.136841 -0.133209 -0.065327 1.112141
    30 0.947373 0.000001 0.000000 0.000000 0.000000 0.540778
    31 0.947369 0.000000 0.000000 0.000000 0.000000 1.055389
  time 7
    0 2.665634 3.968871 -24.602341 0.000000 0.000000 -1.483529
    1 0.000000 0.000000 0.000000 0.000000 -1.570796 -1.570795
    2 1.326316 -0.003921 0.000002 -0.000004 -0.000001 0.000796
    3 4.926312 -0.003923 0.000000 0.000000 0.000000 0.000000
    4 4.926314 -0.003923 0.000000 0.000000 0.000000 0.000000
    5 4.926313 -0.003923 0.000000 0.000000 0.000000 0.000000
    6 4.926317 -0.001509 0.000000 0.000000 0.000000 0.000000
    7 -0.000002 0.001514 -1.894737 -0.000014 1.370797 3.140783
    8 4.926314 0.000000 0.000000 0.170503 -1.238161 -0.129750
    9 11.368421 -0.000001 -0.000001 0.000000 0.000000 -1.737737
    10 11.368422 0.000005 0.000000 1.647966 0.122896 0.411034
    11 5.073513 0.334713 5.123069 1.652175 -0.023464 0.173451
    12 -1.928779 -0.976111 -0.000205 0.305580 0.000000 0.000000
    13 -0.000003 0.001503 1.894737 -0.000014 -1.370797 3.140810
    14 4.926316 0.000000 0.000005 0.628865 1.413335 -0.963788
    15 11.368423 0.000001 -0.000002 0.000000 0.000000 -0.002355
    16 11.368423 -0.000001 0.000000 -1.457802 -0.390183 0.387764
    17 1.126228 0.104081 -1.358370 2.984948 0.159546 1.191772
    18 2.373627 -0.000001 0.000000 0.000000 0.000000 0.305278
    19 1.071901 0.000001 0.000001 0.000000 0.000000 0.540778
    20 3.789471 -0.000907 -1.136842 0.140342 0.070615 1.112625
    21 1.136841 -0.000004 0.000000 0.000000 0.000000 0.540778
    22 1.136842 0.000000 0.000001 0.000000 0.000000 1.055389
    23 3.789473 -0.000304 -0.378948 0.069906 0.035750 1.108941
    24 1.326315 -0.000003 0.000000 0.000000 0.000000 0.540778
    25 1.326319 0.000002 0.000000 0.000000 0.000000 1.064111
    26 3.789472 0.000299 0.378947 -0.000356 0.000712 1.107722
    27 1.136841 -0.000002 0.000000 0.000000 0.000000 0.540778
    28 1.136845 0.000003 0.000000 0.000000 0.000000 1.055389
    29 3.789472 0.000902 1.136841 -0.133209 -0.065327 1.112141
    30 0.947373 0.000001 0.000000 0.000000 0.000000 0.540778
    31 0.947369 0.000000 0.000000 0.000000 0.000000 1.055389
  time 8
    0 2.665634 3.968871 -24.602341 0.000000 0.000000 -1.483529
    1 0.000000 0.000000 0.000000 0.000000 -1.570796 -1.570795
    2 1.326316 -0.003921 0.000002 -0.000004 -0.000001 0.000796
    3 4.926312 -0.003923 0.000000 0.000000 0.000000 0.000000
    4 4.926314 -0.003923 0.000000 0.000000 0.000000 0.000000
    5 4.926313 -0.003923 0.000000 0.000000 0.000000 0.000000
    6 4.926317 -0.001509 0.000000 0.000000 0.000000 0.000000
    7 -0.000002 0.001514 -1.894737 -0.000014 1.370797 3.140783
    8 4.926314 0.000000 0.000000 0.069274 -1.242279 -0.023123
    9 11.368421 -0.000001 -0.000001 0.000000 0.000000 -1.749720
    10 11.368422 0.000005 0.000000 1.654066 0.122789 0.420694
    11 5.073513 0.334713 5.123069 1.652175 -0.023464 0.173451
    12 -1.928779 -0.976111 -0.000205 0.368375 0.000000 0.000000
    13 -0.000003 0.001503 1.894737 -0.000014 -1.370797 3.140810
    14 4.926316 0.000000 0.000005 0.628865 1.413335 -0.963788
    15 11.368423 0.000001 -0.000002 0.000000 0.000000 -0.002355
    16 11.368423 -0.000001 0.000000 -1.457802 -0.390183 0.387764
    17 1.126228 0.104081 -1.358370 2.984948 0.159546 1.191772
    18 2.373627 -0.000001 0.000000 0.000000 0.000000 0.305278
    19 1.071901 0.000001 0.000001 0.000000 0.000000 0.540778
    20 3.789471 -0.000907 -1.136842 0.140342 0.070615 1.112625
    21 1.136841 -0.000004 0.000000 0.000000 0.000000 0.540778
    22 1.136842 0.000000 0.000001 0.000000 0.000000 1.055389
    23 3.789473 -0.000304 -0.378948 0.069906 0.035750 1.108941
    24 1.326315 -0.000003 0.000000 0.000000 0.000000 0.540778
    25 1.326319 0.000002 0.000000 0.000000 0.000000 1.064111
    26 3.789472 0.000299 0.378947 -0.000356 0.000712 1.107722
    27 1.136841 -0.000002 0.000000 0.000000 0.000000 0.540778
    28 1.136845 0.000003 0.000000 0.000000 0.000000 1.055389
    29 3.789472 0.000902 1.136841 -0.133209 -0.065327 1.112141
    30 0.947373 0.000001 0.000000 0.000000 0.000000 0.540778
    31 0.947369 0.000000 0.000000 0.000000 0.000000 1.055389
  time 9
    0 2.665634 3.968871 -24.602341 0.000000 0.000000 -1.483529
    1 0.000000 0.000000 0.000000 0.000000 -1.570796 -1.570795
    2 1.326316 -0.003921 0.000002 -0.000004 -0.000001 0.000796
    3 4.926312 -0.003923 0.000000 0.000000 0.000000 0.000000
    4 4.926314 -0.003923 0.000000 0.000000 0.000000 0.000000
    5 4.926313 -0.003923 0.000000 0.000000 0.000000 0.000000
    6 4.926317 -0.001509 0.000000 0.000000 0.000000 0.000000
    7 -0.000002 0.001514 -1.894737 -0.000014 1.370797 3.140783
    8 4.926314 0.000000 0.000000 -0.038021 -1.242800 0.089751
    9 11.368421 -0.000001 -0.000001 0.000000 0.000000 -1.762224
    10 11.368422 0.000005 0.000000 1.660430 0.122621 0.430773
    11 5.073513 0.334713 5.123069 1.652175 -0.023464 0.173451
    12 -1.928779 -0.976111 -0.000205 0.427353 0.000000 0.000000
    13 -0.000003 0.001503 1.894737 -0.000014 -1.370797 3.140810
    14 4.926316 0.000000 0.000005 0.628865 1.413335 -0.963788
    15 11.368423 0.000001 -0.000002 0.000000 0.000000 -0.002355
    16 11.368423 -0.000001 0.000000 -1.457802 -0.390183 0.387764
    17 1.126228 0.104081 -1.358370 2.984948 0.159546 1.191772
    18 2.373627 -0.000001 0.000000 0.000000 0.000000 0.305278
    19 1.071901 0.000001 0.000001 0.000000 0.000000 0.540778
    20 3.789471 -0.000907 -1.136842 0.140342 0.070615 1.112625
    21 1.136841 -0.000004 0.000000 0.000000 0.000000 0.540778
    22 1.136842 0.000000 0.000001 0.000000 0.000000 1.055389
    23 3.789473 -0.000304 -0.378948 0.069906 0.035750 1.108941
    24 1.326315 -0.000003 0.000000 0.000000 0.000000 0.540778
    25 1.326319 0.000002 0.000000 0.000000 0.000000 1.064111
    26 3.789472 0.000299 0.378947 -0.000356 0.000712 1.107722
    27 1.136841 -0.000002 0.000000 0.000000 0.000000 0.540778
    28 1.136845 0.000003 0.000000 0.000000 0.000000 1.055389
    29 3.789472 0.000902 1.136841 -0.133209 -0.065327 1.112141
    30 0.947373 0.000001 0.000000 0.000000 0.000000 0.540778
    31 0.947369 0.000000 0.000000 0.000000 0.000000 1.055389
  time 10
    0 2.665634 3.968871 -24.602341 0.000000 0.000000 -1.483529
    1 0.000000 0.000000 0.000000 0.000000 -1.570796 -1.570795
    2 1.326316 -0.003921 0.000002 -0.000004 -0.000001 0.000796
    3 4.926312 -0.003923 0.000000 0.000000 0.000000 0.000000
    4 4.926314 -0.003923 0.000000 0.000000 0.000000 0.000000
    5 4.926313 -0.003923 0.000000 0.000000 0.000000 0.000000
    6 4.926317 -0.001509 0.000000 0.000000 0.000000 0.000000
    7 -0.000002 0.001514 -1.894737 -0.000014 1.370797 3.140783
    8 4.926314 0.000000 0.000000 -0.148160 -1.239239 0.205658
    9 11.368421 -0.000001 -0.000001 0.000000 0.000000 -1.775181
    10 11.368422 0.000005 0.000000 1.667009 0.122381 0.441211
    11 5.073513 0.334713 5.123069 1.652175 -0.023464 0.173451
    12 -1.928779 -0.976111 -0.000205 0.479651 0.000000 0.000000
    13 -0.000003 0.001503 1.894737 -0.000014 -1.370797 3.140810
    14 4.926316 0.000000 0.000005 0.628865 1.413335 -0.963788
    15 11.368423 0.000001 -0.000002 0.000000 0.000000 -0.002355
    16 11.368423 -0.000001 0.000000 -1.457802 -0.390183 0.387764
    17 1.126228 0.104081 -1.358370 2.984948 0.159546 1.191772
    18 2.373627 -0.000001 0.000000 0.000000 0.000000 0.305278
    19 1.071901 0.000001 0.000001 0.000000 0.000000 0.540778
    20 3.789471 -0.000907 -1.136842 0.140342 0.070615 1.112625
    21 1.136841 -0.000004 0.000000 0.000000 0.000000 0.540778
    22 1.136842 0.000000 0.000001 0.000000 0.000000 1.055389
    23 3.789473 -0.000304 -0.378948 0.069906 0.035750 1.108941
    24 1.326315 -0.000003 0.000000 0.000000 0.000000 0.540778
    25 1.326319 0.000002 0.000000 0.000000 0.000000 1.064111
    26 3.789472 0.000299 0.378947 -0.000356 0.000712 1.107722
    27 1.136841 -0.000002 0.000000 0.000000 0.000000 0.540778
    28 1.136845 0.000003 0.000000 0.000000 0.000000 1.055389
    29 3.789472 0.000902 1.136841 -0.133209 -0.065327 1.112141
    30 0.947373 0.000001 0.000000 0.000000 0.000000 0.540778
    31 0.947369 0.000000 0.000000 0.000000 0.000000 1.055389
  time 11
    0 2.665634 3.968871 -24.602341 0.000000 0.000000 -1.483529
    1 0.000000 0.000000 0.000000 0.000000 -1.570796 -1.570795
    2 1.326316 -0.003921 0.000002 -0.000004 -0.000001 0.000796
    3 4.926312 -0.003923 0.000000 0.000000 0.000000 0.000000
    4 4.926314 -0.003923 0.000000 0.000000 0.000000 0.000000
    5 4.926313 -0.003923 0.000000 0.000000 0.000000 0.000000
    6 4.926317 -0.001509 0.000000 0.000000 0.000000 0.000000
    7 -0.000002 0.001514 -1.894737 -0.000014 1.370797 3.140783
    8 4.926314 0.000000 0.000000 -0.257541 -1.231366 0.321079
    9 11.368421 -0.000001 -0.000001 0.000000 0.000000 -1.788520
    10 11.368422 0.000005 0.000000 1.673793 0.122058 0.451949
    11 5.073513 0.334713 5.123069 1.652175 -0.023464 0.173451
    12 -1.928779 -0.976111 -0.000205 0.455697 0.000000 0.000000
    13 -0.000003 0.001503 1.894737 -0.000014 -1.370797 3.140810
    14 4.926316 0.000000 0.000005 0.628865 1.413335 -0.963788
    15 11.368423 0.000001 -0.000002 0.000000 0.000000 -0.002355
    16 11.368423 -0.000001 0.000000 -1.457802 -0.390183 0.387764
    17 1.126228 0.104081 -1.358370 2.984948 0.159546 1.191772
    18 2.373627 -0.000001 0.000000 0.000000 0.000000 0.305278
    19 1.071901 0.000001 0.000001 0.000000 0.000000 0.540778
    20 3.789471 -0.000907 -1.136842 0.140342 0.070615 1.112625
    21 1.136841 -0.000004 0.000000 0.000000 0.000000 0.540778
    22 1.136842 0.000000 0.000001 0.000000 0.000000 1.055389
    23 3.789473 -0.000304 -0.378948 0.069906 0.035750 1.108941
    24 1.326315 -0.000003 0.000000 0.000000 0.000000 0.540778
    25 1.326319 0.000002 0.000000 0.000000 0.000000 1.064111
    26 3.789472 0.000299 0.378947 -0.000356 0.000712 1.107722
    27 1.136841 -0.000002 0.000000 0.000000 0.000000 0.540778
    28 1.136845 0.000003 0.000000 0.000000 0.000000 1.055389
    29 3.789472 0.000902 1.136841 -0.133209 -0.065327 1.112141
    30 0.947373 0.000001 0.000000 0.000000 0.000000 0.540778
    31 0.947369 0.000000 0.000000 0.000000 0.000000 1.055389
  time 12
    0 2.665634 3.968871 -24.602341 0.000000 0.000000 -1.483529
    1 0.000000 0.000000 0.000000 0.000000 -1.570796 -1.570795
    2 1.326316 -0.003921 0.000002 -0.000004 -0.000001 0.000796
    3 4.926312 -0.003923 0.000000 0.000000 0.000000 0.000000
    4 4.926314 -0.003923 0.000000 0.000000 0.000000 0.000000
    5 4.926313 -0.003923 0.000000 0.000000 0.000000 0.000000
    6 4.926317 -0.001509 0.000000 0.000000 0.000000 0.000000
    7 -0.000002 0.001514 -1.894737 -0.000014 1.370797 3.140783
    8 4.926314 0.000000 0.000000 -0.362941 -1.219181 0.432619
    9 11.368421 -0.000001 -0.000001 0.000000 0.000000 -1.802155
    10 11.368422 0.000005 0.000000 1.680708 0.121638 0.462927
    11 5.073513 0.334713 5.123069 1.652175 -0.023464 0.173451
    12 -1.928779 -0.976111 -0.000205 0.431743 0.000000 0.000000
    13 -0.000003 0.001503 1.894737 -0.000014 -1.370797 3.140810
    14 4.926316 0.000000 0.000005 0.628865 1.413335 -0.963788
    15 11.368423 0.000001 -0.000002 0.000000 0.000000 -0.002355
    16 11.368423 -0.000001 0.000000 -1.457802 -0.390183 0.387764
    17 1.126228 0.104081 -1.358370 2.984948 0.159546 1.191772
    18 2.373627 -0.000001 0.000000 0.000000 0.000000 0.305278
    19 1.071901 0.000001 0.000001 0.000000 0.000000 0.540778
    20 3.789471 -0.000907 -1.136842 0.140342 0.070615 1.112625
    21 1.136841 -0.000004 0.000000 0.000000 0.000000 0.540778
    22 1.136842 0.000000 0.000001 0.000000 0.000000 1.055389
    23 3.789473 -0.000304 -0.378948 0.069906 0.035750 1.108941
    24 1.326315 -0.000003 0.000000 0.000000 0.000000 0.540778
    25 1.326319 0.000002 0.000000 0.000000 0.000000 1.064111
    26 3.789472 0.000299 0.378947 -0.000356 0.000712 1.107722
    27 1.136841 -0.000002 0.000000 0.000000 0.000000 0.540778
    28 1.136845 0.000003 0.000000 0.000000 0.000000 1.055389
    29 3.789472 0.000902 1.136841 -0.133209 -0.065327 1.112141
    30 0.947373 0.000001 0.000000 0.000000 0.000000 0.540778
    31 0.947369 0.000000 0.000000 0.000000 0.000000 1.055389
  time 13
    0 2.665634 3.968871 -24.602341 0.000000 0.000000 -1.483529
    1 0.000000 0.000000 0.000000 0.000000 -1.570796 -1.570795
    2 1.326316 -0.003921 0.000002 -0.000004 -0.000001 0.000796
    3 4.926312 -0.003923 0.000000 0.000000 0.000000 0.000000
    4 4.926314 -0.003923 0.000000 0.000000 0.000000 0.000000
    5 4.926313 -0.003923 0.000000 0.000000 0.000000 0.000000
    6 4.926317 -0.001509 0.000000 0.000000 0.000000 0.000000
    7 -0.000002 0.001514 -1.894737 -0.000014 1.370797 3.140783
    8 4.926314 0.000000 0.000000 -0.461579 -1.202962 0.537487
    9 11.368421 -0.000001 -0.000001 0.000000 0.000000 -1.816016
    10 11.368422 0.000005 0.000000 1.687743 0.121147 0.474085
    11 5.073513 0.334713 5.123069 1.652175 -0.023464 0.173451
    12 -1.928779 -0.976111 -0.000205 0.407694 0.000000 0.000000
    13 -0.000003 0.001503 1.894737 -0.000014 -1.370797 3.140810
    14 4.926316 0.000000 0.000005 0.628865 1.413335 -0.963788
    15 11.368423 0.000001 -0.000002 0.000000 0.000000 -0.002355
    16 11.368423 -0.000001 0.000000 -1.457802 -0.390183 0.387764
    17 1.126228 0.104081 -1.358370 2.984948 0.159546 1.191772
    18 2.373627 -0.000001 0.000000 0.000000 0.000000 0.305278
    19 1.071901 0.000001 0.000001 0.000000 0.000000 0.540778
    20 3.789471 -0.000907 -1.136842 0.140342 0.070615 1.112625
    21 1.136841 -0.000004 0.000000 0.000000 0.000000 0.540778
    22 1.136842 0.000000 0.000001 0.000000 0.000000 1.055389
    23 3.789473 -0.000304 -0.378948 0.069906 0.035750 1.108941
    24 1.326315 -0.000003 0.000000 0.000000 0.000000 0.540778
    25 1.326319 0.000002 0.000000 0.000000 0.000000 1.064111
    26 3.789472 0.000299 0.378947 -0.000356 0.000712 1.107722
    27 1.136841 -0.000002 0.000000 0.000000 0.000000 0.540778
    28 1.136845 0.000003 0.000000 0.000000 0.000000 1.055389
    29 3.789472 0.000902 1.136841 -0.133209 -0.065327 1.112141
    30 0.947373 0.000001 0.000000 0.000000 0.000000 0.540778
    31 0.947369 0.000000 0.000000 0.000000 0.000000 1.055389
  time 14
    0 2.665634 3.968871 -24.602341 0.000000 0.000000 -1.483529
    1 0.000000 0.000000 0.000000 0.000000 -1.570796 -1.570795
    2 1.326316 -0.003921 0.000002 -0.000004 -0.000001 0.000796
    3 4.926312 -0.003923 0.000000 0.000000 0.000000 0.000000
    4 4.926314 -0.003923 0.000000 0.000000 0.000000 0.000000
    5 4.926313 -0.003923 0.000000 0.000000 0.000000 0.000000
    6 4.926317 -0.001509 0.000000 0.000000 0.000000 0.000000
    7 -0.000002 0.001514 -1.894737 -0.000014 1.370797 3.140783
    8 4.926314 0.000000 0.000000 -0.551813 -1.183110 0.634107
    9 11.368421 -0.000001 -0.000001 0.000000 0.000000 -1.830033
    10 11.368422 0.000005 0.000000 1.694850 0.120571 0.485350
    11 5.073513 0.334713 5.123069 1.652175 -0.023464 0.173451
    12 -1.928779 -0.976111 -0.000205 0.383740 0.000000 0.000000
    13 -0.000003 0.001503 1.894737 -0.000014 -1.370797 3.140810
    14 4.926316 0.000000 0.000005 0.628865 1.413335 -0.963788
    15 11.368423 0.000001 -0.000002 0.000000 0.000000 -0.002355
    16 11.368423 -0.000001 0.000000 -1.457802 -0.390183 0.387764
    17 1.126228 0.104081 -1.358370 2.984948 0.159546 1.191772
    18 2.373627 -0.000001 0.000000 0.000000 0.000000 0.305278
    19 1.071901 0.000001 0.000001 0.000000 0.000000 0.540778
    20 3.789471 -0.000907 -1.136842 0.140342 0.070615 1.112625
    21 1.136841 -0.000004 0.000000 0.000000 0.000000 0.540778
    22 1.136842 0.000000 0.000001 0.000000 0.000000 1.055389
    23 3.789473 -0.000304 -0.378948 0.069906 0.035750 1.108941
    24 1.326315 -0.000003 0.000000 0.000000 0.000000 0.540778
    25 1.326319 0.000002 0.000000 0.000000 0.000000 1.064111
    26 3.789472 0.000299 0.378947 -0.000356 0.000712 1.107722
    27 1.136841 -0.000002 0.000000 0.000000 0.000000 0.540778
    28 1.136845 0.000003 0.000000 0.000000 0.000000 1.055389
    29 3.789472 0.000902 1.136841 -0.133209 -0.065327 1.112141
    30 0.947373 0.000001 0.000000 0.000000 0.000000 0.540778
    31 0.947369 0.000000 0.000000 0.000000 0.000000 1.055389
  time 15
    0 2.665634 3.968871 -24.602341 0.000000 0.000000 -1.483529
    1 0.000000 0.000000 0.000000 0.000000 -1.570796 -1.570795
    2 1.326316 -0.003921 0.000002 -0.000004 -0.000001 0.000796
    3 4.926312 -0.003923 0.000000 0.000000 0.000000 0.000000
    4 4.926314 -0.003923 0.000000 0.000000 0.000000 0.000000
    5 4.926313 -0.003923 0.000000 0.000000 0.000000 0.000000
    6 4.926317 -0.001509 0.000000 0.000000 0.000000 0.000000
    7 -0.000002 0.001514 -1.894737 -0.000014 1.370797 3.140783
    8 4.926314 0.000000 0.000000 -0.632822 -1.160182 0.721507
    9 11.368421 -0.000001 -0.000001 0.000000 0.000000 -1.844120
    10 11.368422 0.000005 0.000000 1.701980 0.119912 0.496676
    11 5.073513 0.334713 5.123069 1.652175 -0.023464 0.173451
    12 -1.928779 -0.976111 -0.000205 0.359786 0.000000 0.000000
    13 -0.000003 0.001503 1.894737 -0.000014 -1.370797 3.140810
    14 4.926316 0.000000 0.000005 0.628865 1.413335 -0.963788
    15 11.368423 0.000001 -0.000002 0.000000 0.000000 -0.002355
    16 11.368423 -0.000001 0.000000 -1.457802 -0.390183 0.387764
    17 1.126228 0.104081 -1.358370 2.984948 0.159546 1.191772
    18 2.373627 -0.000001 0.000000 0.000000 0.000000 0.305278
    19 1.071901 0.000001 0.000001 0.000000 0.000000 0.540778
    20 3.789471 -0.000907 -1.136842 0.140342 0.070615 1.112625
    21 1.136841 -0.000004 0.000000 0.000000 0.000000 0.540778
    22 1.136842 0.000000 0.000001 0.000000 0.000000 1.055389
    23 3.789473 -0.000304 -0.378948 0.069906 0.035750 1.108941
    24 1.326315 -0.000003 0.000000 0.000000 0.000000 0.540778
    25 1.326319 0.000002 0.000000 0.000000 0.000000 1.064111
    26 3.789472 0.000299 0.378947 -0.000356 0.000712 1.107722
    27 1.136841 -0.000002 0.000000 0.000000 0.000000 0.540778
    28 1.136845 0.000003 0.000000 0.000000 0.000000 1.055389
    29 3.789472 0.000902 1.136841 -0.133209 -0.065327 1.112141
    30 0.947373 0.000001 0.000000 0.000000 0.000000 0.540778
    31 0.947369 0.000000 0.000000 0.000000 0.000000 1.055389
  time 16
    0 2.665634 3.968871 -24.602341 0.000000 0.000000 -1.483529
    1 0.000000 0.000000 0.000000 0.000000 -1.570796 -1.570795
    2 1.326316 -0.003921 0.000002 -0.000004 -0.000001 0.000796
    3 4.926312 -0.003923 0.000000 0.000000 0.000000 0.000000
    4 4.926314 -0.003923 0.000000 0.000000 0.000000 0.000000
    5 4.926313 -0.003923 0.000000 0.000000 0.000000 0.000000
    6 4.926317 -0.001509 0.000000 0.000000 0.000000 0.000000
    7 -0.000002 0.001514 -1.894737 -0.000014 1.370797 3.140783
    8 4.926314 0.000000 0.000000 -0.704542 -1.134722 0.799688
    9 11.368421 -0.000001 -0.000001 0.000000 0.000000 -1.858207
    10 11.368422 0.000005 0.000000 1.709099 0.119169 0.508001
    11 5.073513 0.334713 5.123069 1.652175 -0.023464 0.173451
    12 -1.928779 -0.976111 -0.000205 0.335737 0.000000 0.000000
    13 -0.000003 0.001503 1.894737 -0.000014 -1.370797 3.140810
    14 4.926316 0.000000 0.000005 0.628865 1.413335 -0.963788
    15 11.368423 0.000001 -0.000002 0.000000 0.000000 -0.002355
    16 11.368423 -0.000001 0.000000 -1.457802 -0.390183 0.387764
    17 1.126228 0.104081 -1.358370 2.984948 0.159546 1.191772
    18 2.373627 -0.000001 0.000000 0.000000 0.000000 0.305278
    19 1.071901 0.000001 0.000001 0.000000 0.000000 0.540778
    20 3.789471 -0.000907 -1.136842 0.140342 0.070615 1.112625
    21 1.136841 -0.000004 0.000000 0.000000 0.000000 0.540778
    22 1.136842 0.000000 0.000001 0.000000 0.000000 1.055389
    23 3.789473 -0.000304 -0.378948 0.069906 0.035750 1.108941
    24 1.326315 -0.000003 0.000000 0.000000 0.000000 0.540778
    25 1.326319 0.000002 0.000000 0.000000 0.000000 1.064111
    26 3.789472 0.000299 0.378947 -0.000356 0.000712 1.107722
    27 1.136841 -0.000002 0.000000 0.000000 0.000000 0.540778
    28 1.136845 0.000003 0.000000 0.000000 0.000000 1.055389
    29 3.789472 0.000902 1.136841 -0.133209 -0.065327 1.112141
    30 0.947373 0.000001 0.000000 0.000000 0.000000 0.540778
    31 0.947369 0.000000 0.000000 0.000000 0.000000 1.055389
  time 17
    0 2.665634 3.968871 -24.602341 0.000000 0.000000 -1.483529
    1 0.000000 0.000000 0.000000 0.000000 -1.570796 -1.570795
    2 1.326316 -0.003921 0.000002 -0.000004 -0.000001 0.000796
    3 4.926312 -0.003923 0.000000 0.000000 0.000000 0.000000
    4 4.926314 -0.003923 0.000000 0.000000 0.000000 0.000000
    5 4.926313 -0.003923 0.000000 0.000000 0.000000 0.000000
    6 4.926317 -0.001509 0.000000 0.000000 0.000000 0.000000
    7 -0.000002 0.001514 -1.894737 -0.000014 1.370797 3.140783
    8 4.926314 0.000000 0.000000 -0.767478 -1.107299 0.869074
    9 11.368421 -0.000001 -0.000001 0.000000 0.000000 -1.872207
    10 11.368422 0.000005 0.000000 1.716182 0.118354 0.519255
    11 5.073513 0.334713 5.123069 1.652175 -0.023464 0.173451
    12 -1.928779 -0.976111 -0.000205 0.311783 0.000000 0.000000
    13 -0.000003 0.001503 1.894737 -0.000014 -1.370797 3.140810
    14 4.926316 0.000000 0.000005 0.628865 1.413335 -0.963788
    15 11.368423 0.000001 -0.000002 0.000000 0.000000 -0.002355
    16 11.368423 -0.000001 0.000000 -1.457802 -0.390183 0.387764
    17 1.126228 0.104081 -1.358370 2.984948 0.159546 1.191772
    18 2.373627 -0.000001 0.000000 0.000000 0.000000 0.305278
    19 1.071901 0.000001 0.000001 0.000000 0.000000 0.540778
    20 3.789471 -0.000907 -1.136842 0.140342 0.070615 1.112625
    21 1.136841 -0.000004 0.000000 0.000000 0.000000 0.540778
    22 1.136842 0.000000 0.000001 0.000000 0.000000 1.055389
    23 3.789473 -0.000304 -0.378948 0.069906 0.035750 1.108941
    24 1.326315 -0.000003 0.000000 0.000000 0.000000 0.540778
    25 1.326319 0.000002 0.000000 0.000000 0.000000 1.064111
    26 3.789472 0.000299 0.378947 -0.000356 0.000712 1.107722
    27 1.136841 -0.000002 0.000000 0.000000 0.000000 0.540778
    28 1.136845 0.000003 0.000000 0.000000 0.000000 1.055389
    29 3.789472 0.000902 1.136841 -0.133209 -0.065327 1.112141
    30 0.947373 0.000001 0.000000 0.000000 0.000000 0.540778
    31 0.947369 0.000000 0.000000 0.000000 0.000000 1.055389
  time 18
    0 2.665634 3.968871 -24.602341 0.000000 0.000000 -1.483529
    1 0.000000 0.000000 0.000000 0.000000 -1.570796 -1.570795
    2 1.326316 -0.003921 0.000002 -0.000004 -0.000001 0.000796
    3 4.926312 -0.003923 0.000000 0.000000 0.000000 0.000000
    4 4.926314 -0.003923 0.000000 0.000000 0.000000 0.000000
    5 4.926313 -0.003923 0.000000 0.000000 0.000000 0.000000
    6 4.926317 -0.001509 0.000000 0.000000 0.000000 0.000000
    7 -0.000002 0.001514 -1.894737 -0.000014 1.370797 3.140783
    8 4.926314 0.000000 0.000000 -0.822390 -1.078472 0.930394
    9 11.368421 -0.000001 -0.000001 0.000000 0.000000 -1.886085
    10 11.368422 0.000005 0.000000 1.723169 0.117467 0.530388
    11 5.073513 0.334713 5.123069 1.652175 -0.023464 0.173451
    12 -1.928779 -0.976111 -0.000205 0.287829 0.000000 0.000000
    13 -0.000003 0.001503 1.894737 -0.000014 -1.370797 3.140810
    14 4.926316 0.000000 0.000005 0.628865 1.413335 -0.963788
    15 11.368423 0.000001 -0.000002 0.000000 0.000000 -0.002355
    16 11.368423 -0.000001 0.000000 -1.457802 -0.390183 0.387764
    17 1.126228 0.104081 -1.358370 2.984948 0.159546 1.191772
    18 2.373627 -0.000001 0.000000 0.000000 0.000000 0.305278
    19 1.071901 0.000001 0.000001 0.000000 0.000000 0.540778
    20 3.789471 -0.000907 -1.136842 0.140342 0.070615 1.112625
    21 1.136841 -0.000004 0.000000 0.000000 0.000000 0.540778
    22 1.136842 0.000000 0.000001 0.000000 0.000000 1.055389
    23 3.789473 -0.000304 -0.378948 0.069906 0.035750 1.108941
    24 1.326315 -0.000003 0.000000 0.000000 0.000000 0.540778
    25 1.326319 0.000002 0.000000 0.000000 0.000000 1.064111
    26 3.789472 0.000299 0.378947 -0.000356 0.000712 1.107722
    27 1.136841 -0.000002 0.000000 0.000000 0.000000 0.540778
    28 1.136845 0.000003 0.000000 0.000000 0.000000 1.055389
    29 3.789472 0.000902 1.136841 -0.133209 -0.065327 1.112141
    30 0.947373 0.000001 0.000000 0.000000 0.000000 0.540778
    31 0.947369 0.000000 0.000000 0.000000 0.000000 1.055389
  time 19
    0 2.665634 3.968871 -24.602341 0.000000 0.000000 -1.483529
    1 0.000000 0.000000 0.000000 0.000000 -1.570796 -1.570795
    2 1.326316 -0.003921 0.000002 -0.000004 -0.000001 0.000796
    3 4.926312 -0.003923 0.000000 0.000000 0.000000 0.000000
    4 4.926314 -0.003923 0.000000 0.000000 0.000000 0.000000
    5 4.926313 -0.003923 0.000000 0.000000 0.000000 0.000000
    6 4.926317 -0.001509 0.000000 0.000000 0.000000 0.000000
    7 -0.000002 0.001514 -1.894737 -0.000014 1.370797 3.140783
    8 4.926314 0.000000 0.000000 -0.870098 -1.048737 0.984375
    9 11.368421 -0.000001 -0.000001 0.000000 0.000000 -1.899720
    10 11.368422 0.000005 0.000000 1.730036 0.116533 0.541318
    11 5.073513 0.334713 5.123069 1.652175 -0.023464 0.173451
    12 -1.928779 -0.976111 -0.000205 0.263779 0.000000 0.000000
    13 -0.000003 0.001503 1.894737 -0.000014 -1.370797 3.140810
    14 4.926316 0.000000 0.000005 0.628865 1.413335 -0.963788
    15 11.368423 0.000001 -0.000002 0.000000 0.000000 -0.002355
    16 11.368423 -0.000001 0.000000 -1.457802 -0.390183 0.387764
    17 1.126228 0.104081 -1.358370 2.984948 0.159546 1.191772
    18 2.373627 -0.000001 0.000000 0.000000 0.000000 0.305278
    19 1.071901 0.000001 0.000001 0.000000 0.000000 0.540778
    20 3.789471 -0.000907 -1.136842 0.140342 0.070615 1.112625
    21 1.136841 -0.000004 0.000000 0.000000 0.000000 0.540778
    22 1.136842 0.000000 0.000001 0.000000 0.000000 1.055389
    23 3.789473 -0.000304 -0.378948 0.069906 0.035750 1.108941
    24 1.326315 -0.000003 0.000000 0.000000 0.000000 0.540778
    25 1.326319 0.000002 0.000000 0.000000 0.000000 1.064111
    26 3.789472 0.000299 0.378947 -0.000356 0.000712 1.107722
    27 1.136841 -0.000002 0.000000 0.000000 0.000000 0.540778
    28 1.136845 0.000003 0.000000 0.000000 0.000000 1.055389
    29 3.789472 0.000902 1.136841 -0.133209 -0.065327 1.112141
    30 0.947373 0.000001 0.000000 0.000000 0.000000 0.540778
    31 0.947369 0.000000 0.000000 0.000000 0.000000 1.055389
  time 20
    0 2.665634 3.968871 -24.602341 0.000000 0.000000 -1.483529
    1 0.000000 0.000000 0.000000 0.000000 -1.570796 -1.570795
    2 1.326316 -0.003921 0.000002 -0.000004 -0.000001 0.000796
    3 4.926312 -0.003923 0.000000 0.000000 0.000000 0.000000
    4 4.926314 -0.003923 0.000000 0.000000 0.000000 0.000000
    5 4.926313 -0.003923 0.000000 0.000000 0.000000 0.000000
    6 4.926317 -0.001509 0.000000 0.000000 0.000000 0.000000
    7 -0.000002 0.001514 -1.894737 -0.000014 1.370797 3.140783
    8 4.926314 0.000000 0.000000 -0.911360 -1.018541 1.031987
    9 11.368421 -0.000001 -0.000001 0.000000 0.000000 -1.913042
    10 11.368422 0.000005 0.000000 1.736736 0.115526 0.552009
    11 5.073513 0.334713 5.123069 1.652175 -0.023464 0.173451
    12 -1.928779 -0.976111 -0.000205 0.239826 0.000000 0.000000
    13 -0.000003 0.001503 1.894737 -0.000014 -1.370797 3.140810
    14 4.926316 0.000000 0.000005 0.628865 1.413335 -0.963788
    15 11.368423 0.000001 -0.000002 0.000000 0.000000 -0.002355
    16 11.368423 -0.000001 0.000000 -1.457802 -0.390183 0.387764
    17 1.126228 0.104081 -1.358370 2.984948 0.159546 1.191772
    18 2.373627 -0.000001 0.000000 0.000000 0.000000 0.305278
    19 1.071901 0.000001 0.000001 0.000000 0.000000 0.540778
    20 3.789471 -0.000907 -1.136842 0.140342 0.070615 1.112625
    21 1.136841 -0.000004 0.000000 0.000000 0.000000 0.540778
    22 1.136842 0.000000 0.000001 0.000000 0.000000 1.055389
    23 3.789473 -0.000304 -0.378948 0.069906 0.035750 1.108941
    24 1.326315 -0.000003 0.000000 0.000000 0.000000 0.540778
    25 1.326319 0.000002 0.000000 0.000000 0.000000 1.064111
    26 3.789472 0.000299 0.378947 -0.000356 0.000712 1.107722
    27 1.136841 -0.000002 0.000000 0.000000 0.000000 0.540778
    28 1.136845 0.000003 0.000000 0.000000 0.000000 1.055389
    29 3.789472 0.000902 1.136841 -0.133209 -0.065327 1.112141
    30 0.947373 0.000001 0.000000 0.000000 0.000000 0.540778
    31 0.947369 0.000000 0.000000 0.000000 0.000000 1.055389
  time 21
    0 2.665634 3.968871 -24.602341 0.000000 0.000000 -1.483529
    1 0.000000 0.000000 0.000000 0.000000 -1.570796 -1.570795
    2 1.326316 -0.003921 0.000002 -0.000004 -0.000001 0.000796
    3 4.926312 -0.003923 0.000000 0.000000 0.000000 0.000000
    4 4.926314 -0.003923 0.000000 0.000000 0.000000 0.000000
    5 4.926313 -0.003923 0.000000 0.000000 0.000000 0.000000
    6 4.926317 -0.001509 0.000000 0.000000 0.000000 0.000000
    7 -0.000002 0.001514 -1.894737 -0.000014 1.370797 3.140783
    8 4.926314 0.000000 0.000000 -0.947125 -0.988296 1.073898
    9 11.368421 -0.000001 -0.000001 0.000000 0.000000 -1.926016
    10 11.368422 0.000005 0.000000 1.743243 0.114495 0.562387
    11 5.073513 0.334713 5.123069 1.652175 -0.023464 0.173451
    12 -1.928779 -0.976111 -0.000205 0.215872 0.000000 0.000000
    13 -0.000003 0.001503 1.894737 -0.000014 -1.370797 3.140810
    14 4.926316 0.000000 0.000005 0.628865 1.413335 -0.963788
    15 11.368423 0.000001 -0.000002 0.000000 0.000000 -0.002355
    16 11.368423 -0.000001 0.000000 -1.457802 -0.390183 0.387764
    17 1.126228 0.104081 -1.358370 2.984948 0.159546 1.191772
    18 2.373627 -0.000001 0.000000 0.000000 0.000000 0.305278
    19 1.071901 0.000001 0.000001 0.000000 0.000000 0.540778
    20 3.789471 -0.000907 -1.136842 0.140342 0.070615 1.112625
    21 1.136841 -0.000004 0.000000 0.000000 0.000000 0.540778
    22 1.136842 0.000000 0.000001 0.000000 0.000000 1.055389
    23 3.789473 -0.000304 -0.378948 0.069906 0.035750 1.108941
    24 1.326315 -0.000003 0.000000 0.000000 0.000000 0.540778
    25 1.326319 0.000002 0.000000 0.000000 0.000000 1.064111
    26 3.789472 0.000299 0.378947 -0.000356 0.000712 1.107722
    27 1.136841 -0.000002 0.000000 0.000000 0.000000 0.540778
    28 1.136845 0.000003 0.000000 0.000000 0.000000 1.055389
    29 3.789472 0.000902 1.136841 -0.133209 -0.065327 1.112141
    30 0.947373 0.000001 0.000000 0.000000 0.000000 0.540778
    31 0.947369 0.000000 0.000000 0.000000 0.000000 1.055389
  time 22
    0 2.665634 3.968871 -24.602341 0.000000 0.000000 -1.483529
    1 0.000000 0.000000 0.000000 0.000000 -1.570796 -1.570795
    2 1.326316 -0.003921 0.000002 -0.000004 -0.000001 0.000796
    3 4.926312 -0.003923 0.000000 0.000000 0.000000 0.000000
    4 4.926314 -0.003923 0.000000 0.000000 0.000000 0.000000
    5 4.926313 -0.003923 0.000000 0.000000 0.000000 0.000000
    6 4.926317 -0.001509 0.000000 0.000000 0.000000 0.000000
    7 -0.000002 0.001514 -1.894737 -0.000014 1.370797 3.140783
    8 4.926314 0.000000 0.000000 -0.978025 -0.958415 1.110774
    9 11.368421 -0.000001 -0.000001 0.000000 0.000000 -1.938520
    10 11.368422 0.000005 0.000000 1.749511 0.113429 0.572406
    11 5.073513 0.334713 5.123069 1.652175 -0.023464 0.173451
    12 -1.928779 -0.976111 -0.000205 0.191822 0.000000 0.000000
    13 -0.000003 0.001503 1.894737 -0.000014 -1.370797 3.140810
    14 4.926316 0.000000 0.000005 0.628865 1.413335 -0.963788
    15 11.368423 0.000001 -0.000002 0.000000 0.000000 -0.002355
    16 11.368423 -0.000001 0.000000 -1.457802 -0.390183 0.387764
    17 1.126228 0.104081 -1.358370 2.984948 0.159546 1.191772
    18 2.373627 -0.000001 0.000000 0.000000 0.000000 0.305278
    19 1.071901 0.000001 0.000001 0.000000 0.000000 0.540778
    20 3.789471 -0.000907 -1.136842 0.140342 0.070615 1.112625
    21 1.136841 -0.000004 0.000000 0.000000 0.000000 0.540778
    22 1.136842 0.000000 0.000001 0.000000 0.000000 1.055389
    23 3.789473 -0.000304 -0.378948 0.069906 0.035750 1.108941
    24 1.326315 -0.000003 0.000000 0.000000 0.000000 0.540778
    25 1.326319 0.000002 0.000000 0.000000 0.000000 1.064111
    26 3.789472 0.000299 0.378947 -0.000356 0.000712 1.107722
    27 1.136841 -0.000002 0.000000 0.000000 0.000000 0.540778
    28 1.136845 0.000003 0.000000 0.000000 0.000000 1.055389
    29 3.789472 0.000902 1.136841 -0.133209 -0.065327 1.112141
    30 0.947373 0.000001 0.000000 0.000000 0.000000 0.540778
    31 0.947369 0.000000 0.000000 0.000000 0.000000 1.055389
  time 23
    0 2.665634 3.968871 -24.602341 0.000000 0.000000 -1.483529
    1 0.000000 0.000000 0.000000 0.000000 -1.570796 -1.570795
    2 1.326316 -0.003921 0.000002 -0.000004 -0.000001 0.000796
    3 4.926312 -0.003923 0.000000 0.000000 0.000000 0.000000
    4 4.926314 -0.003923 0.000000 0.000000 0.000000 0.000000
    5 4.926313 -0.003923 0.000000 0.000000 0.000000 0.000000
    6 4.926317 -0.001509 0.000000 0.000000 0.000000 0.000000
    7 -0.000002 0.001514 -1.894737 -0.000014 1.370797 3.140783
    8 4.926314 0.000000 0.000000 -1.004691 -0.929225 1.143223
    9 11.368421 -0.000001 -0.000001 0.000000 0.000000 -1.950503
    10 11.368422 0.000005 0.000000 1.755504 0.112350 0.581982
    11 5.073513 0.334713 5.123069 1.652175 -0.023464 0.173451
    12 -1.928779 -0.976111 -0.000205 0.167868 0.000000 0.000000
    13 -0.000003 0.001503 1.894737 -0.000014 -1.370797 3.140810
    14 4.926316 0.000000 0.000005 0.628865 1.413335 -0.963788
    15 11.368423 0.000001 -0.000002 0.000000 0.000000 -0.002355
    16 11.368423 -0.000001 0.000000 -1.457802 -0.390183 0.387764
    17 1.126228 0.104081 -1.358370 2.984948 0.159546 1.191772
    18 2.373627 -0.000001 0.000000 0.000000 0.000000 0.305278
    19 1.071901 0.000001 0.000001 0.000000 0.000000 0.540778
    20 3.789471 -0.000907 -1.136842 0.140342 0.070615 1.112625
    21 1.136841 -0.000004 0.000000 0.000000 0.000000 0.540778
    22 1.136842 0.000000 0.000001 0.000000 0.000000 1.055389
    23 3.789473 -0.000304 -0.378948 0.069906 0.035750 1.108941
    24 1.326315 -0.000003 0.000000 0.000000 0.000000 0.540778
    25 1.326319 0.000002 0.000000 0.000000 0.000000 1.064111
    26 3.789472 0.000299 0.378947 -0.000356 0.000712 1.107722
    27 1.136841 -0.000002 0.000000 0.000000 0.000000 0.540778
    28 1.136845 0.000003 0.000000 0.000000 0.000000 1.055389
    29 3.789472 0.000902 1.136841 -0.133209 -0.065327 1.112141
    30 0.947373 0.000001 0.000000 0.000000 0.000000 0.540778
    31 0.947369 0.000000 0.000000 0.000000 0.000000 1.055389
  time 24
    0 2.665634 3.968871 -24.602341 0.000000 0.000000 -1.483529
    1 0.000000 0.000000 0.000000 0.000000 -1.570796 -1.570795
    2 1.326316 -0.003921 0.000002 -0.000004 -0.000001 0.000796
    3 4.926312 -0.003923 0.000000 0.000000 0.000000 0.000000
    4 4.926314 -0.003923 0.000000 0.000000 0.000000 0.000000
    5 4.926313 -0.003923 0.000000 0.000000 0.000000 0.000000
    6 4.926317 -0.001509 0.000000 0.000000 0.000000 0.000000
    7 -0.000002 0.001514 -1.894737 -0.000014 1.370797 3.140783
    8 4.926314 0.000000 0.000000 -1.027692 -0.901064 1.171730
    9 11.368421 -0.000001 -0.000001 0.000000 0.000000 -1.961877
    10 11.368422 0.000005 0.000000 1.761184 0.111271 0.591078
    11 5.073513 0.334713 5.123069 1.652175 -0.023464 0.173451
    12 -1.928779 -0.976111 -0.000205 0.143914 0.000000 0.000000
    13 -0.000003 0.001503 1.894737 -0.000014 -1.370797 3.140810
    14 4.926316 0.000000 0.000005 0.628865 1.413335 -0.963788
    15 11.368423 0.000001 -0.000002 0.000000 0.000000 -0.002355
    16 11.368423 -0.000001 0.000000 -1.457802 -0.390183 0.387764
    17 1.126228 0.104081 -1.358370 2.984948 0.159546 1.191772
    18 2.373627 -0.000001 0.000000 0.000000 0.000000 0.305278
    19 1.071901 0.000001 0.000001 0.000000 0.000000 0.540778
    20 3.789471 -0.000907 -1.136842 0.140342 0.070615 1.112625
    21 1.136841 -0.000004 0.000000 0.000000 0.000000 0.540778
    22 1.136842 0.000000 0.000001 0.000000 0.000000 1.055389
    23 3.789473 -0.000304 -0.378948 0.069906 0.035750 1.108941
    24 1.326315 -0.000003 0.000000 0.000000 0.000000 0.540778
    25 1.326319 0.000002 0.000000 0.000000 0.000000 1.064111
    26 3.789472 0.000299 0.378947 -0.000356 0.000712 1.107722
    27 1.136841 -0.000002 0.000000 0.000000 0.000000 0.540778
    28 1.136845 0.000003 0.000000 0.000000 0.000000 1.055389
    29 3.789472 0.000902 1.136841 -0.133209 -0.065327 1.112141
    30 0.947373 0.000001 0.000000 0.000000 0.000000 0.540778
    31 0.947369 0.000000 0.000000 0.000000 0.000000 1.055389
  time 25
    0 2.665634 3.968871 -24.602341 0.000000 0.000000 -1.483529
    1 0.000000 0.000000 0.000000 0.000000 -1.570796 -1.570795
    2 1.326316 -0.003921 0.000002 -0.000004 -0.000001 0.000796
    3 4.926312 -0.003923 0.000000 0.000000 0.000000 0.000000
    4 4.926314 -0.003923 0.000000 0.000000 0.000000 0.000000
    5 4.926313 -0.003923 0.000000 0.000000 0.000000 0.000000
    6 4.926317 -0.001509 0.000000 0.000000 0.000000 0.000000
    7 -0.000002 0.001514 -1.894737 -0.000014 1.370797 3.140783
    8 4.926314 0.000000 0.000000 -1.047407 -0.874235 1.196719
    9 11.368421 -0.000001 -0.000001 0.000000 0.000000 -1.972590
    10 11.368422 0.000005 0.000000 1.766505 0.110217 0.599623
    11 5.073513 0.334713 5.123069 1.652175 -0.023464 0.173451
    12 -1.928779 -0.976111 -0.000205 0.119865 0.000000 0.000000
    13 -0.000003 0.001503 1.894737 -0.000014 -1.370797 3.140810
    14 4.926316 0.000000 0.000005 0.628865 1.413335 -0.963788
    15 11.368423 0.000001 -0.000002 0.000000 0.000000 -0.002355
    16 11.368423 -0.000001 0.000000 -1.457802 -0.390183 0.387764
    17 1.126228 0.104081 -1.358370 2.984948 0.159546 1.191772
    18 2.373627 -0.000001 0.000000 0.000000 0.000000 0.305278
    19 1.071901 0.000001 0.000001 0.000000 0.000000 0.540778
    20 3.789471 -0.000907 -1.136842 0.140342 0.070615 1.112625
    21 1.136841 -0.000004 0.000000 0.000000 0.000000 0.540778
    22 1.136842 0.000000 0.000001 0.000000 0.000000 1.055389
    23 3.789473 -0.000304 -0.378948 0.069906 0.035750 1.108941
    24 1.326315 -0.000003 0.000000 0.000000 0.000000 0.540778
    25 1.326319 0.000002 0.000000 0.000000 0.000000 1.064111
    26 3.789472 0.000299 0.378947 -0.000356 0.000712 1.107722
    27 1.136841 -0.000002 0.000000 0.000000 0.000000 0.540778
    28 1.136845 0.000003 0.000000 0.000000 0.000000 1.055389
    29 3.789472 0.000902 1.136841 -0.133209 -0.065327 1.112141
    30 0.947373 0.000001 0.000000 0.000000 0.000000 0.540778
    31 0.947369 0.000000 0.000000 0.000000 0.000000 1.055389
  time 26
    0 2.665634 3.968871 -24.602341 0.000000 0.000000 -1.483529
    1 0.000000 0.000000 0.000000 0.000000 -1.570796 -1.570795
    2 1.326316 -0.003921 0.000002 -0.000004 -0.000001 0.000796
    3 4.926312 -0.003923 0.000000 0.000000 0.000000 0.000000
    4 4.926314 -0.003923 0.000000 0.000000 0.000000 0.000000
    5 4.926313 -0.003923 0.000000 0.000000 0.000000 0.000000
    6 4.926317 -0.001509 0.000000 0.000000 0.000000 0.000000
    7 -0.000002 0.001514 -1.894737 -0.000014 1.370797 3.140783
    8 4.926314 0.000000 0.000000 -1.064342 -0.849017 1.218554
    9 11.368421 -0.000001 -0.000001 0.000000 0.000000 -1.982538
    10 11.368422 0.000005 0.000000 1.771455 0.109186 0.607557
    11 5.073513 0.334713 5.123069 1.652175 -0.023464 0.173451
    12 -1.928779 -0.976111 -0.000205 0.095911 0.000000 0.000000
    13 -0.000003 0.001503 1.894737 -0.000014 -1.370797 3.140810
    14 4.926316 0.000000 0.000005 0.628865 1.413335 -0.963788
    15 11.368423 0.000001 -0.000002 0.000000 0.000000 -0.002355
    16 11.368423 -0.000001 0.000000 -1.457802 -0.390183 0.387764
    17 1.126228 0.104081 -1.358370 2.984948 0.159546 1.191772
    18 2.373627 -0.000001 0.000000 0.000000 0.000000 0.305278
    19 1.071901 0.000001 0.000001 0.000000 0.000000 0.540778
    20 3.789471 -0.000907 -1.136842 0.140342 0.070615 1.112625
    21 1.136841 -0.000004 0.000000 0.000000 0.000000 0.540778
    22 1.136842 0.000000 0.000001 0.000000 0.000000 1.055389
    23 3.789473 -0.000304 -0.378948 0.069906 0.035750 1.108941
    24 1.326315 -0.000003 0.000000 0.000000 0.000000 0.540778
    25 1.326319 0.000002 0.000000 0.000000 0.000000 1.064111
    26 3.789472 0.000299 0.378947 -0.000356 0.000712 1.107722
    27 1.136841 -0.000002 0.000000 0.000000 0.000000 0.540778
    28 1.136845 0.000003 0.000000 0.000000 0.000000 1.055389
    29 3.789472 0.000902 1.136841 -0.133209 -0.065327 1.112141
    30 0.947373 0.000001 0.000000 0.000000 0.000000 0.540778
    31 0.947369 0.000000 0.000000 0.000000 0.000000 1.055389
  time 27
    0 2.665634 3.968871 -24.602341 0.000000 0.000000 -1.483529
    1 0.000000 0.000000 0.000000 0.000000 -1.570796 -1.570795
    2 1.326316 -0.003921 0.000002 -0.000004 -0.000001 0.000796
    3 4.926312 -0.003923 0.000000 0.000000 0.000000 0.000000
    4 4.926314 -0.003923 0.000000 0.000000 0.000000 0.000000
    5 4.926313 -0.003923 0.000000 0.000000 0.000000 0.000000
    6 4.926317 -0.001509 0.000000 0.000000 0.000000 0.000000
    7 -0.000002 0.001514 -1.894737 -0.000014 1.370797 3.140783
    8 4.926314 0.000000 0.000000 -1.078686 -0.825701 1.237538
    9 11.368421 -0.000001 -0.000001 0.000000 0.000000 -1.991668
    10 11.368422 0.000005 0.000000 1.775985 0.108215 0.614832
    11 5.073513 0.334713 5.123069 1.652175 -0.023464 0.173451
    12 -1.928779 -0.976111 -0.000205 0.071957 0.000000 0.000000
    13 -0.000003 0.001503 1.894737 -0.000014 -1.370797 3.140810
    14 4.926316 0.000000 0.000005 0.628865 1.413335 -0.963788
    15 11.368423 0.000001 -0.000002 0.000000 0.000000 -0.002355
    16 11.368423 -0.000001 0.000000 -1.457802 -0.390183 0.387764
    17 1.126228 0.104081 -1.358370 2.984948 0.159546 1.191772
    18 2.373627 -0.000001 0.000000 0.000000 0.000000 0.305278
    19 1.071901 0.000001 0.000001 0.000000 0.000000 0.540778
    20 3.789471 -0.000907 -1.136842 0.140342 0.070615 1.112625
    21 1.136841 -0.000004 0.000000 0.000000 0.000000 0.540778
    22 1.136842 0.000000 0.000001 0.000000 0.000000 1.055389
    23 3.789473 -0.000304 -0.378948 0.069906 0.035750 1.108941
    24 1.326315 -0.000003 0.000000 0.000000 0.000000 0.540778
    25 1.326319 0.000002 0.000000 0.000000 0.000000 1.064111
    26 3.789472 0.000299 0.378947 -0.000356 0.000712 1.107722
    27 1.136841 -0.000002 0.000000 0.000000 0.000000 0.540778
    28 1.136845 0.000003 0.000000 0.000000 0.000000 1.055389
    29 3.789472 0.000902 1.136841 -0.133209 -0.065327 1.112141
    30 0.947373 0.000001 0.000000 0.000000 0.000000 0.540778
    31 0.947369 0.000000 0.000000 0.000000 0.000000 1.055389
  time 28
    0 2.665634 3.968871 -24.602341 0.000000 0.000000 -1.483529
    1 0.000000 0.000000 0.000000 0.000000 -1.570796 -1.570795
    2 1.326316 -0.003921 0.000002 -0.000004 -0.000001 0.000796
    3 4.926312 -0.003923 0.000000 0.000000 0.000000 0.000000
    4 4.926314 -0.003923 0.000000 0.000000 0.000000 0.000000
    5 4.926313 -0.003923 0.000000 0.000000 0.000000 0.000000
    6 4.926317 -0.001509 0.000000 0.000000 0.000000 0.000000
    7 -0.000002 0.001514 -1.894737 -0.000014 1.370797 3.140783
    8 4.926314 0.000000 0.000000 -1.090755 -0.804553 1.253732
    9 11.368421 -0.000001 -0.000001 0.000000 0.000000 -1.999877
    10 11.368422 0.000005 0.000000 1.780060 0.107305 0.621387
    11 5.073513 0.334713 5.123069 1.652175 -0.023464 0.173451
    12 -1.928779 -0.976111 -0.000205 0.047908 0.000000 0.000000
    13 -0.000003 0.001503 1.894737 -0.000014 -1.370797 3.140810
    14 4.926316 0.000000 0.000005 0.628865 1.413335 -0.963788
    15 11.368423 0.000001 -0.000002 0.000000 0.000000 -0.002355
    16 11.368423 -0.000001 0.000000 -1.457802 -0.390183 0.387764
    17 1.126228 0.104081 -1.358370 2.984948 0.159546 1.191772
    18 2.373627 -0.000001 0.000000 0.000000 0.000000 0.305278
    19 1.071901 0.000001 0.000001 0.000000 0.000000 0.540778
    20 3.789471 -0.000907 -1.136842 0.140342 0.070615 1.112625
    21 1.136841 -0.000004 0.000000 0.000000 0.000000 0.540778
    22 1.136842 0.000000 0.000001 0.000000 0.000000 1.055389
    23 3.789473 -0.000304 -0.378948 0.069906 0.035750 1.108941
    24 1.326315 -0.000003 0.000000 0.000000 0.000000 0.540778
    25 1.326319 0.000002 0.000000 0.000000 0.000000 1.064111
    26 3.789472 0.000299 0.378947 -0.000356 0.000712 1.107722
    27 1.136841 -0.000002 0.000000 0.000000 0.000000 0.540778
    28 1.136845 0.000003 0.000000 0.000000 0.000000 1.055389
    29 3.789472 0.000902 1.136841 -0.133209 -0.065327 1.112141
    30 0.947373 0.000001 0.000000 0.000000 0.000000 0.540778
    31 0.947369 0.000000 0.000000 0.000000 0.000000 1.055389
  time 29
    0 2.665634 3.968871 -24.602341 0.000000 0.000000 -1.483529
    1 0.000000 0.000000 0.000000 0.000000 -1.570796 -1.570795
    2 1.326316 -0.003921 0.000002 -0.000004 -0.000001 0.000796
    3 4.926312 -0.003923 0.000000 0.000000 0.000000 0.000000
    4 4.926314 -0.003923 0.000000 0.000000 0.000000 0.000000
    5 4.926313 -0.003923 0.000000 0.000000 0.000000 0.000000
    6 4.926317 -0.001509 0.000000 0.000000 0.000000 0.000000
    7 -0.000002 0.001514 -1.894737 -0.000014 1.370797 3.140783
    8 4.926314 0.000000 0.000000 -1.100802 -0.785803 1.267500
    9 11.368421 -0.000001 -0.000001 0.000000 0.000000 -2.007129
    10 11.368422 0.000005 0.000000 1.783643 0.106490 0.627152
    11 5.073513 0.334713 5.123069 1.652175 -0.023464 0.173451
    12 -1.928779 -0.976111 -0.000205 0.023954 0.000000 0.000000
    13 -0.000003 0.001503 1.894737 -0.000014 -1.370797 3.140810
    14 4.926316 0.000000 0.000005 0.628865 1.413335 -0.963788
    15 11.368423 0.000001 -0.000002 0.000000 0.000000 -0.002355
    16 11.368423 -0.000001 0.000000 -1.457802 -0.390183 0.387764
    17 1.126228 0.104081 -1.358370 2.984948 0.159546 1.191772
    18 2.373627 -0.000001 0.000000 0.000000 0.000000 0.305278
    19 1.071901 0.000001 0.000001 0.000000 0.000000 0.540778
    20 3.789471 -0.000907 -1.136842 0.140342 0.070615 1.112625
    21 1.136841 -0.000004 0.000000 0.000000 0.000000 0.540778
    22 1.136842 0.000000 0.000001 0.000000 0.000000 1.055389
    23 3.789473 -0.000304 -0.378948 0.069906 0.035750 1.108941
    24 1.326315 -0.000003 0.000000 0.000000 0.000000 0.540778
    25 1.326319 0.000002 0.000000 0.000000 0.000000 1.064111
    26 3.789472 0.000299 0.378947 -0.000356 0.000712 1.107722
    27 1.136841 -0.000002 0.000000 0.000000 0.000000 0.540778
    28 1.136845 0.000003 0.000000 0.000000 0.000000 1.055389
    29 3.789472 0.000902 1.136841 -0.133209 -0.065327 1.112141
    30 0.947373 0.000001 0.000000 0.000000 0.000000 0.540778
    31 0.947369 0.000000 0.000000 0.000000 0.000000 1.055389
  time 30
    0 2.665634 3.968871 -24.602341 0.000000 0.000000 -1.483529
    1 0.000000 0.000000 0.000000 0.000000 -1.570796 -1.570795
    2 1.326316 -0.003921 0.000002 -0.000004 -0.000001 0.000796
    3 4.926312 -0.003923 0.000000 0.000000 0.000000 0.000000
    4 4.926314 -0.003923 0.000000 0.000000 0.000000 0.000000
    5 4.926313 -0.003923 0.000000 0.000000 0.000000 0.000000
    6 4.926317 -0.001509 0.000000 0.000000 0.000000 0.000000
    7 -0.000002 0.001514 -1.894737 -0.000014 1.370797 3.140783
    8 4.926314 0.000000 0.000000 -1.108953 -0.769694 1.278782
    9 11.368421 -0.000001 -0.000001 0.000000 0.000000 -2.013320
    10 11.368422 0.000005 0.000000 1.786711 0.105771 0.632078
    11 5.073513 0.334713 5.123069 1.652175 -0.023464 0.173451
    12 -1.928779 -0.976111 -0.000205 0.000000 0.000000 0.000000
    13 -0.000003 0.001503 1.894737 -0.000014 -1.370797 3.140810
    14 4.926316 0.000000 0.000005 0.628865 1.413335 -0.963788
    15 11.368423 0.000001 -0.000002 0.000000 0.000000 -0.002355
    16 11.368423 -0.000001 0.000000 -1.457802 -0.390183 0.387764
    17 1.126228 0.104081 -1.358370 2.984948 0.159546 1.191772
    18 2.373627 -0.000001 0.000000 0.000000 0.000000 0.305278
    19 1.071901 0.000001 0.000001 0.000000 0.000000 0.540778
    20 3.789471 -0.000907 -1.136842 0.140342 0.070615 1.112625
    21 1.136841 -0.000004 0.000000 0.000000 0.000000 0.540778
    22 1.136842 0.000000 0.000001 0.000000 0.000000 1.055389
    23 3.789473 -0.000304 -0.378948 0.069906 0.035750 1.108941
    24 1.326315 -0.000003 0.000000 0.000000 0.000000 0.540778
    25 1.326319 0.000002 0.000000 0.000000 0.000000 1.064111
    26 3.789472 0.000299 0.378947 -0.000356 0.000712 1.107722
    27 1.136841 -0.000002 0.000000 0.000000 0.000000 0.540778
    28 1.136845 0.000003 0.000000 0.000000 0.000000 1.055389
    29 3.789472 0.000902 1.136841 -0.133209 -0.065327 1.112141
    30 0.947373 0.000001 0.000000 0.000000 0.000000 0.540778
    31 0.947369 0.000000 0.000000 0.000000 0.000000 1.055389
end
