// Created by Crowbar 0.54
version 1
nodes
  0 "Hands biped" -1
  1 "Bip01 Pelvis" 0
  2 "Bip01 Spine" 1
  3 "Bip01 Spine1" 2
  4 "Bip01 Spine2" 3
  5 "Bip01 Spine3" 4
  6 "Bip01 Neck" 5
  7 "Bip01 R Arm" 6
  8 "Bip01 R Arm1" 7
  9 "Bip01 R Arm2" 8
  10 "Bip01 R Hand" 9
  11 "Gauss Master" 10
  12 "Spinner" 11
  13 "Bip01 L Arm" 6
  14 "Bip01 L Arm1" 13
  15 "Bip01 L Arm2" 14
  16 "Bip01 L Hand" 15
  17 "Bip01 L Finger0" 16
  18 "Bip01 L Finger01" 17
  19 "Bip01 L Finger02" 18
  20 "Bip01 L Finger1" 16
  21 "Bip01 L Finger11" 20
  22 "Bip01 L Finger12" 21
  23 "Bip01 L Finger2" 16
  24 "Bip01 L Finger21" 23
  25 "Bip01 L Finger22" 24
  26 "Bip01 L Finger3" 16
  27 "Bip01 L Finger31" 26
  28 "Bip01 L Finger32" 27
  29 "Bip01 L Finger4" 16
  30 "Bip01 L Finger41" 29
  31 "Bip01 L Finger42" 30
end
skeleton
  time 0
    0 2.665634 3.968871 -24.602341 0.000000 0.000000 -1.483529
    1 0.000000 0.000000 0.000000 0.000000 -1.570796 -1.570795
    2 1.326316 -0.003921 0.000002 -0.000004 -0.000001 0.000796
    3 4.926312 -0.003923 0.000000 0.000000 0.000000 0.000000
    4 4.926314 -0.003923 0.000000 0.000000 0.000000 0.000000
    5 4.926313 -0.003923 0.000000 0.000000 0.000000 0.000000
    6 4.926317 -0.001509 0.000000 0.000000 0.000000 0.000000
    7 -0.000002 0.001514 -1.894737 -0.000014 1.370797 3.140783
    8 4.926314 0.000000 0.000000 0.614787 -1.166577 -0.602415
    9 11.368421 -0.000001 -0.000001 0.000000 0.000000 -1.674920
    10 11.368422 0.000005 0.000000 1.616027 0.122513 0.360435
    11 5.073513 0.334713 5.123069 1.652175 -0.023464 0.173451
    12 -1.928779 -0.976111 -0.000205 0.000000 0.000000 0.000000
    13 -0.000003 0.001503 1.894737 -0.000014 -1.370797 3.140810
    14 4.926316 0.000000 0.000005 1.453532 1.448332 -0.122691
    15 11.368423 0.000001 -0.000002 0.000000 0.000000 -0.002355
    16 11.368423 -0.000001 0.000000 -1.457802 -0.390183 0.387764
    17 1.126228 0.104081 -1.358370 2.984948 0.159546 1.191772
    18 2.373627 -0.000001 0.000000 0.000000 0.000000 0.305278
    19 1.071901 0.000001 0.000001 0.000000 0.000000 0.540778
    20 3.789471 -0.000907 -1.136842 0.140342 0.070615 1.112625
    21 1.136841 -0.000004 0.000000 0.000000 0.000000 0.540778
    22 1.136842 0.000000 0.000001 0.000000 0.000000 1.055389
    23 3.789473 -0.000304 -0.378948 0.069906 0.035750 1.108941
    24 1.326315 -0.000003 0.000000 0.000000 0.000000 0.540778
    25 1.326319 0.000002 0.000000 0.000000 0.000000 1.064111
    26 3.789472 0.000299 0.378947 -0.000356 0.000712 1.107722
    27 1.136841 -0.000002 0.000000 0.000000 0.000000 0.540778
    28 1.136845 0.000003 0.000000 0.000000 0.000000 1.055389
    29 3.789472 0.000902 1.136841 -0.133209 -0.065327 1.112141
    30 0.947373 0.000001 0.000000 0.000000 0.000000 0.540778
    31 0.947369 0.000000 0.000000 0.000000 0.000000 1.055389
  time 1
    0 2.665634 3.968871 -24.602341 0.000000 0.000000 -1.483529
    1 0.000000 0.000000 0.000000 0.000000 -1.570796 -1.570795
    2 1.326316 -0.003921 0.000002 -0.000004 -0.000001 0.000796
    3 4.926312 -0.003923 0.000000 0.000000 0.000000 0.000000
    4 4.926314 -0.003923 0.000000 0.000000 0.000000 0.000000
    5 4.926313 -0.003923 0.000000 0.000000 0.000000 0.000000
    6 4.926317 -0.001509 0.000000 0.000000 0.000000 0.000000
    7 -0.000002 0.001514 -1.894737 -0.000014 1.370797 3.140783
    8 4.926314 0.000000 0.000000 0.613270 -1.166092 -0.599504
    9 11.368421 -0.000001 -0.000001 0.000000 0.000000 -1.673198
    10 11.368422 0.000005 0.000000 1.616027 0.122513 0.360435
    11 5.073513 0.334713 5.123069 1.652175 -0.023464 0.173451
    12 -1.928779 -0.976111 -0.000205 0.013647 0.000000 0.000000
    13 -0.000003 0.001503 1.894737 -0.000014 -1.370797 3.140810
    14 4.926316 0.000000 0.000005 1.453532 1.448332 -0.122691
    15 11.368423 0.000001 -0.000002 0.000000 0.000000 -0.002355
    16 11.368423 -0.000001 0.000000 -1.457802 -0.390183 0.387764
    17 1.126228 0.104081 -1.358370 2.984948 0.159546 1.191772
    18 2.373627 -0.000001 0.000000 0.000000 0.000000 0.305278
    19 1.071901 0.000001 0.000001 0.000000 0.000000 0.540778
    20 3.789471 -0.000907 -1.136842 0.140342 0.070615 1.112625
    21 1.136841 -0.000004 0.000000 0.000000 0.000000 0.540778
    22 1.136842 0.000000 0.000001 0.000000 0.000000 1.055389
    23 3.789473 -0.000304 -0.378948 0.069906 0.035750 1.108941
    24 1.326315 -0.000003 0.000000 0.000000 0.000000 0.540778
    25 1.326319 0.000002 0.000000 0.000000 0.000000 1.064111
    26 3.789472 0.000299 0.378947 -0.000356 0.000712 1.107722
    27 1.136841 -0.000002 0.000000 0.000000 0.000000 0.540778
    28 1.136845 0.000003 0.000000 0.000000 0.000000 1.055389
    29 3.789472 0.000902 1.136841 -0.133209 -0.065327 1.112141
    30 0.947373 0.000001 0.000000 0.000000 0.000000 0.540778
    31 0.947369 0.000000 0.000000 0.000000 0.000000 1.055389
  time 2
    0 2.665634 3.968871 -24.602341 0.000000 0.000000 -1.483529
    1 0.000000 0.000000 0.000000 0.000000 -1.570796 -1.570795
    2 1.326316 -0.003921 0.000002 -0.000004 -0.000001 0.000796
    3 4.926312 -0.003923 0.000000 0.000000 0.000000 0.000000
    4 4.926314 -0.003923 0.000000 0.000000 0.000000 0.000000
    5 4.926313 -0.003923 0.000000 0.000000 0.000000 0.000000
    6 4.926317 -0.001509 0.000000 0.000000 0.000000 0.000000
    7 -0.000002 0.001514 -1.894737 -0.000014 1.370797 3.140783
    8 4.926314 0.000000 0.000000 0.610996 -1.165390 -0.595137
    9 11.368421 -0.000001 -0.000001 0.000000 0.000000 -1.670624
    10 11.368422 0.000005 0.000000 1.616027 0.122513 0.360435
    11 5.073513 0.334713 5.123069 1.652175 -0.023464 0.173451
    12 -1.928779 -0.976111 -0.000205 0.053920 0.000000 0.000000
    13 -0.000003 0.001503 1.894737 -0.000014 -1.370797 3.140810
    14 4.926316 0.000000 0.000005 1.453532 1.448332 -0.122691
    15 11.368423 0.000001 -0.000002 0.000000 0.000000 -0.002355
    16 11.368423 -0.000001 0.000000 -1.457802 -0.390183 0.387764
    17 1.126228 0.104081 -1.358370 2.984948 0.159546 1.191772
    18 2.373627 -0.000001 0.000000 0.000000 0.000000 0.305278
    19 1.071901 0.000001 0.000001 0.000000 0.000000 0.540778
    20 3.789471 -0.000907 -1.136842 0.140342 0.070615 1.112625
    21 1.136841 -0.000004 0.000000 0.000000 0.000000 0.540778
    22 1.136842 0.000000 0.000001 0.000000 0.000000 1.055389
    23 3.789473 -0.000304 -0.378948 0.069906 0.035750 1.108941
    24 1.326315 -0.000003 0.000000 0.000000 0.000000 0.540778
    25 1.326319 0.000002 0.000000 0.000000 0.000000 1.064111
    26 3.789472 0.000299 0.378947 -0.000356 0.000712 1.107722
    27 1.136841 -0.000002 0.000000 0.000000 0.000000 0.540778
    28 1.136845 0.000003 0.000000 0.000000 0.000000 1.055389
    29 3.789472 0.000902 1.136841 -0.133209 -0.065327 1.112141
    30 0.947373 0.000001 0.000000 0.000000 0.000000 0.540778
    31 0.947369 0.000000 0.000000 0.000000 0.000000 1.055389
  time 3
    0 2.665634 3.968871 -24.602341 0.000000 0.000000 -1.483529
    1 0.000000 0.000000 0.000000 0.000000 -1.570796 -1.570795
    2 1.326316 -0.003921 0.000002 -0.000004 -0.000001 0.000796
    3 4.926312 -0.003923 0.000000 0.000000 0.000000 0.000000
    4 4.926314 -0.003923 0.000000 0.000000 0.000000 0.000000
    5 4.926313 -0.003923 0.000000 0.000000 0.000000 0.000000
    6 4.926317 -0.001509 0.000000 0.000000 0.000000 0.000000
    7 -0.000002 0.001514 -1.894737 -0.000014 1.370797 3.140783
    8 4.926314 0.000000 0.000000 0.609100 -1.164530 -0.591073
    9 11.368421 -0.000001 -0.000001 0.000000 0.000000 -1.668398
    10 11.368422 0.000005 0.000000 1.616027 0.122513 0.360435
    11 5.073513 0.334713 5.123069 1.652175 -0.023464 0.173451
    12 -1.928779 -0.976111 -0.000205 0.119292 0.000000 0.000000
    13 -0.000003 0.001503 1.894737 -0.000014 -1.370797 3.140810
    14 4.926316 0.000000 0.000005 1.453532 1.448332 -0.122691
    15 11.368423 0.000001 -0.000002 0.000000 0.000000 -0.002355
    16 11.368423 -0.000001 0.000000 -1.457802 -0.390183 0.387764
    17 1.126228 0.104081 -1.358370 2.984948 0.159546 1.191772
    18 2.373627 -0.000001 0.000000 0.000000 0.000000 0.305278
    19 1.071901 0.000001 0.000001 0.000000 0.000000 0.540778
    20 3.789471 -0.000907 -1.136842 0.140342 0.070615 1.112625
    21 1.136841 -0.000004 0.000000 0.000000 0.000000 0.540778
    22 1.136842 0.000000 0.000001 0.000000 0.000000 1.055389
    23 3.789473 -0.000304 -0.378948 0.069906 0.035750 1.108941
    24 1.326315 -0.000003 0.000000 0.000000 0.000000 0.540778
    25 1.326319 0.000002 0.000000 0.000000 0.000000 1.064111
    26 3.789472 0.000299 0.378947 -0.000356 0.000712 1.107722
    27 1.136841 -0.000002 0.000000 0.000000 0.000000 0.540778
    28 1.136845 0.000003 0.000000 0.000000 0.000000 1.055389
    29 3.789472 0.000902 1.136841 -0.133209 -0.065327 1.112141
    30 0.947373 0.000001 0.000000 0.000000 0.000000 0.540778
    31 0.947369 0.000000 0.000000 0.000000 0.000000 1.055389
  time 4
    0 2.665634 3.968871 -24.602341 0.000000 0.000000 -1.483529
    1 0.000000 0.000000 0.000000 0.000000 -1.570796 -1.570795
    2 1.326316 -0.003921 0.000002 -0.000004 -0.000001 0.000796
    3 4.926312 -0.003923 0.000000 0.000000 0.000000 0.000000
    4 4.926314 -0.003923 0.000000 0.000000 0.000000 0.000000
    5 4.926313 -0.003923 0.000000 0.000000 0.000000 0.000000
    6 4.926317 -0.001509 0.000000 0.000000 0.000000 0.000000
    7 -0.000002 0.001514 -1.894737 -0.000014 1.370797 3.140783
    8 4.926314 0.000000 0.000000 0.608594 -1.163585 -0.589132
    9 11.368421 -0.000001 -0.000001 0.000000 0.000000 -1.667755
    10 11.368422 0.000005 0.000000 1.616027 0.122513 0.360435
    11 5.073513 0.334713 5.123069 1.652175 -0.023464 0.173451
    12 -1.928779 -0.976111 -0.000205 0.208428 0.000000 0.000000
    13 -0.000003 0.001503 1.894737 -0.000014 -1.370797 3.140810
    14 4.926316 0.000000 0.000005 1.453532 1.448332 -0.122691
    15 11.368423 0.000001 -0.000002 0.000000 0.000000 -0.002355
    16 11.368423 -0.000001 0.000000 -1.457802 -0.390183 0.387764
    17 1.126228 0.104081 -1.358370 2.984948 0.159546 1.191772
    18 2.373627 -0.000001 0.000000 0.000000 0.000000 0.305278
    19 1.071901 0.000001 0.000001 0.000000 0.000000 0.540778
    20 3.789471 -0.000907 -1.136842 0.140342 0.070615 1.112625
    21 1.136841 -0.000004 0.000000 0.000000 0.000000 0.540778
    22 1.136842 0.000000 0.000001 0.000000 0.000000 1.055389
    23 3.789473 -0.000304 -0.378948 0.069906 0.035750 1.108941
    24 1.326315 -0.000003 0.000000 0.000000 0.000000 0.540778
    25 1.326319 0.000002 0.000000 0.000000 0.000000 1.064111
    26 3.789472 0.000299 0.378947 -0.000356 0.000712 1.107722
    27 1.136841 -0.000002 0.000000 0.000000 0.000000 0.540778
    28 1.136845 0.000003 0.000000 0.000000 0.000000 1.055389
    29 3.789472 0.000902 1.136841 -0.133209 -0.065327 1.112141
    30 0.947373 0.000001 0.000000 0.000000 0.000000 0.540778
    31 0.947369 0.000000 0.000000 0.000000 0.000000 1.055389
  time 5
    0 2.665634 3.968871 -24.602341 0.000000 0.000000 -1.483529
    1 0.000000 0.000000 0.000000 0.000000 -1.570796 -1.570795
    2 1.326316 -0.003921 0.000002 -0.000004 -0.000001 0.000796
    3 4.926312 -0.003923 0.000000 0.000000 0.000000 0.000000
    4 4.926314 -0.003923 0.000000 0.000000 0.000000 0.000000
    5 4.926313 -0.003923 0.000000 0.000000 0.000000 0.000000
    6 4.926317 -0.001509 0.000000 0.000000 0.000000 0.000000
    7 -0.000002 0.001514 -1.894737 -0.000014 1.370797 3.140783
    8 4.926314 0.000000 0.000000 0.610364 -1.162301 -0.589981
    9 11.368421 -0.000001 -0.000001 0.000000 0.000000 -1.669511
    10 11.368422 0.000005 0.000000 1.616027 0.122513 0.360435
    11 5.073513 0.334713 5.123069 1.652175 -0.023464 0.173451
    12 -1.928779 -0.976111 -0.000205 0.319895 0.000000 0.000000
    13 -0.000003 0.001503 1.894737 -0.000014 -1.370797 3.140810
    14 4.926316 0.000000 0.000005 1.453532 1.448332 -0.122691
    15 11.368423 0.000001 -0.000002 0.000000 0.000000 -0.002355
    16 11.368423 -0.000001 0.000000 -1.457802 -0.390183 0.387764
    17 1.126228 0.104081 -1.358370 2.984948 0.159546 1.191772
    18 2.373627 -0.000001 0.000000 0.000000 0.000000 0.305278
    19 1.071901 0.000001 0.000001 0.000000 0.000000 0.540778
    20 3.789471 -0.000907 -1.136842 0.140342 0.070615 1.112625
    21 1.136841 -0.000004 0.000000 0.000000 0.000000 0.540778
    22 1.136842 0.000000 0.000001 0.000000 0.000000 1.055389
    23 3.789473 -0.000304 -0.378948 0.069906 0.035750 1.108941
    24 1.326315 -0.000003 0.000000 0.000000 0.000000 0.540778
    25 1.326319 0.000002 0.000000 0.000000 0.000000 1.064111
    26 3.789472 0.000299 0.378947 -0.000356 0.000712 1.107722
    27 1.136841 -0.000002 0.000000 0.000000 0.000000 0.540778
    28 1.136845 0.000003 0.000000 0.000000 0.000000 1.055389
    29 3.789472 0.000902 1.136841 -0.133209 -0.065327 1.112141
    30 0.947373 0.000001 0.000000 0.000000 0.000000 0.540778
    31 0.947369 0.000000 0.000000 0.000000 0.000000 1.055389
  time 6
    0 2.665634 3.968871 -24.602341 0.000000 0.000000 -1.483529
    1 0.000000 0.000000 0.000000 0.000000 -1.570796 -1.570795
    2 1.326316 -0.003921 0.000002 -0.000004 -0.000001 0.000796
    3 4.926312 -0.003923 0.000000 0.000000 0.000000 0.000000
    4 4.926314 -0.003923 0.000000 0.000000 0.000000 0.000000
    5 4.926313 -0.003923 0.000000 0.000000 0.000000 0.000000
    6 4.926317 -0.001509 0.000000 0.000000 0.000000 0.000000
    7 -0.000002 0.001514 -1.894737 -0.000014 1.370797 3.140783
    8 4.926314 0.000000 0.000000 0.613523 -1.160727 -0.592589
    9 11.368421 -0.000001 -0.000001 0.000000 0.000000 -1.672833
    10 11.368422 0.000005 0.000000 1.616027 0.122513 0.360435
    11 5.073513 0.334713 5.123069 1.652175 -0.023464 0.173451
    12 -1.928779 -0.976111 -0.000205 0.452357 0.000000 0.000000
    13 -0.000003 0.001503 1.894737 -0.000014 -1.370797 3.140810
    14 4.926316 0.000000 0.000005 1.453532 1.448332 -0.122691
    15 11.368423 0.000001 -0.000002 0.000000 0.000000 -0.002355
    16 11.368423 -0.000001 0.000000 -1.457802 -0.390183 0.387764
    17 1.126228 0.104081 -1.358370 2.984948 0.159546 1.191772
    18 2.373627 -0.000001 0.000000 0.000000 0.000000 0.305278
    19 1.071901 0.000001 0.000001 0.000000 0.000000 0.540778
    20 3.789471 -0.000907 -1.136842 0.140342 0.070615 1.112625
    21 1.136841 -0.000004 0.000000 0.000000 0.000000 0.540778
    22 1.136842 0.000000 0.000001 0.000000 0.000000 1.055389
    23 3.789473 -0.000304 -0.378948 0.069906 0.035750 1.108941
    24 1.326315 -0.000003 0.000000 0.000000 0.000000 0.540778
    25 1.326319 0.000002 0.000000 0.000000 0.000000 1.064111
    26 3.789472 0.000299 0.378947 -0.000356 0.000712 1.107722
    27 1.136841 -0.000002 0.000000 0.000000 0.000000 0.540778
    28 1.136845 0.000003 0.000000 0.000000 0.000000 1.055389
    29 3.789472 0.000902 1.136841 -0.133209 -0.065327 1.112141
    30 0.947373 0.000001 0.000000 0.000000 0.000000 0.540778
    31 0.947369 0.000000 0.000000 0.000000 0.000000 1.055389
  time 7
    0 2.665634 3.968871 -24.602341 0.000000 0.000000 -1.483529
    1 0.000000 0.000000 0.000000 0.000000 -1.570796 -1.570795
    2 1.326316 -0.003921 0.000002 -0.000004 -0.000001 0.000796
    3 4.926312 -0.003923 0.000000 0.000000 0.000000 0.000000
    4 4.926314 -0.003923 0.000000 0.000000 0.000000 0.000000
    5 4.926313 -0.003923 0.000000 0.000000 0.000000 0.000000
    6 4.926317 -0.001509 0.000000 0.000000 0.000000 0.000000
    7 -0.000002 0.001514 -1.894737 -0.000014 1.370797 3.140783
    8 4.926314 0.000000 0.000000 0.616872 -1.159394 -0.595925
    9 11.368421 -0.000001 -0.000001 0.000000 0.000000 -1.676485
    10 11.368422 0.000005 0.000000 1.616027 0.122513 0.360435
    11 5.073513 0.334713 5.123069 1.652175 -0.023464 0.173451
    12 -1.928779 -0.976111 -0.000205 0.604288 0.000000 0.000000
    13 -0.000003 0.001503 1.894737 -0.000014 -1.370797 3.140810
    14 4.926316 0.000000 0.000005 1.453532 1.448332 -0.122691
    15 11.368423 0.000001 -0.000002 0.000000 0.000000 -0.002355
    16 11.368423 -0.000001 0.000000 -1.457802 -0.390183 0.387764
    17 1.126228 0.104081 -1.358370 2.984948 0.159546 1.191772
    18 2.373627 -0.000001 0.000000 0.000000 0.000000 0.305278
    19 1.071901 0.000001 0.000001 0.000000 0.000000 0.540778
    20 3.789471 -0.000907 -1.136842 0.140342 0.070615 1.112625
    21 1.136841 -0.000004 0.000000 0.000000 0.000000 0.540778
    22 1.136842 0.000000 0.000001 0.000000 0.000000 1.055389
    23 3.789473 -0.000304 -0.378948 0.069906 0.035750 1.108941
    24 1.326315 -0.000003 0.000000 0.000000 0.000000 0.540778
    25 1.326319 0.000002 0.000000 0.000000 0.000000 1.064111
    26 3.789472 0.000299 0.378947 -0.000356 0.000712 1.107722
    27 1.136841 -0.000002 0.000000 0.000000 0.000000 0.540778
    28 1.136845 0.000003 0.000000 0.000000 0.000000 1.055389
    29 3.789472 0.000902 1.136841 -0.133209 -0.065327 1.112141
    30 0.947373 0.000001 0.000000 0.000000 0.000000 0.540778
    31 0.947369 0.000000 0.000000 0.000000 0.000000 1.055389
  time 8
    0 2.665634 3.968871 -24.602341 0.000000 0.000000 -1.483529
    1 0.000000 0.000000 0.000000 0.000000 -1.570796 -1.570795
    2 1.326316 -0.003921 0.000002 -0.000004 -0.000001 0.000796
    3 4.926312 -0.003923 0.000000 0.000000 0.000000 0.000000
    4 4.926314 -0.003923 0.000000 0.000000 0.000000 0.000000
    5 4.926313 -0.003923 0.000000 0.000000 0.000000 0.000000
    6 4.926317 -0.001509 0.000000 0.000000 0.000000 0.000000
    7 -0.000002 0.001514 -1.894737 -0.000014 1.370797 3.140783
    8 4.926314 0.000000 0.000000 0.619463 -1.158861 -0.599079
    9 11.368421 -0.000001 -0.000001 0.000000 0.000000 -1.679285
    10 11.368422 0.000005 0.000000 1.616027 0.122513 0.360435
    11 5.073513 0.334713 5.123069 1.652175 -0.023464 0.173451
    12 -1.928779 -0.976111 -0.000205 0.774447 0.000000 0.000000
    13 -0.000003 0.001503 1.894737 -0.000014 -1.370797 3.140810
    14 4.926316 0.000000 0.000005 1.453532 1.448332 -0.122691
    15 11.368423 0.000001 -0.000002 0.000000 0.000000 -0.002355
    16 11.368423 -0.000001 0.000000 -1.457802 -0.390183 0.387764
    17 1.126228 0.104081 -1.358370 2.984948 0.159546 1.191772
    18 2.373627 -0.000001 0.000000 0.000000 0.000000 0.305278
    19 1.071901 0.000001 0.000001 0.000000 0.000000 0.540778
    20 3.789471 -0.000907 -1.136842 0.140342 0.070615 1.112625
    21 1.136841 -0.000004 0.000000 0.000000 0.000000 0.540778
    22 1.136842 0.000000 0.000001 0.000000 0.000000 1.055389
    23 3.789473 -0.000304 -0.378948 0.069906 0.035750 1.108941
    24 1.326315 -0.000003 0.000000 0.000000 0.000000 0.540778
    25 1.326319 0.000002 0.000000 0.000000 0.000000 1.064111
    26 3.789472 0.000299 0.378947 -0.000356 0.000712 1.107722
    27 1.136841 -0.000002 0.000000 0.000000 0.000000 0.540778
    28 1.136845 0.000003 0.000000 0.000000 0.000000 1.055389
    29 3.789472 0.000902 1.136841 -0.133209 -0.065327 1.112141
    30 0.947373 0.000001 0.000000 0.000000 0.000000 0.540778
    31 0.947369 0.000000 0.000000 0.000000 0.000000 1.055389
  time 9
    0 2.665634 3.968871 -24.602341 0.000000 0.000000 -1.483529
    1 0.000000 0.000000 0.000000 0.000000 -1.570796 -1.570795
    2 1.326316 -0.003921 0.000002 -0.000004 -0.000001 0.000796
    3 4.926312 -0.003923 0.000000 0.000000 0.000000 0.000000
    4 4.926314 -0.003923 0.000000 0.000000 0.000000 0.000000
    5 4.926313 -0.003923 0.000000 0.000000 0.000000 0.000000
    6 4.926317 -0.001509 0.000000 0.000000 0.000000 0.000000
    7 -0.000002 0.001514 -1.894737 -0.000014 1.370797 3.140783
    8 4.926314 0.000000 0.000000 0.620916 -1.159394 -0.602051
    9 11.368421 -0.000001 -0.000001 0.000000 0.000000 -1.680937
    10 11.368422 0.000005 0.000000 1.616027 0.122513 0.360435
    11 5.073513 0.334713 5.123069 1.652175 -0.023464 0.173451
    12 -1.928779 -0.976111 -0.000205 0.961306 0.000000 0.000000
    13 -0.000003 0.001503 1.894737 -0.000014 -1.370797 3.140810
    14 4.926316 0.000000 0.000005 1.453532 1.448332 -0.122691
    15 11.368423 0.000001 -0.000002 0.000000 0.000000 -0.002355
    16 11.368423 -0.000001 0.000000 -1.457802 -0.390183 0.387764
    17 1.126228 0.104081 -1.358370 2.984948 0.159546 1.191772
    18 2.373627 -0.000001 0.000000 0.000000 0.000000 0.305278
    19 1.071901 0.000001 0.000001 0.000000 0.000000 0.540778
    20 3.789471 -0.000907 -1.136842 0.140342 0.070615 1.112625
    21 1.136841 -0.000004 0.000000 0.000000 0.000000 0.540778
    22 1.136842 0.000000 0.000001 0.000000 0.000000 1.055389
    23 3.789473 -0.000304 -0.378948 0.069906 0.035750 1.108941
    24 1.326315 -0.000003 0.000000 0.000000 0.000000 0.540778
    25 1.326319 0.000002 0.000000 0.000000 0.000000 1.064111
    26 3.789472 0.000299 0.378947 -0.000356 0.000712 1.107722
    27 1.136841 -0.000002 0.000000 0.000000 0.000000 0.540778
    28 1.136845 0.000003 0.000000 0.000000 0.000000 1.055389
    29 3.789472 0.000902 1.136841 -0.133209 -0.065327 1.112141
    30 0.947373 0.000001 0.000000 0.000000 0.000000 0.540778
    31 0.947369 0.000000 0.000000 0.000000 0.000000 1.055389
  time 10
    0 2.665634 3.968871 -24.602341 0.000000 0.000000 -1.483529
    1 0.000000 0.000000 0.000000 0.000000 -1.570796 -1.570795
    2 1.326316 -0.003921 0.000002 -0.000004 -0.000001 0.000796
    3 4.926312 -0.003923 0.000000 0.000000 0.000000 0.000000
    4 4.926314 -0.003923 0.000000 0.000000 0.000000 0.000000
    5 4.926313 -0.003923 0.000000 0.000000 0.000000 0.000000
    6 4.926317 -0.001509 0.000000 0.000000 0.000000 0.000000
    7 -0.000002 0.001514 -1.894737 -0.000014 1.370797 3.140783
    8 4.926314 0.000000 0.000000 0.621801 -1.160678 -0.605144
    9 11.368421 -0.000001 -0.000001 0.000000 0.000000 -1.682068
    10 11.368422 0.000005 0.000000 1.616027 0.122513 0.360435
    11 5.073513 0.334713 5.123069 1.652175 -0.023464 0.173451
    12 -1.928779 -0.976111 -0.000205 1.163531 0.000000 0.000000
    13 -0.000003 0.001503 1.894737 -0.000014 -1.370797 3.140810
    14 4.926316 0.000000 0.000005 1.453532 1.448332 -0.122691
    15 11.368423 0.000001 -0.000002 0.000000 0.000000 -0.002355
    16 11.368423 -0.000001 0.000000 -1.457802 -0.390183 0.387764
    17 1.126228 0.104081 -1.358370 2.984948 0.159546 1.191772
    18 2.373627 -0.000001 0.000000 0.000000 0.000000 0.305278
    19 1.071901 0.000001 0.000001 0.000000 0.000000 0.540778
    20 3.789471 -0.000907 -1.136842 0.140342 0.070615 1.112625
    21 1.136841 -0.000004 0.000000 0.000000 0.000000 0.540778
    22 1.136842 0.000000 0.000001 0.000000 0.000000 1.055389
    23 3.789473 -0.000304 -0.378948 0.069906 0.035750 1.108941
    24 1.326315 -0.000003 0.000000 0.000000 0.000000 0.540778
    25 1.326319 0.000002 0.000000 0.000000 0.000000 1.064111
    26 3.789472 0.000299 0.378947 -0.000356 0.000712 1.107722
    27 1.136841 -0.000002 0.000000 0.000000 0.000000 0.540778
    28 1.136845 0.000003 0.000000 0.000000 0.000000 1.055389
    29 3.789472 0.000902 1.136841 -0.133209 -0.065327 1.112141
    30 0.947373 0.000001 0.000000 0.000000 0.000000 0.540778
    31 0.947369 0.000000 0.000000 0.000000 0.000000 1.055389
  time 11
    0 2.665634 3.968871 -24.602341 0.000000 0.000000 -1.483529
    1 0.000000 0.000000 0.000000 0.000000 -1.570796 -1.570795
    2 1.326316 -0.003921 0.000002 -0.000004 -0.000001 0.000796
    3 4.926312 -0.003923 0.000000 0.000000 0.000000 0.000000
    4 4.926314 -0.003923 0.000000 0.000000 0.000000 0.000000
    5 4.926313 -0.003923 0.000000 0.000000 0.000000 0.000000
    6 4.926317 -0.001509 0.000000 0.000000 0.000000 0.000000
    7 -0.000002 0.001514 -1.894737 -0.000014 1.370797 3.140783
    8 4.926314 0.000000 0.000000 0.622370 -1.162326 -0.608238
    9 11.368421 -0.000001 -0.000001 0.000000 0.000000 -1.682816
    10 11.368422 0.000005 0.000000 1.616027 0.122513 0.360435
    11 5.073513 0.334713 5.123069 1.652175 -0.023464 0.173451
    12 -1.928779 -0.976111 -0.000205 1.379689 0.000000 0.000000
    13 -0.000003 0.001503 1.894737 -0.000014 -1.370797 3.140810
    14 4.926316 0.000000 0.000005 1.453532 1.448332 -0.122691
    15 11.368423 0.000001 -0.000002 0.000000 0.000000 -0.002355
    16 11.368423 -0.000001 0.000000 -1.457802 -0.390183 0.387764
    17 1.126228 0.104081 -1.358370 2.984948 0.159546 1.191772
    18 2.373627 -0.000001 0.000000 0.000000 0.000000 0.305278
    19 1.071901 0.000001 0.000001 0.000000 0.000000 0.540778
    20 3.789471 -0.000907 -1.136842 0.140342 0.070615 1.112625
    21 1.136841 -0.000004 0.000000 0.000000 0.000000 0.540778
    22 1.136842 0.000000 0.000001 0.000000 0.000000 1.055389
    23 3.789473 -0.000304 -0.378948 0.069906 0.035750 1.108941
    24 1.326315 -0.000003 0.000000 0.000000 0.000000 0.540778
    25 1.326319 0.000002 0.000000 0.000000 0.000000 1.064111
    26 3.789472 0.000299 0.378947 -0.000356 0.000712 1.107722
    27 1.136841 -0.000002 0.000000 0.000000 0.000000 0.540778
    28 1.136845 0.000003 0.000000 0.000000 0.000000 1.055389
    29 3.789472 0.000902 1.136841 -0.133209 -0.065327 1.112141
    30 0.947373 0.000001 0.000000 0.000000 0.000000 0.540778
    31 0.947369 0.000000 0.000000 0.000000 0.000000 1.055389
  time 12
    0 2.665634 3.968871 -24.602341 0.000000 0.000000 -1.483529
    1 0.000000 0.000000 0.000000 0.000000 -1.570796 -1.570795
    2 1.326316 -0.003921 0.000002 -0.000004 -0.000001 0.000796
    3 4.926312 -0.003923 0.000000 0.000000 0.000000 0.000000
    4 4.926314 -0.003923 0.000000 0.000000 0.000000 0.000000
    5 4.926313 -0.003923 0.000000 0.000000 0.000000 0.000000
    6 4.926317 -0.001509 0.000000 0.000000 0.000000 0.000000
    7 -0.000002 0.001514 -1.894737 -0.000014 1.370797 3.140783
    8 4.926314 0.000000 0.000000 0.622686 -1.163949 -0.611028
    9 11.368421 -0.000001 -0.000001 0.000000 0.000000 -1.683303
    10 11.368422 0.000005 0.000000 1.616027 0.122513 0.360435
    11 5.073513 0.334713 5.123069 1.652175 -0.023464 0.173451
    12 -1.928779 -0.976111 -0.000205 1.608444 0.000000 0.000000
    13 -0.000003 0.001503 1.894737 -0.000014 -1.370797 3.140810
    14 4.926316 0.000000 0.000005 1.453532 1.448332 -0.122691
    15 11.368423 0.000001 -0.000002 0.000000 0.000000 -0.002355
    16 11.368423 -0.000001 0.000000 -1.457802 -0.390183 0.387764
    17 1.126228 0.104081 -1.358370 2.984948 0.159546 1.191772
    18 2.373627 -0.000001 0.000000 0.000000 0.000000 0.305278
    19 1.071901 0.000001 0.000001 0.000000 0.000000 0.540778
    20 3.789471 -0.000907 -1.136842 0.140342 0.070615 1.112625
    21 1.136841 -0.000004 0.000000 0.000000 0.000000 0.540778
    22 1.136842 0.000000 0.000001 0.000000 0.000000 1.055389
    23 3.789473 -0.000304 -0.378948 0.069906 0.035750 1.108941
    24 1.326315 -0.000003 0.000000 0.000000 0.000000 0.540778
    25 1.326319 0.000002 0.000000 0.000000 0.000000 1.064111
    26 3.789472 0.000299 0.378947 -0.000356 0.000712 1.107722
    27 1.136841 -0.000002 0.000000 0.000000 0.000000 0.540778
    28 1.136845 0.000003 0.000000 0.000000 0.000000 1.055389
    29 3.789472 0.000902 1.136841 -0.133209 -0.065327 1.112141
    30 0.947373 0.000001 0.000000 0.000000 0.000000 0.540778
    31 0.947369 0.000000 0.000000 0.000000 0.000000 1.055389
  time 13
    0 2.665634 3.968871 -24.602341 0.000000 0.000000 -1.483529
    1 0.000000 0.000000 0.000000 0.000000 -1.570796 -1.570795
    2 1.326316 -0.003921 0.000002 -0.000004 -0.000001 0.000796
    3 4.926312 -0.003923 0.000000 0.000000 0.000000 0.000000
    4 4.926314 -0.003923 0.000000 0.000000 0.000000 0.000000
    5 4.926313 -0.003923 0.000000 0.000000 0.000000 0.000000
    6 4.926317 -0.001509 0.000000 0.000000 0.000000 0.000000
    7 -0.000002 0.001514 -1.894737 -0.000014 1.370797 3.140783
    8 4.926314 0.000000 0.000000 0.622623 -1.165862 -0.613514
    9 11.368421 -0.000001 -0.000001 0.000000 0.000000 -1.683320
    10 11.368422 0.000005 0.000000 1.616027 0.122513 0.360435
    11 5.073513 0.334713 5.123069 1.652175 -0.023464 0.173451
    12 -1.928779 -0.976111 -0.000205 1.848365 0.000000 0.000000
    13 -0.000003 0.001503 1.894737 -0.000014 -1.370797 3.140810
    14 4.926316 0.000000 0.000005 1.453532 1.448332 -0.122691
    15 11.368423 0.000001 -0.000002 0.000000 0.000000 -0.002355
    16 11.368423 -0.000001 0.000000 -1.457802 -0.390183 0.387764
    17 1.126228 0.104081 -1.358370 2.984948 0.159546 1.191772
    18 2.373627 -0.000001 0.000000 0.000000 0.000000 0.305278
    19 1.071901 0.000001 0.000001 0.000000 0.000000 0.540778
    20 3.789471 -0.000907 -1.136842 0.140342 0.070615 1.112625
    21 1.136841 -0.000004 0.000000 0.000000 0.000000 0.540778
    22 1.136842 0.000000 0.000001 0.000000 0.000000 1.055389
    23 3.789473 -0.000304 -0.378948 0.069906 0.035750 1.108941
    24 1.326315 -0.000003 0.000000 0.000000 0.000000 0.540778
    25 1.326319 0.000002 0.000000 0.000000 0.000000 1.064111
    26 3.789472 0.000299 0.378947 -0.000356 0.000712 1.107722
    27 1.136841 -0.000002 0.000000 0.000000 0.000000 0.540778
    28 1.136845 0.000003 0.000000 0.000000 0.000000 1.055389
    29 3.789472 0.000902 1.136841 -0.133209 -0.065327 1.112141
    30 0.947373 0.000001 0.000000 0.000000 0.000000 0.540778
    31 0.947369 0.000000 0.000000 0.000000 0.000000 1.055389
  time 14
    0 2.665634 3.968871 -24.602341 0.000000 0.000000 -1.483529
    1 0.000000 0.000000 0.000000 0.000000 -1.570796 -1.570795
    2 1.326316 -0.003921 0.000002 -0.000004 -0.000001 0.000796
    3 4.926312 -0.003923 0.000000 0.000000 0.000000 0.000000
    4 4.926314 -0.003923 0.000000 0.000000 0.000000 0.000000
    5 4.926313 -0.003923 0.000000 0.000000 0.000000 0.000000
    6 4.926317 -0.001509 0.000000 0.000000 0.000000 0.000000
    7 -0.000002 0.001514 -1.894737 -0.000014 1.370797 3.140783
    8 4.926314 0.000000 0.000000 0.622180 -1.168127 -0.615941
    9 11.368421 -0.000001 -0.000001 0.000000 0.000000 -1.682885
    10 11.368422 0.000005 0.000000 1.616027 0.122513 0.360435
    11 5.073513 0.334713 5.123069 1.652175 -0.023464 0.173451
    12 -1.928779 -0.976111 -0.000205 2.098116 0.000000 0.000000
    13 -0.000003 0.001503 1.894737 -0.000014 -1.370797 3.140810
    14 4.926316 0.000000 0.000005 1.453532 1.448332 -0.122691
    15 11.368423 0.000001 -0.000002 0.000000 0.000000 -0.002355
    16 11.368423 -0.000001 0.000000 -1.457802 -0.390183 0.387764
    17 1.126228 0.104081 -1.358370 2.984948 0.159546 1.191772
    18 2.373627 -0.000001 0.000000 0.000000 0.000000 0.305278
    19 1.071901 0.000001 0.000001 0.000000 0.000000 0.540778
    20 3.789471 -0.000907 -1.136842 0.140342 0.070615 1.112625
    21 1.136841 -0.000004 0.000000 0.000000 0.000000 0.540778
    22 1.136842 0.000000 0.000001 0.000000 0.000000 1.055389
    23 3.789473 -0.000304 -0.378948 0.069906 0.035750 1.108941
    24 1.326315 -0.000003 0.000000 0.000000 0.000000 0.540778
    25 1.326319 0.000002 0.000000 0.000000 0.000000 1.064111
    26 3.789472 0.000299 0.378947 -0.000356 0.000712 1.107722
    27 1.136841 -0.000002 0.000000 0.000000 0.000000 0.540778
    28 1.136845 0.000003 0.000000 0.000000 0.000000 1.055389
    29 3.789472 0.000902 1.136841 -0.133209 -0.065327 1.112141
    30 0.947373 0.000001 0.000000 0.000000 0.000000 0.540778
    31 0.947369 0.000000 0.000000 0.000000 0.000000 1.055389
  time 15
    0 2.665634 3.968871 -24.602341 0.000000 0.000000 -1.483529
    1 0.000000 0.000000 0.000000 0.000000 -1.570796 -1.570795
    2 1.326316 -0.003921 0.000002 -0.000004 -0.000001 0.000796
    3 4.926312 -0.003923 0.000000 0.000000 0.000000 0.000000
    4 4.926314 -0.003923 0.000000 0.000000 0.000000 0.000000
    5 4.926313 -0.003923 0.000000 0.000000 0.000000 0.000000
    6 4.926317 -0.001509 0.000000 0.000000 0.000000 0.000000
    7 -0.000002 0.001514 -1.894737 -0.000014 1.370797 3.140783
    8 4.926314 0.000000 0.000000 0.621675 -1.170029 -0.617821
    9 11.368421 -0.000001 -0.000001 0.000000 0.000000 -1.682433
    10 11.368422 0.000005 0.000000 1.616027 0.122513 0.360435
    11 5.073513 0.334713 5.123069 1.652175 -0.023464 0.173451
    12 -1.928779 -0.976111 -0.000205 2.356169 0.000000 0.000000
    13 -0.000003 0.001503 1.894737 -0.000014 -1.370797 3.140810
    14 4.926316 0.000000 0.000005 1.453532 1.448332 -0.122691
    15 11.368423 0.000001 -0.000002 0.000000 0.000000 -0.002355
    16 11.368423 -0.000001 0.000000 -1.457802 -0.390183 0.387764
    17 1.126228 0.104081 -1.358370 2.984948 0.159546 1.191772
    18 2.373627 -0.000001 0.000000 0.000000 0.000000 0.305278
    19 1.071901 0.000001 0.000001 0.000000 0.000000 0.540778
    20 3.789471 -0.000907 -1.136842 0.140342 0.070615 1.112625
    21 1.136841 -0.000004 0.000000 0.000000 0.000000 0.540778
    22 1.136842 0.000000 0.000001 0.000000 0.000000 1.055389
    23 3.789473 -0.000304 -0.378948 0.069906 0.035750 1.108941
    24 1.326315 -0.000003 0.000000 0.000000 0.000000 0.540778
    25 1.326319 0.000002 0.000000 0.000000 0.000000 1.064111
    26 3.789472 0.000299 0.378947 -0.000356 0.000712 1.107722
    27 1.136841 -0.000002 0.000000 0.000000 0.000000 0.540778
    28 1.136845 0.000003 0.000000 0.000000 0.000000 1.055389
    29 3.789472 0.000902 1.136841 -0.133209 -0.065327 1.112141
    30 0.947373 0.000001 0.000000 0.000000 0.000000 0.540778
    31 0.947369 0.000000 0.000000 0.000000 0.000000 1.055389
  time 16
    0 2.665634 3.968871 -24.602341 0.000000 0.000000 -1.483529
    1 0.000000 0.000000 0.000000 0.000000 -1.570796 -1.570795
    2 1.326316 -0.003921 0.000002 -0.000004 -0.000001 0.000796
    3 4.926312 -0.003923 0.000000 0.000000 0.000000 0.000000
    4 4.926314 -0.003923 0.000000 0.000000 0.000000 0.000000
    5 4.926313 -0.003923 0.000000 0.000000 0.000000 0.000000
    6 4.926317 -0.001509 0.000000 0.000000 0.000000 0.000000
    7 -0.000002 0.001514 -1.894737 -0.000014 1.370797 3.140783
    8 4.926314 0.000000 0.000000 0.621611 -1.170853 -0.618791
    9 11.368421 -0.000001 -0.000001 0.000000 0.000000 -1.682329
    10 11.368422 0.000005 0.000000 1.616027 0.122513 0.360435
    11 5.073513 0.334713 5.123069 1.652175 -0.023464 0.173451
    12 -1.928779 -0.976111 -0.000205 2.621189 0.000000 0.000000
    13 -0.000003 0.001503 1.894737 -0.000014 -1.370797 3.140810
    14 4.926316 0.000000 0.000005 1.453532 1.448332 -0.122691
    15 11.368423 0.000001 -0.000002 0.000000 0.000000 -0.002355
    16 11.368423 -0.000001 0.000000 -1.457802 -0.390183 0.387764
    17 1.126228 0.104081 -1.358370 2.984948 0.159546 1.191772
    18 2.373627 -0.000001 0.000000 0.000000 0.000000 0.305278
    19 1.071901 0.000001 0.000001 0.000000 0.000000 0.540778
    20 3.789471 -0.000907 -1.136842 0.140342 0.070615 1.112625
    21 1.136841 -0.000004 0.000000 0.000000 0.000000 0.540778
    22 1.136842 0.000000 0.000001 0.000000 0.000000 1.055389
    23 3.789473 -0.000304 -0.378948 0.069906 0.035750 1.108941
    24 1.326315 -0.000003 0.000000 0.000000 0.000000 0.540778
    25 1.326319 0.000002 0.000000 0.000000 0.000000 1.064111
    26 3.789472 0.000299 0.378947 -0.000356 0.000712 1.107722
    27 1.136841 -0.000002 0.000000 0.000000 0.000000 0.540778
    28 1.136845 0.000003 0.000000 0.000000 0.000000 1.055389
    29 3.789472 0.000902 1.136841 -0.133209 -0.065327 1.112141
    30 0.947373 0.000001 0.000000 0.000000 0.000000 0.540778
    31 0.947369 0.000000 0.000000 0.000000 0.000000 1.055389
  time 17
    0 2.665634 3.968871 -24.602341 0.000000 0.000000 -1.483529
    1 0.000000 0.000000 0.000000 0.000000 -1.570796 -1.570795
    2 1.326316 -0.003921 0.000002 -0.000004 -0.000001 0.000796
    3 4.926312 -0.003923 0.000000 0.000000 0.000000 0.000000
    4 4.926314 -0.003923 0.000000 0.000000 0.000000 0.000000
    5 4.926313 -0.003923 0.000000 0.000000 0.000000 0.000000
    6 4.926317 -0.001509 0.000000 0.000000 0.000000 0.000000
    7 -0.000002 0.001514 -1.894737 -0.000014 1.370797 3.140783
    8 4.926314 0.000000 0.000000 0.622054 -1.169859 -0.618124
    9 11.368421 -0.000001 -0.000001 0.000000 0.000000 -1.682763
    10 11.368422 0.000005 0.000000 1.616027 0.122513 0.360435
    11 5.073513 0.334713 5.123069 1.652175 -0.023464 0.173451
    12 -1.928779 -0.976111 -0.000205 2.891840 0.000000 0.000000
    13 -0.000003 0.001503 1.894737 -0.000014 -1.370797 3.140810
    14 4.926316 0.000000 0.000005 1.453532 1.448332 -0.122691
    15 11.368423 0.000001 -0.000002 0.000000 0.000000 -0.002355
    16 11.368423 -0.000001 0.000000 -1.457802 -0.390183 0.387764
    17 1.126228 0.104081 -1.358370 2.984948 0.159546 1.191772
    18 2.373627 -0.000001 0.000000 0.000000 0.000000 0.305278
    19 1.071901 0.000001 0.000001 0.000000 0.000000 0.540778
    20 3.789471 -0.000907 -1.136842 0.140342 0.070615 1.112625
    21 1.136841 -0.000004 0.000000 0.000000 0.000000 0.540778
    22 1.136842 0.000000 0.000001 0.000000 0.000000 1.055389
    23 3.789473 -0.000304 -0.378948 0.069906 0.035750 1.108941
    24 1.326315 -0.000003 0.000000 0.000000 0.000000 0.540778
    25 1.326319 0.000002 0.000000 0.000000 0.000000 1.064111
    26 3.789472 0.000299 0.378947 -0.000356 0.000712 1.107722
    27 1.136841 -0.000002 0.000000 0.000000 0.000000 0.540778
    28 1.136845 0.000003 0.000000 0.000000 0.000000 1.055389
    29 3.789472 0.000902 1.136841 -0.133209 -0.065327 1.112141
    30 0.947373 0.000001 0.000000 0.000000 0.000000 0.540778
    31 0.947369 0.000000 0.000000 0.000000 0.000000 1.055389
  time 18
    0 2.665634 3.968871 -24.602341 0.000000 0.000000 -1.483529
    1 0.000000 0.000000 0.000000 0.000000 -1.570796 -1.570795
    2 1.326316 -0.003921 0.000002 -0.000004 -0.000001 0.000796
    3 4.926312 -0.003923 0.000000 0.000000 0.000000 0.000000
    4 4.926314 -0.003923 0.000000 0.000000 0.000000 0.000000
    5 4.926313 -0.003923 0.000000 0.000000 0.000000 0.000000
    6 4.926317 -0.001509 0.000000 0.000000 0.000000 0.000000
    7 -0.000002 0.001514 -1.894737 -0.000014 1.370797 3.140783
    8 4.926314 0.000000 0.000000 0.622812 -1.167619 -0.616244
    9 11.368421 -0.000001 -0.000001 0.000000 0.000000 -1.683529
    10 11.368422 0.000005 0.000000 1.616027 0.122513 0.360435
    11 5.073513 0.334713 5.123069 1.652175 -0.023464 0.173451
    12 -1.928779 -0.976111 -0.000205 -3.116396 0.000000 0.000000
    13 -0.000003 0.001503 1.894737 -0.000014 -1.370797 3.140810
    14 4.926316 0.000000 0.000005 1.453532 1.448332 -0.122691
    15 11.368423 0.000001 -0.000002 0.000000 0.000000 -0.002355
    16 11.368423 -0.000001 0.000000 -1.457802 -0.390183 0.387764
    17 1.126228 0.104081 -1.358370 2.984948 0.159546 1.191772
    18 2.373627 -0.000001 0.000000 0.000000 0.000000 0.305278
    19 1.071901 0.000001 0.000001 0.000000 0.000000 0.540778
    20 3.789471 -0.000907 -1.136842 0.140342 0.070615 1.112625
    21 1.136841 -0.000004 0.000000 0.000000 0.000000 0.540778
    22 1.136842 0.000000 0.000001 0.000000 0.000000 1.055389
    23 3.789473 -0.000304 -0.378948 0.069906 0.035750 1.108941
    24 1.326315 -0.000003 0.000000 0.000000 0.000000 0.540778
    25 1.326319 0.000002 0.000000 0.000000 0.000000 1.064111
    26 3.789472 0.000299 0.378947 -0.000356 0.000712 1.107722
    27 1.136841 -0.000002 0.000000 0.000000 0.000000 0.540778
    28 1.136845 0.000003 0.000000 0.000000 0.000000 1.055389
    29 3.789472 0.000902 1.136841 -0.133209 -0.065327 1.112141
    30 0.947373 0.000001 0.000000 0.000000 0.000000 0.540778
    31 0.947369 0.000000 0.000000 0.000000 0.000000 1.055389
  time 19
    0 2.665634 3.968871 -24.602341 0.000000 0.000000 -1.483529
    1 0.000000 0.000000 0.000000 0.000000 -1.570796 -1.570795
    2 1.326316 -0.003921 0.000002 -0.000004 -0.000001 0.000796
    3 4.926312 -0.003923 0.000000 0.000000 0.000000 0.000000
    4 4.926314 -0.003923 0.000000 0.000000 0.000000 0.000000
    5 4.926313 -0.003923 0.000000 0.000000 0.000000 0.000000
    6 4.926317 -0.001509 0.000000 0.000000 0.000000 0.000000
    7 -0.000002 0.001514 -1.894737 -0.000014 1.370797 3.140783
    8 4.926314 0.000000 0.000000 0.623697 -1.165366 -0.614424
    9 11.368421 -0.000001 -0.000001 0.000000 0.000000 -1.684346
    10 11.368422 0.000005 0.000000 1.616027 0.122513 0.360435
    11 5.073513 0.334713 5.123069 1.652175 -0.023464 0.173451
    12 -1.928779 -0.976111 -0.000205 -2.838779 0.000000 0.000000
    13 -0.000003 0.001503 1.894737 -0.000014 -1.370797 3.140810
    14 4.926316 0.000000 0.000005 1.453532 1.448332 -0.122691
    15 11.368423 0.000001 -0.000002 0.000000 0.000000 -0.002355
    16 11.368423 -0.000001 0.000000 -1.457802 -0.390183 0.387764
    17 1.126228 0.104081 -1.358370 2.984948 0.159546 1.191772
    18 2.373627 -0.000001 0.000000 0.000000 0.000000 0.305278
    19 1.071901 0.000001 0.000001 0.000000 0.000000 0.540778
    20 3.789471 -0.000907 -1.136842 0.140342 0.070615 1.112625
    21 1.136841 -0.000004 0.000000 0.000000 0.000000 0.540778
    22 1.136842 0.000000 0.000001 0.000000 0.000000 1.055389
    23 3.789473 -0.000304 -0.378948 0.069906 0.035750 1.108941
    24 1.326315 -0.000003 0.000000 0.000000 0.000000 0.540778
    25 1.326319 0.000002 0.000000 0.000000 0.000000 1.064111
    26 3.789472 0.000299 0.378947 -0.000356 0.000712 1.107722
    27 1.136841 -0.000002 0.000000 0.000000 0.000000 0.540778
    28 1.136845 0.000003 0.000000 0.000000 0.000000 1.055389
    29 3.789472 0.000902 1.136841 -0.133209 -0.065327 1.112141
    30 0.947373 0.000001 0.000000 0.000000 0.000000 0.540778
    31 0.947369 0.000000 0.000000 0.000000 0.000000 1.055389
  time 20
    0 2.665634 3.968871 -24.602341 0.000000 0.000000 -1.483529
    1 0.000000 0.000000 0.000000 0.000000 -1.570796 -1.570795
    2 1.326316 -0.003921 0.000002 -0.000004 -0.000001 0.000796
    3 4.926312 -0.003923 0.000000 0.000000 0.000000 0.000000
    4 4.926314 -0.003923 0.000000 0.000000 0.000000 0.000000
    5 4.926313 -0.003923 0.000000 0.000000 0.000000 0.000000
    6 4.926317 -0.001509 0.000000 0.000000 0.000000 0.000000
    7 -0.000002 0.001514 -1.894737 -0.000014 1.370797 3.140783
    8 4.926314 0.000000 0.000000 0.624392 -1.164288 -0.614000
    9 11.368421 -0.000001 -0.000001 0.000000 0.000000 -1.685007
    10 11.368422 0.000005 0.000000 1.616027 0.122513 0.360435
    11 5.073513 0.334713 5.123069 1.652175 -0.023464 0.173451
    12 -1.928779 -0.976111 -0.000205 -2.559730 0.000000 0.000000
    13 -0.000003 0.001503 1.894737 -0.000014 -1.370797 3.140810
    14 4.926316 0.000000 0.000005 1.453532 1.448332 -0.122691
    15 11.368423 0.000001 -0.000002 0.000000 0.000000 -0.002355
    16 11.368423 -0.000001 0.000000 -1.457802 -0.390183 0.387764
    17 1.126228 0.104081 -1.358370 2.984948 0.159546 1.191772
    18 2.373627 -0.000001 0.000000 0.000000 0.000000 0.305278
    19 1.071901 0.000001 0.000001 0.000000 0.000000 0.540778
    20 3.789471 -0.000907 -1.136842 0.140342 0.070615 1.112625
    21 1.136841 -0.000004 0.000000 0.000000 0.000000 0.540778
    22 1.136842 0.000000 0.000001 0.000000 0.000000 1.055389
    23 3.789473 -0.000304 -0.378948 0.069906 0.035750 1.108941
    24 1.326315 -0.000003 0.000000 0.000000 0.000000 0.540778
    25 1.326319 0.000002 0.000000 0.000000 0.000000 1.064111
    26 3.789472 0.000299 0.378947 -0.000356 0.000712 1.107722
    27 1.136841 -0.000002 0.000000 0.000000 0.000000 0.540778
    28 1.136845 0.000003 0.000000 0.000000 0.000000 1.055389
    29 3.789472 0.000902 1.136841 -0.133209 -0.065327 1.112141
    30 0.947373 0.000001 0.000000 0.000000 0.000000 0.540778
    31 0.947369 0.000000 0.000000 0.000000 0.000000 1.055389
  time 21
    0 2.665634 3.968871 -24.602341 0.000000 0.000000 -1.483529
    1 0.000000 0.000000 0.000000 0.000000 -1.570796 -1.570795
    2 1.326316 -0.003921 0.000002 -0.000004 -0.000001 0.000796
    3 4.926312 -0.003923 0.000000 0.000000 0.000000 0.000000
    4 4.926314 -0.003923 0.000000 0.000000 0.000000 0.000000
    5 4.926313 -0.003923 0.000000 0.000000 0.000000 0.000000
    6 4.926317 -0.001509 0.000000 0.000000 0.000000 0.000000
    7 -0.000002 0.001514 -1.894737 -0.000014 1.370797 3.140783
    8 4.926314 0.000000 0.000000 0.625150 -1.165172 -0.616304
    9 11.368421 -0.000001 -0.000001 0.000000 0.000000 -1.685790
    10 11.368422 0.000005 0.000000 1.616027 0.122513 0.360435
    11 5.073513 0.334713 5.123069 1.652175 -0.023464 0.173451
    12 -1.928779 -0.976111 -0.000205 -2.280776 0.000000 0.000000
    13 -0.000003 0.001503 1.894737 -0.000014 -1.370797 3.140810
    14 4.926316 0.000000 0.000005 1.453532 1.448332 -0.122691
    15 11.368423 0.000001 -0.000002 0.000000 0.000000 -0.002355
    16 11.368423 -0.000001 0.000000 -1.457802 -0.390183 0.387764
    17 1.126228 0.104081 -1.358370 2.984948 0.159546 1.191772
    18 2.373627 -0.000001 0.000000 0.000000 0.000000 0.305278
    19 1.071901 0.000001 0.000001 0.000000 0.000000 0.540778
    20 3.789471 -0.000907 -1.136842 0.140342 0.070615 1.112625
    21 1.136841 -0.000004 0.000000 0.000000 0.000000 0.540778
    22 1.136842 0.000000 0.000001 0.000000 0.000000 1.055389
    23 3.789473 -0.000304 -0.378948 0.069906 0.035750 1.108941
    24 1.326315 -0.000003 0.000000 0.000000 0.000000 0.540778
    25 1.326319 0.000002 0.000000 0.000000 0.000000 1.064111
    26 3.789472 0.000299 0.378947 -0.000356 0.000712 1.107722
    27 1.136841 -0.000002 0.000000 0.000000 0.000000 0.540778
    28 1.136845 0.000003 0.000000 0.000000 0.000000 1.055389
    29 3.789472 0.000902 1.136841 -0.133209 -0.065327 1.112141
    30 0.947373 0.000001 0.000000 0.000000 0.000000 0.540778
    31 0.947369 0.000000 0.000000 0.000000 0.000000 1.055389
  time 22
    0 2.665634 3.968871 -24.602341 0.000000 0.000000 -1.483529
    1 0.000000 0.000000 0.000000 0.000000 -1.570796 -1.570795
    2 1.326316 -0.003921 0.000002 -0.000004 -0.000001 0.000796
    3 4.926312 -0.003923 0.000000 0.000000 0.000000 0.000000
    4 4.926314 -0.003923 0.000000 0.000000 0.000000 0.000000
    5 4.926313 -0.003923 0.000000 0.000000 0.000000 0.000000
    6 4.926317 -0.001509 0.000000 0.000000 0.000000 0.000000
    7 -0.000002 0.001514 -1.894737 -0.000014 1.370797 3.140783
    8 4.926314 0.000000 0.000000 0.625908 -1.167279 -0.620489
    9 11.368421 -0.000001 -0.000001 0.000000 0.000000 -1.686659
    10 11.368422 0.000005 0.000000 1.616027 0.122513 0.360435
    11 5.073513 0.334713 5.123069 1.652175 -0.023464 0.173451
    12 -1.928779 -0.976111 -0.000205 -2.003159 0.000000 0.000000
    13 -0.000003 0.001503 1.894737 -0.000014 -1.370797 3.140810
    14 4.926316 0.000000 0.000005 1.453532 1.448332 -0.122691
    15 11.368423 0.000001 -0.000002 0.000000 0.000000 -0.002355
    16 11.368423 -0.000001 0.000000 -1.457802 -0.390183 0.387764
    17 1.126228 0.104081 -1.358370 2.984948 0.159546 1.191772
    18 2.373627 -0.000001 0.000000 0.000000 0.000000 0.305278
    19 1.071901 0.000001 0.000001 0.000000 0.000000 0.540778
    20 3.789471 -0.000907 -1.136842 0.140342 0.070615 1.112625
    21 1.136841 -0.000004 0.000000 0.000000 0.000000 0.540778
    22 1.136842 0.000000 0.000001 0.000000 0.000000 1.055389
    23 3.789473 -0.000304 -0.378948 0.069906 0.035750 1.108941
    24 1.326315 -0.000003 0.000000 0.000000 0.000000 0.540778
    25 1.326319 0.000002 0.000000 0.000000 0.000000 1.064111
    26 3.789472 0.000299 0.378947 -0.000356 0.000712 1.107722
    27 1.136841 -0.000002 0.000000 0.000000 0.000000 0.540778
    28 1.136845 0.000003 0.000000 0.000000 0.000000 1.055389
    29 3.789472 0.000902 1.136841 -0.133209 -0.065327 1.112141
    30 0.947373 0.000001 0.000000 0.000000 0.000000 0.540778
    31 0.947369 0.000000 0.000000 0.000000 0.000000 1.055389
  time 23
    0 2.665634 3.968871 -24.602341 0.000000 0.000000 -1.483529
    1 0.000000 0.000000 0.000000 0.000000 -1.570796 -1.570795
    2 1.326316 -0.003921 0.000002 -0.000004 -0.000001 0.000796
    3 4.926312 -0.003923 0.000000 0.000000 0.000000 0.000000
    4 4.926314 -0.003923 0.000000 0.000000 0.000000 0.000000
    5 4.926313 -0.003923 0.000000 0.000000 0.000000 0.000000
    6 4.926317 -0.001509 0.000000 0.000000 0.000000 0.000000
    7 -0.000002 0.001514 -1.894737 -0.000014 1.370797 3.140783
    8 4.926314 0.000000 0.000000 0.626224 -1.169302 -0.623704
    9 11.368421 -0.000001 -0.000001 0.000000 0.000000 -1.686990
    10 11.368422 0.000005 0.000000 1.616027 0.122513 0.360435
    11 5.073513 0.334713 5.123069 1.652175 -0.023464 0.173451
    12 -1.928779 -0.976111 -0.000205 -1.728309 0.000000 0.000000
    13 -0.000003 0.001503 1.894737 -0.000014 -1.370797 3.140810
    14 4.926316 0.000000 0.000005 1.453532 1.448332 -0.122691
    15 11.368423 0.000001 -0.000002 0.000000 0.000000 -0.002355
    16 11.368423 -0.000001 0.000000 -1.457802 -0.390183 0.387764
    17 1.126228 0.104081 -1.358370 2.984948 0.159546 1.191772
    18 2.373627 -0.000001 0.000000 0.000000 0.000000 0.305278
    19 1.071901 0.000001 0.000001 0.000000 0.000000 0.540778
    20 3.789471 -0.000907 -1.136842 0.140342 0.070615 1.112625
    21 1.136841 -0.000004 0.000000 0.000000 0.000000 0.540778
    22 1.136842 0.000000 0.000001 0.000000 0.000000 1.055389
    23 3.789473 -0.000304 -0.378948 0.069906 0.035750 1.108941
    24 1.326315 -0.000003 0.000000 0.000000 0.000000 0.540778
    25 1.326319 0.000002 0.000000 0.000000 0.000000 1.064111
    26 3.789472 0.000299 0.378947 -0.000356 0.000712 1.107722
    27 1.136841 -0.000002 0.000000 0.000000 0.000000 0.540778
    28 1.136845 0.000003 0.000000 0.000000 0.000000 1.055389
    29 3.789472 0.000902 1.136841 -0.133209 -0.065327 1.112141
    30 0.947373 0.000001 0.000000 0.000000 0.000000 0.540778
    31 0.947369 0.000000 0.000000 0.000000 0.000000 1.055389
  time 24
    0 2.665634 3.968871 -24.602341 0.000000 0.000000 -1.483529
    1 0.000000 0.000000 0.000000 0.000000 -1.570796 -1.570795
    2 1.326316 -0.003921 0.000002 -0.000004 -0.000001 0.000796
    3 4.926312 -0.003923 0.000000 0.000000 0.000000 0.000000
    4 4.926314 -0.003923 0.000000 0.000000 0.000000 0.000000
    5 4.926313 -0.003923 0.000000 0.000000 0.000000 0.000000
    6 4.926317 -0.001509 0.000000 0.000000 0.000000 0.000000
    7 -0.000002 0.001514 -1.894737 -0.000014 1.370797 3.140783
    8 4.926314 0.000000 0.000000 0.625719 -1.170223 -0.624129
    9 11.368421 -0.000001 -0.000001 0.000000 0.000000 -1.686398
    10 11.368422 0.000005 0.000000 1.616027 0.122513 0.360435
    11 5.073513 0.334713 5.123069 1.652175 -0.023464 0.173451
    12 -1.928779 -0.976111 -0.000205 -1.457658 0.000000 0.000000
    13 -0.000003 0.001503 1.894737 -0.000014 -1.370797 3.140810
    14 4.926316 0.000000 0.000005 1.453532 1.448332 -0.122691
    15 11.368423 0.000001 -0.000002 0.000000 0.000000 -0.002355
    16 11.368423 -0.000001 0.000000 -1.457802 -0.390183 0.387764
    17 1.126228 0.104081 -1.358370 2.984948 0.159546 1.191772
    18 2.373627 -0.000001 0.000000 0.000000 0.000000 0.305278
    19 1.071901 0.000001 0.000001 0.000000 0.000000 0.540778
    20 3.789471 -0.000907 -1.136842 0.140342 0.070615 1.112625
    21 1.136841 -0.000004 0.000000 0.000000 0.000000 0.540778
    22 1.136842 0.000000 0.000001 0.000000 0.000000 1.055389
    23 3.789473 -0.000304 -0.378948 0.069906 0.035750 1.108941
    24 1.326315 -0.000003 0.000000 0.000000 0.000000 0.540778
    25 1.326319 0.000002 0.000000 0.000000 0.000000 1.064111
    26 3.789472 0.000299 0.378947 -0.000356 0.000712 1.107722
    27 1.136841 -0.000002 0.000000 0.000000 0.000000 0.540778
    28 1.136845 0.000003 0.000000 0.000000 0.000000 1.055389
    29 3.789472 0.000902 1.136841 -0.133209 -0.065327 1.112141
    30 0.947373 0.000001 0.000000 0.000000 0.000000 0.540778
    31 0.947369 0.000000 0.000000 0.000000 0.000000 1.055389
  time 25
    0 2.665634 3.968871 -24.602341 0.000000 0.000000 -1.483529
    1 0.000000 0.000000 0.000000 0.000000 -1.570796 -1.570795
    2 1.326316 -0.003921 0.000002 -0.000004 -0.000001 0.000796
    3 4.926312 -0.003923 0.000000 0.000000 0.000000 0.000000
    4 4.926314 -0.003923 0.000000 0.000000 0.000000 0.000000
    5 4.926313 -0.003923 0.000000 0.000000 0.000000 0.000000
    6 4.926317 -0.001509 0.000000 0.000000 0.000000 0.000000
    7 -0.000002 0.001514 -1.894737 -0.000014 1.370797 3.140783
    8 4.926314 0.000000 0.000000 0.624202 -1.170077 -0.621642
    9 11.368421 -0.000001 -0.000001 0.000000 0.000000 -1.684850
    10 11.368422 0.000005 0.000000 1.616027 0.122513 0.360435
    11 5.073513 0.334713 5.123069 1.652175 -0.023464 0.173451
    12 -1.928779 -0.976111 -0.000205 -1.192638 0.000000 0.000000
    13 -0.000003 0.001503 1.894737 -0.000014 -1.370797 3.140810
    14 4.926316 0.000000 0.000005 1.453532 1.448332 -0.122691
    15 11.368423 0.000001 -0.000002 0.000000 0.000000 -0.002355
    16 11.368423 -0.000001 0.000000 -1.457802 -0.390183 0.387764
    17 1.126228 0.104081 -1.358370 2.984948 0.159546 1.191772
    18 2.373627 -0.000001 0.000000 0.000000 0.000000 0.305278
    19 1.071901 0.000001 0.000001 0.000000 0.000000 0.540778
    20 3.789471 -0.000907 -1.136842 0.140342 0.070615 1.112625
    21 1.136841 -0.000004 0.000000 0.000000 0.000000 0.540778
    22 1.136842 0.000000 0.000001 0.000000 0.000000 1.055389
    23 3.789473 -0.000304 -0.378948 0.069906 0.035750 1.108941
    24 1.326315 -0.000003 0.000000 0.000000 0.000000 0.540778
    25 1.326319 0.000002 0.000000 0.000000 0.000000 1.064111
    26 3.789472 0.000299 0.378947 -0.000356 0.000712 1.107722
    27 1.136841 -0.000002 0.000000 0.000000 0.000000 0.540778
    28 1.136845 0.000003 0.000000 0.000000 0.000000 1.055389
    29 3.789472 0.000902 1.136841 -0.133209 -0.065327 1.112141
    30 0.947373 0.000001 0.000000 0.000000 0.000000 0.540778
    31 0.947369 0.000000 0.000000 0.000000 0.000000 1.055389
  time 26
    0 2.665634 3.968871 -24.602341 0.000000 0.000000 -1.483529
    1 0.000000 0.000000 0.000000 0.000000 -1.570796 -1.570795
    2 1.326316 -0.003921 0.000002 -0.000004 -0.000001 0.000796
    3 4.926312 -0.003923 0.000000 0.000000 0.000000 0.000000
    4 4.926314 -0.003923 0.000000 0.000000 0.000000 0.000000
    5 4.926313 -0.003923 0.000000 0.000000 0.000000 0.000000
    6 4.926317 -0.001509 0.000000 0.000000 0.000000 0.000000
    7 -0.000002 0.001514 -1.894737 -0.000014 1.370797 3.140783
    8 4.926314 0.000000 0.000000 0.622117 -1.169460 -0.617639
    9 11.368421 -0.000001 -0.000001 0.000000 0.000000 -1.682694
    10 11.368422 0.000005 0.000000 1.616027 0.122513 0.360435
    11 5.073513 0.334713 5.123069 1.652175 -0.023464 0.173451
    12 -1.928779 -0.976111 -0.000205 -0.934489 0.000000 0.000000
    13 -0.000003 0.001503 1.894737 -0.000014 -1.370797 3.140810
    14 4.926316 0.000000 0.000005 1.453532 1.448332 -0.122691
    15 11.368423 0.000001 -0.000002 0.000000 0.000000 -0.002355
    16 11.368423 -0.000001 0.000000 -1.457802 -0.390183 0.387764
    17 1.126228 0.104081 -1.358370 2.984948 0.159546 1.191772
    18 2.373627 -0.000001 0.000000 0.000000 0.000000 0.305278
    19 1.071901 0.000001 0.000001 0.000000 0.000000 0.540778
    20 3.789471 -0.000907 -1.136842 0.140342 0.070615 1.112625
    21 1.136841 -0.000004 0.000000 0.000000 0.000000 0.540778
    22 1.136842 0.000000 0.000001 0.000000 0.000000 1.055389
    23 3.789473 -0.000304 -0.378948 0.069906 0.035750 1.108941
    24 1.326315 -0.000003 0.000000 0.000000 0.000000 0.540778
    25 1.326319 0.000002 0.000000 0.000000 0.000000 1.064111
    26 3.789472 0.000299 0.378947 -0.000356 0.000712 1.107722
    27 1.136841 -0.000002 0.000000 0.000000 0.000000 0.540778
    28 1.136845 0.000003 0.000000 0.000000 0.000000 1.055389
    29 3.789472 0.000902 1.136841 -0.133209 -0.065327 1.112141
    30 0.947373 0.000001 0.000000 0.000000 0.000000 0.540778
    31 0.947369 0.000000 0.000000 0.000000 0.000000 1.055389
  time 27
    0 2.665634 3.968871 -24.602341 0.000000 0.000000 -1.483529
    1 0.000000 0.000000 0.000000 0.000000 -1.570796 -1.570795
    2 1.326316 -0.003921 0.000002 -0.000004 -0.000001 0.000796
    3 4.926312 -0.003923 0.000000 0.000000 0.000000 0.000000
    4 4.926314 -0.003923 0.000000 0.000000 0.000000 0.000000
    5 4.926313 -0.003923 0.000000 0.000000 0.000000 0.000000
    6 4.926317 -0.001509 0.000000 0.000000 0.000000 0.000000
    7 -0.000002 0.001514 -1.894737 -0.000014 1.370797 3.140783
    8 4.926314 0.000000 0.000000 0.619905 -1.168648 -0.613151
    9 11.368421 -0.000001 -0.000001 0.000000 0.000000 -1.680381
    10 11.368422 0.000005 0.000000 1.616027 0.122513 0.360435
    11 5.073513 0.334713 5.123069 1.652175 -0.023464 0.173451
    12 -1.928779 -0.976111 -0.000205 -0.684834 0.000000 0.000000
    13 -0.000003 0.001503 1.894737 -0.000014 -1.370797 3.140810
    14 4.926316 0.000000 0.000005 1.453532 1.448332 -0.122691
    15 11.368423 0.000001 -0.000002 0.000000 0.000000 -0.002355
    16 11.368423 -0.000001 0.000000 -1.457802 -0.390183 0.387764
    17 1.126228 0.104081 -1.358370 2.984948 0.159546 1.191772
    18 2.373627 -0.000001 0.000000 0.000000 0.000000 0.305278
    19 1.071901 0.000001 0.000001 0.000000 0.000000 0.540778
    20 3.789471 -0.000907 -1.136842 0.140342 0.070615 1.112625
    21 1.136841 -0.000004 0.000000 0.000000 0.000000 0.540778
    22 1.136842 0.000000 0.000001 0.000000 0.000000 1.055389
    23 3.789473 -0.000304 -0.378948 0.069906 0.035750 1.108941
    24 1.326315 -0.000003 0.000000 0.000000 0.000000 0.540778
    25 1.326319 0.000002 0.000000 0.000000 0.000000 1.064111
    26 3.789472 0.000299 0.378947 -0.000356 0.000712 1.107722
    27 1.136841 -0.000002 0.000000 0.000000 0.000000 0.540778
    28 1.136845 0.000003 0.000000 0.000000 0.000000 1.055389
    29 3.789472 0.000902 1.136841 -0.133209 -0.065327 1.112141
    30 0.947373 0.000001 0.000000 0.000000 0.000000 0.540778
    31 0.947369 0.000000 0.000000 0.000000 0.000000 1.055389
  time 28
    0 2.665634 3.968871 -24.602341 0.000000 0.000000 -1.483529
    1 0.000000 0.000000 0.000000 0.000000 -1.570796 -1.570795
    2 1.326316 -0.003921 0.000002 -0.000004 -0.000001 0.000796
    3 4.926312 -0.003923 0.000000 0.000000 0.000000 0.000000
    4 4.926314 -0.003923 0.000000 0.000000 0.000000 0.000000
    5 4.926313 -0.003923 0.000000 0.000000 0.000000 0.000000
    6 4.926317 -0.001509 0.000000 0.000000 0.000000 0.000000
    7 -0.000002 0.001514 -1.894737 -0.000014 1.370797 3.140783
    8 4.926314 0.000000 0.000000 0.617820 -1.167800 -0.608784
    9 11.368421 -0.000001 -0.000001 0.000000 0.000000 -1.678172
    10 11.368422 0.000005 0.000000 1.616027 0.122513 0.360435
    11 5.073513 0.334713 5.123069 1.652175 -0.023464 0.173451
    12 -1.928779 -0.976111 -0.000205 -0.444913 0.000000 0.000000
    13 -0.000003 0.001503 1.894737 -0.000014 -1.370797 3.140810
    14 4.926316 0.000000 0.000005 1.453532 1.448332 -0.122691
    15 11.368423 0.000001 -0.000002 0.000000 0.000000 -0.002355
    16 11.368423 -0.000001 0.000000 -1.457802 -0.390183 0.387764
    17 1.126228 0.104081 -1.358370 2.984948 0.159546 1.191772
    18 2.373627 -0.000001 0.000000 0.000000 0.000000 0.305278
    19 1.071901 0.000001 0.000001 0.000000 0.000000 0.540778
    20 3.789471 -0.000907 -1.136842 0.140342 0.070615 1.112625
    21 1.136841 -0.000004 0.000000 0.000000 0.000000 0.540778
    22 1.136842 0.000000 0.000001 0.000000 0.000000 1.055389
    23 3.789473 -0.000304 -0.378948 0.069906 0.035750 1.108941
    24 1.326315 -0.000003 0.000000 0.000000 0.000000 0.540778
    25 1.326319 0.000002 0.000000 0.000000 0.000000 1.064111
    26 3.789472 0.000299 0.378947 -0.000356 0.000712 1.107722
    27 1.136841 -0.000002 0.000000 0.000000 0.000000 0.540778
    28 1.136845 0.000003 0.000000 0.000000 0.000000 1.055389
    29 3.789472 0.000902 1.136841 -0.133209 -0.065327 1.112141
    30 0.947373 0.000001 0.000000 0.000000 0.000000 0.540778
    31 0.947369 0.000000 0.000000 0.000000 0.000000 1.055389
  time 29
    0 2.665634 3.968871 -24.602341 0.000000 0.000000 -1.483529
    1 0.000000 0.000000 0.000000 0.000000 -1.570796 -1.570795
    2 1.326316 -0.003921 0.000002 -0.000004 -0.000001 0.000796
    3 4.926312 -0.003923 0.000000 0.000000 0.000000 0.000000
    4 4.926314 -0.003923 0.000000 0.000000 0.000000 0.000000
    5 4.926313 -0.003923 0.000000 0.000000 0.000000 0.000000
    6 4.926317 -0.001509 0.000000 0.000000 0.000000 0.000000
    7 -0.000002 0.001514 -1.894737 -0.000014 1.370797 3.140783
    8 4.926314 0.000000 0.000000 0.616051 -1.167061 -0.605023
    9 11.368421 -0.000001 -0.000001 0.000000 0.000000 -1.676259
    10 11.368422 0.000005 0.000000 1.616027 0.122513 0.360435
    11 5.073513 0.334713 5.123069 1.652175 -0.023464 0.173451
    12 -1.928779 -0.976111 -0.000205 -0.216158 0.000000 0.000000
    13 -0.000003 0.001503 1.894737 -0.000014 -1.370797 3.140810
    14 4.926316 0.000000 0.000005 1.453532 1.448332 -0.122691
    15 11.368423 0.000001 -0.000002 0.000000 0.000000 -0.002355
    16 11.368423 -0.000001 0.000000 -1.457802 -0.390183 0.387764
    17 1.126228 0.104081 -1.358370 2.984948 0.159546 1.191772
    18 2.373627 -0.000001 0.000000 0.000000 0.000000 0.305278
    19 1.071901 0.000001 0.000001 0.000000 0.000000 0.540778
    20 3.789471 -0.000907 -1.136842 0.140342 0.070615 1.112625
    21 1.136841 -0.000004 0.000000 0.000000 0.000000 0.540778
    22 1.136842 0.000000 0.000001 0.000000 0.000000 1.055389
    23 3.789473 -0.000304 -0.378948 0.069906 0.035750 1.108941
    24 1.326315 -0.000003 0.000000 0.000000 0.000000 0.540778
    25 1.326319 0.000002 0.000000 0.000000 0.000000 1.064111
    26 3.789472 0.000299 0.378947 -0.000356 0.000712 1.107722
    27 1.136841 -0.000002 0.000000 0.000000 0.000000 0.540778
    28 1.136845 0.000003 0.000000 0.000000 0.000000 1.055389
    29 3.789472 0.000902 1.136841 -0.133209 -0.065327 1.112141
    30 0.947373 0.000001 0.000000 0.000000 0.000000 0.540778
    31 0.947369 0.000000 0.000000 0.000000 0.000000 1.055389
  time 30
    0 2.665634 3.968871 -24.602341 0.000000 0.000000 -1.483529
    1 0.000000 0.000000 0.000000 0.000000 -1.570796 -1.570795
    2 1.326316 -0.003921 0.000002 -0.000004 -0.000001 0.000796
    3 4.926312 -0.003923 0.000000 0.000000 0.000000 0.000000
    4 4.926314 -0.003923 0.000000 0.000000 0.000000 0.000000
    5 4.926313 -0.003923 0.000000 0.000000 0.000000 0.000000
    6 4.926317 -0.001509 0.000000 0.000000 0.000000 0.000000
    7 -0.000002 0.001514 -1.894737 -0.000014 1.370797 3.140783
    8 4.926314 0.000000 0.000000 0.614787 -1.166577 -0.602415
    9 11.368421 -0.000001 -0.000001 0.000000 0.000000 -1.674920
    10 11.368422 0.000005 0.000000 1.616027 0.122513 0.360435
    11 5.073513 0.334713 5.123069 1.652175 -0.023464 0.173451
    12 -1.928779 -0.976111 -0.000205 0.000000 0.000000 0.000000
    13 -0.000003 0.001503 1.894737 -0.000014 -1.370797 3.140810
    14 4.926316 0.000000 0.000005 1.453532 1.448332 -0.122691
    15 11.368423 0.000001 -0.000002 0.000000 0.000000 -0.002355
    16 11.368423 -0.000001 0.000000 -1.457802 -0.390183 0.387764
    17 1.126228 0.104081 -1.358370 2.984948 0.159546 1.191772
    18 2.373627 -0.000001 0.000000 0.000000 0.000000 0.305278
    19 1.071901 0.000001 0.000001 0.000000 0.000000 0.540778
    20 3.789471 -0.000907 -1.136842 0.140342 0.070615 1.112625
    21 1.136841 -0.000004 0.000000 0.000000 0.000000 0.540778
    22 1.136842 0.000000 0.000001 0.000000 0.000000 1.055389
    23 3.789473 -0.000304 -0.378948 0.069906 0.035750 1.108941
    24 1.326315 -0.000003 0.000000 0.000000 0.000000 0.540778
    25 1.326319 0.000002 0.000000 0.000000 0.000000 1.064111
    26 3.789472 0.000299 0.378947 -0.000356 0.000712 1.107722
    27 1.136841 -0.000002 0.000000 0.000000 0.000000 0.540778
    28 1.136845 0.000003 0.000000 0.000000 0.000000 1.055389
    29 3.789472 0.000902 1.136841 -0.133209 -0.065327 1.112141
    30 0.947373 0.000001 0.000000 0.000000 0.000000 0.540778
    31 0.947369 0.000000 0.000000 0.000000 0.000000 1.055389
end
