$modelname "agrunt.mdl"

$bodygroup "body"
{
	studio "agrunt_blue_body.smd"
}
$bodygroup "gun"
{
	studio "agrunt_blue_gun.smd"
	blank
}

$surfaceprop "alienflesh"

$contents "solid"

$illumposition 12.778 0.435 41.685

$eyeposition 0 0 75

$cdmaterials "models\v_HGun\"
$cdmaterials "models\agrunt\"

$attachment "0" "Bip01 R Hand" 0 0 0 rotate 0 0 0

$cbox 0 0 0 0 0 0

$bbox -18.212 -49.232 -4.112 50.636 43.815 89.596

$hboxset "default"
$hbox 10 "Bip01 Pelvis" -10.95 -15.24 -13.61 5.01 7.59 13.39 ""
$hbox 6 "Bip01 L Leg" 0 -10.83 -7.53 23.549999 6.71 7.54 ""
$hbox 6 "Bip01 L Leg1" -1.9 -2.91 -10.33 16.65 6.38 4.97 ""
$hbox 7 "Bip01 R Leg" 0 -10.7 -7.44 23.32 7.19 6.38 ""
$hbox 7 "Bip01 R Leg1" -2.35 -5.53 -6.51 15.79 6.63 8.58 ""
$hbox 10 "Bip01 L Foot" -1.2 -3.2 -8.39 11.61 16.08 9.9 ""
$hbox 10 "Bip01 R Foot" 0 -2.89 -8.38 11.37 16.389999 9.9 ""
$hbox 3 "Bip01 Spine" -0.25 -6.16 -11.87 6.96 11.4 11.79 ""
$hbox 2 "Bip01 Spine1" -0.25 -10.16 -11.87 6.96 11.4 11.79 ""
$hbox 2 "Bip01 Spine2" -0.67 -0.01 -12.18 6.46 12.32 12 ""
$hbox 10 "Bip01 Spine3" -6.03 -15 -12.24 9.51 10.02 12.7 ""
$hbox 1 "Bip01 Head" -2.02 6 -8.13 12.45 15.21 7.73 ""
$hbox 10 "Bip01 Head" -12.02 -14.16 -8.13 12.45 6 7.73 ""
$hbox 10 "Bip01 L Arm" 0 -5.02 -9.56 13.42 11.53 7.33 ""
$hbox 10 "Bip01 L Arm1" -10.83 -11.05 -6.74 14 10.01 11.87 ""
$hbox 4 "Bip01 L Arm1" 14 -11.05 -6.74 23.17 10.01 11.87 ""
$hbox 4 "Bip01 L Arm2" 0 -7.73 -9.44 28.52 7.34 7.4 ""
$hbox 5 "Bip01 R Arm2" 0 -13.51 -9.14 50.77 7.71 11.06 ""
$hbox 10 "Bip01 R Arm" 0 -8.76 -7.38 16.84 11.67 9.58 ""
$hbox 10 "Bip01 R Arm1" -10.95 -11.24 -11.98 14 9.93 6.76 ""
$hbox 5 "Bip01 R Arm1" 14 -11.24 -11.98 26.52 9.93 6.76 ""
$skipboneinbbox

$controller 0 "Bip01 Head" XR -45 45

$includemodel "agrunt_anim.mdl"

$poseparameter "XR" -30 45 loop 0

$collisionjoints "agrunt_physics.smd"
{
	$mass 200
	$inertia 10
	$damping 0.01
	$rotdamping 1.5
	$rootbone "bip01"


	$jointconstrain "Bip01 Spine1" x limit -35 35 0
	$jointconstrain "Bip01 Spine1" y limit -25 25 0
	$jointconstrain "Bip01 Spine1" z limit -20 45 0

	$jointconstrain "Bip01 R Arm1" x limit -30 40 0
	$jointconstrain "Bip01 R Arm1" y limit -20 35 0
	$jointconstrain "Bip01 R Arm1" z limit -90 50 0

	$jointconstrain "Bip01 R Arm2" x limit -30 30 0
	$jointconstrain "Bip01 R Arm2" y limit -20 5 0
	$jointconstrain "Bip01 R Arm2" z limit -65 30 0.04

	$jointconstrain "Bip01 L Arm1" x limit -40 30 0
	$jointconstrain "Bip01 L Arm1" y limit -35 20 0
	$jointconstrain "Bip01 L Arm1" z limit -90 50 0

	$jointconstrain "Bip01 L Arm2" x limit -30 30 0
	$jointconstrain "Bip01 L Arm2" y limit -5 20 0
	$jointconstrain "Bip01 L Arm2" z limit -65 30 0

	$jointconstrain "Bone07" x limit -35 35 0
	$jointconstrain "Bone07" y limit -50 50 0
	$jointconstrain "Bone07" z limit -60 35 0

	$jointconstrain "Bip01 Head" x limit -20 20 0
	$jointconstrain "Bip01 Head" y limit -15 15 0
	$jointconstrain "Bip01 Head" z limit -15 5 0

	$jointconstrain "Bip01 R Leg" x limit -25 30 0
	$jointconstrain "Bip01 R Leg" y limit -10 25 0
	$jointconstrain "Bip01 R Leg" z limit -40 40 0

	$jointconstrain "Bip01 R Leg1" x limit -30 30 0
	$jointconstrain "Bip01 R Leg1" y limit 0 0 0
	$jointconstrain "Bip01 R Leg1" z limit -35 50 0

	$jointconstrain "Bone08" x limit -60 60 0
	$jointconstrain "Bone08" y limit -40 40 0
	$jointconstrain "Bone08" z limit -50 60 0

	$jointconstrain "Bip01 L Leg" x limit -30 25 0
	$jointconstrain "Bip01 L Leg" y limit -25 10 0
	$jointconstrain "Bip01 L Leg" z limit -40 40 0

	$jointconstrain "Bip01 L Leg1" x limit -30 30 0
	$jointconstrain "Bip01 L Leg1" y limit 0 0 0
	$jointconstrain "Bip01 L Leg1" z limit -35 50 0.04

	$jointconstrain "Bip01 L Foot" x limit 0 0 0
	$jointconstrain "Bip01 L Foot" y limit -25 25 0
	$jointconstrain "Bip01 L Foot" z limit -60 40 0

	$jointconstrain "Bip01 R Foot" x limit 0 0 0
	$jointconstrain "Bip01 R Foot" y limit -25 25 0
	$jointconstrain "Bip01 R Foot" z limit -60 40 0.04
}