$modelname "v_egon.mdl"

$origin -1 -1 -2

$bodygroup "studio"
{
	studio "v_egon.smd"
}
$bodygroup "rings"
{
	studio "v_rings.smd"
}
$bodygroup "hands"
{
	studio "v_hands.smd"
}

$surfaceprop "default"

$contents "solid"

$cdmaterials "models\v_egon\"
$cdmaterials "models\v_hands\"

$attachment "0" "egon" 0 0 17 rotate 0 0 0

$cbox 0 0 0 0 0 0

$bbox -4.317 -12.238 -24.602 25.358 9.743 -3.57

$sequence "idle1" {
	"anims\idle1.smd"
	activity "ACT_VM_IDLE" 1
	fadein 0.2
	fadeout 0.2
	fps 30
	loop
}

$sequence "fidget1" {
	"anims\fidget1.smd"
	activity "ACT_VM_FIDGET" 1
	fadein 0.2
	fadeout 0.2
	fps 30
}

$sequence "altfireon" {
	"anims\altfireon.smd"
	activity "ACT_VM_SECONDARYATTACK" 1
	fadein 0.2
	fadeout 0.2
	fps 30
	loop
}

$sequence "altfirecycle" {
	"anims\altfirecycle.smd"
	activity "ACT_VM_SECONDARYATTACK" 2
	fadein 0.2
	fadeout 0.2
	fps 30
	loop
}

$sequence "altfireoff" {
	"anims\altfireoff.smd"
	activity "ACT_VM_SECONDARYATTACK" 3
	fadein 0.2
	fadeout 0.2
	fps 30
	loop
}

$sequence "fire" {
	"anims\fire.smd"
	activity "ACT_VM_PRIMARYATTACK" 1
	snap
	fadeout 0.1
	fps 30
	loop
}

$sequence "draw" {
	"anims\draw.smd"
	activity "ACT_VM_DRAW" 1
	fadein 0.2
	fadeout 0.2
	fps 30
}

$sequence "holster" {
	"anims\holster.smd"
	activity "ACT_VM_HOLSTER" 1
	fadein 0.2
	fadeout 0.2
	fps 30
}
