// Created by Crowbar 0.44.0.0
version 1
nodes
  0 "Diablo1" -1
  1 "unnamed002" 0
  2 "unnamed003" 1
  3 "unnamed004" 2
  4 "unnamed005" 3
  5 "unnamed006" 4
  6 "unnamed007" 5
  7 "unnamed011" 5
  8 "unnamed015" 5
  9 "unnamed019" 1
  10 "unnamed020" 9
  11 "unnamed021" 10
  12 "unnamed022" 11
  13 "unnamed023" 12
  14 "unnamed027" 12
  15 "unnamed031" 12
  16 "unnamed035" 1
  17 "unnamed036" 16
  18 "unnamed037" 17
  19 "unnamed038" 18
  20 "unnamed039" 19
  21 "unnamed041" 19
  22 "unnamed042" 21
  23 "unnamed043" 22
  24 "unnamed044" 23
  25 "unnamed045" 24
  26 "unnamed049" 24
  27 "unnamed053" 24
  28 "unnamed057" 19
  29 "unnamed058" 28
  30 "unnamed059" 29
  31 "unnamed060" 30
  32 "unnamed061" 31
  33 "unnamed065" 31
  34 "unnamed066" 33
  35 "unnamed069" 31
  36 "unnamed073" 18
  37 "unnamed074" 36
  38 "unnamed075" 37
  39 "unnamed076" 38
  40 "unnamed077" 39
  41 "unnamed080" 18
  42 "unnamed081" 41
  43 "unnamed083" 17
  44 "unnamed084" 43
  45 "unnamed085" 44
  46 "unnamed087" 1
  47 "unnamed088" 46
  48 "unnamed089" 47
end
skeleton
  time 0
    0 -0.003840 -2.183660 46.671875 0.000000 0.120253 -1.691080
    1 0.218750 -1.578125 0.000004 0.000000 -1.570622 -1.570622
    2 0.000004 0.000000 9.031251 3.129550 0.038572 2.838080
    3 21.093748 0.000001 0.000000 0.000000 0.000000 -1.266935
    4 13.093752 -0.000002 0.000000 0.000000 0.000000 1.607274
    5 9.734375 0.000000 0.000000 -0.141197 0.038223 -0.521854
    6 11.265626 12.984377 -4.140625 0.000000 0.268606 1.570622
    7 11.265625 12.890627 -0.203125 0.000000 0.032987 1.570622
    8 11.265626 13.109377 3.593750 0.000000 -0.155160 1.570622
    9 0.000000 0.000000 -9.031251 3.134786 -0.008901 -2.745578
    10 21.093750 -0.000002 0.000000 0.000000 0.000000 -0.788714
    11 13.093750 0.000002 0.000000 0.000000 0.000000 0.713665
    12 9.734373 0.000000 -0.000001 0.286059 0.146433 0.073129
    13 11.265622 12.999998 4.562498 -0.090583 -0.197048 2.006954
    14 11.265622 12.843750 0.249998 -0.029496 -0.052185 2.094221
    15 11.265622 13.140625 -3.375000 0.069639 0.120253 2.097711
    16 -2.140625 0.625000 0.000000 0.000000 -0.032987 1.507790
    17 10.500002 -0.000008 0.000000 0.000000 -0.085347 0.198793
    18 14.734376 -0.000004 0.000000 0.000000 -0.032987 0.137706
    19 14.000004 -0.000004 0.000000 0.000000 0.000000 -0.355873
    20 3.468750 0.000000 0.000000 0.034732 0.022515 0.352382
    21 -8.171877 7.750000 4.421876 -0.000001 -1.553169 -2.781881
    22 4.531252 0.000004 -0.000002 -1.130799 1.132544 -1.052259
    23 15.218755 0.000002 0.000000 0.000000 0.000000 -1.574113
    24 13.187500 -0.000003 0.000000 -0.214501 -0.209265 -0.708429
    25 11.531253 -0.000004 -4.359379 -0.059167 0.095819 -0.551350
    26 11.468754 -0.000004 -0.593752 0.052185 -0.088837 -0.551350
    27 11.468754 -0.000002 3.750001 0.120253 -0.200538 -0.560076
    28 -8.171875 7.750000 -4.843751 -0.000001 1.553169 -2.785371
    29 4.531251 0.000000 -0.000002 1.632038 0.427770 -1.776936
    30 15.218751 0.000000 0.000000 0.000000 0.000000 -0.978962
    31 13.187508 0.000000 0.000000 -0.228464 -0.034724 -0.511189
    32 11.531254 0.000000 4.359376 0.008552 -0.128980 -0.069639
    33 11.531254 0.000000 0.578125 -0.005061 0.128980 -0.069639
    34 3.890625 0.000000 -0.000001 0.000000 0.000000 0.364599
    35 11.593754 0.000000 -3.765627 -0.012043 0.242426 -0.069639
    36 -9.953127 3.421875 0.062501 0.000000 0.000000 2.949432
    37 0.062500 -0.921875 0.000000 0.000000 0.000000 -1.254717
    38 -1.125004 -6.468750 0.000000 0.000000 0.000000 0.000000
    39 -1.125000 -6.468752 0.000000 0.000000 0.000000 0.000000
    40 -1.359375 -6.125002 0.000000 0.000000 0.000000 0.000000
    41 10.453131 -11.515625 0.062500 0.000000 0.000000 2.809806
    42 8.265629 10.390621 0.000000 0.000000 0.000000 0.626399
    43 8.703126 -14.375008 0.062500 0.000000 0.000000 2.914526
    44 0.000000 -0.000004 0.000000 0.000000 0.000000 0.000000
    45 5.687500 4.937504 0.000000 0.000000 0.000000 0.000000
    46 5.374996 -1.375000 0.000000 0.000000 -0.198793 -1.492082
    47 7.531252 -0.000004 0.000000 0.000000 -0.120253 0.120253
    48 9.437498 0.000000 0.000000 0.000000 -0.181340 0.146433
  time 1
    0 -0.003840 -2.418043 46.113264 0.000000 0.101066 -1.691080
    1 0.207030 -1.578125 0.000004 0.000000 -1.570622 -1.570622
    2 0.000004 0.000000 9.031251 3.129550 0.040310 2.864250
    3 21.093748 0.000001 0.000000 0.000000 0.000000 -1.300090
    4 13.093752 -0.000002 0.000000 0.000000 0.000000 1.670082
    5 9.734375 0.000000 0.000000 -0.141197 0.039961 -0.544350
    6 11.265626 12.984377 -4.140625 0.000000 0.268606 1.570622
    7 11.265625 12.890627 -0.203125 0.000000 0.032987 1.570622
    8 11.265626 13.109377 3.593750 0.000000 -0.155160 1.570622
    9 0.000000 0.000000 -9.031251 3.134786 -0.008901 -2.712442
    10 21.093750 -0.000002 0.000000 0.000000 0.000000 -0.816601
    11 13.093750 0.000002 0.000000 0.000000 0.000000 0.772994
    12 9.734373 0.000000 -0.000001 0.286059 0.148171 0.053938
    13 11.265622 12.999998 4.562498 -0.090583 -0.197048 2.006954
    14 11.265622 12.843750 0.249998 -0.029496 -0.052185 2.094221
    15 11.265622 13.140625 -3.375000 0.069639 0.120253 2.097711
    16 -2.140625 0.625000 0.000000 0.000000 -0.032987 1.507790
    17 10.500002 -0.000008 0.000000 0.000000 -0.085347 0.193568
    18 14.734376 -0.000004 0.000000 0.000000 -0.032987 0.130731
    19 14.000004 -0.000004 0.000000 0.000000 0.000000 -0.355873
    20 3.468750 0.000000 0.000000 0.034732 0.024253 0.343660
    21 -8.171877 7.750000 4.421876 -0.000001 -1.553169 -2.781881
    22 4.531252 0.000004 -0.000002 -1.071458 1.172683 -0.985949
    23 15.218755 0.000002 0.000000 0.000000 0.000000 -1.640389
    24 13.187500 -0.000003 0.000000 -0.207533 -0.217990 -0.748554
    25 11.531253 -0.000004 -4.359379 -0.038230 0.106282 -0.341931
    26 11.468754 -0.000004 -0.593752 0.031248 -0.097562 -0.340175
    27 11.468754 -0.000002 3.750001 0.074879 -0.221475 -0.347172
    28 -8.171875 7.750000 -4.843751 -0.000001 1.553169 -2.785371
    29 4.531251 0.000000 -0.000002 1.637284 0.352731 -1.775186
    30 15.218751 0.000000 0.000000 0.000000 0.000000 -1.003400
    31 13.187508 0.000000 0.000000 -0.223229 -0.031236 -0.526885
    32 11.531254 0.000000 4.359376 0.008552 -0.128980 -0.069639
    33 11.531254 0.000000 0.578125 -0.005061 0.128980 -0.069639
    34 3.890625 0.000000 -0.000001 0.000000 0.000000 0.364599
    35 11.593754 0.000000 -3.765627 -0.012043 0.242426 -0.069639
    36 -9.953127 3.421875 0.062501 0.000000 0.000000 2.949432
    37 0.062500 -0.921875 0.000000 0.000000 0.000000 -1.254717
    38 -1.125004 -6.468750 0.000000 0.000000 0.000000 0.000000
    39 -1.125000 -6.468752 0.000000 0.000000 0.000000 0.000000
    40 -1.359375 -6.125002 0.000000 0.000000 0.000000 0.000000
    41 10.453131 -11.515625 0.062500 0.000000 0.000000 2.809806
    42 8.265629 10.390621 0.000000 0.000000 0.000000 0.626399
    43 8.703126 -14.375008 0.062500 0.000000 0.000000 2.914526
    44 0.000000 -0.000004 0.000000 0.000000 0.000000 0.000000
    45 5.687500 4.937504 0.000000 0.000000 0.000000 0.000000
    46 5.374996 -1.375000 0.000000 0.000000 -0.198793 -1.492082
    47 7.531252 -0.000004 0.000000 0.000000 -0.120253 0.120253
    48 9.437498 0.000000 0.000000 0.000000 -0.181340 0.146433
  time 2
    0 -0.003840 -3.043062 45.331990 0.000000 0.073130 -1.691080
    1 0.191405 -1.589844 0.000004 0.000000 -1.570622 -1.570622
    2 0.000004 0.000000 9.031251 3.131287 0.043797 2.921832
    3 21.093748 0.000001 0.000000 0.000000 0.000000 -1.328005
    4 13.093752 -0.000002 0.000000 0.000000 0.000000 1.762592
    5 9.734375 0.000000 0.000000 -0.141197 0.041711 -0.579270
    6 11.265626 12.984377 -4.140625 0.000000 0.268606 1.570622
    7 11.265625 12.890627 -0.203125 0.000000 0.032987 1.570622
    8 11.265626 13.109377 3.593750 0.000000 -0.155160 1.570622
    9 0.000000 0.000000 -9.031251 3.133048 -0.007163 -2.644361
    10 21.093750 -0.000002 0.000000 0.000000 0.000000 -0.811362
    11 13.093750 0.000002 0.000000 0.000000 0.000000 0.837557
    12 9.734373 0.000000 -0.000001 0.286059 0.148171 0.026006
    13 11.265622 12.999998 4.562498 -0.090583 -0.197048 2.006954
    14 11.265622 12.843750 0.249998 -0.029496 -0.052185 2.094221
    15 11.265622 13.140625 -3.375000 0.069639 0.120253 2.097711
    16 -2.140625 0.625000 0.000000 0.000000 -0.032987 1.507790
    17 10.500002 -0.000008 0.000000 0.000000 -0.085347 0.186581
    18 14.734376 -0.000004 0.000000 0.000000 -0.032987 0.120256
    19 14.000004 -0.000004 0.000000 0.000000 0.000000 -0.355873
    20 3.468750 0.000000 0.000000 0.034732 0.024253 0.329696
    21 -8.171877 7.750000 4.421876 -0.000001 -1.553169 -2.781881
    22 4.531252 0.000004 -0.000002 -0.959788 1.228503 -0.860298
    23 15.218755 0.000002 0.000000 0.000000 0.000000 -1.741652
    24 13.187500 -0.000003 0.000000 -0.193570 -0.230202 -0.807910
    25 11.531253 -0.000004 -4.359379 -0.001581 0.111519 -0.019041
    26 11.468754 -0.000004 -0.593752 0.000004 -0.102799 -0.019041
    27 11.468754 -0.000002 3.750001 0.000012 -0.233699 -0.019055
    28 -8.171875 7.750000 -4.843751 -0.000001 1.553169 -2.785371
    29 4.531251 0.000000 -0.000002 1.644254 0.234079 -1.771685
    30 15.218751 0.000000 0.000000 0.000000 0.000000 -1.040041
    31 13.187508 0.000000 0.000000 -0.214512 -0.029487 -0.563559
    32 11.531254 0.000000 4.359376 0.008552 -0.128980 -0.069639
    33 11.531254 0.000000 0.578125 -0.005061 0.128980 -0.069639
    34 3.890625 0.000000 -0.000001 0.000000 0.000000 0.364599
    35 11.593754 0.000000 -3.765627 -0.012043 0.242426 -0.069639
    36 -9.953127 3.421875 0.062501 0.000000 0.000000 2.949432
    37 0.062500 -0.921875 0.000000 0.000000 0.000000 -1.254717
    38 -1.125004 -6.468750 0.000000 0.000000 0.000000 0.000000
    39 -1.125000 -6.468752 0.000000 0.000000 0.000000 0.000000
    40 -1.359375 -6.125002 0.000000 0.000000 0.000000 0.000000
    41 10.453131 -11.515625 0.062500 0.000000 0.000000 2.809806
    42 8.265629 10.390621 0.000000 0.000000 0.000000 0.626399
    43 8.703126 -14.375008 0.062500 0.000000 0.000000 2.914526
    44 0.000000 -0.000004 0.000000 0.000000 0.000000 0.000000
    45 5.687500 4.937504 0.000000 0.000000 0.000000 0.000000
    46 5.374996 -1.375000 0.000000 0.000000 -0.198793 -1.492082
    47 7.531252 -0.000004 0.000000 0.000000 -0.120253 0.120253
    48 9.437498 0.000000 0.000000 0.000000 -0.181340 0.146433
  time 3
    0 -0.003840 -3.964965 44.441338 0.000000 0.041718 -1.691080
    1 0.160154 -1.589844 0.000004 0.000000 -1.570622 -1.570622
    2 0.000004 0.000000 9.031251 3.133037 0.049034 2.996902
    3 21.093748 0.000001 0.000000 0.000000 0.000000 -1.347203
    4 13.093752 -0.000002 0.000000 0.000000 0.000000 1.865558
    5 9.734375 0.000000 0.000000 -0.141197 0.046948 -0.619407
    6 11.265626 12.984377 -4.140625 0.000000 0.268606 1.570622
    7 11.265625 12.890627 -0.203125 0.000000 0.032987 1.570622
    8 11.265626 13.109377 3.593750 0.000000 -0.155160 1.570622
    9 0.000000 0.000000 -9.031251 3.133048 -0.003675 -2.548361
    10 21.093750 -0.000002 0.000000 0.000000 0.000000 -0.769531
    11 13.093750 0.000002 0.000000 0.000000 0.000000 0.891680
    12 9.734373 0.000000 -0.000001 0.287797 0.151658 -0.003301
    13 11.265622 12.999998 4.562498 -0.090583 -0.197048 2.006954
    14 11.265622 12.843750 0.249998 -0.029496 -0.052185 2.094221
    15 11.265622 13.140625 -3.375000 0.069639 0.120253 2.097711
    16 -2.140625 0.625000 0.000000 0.000000 -0.032987 1.507790
    17 10.500002 -0.000008 0.000000 0.000000 -0.085347 0.177856
    18 14.734376 -0.000004 0.000000 0.000000 -0.032987 0.106294
    19 14.000004 -0.000004 0.000000 0.000000 0.000000 -0.355873
    20 3.468750 0.000000 0.000000 0.034732 0.026003 0.315731
    21 -8.171877 7.750000 4.421876 -0.000001 -1.553169 -2.781881
    22 4.531252 0.000004 -0.000002 -0.785238 1.282598 -0.670047
    23 15.218755 0.000002 0.000000 0.000000 0.000000 -1.848097
    24 13.187500 -0.000003 0.000000 -0.177858 -0.242414 -0.872474
    25 11.531253 -0.000004 -4.359379 0.034720 0.106282 0.319198
    26 11.468754 -0.000004 -0.593752 -0.034727 -0.097562 0.319198
    27 11.468754 -0.000002 3.750001 -0.076618 -0.221475 0.326196
    28 -8.171875 7.750000 -4.843751 -0.000001 1.553169 -2.785371
    29 4.531251 0.000000 -0.000002 1.652997 0.096190 -1.771685
    30 15.218751 0.000000 0.000000 0.000000 0.000000 -1.073371
    31 13.187508 0.000000 0.000000 -0.204030 -0.024249 -0.617649
    32 11.531254 0.000000 4.359376 0.008552 -0.128980 -0.069639
    33 11.531254 0.000000 0.578125 -0.005061 0.128980 -0.069639
    34 3.890625 0.000000 -0.000001 0.000000 0.000000 0.364599
    35 11.593754 0.000000 -3.765627 -0.012043 0.242426 -0.069639
    36 -9.953127 3.421875 0.062501 0.000000 0.000000 2.949432
    37 0.062500 -0.921875 0.000000 0.000000 0.000000 -1.254717
    38 -1.125004 -6.468750 0.000000 0.000000 0.000000 0.000000
    39 -1.125000 -6.468752 0.000000 0.000000 0.000000 0.000000
    40 -1.359375 -6.125002 0.000000 0.000000 0.000000 0.000000
    41 10.453131 -11.515625 0.062500 0.000000 0.000000 2.809806
    42 8.265629 10.390621 0.000000 0.000000 0.000000 0.626399
    43 8.703126 -14.375008 0.062500 0.000000 0.000000 2.914526
    44 0.000000 -0.000004 0.000000 0.000000 0.000000 0.000000
    45 5.687500 4.937504 0.000000 0.000000 0.000000 0.000000
    46 5.374996 -1.375000 0.000000 0.000000 -0.198793 -1.492082
    47 7.531252 -0.000004 0.000000 0.000000 -0.120253 0.120253
    48 9.437498 0.000000 0.000000 0.000000 -0.181340 0.146433
  time 4
    0 -0.003840 -5.074374 43.503810 0.000000 0.012044 -1.691080
    1 0.144529 -1.589844 0.000004 0.000000 -1.570622 -1.570622
    2 0.000004 0.000000 9.031251 3.134775 0.054272 3.082421
    3 21.093748 0.000001 0.000000 0.000000 0.000000 -1.354182
    4 13.093752 -0.000002 0.000000 0.000000 0.000000 1.966811
    5 9.734375 0.000000 0.000000 -0.141197 0.052173 -0.659544
    6 11.265626 12.984377 -4.140625 0.000000 0.268606 1.570622
    7 11.265625 12.890627 -0.203125 0.000000 0.032987 1.570622
    8 11.265626 13.109377 3.593750 0.000000 -0.155160 1.570622
    9 0.000000 0.000000 -9.031251 3.131298 0.001910 -2.436679
    10 21.093750 -0.000002 0.000000 0.000000 0.000000 -0.685783
    11 13.093750 0.000002 0.000000 0.000000 0.000000 0.921344
    12 9.734373 0.000000 -0.000001 0.289547 0.153408 -0.034716
    13 11.265622 12.999998 4.562498 -0.090583 -0.197048 2.006954
    14 11.265622 12.843750 0.249998 -0.029496 -0.052185 2.094221
    15 11.265622 13.140625 -3.375000 0.069639 0.120253 2.097711
    16 -2.140625 0.625000 0.000000 0.000000 -0.032987 1.507790
    17 10.500002 -0.000008 0.000000 0.000000 -0.085347 0.170869
    18 14.734376 -0.000004 0.000000 0.000000 -0.032987 0.097570
    19 14.000004 -0.000004 0.000000 0.000000 0.000000 -0.355873
    20 3.468750 0.000000 0.000000 0.034732 0.027740 0.298288
    21 -8.171877 7.750000 4.421876 -0.000001 -1.553169 -2.781881
    22 4.531252 0.000004 -0.000002 -0.565339 1.321011 -0.437912
    23 15.218755 0.000002 0.000000 0.000000 0.000000 -1.938849
    24 13.187500 -0.000003 0.000000 -0.163895 -0.252889 -0.931829
    25 11.531253 -0.000004 -4.359379 0.060907 0.094081 0.589744
    26 11.468754 -0.000004 -0.593752 -0.059164 -0.085349 0.589744
    27 11.468754 -0.000002 3.750001 -0.134216 -0.191813 0.600195
    28 -8.171875 7.750000 -4.843751 -0.000001 1.553169 -2.785371
    29 4.531251 0.000000 -0.000002 1.658217 -0.038567 -1.773435
    30 15.218751 0.000000 0.000000 0.000000 0.000000 -1.102854
    31 13.187508 0.000000 0.000000 -0.193560 -0.020762 -0.675240
    32 11.531254 0.000000 4.359376 0.008552 -0.128980 -0.069639
    33 11.531254 0.000000 0.578125 -0.005061 0.128980 -0.069639
    34 3.890625 0.000000 -0.000001 0.000000 0.000000 0.364599
    35 11.593754 0.000000 -3.765627 -0.012043 0.242426 -0.069639
    36 -9.953127 3.421875 0.062501 0.000000 0.000000 2.949432
    37 0.062500 -0.921875 0.000000 0.000000 0.000000 -1.254717
    38 -1.125004 -6.468750 0.000000 0.000000 0.000000 0.000000
    39 -1.125000 -6.468752 0.000000 0.000000 0.000000 0.000000
    40 -1.359375 -6.125002 0.000000 0.000000 0.000000 0.000000
    41 10.453131 -11.515625 0.062500 0.000000 0.000000 2.809806
    42 8.265629 10.390621 0.000000 0.000000 0.000000 0.626399
    43 8.703126 -14.375008 0.062500 0.000000 0.000000 2.914526
    44 0.000000 -0.000004 0.000000 0.000000 0.000000 0.000000
    45 5.687500 4.937504 0.000000 0.000000 0.000000 0.000000
    46 5.374996 -1.375000 0.000000 0.000000 -0.198793 -1.492082
    47 7.531252 -0.000004 0.000000 0.000000 -0.120253 0.120253
    48 9.437498 0.000000 0.000000 0.000000 -0.181340 0.146433
  time 5
    0 -0.003840 -6.246284 42.722536 0.000000 -0.006796 -1.691080
    1 0.144529 -1.589844 0.000004 0.000000 -1.570622 -1.570622
    2 0.000004 0.000000 9.031251 3.136525 0.059509 3.160599
    3 21.093748 0.000001 0.000000 0.000000 0.000000 -1.343727
    4 13.093752 -0.000002 0.000000 0.000000 0.000000 2.045339
    5 9.734375 0.000000 0.000000 -0.141197 0.057410 -0.689220
    6 11.265626 12.984377 -4.140625 0.000000 0.268606 1.570622
    7 11.265625 12.890627 -0.203125 0.000000 0.032987 1.570622
    8 11.265626 13.109377 3.593750 0.000000 -0.155160 1.570622
    9 0.000000 0.000000 -9.031251 3.131298 0.005409 -2.319746
    10 21.093750 -0.000002 0.000000 0.000000 0.000000 -0.551370
    11 13.093750 0.000002 0.000000 0.000000 0.000000 0.902149
    12 9.734373 0.000000 -0.000001 0.289547 0.156896 -0.055666
    13 11.265622 12.999998 4.562498 -0.090583 -0.197048 2.006954
    14 11.265622 12.843750 0.249998 -0.029496 -0.052185 2.094221
    15 11.265622 13.140625 -3.375000 0.069639 0.120253 2.097711
    16 -2.140625 0.625000 0.000000 0.000000 -0.032987 1.507790
    17 10.500002 -0.000008 0.000000 0.000000 -0.085347 0.172619
    18 14.734376 -0.000004 0.000000 0.000000 -0.032987 0.094082
    19 14.000004 -0.000004 0.000000 0.000000 0.000000 -0.355873
    20 3.468750 0.000000 0.000000 0.034732 0.027740 0.282576
    21 -8.171877 7.750000 4.421876 -0.000001 -1.553169 -2.781881
    22 4.531252 0.000004 -0.000002 -0.403028 1.338467 -0.266892
    23 15.218755 0.000002 0.000000 0.000000 0.000000 -1.985977
    24 13.187500 -0.000003 0.000000 -0.153416 -0.258126 -0.973711
    25 11.531253 -0.000004 -4.359379 0.071381 0.085357 0.699703
    26 11.468754 -0.000004 -0.593752 -0.067889 -0.078374 0.699703
    27 11.468754 -0.000002 3.750001 -0.155153 -0.176113 0.710175
    28 -8.171875 7.750000 -4.843751 -0.000001 1.553169 -2.785371
    29 4.531251 0.000000 -0.000002 1.659966 -0.145030 -1.776936
    30 15.218751 0.000000 0.000000 0.000000 0.000000 -1.156964
    31 13.187508 0.000000 0.000000 -0.188324 -0.015536 -0.704911
    32 11.531254 0.000000 4.359376 0.008552 -0.128980 -0.069639
    33 11.531254 0.000000 0.578125 -0.005061 0.128980 -0.069639
    34 3.890625 0.000000 -0.000001 0.000000 0.000000 0.364599
    35 11.593754 0.000000 -3.765627 -0.012043 0.242426 -0.069639
    36 -9.953127 3.421875 0.062501 0.000000 0.000000 2.949432
    37 0.062500 -0.921875 0.000000 0.000000 0.000000 -1.254717
    38 -1.125004 -6.468750 0.000000 0.000000 0.000000 0.000000
    39 -1.125000 -6.468752 0.000000 0.000000 0.000000 0.000000
    40 -1.359375 -6.125002 0.000000 0.000000 0.000000 0.000000
    41 10.453131 -11.515625 0.062500 0.000000 0.000000 2.809806
    42 8.265629 10.390621 0.000000 0.000000 0.000000 0.626399
    43 8.703126 -14.375008 0.062500 0.000000 0.000000 2.914526
    44 0.000000 -0.000004 0.000000 0.000000 0.000000 0.000000
    45 5.687500 4.937504 0.000000 0.000000 0.000000 0.000000
    46 5.374996 -1.375000 0.000000 0.000000 -0.198793 -1.492082
    47 7.531252 -0.000004 0.000000 0.000000 -0.120253 0.120253
    48 9.437498 0.000000 0.000000 0.000000 -0.181340 0.146433
  time 6
    0 -0.003840 -4.902493 42.160019 0.000000 -0.008545 -1.691080
    1 0.175779 -1.589844 0.000004 0.000000 -1.570622 -1.570622
    2 0.000004 0.000000 9.031251 3.134775 0.056021 3.101615
    3 21.093748 0.000001 0.000000 0.000000 0.000000 -1.443193
    4 13.093752 -0.000002 0.000000 0.000000 0.000000 2.094214
    5 9.734375 0.000000 0.000000 -0.141197 0.053923 -0.701437
    6 11.265626 12.984377 -4.140625 0.000000 0.268606 1.570622
    7 11.265625 12.890627 -0.203125 0.000000 0.032987 1.570622
    8 11.265626 13.109377 3.593750 0.000000 -0.155160 1.570622
    9 0.000000 0.000000 -9.031251 3.131298 -0.001926 -2.420963
    10 21.093750 -0.000002 0.000000 0.000000 0.000000 -0.811362
    11 13.093750 0.000002 0.000000 0.000000 0.000000 1.060970
    12 9.734373 0.000000 -0.000001 0.289547 0.153408 -0.057407
    13 11.265622 12.999998 4.562498 -0.090583 -0.197048 2.006954
    14 11.265622 12.843750 0.249998 -0.029496 -0.052185 2.094221
    15 11.265622 13.140625 -3.375000 0.069639 0.120253 2.097711
    16 -2.140625 0.625000 0.000000 0.000000 -0.032987 1.499065
    17 10.500002 -0.000008 0.000000 0.000000 -0.085347 0.193568
    18 14.734376 -0.000004 0.000000 0.000000 -0.032987 0.108044
    19 14.000004 -0.000004 0.000000 0.000000 0.000000 -0.293050
    20 3.468750 0.000000 0.000000 0.034732 0.026003 0.224986
    21 -7.675768 8.246109 4.421876 -0.000001 -1.553169 -2.846454
    22 4.531252 0.000004 -0.000002 -0.361119 1.347195 -0.223234
    23 15.218755 0.000002 0.000000 0.000000 0.000000 -1.979018
    24 13.187500 -0.000003 0.000000 -0.153416 -0.258126 -0.973711
    25 11.531253 -0.000004 -4.359379 0.060907 0.094081 0.577526
    26 11.468754 -0.000004 -0.593752 -0.057414 -0.085349 0.577526
    27 11.468754 -0.000002 3.750001 -0.132466 -0.193563 0.587984
    28 -7.675766 8.246109 -4.843751 -0.000001 1.553169 -2.848189
    29 4.531251 0.000000 -0.000002 1.647751 -0.054279 -1.782136
    30 15.218751 0.000000 0.000000 0.000000 0.000000 -1.188371
    31 13.187508 0.000000 0.000000 -0.200548 -0.012049 -0.607175
    32 11.531254 0.000000 4.359376 0.008552 -0.128980 -0.069639
    33 11.531254 0.000000 0.578125 -0.005061 0.128980 -0.069639
    34 3.890625 0.000000 -0.000001 0.000000 0.000000 0.364599
    35 11.593754 0.000000 -3.765627 -0.012043 0.242426 -0.069639
    36 -9.953127 3.421875 0.062501 0.000000 0.000000 2.949432
    37 0.062500 -0.921875 0.000000 0.000000 0.000000 -1.254717
    38 -1.125004 -6.468750 0.000000 0.000000 0.000000 0.000000
    39 -1.125000 -6.468752 0.000000 0.000000 0.000000 0.000000
    40 -1.359375 -6.125002 0.000000 0.000000 0.000000 0.000000
    41 10.453131 -11.515625 0.062500 0.000000 0.000000 2.809806
    42 8.265629 10.390621 0.000000 0.000000 0.000000 0.626399
    43 8.703126 -14.375008 0.062500 0.000000 0.000000 2.914526
    44 0.000000 -0.000004 0.000000 0.000000 0.000000 0.000000
    45 5.687500 4.937504 0.000000 0.000000 0.000000 0.000000
    46 5.374996 -1.375000 0.000000 0.000000 -0.198793 -1.492082
    47 7.531252 -0.000004 0.000000 0.000000 -0.120253 0.120253
    48 9.437498 0.000000 0.000000 0.000000 -0.181340 0.146433
  time 7
    0 -0.003840 -3.136814 41.816258 0.000000 0.006819 -1.691080
    1 0.246094 -1.578125 0.000004 0.000000 -1.570622 -1.570622
    2 0.000004 0.000000 9.031251 3.131287 0.049034 2.998638
    3 21.093748 0.000001 0.000000 0.000000 0.000000 -1.546161
    4 13.093752 -0.000002 0.000000 0.000000 0.000000 2.104670
    5 9.734375 0.000000 0.000000 -0.141197 0.048686 -0.692707
    6 11.265626 12.984377 -4.140625 0.000000 0.268606 1.570622
    7 11.265625 12.890627 -0.203125 0.000000 0.032987 1.570622
    8 11.265626 13.109377 3.593750 0.000000 -0.155160 1.570622
    9 0.000000 0.000000 -9.031251 3.131298 -0.007163 -2.548361
    10 21.093750 -0.000002 0.000000 0.000000 0.000000 -1.047017
    11 13.093750 0.000002 0.000000 0.000000 0.000000 1.170931
    12 9.734373 0.000000 -0.000001 0.287797 0.148171 -0.038216
    13 11.265622 12.999998 4.562498 -0.090583 -0.197048 2.006954
    14 11.265622 12.843750 0.249998 -0.029496 -0.052185 2.094221
    15 11.265622 13.140625 -3.375000 0.069639 0.120253 2.097711
    16 -2.140625 0.625000 0.000000 0.000000 -0.032987 1.481616
    17 10.500002 -0.000008 0.000000 0.000000 -0.085347 0.231942
    18 14.734376 -0.000004 0.000000 0.000000 -0.032987 0.139444
    19 14.000004 -0.000004 0.000000 0.000000 0.000000 -0.184847
    20 3.468750 0.000000 0.000000 0.032995 0.024253 0.137720
    21 -6.738239 9.043008 4.421876 -0.000001 -1.553169 -2.954666
    22 4.531252 0.000004 -0.000002 -0.455357 1.350696 -0.317488
    23 15.218755 0.000002 0.000000 0.000000 0.000000 -1.937122
    24 13.187500 -0.000003 0.000000 -0.153416 -0.258126 -0.973711
    25 11.531253 -0.000004 -4.359379 0.031233 0.108031 0.291289
    26 11.468754 -0.000004 -0.593752 -0.031240 -0.099299 0.291289
    27 11.468754 -0.000002 3.750001 -0.071381 -0.223225 0.298246
    28 -6.738238 9.043008 -4.843751 -0.000001 1.553169 -2.956401
    29 4.531251 0.000000 -0.000002 1.625095 0.136328 -1.790861
    30 15.218751 0.000000 0.000000 0.000000 0.000000 -1.223278
    31 13.187508 0.000000 0.000000 -0.223229 -0.008561 -0.451847
    32 11.531254 0.000000 4.359376 0.008552 -0.128980 -0.069639
    33 11.531254 0.000000 0.578125 -0.005061 0.128980 -0.069639
    34 3.890625 0.000000 -0.000001 0.000000 0.000000 0.364599
    35 11.593754 0.000000 -3.765627 -0.012043 0.242426 -0.069639
    36 -9.953127 3.421875 0.062501 0.000000 0.000000 2.949432
    37 0.062500 -0.921875 0.000000 0.000000 0.000000 -1.254717
    38 -1.125004 -6.468750 0.000000 0.000000 0.000000 0.000000
    39 -1.125000 -6.468752 0.000000 0.000000 0.000000 0.000000
    40 -1.359375 -6.125002 0.000000 0.000000 0.000000 0.000000
    41 10.453131 -11.515625 0.062500 0.000000 0.000000 2.809806
    42 8.265629 10.390621 0.000000 0.000000 0.000000 0.626399
    43 8.703126 -14.375008 0.062500 0.000000 0.000000 2.914526
    44 0.000000 -0.000004 0.000000 0.000000 0.000000 0.000000
    45 5.687500 4.937504 0.000000 0.000000 0.000000 0.000000
    46 5.374996 -1.375000 0.000000 0.000000 -0.198793 -1.492082
    47 7.531252 -0.000004 0.000000 0.000000 -0.120253 0.120253
    48 9.437498 0.000000 0.000000 0.000000 -0.181340 0.146433
  time 8
    0 -0.003840 -0.714866 41.816258 0.000000 0.032993 -1.691080
    1 0.324221 -1.578125 0.000004 0.000000 -1.570622 -1.570622
    2 0.000004 0.000000 9.031251 3.126062 0.038572 2.855507
    3 21.093748 0.000001 0.000000 0.000000 0.000000 -1.635173
    4 13.093752 -0.000002 0.000000 0.000000 0.000000 2.059296
    5 9.734375 0.000000 0.000000 -0.141197 0.038223 -0.675247
    6 11.265626 12.984377 -4.140625 0.000000 0.268606 1.570622
    7 11.265625 12.890627 -0.203125 0.000000 0.032987 1.570622
    8 11.265626 13.109377 3.593750 0.000000 -0.155160 1.570622
    9 0.000000 0.000000 -9.031251 3.134786 -0.015876 -2.705453
    10 21.093750 -0.000002 0.000000 0.000000 0.000000 -1.277389
    11 13.093750 0.000002 0.000000 0.000000 0.000000 1.244219
    12 9.734373 0.000000 -0.000001 0.287797 0.139458 -0.012042
    13 11.265622 12.999998 4.562498 -0.090583 -0.197048 2.006954
    14 11.265622 12.843750 0.249998 -0.029496 -0.052185 2.094221
    15 11.265622 13.140625 -3.375000 0.069639 0.120253 2.097711
    16 -2.140625 0.609375 0.000000 0.000000 -0.032987 1.457179
    17 10.500002 -0.000008 0.000000 0.000000 -0.085347 0.268603
    18 14.734376 -0.000004 0.000000 0.000000 -0.032987 0.181330
    19 14.015629 -0.000004 0.000000 0.000000 0.000000 -0.102809
    20 3.468750 0.000000 0.000000 0.032995 0.022515 0.046959
    21 -5.972591 9.558649 4.421876 -0.000001 -1.553169 -3.034943
    22 4.531252 0.000004 -0.000002 -0.591504 1.348921 -0.455369
    23 15.218755 0.000002 0.000000 0.000000 0.000000 -1.874301
    24 13.187500 -0.000003 0.000000 -0.153416 -0.258126 -0.973711
    25 11.531253 -0.000004 -4.359379 -0.006818 0.111519 -0.062681
    26 11.468754 -0.000004 -0.593752 0.003324 -0.102799 -0.060924
    27 11.468754 -0.000002 3.750001 0.010306 -0.233699 -0.062667
    28 -5.972589 9.558649 -4.843751 -0.000001 1.553169 -3.038434
    29 4.531251 0.000000 -0.000002 1.597167 0.370206 -1.806587
    30 15.218751 0.000000 0.000000 0.000000 0.000000 -1.184902
    31 13.187508 0.000000 0.000000 -0.245910 -0.003324 -0.336697
    32 11.531254 0.000000 4.359376 0.008552 -0.128980 -0.069639
    33 11.531254 0.000000 0.578125 -0.005061 0.128980 -0.069639
    34 3.890625 0.000000 -0.000001 0.000000 0.000000 0.364599
    35 11.593754 0.000000 -3.765627 -0.012043 0.242426 -0.069639
    36 -9.953127 3.421875 0.062501 0.000000 0.000000 2.949432
    37 0.062500 -0.921875 0.000000 0.000000 0.000000 -1.254717
    38 -1.125004 -6.468750 0.000000 0.000000 0.000000 0.000000
    39 -1.125000 -6.468752 0.000000 0.000000 0.000000 0.000000
    40 -1.359375 -6.125002 0.000000 0.000000 0.000000 0.000000
    41 10.453131 -11.515625 0.062500 0.000000 0.000000 2.809806
    42 8.265629 10.390621 0.000000 0.000000 0.000000 0.626399
    43 8.703126 -14.375008 0.062500 0.000000 0.000000 2.914526
    44 0.000000 -0.000004 0.000000 0.000000 0.000000 0.000000
    45 5.687500 4.937504 0.000000 0.000000 0.000000 0.000000
    46 5.374996 -1.375000 0.000000 0.000000 -0.198793 -1.492082
    47 7.531252 -0.000004 0.000000 0.000000 -0.120253 0.120253
    48 9.437498 0.000000 0.000000 0.000000 -0.181340 0.146433
  time 9
    0 -0.003840 3.683706 42.628783 0.000000 0.067904 -1.691080
    1 0.417974 -1.566406 0.000004 0.000000 -1.570622 -1.570622
    2 0.000004 0.000000 9.031251 3.124324 0.017635 2.618172
    3 21.093748 0.000001 0.000000 0.000000 0.000000 -1.677071
    4 13.093752 -0.000002 0.000000 0.000000 0.000000 1.863820
    5 9.734375 0.000000 0.000000 -0.139459 0.022523 -0.638597
    6 11.265626 12.984377 -4.140625 0.000000 0.268606 1.570622
    7 11.265625 12.890627 -0.203125 0.000000 0.032987 1.570622
    8 11.265626 13.109377 3.593750 0.000000 -0.155160 1.570622
    9 0.000000 0.000000 -9.031251 3.141581 -0.031587 -2.965465
    10 21.093750 -0.000002 0.000000 0.000000 0.000000 -1.558382
    11 13.093750 0.000002 0.000000 0.000000 0.000000 1.261698
    12 9.734373 0.000000 -0.000001 0.286059 0.125496 0.020780
    13 11.265622 12.999998 4.562498 -0.090583 -0.197048 2.006954
    14 11.265622 12.843750 0.249998 -0.029496 -0.052185 2.094221
    15 11.265622 13.140625 -3.375000 0.069639 0.120253 2.097711
    16 -2.140625 0.609375 0.000000 0.000000 -0.032987 1.406568
    17 10.500002 -0.000008 0.000000 0.000000 -0.085347 0.294778
    18 14.734376 -0.000004 0.000000 0.000000 -0.032987 0.263364
    19 14.015629 -0.000004 0.000000 0.000000 0.000000 -0.059184
    20 3.468750 0.000000 0.000000 0.034732 0.020777 -0.029482
    21 -5.550703 9.808657 4.421876 -0.000001 -1.553169 -3.080320
    22 4.531252 0.000004 -0.000002 -0.773033 1.333240 -0.638618
    23 15.218755 0.000002 0.000000 0.000000 0.000000 -1.806201
    24 13.187500 -0.000003 0.000000 -0.153416 -0.258126 -0.973711
    25 11.531253 -0.000004 -4.359379 -0.041717 0.104544 -0.385571
    26 11.468754 -0.000004 -0.593752 0.036485 -0.097562 -0.385571
    27 11.468754 -0.000002 3.750001 0.085354 -0.217987 -0.392529
    28 -5.550701 9.808657 -4.843751 -0.000001 1.553169 -3.082073
    29 4.531251 0.000000 -0.000002 1.560161 0.333200 -1.832408
    30 15.218751 0.000000 0.000000 0.000000 0.000000 -1.422250
    31 13.187508 0.000000 0.000000 -0.240675 0.053926 -0.095827
    32 11.531254 0.000000 4.359376 0.008552 -0.128980 -0.069639
    33 11.531254 0.000000 0.578125 -0.005061 0.128980 -0.069639
    34 3.890625 0.000000 -0.000001 0.000000 0.000000 0.364599
    35 11.593754 0.000000 -3.765627 -0.012043 0.242426 -0.069639
    36 -9.953127 3.421875 0.062501 0.000000 0.000000 2.949432
    37 0.062500 -0.921875 0.000000 0.000000 0.000000 -1.254717
    38 -1.125004 -6.468750 0.000000 0.000000 0.000000 0.000000
    39 -1.125000 -6.468752 0.000000 0.000000 0.000000 0.000000
    40 -1.359375 -6.125002 0.000000 0.000000 0.000000 0.000000
    41 10.453131 -11.515625 0.062500 0.000000 0.000000 2.809806
    42 8.265629 10.390621 0.000000 0.000000 0.000000 0.626399
    43 8.703126 -14.375008 0.062500 0.000000 0.000000 2.914526
    44 0.000000 -0.000004 0.000000 0.000000 0.000000 0.000000
    45 5.687500 4.937504 0.000000 0.000000 0.000000 0.000000
    46 5.374996 -1.375000 0.000000 0.000000 -0.198793 -1.492082
    47 7.531252 -0.000004 0.000000 0.000000 -0.120253 0.120253
    48 9.437498 0.000000 0.000000 0.000000 -0.181340 0.146433
  time 10
    0 -0.003840 7.793207 43.816319 0.000000 0.102803 -1.691080
    1 0.480476 -1.550780 0.000004 0.000000 -1.570622 -1.570622
    2 0.000004 0.000000 9.031251 3.127812 0.001923 2.391288
    3 21.093748 0.000001 0.000000 0.000000 0.000000 -1.635173
    4 13.093752 -0.000002 0.000000 0.000000 0.000000 1.527008
    5 9.734375 0.000000 0.000000 -0.135972 0.008561 -0.539107
    6 11.265626 12.984377 -4.140625 0.000000 0.268606 1.570622
    7 11.265625 12.890627 -0.203125 0.000000 0.032987 1.570622
    8 11.265626 13.109377 3.593750 0.000000 -0.155160 1.570622
    9 0.000000 0.000000 -9.031251 3.157125 -0.043800 -3.212959
    10 21.093750 -0.000002 0.000000 0.000000 0.000000 -1.713710
    11 13.093750 0.000002 0.000000 0.000000 0.000000 1.170931
    12 9.734373 0.000000 -0.000001 0.282572 0.111534 0.055679
    13 11.265622 12.999998 4.562498 -0.090583 -0.197048 2.006954
    14 11.265622 12.843750 0.249998 -0.029496 -0.052185 2.094221
    15 11.265622 13.140625 -3.375000 0.069639 0.120253 2.097711
    16 -2.140625 0.613281 0.000000 0.000000 -0.032987 1.361182
    17 10.500002 -0.000008 0.000000 0.000000 -0.085347 0.303502
    18 14.734376 -0.000004 0.000000 0.000000 -0.032987 0.320962
    19 14.011723 -0.000004 0.000000 0.000000 0.000000 -0.019033
    20 3.468750 0.000000 0.000000 0.038218 0.017290 -0.069628
    21 -5.160066 10.027413 4.421876 -0.000001 -1.553169 -3.118713
    22 4.531252 0.000004 -0.000002 -0.872497 1.321011 -0.738132
    23 15.218755 0.000002 0.000000 0.000000 0.000000 -1.750386
    24 13.187500 -0.000003 0.000000 -0.153416 -0.258126 -0.973711
    25 11.531253 -0.000004 -4.359379 -0.059167 0.095819 -0.551350
    26 11.468754 -0.000004 -0.593752 0.052185 -0.088837 -0.551350
    27 11.468754 -0.000002 3.750001 0.120253 -0.200538 -0.560076
    28 -5.160064 10.027413 -4.843751 -0.000001 1.553169 -3.122203
    29 4.531251 0.000000 -0.000002 1.558413 0.300062 -1.832408
    30 15.218751 0.000000 0.000000 0.000000 0.000000 -1.460657
    31 13.187508 0.000000 0.000000 -0.235440 0.067888 -0.039987
    32 11.531254 0.000000 4.359376 0.039964 -0.123755 -0.315726
    33 11.531254 0.000000 0.578125 -0.036473 0.123755 -0.315726
    34 3.890625 0.000000 -0.000001 0.000000 0.000000 0.364599
    35 11.593754 0.000000 -3.765627 -0.073128 0.231963 -0.320964
    36 -9.953127 3.421875 0.062501 0.000000 0.000000 2.949432
    37 0.062500 -0.921875 0.000000 0.000000 0.000000 -1.254717
    38 -1.125004 -6.468750 0.000000 0.000000 0.000000 0.000000
    39 -1.125000 -6.468752 0.000000 0.000000 0.000000 0.000000
    40 -1.359375 -6.125002 0.000000 0.000000 0.000000 0.000000
    41 10.453131 -11.515625 0.062500 0.000000 0.000000 2.809806
    42 8.265629 10.390621 0.000000 0.000000 0.000000 0.626399
    43 8.703126 -14.375008 0.062500 0.000000 0.000000 2.914526
    44 0.000000 -0.000004 0.000000 0.000000 0.000000 0.000000
    45 5.687500 4.937504 0.000000 0.000000 0.000000 0.000000
    46 5.374996 -1.375000 0.000000 0.000000 -0.198793 -1.492082
    47 7.531252 -0.000004 0.000000 0.000000 -0.120253 0.120253
    48 9.437498 0.000000 0.000000 0.000000 -0.181340 0.146433
  time 11
    0 -0.003840 9.136998 44.675720 0.000000 0.130716 -1.691080
    1 0.449225 -1.550780 0.000004 0.000000 -1.570622 -1.570622
    2 0.000004 0.000000 9.031251 3.129550 -0.007149 2.295287
    3 21.093748 0.000001 0.000000 0.000000 0.000000 -1.574103
    4 13.093752 -0.000002 0.000000 0.000000 0.000000 1.312334
    5 9.734375 0.000000 0.000000 -0.134222 0.003324 -0.450129
    6 11.265626 12.984377 -4.140625 0.000000 0.268606 1.570622
    7 11.265625 12.890627 -0.203125 0.000000 0.032987 1.570622
    8 11.265626 13.109377 3.593750 0.000000 -0.155160 1.570622
    9 0.000000 0.000000 -9.031251 3.162350 -0.045549 -3.275789
    10 21.093750 -0.000002 0.000000 0.000000 0.000000 -1.710245
    11 13.093750 0.000002 0.000000 0.000000 0.000000 1.102849
    12 9.734373 0.000000 -0.000001 0.282572 0.106297 0.055679
    13 11.265622 12.999998 4.562498 -0.090583 -0.197048 2.006954
    14 11.265622 12.843750 0.249998 -0.029496 -0.052185 2.094221
    15 11.265622 13.140625 -3.375000 0.069639 0.120253 2.097711
    16 -2.140625 0.609375 0.000000 0.000000 -0.032987 1.343733
    17 10.500002 -0.000008 0.000000 0.000000 -0.085347 0.294778
    18 14.734376 -0.000004 0.000000 0.000000 -0.032987 0.307000
    19 14.015629 -0.000004 0.000000 0.000000 0.000000 0.012042
    20 3.468750 0.000000 0.000000 0.043454 0.015540 -0.045194
    21 -4.800680 10.199293 4.421876 -0.000001 -1.553169 -3.155726
    22 4.531252 0.000004 -0.000002 -0.869024 1.319285 -0.739874
    23 15.218755 0.000002 0.000000 0.000000 0.000000 -1.706714
    24 13.187500 -0.000003 0.000000 -0.153416 -0.258126 -0.973711
    25 11.531253 -0.000004 -4.359379 -0.052192 0.099307 -0.478082
    26 11.468754 -0.000004 -0.593752 0.045210 -0.092324 -0.476326
    27 11.468754 -0.000002 3.750001 0.104553 -0.209263 -0.486808
    28 -4.800678 10.199293 -4.843751 -0.000001 1.553169 -3.159217
    29 4.531251 0.000000 -0.000002 1.574485 0.207891 -1.832764
    30 15.218751 0.000000 0.000000 0.000000 0.000000 -1.500798
    31 13.187508 0.000000 0.000000 -0.235440 0.067888 -0.039987
    32 11.531254 0.000000 4.359376 0.039964 -0.123755 -0.315726
    33 11.531254 0.000000 0.578125 -0.036473 0.123755 -0.315726
    34 3.890625 0.000000 -0.000001 0.000000 0.000000 0.364599
    35 11.593754 0.000000 -3.765627 -0.073128 0.231963 -0.320964
    36 -9.953127 3.421875 0.062501 0.000000 0.000000 2.949432
    37 0.062500 -0.921875 0.000000 0.000000 0.000000 -1.254717
    38 -1.125004 -6.468750 0.000000 0.000000 0.000000 0.000000
    39 -1.125000 -6.468752 0.000000 0.000000 0.000000 0.000000
    40 -1.359375 -6.125002 0.000000 0.000000 0.000000 0.000000
    41 10.453131 -11.515625 0.062500 0.000000 0.000000 2.809806
    42 8.265629 10.390621 0.000000 0.000000 0.000000 0.626399
    43 8.703126 -14.375008 0.062500 0.000000 0.000000 2.914526
    44 0.000000 -0.000004 0.000000 0.000000 0.000000 0.000000
    45 5.687500 4.937504 0.000000 0.000000 0.000000 0.000000
    46 5.374996 -1.375000 0.000000 0.000000 -0.198793 -1.492082
    47 7.531252 -0.000004 0.000000 0.000000 -0.120253 0.120253
    48 9.437498 0.000000 0.000000 0.000000 -0.181340 0.146433
  time 12
    0 -0.003840 9.543260 45.441369 0.000000 0.158640 -1.691080
    1 0.386723 -1.566406 0.000004 0.000000 -1.570622 -1.570622
    2 0.000004 0.000000 9.031251 3.129550 -0.008899 2.239442
    3 21.093748 0.000001 0.000000 0.000000 0.000000 -1.514771
    4 13.093752 -0.000002 0.000000 0.000000 0.000000 1.137793
    5 9.734375 0.000000 0.000000 -0.132472 0.001574 -0.364612
    6 11.265626 12.984377 -4.140625 0.000000 0.268606 1.570622
    7 11.265625 12.890627 -0.203125 0.000000 0.032987 1.570622
    8 11.265626 13.109377 3.593750 0.000000 -0.155160 1.570622
    9 0.000000 0.000000 -9.031251 3.164100 -0.045549 -3.294982
    10 21.093750 -0.000002 0.000000 0.000000 0.000000 -1.666596
    11 13.093750 0.000002 0.000000 0.000000 0.000000 1.040030
    12 9.734373 0.000000 -0.000001 0.282572 0.106297 0.055679
    13 11.265622 12.999998 4.562498 -0.090583 -0.197048 2.006954
    14 11.265622 12.843750 0.249998 -0.029496 -0.052185 2.094221
    15 11.265622 13.140625 -3.375000 0.069639 0.120253 2.097711
    16 -2.140625 0.609375 0.000000 0.000000 -0.032987 1.336758
    17 10.500002 -0.000008 0.000000 0.000000 -0.085347 0.279078
    18 14.734376 -0.000004 0.000000 0.000000 -0.032987 0.273839
    19 14.015629 -0.000004 0.000000 0.000000 0.000000 0.041698
    20 3.468750 0.000000 0.000000 0.046940 0.015540 -0.003301
    21 -4.503796 10.324297 4.421876 -0.000001 -1.553169 -3.185398
    22 4.531252 0.000004 -0.000002 -0.886456 1.305330 -0.767786
    23 15.218755 0.000002 0.000000 0.000000 0.000000 -1.661362
    24 13.187500 -0.000003 0.000000 -0.153416 -0.258126 -0.973711
    25 11.531253 -0.000004 -4.359379 -0.027755 0.108031 -0.258164
    26 11.468754 -0.000004 -0.593752 0.024261 -0.101049 -0.258164
    27 11.468754 -0.000002 3.750001 0.057430 -0.226712 -0.263399
    28 -4.503794 10.324297 -4.843751 -0.000001 1.553169 -3.188889
    29 4.531251 0.000000 -0.000002 1.591921 0.134566 -1.829263
    30 15.218751 0.000000 0.000000 0.000000 0.000000 -1.493798
    31 13.187508 0.000000 0.000000 -0.235440 0.067888 -0.039987
    32 11.531254 0.000000 4.359376 0.052176 -0.118517 -0.420446
    33 11.531254 0.000000 0.578125 -0.050435 0.120255 -0.420446
    34 3.890625 0.000000 -0.000001 0.000000 0.000000 0.364599
    35 11.593754 0.000000 -3.765627 -0.095815 0.223239 -0.429172
    36 -9.953127 3.421875 0.062501 0.000000 0.000000 2.949432
    37 0.062500 -0.921875 0.000000 0.000000 0.000000 -1.254717
    38 -1.125004 -6.468750 0.000000 0.000000 0.000000 0.000000
    39 -1.125000 -6.468752 0.000000 0.000000 0.000000 0.000000
    40 -1.359375 -6.125002 0.000000 0.000000 0.000000 0.000000
    41 10.453131 -11.515625 0.062500 0.000000 0.000000 2.809806
    42 8.265629 10.390621 0.000000 0.000000 0.000000 0.626399
    43 8.703126 -14.375008 0.062500 0.000000 0.000000 2.914526
    44 0.000000 -0.000004 0.000000 0.000000 0.000000 0.000000
    45 5.687500 4.937504 0.000000 0.000000 0.000000 0.000000
    46 5.374996 -1.375000 0.000000 0.000000 -0.198793 -1.492082
    47 7.531252 -0.000004 0.000000 0.000000 -0.120253 0.120253
    48 9.437498 0.000000 0.000000 0.000000 -0.181340 0.146433
  time 13
    0 -0.003840 10.262032 46.035137 0.000000 0.179589 -1.691080
    1 0.324221 -1.566406 0.000004 0.000000 -1.570622 -1.570622
    2 0.000004 0.000000 9.031251 3.131287 -0.010637 2.183597
    3 21.093748 0.000001 0.000000 0.000000 0.000000 -1.451936
    4 13.093752 -0.000002 0.000000 0.000000 0.000000 0.959776
    5 9.734375 0.000000 0.000000 -0.132472 0.000004 -0.286069
    6 11.265626 12.984377 -4.140625 0.000000 0.268606 1.570622
    7 11.265625 12.890627 -0.203125 0.000000 0.032987 1.570622
    8 11.265626 13.109377 3.593750 0.000000 -0.155160 1.570622
    9 0.000000 0.000000 -9.031251 3.167587 -0.045549 -3.343869
    10 21.093750 -0.000002 0.000000 0.000000 0.000000 -1.670104
    11 13.093750 0.000002 0.000000 0.000000 0.000000 0.994661
    12 9.734373 0.000000 -0.000001 0.280834 0.102809 0.055679
    13 11.265622 12.999998 4.562498 -0.090583 -0.197048 2.006954
    14 11.265622 12.843750 0.249998 -0.029496 -0.052185 2.094221
    15 11.265622 13.140625 -3.375000 0.069639 0.120253 2.097711
    16 -2.140625 0.613281 0.000000 0.000000 -0.032987 1.328021
    17 10.500002 -0.000008 0.000000 0.000000 -0.085347 0.259878
    18 14.734376 -0.000004 0.000000 0.000000 -0.032987 0.235440
    19 14.015629 -0.000004 0.000000 0.000000 0.000000 0.069635
    20 3.468750 0.000000 0.000000 0.052176 0.013790 0.046959
    21 -4.222538 10.449301 4.421876 -0.000001 -1.553169 -3.213316
    22 4.531252 0.000004 -0.000002 -0.931838 1.277371 -0.825384
    23 15.218755 0.000002 0.000000 0.000000 0.000000 -1.615962
    24 13.187500 -0.000003 0.000000 -0.153416 -0.258126 -0.973711
    25 11.531253 -0.000004 -4.359379 0.008546 0.111519 0.081832
    26 11.468754 -0.000004 -0.593752 -0.010291 -0.102799 0.083588
    27 11.468754 -0.000002 3.750001 -0.022507 -0.233699 0.085342
    28 -4.222536 10.449301 -4.843751 -0.000001 1.553169 -3.215069
    29 4.531251 0.000000 -0.000002 1.626844 0.152040 -1.804837
    30 15.218751 0.000000 0.000000 0.000000 0.000000 -1.219809
    31 13.187508 0.000000 0.000000 -0.244169 -0.027749 -0.437903
    32 11.531254 0.000000 4.359376 0.026002 -0.127242 -0.211007
    33 11.531254 0.000000 0.578125 -0.024248 0.127242 -0.209250
    34 3.890625 0.000000 -0.000001 0.000000 0.000000 0.364599
    35 11.593754 0.000000 -3.765627 -0.046942 0.238938 -0.214497
    36 -9.953127 3.421875 0.062501 0.000000 0.000000 2.949432
    37 0.062500 -0.921875 0.000000 0.000000 0.000000 -1.254717
    38 -1.125004 -6.468750 0.000000 0.000000 0.000000 0.000000
    39 -1.125000 -6.468752 0.000000 0.000000 0.000000 0.000000
    40 -1.359375 -6.125002 0.000000 0.000000 0.000000 0.000000
    41 10.453131 -11.515625 0.062500 0.000000 0.000000 2.809806
    42 8.265629 10.390621 0.000000 0.000000 0.000000 0.626399
    43 8.703126 -14.375008 0.062500 0.000000 0.000000 2.914526
    44 0.000000 -0.000004 0.000000 0.000000 0.000000 0.000000
    45 5.687500 4.937504 0.000000 0.000000 0.000000 0.000000
    46 5.374996 -1.375000 0.000000 0.000000 -0.198793 -1.492082
    47 7.531252 -0.000004 0.000000 0.000000 -0.120253 0.120253
    48 9.437498 0.000000 0.000000 0.000000 -0.181340 0.146433
  time 14
    0 -0.003840 12.871487 44.238207 0.000000 0.191801 -1.691080
    1 0.324221 -1.578125 0.000004 0.000000 -1.570622 -1.570622
    2 0.000004 0.000000 9.031251 3.138274 -0.017624 2.005581
    3 21.093748 0.000001 0.000000 0.000000 0.000000 -1.528728
    4 13.093752 -0.000002 0.000000 0.000000 0.000000 0.799192
    5 9.734375 0.000000 0.000000 -0.130734 -0.006803 -0.216255
    6 11.265626 12.984377 -4.140625 0.000000 0.268606 1.570622
    7 11.265625 12.890627 -0.203125 0.000000 0.032987 1.570622
    8 11.265626 13.109377 3.593750 0.000000 -0.155160 1.570622
    9 0.000000 0.000000 -9.031251 3.197261 -0.061249 -3.584723
    10 21.093750 -0.000002 0.000000 0.000000 0.000000 -2.015662
    11 13.093750 0.000002 0.000000 0.000000 0.000000 1.102849
    12 9.734373 0.000000 -0.000001 0.286059 0.073135 0.055679
    13 11.265622 12.999998 4.562498 -0.090583 -0.197048 2.006954
    14 11.265622 12.843750 0.249998 -0.029496 -0.052185 2.094221
    15 11.265622 13.140625 -3.375000 0.069639 0.120253 2.097711
    16 -2.140625 0.613281 0.000000 0.000000 -0.032987 1.321046
    17 10.500002 -0.000008 0.000000 0.000000 -0.085347 0.244167
    18 14.734376 -0.000004 0.000000 0.000000 -0.032987 0.230203
    19 14.011723 -0.000004 0.000000 0.000000 0.000000 0.097554
    20 3.468750 0.000000 0.000000 0.055674 0.010303 0.060923
    21 -3.941279 10.558679 4.421876 -0.000001 -1.553169 -3.239496
    22 4.531252 0.000004 -0.000002 -1.005138 1.237231 -0.903924
    23 15.218755 0.000002 0.000000 0.000000 0.000000 -1.603772
    24 13.187500 -0.000003 0.000000 -0.153416 -0.258126 -0.973711
    25 11.531253 -0.000004 -4.359379 0.045195 0.102794 0.429158
    26 11.468754 -0.000004 -0.593752 -0.045202 -0.092324 0.429158
    27 11.468754 -0.000002 3.750001 -0.101054 -0.211000 0.437882
    28 -3.941277 10.558679 -4.843751 -0.000001 1.553169 -3.242987
    29 4.531251 0.000000 -0.000002 1.626844 0.213129 -1.810062
    30 15.218751 0.000000 0.000000 0.000000 0.000000 -1.141261
    31 13.187508 0.000000 0.000000 -0.245910 -0.099309 -0.638596
    32 11.531254 0.000000 4.359376 -0.012038 -0.128980 0.104542
    33 11.531254 0.000000 0.578125 0.015528 0.128980 0.104542
    34 3.890625 0.000000 -0.000001 0.000000 0.000000 0.364599
    35 11.593754 0.000000 -3.765627 0.027746 0.240688 0.108029
    36 -9.953127 3.421875 0.062501 0.000000 0.000000 2.949432
    37 0.062500 -0.921875 0.000000 0.000000 0.000000 -1.254717
    38 -1.125004 -6.468750 0.000000 0.000000 0.000000 0.000000
    39 -1.125000 -6.468752 0.000000 0.000000 0.000000 0.000000
    40 -1.359375 -6.125002 0.000000 0.000000 0.000000 0.000000
    41 10.453131 -11.515625 0.062500 0.000000 0.000000 2.809806
    42 8.265629 10.390621 0.000000 0.000000 0.000000 0.626399
    43 8.703126 -14.375008 0.062500 0.000000 0.000000 2.914526
    44 0.000000 -0.000004 0.000000 0.000000 0.000000 0.000000
    45 5.687500 4.937504 0.000000 0.000000 0.000000 0.000000
    46 5.374996 -1.375000 0.000000 0.000000 -0.198793 -1.492082
    47 7.531252 -0.000004 0.000000 0.000000 -0.120253 0.120253
    48 9.437498 0.000000 0.000000 0.000000 -0.181340 0.146433
  time 15
    0 -0.003840 15.090304 41.253741 0.000000 0.181338 -1.691080
    1 0.308596 -1.578125 0.000004 0.000000 -1.570622 -1.570622
    2 0.000004 0.000000 9.031251 3.144902 -0.024599 1.839751
    3 21.093748 0.000001 0.000000 0.000000 0.000000 -1.675333
    4 13.093752 -0.000002 0.000000 0.000000 0.000000 0.781733
    5 9.734375 0.000000 0.000000 -0.127247 -0.013778 -0.224985
    6 11.265626 12.984377 -4.140625 0.000000 0.268606 1.570622
    7 11.265625 12.890627 -0.203125 0.000000 0.032987 1.570622
    8 11.265626 13.109377 3.593750 0.000000 -0.155160 1.570622
    9 0.000000 0.000000 -9.031251 3.205986 -0.059511 -3.668484
    10 21.093750 -0.000002 0.000000 0.000000 0.000000 -2.157046
    11 13.093750 0.000002 0.000000 0.000000 0.000000 1.158716
    12 9.734373 0.000000 -0.000001 0.279084 0.067898 0.132461
    13 11.265622 12.999998 4.562498 -0.090583 -0.197048 2.006954
    14 11.265622 12.843750 0.249998 -0.029496 -0.052185 2.094221
    15 11.265622 13.140625 -3.375000 0.069639 0.120253 2.097711
    16 -2.140625 0.613281 0.000000 0.000000 -0.032987 1.321046
    17 10.500002 -0.000008 0.000000 0.000000 -0.085347 0.184831
    18 14.734376 -0.000004 0.000000 0.000000 -0.032987 0.245915
    19 14.011723 -0.000004 0.000000 0.000000 0.000000 0.125474
    20 3.468750 0.000000 0.000000 0.062647 0.008553 0.085357
    21 -3.628770 10.668058 4.421876 -0.000001 -1.553169 -3.269168
    22 4.531252 0.000004 -0.000002 -0.211013 1.362925 -0.059184
    23 15.218755 0.000002 0.000000 0.000000 0.000000 -1.916149
    24 13.187500 -0.000003 0.000000 -0.188324 -0.272088 -0.855031
    25 11.531253 -0.000004 -4.359379 0.045195 0.102794 0.429158
    26 11.468754 -0.000004 -0.593752 -0.045202 -0.092324 0.429158
    27 11.468754 -0.000002 3.750001 -0.101054 -0.211000 0.437882
    28 -3.628768 10.668058 -4.843751 -0.000001 1.553169 -3.272659
    29 4.531251 0.000000 -0.000002 1.619849 0.249791 -1.813562
    30 15.218751 0.000000 0.000000 0.000000 0.000000 -1.235512
    31 13.187508 0.000000 0.000000 -0.277333 -0.135958 -0.399509
    32 11.531254 0.000000 4.359376 0.000007 -0.128980 -0.008564
    33 11.531254 0.000000 0.578125 -0.000004 0.128980 -0.006807
    34 3.890625 0.000000 -0.000001 0.000000 0.000000 0.364599
    35 11.593754 0.000000 -3.765627 -0.000011 0.242426 -0.006815
    36 -9.953127 3.421875 0.062501 0.000000 0.000000 2.949432
    37 0.062500 -0.921875 0.000000 0.000000 0.000000 -1.254717
    38 -1.125004 -6.468750 0.000000 0.000000 0.000000 0.000000
    39 -1.125000 -6.468752 0.000000 0.000000 0.000000 0.000000
    40 -1.359375 -6.125002 0.000000 0.000000 0.000000 0.000000
    41 10.453131 -11.515625 0.062500 0.000000 0.000000 2.809806
    42 8.265629 10.390621 0.000000 0.000000 0.000000 0.626399
    43 8.703126 -14.375008 0.062500 0.000000 0.000000 2.914526
    44 0.000000 -0.000004 0.000000 0.000000 0.000000 0.000000
    45 5.687500 4.937504 0.000000 0.000000 0.000000 0.000000
    46 5.374996 -1.375000 0.000000 0.000000 -0.198793 -1.492082
    47 7.531252 -0.000004 0.000000 0.000000 -0.120253 0.120253
    48 9.437498 0.000000 0.000000 0.000000 -0.181340 0.146433
  time 16
    0 -0.003840 11.340190 43.050671 0.000000 0.088841 -1.691080
    1 0.324221 -1.578125 0.000004 0.000000 -1.570622 -1.570622
    2 0.000004 0.000000 9.031251 3.131287 -0.014136 2.171380
    3 21.093748 0.000001 0.000000 0.000000 0.000000 -1.682312
    4 13.093752 -0.000002 0.000000 0.000000 0.000000 1.118596
    5 9.734375 0.000000 0.000000 -0.128985 0.000004 -0.298286
    6 11.265626 12.984377 -4.140625 0.000000 0.268606 1.570622
    7 11.265625 12.890627 -0.203125 0.000000 0.032987 1.570622
    8 11.265626 13.109377 3.593750 0.000000 -0.155160 1.570622
    9 0.000000 0.000000 -9.031251 3.169337 -0.061249 -3.296721
    10 21.093750 -0.000002 0.000000 0.000000 0.000000 -1.678807
    11 13.093750 0.000002 0.000000 0.000000 0.000000 1.057480
    12 9.734373 0.000000 -0.000001 0.291284 0.053936 0.137702
    13 11.265622 12.999998 4.562498 -0.071396 -0.205773 1.907480
    14 11.265622 12.843750 0.249998 -0.024271 -0.053923 1.996506
    15 11.265622 13.140625 -3.375000 0.057427 0.125478 1.999998
    16 -2.140625 0.613281 0.000000 0.000000 -0.032987 1.321046
    17 10.500002 -0.000008 0.000000 0.000000 -0.085347 0.132482
    18 14.734376 -0.000004 0.000000 0.000000 -0.032987 0.263364
    19 14.011723 -0.000004 0.000000 0.000000 0.000000 0.158640
    20 3.468750 0.000000 0.000000 0.067882 0.005065 0.101069
    21 -3.269384 10.777436 4.421876 -0.000001 -1.553169 -3.302332
    22 4.531252 0.000004 -0.000002 -0.595010 1.338467 -0.472826
    23 15.218755 0.000002 0.000000 0.000000 0.000000 -1.682286
    24 13.187500 -0.000003 0.000000 -0.181342 -0.275576 -0.879470
    25 11.531253 -0.000004 -4.359379 0.008546 0.111519 0.094049
    26 11.468754 -0.000004 -0.593752 -0.012040 -0.102799 0.094049
    27 11.468754 -0.000002 3.750001 -0.025995 -0.233699 0.097553
    28 -3.269382 10.777436 -4.843751 -0.000001 1.553169 -3.304068
    29 4.531251 0.000000 -0.000002 1.850215 0.588322 -1.614627
    30 15.218751 0.000000 0.000000 0.000000 0.000000 -1.163933
    31 13.187508 0.000000 0.000000 -0.024260 0.045201 0.212733
    32 11.531254 0.000000 4.359376 -0.048686 -0.120255 0.392517
    33 11.531254 0.000000 0.578125 0.052177 0.118517 0.392517
    34 3.890625 0.000000 -0.000001 0.000000 0.000000 0.364599
    35 11.593754 0.000000 -3.765627 0.097556 0.223239 0.401242
    36 -9.953127 3.421875 0.062501 0.000000 0.000000 2.949432
    37 0.062500 -0.921875 0.000000 0.000000 0.000000 -1.254717
    38 -1.125004 -6.468750 0.000000 0.000000 0.000000 0.000000
    39 -1.125000 -6.468752 0.000000 0.000000 0.000000 0.000000
    40 -1.359375 -6.125002 0.000000 0.000000 0.000000 0.000000
    41 10.453131 -11.515625 0.062500 0.000000 0.000000 2.809806
    42 8.265629 10.390621 0.000000 0.000000 0.000000 0.626399
    43 8.703126 -14.375008 0.062500 0.000000 0.000000 2.914526
    44 0.000000 -0.000004 0.000000 0.000000 0.000000 0.000000
    45 5.687500 4.937504 0.000000 0.000000 0.000000 0.000000
    46 5.374996 -1.375000 0.000000 0.000000 -0.198793 -1.492082
    47 7.531252 -0.000004 0.000000 0.000000 -0.120253 0.120253
    48 9.437498 0.000000 0.000000 0.000000 -0.181340 0.146433
  time 17
    0 -0.003840 7.308817 45.113234 0.000000 -0.067881 -1.691080
    1 0.355472 -1.578125 0.000004 0.000000 -1.570622 -1.570622
    2 0.000004 0.000000 9.031251 3.119087 0.001923 2.628653
    3 21.093748 0.000001 0.000000 0.000000 0.000000 -1.525225
    4 13.093752 -0.000002 0.000000 0.000000 0.000000 1.420540
    5 9.734375 0.000000 0.000000 -0.128985 0.013798 -0.460615
    6 11.265626 12.984377 -4.140625 0.000000 0.268606 1.570622
    7 11.265625 12.890627 -0.203125 0.000000 0.032987 1.570622
    8 11.265626 13.109377 3.593750 0.000000 -0.155160 1.570622
    9 0.000000 0.000000 -9.031251 3.140011 -0.050787 -2.941021
    10 21.093750 -0.000002 0.000000 0.000000 0.000000 -1.216288
    11 13.093750 0.000002 0.000000 0.000000 0.000000 0.956243
    12 9.734373 0.000000 -0.000001 0.310484 0.041724 0.132461
    13 11.265622 12.999998 4.562498 -0.043460 -0.212748 1.776571
    14 11.265622 12.843750 0.249998 -0.017284 -0.057410 1.869080
    15 11.265622 13.140625 -3.375000 0.039977 0.132465 1.870824
    16 -2.140625 0.609375 0.000000 0.000000 -0.032987 1.321046
    17 10.500002 -0.000008 0.000000 0.000000 -0.085347 0.080122
    18 14.734376 -0.000004 0.000000 0.000000 -0.032987 0.273839
    19 14.011723 -0.000004 0.000000 0.000000 0.000000 0.193544
    20 3.468750 0.000000 0.000000 0.073118 0.001578 0.115018
    21 -2.894372 10.886814 4.421876 -0.000001 -1.553169 -3.337232
    22 4.531252 0.000004 -0.000002 -0.919632 1.270418 -0.832354
    23 15.218755 0.000002 0.000000 0.000000 0.000000 -1.404847
    24 13.187500 -0.000003 0.000000 -0.259874 -0.197053 -0.542628
    25 11.531253 -0.000004 -4.359379 -0.027755 0.108031 -0.247664
    26 11.468754 -0.000004 -0.593752 0.022523 -0.101049 -0.247664
    27 11.468754 -0.000002 3.750001 0.053942 -0.228462 -0.252932
    28 -2.894370 10.886814 -4.843751 -0.000001 1.553169 -3.338987
    29 4.531251 0.000000 -0.000002 2.099432 0.916084 -1.408310
    30 15.218751 0.000000 0.000000 0.000000 0.000000 -1.116823
    31 13.187508 0.000000 0.000000 0.120247 -0.076610 -0.177868
    32 11.531254 0.000000 4.359376 0.012039 -0.128980 -0.095807
    33 11.531254 0.000000 0.578125 -0.008549 0.128980 -0.095807
    34 3.890625 0.000000 -0.000001 0.000000 0.000000 0.364599
    35 11.593754 0.000000 -3.765627 -0.019018 0.242426 -0.097554
    36 -9.953127 3.421875 0.062501 0.000000 0.000000 2.949432
    37 0.062500 -0.921875 0.000000 0.000000 0.000000 -1.254717
    38 -1.125004 -6.468750 0.000000 0.000000 0.000000 0.000000
    39 -1.125000 -6.468752 0.000000 0.000000 0.000000 0.000000
    40 -1.359375 -6.125002 0.000000 0.000000 0.000000 0.000000
    41 10.453131 -11.515625 0.062500 0.000000 0.000000 2.809806
    42 8.265629 10.390621 0.000000 0.000000 0.000000 0.626399
    43 8.703126 -14.375008 0.062500 0.000000 0.000000 2.914526
    44 0.000000 -0.000004 0.000000 0.000000 0.000000 0.000000
    45 5.687500 4.937504 0.000000 0.000000 0.000000 0.000000
    46 5.374996 -1.375000 0.000000 0.000000 -0.198793 -1.492082
    47 7.531252 -0.000004 0.000000 0.000000 -0.120253 0.120253
    48 9.437498 0.000000 0.000000 0.000000 -0.181340 0.146433
  time 18
    0 -0.003840 2.964934 47.277362 0.000000 -0.128979 -1.691080
    1 0.417974 -1.578125 0.000004 0.000000 -1.570622 -1.570622
    2 0.000004 0.000000 9.031251 3.113850 0.014147 2.886948
    3 21.093748 0.000001 0.000000 0.000000 0.000000 -1.296588
    4 13.093752 -0.000002 0.000000 0.000000 0.000000 1.450218
    5 9.734375 0.000000 0.000000 -0.125497 0.020773 -0.512969
    6 11.265626 12.984377 -4.140625 0.000000 0.268606 1.570622
    7 11.265625 12.890627 -0.203125 0.000000 0.032987 1.570622
    8 11.265626 13.109377 3.593750 0.000000 -0.155160 1.570622
    9 0.000000 0.000000 -9.031251 3.110361 -0.028088 -2.565815
    10 21.093750 -0.000002 0.000000 0.000000 0.000000 -0.738136
    11 13.093750 0.000002 0.000000 0.000000 0.000000 0.844537
    12 9.734373 0.000000 -0.000001 0.336670 0.034737 0.104545
    13 11.265622 12.999998 4.562498 -0.022522 -0.216235 1.677098
    14 11.265622 12.843750 0.249998 -0.010309 -0.059160 1.771339
    15 11.265622 13.140625 -3.375000 0.027753 0.135953 1.773085
    16 -2.140625 0.609375 0.000000 0.000000 -0.032987 1.321046
    17 10.500002 -0.000008 0.000000 0.000000 -0.085347 0.017286
    18 14.734376 -0.000004 0.000000 0.000000 -0.032987 0.265114
    19 14.011723 -0.000004 0.000000 0.000000 0.000000 0.224973
    20 3.468750 0.000000 0.000000 0.080103 0.000008 0.149937
    21 -2.534986 10.980567 4.421876 -0.000001 -1.553169 -3.368641
    22 4.531252 0.000004 -0.000002 -1.137778 1.097681 -1.067941
    23 15.218755 0.000002 0.000000 0.000000 0.000000 -1.176214
    24 13.187500 -0.000003 0.000000 -0.261623 -0.202290 -0.549624
    25 11.531253 -0.000004 -4.359379 -0.055679 0.097557 -0.525197
    26 11.468754 -0.000004 -0.593752 0.048698 -0.090575 -0.525197
    27 11.468754 -0.000002 3.750001 0.115028 -0.204025 -0.533909
    28 -2.534984 10.980567 -4.843751 -0.000001 1.553169 -3.372150
    29 4.531251 0.000000 -0.000002 1.998212 0.792194 -1.165722
    30 15.218751 0.000000 0.000000 0.000000 0.000000 -1.137761
    31 13.187508 0.000000 0.000000 0.176104 0.139448 -0.521851
    32 11.531254 0.000000 4.359376 0.053926 -0.118517 -0.429169
    33 11.531254 0.000000 0.578125 -0.050435 0.118517 -0.429169
    34 3.890625 0.000000 -0.000001 0.000000 0.000000 0.364599
    35 11.593754 0.000000 -3.765627 -0.099303 0.221489 -0.437892
    36 -9.953127 3.421875 0.062501 0.000000 0.000000 2.949432
    37 0.062500 -0.921875 0.000000 0.000000 0.000000 -1.254717
    38 -1.125004 -6.468750 0.000000 0.000000 0.000000 0.000000
    39 -1.125000 -6.468752 0.000000 0.000000 0.000000 0.000000
    40 -1.359375 -6.125002 0.000000 0.000000 0.000000 0.000000
    41 10.453131 -11.515625 0.062500 0.000000 0.000000 2.809806
    42 8.265629 10.390621 0.000000 0.000000 0.000000 0.626399
    43 8.703126 -14.375008 0.062500 0.000000 0.000000 2.914526
    44 0.000000 -0.000004 0.000000 0.000000 0.000000 0.000000
    45 5.687500 4.937504 0.000000 0.000000 0.000000 0.000000
    46 5.374996 -1.375000 0.000000 0.000000 -0.198793 -1.492082
    47 7.531252 -0.000004 0.000000 0.000000 -0.120253 0.120253
    48 9.437498 0.000000 0.000000 0.000000 -0.181340 0.146433
  time 19
    0 -0.003840 -2.339915 49.543056 0.000000 -0.104542 -1.691080
    1 0.621106 -1.589844 0.000004 0.000000 -1.570622 -1.570622
    2 0.000004 0.000000 9.031251 3.117337 0.026359 3.050980
    3 21.093748 0.000001 0.000000 0.000000 0.000000 -1.132549
    4 13.093752 -0.000002 0.000000 0.000000 0.000000 1.472892
    5 9.734375 0.000000 0.000000 -0.128985 0.017286 -0.624650
    6 11.265626 12.984377 -4.140625 0.022507 0.268606 1.659626
    7 11.265625 12.890627 -0.203125 0.001570 0.032987 1.657876
    8 11.265626 13.109377 3.593750 -0.012033 -0.155160 1.657886
    9 0.000000 0.000000 -9.031251 3.112099 -0.036825 -2.612964
    10 21.093750 -0.000002 0.000000 0.000000 0.000000 -0.895153
    11 13.093750 0.000002 0.000000 0.000000 0.000000 0.823597
    12 9.734373 0.000000 -0.000001 0.306996 0.135970 -0.087081
    13 11.265622 12.999998 4.562498 -0.064409 -0.207511 1.872571
    14 11.265622 12.843750 0.249998 -0.022521 -0.055672 1.963332
    15 11.265622 13.140625 -3.375000 0.052189 0.127228 1.965078
    16 -2.140625 0.609375 0.000000 0.000000 -0.032987 1.321046
    17 10.500002 -0.000008 0.000000 0.000000 -0.085347 -0.073125
    18 14.734376 -0.000004 0.000000 0.000000 -0.032987 0.176093
    19 14.015629 -0.000004 0.000000 0.000000 0.000000 0.224973
    20 3.468750 0.000000 0.000000 0.092324 0.000008 0.217996
    21 -2.534986 10.980567 4.421876 -0.000001 -1.553169 -3.368659
    22 4.531252 0.000004 -0.000002 -1.307069 0.245931 -1.148223
    23 15.218755 0.000002 0.000000 0.000000 0.000000 -1.315822
    24 13.187500 -0.000003 0.000000 -0.155165 -0.364597 -1.034793
    25 11.531253 -0.000004 -4.359379 -0.034742 0.106282 -0.319252
    26 11.468754 -0.000004 -0.593752 0.029498 -0.099299 -0.319252
    27 11.468754 -0.000002 3.750001 0.069642 -0.223225 -0.324494
    28 -2.534984 10.980567 -4.843751 -0.000001 1.553169 -3.372150
    29 4.531251 0.000000 -0.000002 1.717571 0.324830 -1.583200
    30 15.218751 0.000000 0.000000 0.000000 0.000000 -0.256419
    31 13.187508 0.000000 0.000000 0.169116 0.073126 -0.149948
    32 11.531254 0.000000 4.359376 -0.008550 -0.128980 0.080100
    33 11.531254 0.000000 0.578125 0.012041 0.128980 0.080100
    34 3.890625 0.000000 -0.000001 0.000000 0.000000 0.364599
    35 11.593754 0.000000 -3.765627 0.022509 0.242426 0.081856
    36 -9.953127 3.421875 0.062501 0.000000 0.000000 2.949432
    37 0.062500 -0.921875 0.000000 0.000000 0.000000 -1.254717
    38 -1.125004 -6.468750 0.000000 0.000000 0.000000 0.000000
    39 -1.125000 -6.468752 0.000000 0.000000 0.000000 0.000000
    40 -1.359375 -6.125002 0.000000 0.000000 0.000000 0.000000
    41 10.453131 -11.515625 0.062500 0.000000 0.000000 2.809806
    42 8.265629 10.390621 0.000000 0.000000 0.000000 0.626399
    43 8.703126 -14.375008 0.062500 0.000000 0.000000 2.914526
    44 0.000000 -0.000004 0.000000 0.000000 0.000000 0.000000
    45 5.687500 4.937504 0.000000 0.000000 0.000000 0.000000
    46 5.374996 -1.375000 0.000000 0.000000 -0.198793 -1.492082
    47 7.531252 -0.000004 0.000000 0.000000 -0.120253 0.120253
    48 9.437498 0.000000 0.000000 0.000000 -0.181340 0.146433
  time 20
    0 -0.003840 -7.418195 51.636870 0.000000 -0.057419 -1.691080
    1 1.058619 -1.589844 0.000004 0.000000 -1.570622 -1.570622
    2 0.000004 0.000000 9.031251 3.124324 0.038572 3.219948
    3 21.093748 0.000001 0.000000 0.000000 0.000000 -0.879473
    4 13.093752 -0.000002 0.000000 0.000000 0.000000 1.417038
    5 9.734375 0.000000 0.000000 -0.134222 0.006811 -0.759034
    6 11.265626 12.984377 -4.140625 0.064393 0.261631 1.813211
    7 11.265625 12.890627 -0.203125 0.006795 0.032987 1.804486
    8 11.265626 13.109377 3.593750 -0.036469 -0.151672 1.807982
    9 0.000000 0.000000 -9.031251 3.127811 -0.057762 -2.804896
    10 21.093750 -0.000002 0.000000 0.000000 0.000000 -1.280896
    11 13.093750 0.000002 0.000000 0.000000 0.000000 1.047010
    12 9.734373 0.000000 -0.000001 0.313983 0.095822 -0.039958
    13 11.265622 12.999998 4.562498 0.066140 -0.207511 1.258218
    14 11.265622 12.843750 0.249998 0.012043 -0.059160 1.361207
    15 11.265622 13.140625 -3.375000 -0.027748 0.135953 1.359457
    16 -2.140625 0.613281 0.000000 0.000000 -0.032987 1.321046
    17 10.500002 -0.000008 0.000000 0.000000 -0.085347 -0.163885
    18 14.734376 -0.000004 0.000000 0.000000 -0.032987 0.029497
    19 14.011723 -0.000004 0.000000 0.000000 0.000000 0.224973
    20 3.468750 0.000000 0.000000 0.104544 0.012052 0.263384
    21 -2.534986 10.980567 4.421876 -0.000001 -1.553169 -3.368641
    22 4.531252 0.000004 -0.000002 -1.546186 -0.483282 -0.984206
    23 15.218755 0.000002 0.000000 0.000000 0.000000 -1.036559
    24 13.187500 -0.000003 0.000000 -0.642107 -0.280813 -0.540903
    25 11.531253 -0.000004 -4.359379 -0.013793 0.111519 -0.129000
    26 11.468754 -0.000004 -0.593752 0.010299 -0.102799 -0.129000
    27 11.468754 -0.000002 3.750001 0.026006 -0.233699 -0.132485
    28 -2.534984 10.980567 -4.843751 -0.000001 1.553169 -3.372150
    29 4.531251 0.000000 -0.000002 1.764683 -0.417284 -1.749009
    30 15.218751 0.000000 0.000000 0.000000 0.000000 -0.001603
    31 13.187508 0.000000 0.000000 -0.268603 0.046939 0.071381
    32 11.531254 0.000000 4.359376 -0.053924 -0.118517 0.430922
    33 11.531254 0.000000 0.578125 0.055665 0.116768 0.430922
    34 3.890625 0.000000 -0.000001 0.000000 0.000000 0.364599
    35 11.593754 0.000000 -3.765627 0.106281 0.219739 0.439648
    36 -9.953127 3.421875 0.062501 0.000000 0.000000 2.949432
    37 0.062500 -0.921875 0.000000 0.000000 0.000000 -1.254717
    38 -1.125004 -6.468750 0.000000 0.000000 0.000000 0.000000
    39 -1.125000 -6.468752 0.000000 0.000000 0.000000 0.000000
    40 -1.359375 -6.125002 0.000000 0.000000 0.000000 0.000000
    41 10.453131 -11.515625 0.062500 0.000000 0.000000 2.809806
    42 8.265629 10.390621 0.000000 0.000000 0.000000 0.626399
    43 8.703126 -14.375008 0.062500 0.000000 0.000000 2.914526
    44 0.000000 -0.000004 0.000000 0.000000 0.000000 0.000000
    45 5.687500 4.937504 0.000000 0.000000 0.000000 0.000000
    46 5.374996 -1.375000 0.000000 0.000000 -0.198793 -1.492082
    47 7.531252 -0.000004 0.000000 0.000000 -0.120253 0.120253
    48 9.437498 0.000000 0.000000 0.000000 -0.181340 0.146433
  time 21
    0 -0.003840 -8.965117 51.105604 0.000000 -0.005058 -1.691080
    1 0.839862 -1.589844 0.000004 0.000000 -1.570622 -1.570622
    2 0.000004 0.000000 9.031251 3.131287 0.050784 3.350832
    3 21.093748 0.000001 0.000000 0.000000 0.000000 -0.708429
    4 13.093752 -0.000002 0.000000 0.000000 0.000000 1.401342
    5 9.734375 0.000000 0.000000 -0.134222 0.027760 -0.671761
    6 11.265626 12.984377 -4.140625 0.027744 0.268606 1.678822
    7 11.265625 12.890627 -0.203125 0.003308 0.032987 1.673583
    8 11.265626 13.109377 3.593750 -0.015532 -0.155160 1.675336
    9 0.000000 0.000000 -9.031251 3.160612 -0.082198 -3.122557
    10 21.093750 -0.000002 0.000000 0.000000 0.000000 -1.725921
    11 13.093750 0.000002 0.000000 0.000000 0.000000 1.216300
    12 9.734373 0.000000 -0.000001 0.319220 -0.001565 0.130719
    13 11.265622 12.999998 4.562498 0.027741 -0.214498 1.439739
    14 11.265622 12.843750 0.249998 0.001568 -0.059160 1.539222
    15 11.265622 13.140625 -3.375000 -0.003311 0.137703 1.539229
    16 -2.140625 0.613281 0.000000 0.000000 -0.032987 1.336758
    17 10.500002 -0.000008 0.000000 0.000000 -0.085347 -0.115012
    18 14.734376 -0.000004 0.000000 0.000000 -0.032987 -0.012041
    19 14.011723 -0.000004 0.000000 0.000000 0.000000 0.106276
    20 3.468750 0.000000 0.000000 0.097559 0.017290 0.329696
    21 -3.831901 10.605556 4.421876 -0.000001 -1.553169 -3.249971
    22 4.531252 0.000004 -0.000002 -1.340213 -0.006789 -1.048774
    23 15.218755 0.000002 0.000000 0.000000 0.000000 -1.289667
    24 13.187500 -0.000003 0.000000 -0.387276 -0.024271 0.038194
    25 11.531253 -0.000004 -4.359379 0.046945 0.101044 0.446606
    26 11.468754 -0.000004 -0.593752 -0.046940 -0.092324 0.446606
    27 11.468754 -0.000002 3.750001 -0.104542 -0.209263 0.455326
    28 -3.831899 10.605556 -4.843751 -0.000001 1.553169 -3.253462
    29 4.531251 0.000000 -0.000002 1.899076 -1.010692 -1.940970
    30 15.218751 0.000000 0.000000 0.000000 0.000000 -0.647363
    31 13.187508 0.000000 0.000000 -0.291285 -0.067885 -0.448346
    32 11.531254 0.000000 4.359376 0.001577 -0.128980 -0.010306
    33 11.531254 0.000000 0.578125 -0.000004 0.128980 -0.010306
    34 3.890625 0.000000 -0.000001 0.000000 0.000000 0.364599
    35 11.593754 0.000000 -3.765627 -0.000011 0.242426 -0.010297
    36 -9.953127 3.421875 0.062501 0.000000 0.000000 2.949432
    37 0.062500 -0.921875 0.000000 0.000000 0.000000 -1.254717
    38 -1.125004 -6.468750 0.000000 0.000000 0.000000 0.000000
    39 -1.125000 -6.468752 0.000000 0.000000 0.000000 0.000000
    40 -1.359375 -6.125002 0.000000 0.000000 0.000000 0.000000
    41 10.453131 -11.515625 0.062500 0.000000 0.000000 2.809806
    42 8.265629 10.390621 0.000000 0.000000 0.000000 0.626399
    43 8.703126 -14.375008 0.062500 0.000000 0.000000 2.914526
    44 0.000000 -0.000004 0.000000 0.000000 0.000000 0.000000
    45 5.687500 4.937504 0.000000 0.000000 0.000000 0.000000
    46 5.374996 -1.375000 0.000000 0.000000 -0.198793 -1.492082
    47 7.531252 -0.000004 0.000000 0.000000 -0.120253 0.120253
    48 9.437498 0.000000 0.000000 0.000000 -0.181340 0.146433
  time 22
    0 -0.003840 -5.308756 49.433678 0.000000 0.052192 -1.691080
    1 0.308596 -1.589844 0.000004 0.000000 -1.570622 -1.570622
    2 0.000004 0.000000 9.031251 3.127812 0.042059 3.200754
    3 21.093748 0.000001 0.000000 0.000000 0.000000 -0.841077
    4 13.093752 -0.000002 0.000000 0.000000 0.000000 1.404819
    5 9.734375 0.000000 0.000000 -0.130734 0.039961 -0.528647
    6 11.265626 12.984377 -4.140625 -0.003308 0.268606 1.551426
    7 11.265625 12.890627 -0.203125 0.000000 0.032987 1.551427
    8 11.265626 13.109377 3.593750 0.001570 -0.155160 1.551437
    9 0.000000 0.000000 -9.031251 3.199011 -0.092673 -3.420642
    10 21.093750 -0.000002 0.000000 0.000000 0.000000 -2.080226
    11 13.093750 0.000002 0.000000 0.000000 0.000000 1.312302
    12 9.734373 0.000000 -0.000001 0.306996 -0.094062 0.301763
    13 11.265622 12.999998 4.562498 -0.010298 -0.216235 1.621261
    14 11.265622 12.843750 0.249998 -0.008559 -0.059160 1.717237
    15 11.265622 13.140625 -3.375000 0.019028 0.137703 1.717234
    16 -2.140625 0.609375 0.000000 0.000000 -0.032987 1.357695
    17 10.500002 -0.000008 0.000000 0.000000 -0.085347 0.022524
    18 14.734376 -0.000004 0.000000 0.000000 -0.032987 0.128981
    19 14.011723 -0.000004 0.000000 0.000000 0.000000 -0.006819
    20 3.468750 0.000000 0.000000 0.074867 0.022515 0.193562
    21 -5.035062 10.089915 4.421876 -0.000001 -1.553169 -3.130943
    22 4.531252 0.000004 -0.000002 -1.387348 0.172654 -1.024347
    23 15.218755 0.000002 0.000000 0.000000 0.000000 -1.277429
    24 13.187500 -0.000003 0.000000 -0.364596 0.076615 0.188309
    25 11.531253 -0.000004 -4.359379 0.066144 0.090594 0.638615
    26 11.468754 -0.000004 -0.593752 -0.062651 -0.081862 0.638615
    27 11.468754 -0.000002 3.750001 -0.142941 -0.184838 0.650824
    28 -5.035061 10.089915 -4.843751 -0.000001 1.553169 -3.134434
    29 4.531251 0.000000 -0.000002 1.899076 -1.138106 -1.984597
    30 15.218751 0.000000 0.000000 0.000000 0.000000 -1.207574
    31 13.187508 0.000000 0.000000 -0.214512 -0.135958 -0.912607
    32 11.531254 0.000000 4.359376 0.046939 -0.120255 -0.380299
    33 11.531254 0.000000 0.578125 -0.045197 0.122005 -0.378558
    34 3.890625 0.000000 -0.000001 0.000000 0.000000 0.364599
    35 11.593754 0.000000 -3.765627 -0.087091 0.226726 -0.387285
    36 -9.953127 3.421875 0.062501 0.000000 0.000000 2.949432
    37 0.062500 -0.921875 0.000000 0.000000 0.000000 -1.254717
    38 -1.125004 -6.468750 0.000000 0.000000 0.000000 0.000000
    39 -1.125000 -6.468752 0.000000 0.000000 0.000000 0.000000
    40 -1.359375 -6.125002 0.000000 0.000000 0.000000 0.000000
    41 10.453131 -11.515625 0.062500 0.000000 0.000000 2.809806
    42 8.265629 10.390621 0.000000 0.000000 0.000000 0.626399
    43 8.703126 -14.375008 0.062500 0.000000 0.000000 2.914526
    44 0.000000 -0.000004 0.000000 0.000000 0.000000 0.000000
    45 5.687500 4.937504 0.000000 0.000000 0.000000 0.000000
    46 5.374996 -1.375000 0.000000 0.000000 -0.198793 -1.492082
    47 7.531252 -0.000004 0.000000 0.000000 -0.120253 0.120253
    48 9.437498 0.000000 0.000000 0.000000 -0.181340 0.146433
  time 23
    0 -0.003840 -6.371288 48.418022 0.000000 0.115028 -1.691080
    1 0.246094 -1.578125 0.000004 0.000000 -1.570622 -1.570622
    2 0.000004 0.000000 9.031251 3.127812 0.047297 3.178056
    3 21.093748 0.000001 0.000000 0.000000 0.000000 -0.945810
    4 13.093752 -0.000002 0.000000 0.000000 0.000000 1.511287
    5 9.734375 0.000000 0.000000 -0.130734 0.043448 -0.523404
    6 11.265626 12.984377 -4.140625 0.000000 0.268606 1.570622
    7 11.265625 12.890627 -0.203125 0.000000 0.032987 1.570622
    8 11.265626 13.109377 3.593750 0.000000 -0.155160 1.570622
    9 0.000000 0.000000 -9.031251 3.190286 -0.078711 -3.455551
    10 21.093750 -0.000002 0.000000 0.000000 0.000000 -1.725921
    11 13.093750 0.000002 0.000000 0.000000 0.000000 0.942283
    12 9.734373 0.000000 -0.000001 0.306996 -0.095812 0.336662
    13 11.265622 12.999998 4.562498 -0.022522 -0.216235 1.677098
    14 11.265622 12.843750 0.249998 -0.010309 -0.059160 1.771339
    15 11.265622 13.140625 -3.375000 0.027753 0.135953 1.773085
    16 -2.140625 0.609375 0.000000 0.000000 -0.032987 1.373407
    17 10.500002 -0.000008 0.000000 0.000000 -0.085347 0.104546
    18 14.734376 -0.000004 0.000000 0.000000 -0.032987 0.298276
    19 14.015629 -0.000004 0.000000 0.000000 0.000000 0.224955
    20 3.468750 0.000000 0.000000 0.062647 0.005065 0.003318
    21 -2.534986 10.980567 4.421876 -0.000001 -1.553169 -3.368659
    22 4.531252 0.000004 -0.000002 -1.406533 0.296573 -1.218051
    23 15.218755 0.000002 0.000000 0.000000 0.000000 -0.673550
    24 13.187500 -0.000003 0.000000 -0.305247 -0.102806 -1.209315
    25 11.531253 -0.000004 -4.359379 -0.027755 0.108031 -0.247664
    26 11.468754 -0.000004 -0.593752 0.022523 -0.101049 -0.247664
    27 11.468754 -0.000002 3.750001 0.053942 -0.228462 -0.252932
    28 -2.534984 10.980567 -4.843751 -0.000001 1.553169 -3.372150
    29 4.531251 0.000000 -0.000002 1.729786 -0.830902 -1.841489
    30 15.218751 0.000000 0.000000 0.000000 0.000000 -1.315795
    31 13.187508 0.000000 0.000000 -0.195313 -0.128971 -1.022568
    32 11.531254 0.000000 4.359376 0.041701 -0.122005 -0.331430
    33 11.531254 0.000000 0.578125 -0.039960 0.123755 -0.331430
    34 3.890625 0.000000 -0.000001 0.000000 0.000000 0.364599
    35 11.593754 0.000000 -3.765627 -0.076616 0.230214 -0.338419
    36 -9.953127 3.421875 0.062501 0.000000 0.000000 2.949432
    37 0.062500 -0.921875 0.000000 0.000000 0.000000 -1.254717
    38 -1.125004 -6.468750 0.000000 0.000000 0.000000 0.000000
    39 -1.125000 -6.468752 0.000000 0.000000 0.000000 0.000000
    40 -1.359375 -6.125002 0.000000 0.000000 0.000000 0.000000
    41 10.453131 -11.515625 0.062500 0.000000 0.000000 2.809806
    42 8.265629 10.390621 0.000000 0.000000 0.000000 0.626399
    43 8.703126 -14.375008 0.062500 0.000000 0.000000 2.914526
    44 0.000000 -0.000004 0.000000 0.000000 0.000000 0.000000
    45 5.687500 4.937504 0.000000 0.000000 0.000000 0.000000
    46 5.374996 -1.375000 0.000000 0.000000 -0.198793 -1.492082
    47 7.531252 -0.000004 0.000000 0.000000 -0.120253 0.120253
    48 9.437498 0.000000 0.000000 0.000000 -0.181340 0.146433
  time 24
    0 -0.003840 -6.871303 44.019450 0.000000 0.167376 -1.691080
    1 0.191405 -1.578125 0.000004 0.000000 -1.570622 -1.570622
    2 0.000004 0.000000 9.031251 3.112100 0.049034 2.838080
    3 21.093748 0.000001 0.000000 0.000000 0.000000 -1.507765
    4 13.093752 -0.000002 0.000000 0.000000 0.000000 1.755614
    5 9.734375 0.000000 0.000000 -0.122010 0.050435 -0.354152
    6 11.265626 12.984377 -4.140625 0.000000 0.268606 1.570622
    7 11.265625 12.890627 -0.203125 0.000000 0.032987 1.570622
    8 11.265626 13.109377 3.593750 0.000000 -0.155160 1.570622
    9 0.000000 0.000000 -9.031251 3.211223 -0.064749 -3.680723
    10 21.093750 -0.000002 0.000000 0.000000 0.000000 -1.858558
    11 13.093750 0.000002 0.000000 0.000000 0.000000 0.849801
    12 9.734373 0.000000 -0.000001 0.298271 -0.052176 0.355870
    13 11.265622 12.999998 4.562498 -0.022522 -0.216235 1.677098
    14 11.265622 12.843750 0.249998 -0.010309 -0.059160 1.771339
    15 11.265622 13.140625 -3.375000 0.027753 0.135953 1.773085
    16 -2.140625 0.609375 0.000000 0.000000 -0.032987 1.401331
    17 10.500002 -0.000008 0.000000 0.000000 -0.085347 0.095821
    18 14.734376 -0.000004 0.000000 0.000000 -0.032987 0.233691
    19 14.015629 -0.000004 0.000000 0.000000 0.000000 0.135950
    20 3.468750 0.000000 0.000000 0.060910 0.010303 0.067897
    21 -3.519391 10.714934 4.421876 -0.000001 -1.553169 -3.279643
    22 4.531252 0.000004 -0.000002 -1.334986 0.668329 -1.216309
    23 15.218755 0.000002 0.000000 0.000000 0.000000 -0.680509
    24 13.187500 -0.000003 0.000000 -0.226715 -0.186578 -1.420512
    25 11.531253 -0.000004 -4.359379 -0.045205 0.102794 -0.420468
    26 11.468754 -0.000004 -0.593752 0.039973 -0.095812 -0.420468
    27 11.468754 -0.000002 3.750001 0.092329 -0.214500 -0.429202
    28 -3.519389 10.714934 -4.843751 -0.000001 1.553169 -3.281379
    29 4.531251 0.000000 -0.000002 1.710576 -0.635449 -1.832764
    30 15.218751 0.000000 0.000000 0.000000 0.000000 -1.298326
    31 13.187508 0.000000 0.000000 -0.193560 -0.095809 -1.006873
    32 11.531254 0.000000 4.359376 0.019015 -0.128980 -0.148175
    33 11.531254 0.000000 0.578125 -0.015524 0.128980 -0.148175
    34 3.890625 0.000000 -0.000001 0.000000 0.000000 0.364599
    35 11.593754 0.000000 -3.765627 -0.031230 0.240688 -0.149917
    36 -9.953127 3.421875 0.062501 0.000000 0.000000 2.949432
    37 0.062500 -0.921875 0.000000 0.000000 0.000000 -1.254717
    38 -1.125004 -6.468750 0.000000 0.000000 0.000000 0.000000
    39 -1.125000 -6.468752 0.000000 0.000000 0.000000 0.000000
    40 -1.359375 -6.125002 0.000000 0.000000 0.000000 0.000000
    41 10.453131 -11.515625 0.062500 0.000000 0.000000 2.809806
    42 8.265629 10.390621 0.000000 0.000000 0.000000 0.626399
    43 8.703126 -14.375008 0.062500 0.000000 0.000000 2.914526
    44 0.000000 -0.000004 0.000000 0.000000 0.000000 0.000000
    45 5.687500 4.937504 0.000000 0.000000 0.000000 0.000000
    46 5.374996 -1.375000 0.000000 0.000000 -0.198793 -1.492082
    47 7.531252 -0.000004 0.000000 0.000000 -0.120253 0.120253
    48 9.437498 0.000000 0.000000 0.000000 -0.181340 0.146433
  time 25
    0 -0.003840 -6.011902 44.238207 0.000000 0.156902 -1.691080
    1 0.128903 -1.589844 0.000004 0.000000 -1.570622 -1.570622
    2 0.000004 0.000000 9.031251 3.112100 0.045547 2.792715
    3 21.093748 0.000001 0.000000 0.000000 0.000000 -1.514771
    4 13.093752 -0.000002 0.000000 0.000000 0.000000 1.736416
    5 9.734375 0.000000 0.000000 -0.123747 0.046948 -0.362856
    6 11.265626 12.984377 -4.140625 0.000000 0.268606 1.570622
    7 11.265625 12.890627 -0.203125 0.000000 0.032987 1.570622
    8 11.265626 13.109377 3.593750 0.000000 -0.155160 1.570622
    9 0.000000 0.000000 -9.031251 3.181550 -0.066487 -3.349085
    10 21.093750 -0.000002 0.000000 0.000000 0.000000 -1.586312
    11 13.093750 0.000002 0.000000 0.000000 0.000000 0.909129
    12 9.734373 0.000000 -0.000001 0.310484 -0.026001 0.162135
    13 11.265622 12.999998 4.562498 -0.022522 -0.216235 1.677098
    14 11.265622 12.843750 0.249998 -0.010309 -0.059160 1.771339
    15 11.265622 13.140625 -3.375000 0.027753 0.135953 1.773085
    16 -2.140625 0.613281 0.000000 0.000000 -0.032987 1.425767
    17 10.500002 -0.000008 0.000000 0.000000 -0.085347 0.080122
    18 14.734376 -0.000004 0.000000 0.000000 -0.032987 0.155156
    19 14.015629 -0.000004 0.000000 0.000000 0.000000 0.019008
    20 3.468750 0.000000 0.000000 0.059161 0.017290 0.151684
    21 -4.738178 10.230544 4.421876 -0.000001 -1.553169 -3.162710
    22 4.531252 0.000004 -0.000002 -1.287851 0.691012 -1.204079
    23 15.218755 0.000002 0.000000 0.000000 0.000000 -0.593260
    24 13.187500 -0.000003 0.000000 -0.217985 -0.205777 -1.457154
    25 11.531253 -0.000004 -4.359379 -0.057429 0.095819 -0.537414
    26 11.468754 -0.000004 -0.593752 0.050447 -0.090575 -0.535658
    27 11.468754 -0.000002 3.750001 0.118515 -0.202276 -0.546120
    28 -4.738176 10.230544 -4.843751 -0.000001 1.553169 -3.164446
    29 4.531251 0.000000 -0.000002 1.703607 -0.576123 -1.865915
    30 15.218751 0.000000 0.000000 0.000000 0.000000 -1.553142
    31 13.187508 0.000000 0.000000 -0.191819 -0.066147 -0.996399
    32 11.531254 0.000000 4.359376 0.015527 -0.128980 -0.125474
    33 11.531254 0.000000 0.578125 -0.012036 0.128980 -0.125474
    34 3.890625 0.000000 -0.000001 0.000000 0.000000 0.364599
    35 11.593754 0.000000 -3.765627 -0.025993 0.242426 -0.127225
    36 -9.953127 3.421875 0.062501 0.000000 0.000000 2.949432
    37 0.062500 -0.921875 0.000000 0.000000 0.000000 -1.254717
    38 -1.125004 -6.468750 0.000000 0.000000 0.000000 0.000000
    39 -1.125000 -6.468752 0.000000 0.000000 0.000000 0.000000
    40 -1.359375 -6.125002 0.000000 0.000000 0.000000 0.000000
    41 10.453131 -11.515625 0.062500 0.000000 0.000000 2.809806
    42 8.265629 10.390621 0.000000 0.000000 0.000000 0.626399
    43 8.703126 -14.375008 0.062500 0.000000 0.000000 2.914526
    44 0.000000 -0.000004 0.000000 0.000000 0.000000 0.000000
    45 5.687500 4.937504 0.000000 0.000000 0.000000 0.000000
    46 5.374996 -1.375000 0.000000 0.000000 -0.198793 -1.492082
    47 7.531252 -0.000004 0.000000 0.000000 -0.120253 0.120253
    48 9.437498 0.000000 0.000000 0.000000 -0.181340 0.146433
  time 26
    0 -0.003840 -4.996246 44.800724 0.000000 0.106303 -1.691080
    1 0.082027 -1.589844 0.000004 0.000000 -1.570622 -1.570622
    2 0.000004 0.000000 9.031251 3.117337 0.042059 2.864250
    3 21.093748 0.000001 0.000000 0.000000 0.000000 -1.441455
    4 13.093752 -0.000002 0.000000 0.000000 0.000000 1.752112
    5 9.734375 0.000000 0.000000 -0.127247 0.043448 -0.455372
    6 11.265626 12.984377 -4.140625 0.000000 0.268606 1.570622
    7 11.265625 12.890627 -0.203125 0.000000 0.032987 1.570622
    8 11.265626 13.109377 3.593750 0.000000 -0.155160 1.570622
    9 0.000000 0.000000 -9.031251 3.162350 -0.059511 -3.112091
    10 21.093750 -0.000002 0.000000 0.000000 0.000000 -1.478098
    11 13.093750 0.000002 0.000000 0.000000 0.000000 1.040030
    12 9.734373 0.000000 -0.000001 0.312233 -0.005052 0.076613
    13 11.265622 12.999998 4.562498 -0.022522 -0.216235 1.677098
    14 11.265622 12.843750 0.249998 -0.010309 -0.059160 1.771339
    15 11.265622 13.140625 -3.375000 0.027753 0.135953 1.773085
    16 -2.140625 0.613281 0.000000 0.000000 -0.032987 1.446705
    17 10.500002 -0.000008 0.000000 0.000000 -0.085347 0.081859
    18 14.734376 -0.000004 0.000000 0.000000 -0.032987 0.108044
    19 14.011723 -0.000004 0.000000 0.000000 0.000000 -0.074889
    20 3.468750 0.000000 0.000000 0.057411 0.020777 0.216248
    21 -5.706958 9.714904 4.421876 -0.000001 -1.553169 -3.064615
    22 4.531252 0.000004 -0.000002 -1.314048 0.458856 -1.287879
    23 15.218755 0.000002 0.000000 0.000000 0.000000 -0.001619
    24 13.187500 -0.000003 0.000000 -0.211017 -0.207527 -1.736428
    25 11.531253 -0.000004 -4.359379 -0.059167 0.095819 -0.547876
    26 11.468754 -0.000004 -0.593752 0.052185 -0.088837 -0.546119
    27 11.468754 -0.000002 3.750001 0.120253 -0.202276 -0.556587
    28 -5.706956 9.714904 -4.843751 -0.000001 1.553169 -3.066369
    29 4.531251 0.000000 -0.000002 1.679176 -0.035042 -1.778686
    30 15.218751 0.000000 0.000000 0.000000 0.000000 -0.926617
    31 13.187508 0.000000 0.000000 -0.200548 -0.015536 -0.776477
    32 11.531254 0.000000 4.359376 0.001577 -0.128980 -0.019028
    33 11.531254 0.000000 0.578125 -0.000004 0.130718 -0.019028
    34 3.890625 0.000000 -0.000001 0.000000 0.000000 0.364599
    35 11.593754 0.000000 -3.765627 -0.000011 0.242426 -0.019032
    36 -9.953127 3.421875 0.062501 0.000000 0.000000 2.949432
    37 0.062500 -0.921875 0.000000 0.000000 0.000000 -1.254717
    38 -1.125004 -6.468750 0.000000 0.000000 0.000000 0.000000
    39 -1.125000 -6.468752 0.000000 0.000000 0.000000 0.000000
    40 -1.359375 -6.125002 0.000000 0.000000 0.000000 0.000000
    41 10.453131 -11.515625 0.062500 0.000000 0.000000 2.809806
    42 8.265629 10.390621 0.000000 0.000000 0.000000 0.626399
    43 8.703126 -14.375008 0.062500 0.000000 0.000000 2.914526
    44 0.000000 -0.000004 0.000000 0.000000 0.000000 0.000000
    45 5.687500 4.937504 0.000000 0.000000 0.000000 0.000000
    46 5.374996 -1.375000 0.000000 0.000000 -0.198793 -1.492082
    47 7.531252 -0.000004 0.000000 0.000000 -0.120253 0.120253
    48 9.437498 0.000000 0.000000 0.000000 -0.181340 0.146433
  time 27
    0 -0.003840 -3.980590 45.378867 0.000000 0.106303 -1.691080
    1 0.082027 -1.589844 0.000004 0.000000 -1.570622 -1.570622
    2 0.000004 0.000000 9.031251 3.117337 0.038572 2.836343
    3 21.093748 0.000001 0.000000 0.000000 0.000000 -1.408300
    4 13.093752 -0.000002 0.000000 0.000000 0.000000 1.710240
    5 9.734375 0.000000 0.000000 -0.128985 0.039961 -0.474563
    6 11.265626 12.984377 -4.140625 0.000000 0.268606 1.570622
    7 11.265625 12.890627 -0.203125 0.000000 0.032987 1.570622
    8 11.265626 13.109377 3.593750 0.000000 -0.155160 1.570622
    9 0.000000 0.000000 -9.031251 3.155375 -0.043800 -3.061465
    10 21.093750 -0.000002 0.000000 0.000000 0.000000 -1.312291
    11 13.093750 0.000002 0.000000 0.000000 0.000000 0.921344
    12 9.734373 0.000000 -0.000001 0.308746 0.015537 0.132461
    13 11.265622 12.999998 4.562498 -0.050447 -0.210998 1.811480
    14 11.265622 12.843750 0.249998 -0.019033 -0.057410 1.902254
    15 11.265622 13.140625 -3.375000 0.045214 0.130716 1.904001
    16 -2.140625 0.625000 0.000000 0.000000 -0.032987 1.465904
    17 10.500002 -0.000008 0.000000 0.000000 -0.085347 0.106296
    18 14.734376 -0.000004 0.000000 0.000000 -0.032987 0.101057
    19 14.000004 -0.000004 0.000000 0.000000 0.000000 -0.160402
    20 3.468750 0.000000 0.000000 0.052176 0.022515 0.263384
    21 -6.503857 9.199263 4.421876 -0.000001 -1.553169 -2.979091
    22 4.531252 0.000004 -0.000002 -1.273892 0.643871 -1.212824
    23 15.218755 0.000002 0.000000 0.000000 0.000000 -0.570560
    24 13.187500 -0.000003 0.000000 -0.221469 -0.217990 -1.396073
    25 11.531253 -0.000004 -4.359379 -0.059167 0.095819 -0.549632
    26 11.468754 -0.000004 -0.593752 0.052185 -0.088837 -0.547876
    27 11.468754 -0.000002 3.750001 0.120253 -0.200538 -0.558332
    28 -6.503855 9.199263 -4.843751 -0.000001 1.553169 -2.980845
    29 4.531251 0.000000 -0.000002 1.670433 0.117140 -1.771685
    30 15.218751 0.000000 0.000000 0.000000 0.000000 -0.912648
    31 13.187508 0.000000 0.000000 -0.209277 -0.013799 -0.659544
    32 11.531254 0.000000 4.359376 0.003327 -0.128980 -0.026010
    33 11.531254 0.000000 0.578125 -0.000004 0.128980 -0.026010
    34 3.890625 0.000000 -0.000001 0.000000 0.000000 0.364599
    35 11.593754 0.000000 -3.765627 -0.001580 0.242426 -0.026011
    36 -9.953127 3.421875 0.062501 0.000000 0.000000 2.949432
    37 0.062500 -0.921875 0.000000 0.000000 0.000000 -1.254717
    38 -1.125004 -6.468750 0.000000 0.000000 0.000000 0.000000
    39 -1.125000 -6.468752 0.000000 0.000000 0.000000 0.000000
    40 -1.359375 -6.125002 0.000000 0.000000 0.000000 0.000000
    41 10.453131 -11.515625 0.062500 0.000000 0.000000 2.809806
    42 8.265629 10.390621 0.000000 0.000000 0.000000 0.626399
    43 8.703126 -14.375008 0.062500 0.000000 0.000000 2.914526
    44 0.000000 -0.000004 0.000000 0.000000 0.000000 0.000000
    45 5.687500 4.937504 0.000000 0.000000 0.000000 0.000000
    46 5.374996 -1.375000 0.000000 0.000000 -0.198793 -1.492082
    47 7.531252 -0.000004 0.000000 0.000000 -0.120253 0.120253
    48 9.437498 0.000000 0.000000 0.000000 -0.181340 0.146433
  time 28
    0 -0.003840 -3.089938 45.878882 0.000000 0.111528 -1.691080
    1 0.097652 -1.589844 0.000004 0.000000 -1.570622 -1.570622
    2 0.000004 0.000000 9.031251 3.117337 0.035084 2.806669
    3 21.093748 0.000001 0.000000 0.000000 0.000000 -1.378620
    4 13.093752 -0.000002 0.000000 0.000000 0.000000 1.666605
    5 9.734375 0.000000 0.000000 -0.128985 0.036485 -0.485049
    6 11.265626 12.984377 -4.140625 0.000000 0.268606 1.570622
    7 11.265625 12.890627 -0.203125 0.000000 0.032987 1.570622
    8 11.265626 13.109377 3.593750 0.000000 -0.155160 1.570622
    9 0.000000 0.000000 -9.031251 3.144901 -0.029838 -2.937544
    10 21.093750 -0.000002 0.000000 0.000000 0.000000 -1.097638
    11 13.093750 0.000002 0.000000 0.000000 0.000000 0.832322
    12 9.734373 0.000000 -0.000001 0.312233 0.034737 0.125478
    13 11.265622 12.999998 4.562498 -0.057422 -0.209260 1.846390
    14 11.265622 12.843750 0.249998 -0.020771 -0.055672 1.935403
    15 11.265622 13.140625 -3.375000 0.048702 0.128978 1.938895
    16 -2.140625 0.625000 0.000000 0.000000 -0.032987 1.483365
    17 10.500002 -0.000008 0.000000 0.000000 -0.085347 0.141207
    18 14.734376 -0.000004 0.000000 0.000000 -0.032987 0.113281
    19 14.000004 -0.000004 0.000000 0.000000 0.000000 -0.240686
    20 3.468750 0.000000 0.000000 0.045203 0.022515 0.300035
    21 -7.222629 8.652371 4.421876 -0.000001 -1.553169 -2.898814
    22 4.531252 0.000004 -0.000002 -1.233769 0.851569 -1.162195
    23 15.218755 0.000002 0.000000 0.000000 0.000000 -0.998165
    24 13.187500 -0.000003 0.000000 -0.221469 -0.214490 -1.106352
    25 11.531253 -0.000004 -4.359379 -0.059167 0.095819 -0.549632
    26 11.468754 -0.000004 -0.593752 0.052185 -0.088837 -0.549632
    27 11.468754 -0.000002 3.750001 0.120253 -0.200538 -0.560076
    28 -7.222627 8.652371 -4.843751 -0.000001 1.553169 -2.900549
    29 4.531251 0.000000 -0.000002 1.656469 0.235841 -1.773435
    30 15.218751 0.000000 0.000000 0.000000 0.000000 -0.958024
    31 13.187508 0.000000 0.000000 -0.217994 -0.015536 -0.563559
    32 11.531254 0.000000 4.359376 0.005064 -0.128980 -0.043471
    33 11.531254 0.000000 0.578125 -0.001574 0.128980 -0.043471
    34 3.890625 0.000000 -0.000001 0.000000 0.000000 0.364599
    35 11.593754 0.000000 -3.765627 -0.006818 0.242426 -0.043465
    36 -9.953127 3.421875 0.062501 0.000000 0.000000 2.949432
    37 0.062500 -0.921875 0.000000 0.000000 0.000000 -1.254717
    38 -1.125004 -6.468750 0.000000 0.000000 0.000000 0.000000
    39 -1.125000 -6.468752 0.000000 0.000000 0.000000 0.000000
    40 -1.359375 -6.125002 0.000000 0.000000 0.000000 0.000000
    41 10.453131 -11.515625 0.062500 0.000000 0.000000 2.809806
    42 8.265629 10.390621 0.000000 0.000000 0.000000 0.626399
    43 8.703126 -14.375008 0.062500 0.000000 0.000000 2.914526
    44 0.000000 -0.000004 0.000000 0.000000 0.000000 0.000000
    45 5.687500 4.937504 0.000000 0.000000 0.000000 0.000000
    46 5.374996 -1.375000 0.000000 0.000000 -0.198793 -1.492082
    47 7.531252 -0.000004 0.000000 0.000000 -0.120253 0.120253
    48 9.437498 0.000000 0.000000 0.000000 -0.181340 0.146433
  time 29
    0 -0.003840 -2.449293 46.300770 0.000000 0.116765 -1.691080
    1 0.160154 -1.589844 0.000004 0.000000 -1.570622 -1.570622
    2 0.000004 0.000000 9.031251 3.117337 0.031597 2.785738
    3 21.093748 0.000001 0.000000 0.000000 0.000000 -1.348941
    4 13.093752 -0.000002 0.000000 0.000000 0.000000 1.629948
    5 9.734375 0.000000 0.000000 -0.128985 0.034735 -0.490266
    6 11.265626 12.984377 -4.140625 0.000000 0.268606 1.570622
    7 11.265625 12.890627 -0.203125 0.000000 0.032987 1.570622
    8 11.265626 13.109377 3.593750 0.000000 -0.155160 1.570622
    9 0.000000 0.000000 -9.031251 3.140011 -0.017625 -2.824089
    10 21.093750 -0.000002 0.000000 0.000000 0.000000 -0.916112
    11 13.093750 0.000002 0.000000 0.000000 0.000000 0.762524
    12 9.734373 0.000000 -0.000001 0.315721 0.048699 0.113269
    13 11.265622 12.999998 4.562498 -0.066158 -0.205773 1.888275
    14 11.265622 12.843750 0.249998 -0.022521 -0.055672 1.979041
    15 11.265622 13.140625 -3.375000 0.053939 0.127228 1.980783
    16 -2.140625 0.625000 0.000000 0.000000 -0.032987 1.499065
    17 10.500002 -0.000008 0.000000 0.000000 -0.085347 0.176106
    18 14.734376 -0.000004 0.000000 0.000000 -0.032987 0.128981
    19 14.000004 -0.000004 0.000000 0.000000 0.000000 -0.308756
    20 3.468750 0.000000 0.000000 0.038218 0.022515 0.331443
    21 -7.800772 8.136731 4.421876 -0.000001 -1.553169 -2.830749
    22 4.531252 0.000004 -0.000002 -1.186634 1.017353 -1.109825
    23 15.218755 0.000002 0.000000 0.000000 0.000000 -1.338522
    24 13.187500 -0.000003 0.000000 -0.217985 -0.211003 -0.872474
    25 11.531253 -0.000004 -4.359379 -0.059167 0.095819 -0.551350
    26 11.468754 -0.000004 -0.593752 0.052185 -0.088837 -0.549632
    27 11.468754 -0.000002 3.750001 0.120253 -0.200538 -0.560076
    28 -7.800770 8.136731 -4.843751 -0.000001 1.553169 -2.834221
    29 4.531251 0.000000 -0.000002 1.640782 0.335305 -1.776936
    30 15.218751 0.000000 0.000000 0.000000 0.000000 -1.003400
    31 13.187508 0.000000 0.000000 -0.224982 -0.017286 -0.491992
    32 11.531254 0.000000 4.359376 0.006814 -0.128980 -0.059175
    33 11.531254 0.000000 0.578125 -0.003323 0.128980 -0.057433
    34 3.890625 0.000000 -0.000001 0.000000 0.000000 0.364599
    35 11.593754 0.000000 -3.765627 -0.010305 0.242426 -0.059179
    36 -9.953127 3.421875 0.062501 0.000000 0.000000 2.949432
    37 0.062500 -0.921875 0.000000 0.000000 0.000000 -1.254717
    38 -1.125004 -6.468750 0.000000 0.000000 0.000000 0.000000
    39 -1.125000 -6.468752 0.000000 0.000000 0.000000 0.000000
    40 -1.359375 -6.125002 0.000000 0.000000 0.000000 0.000000
    41 10.453131 -11.515625 0.062500 0.000000 0.000000 2.809806
    42 8.265629 10.390621 0.000000 0.000000 0.000000 0.626399
    43 8.703126 -14.375008 0.062500 0.000000 0.000000 2.914526
    44 0.000000 -0.000004 0.000000 0.000000 0.000000 0.000000
    45 5.687500 4.937504 0.000000 0.000000 0.000000 0.000000
    46 5.374996 -1.375000 0.000000 0.000000 -0.198793 -1.492082
    47 7.531252 -0.000004 0.000000 0.000000 -0.120253 0.120253
    48 9.437498 0.000000 0.000000 0.000000 -0.181340 0.146433
  time 30
    0 -0.003840 -2.183660 46.671875 0.000000 0.120253 -1.691080
    1 0.218750 -1.578125 0.000004 0.000000 -1.570622 -1.570622
    2 0.000004 0.000000 9.031251 3.129550 0.038572 2.838080
    3 21.093748 0.000001 0.000000 0.000000 0.000000 -1.266935
    4 13.093752 -0.000002 0.000000 0.000000 0.000000 1.607274
    5 9.734375 0.000000 0.000000 -0.141197 0.038223 -0.521854
    6 11.265626 12.984377 -4.140625 0.000000 0.268606 1.570622
    7 11.265625 12.890627 -0.203125 0.000000 0.032987 1.570622
    8 11.265626 13.109377 3.593750 0.000000 -0.155160 1.570622
    9 0.000000 0.000000 -9.031251 3.134786 -0.008901 -2.745578
    10 21.093750 -0.000002 0.000000 0.000000 0.000000 -0.788714
    11 13.093750 0.000002 0.000000 0.000000 0.000000 0.713665
    12 9.734373 0.000000 -0.000001 0.286059 0.146433 0.073129
    13 11.265622 12.999998 4.562498 -0.090583 -0.197048 2.006954
    14 11.265622 12.843750 0.249998 -0.029496 -0.052185 2.094221
    15 11.265622 13.140625 -3.375000 0.069639 0.120253 2.097711
    16 -2.140625 0.625000 0.000000 0.000000 -0.032987 1.507790
    17 10.500002 -0.000008 0.000000 0.000000 -0.085347 0.198793
    18 14.734376 -0.000004 0.000000 0.000000 -0.032987 0.137706
    19 14.000004 -0.000004 0.000000 0.000000 0.000000 -0.355873
    20 3.468750 0.000000 0.000000 0.034732 0.022515 0.352382
    21 -8.171877 7.750000 4.421876 -0.000001 -1.553169 -2.781881
    22 4.531252 0.000004 -0.000002 -1.130799 1.132544 -1.052259
    23 15.218755 0.000002 0.000000 0.000000 0.000000 -1.574113
    24 13.187500 -0.000003 0.000000 -0.214501 -0.209265 -0.708429
    25 11.531253 -0.000004 -4.359379 -0.059167 0.095819 -0.551350
    26 11.468754 -0.000004 -0.593752 0.052185 -0.088837 -0.551350
    27 11.468754 -0.000002 3.750001 0.120253 -0.200538 -0.560076
    28 -8.171875 7.750000 -4.843751 -0.000001 1.553169 -2.785371
    29 4.531251 0.000000 -0.000002 1.632038 0.427770 -1.776936
    30 15.218751 0.000000 0.000000 0.000000 0.000000 -0.978962
    31 13.187508 0.000000 0.000000 -0.228464 -0.034724 -0.511189
    32 11.531254 0.000000 4.359376 0.008552 -0.128980 -0.069639
    33 11.531254 0.000000 0.578125 -0.005061 0.128980 -0.069639
    34 3.890625 0.000000 -0.000001 0.000000 0.000000 0.364599
    35 11.593754 0.000000 -3.765627 -0.012043 0.242426 -0.069639
    36 -9.953127 3.421875 0.062501 0.000000 0.000000 2.949432
    37 0.062500 -0.921875 0.000000 0.000000 0.000000 -1.254717
    38 -1.125004 -6.468750 0.000000 0.000000 0.000000 0.000000
    39 -1.125000 -6.468752 0.000000 0.000000 0.000000 0.000000
    40 -1.359375 -6.125002 0.000000 0.000000 0.000000 0.000000
    41 10.453131 -11.515625 0.062500 0.000000 0.000000 2.809806
    42 8.265629 10.390621 0.000000 0.000000 0.000000 0.626399
    43 8.703126 -14.375008 0.062500 0.000000 0.000000 2.914526
    44 0.000000 -0.000004 0.000000 0.000000 0.000000 0.000000
    45 5.687500 4.937504 0.000000 0.000000 0.000000 0.000000
    46 5.374996 -1.375000 0.000000 0.000000 -0.198793 -1.492082
    47 7.531252 -0.000004 0.000000 0.000000 -0.120253 0.120253
    48 9.437498 0.000000 0.000000 0.000000 -0.181340 0.146433
end
