// Created by Crowbar 0.44.0.0
version 1
nodes
  0 "Diablo1" -1
  1 "unnamed002" 0
  2 "unnamed003" 1
  3 "unnamed004" 2
  4 "unnamed005" 3
  5 "unnamed006" 4
  6 "unnamed007" 5
  7 "unnamed011" 5
  8 "unnamed015" 5
  9 "unnamed019" 1
  10 "unnamed020" 9
  11 "unnamed021" 10
  12 "unnamed022" 11
  13 "unnamed023" 12
  14 "unnamed027" 12
  15 "unnamed031" 12
  16 "unnamed035" 1
  17 "unnamed036" 16
  18 "unnamed037" 17
  19 "unnamed038" 18
  20 "unnamed039" 19
  21 "unnamed041" 19
  22 "unnamed042" 21
  23 "unnamed043" 22
  24 "unnamed044" 23
  25 "unnamed045" 24
  26 "unnamed049" 24
  27 "unnamed053" 24
  28 "unnamed057" 19
  29 "unnamed058" 28
  30 "unnamed059" 29
  31 "unnamed060" 30
  32 "unnamed061" 31
  33 "unnamed065" 31
  34 "unnamed066" 33
  35 "unnamed069" 31
  36 "unnamed073" 18
  37 "unnamed074" 36
  38 "unnamed075" 37
  39 "unnamed076" 38
  40 "unnamed077" 39
  41 "unnamed080" 18
  42 "unnamed081" 41
  43 "unnamed083" 17
  44 "unnamed084" 43
  45 "unnamed085" 44
  46 "unnamed087" 1
  47 "unnamed088" 46
  48 "unnamed089" 47
end
skeleton
  time 0
    0 -0.003840 -2.183660 46.671875 0.000000 0.120253 -1.691080
    1 0.218750 -1.578125 0.000004 0.000000 -1.570622 -1.570622
    2 0.000004 0.000000 9.031251 3.129550 0.038572 2.838080
    3 21.093748 0.000001 0.000000 0.000000 0.000000 -1.266935
    4 13.093752 -0.000002 0.000000 0.000000 0.000000 1.607274
    5 9.734375 0.000000 0.000000 -0.141197 0.038223 -0.521854
    6 11.265626 12.984377 -4.140625 0.000000 0.268606 1.570622
    7 11.265625 12.890627 -0.203125 0.000000 0.032987 1.570622
    8 11.265626 13.109377 3.593750 0.000000 -0.155160 1.570622
    9 0.000000 0.000000 -9.031251 3.134786 -0.008901 -2.745578
    10 21.093750 -0.000002 0.000000 0.000000 0.000000 -0.788714
    11 13.093750 0.000002 0.000000 0.000000 0.000000 0.713665
    12 9.734373 0.000000 -0.000001 0.286059 0.146433 0.073129
    13 11.265622 12.999998 4.562498 -0.090583 -0.197048 2.006954
    14 11.265622 12.843750 0.249998 -0.029496 -0.052185 2.094221
    15 11.265622 13.140625 -3.375000 0.069639 0.120253 2.097711
    16 -2.140625 0.625000 0.000000 0.000000 -0.032987 1.507790
    17 10.500002 -0.000008 0.000000 0.000000 -0.085347 0.198793
    18 14.734376 -0.000004 0.000000 0.000000 -0.032987 0.137706
    19 14.000004 -0.000004 0.000000 0.000000 0.000000 -0.355873
    20 3.468750 0.000000 0.000000 0.034732 0.022515 0.352382
    21 -8.171877 7.750000 4.421876 -0.000001 -1.553169 -2.781881
    22 4.531252 0.000004 -0.000002 -1.130799 1.132544 -1.052259
    23 15.218755 0.000002 0.000000 0.000000 0.000000 -1.574113
    24 13.187500 -0.000003 0.000000 -0.214501 -0.209265 -0.708429
    25 11.531253 -0.000004 -4.359379 -0.059167 0.095819 -0.551350
    26 11.468754 -0.000004 -0.593752 0.052185 -0.088837 -0.551350
    27 11.468754 -0.000002 3.750001 0.120253 -0.200538 -0.560076
    28 -8.171875 7.750000 -4.843751 -0.000001 1.553169 -2.785371
    29 4.531251 0.000000 -0.000002 1.628567 0.408582 -1.780411
    30 15.218751 0.000000 0.000000 0.000000 0.000000 -1.034806
    31 13.187508 0.000000 0.000000 -0.228464 -0.019024 -0.437903
    32 11.531254 0.000000 4.359376 0.008552 -0.128980 -0.069639
    33 11.531254 0.000000 0.578125 -0.005061 0.128980 -0.069639
    34 3.890625 0.000000 -0.000001 0.000000 0.000000 0.364599
    35 11.593754 0.000000 -3.765627 -0.012043 0.242426 -0.069639
    36 -6.847563 0.691323 0.003905 0.000000 0.000000 2.949432
    37 0.062500 -0.921875 0.000000 0.000000 0.000000 -1.254717
    38 -1.125004 -6.468750 0.000000 0.000000 0.000000 0.347130
    39 -1.125000 -6.468752 0.000000 0.000000 0.000000 0.207502
    40 -1.359375 -6.125002 0.000000 0.000000 0.000000 0.582751
    41 10.453131 -11.515625 0.062500 0.048693 0.106279 2.813295
    42 8.296880 10.437498 -0.933622 0.005057 0.000000 0.628137
    43 8.703126 -14.375008 0.062500 0.000000 0.087080 2.914526
    44 0.000000 -0.000004 0.000000 0.000000 0.000000 0.000000
    45 5.687500 4.937504 0.000000 0.000000 0.000000 0.000000
    46 5.374996 -1.375000 0.000000 0.000000 -0.198793 -1.492082
    47 7.531252 -0.000004 0.000000 0.000000 -0.120253 0.120253
    48 9.437498 0.000000 0.000000 0.000000 -0.181340 0.146433
  time 1
    0 -0.003840 -0.378918 46.949227 0.000000 0.120253 -1.684080
    1 0.175779 -1.488279 0.000004 0.000000 -1.570622 -1.570622
    2 0.000004 0.000000 9.031251 3.127812 0.042059 2.825893
    3 21.093748 0.000001 0.000000 0.000000 0.000000 -1.273914
    4 13.093752 -0.000002 0.000000 0.000000 0.000000 1.542703
    5 9.734375 0.000000 0.000000 -0.141197 0.041711 -0.462346
    6 11.265626 12.984377 -4.140625 0.000000 0.268606 1.570622
    7 11.265625 12.890627 -0.203125 0.000000 0.032987 1.570622
    8 11.265626 13.109377 3.593750 0.000000 -0.155160 1.570622
    9 0.000000 0.000000 -9.031251 3.143163 -0.026350 -3.016090
    10 21.093750 -0.000002 0.000000 0.000000 0.000000 -1.317530
    11 13.093750 0.000002 0.000000 0.000000 0.000000 0.991171
    12 9.734373 0.000000 -0.000001 0.247672 0.122008 -0.266850
    13 11.265622 12.999998 4.562498 -0.118507 -0.181348 2.157040
    14 11.265622 12.843750 0.249998 -0.041708 -0.041722 2.347292
    15 11.265622 13.140625 -3.375000 0.097563 0.097566 2.350781
    16 -2.140625 0.625000 0.000000 0.000000 -0.032987 1.507790
    17 10.500002 -0.000008 0.000000 0.000000 -0.074884 0.186581
    18 14.734376 -0.000004 0.000000 0.000000 -0.032987 0.120256
    19 14.000004 -0.000004 0.000000 0.000000 0.000000 -0.301772
    20 3.468750 0.000000 0.000000 0.032995 0.027740 0.242430
    21 -7.753895 8.183607 4.421876 -0.000001 -1.553169 -2.837715
    22 4.531252 0.000004 -0.000002 -1.139498 1.108135 -1.027832
    23 15.218755 0.000002 0.000000 0.000000 0.000000 -1.835907
    24 13.187500 -0.000003 0.000000 -0.272088 -0.127242 -0.373344
    25 11.531253 -0.000004 -4.359379 -0.062654 0.092332 -0.598465
    26 11.468754 -0.000004 -0.593752 0.055673 -0.087099 -0.596708
    27 11.468754 -0.000002 3.750001 0.130716 -0.195313 -0.607177
    28 -7.753893 8.183607 -4.843751 -0.000001 1.553169 -2.839468
    29 4.531251 0.000000 -0.000002 1.644254 0.356255 -1.773435
    30 15.218751 0.000000 0.000000 0.000000 0.000000 -0.998165
    31 13.187508 0.000000 0.000000 -0.219747 -0.027749 -0.495494
    32 11.531254 0.000000 4.359376 0.008552 -0.128980 -0.069639
    33 11.531254 0.000000 0.578125 -0.005061 0.128980 -0.069639
    34 3.890625 0.000000 -0.000001 0.000000 0.000000 0.361111
    35 11.593754 0.000000 -3.765627 -0.012043 0.242426 -0.069639
    36 -4.206858 1.519473 -0.105473 0.000000 0.000000 2.949432
    37 0.062500 -0.921875 0.000000 0.000000 0.000000 -1.001652
    38 -1.125004 -6.468750 0.000000 0.000000 0.000000 0.369820
    39 -1.125000 -6.468752 0.000000 0.000000 0.000000 0.268604
    40 -1.359375 -6.125002 0.000000 0.000000 0.000000 0.708415
    41 10.453131 -11.515625 0.062500 0.045194 0.095817 2.823763
    42 8.386726 10.636722 -0.855495 0.003308 0.000000 0.631624
    43 8.703126 -14.375008 0.062500 0.000000 0.078355 2.926736
    44 0.000000 -0.000004 0.000000 0.000000 0.000000 0.000000
    45 5.750002 5.074227 0.000000 0.000000 0.000000 0.000000
    46 5.374996 -1.375000 0.000000 0.000000 -0.167383 -1.511270
    47 7.531252 -0.000004 0.000000 0.000000 -0.113278 0.101066
    48 9.437498 0.000000 0.000000 0.000000 -0.177855 0.118509
  time 2
    0 -0.003840 0.875027 47.355490 0.001570 0.120253 -1.675371
    1 0.097652 -1.347649 0.000004 0.000000 -1.570622 -1.570622
    2 0.000004 0.000000 9.031251 3.124324 0.047297 2.813676
    3 21.093748 0.000001 0.000000 0.000000 0.000000 -1.282630
    4 13.093752 -0.000002 0.000000 0.000000 0.000000 1.424017
    5 9.734375 0.000000 0.000000 -0.139459 0.048686 -0.347152
    6 11.265626 12.984377 -4.140625 0.000000 0.268606 1.570622
    7 11.265625 12.890627 -0.203125 0.000000 0.032987 1.570622
    8 11.265626 13.109377 3.593750 0.000000 -0.155160 1.570622
    9 0.000000 0.000000 -9.031251 3.141581 -0.019363 -2.928817
    10 21.093750 -0.000002 0.000000 0.000000 0.000000 -1.188358
    11 13.093750 0.000002 0.000000 0.000000 0.000000 0.945773
    12 9.734373 0.000000 -0.000001 0.263372 0.048699 0.005072
    13 11.265622 12.999998 4.562498 -0.034735 -0.214498 1.736437
    14 11.265622 12.843750 0.249998 -0.020771 -0.055672 1.933671
    15 11.265622 13.140625 -3.375000 0.048702 0.128978 1.937153
    16 -2.140625 0.625000 0.000000 0.000000 -0.032987 1.507790
    17 10.500002 -0.000008 0.000000 0.000000 -0.060922 0.165644
    18 14.734376 -0.000004 0.000000 0.000000 -0.032987 0.094082
    19 14.000004 -0.000004 0.000000 0.000000 0.000000 -0.198798
    20 3.468750 0.000000 0.000000 0.036469 0.032978 0.158659
    21 -6.863243 8.949255 4.421876 -0.000001 -1.553169 -2.940699
    22 4.531252 0.000004 -0.000002 -1.218057 1.001672 -1.078428
    23 15.218755 0.000002 0.000000 0.000000 0.000000 -1.966781
    24 13.187500 -0.000003 0.000000 -0.256377 -0.158654 -0.488543
    25 11.531253 -0.000004 -4.359379 -0.045205 0.102794 -0.413481
    26 11.468754 -0.000004 -0.593752 0.038235 -0.095812 -0.411725
    27 11.468754 -0.000002 3.750001 0.090591 -0.216238 -0.420479
    28 -6.863241 8.949255 -4.843751 -0.000001 1.553169 -2.942434
    29 4.531251 0.000000 -0.000002 1.668684 0.263742 -1.764710
    30 15.218751 0.000000 0.000000 0.000000 0.000000 -0.952789
    31 13.187508 0.000000 0.000000 -0.209277 -0.045198 -0.586227
    32 11.531254 0.000000 4.359376 0.008552 -0.128980 -0.069639
    33 11.531254 0.000000 0.578125 -0.005061 0.128980 -0.069639
    34 3.890625 0.000000 -0.000001 0.000000 0.000000 0.355874
    35 11.593754 0.000000 -3.765627 -0.012043 0.242426 -0.069639
    36 -2.253673 3.636725 -0.199226 0.000000 0.000000 2.949432
    37 0.062500 -0.921875 0.000000 0.000000 0.000000 -0.924858
    38 -1.125004 -6.468750 0.000000 0.000000 0.000000 0.394262
    39 -1.125000 -6.468752 0.000000 0.000000 0.000000 0.329685
    40 -1.359375 -6.125002 0.000000 0.000000 0.000000 0.722392
    41 10.453131 -11.515625 0.062500 0.039957 0.083592 2.837719
    42 8.511730 10.871105 -0.777367 0.003308 0.000000 0.633374
    43 8.703126 -14.375008 0.062500 0.001570 0.067893 2.942439
    44 0.000000 -0.000004 0.000000 0.000000 0.000000 0.000000
    45 5.812504 5.214856 0.000000 0.000000 0.000000 0.000000
    46 5.374996 -1.375000 0.000000 0.000000 -0.122008 -1.537456
    47 7.519533 -0.000004 0.000000 0.000000 -0.104553 0.074879
    48 9.437498 0.000000 0.000000 0.000000 -0.172618 0.076623
  time 3
    0 -0.003840 1.710990 47.824254 0.003308 0.118515 -1.664898
    1 0.050776 -1.175769 0.000004 0.000000 -1.570622 -1.570622
    2 0.000004 0.000000 9.031251 3.122574 0.054272 2.824126
    3 21.093748 0.000001 0.000000 0.000000 0.000000 -1.259956
    4 13.093752 -0.000002 0.000000 0.000000 0.000000 1.298351
    5 9.734375 0.000000 0.000000 -0.137709 0.055673 -0.233715
    6 11.265626 12.984377 -4.140625 0.000000 0.268606 1.570622
    7 11.265625 12.890627 -0.203125 0.000000 0.032987 1.570622
    8 11.265626 13.109377 3.593750 0.000000 -0.155160 1.570622
    9 0.000000 0.000000 -9.031251 3.158863 -0.038562 -3.200755
    10 21.093750 -0.000002 0.000000 0.000000 0.000000 -1.938885
    11 13.093750 0.000002 0.000000 0.000000 0.000000 1.240729
    12 9.734373 0.000000 -0.000001 0.242435 0.052186 0.050454
    13 11.265622 12.999998 4.562498 0.005054 -0.216235 1.542715
    14 11.265622 12.843750 0.249998 -0.010309 -0.059160 1.745167
    15 11.265622 13.140625 -3.375000 0.022516 0.135953 1.745160
    16 -2.140625 0.625000 0.000000 0.000000 -0.032987 1.507790
    17 10.500002 -0.000008 0.000000 0.000000 -0.043461 0.142945
    18 14.734376 -0.000004 0.000000 0.000000 -0.032987 0.064408
    19 14.015629 -0.000004 0.000000 0.000000 0.000000 -0.092332
    20 3.468750 0.000000 0.000000 0.039968 0.036465 0.085357
    21 -5.863213 9.621151 4.421876 -0.000001 -1.553169 -3.047156
    22 4.531252 0.000004 -0.000002 -1.307069 0.842841 -1.148223
    23 15.218755 0.000002 0.000000 0.000000 0.000000 -2.005174
    24 13.187500 -0.000003 0.000000 -0.277321 -0.122005 -0.354145
    25 11.531253 -0.000004 -4.359379 -0.036480 0.106282 -0.327957
    26 11.468754 -0.000004 -0.593752 0.031248 -0.099299 -0.326239
    27 11.468754 -0.000002 3.750001 0.073130 -0.223225 -0.333216
    28 -5.863211 9.621151 -4.843751 -0.000001 1.553169 -3.050646
    29 4.531251 0.000000 -0.000002 1.694863 0.155516 -1.754234
    30 15.218751 0.000000 0.000000 0.000000 0.000000 -0.877741
    31 13.187508 0.000000 0.000000 -0.190078 -0.066147 -0.713665
    32 11.531254 0.000000 4.359376 0.008552 -0.128980 -0.069639
    33 11.531254 0.000000 0.578125 -0.005061 0.128980 -0.069639
    34 3.890625 0.000000 -0.000001 0.000000 0.000000 0.348899
    35 11.593754 0.000000 -3.765627 -0.012043 0.242426 -0.069639
    36 0.387032 4.980516 -0.277354 0.000000 0.000000 2.949432
    37 0.062500 -0.921875 0.000000 0.000000 0.000000 -0.860287
    38 -1.125004 -6.468750 0.000000 0.000000 0.000000 0.420437
    39 -1.125000 -6.468752 0.000000 0.000000 0.000000 0.406480
    40 -1.359375 -6.125002 0.000000 0.000000 0.000000 0.502480
    41 10.453131 -11.515625 0.062500 0.036469 0.071380 2.851688
    42 8.636734 11.121112 -0.699240 0.001570 0.000000 0.636861
    43 8.703126 -14.375008 0.062500 0.001570 0.059156 2.958156
    44 0.000000 -0.000004 0.000000 0.000000 0.000000 0.000000
    45 5.902350 5.371111 0.000000 0.000000 0.000000 0.000000
    46 5.374996 -1.375000 0.000000 0.000000 -0.069644 -1.568868
    47 7.519533 -0.000004 0.000000 0.000000 -0.094079 0.043468
    48 9.437498 0.000000 0.000000 0.000000 -0.167382 0.027762
  time 4
    0 -0.019465 2.218818 48.324269 0.003308 0.116765 -1.652662
    1 0.003899 -0.988263 0.000004 0.000000 -1.570622 -1.570622
    2 0.000004 0.000000 9.031251 3.120825 0.061259 2.853770
    3 21.093748 0.000001 0.000000 0.000000 0.000000 -1.209341
    4 13.093752 -0.000002 0.000000 0.000000 0.000000 1.172711
    5 9.734375 0.000000 0.000000 -0.088848 0.057410 -0.130738
    6 11.265626 12.984377 -4.140625 0.000000 0.268606 1.570622
    7 11.265625 12.890627 -0.203125 0.000000 0.032987 1.570622
    8 11.265626 13.109377 3.593750 0.000000 -0.155160 1.570622
    9 0.000000 0.000000 -9.031251 3.171087 -0.045549 -3.340357
    10 21.093750 -0.000002 0.000000 0.000000 0.000000 -2.207667
    11 13.093750 0.000002 0.000000 0.000000 0.000000 1.574103
    12 9.734373 0.000000 -0.000001 0.219748 -0.074874 0.310488
    13 11.265622 12.999998 4.562498 0.106288 -0.188323 1.050514
    14 11.265622 12.843750 0.249998 0.017268 -0.057410 1.259953
    15 11.265622 13.140625 -3.375000 -0.041710 0.132465 1.258208
    16 -2.140625 0.625000 0.000000 0.000000 -0.032987 1.507790
    17 10.500002 -0.000008 0.000000 0.000000 -0.026011 0.118508
    18 14.734376 -0.000004 0.000000 0.000000 -0.032987 0.031247
    19 14.011723 -0.000004 0.000000 0.000000 0.000000 -0.005065
    20 3.468750 0.000000 0.000000 0.041704 0.034727 0.039968
    21 -5.019437 10.089915 4.421876 -0.000001 -1.553169 -3.132680
    22 4.531252 0.000004 -0.000002 -1.375142 0.629916 -1.238993
    23 15.218755 0.000002 0.000000 0.000000 0.000000 -1.834132
    24 13.187500 -0.000003 0.000000 -0.251144 -0.170878 -0.530424
    25 11.531253 -0.000004 -4.359379 -0.027755 0.108031 -0.249421
    26 11.468754 -0.000004 -0.593752 0.022523 -0.101049 -0.249421
    27 11.468754 -0.000002 3.750001 0.053942 -0.228462 -0.254676
    28 -5.019435 10.089915 -4.843751 -0.000001 1.553169 -3.136171
    29 4.531251 0.000000 -0.000002 1.719319 0.056052 -1.740284
    30 15.218751 0.000000 0.000000 0.000000 0.000000 -0.759052
    31 13.187508 0.000000 0.000000 -0.167384 -0.085347 -0.874213
    32 11.531254 0.000000 4.359376 0.008552 -0.128980 -0.069639
    33 11.531254 0.000000 0.578125 -0.005061 0.128980 -0.069639
    34 3.890625 0.000000 -0.000001 0.000000 0.000000 0.341912
    35 11.593754 0.000000 -3.765627 -0.012043 0.242426 -0.069639
    36 1.902704 5.824292 -0.308604 0.000000 0.000000 2.949432
    37 0.062500 -0.921875 0.000000 0.000000 0.000000 -0.802681
    38 -1.125004 -6.468750 0.000000 0.000000 0.000000 0.448362
    39 -1.125000 -6.468752 0.000000 0.000000 0.000000 0.495484
    40 -1.359375 -6.125002 0.000000 0.000000 0.000000 0.195286
    41 10.453131 -11.515625 0.062500 0.031232 0.060906 2.863906
    42 8.777363 11.355494 -0.605487 0.001570 0.000000 0.638611
    43 8.703126 -14.375008 0.062500 0.001570 0.050431 2.973858
    44 0.000000 -0.000004 0.000000 0.000000 0.000000 0.000000
    45 5.980478 5.527366 0.000000 0.000000 0.000000 0.000000
    46 5.374996 -1.375000 0.000000 0.000000 -0.012045 -1.602029
    47 7.515626 -0.000004 0.000000 0.000000 -0.081866 0.010306
    48 9.437498 0.000000 0.000000 0.000000 -0.158660 -0.020764
  time 5
    0 -0.019465 2.507889 48.808659 0.005057 0.116765 -1.638717
    1 -0.027352 -0.785132 0.000004 0.000000 -1.570622 -1.570622
    2 0.000004 0.000000 9.031251 3.120825 0.068234 2.900902
    3 21.093748 0.000001 0.000000 0.000000 0.000000 -1.139528
    4 13.093752 -0.000002 0.000000 0.000000 0.000000 1.052261
    5 9.734375 0.000000 0.000000 -0.073136 0.060910 -0.034735
    6 11.265626 12.984377 -4.140625 0.000000 0.268606 1.570622
    7 11.265625 12.890627 -0.203125 0.000000 0.032987 1.570622
    8 11.265626 13.109377 3.593750 0.000000 -0.155160 1.570622
    9 0.000000 0.000000 -9.031251 3.174574 -0.035075 -3.551552
    10 21.093750 -0.000002 0.000000 0.000000 0.000000 -1.973788
    11 13.093750 0.000002 0.000000 0.000000 0.000000 1.148247
    12 9.734373 0.000000 -0.000001 0.188325 -0.115011 0.521848
    13 11.265622 12.999998 4.562498 0.005054 -0.216235 1.542715
    14 11.265622 12.843750 0.249998 -0.010309 -0.059160 1.745167
    15 11.265622 13.140625 -3.375000 0.022516 0.135953 1.745160
    16 -2.140625 0.625000 0.000000 0.000000 -0.032987 1.507790
    17 10.500002 -0.000008 0.000000 0.000000 -0.005062 0.095821
    18 14.734376 -0.000004 0.000000 0.000000 -0.032987 0.001573
    19 14.011723 -0.000004 0.000000 0.000000 0.000000 0.062651
    20 3.468750 0.000000 0.000000 0.043454 0.031240 0.012056
    21 -4.285040 10.418050 4.421876 -0.000001 -1.553169 -3.206332
    22 4.531252 0.000004 -0.000002 -1.415265 0.437948 -1.294848
    23 15.218755 0.000002 0.000000 0.000000 0.000000 -1.671824
    24 13.187500 -0.000003 0.000000 -0.245911 -0.179603 -0.565341
    25 11.531253 -0.000004 -4.359379 -0.019031 0.109781 -0.176114
    26 11.468754 -0.000004 -0.593752 0.015536 -0.102799 -0.176114
    27 11.468754 -0.000002 3.750001 0.038230 -0.231950 -0.179625
    28 -4.285038 10.418050 -4.843751 -0.000001 1.553169 -3.209823
    29 4.531251 0.000000 -0.000002 1.742001 -0.014092 -1.717582
    30 15.218751 0.000000 0.000000 0.000000 0.000000 -0.574049
    31 13.187508 0.000000 0.000000 -0.141209 -0.102796 -1.069685
    32 11.531254 0.000000 4.359376 0.008552 -0.128980 -0.069639
    33 11.531254 0.000000 0.578125 -0.005061 0.128980 -0.069639
    34 3.890625 0.000000 -0.000001 0.000000 0.000000 0.336675
    35 11.593754 0.000000 -3.765627 -0.012043 0.242426 -0.069639
    36 2.371468 6.199304 -0.277354 0.000000 0.000000 2.949432
    37 0.062500 -0.921875 0.000000 0.000000 0.000000 -0.753827
    38 -1.125004 -6.468750 0.000000 0.000000 0.000000 0.476288
    39 -1.125000 -6.468752 0.000000 0.000000 0.000000 0.577517
    40 -1.359375 -6.125002 0.000000 0.000000 0.000000 -0.118499
    41 10.453131 -11.515625 0.062500 0.025995 0.048693 2.874374
    42 8.886742 11.543000 -0.511734 0.000000 0.000000 0.640349
    43 8.703126 -14.375008 0.062500 0.001570 0.039957 2.986082
    44 0.000000 -0.000004 0.000000 0.000000 0.000000 0.000000
    45 6.058605 5.636744 0.000000 0.000000 0.000000 0.000000
    46 5.374996 -1.375000 0.000000 0.000000 0.043458 -1.633452
    47 7.515626 -0.000004 0.000000 0.000000 -0.067904 -0.019020
    48 9.437498 0.000000 0.000000 0.000000 -0.146436 -0.069637
  time 6
    0 -0.019465 2.707114 49.183670 0.006795 0.118515 -1.623008
    1 -0.042977 -0.566375 0.000004 0.000000 -1.570622 -1.570622
    2 0.000004 0.000000 9.031251 3.122574 0.073471 2.958484
    3 21.093748 0.000001 0.000000 0.000000 0.000000 -1.054019
    4 13.093752 -0.000002 0.000000 0.000000 0.000000 0.945818
    5 9.734375 0.000000 0.000000 -0.088848 0.064397 0.043447
    6 11.265626 12.984377 -4.140625 0.000000 0.268606 1.570622
    7 11.265625 12.890627 -0.203125 0.000000 0.032987 1.570622
    8 11.265626 13.109377 3.593750 0.000000 -0.155160 1.570622
    9 0.000000 0.000000 -9.031251 3.171087 -0.031587 -3.624847
    10 21.093750 -0.000002 0.000000 0.000000 0.000000 -2.069747
    11 13.093750 0.000002 0.000000 0.000000 0.000000 1.181401
    12 9.734373 0.000000 -0.000001 0.165638 -0.125485 0.596728
    13 11.265622 12.999998 4.562498 0.048690 -0.210998 1.338514
    14 11.265622 12.843750 0.249998 -0.000002 -0.059160 1.544467
    15 11.265622 13.140625 -3.375000 -0.003311 0.137703 1.544456
    16 -2.140625 0.625000 0.000000 0.000000 -0.032987 1.507790
    17 10.500002 -0.000008 0.000000 0.000000 0.013778 0.074884
    18 14.734376 -0.000004 0.000000 0.000000 -0.032987 -0.022504
    19 14.015629 -0.000004 0.000000 0.000000 0.000000 0.123737
    20 3.468750 0.000000 0.000000 0.045203 0.027740 -0.012039
    21 -3.644395 10.668058 4.421876 -0.000001 -1.553169 -3.267413
    22 4.531252 0.000004 -0.000002 -1.441463 0.177881 -1.322760
    23 15.218755 0.000002 0.000000 0.000000 0.000000 -1.385650
    24 13.187500 -0.000003 0.000000 -0.268604 -0.144692 -0.427461
    25 11.531253 -0.000004 -4.359379 -0.008556 0.111519 -0.073142
    26 11.468754 -0.000004 -0.593752 0.005062 -0.102799 -0.073142
    27 11.468754 -0.000002 3.750001 0.013794 -0.233699 -0.074879
    28 -3.644393 10.668058 -4.843751 -0.000001 1.553169 -3.270904
    29 4.531251 0.000000 -0.000002 1.754216 -0.019330 -1.682680
    30 15.218751 0.000000 0.000000 0.000000 0.000000 -0.291326
    31 13.187508 0.000000 0.000000 -0.109786 -0.113271 -1.310555
    32 11.531254 0.000000 4.359376 0.008552 -0.128980 -0.069639
    33 11.531254 0.000000 0.578125 -0.005061 0.128980 -0.069639
    34 3.890625 0.000000 -0.000001 0.000000 0.000000 0.333187
    35 11.593754 0.000000 -3.765627 -0.012043 0.242426 -0.069639
    36 2.402719 6.371184 -0.230477 0.000000 0.000000 2.949432
    37 0.062500 -0.921875 0.000000 0.000000 0.000000 -0.711937
    38 -1.125004 -6.468750 0.000000 0.000000 0.000000 0.502462
    39 -1.125000 -6.468752 0.000000 0.000000 0.000000 0.636866
    40 -1.359375 -6.125002 0.000000 0.000000 0.000000 -0.368085
    41 10.453131 -11.515625 0.062500 0.020757 0.038219 2.881352
    42 8.980494 11.683629 -0.417981 0.000000 0.000000 0.640349
    43 8.703126 -14.375008 0.062500 0.001570 0.032982 2.994800
    44 0.000000 -0.000004 0.000000 0.000000 0.000000 0.000000
    45 6.105482 5.730497 0.000000 0.000000 0.000000 0.000000
    46 5.374996 -1.375000 0.000000 0.000000 0.101043 -1.656139
    47 7.519533 -0.000004 0.000000 0.000000 -0.052192 -0.041707
    48 9.437498 0.000000 0.000000 0.000000 -0.130726 -0.106286
  time 7
    0 -0.003840 2.918058 49.339925 0.010295 0.120253 -1.603827
    1 -0.042977 -0.363244 0.000004 0.000000 -1.570622 -1.570622
    2 0.000004 0.000000 9.031251 3.124324 0.078708 3.026546
    3 21.093748 0.000001 0.000000 0.000000 0.000000 -0.966746
    4 13.093752 -0.000002 0.000000 0.000000 0.000000 0.886462
    5 9.734375 0.000000 0.000000 -0.094074 0.066147 0.087070
    6 11.265626 12.984377 -4.140625 0.000000 0.268606 1.570622
    7 11.265625 12.890627 -0.203125 0.000000 0.032987 1.570622
    8 11.265626 13.109377 3.593750 0.000000 -0.155160 1.570622
    9 0.000000 0.000000 -9.031251 3.172825 -0.024600 -3.813337
    10 21.093750 -0.000002 0.000000 0.000000 0.000000 -2.054071
    11 13.093750 0.000002 0.000000 0.000000 0.000000 1.048755
    12 9.734373 0.000000 -0.000001 0.156913 -0.128973 0.579263
    13 11.265622 12.999998 4.562498 0.076614 -0.202273 1.204132
    14 11.265622 12.843750 0.249998 0.008543 -0.059160 1.411821
    15 11.265622 13.140625 -3.375000 -0.020761 0.135953 1.411798
    16 -2.140625 0.625000 0.000000 0.000000 -0.032987 1.507790
    17 10.500002 -0.000008 0.000000 0.000000 0.032977 0.060922
    18 14.734376 -0.000004 0.000000 0.000000 -0.032987 -0.032979
    19 14.015629 -0.000004 0.000000 0.000000 0.000000 0.163870
    20 3.468750 0.000000 0.000000 0.043454 0.029490 -0.032977
    21 -3.206882 10.808687 4.421876 -0.000001 -1.553169 -3.307560
    22 4.531252 0.000004 -0.000002 -1.446689 -0.076613 -1.366386
    23 15.218755 0.000002 0.000000 0.000000 0.000000 -1.040062
    24 13.187500 -0.000003 0.000000 -0.216237 -0.207527 -0.699708
    25 11.531253 -0.000004 -4.359379 -0.000011 0.111519 -0.008579
    26 11.468754 -0.000004 -0.593752 0.000004 -0.102799 -0.006823
    27 11.468754 -0.000002 3.750001 0.000012 -0.233699 -0.006844
    28 -3.206880 10.808687 -4.843751 -0.000001 1.553169 -3.311051
    29 4.531251 0.000000 -0.000002 1.752468 -0.176407 -1.677455
    30 15.218751 0.000000 0.000000 0.000000 0.000000 -0.416984
    31 13.187508 0.000000 0.000000 -0.066153 -0.078360 -1.226763
    32 11.531254 0.000000 4.359376 0.022514 -0.127242 -0.174343
    33 11.531254 0.000000 0.578125 -0.019023 0.128980 -0.174343
    34 3.890625 0.000000 -0.000001 0.000000 0.000000 0.329700
    35 11.593754 0.000000 -3.765627 -0.038217 0.240688 -0.177847
    36 2.590225 6.605566 -0.183601 0.000000 0.000000 2.949432
    37 0.062500 -0.921875 0.000000 0.000000 0.000000 -0.670047
    38 -1.125004 -6.468750 0.000000 0.000000 0.000000 0.526904
    39 -1.125000 -6.468752 0.000000 0.000000 0.000000 0.652579
    40 -1.359375 -6.125002 0.000000 0.000000 0.000000 -0.469300
    41 10.453131 -11.515625 0.062500 0.015532 0.029494 2.884854
    42 9.011745 11.730506 -0.324229 0.000000 0.000000 0.640349
    43 8.703126 -14.375008 0.062500 0.001570 0.024257 2.998293
    44 0.000000 -0.000004 0.000000 0.000000 0.000000 0.000000
    45 6.121107 5.761748 0.000000 0.000000 0.000000 0.000000
    46 5.374996 -1.375000 0.000000 0.000000 0.146432 -1.666614
    47 7.519533 -0.000004 0.000000 0.000000 -0.032993 -0.052181
    48 9.437498 0.000000 0.000000 0.000000 -0.102809 -0.121998
  time 8
    0 0.074288 2.925871 49.136794 0.012033 0.127228 -1.577646
    1 -0.042977 -0.050735 0.000004 0.000000 -1.570622 -1.570622
    2 0.000004 0.000000 9.031251 3.127812 0.083945 3.106856
    3 21.093748 0.000001 0.000000 0.000000 0.000000 -0.888216
    4 13.093752 -0.000002 0.000000 0.000000 0.000000 0.884724
    5 9.734375 0.000000 0.000000 -0.108048 0.066147 0.094070
    6 11.265626 12.984377 -4.140625 0.005057 0.268606 1.595046
    7 11.265625 12.890627 -0.203125 0.000000 0.032987 1.586329
    8 11.265626 13.109377 3.593750 -0.001570 -0.155160 1.586323
    9 0.000000 0.000000 -9.031251 3.169337 -0.022863 -3.783678
    10 21.093750 -0.000002 0.000000 0.000000 0.000000 -2.050564
    11 13.093750 0.000002 0.000000 0.000000 0.000000 1.272168
    12 9.734373 0.000000 -0.000001 0.130727 -0.097561 0.385528
    13 11.265622 12.999998 4.562498 0.048690 -0.210998 1.335012
    14 11.265622 12.843750 0.249998 0.001568 -0.059160 1.521757
    15 11.265622 13.140625 -3.375000 -0.005061 0.137703 1.521757
    16 -2.140625 0.625000 0.000000 0.000000 -0.032987 1.507790
    17 10.500002 -0.000008 0.000000 0.000000 0.057413 0.057423
    18 14.734376 -0.000004 0.000000 0.000000 -0.017287 -0.024254
    19 14.011723 -0.000004 0.000000 0.000000 0.000000 0.148164
    20 3.468750 0.000000 0.000000 0.038218 0.012052 -0.020760
    21 -3.378762 10.746185 4.421876 -0.000001 -1.553169 -3.291856
    22 4.531252 0.000004 -0.000002 -1.469380 -0.256352 -1.408302
    23 15.218755 0.000002 0.000000 0.000000 0.000000 -0.818389
    24 13.187500 -0.000003 0.000000 -0.202287 -0.204040 -0.759032
    25 11.531253 -0.000004 -4.359379 -0.000011 0.111519 -0.008579
    26 11.468754 -0.000004 -0.593752 0.000004 -0.102799 -0.006823
    27 11.468754 -0.000002 3.750001 0.000012 -0.233699 -0.006844
    28 -3.378760 10.746185 -4.843751 -0.000001 1.553169 -3.293610
    29 4.531251 0.000000 -0.000002 1.707104 -0.272444 -1.653004
    30 15.218751 0.000000 0.000000 0.000000 0.000000 -0.507736
    31 13.187508 0.000000 0.000000 -0.031248 -0.050436 -1.242490
    32 11.531254 0.000000 4.359376 0.022514 -0.127242 -0.174343
    33 11.531254 0.000000 0.578125 -0.019023 0.128980 -0.174343
    34 3.890625 0.000000 -0.000001 0.000000 0.000000 0.329700
    35 11.593754 0.000000 -3.765627 -0.038217 0.240688 -0.177847
    36 3.043363 7.027454 -0.152350 0.000000 0.000000 2.949432
    37 0.062500 -0.921875 0.000000 0.000000 0.000000 -0.636889
    38 -1.125004 -6.468750 0.000000 0.000000 0.000000 0.547844
    39 -1.125000 -6.468752 0.000000 0.000000 0.000000 0.615914
    40 -1.359375 -6.125002 0.000000 0.000000 0.000000 -0.348883
    41 10.453131 -11.515625 0.062500 0.010295 0.020757 2.877863
    42 8.917992 11.589877 -0.214850 0.000000 0.000000 0.640349
    43 8.703126 -14.375008 0.062500 0.001570 0.017270 2.989561
    44 0.000000 -0.000004 0.000000 0.000000 0.000000 0.000000
    45 6.074231 5.683620 0.000000 0.000000 0.000000 0.000000
    46 5.374996 -1.375000 0.000000 0.000000 0.186572 -1.650902
    47 7.515626 -0.000004 0.000000 0.000000 -0.006819 -0.036470
    48 9.437498 0.000000 0.000000 0.000000 -0.052195 -0.097561
  time 9
    0 0.199292 2.558672 48.527400 0.017270 0.139440 -1.539559
    1 -0.027352 0.355528 0.000004 0.000000 -1.570622 -1.570622
    2 0.000004 0.000000 9.031251 3.133037 0.087433 3.188537
    3 21.093748 0.000001 0.000000 0.000000 0.000000 -0.816665
    4 13.093752 -0.000002 0.000000 0.000000 0.000000 0.902183
    5 9.734375 0.000000 0.000000 -0.156897 0.067885 0.092314
    6 11.265626 12.984377 -4.140625 0.015532 0.268606 1.628210
    7 11.265625 12.890627 -0.203125 0.000000 0.032987 1.612498
    8 11.265626 13.109377 3.593750 -0.005058 -0.155160 1.612505
    9 0.000000 0.000000 -9.031251 3.165850 -0.021113 -3.738303
    10 21.093750 -0.000002 0.000000 0.000000 0.000000 -2.047056
    11 13.093750 0.000002 0.000000 0.000000 0.000000 1.488571
    12 9.734373 0.000000 -0.000001 0.109790 -0.067887 0.207516
    13 11.265622 12.999998 4.562498 0.012041 -0.216235 1.509557
    14 11.265622 12.843750 0.249998 -0.005071 -0.059160 1.664892
    15 11.265622 13.140625 -3.375000 0.012053 0.137703 1.666636
    16 -2.140625 0.625000 0.000000 0.000000 -0.031249 1.507790
    17 10.500002 -0.000008 0.000000 0.000000 0.087087 0.064410
    18 14.734376 -0.000004 0.000000 0.000000 0.010289 0.005073
    19 14.011723 -0.000004 0.000000 0.000000 0.000000 0.080094
    20 3.468750 0.000000 0.000000 0.031246 -0.015524 0.019030
    21 -4.113159 10.496178 4.421876 -0.000001 -1.553169 -3.223791
    22 4.531252 0.000004 -0.000002 -1.499051 -0.392500 -1.465900
    23 15.218755 0.000002 0.000000 0.000000 0.000000 -0.539173
    24 13.187500 -0.000003 0.000000 -0.160398 -0.223227 -0.947516
    25 11.531253 -0.000004 -4.359379 -0.019031 0.111519 -0.165653
    26 11.468754 -0.000004 -0.593752 0.013798 -0.102799 -0.165653
    27 11.468754 -0.000002 3.750001 0.034743 -0.231950 -0.169158
    28 -4.113157 10.496178 -4.843751 -0.000001 1.553169 -3.225527
    29 4.531251 0.000000 -0.000002 1.632038 -0.282871 -1.597176
    30 15.218751 0.000000 0.000000 0.000000 0.000000 -0.488532
    31 13.187508 0.000000 0.000000 0.006804 -0.005062 -1.462412
    32 11.531254 0.000000 4.359376 0.001577 -0.128980 -0.019028
    33 11.531254 0.000000 0.578125 -0.000004 0.130718 -0.019028
    34 3.890625 0.000000 -0.000001 0.000000 0.000000 0.329700
    35 11.593754 0.000000 -3.765627 -0.000011 0.242426 -0.019032
    36 3.480877 7.480593 -0.121099 0.000000 0.000000 2.949432
    37 0.062500 -0.921875 0.000000 0.000000 0.000000 -0.615933
    38 -1.125004 -6.468750 0.000000 0.000000 0.000000 0.567051
    39 -1.125000 -6.468752 0.000000 0.000000 0.000000 0.535634
    40 -1.359375 -6.125002 0.000000 0.000000 0.000000 -0.057409
    41 10.453131 -11.515625 0.062500 0.006795 0.012032 2.860417
    42 8.714861 11.277367 -0.121097 0.000000 0.000000 0.636861
    43 8.703126 -14.375008 0.062500 0.000000 0.010295 2.970366
    44 0.000000 -0.000004 0.000000 0.000000 0.000000 0.000000
    45 5.964852 5.480489 0.000000 0.000000 0.000000 0.000000
    46 5.374996 -1.375000 0.000000 0.000000 0.223217 -1.607266
    47 7.519533 -0.000004 0.000000 0.000000 0.031232 0.005069
    48 9.437498 0.000000 0.000000 0.000000 0.026002 -0.029489
  time 10
    0 0.355546 1.972716 47.730501 0.022507 0.151665 -1.499433
    1 0.003899 0.808667 0.000004 0.000000 -1.570622 -1.570622
    2 0.000004 0.000000 9.031251 3.131287 0.075221 3.153622
    3 21.093748 0.000001 0.000000 0.000000 0.000000 -1.057495
    4 13.093752 -0.000002 0.000000 0.000000 0.000000 1.111617
    5 9.734375 0.000000 0.000000 -0.165622 0.038223 -0.029518
    6 11.265626 12.984377 -4.140625 0.076617 0.258143 1.862091
    7 11.265625 12.890627 -0.203125 0.008545 0.032987 1.828925
    8 11.265626 13.109377 3.593750 -0.039957 -0.149935 1.832415
    9 0.000000 0.000000 -9.031251 3.160612 -0.015876 -3.696405
    10 21.093750 -0.000002 0.000000 0.000000 0.000000 -2.015662
    11 13.093750 0.000002 0.000000 0.000000 0.000000 1.666615
    12 9.734373 0.000000 -0.000001 0.088841 -0.039963 0.048696
    13 11.265622 12.999998 4.562498 -0.013798 -0.216235 1.640437
    14 11.265622 12.843750 0.249998 -0.012046 -0.059160 1.774827
    15 11.265622 13.140625 -3.375000 0.027753 0.135953 1.776595
    16 -2.140625 0.625000 0.000000 0.000000 -0.027762 1.507790
    17 10.500002 -0.000008 0.000000 0.000000 0.115011 0.078372
    18 14.734376 -0.000004 0.000000 0.000000 0.043451 0.046959
    19 14.011723 -0.000004 0.000000 0.000000 0.000000 -0.031247
    20 3.468750 0.000000 0.000000 0.026010 -0.046948 0.097574
    21 -5.285070 9.949286 4.421876 -0.000001 -1.553169 -3.106500
    22 4.531252 0.000004 -0.000002 -1.547906 -0.369817 -1.497297
    23 15.218755 0.000002 0.000000 0.000000 0.000000 -0.614184
    24 13.187500 -0.000003 0.000000 -0.020781 -0.204040 -0.971954
    25 11.531253 -0.000004 -4.359379 -0.032993 0.108031 -0.298291
    26 11.468754 -0.000004 -0.593752 0.027760 -0.099299 -0.296535
    27 11.468754 -0.000002 3.750001 0.066155 -0.224962 -0.303522
    28 -5.285068 9.949286 -4.843751 -0.000001 1.553169 -3.109991
    29 4.531251 0.000000 -0.000002 1.549695 -0.416942 -1.540968
    30 15.218751 0.000000 0.000000 0.000000 0.000000 -0.788724
    31 13.187508 0.000000 0.000000 0.026004 0.027740 -1.361174
    32 11.531254 0.000000 4.359376 0.008552 -0.128980 -0.064414
    33 11.531254 0.000000 0.578125 -0.005061 0.128980 -0.064414
    34 3.890625 0.000000 -0.000001 0.000000 0.000000 0.329700
    35 11.593754 0.000000 -3.765627 -0.012043 0.242426 -0.064417
    36 3.871514 7.871230 -0.089848 0.000000 0.000000 2.949432
    37 0.062500 -0.921875 0.000000 0.000000 0.000000 -0.598491
    38 -1.125004 -6.468750 0.000000 0.000000 0.000000 0.581004
    39 -1.125000 -6.468752 0.000000 0.000000 0.000000 0.430917
    40 -1.359375 -6.125002 0.000000 0.000000 0.000000 0.287793
    41 10.453131 -11.515625 0.062500 0.001570 0.005057 2.837719
    42 8.511730 10.886730 -0.042970 0.000000 0.000000 0.633374
    43 8.703126 -14.375008 0.062500 0.000000 0.003308 2.945932
    44 0.000000 -0.000004 0.000000 0.000000 0.000000 0.000000
    45 5.839848 5.246107 0.000000 0.000000 0.000000 0.000000
    46 5.374996 -1.375000 0.000000 0.000000 0.249406 -1.551418
    47 7.519533 -0.000004 0.000000 0.000000 0.073118 0.060917
    48 9.437498 0.000000 0.000000 0.000000 0.113255 0.053936
  time 11
    0 0.480550 1.355510 47.074231 0.027744 0.163877 -1.468015
    1 0.066401 1.152427 0.000004 0.000000 -1.570622 -1.570622
    2 0.000004 0.000000 9.031251 3.129550 0.073471 3.141588
    3 21.093748 0.000001 0.000000 0.000000 0.000000 -1.266935
    4 13.093752 -0.000002 0.000000 0.000000 0.000000 1.310570
    5 9.734375 0.000000 0.000000 -0.156897 0.001574 -0.188335
    6 11.265626 12.984377 -4.140625 0.102792 0.249419 1.968543
    7 11.265625 12.890627 -0.203125 0.010295 0.031249 1.924912
    8 11.265626 13.109377 3.593750 -0.053931 -0.146435 1.928412
    9 0.000000 0.000000 -9.031251 3.146650 0.010646 -3.771474
    10 21.093750 -0.000002 0.000000 0.000000 0.000000 -1.757359
    11 13.093750 0.000002 0.000000 0.000000 0.000000 1.148247
    12 9.734373 0.000000 -0.000001 0.108040 -0.064400 0.343645
    13 11.265622 12.999998 4.562498 -0.001573 -0.216235 1.581098
    14 11.265622 12.843750 0.249998 -0.006809 -0.059160 1.699797
    15 11.265622 13.140625 -3.375000 0.017290 0.137703 1.701530
    16 -2.140625 0.625000 0.000000 0.000000 -0.026012 1.507790
    17 10.500002 -0.000008 0.000000 0.000000 0.137698 0.092334
    18 14.734376 -0.000004 0.000000 0.000000 0.071375 0.085357
    19 14.011723 -0.000004 0.000000 0.000000 0.000000 -0.144697
    20 3.468750 0.000000 0.000000 0.022524 -0.064397 0.181345
    21 -6.363228 9.308641 4.421876 -0.000001 -1.553169 -2.994796
    22 4.531252 0.000004 -0.000002 -1.561865 -0.331404 -1.537438
    23 15.218755 0.000002 0.000000 0.000000 0.000000 -0.898679
    24 13.187500 -0.000003 0.000000 -0.026014 -0.101056 -0.516464
    25 11.531253 -0.000004 -4.359379 -0.000011 0.111519 -0.008579
    26 11.468754 -0.000004 -0.593752 0.000004 -0.102799 -0.006823
    27 11.468754 -0.000002 3.750001 0.000012 -0.233699 -0.006844
    28 -6.363226 9.308641 -4.843751 -0.000001 1.553169 -2.996549
    29 4.531251 0.000000 -0.000002 1.472906 -0.553068 -1.474639
    30 15.218751 0.000000 0.000000 0.000000 0.000000 -1.055744
    31 13.187508 0.000000 0.000000 0.029486 0.080101 -1.237237
    32 11.531254 0.000000 4.359376 0.003327 -0.128980 -0.027751
    33 11.531254 0.000000 0.578125 -0.000004 0.128980 -0.027751
    34 3.890625 0.000000 -0.000001 0.000000 0.000000 0.329700
    35 11.593754 0.000000 -3.765627 -0.003318 0.242426 -0.027751
    36 4.184023 8.121237 -0.058597 0.000000 0.000000 2.949432
    37 0.062500 -0.921875 0.000000 0.000000 0.000000 -0.584521
    38 -1.125004 -6.468750 0.000000 0.000000 0.000000 0.589741
    39 -1.125000 -6.468752 0.000000 0.000000 0.000000 0.320962
    40 -1.359375 -6.125002 0.000000 0.000000 0.000000 0.575784
    41 10.453131 -11.515625 0.062500 0.000000 0.000000 2.820273
    42 8.339850 10.558595 0.000000 0.000000 0.000000 0.629886
    43 8.703126 -14.375008 0.062500 0.000000 0.000000 2.924990
    44 0.000000 -0.000004 0.000000 0.000000 0.000000 0.000000
    45 5.734376 5.042976 0.000000 0.000000 0.000000 0.000000
    46 5.374996 -1.375000 0.000000 0.000000 0.265111 -1.507782
    47 7.531252 -0.000004 0.000000 0.000000 0.102792 0.104553
    48 9.437498 0.000000 0.000000 0.000000 0.177844 0.122008
  time 12
    0 0.527427 0.867214 46.839849 0.029494 0.170864 -1.455779
    1 0.097652 1.308682 0.000004 0.000000 -1.570622 -1.570622
    2 0.000004 0.000000 9.031251 3.138274 0.076958 3.272289
    3 21.093748 0.000001 0.000000 0.000000 0.000000 -1.118592
    4 13.093752 -0.000002 0.000000 0.000000 0.000000 1.294875
    5 9.734375 0.000000 0.000000 -0.118510 -0.012040 -0.223229
    6 11.265626 12.984377 -4.140625 0.115016 0.244181 2.020903
    7 11.265625 12.890627 -0.203125 0.012033 0.031249 1.970290
    8 11.265626 13.109377 3.593750 -0.060906 -0.142948 1.975528
    9 0.000000 0.000000 -9.031251 3.127811 0.040308 -3.884929
    10 21.093750 -0.000002 0.000000 0.000000 0.000000 -1.397814
    11 13.093750 0.000002 0.000000 0.000000 0.000000 0.320992
    12 9.734373 0.000000 -0.000001 0.160401 0.001575 0.497240
    13 11.265622 12.999998 4.562498 0.015529 -0.216235 1.488600
    14 11.265622 12.843750 0.249998 -0.000002 -0.059160 1.588080
    15 11.265622 13.140625 -3.375000 0.001579 0.137703 1.588086
    16 -2.140625 0.625000 0.000000 0.000000 -0.026012 1.507790
    17 10.500002 -0.000008 0.000000 0.000000 0.146423 0.095821
    18 14.734376 -0.000004 0.000000 0.000000 0.085337 0.102807
    19 14.011723 -0.000004 0.000000 0.000000 0.000000 -0.120269
    20 3.468750 0.000000 0.000000 0.019025 -0.066147 0.153416
    21 -6.144471 9.449271 4.421876 -0.000001 -1.553169 -3.017484
    22 4.531252 0.000004 -0.000002 -1.575857 -0.216213 -1.553152
    23 15.218755 0.000002 0.000000 0.000000 0.000000 -1.040062
    24 13.187500 -0.000003 0.000000 0.003308 -0.094081 -0.565341
    25 11.531253 -0.000004 -4.359379 -0.000011 0.111519 -0.008579
    26 11.468754 -0.000004 -0.593752 0.000004 -0.102799 -0.006823
    27 11.468754 -0.000002 3.750001 0.000012 -0.233699 -0.006844
    28 -6.144469 9.449271 -4.843751 -0.000001 1.553169 -3.020974
    29 4.531251 0.000000 -0.000002 1.315805 -1.066200 -1.291379
    30 15.218751 0.000000 0.000000 0.000000 0.000000 -1.603752
    31 13.187508 0.000000 0.000000 0.095813 0.045201 -0.657793
    32 11.531254 0.000000 4.359376 0.059163 -0.115018 -0.472798
    33 11.531254 0.000000 0.578125 -0.055672 0.116768 -0.472798
    34 3.890625 0.000000 -0.000001 0.000000 0.000000 0.329700
    35 11.593754 0.000000 -3.765627 -0.108028 0.218001 -0.481536
    36 4.402780 8.105612 -0.027346 0.000000 0.000000 2.949432
    37 0.062500 -0.921875 0.000000 0.000000 0.000000 -0.565333
    38 -1.125004 -6.468750 0.000000 0.000000 0.000000 0.591492
    39 -1.125000 -6.468752 0.000000 0.000000 0.000000 0.224968
    40 -1.359375 -6.125002 0.000000 0.000000 0.000000 0.687471
    41 10.453131 -11.515625 0.062500 0.000000 0.000000 2.809806
    42 8.265629 10.390621 0.000000 0.000000 0.000000 0.626399
    43 8.703126 -14.375008 0.062500 0.000000 0.000000 2.914526
    44 0.000000 -0.000004 0.000000 0.000000 0.000000 0.000000
    45 5.687500 4.937504 0.000000 0.000000 0.000000 0.000000
    46 5.374996 -1.375000 0.000000 0.000000 0.268606 -1.492082
    47 7.531252 -0.000004 0.000000 0.000000 0.111517 0.120253
    48 9.437498 0.000000 0.000000 0.000000 0.198791 0.146433
  time 13
    0 0.480550 0.484390 47.121107 0.029494 0.172602 -1.455779
    1 0.082027 1.230554 0.000004 0.000000 -1.570622 -1.570622
    2 0.000004 0.000000 9.031251 3.138274 0.066496 3.230428
    3 21.093748 0.000001 0.000000 0.000000 0.000000 -1.137790
    4 13.093752 -0.000002 0.000000 0.000000 0.000000 0.980711
    5 9.734375 0.000000 0.000000 -0.111535 -0.020765 0.020744
    6 11.265626 12.984377 -4.140625 0.115016 0.244181 2.020903
    7 11.265625 12.890627 -0.203125 0.012033 0.031249 1.970290
    8 11.265626 13.109377 3.593750 -0.060906 -0.142948 1.975528
    9 0.000000 0.000000 -9.031251 3.136523 0.031583 -3.795882
    10 21.093750 -0.000002 0.000000 0.000000 0.000000 -1.357672
    11 13.093750 0.000002 0.000000 0.000000 0.000000 0.334951
    12 9.734373 0.000000 -0.000001 0.169125 -0.006802 0.535639
    13 11.265622 12.999998 4.562498 0.015529 -0.216235 1.488600
    14 11.265622 12.843750 0.249998 -0.000002 -0.059160 1.588080
    15 11.265622 13.140625 -3.375000 0.001579 0.137703 1.588086
    16 -2.140625 0.625000 0.000000 0.000000 -0.026012 1.507790
    17 10.500002 -0.000008 0.000000 0.000000 0.141186 0.087097
    18 14.734376 -0.000004 0.000000 0.000000 0.083599 0.097570
    19 14.011723 -0.000004 0.000000 0.000000 0.000000 -0.033002
    20 3.468750 0.000000 0.000000 0.027760 -0.106283 0.038237
    21 -5.300696 9.949286 4.421876 -0.000001 -1.553169 -3.104763
    22 4.531252 0.000004 -0.000002 -1.586673 -0.075183 -1.577934
    23 15.218755 0.000002 0.000000 0.000000 0.000000 -1.102883
    24 13.187500 -0.000003 0.000000 0.020768 -0.071394 -0.635144
    25 11.531253 -0.000004 -4.359379 -0.000011 0.111519 -0.008579
    26 11.468754 -0.000004 -0.593752 0.000004 -0.102799 -0.006823
    27 11.468754 -0.000002 3.750001 0.000012 -0.233699 -0.006844
    28 -5.300694 9.949286 -4.843751 -0.000001 1.553169 -3.108254
    29 4.531251 0.000000 -0.000002 1.225053 -1.195376 -1.195399
    30 15.218751 0.000000 0.000000 0.000000 0.000000 -1.588049
    31 13.187508 0.000000 0.000000 0.008545 0.005053 -0.881217
    32 11.531254 0.000000 4.359376 0.008552 -0.128980 -0.069639
    33 11.531254 0.000000 0.578125 -0.005061 0.128980 -0.069639
    34 3.890625 0.000000 -0.000001 0.000000 0.000000 0.329700
    35 11.593754 0.000000 -3.765627 -0.012043 0.242426 -0.069639
    36 4.465282 7.918106 0.003905 0.000000 0.000000 2.949432
    37 0.062500 -0.921875 0.000000 0.000000 0.000000 -0.565312
    38 -1.125004 -6.468750 0.000000 0.000000 0.000000 0.572286
    39 -1.125000 -6.468752 0.000000 0.000000 0.000000 0.123737
    40 -1.359375 -6.125002 0.000000 0.000000 0.000000 0.546110
    41 10.453131 -11.515625 0.062500 0.001570 0.003308 2.813295
    42 8.292973 10.433591 -0.027344 0.000000 0.000000 0.628137
    43 8.703126 -14.375008 0.062500 0.000000 0.001570 2.918005
    44 0.000000 -0.000004 0.000000 0.000000 0.000000 0.000000
    45 5.703125 4.980474 0.000000 0.000000 0.000000 0.000000
    46 5.374996 -1.375000 0.000000 0.000000 0.265111 -1.502545
    47 7.531252 -0.000004 0.000000 0.000000 0.104542 0.109790
    48 9.437498 0.000000 0.000000 0.000000 0.183081 0.130733
  time 14
    0 0.386797 0.117191 47.621123 0.027744 0.176101 -1.464543
    1 0.035150 0.996172 0.000004 0.000000 -1.570622 -1.570622
    2 0.000004 0.000000 9.031251 3.134775 0.076958 3.249622
    3 21.093748 0.000001 0.000000 0.000000 0.000000 -1.268673
    4 13.093752 -0.000002 0.000000 0.000000 0.000000 1.158729
    5 9.734375 0.000000 0.000000 0.003313 0.066147 -0.174362
    6 11.265626 12.984377 -4.140625 0.115016 0.244181 2.020903
    7 11.265625 12.890627 -0.203125 0.012033 0.031249 1.970290
    8 11.265626 13.109377 3.593750 -0.060906 -0.142948 1.975528
    9 0.000000 0.000000 -9.031251 3.143163 0.017621 -3.691189
    10 21.093750 -0.000002 0.000000 0.000000 0.000000 -1.293108
    11 13.093750 0.000002 0.000000 0.000000 0.000000 0.380320
    12 9.734373 0.000000 -0.000001 0.153426 -0.022514 0.532139
    13 11.265622 12.999998 4.562498 0.015529 -0.216235 1.488600
    14 11.265622 12.843750 0.249998 -0.000002 -0.059160 1.588080
    15 11.265622 13.140625 -3.375000 0.001579 0.137703 1.588086
    16 -2.140625 0.625000 0.000000 0.000000 -0.027762 1.507790
    17 10.500002 -0.000008 0.000000 0.000000 0.125486 0.073135
    18 14.734376 -0.000004 0.000000 0.000000 0.069637 0.080120
    19 14.011723 -0.000004 0.000000 0.000000 0.000000 -0.003327
    20 3.468750 0.000000 0.000000 0.027760 -0.095809 0.026020
    21 -4.988186 10.105541 4.421876 -0.000001 -1.553169 -3.136172
    22 4.531252 0.000004 -0.000002 -1.576187 0.054308 -1.591906
    23 15.218755 0.000002 0.000000 0.000000 0.000000 -1.066265
    24 13.187500 -0.000003 0.000000 0.027750 -0.057432 -0.771236
    25 11.531253 -0.000004 -4.359379 -0.000011 0.111519 -0.008579
    26 11.468754 -0.000004 -0.593752 0.000004 -0.102799 -0.006823
    27 11.468754 -0.000002 3.750001 0.000012 -0.233699 -0.006844
    28 -4.988184 10.105541 -4.843751 -0.000001 1.553169 -3.139663
    29 4.531251 0.000000 -0.000002 1.373410 -1.108100 -1.357707
    30 15.218751 0.000000 0.000000 0.000000 0.000000 -1.839397
    31 13.187508 0.000000 0.000000 0.003310 0.001566 -0.909137
    32 11.531254 0.000000 4.359376 -0.013787 -0.128980 0.121988
    33 11.531254 0.000000 0.578125 0.017278 0.128980 0.121988
    34 3.890625 0.000000 -0.000001 0.000000 0.000000 0.329700
    35 11.593754 0.000000 -3.765627 0.032983 0.240688 0.125484
    36 4.371529 7.668098 0.003905 0.000000 0.000000 2.949432
    37 0.062500 -0.921875 0.000000 0.000000 0.000000 -0.565333
    38 -1.125004 -6.468750 0.000000 0.000000 0.000000 0.525153
    39 -1.125000 -6.468752 0.000000 0.000000 0.000000 0.003306
    40 -1.359375 -6.125002 0.000000 0.000000 0.000000 0.224961
    41 10.453131 -11.515625 0.062500 0.005057 0.010295 2.825513
    42 8.386726 10.652348 -0.105472 0.000000 0.000000 0.631624
    43 8.703126 -14.375008 0.062500 0.000000 0.008545 2.933721
    44 0.000000 -0.000004 0.000000 0.000000 0.000000 0.000000
    45 5.777346 5.121103 0.000000 0.000000 0.000000 0.000000
    46 5.374996 -1.375000 0.000000 0.000000 0.254641 -1.523494
    47 7.515626 -0.000004 0.000000 0.000000 0.088830 0.088841
    48 9.437498 0.000000 0.000000 0.000000 0.149910 0.097572
  time 15
    0 0.246168 -0.230476 48.308644 0.025995 0.176101 -1.475015
    1 0.003899 0.683663 0.000004 0.000000 -1.570622 -1.570622
    2 0.000004 0.000000 9.031251 3.131287 0.078708 3.211204
    3 21.093748 0.000001 0.000000 0.000000 0.000000 -1.422257
    4 13.093752 -0.000002 0.000000 0.000000 0.000000 1.322789
    5 9.734375 0.000000 0.000000 -0.008564 0.069635 -0.429183
    6 11.265626 12.984377 -4.140625 0.130716 0.235457 2.082003
    7 11.265625 12.890627 -0.203125 0.013782 0.029499 2.031389
    8 11.265626 13.109377 3.593750 -0.069630 -0.139460 2.036625
    9 0.000000 0.000000 -9.031251 3.151888 -0.001926 -3.575995
    10 21.093750 -0.000002 0.000000 0.000000 0.000000 -1.183118
    11 13.093750 0.000002 0.000000 0.000000 0.000000 0.394280
    12 9.734373 0.000000 -0.000001 0.130727 -0.036476 0.525156
    13 11.265622 12.999998 4.562498 0.015529 -0.216235 1.488600
    14 11.265622 12.843750 0.249998 -0.000002 -0.059160 1.588080
    15 11.265622 13.140625 -3.375000 0.001579 0.137703 1.588086
    16 -2.140625 0.625000 0.000000 0.000000 -0.029499 1.507790
    17 10.500002 -0.000008 0.000000 0.000000 0.102799 0.057423
    18 14.734376 -0.000004 0.000000 0.000000 0.052176 0.055683
    19 14.011723 -0.000004 0.000000 0.000000 0.000000 0.022500
    20 3.468750 0.000000 0.000000 0.027760 -0.067885 0.031247
    21 -4.706927 10.230544 4.421876 -0.000001 -1.553169 -3.164447
    22 4.531252 0.000004 -0.000002 -1.547906 0.142969 -1.591551
    23 15.218755 0.000002 0.000000 0.000000 0.000000 -0.923106
    24 13.187500 -0.000003 0.000000 0.029485 -0.050445 -0.964990
    25 11.531253 -0.000004 -4.359379 -0.000011 0.111519 -0.008579
    26 11.468754 -0.000004 -0.593752 0.000004 -0.102799 -0.006823
    27 11.468754 -0.000002 3.750001 0.000012 -0.233699 -0.006844
    28 -4.706926 10.230544 -4.843751 -0.000001 1.553169 -3.167938
    29 4.531251 0.000000 -0.000002 1.523516 -0.907361 -1.546193
    30 15.218751 0.000000 0.000000 0.000000 0.000000 -1.909211
    31 13.187508 0.000000 0.000000 0.005051 -0.000004 -0.746806
    32 11.531254 0.000000 4.359376 -0.041711 -0.122005 0.341907
    33 11.531254 0.000000 0.578125 0.045202 0.122005 0.341907
    34 3.890625 0.000000 -0.000001 0.000000 0.000000 0.329700
    35 11.593754 0.000000 -3.765627 0.085344 0.228464 0.348879
    36 4.152772 7.293087 0.003905 0.000000 0.000000 2.949432
    37 0.062500 -0.921875 0.000000 0.000000 0.000000 -0.565333
    38 -1.125004 -6.468750 0.000000 0.000000 0.000000 0.458832
    39 -1.125000 -6.468752 0.000000 0.000000 0.000000 -0.104538
    40 -1.359375 -6.125002 0.000000 0.000000 0.000000 -0.151657
    41 10.453131 -11.515625 0.062500 0.010295 0.020757 2.841221
    42 8.527356 10.933607 -0.199225 0.000000 0.000000 0.633374
    43 8.703126 -14.375008 0.062500 0.000000 0.015532 2.951170
    44 0.000000 -0.000004 0.000000 0.000000 0.000000 0.000000
    45 5.855474 5.292983 0.000000 0.000000 0.000000 0.000000
    46 5.374996 -1.375000 0.000000 0.000000 0.242417 -1.549668
    47 7.515626 -0.000004 0.000000 0.000000 0.067881 0.062667
    48 9.437498 0.000000 0.000000 0.000000 0.109769 0.057423
  time 16
    0 0.105539 -0.535173 49.230547 0.022507 0.176101 -1.488960
    1 -0.027352 0.277400 0.000004 0.000000 -1.570622 -1.570622
    2 0.000004 0.000000 9.031251 3.108612 0.096158 3.063197
    3 21.093748 0.000001 0.000000 0.000000 0.000000 -1.965041
    4 13.093752 -0.000002 0.000000 0.000000 0.000000 1.471154
    5 9.734375 0.000000 0.000000 -0.001576 0.092321 -0.080115
    6 11.265626 12.984377 -4.140625 0.127228 0.237194 2.068035
    7 11.265625 12.890627 -0.203125 0.013782 0.029499 2.017426
    8 11.265626 13.109377 3.593750 -0.067893 -0.141198 2.022659
    9 0.000000 0.000000 -9.031251 3.158863 -0.017625 -3.448562
    10 21.093750 -0.000002 0.000000 0.000000 0.000000 -1.017311
    11 13.093750 0.000002 0.000000 0.000000 0.000000 0.362871
    12 9.734373 0.000000 -0.000001 0.163888 -0.048688 0.518173
    13 11.265622 12.999998 4.562498 0.015529 -0.216235 1.488600
    14 11.265622 12.843750 0.249998 -0.000002 -0.059160 1.588080
    15 11.265622 13.140625 -3.375000 0.001579 0.137703 1.588086
    16 -2.140625 0.625000 0.000000 0.000000 -0.031249 1.507790
    17 10.500002 -0.000008 0.000000 0.000000 0.074875 0.039973
    18 14.734376 -0.000004 0.000000 0.000000 0.027751 0.026010
    19 14.011723 -0.000004 0.000000 0.000000 0.000000 0.041698
    20 3.468750 0.000000 0.000000 0.031246 -0.027748 0.053933
    21 -4.519422 10.324297 4.421876 -0.000001 -1.553169 -3.183644
    22 4.531252 0.000004 -0.000002 -1.509503 0.158699 -1.588066
    23 15.218755 0.000002 0.000000 0.000000 0.000000 -0.624694
    24 13.187500 -0.000003 0.000000 0.027750 -0.052195 -1.230272
    25 11.531253 -0.000004 -4.359379 -0.000011 0.111519 -0.008579
    26 11.468754 -0.000004 -0.593752 0.000004 -0.102799 -0.006823
    27 11.468754 -0.000002 3.750001 0.000012 -0.233699 -0.006844
    28 -4.519420 10.324297 -4.843751 -0.000001 1.553169 -3.187134
    29 4.531251 0.000000 -0.000002 1.607634 -0.794289 -1.609376
    30 15.218751 0.000000 0.000000 0.000000 0.000000 -1.842866
    31 13.187508 0.000000 0.000000 0.006804 -0.000004 -0.877715
    32 11.531254 0.000000 4.359376 0.019015 -0.128980 -0.148175
    33 11.531254 0.000000 0.578125 -0.015524 0.128980 -0.148175
    34 3.890625 0.000000 -0.000001 0.000000 0.000000 0.329700
    35 11.593754 0.000000 -3.765627 -0.032980 0.240688 -0.151658
    36 3.871514 6.683693 0.019531 0.000000 0.000000 2.949432
    37 0.062500 -0.921875 0.000000 0.000000 0.000000 -0.565333
    38 -1.125004 -6.468750 0.000000 0.000000 0.000000 0.390778
    39 -1.125000 -6.468752 0.000000 0.000000 0.000000 -0.174342
    40 -1.359375 -6.125002 0.000000 0.000000 0.000000 -0.467558
    41 10.453131 -11.515625 0.062500 0.015532 0.031232 2.851688
    42 8.636734 11.136738 -0.324229 0.000000 0.000000 0.636861
    43 8.703126 -14.375008 0.062500 0.001570 0.024257 2.961648
    44 0.000000 -0.000004 0.000000 0.000000 0.000000 0.000000
    45 5.917976 5.417987 0.000000 0.000000 0.000000 0.000000
    46 5.374996 -1.375000 0.000000 0.000000 0.224971 -1.579342
    47 7.519533 -0.000004 0.000000 0.000000 0.045194 0.034743
    48 9.437498 0.000000 0.000000 0.000000 0.060907 0.012050
  time 17
    0 -0.003840 -0.789087 50.121199 0.019020 0.176101 -1.508142
    1 -0.042977 -0.050735 0.000004 0.000000 -1.570622 -1.570622
    2 0.000004 0.000000 9.031251 3.089413 0.097907 2.911382
    3 21.093748 0.000001 0.000000 0.000000 0.000000 -2.143090
    4 13.093752 -0.000002 0.000000 0.000000 0.000000 1.628210
    5 9.734375 0.000000 0.000000 0.043450 0.092321 0.256374
    6 11.265626 12.984377 -4.140625 0.123741 0.238944 2.052319
    7 11.265625 12.890627 -0.203125 0.013782 0.031249 2.001704
    8 11.265626 13.109377 3.593750 -0.064393 -0.141198 2.006944
    9 0.000000 0.000000 -9.031251 3.158863 -0.029838 -3.307221
    10 21.093750 -0.000002 0.000000 0.000000 0.000000 -0.804390
    11 13.093750 0.000002 0.000000 0.000000 0.000000 0.296533
    12 9.734373 0.000000 -0.000001 0.160401 -0.057413 0.512948
    13 11.265622 12.999998 4.562498 0.015529 -0.216235 1.488600
    14 11.265622 12.843750 0.249998 -0.000002 -0.059160 1.588080
    15 11.265622 13.140625 -3.375000 0.001579 0.137703 1.588086
    16 -2.140625 0.625000 0.000000 0.000000 -0.032987 1.507790
    17 10.500002 -0.000008 0.000000 0.000000 0.052176 0.026011
    18 14.734376 -0.000004 0.000000 0.000000 0.005052 0.000003
    19 14.015629 -0.000004 0.000000 0.000000 0.000000 0.055667
    20 3.468750 0.000000 0.000000 0.034732 0.006815 0.074888
    21 -4.363167 10.386799 4.421876 -0.000001 -1.553169 -3.199348
    22 4.531252 0.000004 -0.000002 -1.472853 0.001594 -1.593294
    23 15.218755 0.000002 0.000000 0.000000 0.000000 -0.001619
    24 13.187500 -0.000003 0.000000 0.019020 -0.060920 -1.600273
    25 11.531253 -0.000004 -4.359379 -0.015543 0.111519 -0.139461
    26 11.468754 -0.000004 -0.593752 0.012049 -0.102799 -0.139461
    27 11.468754 -0.000002 3.750001 0.029506 -0.231950 -0.141208
    28 -4.363165 10.386799 -4.843751 -0.000001 1.553169 -3.202839
    29 4.531251 0.000000 -0.000002 1.654746 -0.515035 -1.633828
    30 15.218751 0.000000 0.000000 0.000000 0.000000 -1.738145
    31 13.187508 0.000000 0.000000 0.008545 -0.001574 -0.664766
    32 11.531254 0.000000 4.359376 0.019015 -0.128980 -0.148175
    33 11.531254 0.000000 0.578125 -0.015524 0.128980 -0.148175
    34 3.890625 0.000000 -0.000001 0.000000 0.000000 0.329700
    35 11.593754 0.000000 -3.765627 -0.032980 0.240688 -0.151658
    36 3.590255 5.793041 0.035156 0.000000 0.000000 2.949432
    37 0.062500 -0.921875 0.000000 0.000000 0.000000 -0.565333
    38 -1.125004 -6.468750 0.000000 0.000000 0.000000 0.329692
    39 -1.125000 -6.468752 0.000000 0.000000 0.000000 -0.172610
    40 -1.359375 -6.125002 0.000000 0.000000 0.000000 -0.600211
    41 10.453131 -11.515625 0.062500 0.022507 0.043456 2.855177
    42 8.667985 11.183614 -0.433607 0.000000 0.000000 0.636861
    43 8.703126 -14.375008 0.062500 0.001570 0.032982 2.959902
    44 0.000000 -0.000004 0.000000 0.000000 0.000000 0.000000
    45 5.902350 5.386736 0.000000 0.000000 0.000000 0.000000
    46 5.374996 -1.375000 0.000000 0.000000 0.205772 -1.610754
    47 7.519533 -0.000004 0.000000 0.000000 0.019020 0.001582
    48 9.437498 0.000000 0.000000 0.000000 0.005056 -0.036476
  time 18
    0 -0.003840 -0.546892 50.558712 0.015532 0.174351 -1.529087
    1 -0.027352 -0.206989 0.000004 0.000000 -1.570622 -1.570622
    2 0.000004 0.000000 9.031251 3.077201 0.082196 2.728126
    3 21.093748 0.000001 0.000000 0.000000 0.000000 -1.987741
    4 13.093752 -0.000002 0.000000 0.000000 0.000000 1.451956
    5 9.734375 0.000000 0.000000 0.060911 0.074872 0.324457
    6 11.265626 12.984377 -4.140625 0.118504 0.242432 2.034871
    7 11.265625 12.890627 -0.203125 0.013782 0.031249 1.984253
    8 11.265626 13.109377 3.593750 -0.062655 -0.142948 1.989494
    9 0.000000 0.000000 -9.031251 3.157125 -0.031587 -3.193766
    10 21.093750 -0.000002 0.000000 0.000000 0.000000 -0.633386
    11 13.093750 0.000002 0.000000 0.000000 0.000000 0.254654
    12 9.734373 0.000000 -0.000001 0.183087 -0.053925 0.495498
    13 11.265622 12.999998 4.562498 0.015529 -0.216235 1.488600
    14 11.265622 12.843750 0.249998 -0.000002 -0.059160 1.588080
    15 11.265622 13.140625 -3.375000 0.001579 0.137703 1.588086
    16 -2.140625 0.625000 0.000000 0.000000 -0.032987 1.507790
    17 10.500002 -0.000008 0.000000 0.000000 0.043451 0.029499
    18 14.734376 -0.000004 0.000000 0.000000 -0.017287 -0.032979
    19 14.015629 -0.000004 0.000000 0.000000 0.000000 0.066143
    20 3.468750 0.000000 0.000000 0.039968 0.022515 0.090584
    21 -4.253789 10.433676 4.421876 -0.000001 -1.553169 -3.209824
    22 4.531252 0.000004 -0.000002 -1.443183 0.101104 -1.570609
    23 15.218755 0.000002 0.000000 0.000000 0.000000 -0.001619
    24 13.187500 -0.000003 0.000000 -0.003321 -0.080119 -1.528714
    25 11.531253 -0.000004 -4.359379 -0.036480 0.106282 -0.333188
    26 11.468754 -0.000004 -0.593752 0.031248 -0.099299 -0.331470
    27 11.468754 -0.000002 3.750001 0.073130 -0.223225 -0.338450
    28 -4.253787 10.433676 -4.843751 -0.000001 1.553169 -3.213314
    29 4.531251 0.000000 -0.000002 1.670433 -0.124080 -1.625077
    30 15.218751 0.000000 0.000000 0.000000 0.000000 -1.312295
    31 13.187508 0.000000 0.000000 -0.046954 -0.076610 -0.614178
    32 11.531254 0.000000 4.359376 0.019015 -0.128980 -0.148175
    33 11.531254 0.000000 0.578125 -0.015524 0.128980 -0.148175
    34 3.890625 0.000000 -0.000001 0.000000 0.000000 0.329700
    35 11.593754 0.000000 -3.765627 -0.032980 0.240688 -0.151658
    36 3.340248 4.511752 0.050781 0.000000 0.000000 2.949432
    37 0.062500 -0.921875 0.000000 0.000000 0.000000 -0.565333
    38 -1.125004 -6.468750 0.000000 0.000000 0.000000 0.329692
    39 -1.125000 -6.468752 0.000000 0.000000 0.000000 -0.010296
    40 -1.359375 -6.125002 0.000000 0.000000 0.000000 -0.280804
    41 10.453131 -11.515625 0.062500 0.025995 0.053931 2.842959
    42 8.558607 10.996108 -0.511734 0.001570 0.000000 0.635124
    43 8.703126 -14.375008 0.062500 0.000000 0.041706 2.937214
    44 0.000000 -0.000004 0.000000 0.000000 0.000000 0.000000
    45 5.792972 5.167980 0.000000 0.000000 0.000000 0.000000
    46 5.374996 -1.375000 0.000000 0.000000 0.179582 -1.645665
    47 7.519533 -0.000004 0.000000 0.000000 -0.008557 -0.029494
    48 9.437498 0.000000 0.000000 0.000000 -0.052195 -0.088837
  time 19
    0 -0.003840 -1.101596 49.918068 0.012033 0.172602 -1.553559
    1 -0.042977 -0.363244 0.000004 0.000000 -1.570622 -1.570622
    2 0.000004 0.000000 9.031251 3.082426 0.073471 2.670544
    3 21.093748 0.000001 0.000000 0.000000 0.000000 -2.069774
    4 13.093752 -0.000002 0.000000 0.000000 0.000000 1.643906
    5 9.734375 0.000000 0.000000 0.057412 0.062648 0.233697
    6 11.265626 12.984377 -4.140625 0.115016 0.244181 2.020903
    7 11.265625 12.890627 -0.203125 0.012033 0.031249 1.970290
    8 11.265626 13.109377 3.593750 -0.060906 -0.142948 1.975528
    9 0.000000 0.000000 -9.031251 3.151888 -0.031587 -3.082397
    10 21.093750 -0.000002 0.000000 0.000000 0.000000 -0.542666
    11 13.093750 0.000002 0.000000 0.000000 0.000000 0.270359
    12 9.734373 0.000000 -0.000001 0.195312 -0.048688 0.500723
    13 11.265622 12.999998 4.562498 0.015529 -0.216235 1.488600
    14 11.265622 12.843750 0.249998 -0.000002 -0.059160 1.588080
    15 11.265622 13.140625 -3.375000 0.001579 0.137703 1.588086
    16 -2.140625 0.625000 0.000000 0.000000 -0.032987 1.507790
    17 10.500002 -0.000008 0.000000 0.000000 0.032977 0.060922
    18 14.734376 -0.000004 0.000000 0.000000 -0.032987 -0.032979
    19 14.015629 -0.000004 0.000000 0.000000 0.000000 0.060896
    20 3.468750 0.000000 0.000000 0.043454 0.029490 0.069645
    21 -4.316290 10.402425 4.421876 -0.000001 -1.553169 -3.202840
    22 4.531252 0.000004 -0.000002 -1.417019 0.333211 -1.514754
    23 15.218755 0.000002 0.000000 0.000000 0.000000 -0.382097
    24 13.187500 -0.000003 0.000000 -0.039977 -0.088844 -1.430990
    25 11.531253 -0.000004 -4.359379 -0.031243 0.108031 -0.287830
    26 11.468754 -0.000004 -0.593752 0.026011 -0.099299 -0.287830
    27 11.468754 -0.000002 3.750001 0.064405 -0.224962 -0.294799
    28 -4.316289 10.402425 -4.843751 -0.000001 1.553169 -3.206331
    29 4.531251 0.000000 -0.000002 1.698361 0.117140 -1.646028
    30 15.218751 0.000000 0.000000 0.000000 0.000000 -0.952789
    31 13.187508 0.000000 0.000000 -0.062659 -0.120246 -0.867241
    32 11.531254 0.000000 4.359376 0.019015 -0.128980 -0.148175
    33 11.531254 0.000000 0.578125 -0.015524 0.128980 -0.148175
    34 3.890625 0.000000 -0.000001 0.000000 0.000000 0.329700
    35 11.593754 0.000000 -3.765627 -0.032980 0.240688 -0.151658
    36 3.168367 2.800762 0.062501 0.000000 0.000000 2.949432
    37 0.062500 -0.921875 0.000000 0.000000 0.000000 -0.565333
    38 -1.125004 -6.468750 0.000000 0.000000 0.000000 0.329692
    39 -1.125000 -6.468752 0.000000 0.000000 0.000000 0.289535
    40 -1.359375 -6.125002 0.000000 0.000000 0.000000 0.324456
    41 10.453131 -11.515625 0.062500 0.029494 0.066143 2.823763
    42 8.375007 10.609378 -0.574236 0.001570 0.000000 0.629886
    43 8.703126 -14.375008 0.062500 0.000000 0.050431 2.898823
    44 0.000000 -0.000004 0.000000 0.000000 0.000000 0.000000
    45 5.628904 4.785155 0.000000 0.000000 0.000000 0.000000
    46 5.374996 -1.375000 0.000000 0.000000 0.146432 -1.666614
    47 7.519533 -0.000004 0.000000 0.000000 -0.032993 -0.052181
    48 9.437498 0.000000 0.000000 0.000000 -0.102809 -0.121998
  time 20
    0 -0.003840 -0.828150 49.152419 0.008545 0.163877 -1.589827
    1 -0.011726 -0.785132 0.000004 0.000000 -1.570622 -1.570622
    2 0.000004 0.000000 9.031251 3.103375 0.061259 2.754327
    3 21.093748 0.000001 0.000000 0.000000 0.000000 -1.809719
    4 13.093752 -0.000002 0.000000 0.000000 0.000000 1.666605
    5 9.734375 0.000000 0.000000 -0.003326 0.032998 0.272078
    6 11.265626 12.984377 -4.140625 0.078355 0.258143 1.872563
    7 11.265625 12.890627 -0.203125 0.008545 0.032987 1.827182
    8 11.265626 13.109377 3.593750 -0.039957 -0.149935 1.830666
    9 0.000000 0.000000 -9.031251 3.146650 -0.029838 -3.031806
    10 21.093750 -0.000002 0.000000 0.000000 0.000000 -0.530412
    11 13.093750 0.000002 0.000000 0.000000 0.000000 0.254654
    12 9.734373 0.000000 -0.000001 0.188325 -0.041701 0.546105
    13 11.265622 12.999998 4.562498 0.015529 -0.216235 1.488600
    14 11.265622 12.843750 0.249998 -0.000002 -0.059160 1.588080
    15 11.265622 13.140625 -3.375000 0.001579 0.137703 1.588086
    16 -2.140625 0.625000 0.000000 0.000000 -0.032987 1.507790
    17 10.500002 -0.000008 0.000000 0.000000 -0.005062 0.108046
    18 14.734376 -0.000004 0.000000 0.000000 -0.032987 0.019035
    19 14.015629 -0.000004 0.000000 0.000000 0.000000 -0.053937
    20 3.468750 0.000000 0.000000 0.043454 0.032978 0.122008
    21 -5.503827 9.839908 4.421876 -0.000001 -1.553169 -3.083812
    22 4.531252 0.000004 -0.000002 -1.394327 0.401260 -1.464125
    23 15.218755 0.000002 0.000000 0.000000 0.000000 -0.636884
    24 13.187500 -0.000003 0.000000 -0.031247 -0.113280 -1.474628
    25 11.531253 -0.000004 -4.359379 -0.001581 0.111519 -0.019041
    26 11.468754 -0.000004 -0.593752 0.000004 -0.102799 -0.019041
    27 11.468754 -0.000002 3.750001 0.000012 -0.233699 -0.019055
    28 -5.503825 9.839908 -4.843751 -0.000001 1.553169 -3.087302
    29 4.531251 0.000000 -0.000002 1.712325 0.506284 -1.665230
    30 15.218751 0.000000 0.000000 0.000000 0.000000 -0.416984
    31 13.187508 0.000000 0.000000 -0.111527 -0.059160 -1.060962
    32 11.531254 0.000000 4.359376 0.006814 -0.128980 -0.053935
    33 11.531254 0.000000 0.578125 -0.003323 0.128980 -0.053935
    34 3.890625 0.000000 -0.000001 0.000000 0.000000 0.341912
    35 11.593754 0.000000 -3.765627 -0.008556 0.242426 -0.055682
    36 3.137116 0.535068 0.089845 0.000000 0.000000 2.949432
    37 0.062500 -0.921875 0.000000 0.000000 0.000000 -0.565333
    38 -1.125004 -6.468750 0.000000 0.000000 0.000000 0.329692
    39 -1.125000 -6.468752 0.000000 0.000000 0.000000 0.591478
    40 -1.359375 -6.125002 0.000000 0.000000 0.000000 0.678740
    41 10.453131 -11.515625 0.062500 0.034731 0.078355 2.799339
    42 8.187501 10.175771 -0.636738 0.003308 0.000000 0.624661
    43 8.703126 -14.375008 0.062500 -0.003308 0.060906 2.855194
    44 0.000000 -0.000004 0.000000 0.000000 0.000000 0.000000
    45 5.488275 4.332017 0.011719 0.000000 0.000000 0.000000
    46 5.374996 -1.375000 0.000000 0.000000 0.076608 -1.633452
    47 7.519533 -0.000004 0.000000 0.000000 -0.032993 -0.027745
    48 9.437498 0.000000 0.000000 0.000000 -0.102809 -0.085337
  time 21
    0 -0.003840 -1.382855 48.402397 0.001570 0.149915 -1.649190
    1 0.082027 -1.253896 0.000004 0.000000 -1.570622 -1.570622
    2 0.000004 0.000000 9.031251 3.122574 0.047297 2.845057
    3 21.093748 0.000001 0.000000 0.000000 0.000000 -1.507765
    4 13.093752 -0.000002 0.000000 0.000000 0.000000 1.659626
    5 9.734375 0.000000 0.000000 -0.083611 0.024261 -0.066168
    6 11.265626 12.984377 -4.140625 0.039957 0.266868 1.724206
    7 11.265625 12.890627 -0.203125 0.003308 0.032987 1.684059
    8 11.265626 13.109377 3.593750 -0.017270 -0.155160 1.685803
    9 0.000000 0.000000 -9.031251 3.146650 -0.022863 -3.211221
    10 21.093750 -0.000002 0.000000 0.000000 0.000000 -1.179654
    11 13.093750 0.000002 0.000000 0.000000 0.000000 0.671786
    12 9.734373 0.000000 -0.000001 0.155163 0.003325 0.313971
    13 11.265622 12.999998 4.562498 -0.027760 -0.214498 1.703280
    14 11.265622 12.843750 0.249998 -0.012046 -0.059160 1.797538
    15 11.265622 13.140625 -3.375000 0.031252 0.134215 1.799268
    16 -2.140625 0.625000 0.000000 0.000000 -0.032987 1.507790
    17 10.500002 -0.000008 0.000000 0.000000 -0.052186 0.162144
    18 14.734376 -0.000004 0.000000 0.000000 -0.032987 0.088845
    19 14.000004 -0.000004 0.000000 0.000000 0.000000 -0.254654
    20 3.468750 0.000000 0.000000 0.038218 0.031240 0.280828
    21 -7.363258 8.542993 4.421876 -0.000001 -1.553169 -2.883109
    22 4.531252 0.000004 -0.000002 -1.380369 0.406487 -1.413530
    23 15.218755 0.000002 0.000000 0.000000 0.000000 -0.746833
    24 13.187500 -0.000003 0.000000 -0.057424 -0.155167 -1.512996
    25 11.531253 -0.000004 -4.359379 -0.003319 0.111519 -0.031258
    26 11.468754 -0.000004 -0.593752 0.000004 -0.102799 -0.031258
    27 11.468754 -0.000002 3.750001 0.003319 -0.233699 -0.031267
    28 -7.363257 8.542993 -4.843751 -0.000001 1.553169 -2.886582
    29 4.531251 0.000000 -0.000002 1.694863 0.426007 -1.733308
    30 15.218751 0.000000 0.000000 0.000000 0.000000 -0.806193
    31 13.187508 0.000000 0.000000 -0.197054 -0.039961 -0.643849
    32 11.531254 0.000000 4.359376 -0.005051 -0.128980 0.048692
    33 11.531254 0.000000 0.578125 0.008541 0.128980 0.050433
    34 3.890625 0.000000 -0.000001 0.000000 0.000000 0.354136
    35 11.593754 0.000000 -3.765627 0.015522 0.242426 0.050428
    36 3.215244 -2.199390 0.136722 0.000000 0.000000 2.949432
    37 0.062500 -0.921875 0.000000 0.000000 0.000000 -0.565312
    38 -1.125004 -6.468750 0.000000 0.000000 0.000000 0.329692
    39 -1.125000 -6.468752 0.000000 0.000000 0.000000 0.591478
    40 -1.359375 -6.125002 0.000000 0.000000 0.000000 -0.399501
    41 10.453131 -11.515625 0.062500 0.038219 0.090580 2.776653
    42 8.035153 9.753883 -0.683614 0.005057 -0.001570 0.617674
    43 8.703126 -14.375008 0.062500 -0.005057 0.069630 2.815043
    44 0.000000 -0.000004 0.000000 0.000000 0.000000 0.000000
    45 5.410148 3.894503 0.027345 0.000000 0.000000 0.000000
    46 5.374996 -1.375000 0.000000 0.000000 -0.031244 -1.553168
    47 7.519533 -0.000004 0.000000 0.000000 -0.032993 0.055680
    48 9.437498 0.000000 0.000000 0.000000 -0.102809 0.045211
  time 22
    0 -0.003840 -2.183660 46.671875 0.000000 0.120253 -1.691080
    1 0.218750 -1.578125 0.000004 0.000000 -1.570622 -1.570622
    2 0.000004 0.000000 9.031251 3.129550 0.038572 2.838080
    3 21.093748 0.000001 0.000000 0.000000 0.000000 -1.266935
    4 13.093752 -0.000002 0.000000 0.000000 0.000000 1.607274
    5 9.734375 0.000000 0.000000 -0.141197 0.038223 -0.521854
    6 11.265626 12.984377 -4.140625 0.000000 0.268606 1.570622
    7 11.265625 12.890627 -0.203125 0.000000 0.032987 1.570622
    8 11.265626 13.109377 3.593750 0.000000 -0.155160 1.570622
    9 0.000000 0.000000 -9.031251 3.134786 -0.008901 -2.745578
    10 21.093750 -0.000002 0.000000 0.000000 0.000000 -0.788714
    11 13.093750 0.000002 0.000000 0.000000 0.000000 0.713665
    12 9.734373 0.000000 -0.000001 0.286059 0.146433 0.073129
    13 11.265622 12.999998 4.562498 -0.090583 -0.197048 2.006954
    14 11.265622 12.843750 0.249998 -0.029496 -0.052185 2.094221
    15 11.265622 13.140625 -3.375000 0.069639 0.120253 2.097711
    16 -2.140625 0.625000 0.000000 0.000000 -0.032987 1.507790
    17 10.500002 -0.000008 0.000000 0.000000 -0.085347 0.198793
    18 14.734376 -0.000004 0.000000 0.000000 -0.032987 0.137706
    19 14.015629 -0.000004 0.000000 0.000000 0.000000 -0.355873
    20 3.468750 0.000000 0.000000 0.034732 0.022515 0.352382
    21 -6.222599 7.750000 4.421876 -0.000001 -1.553169 -2.781881
    22 4.531252 0.000004 -0.000002 -1.130799 1.132544 -1.052259
    23 15.218755 0.000002 0.000000 0.000000 0.000000 -1.574113
    24 13.187500 -0.000003 0.000000 -0.214501 -0.209265 -0.708429
    25 11.531253 -0.000004 -4.359379 -0.059167 0.095819 -0.551350
    26 11.468754 -0.000004 -0.593752 0.052185 -0.088837 -0.551350
    27 11.468754 -0.000002 3.750001 0.120253 -0.200538 -0.560076
    28 -6.222597 7.750000 -4.843751 -0.000001 1.553169 -2.785371
    29 4.531251 0.000000 -0.000002 1.628567 0.408582 -1.780411
    30 15.218751 0.000000 0.000000 0.000000 0.000000 -1.034806
    31 13.187508 0.000000 0.000000 -0.228464 -0.019024 -0.437903
    32 11.531254 0.000000 4.359376 0.008552 -0.128980 -0.069639
    33 11.531254 0.000000 0.578125 -0.005061 0.128980 -0.069639
    34 3.890625 0.000000 -0.000001 0.000000 0.000000 0.364599
    35 11.593754 0.000000 -3.765627 -0.012043 0.242426 -0.069639
    36 3.215244 0.691323 0.003905 0.000000 0.000000 2.949432
    37 0.062500 -0.921875 0.000000 0.000000 0.000000 -1.254717
    38 -1.125004 -6.468750 0.000000 0.000000 0.000000 0.347130
    39 -1.125000 -6.468752 0.000000 0.000000 0.000000 0.207502
    40 -1.359375 -6.125002 0.000000 0.000000 0.000000 0.582751
    41 10.453131 -11.515625 0.062500 0.048693 0.106279 2.813295
    42 8.035153 10.437498 -0.933622 0.005057 0.000000 0.628137
    43 8.703126 -14.375008 0.062500 0.000000 0.087080 2.914526
    44 0.000000 -0.000004 0.000000 0.000000 0.000000 0.000000
    45 5.410148 4.937504 0.000000 0.000000 0.000000 0.000000
    46 5.374996 -1.375000 0.000000 0.000000 -0.198793 -1.492082
    47 7.531252 -0.000004 0.000000 0.000000 -0.120253 0.120253
    48 9.437498 0.000000 0.000000 0.000000 -0.181340 0.146433
end
