// Created by Crowbar 0.24.0.0
version 1
nodes
  0 "Barnacle.base" -1
  1 "Barnacle.body" 0
  2 "Barnacle.belly2" 1
  3 "Barnacle.belly3" 1
  4 "Barnacle.belly4" 1
  5 "Barnacle.belly1" 1
  6 "Barnacle.mouth3" 1
  7 "Barnacle.mouth2" 1
  8 "Barnacle.mouth4" 1
  9 "Barnacle.mouth1" 1
  10 "Barnacle.innards" 1
  11 "Barnacle.jaw2" 10
  12 "Barnacle.jaw1" 10
  13 "Barnacle.tongue1" -1
  14 "Barnacle.tongue2" -1
  15 "Barnacle.tongue3" -1
  16 "Barnacle.tongue4" -1
  17 "Barnacle.tongue5" -1
  18 "Barnacle.tongue6" -1
  19 "Barnacle.tongue7" -1
  20 "Barnacle.tongue8" -1
end
skeleton
  time 0
    0 0.000000 0.000000 1.171719 0.000000 1.570795 -1.570796
    1 9.369289 0.000000 0.000000 0.000000 0.000000 0.000000
    2 4.646747 10.619582 -0.750023 -0.055105 0.070396 1.480528
    3 4.029541 -0.527360 -7.042426 -2.478408 1.481421 -0.995917
    4 2.955289 -8.087965 0.570330 3.196698 -0.070393 -1.661065
    5 3.209204 0.730491 9.762388 -0.663064 -1.481418 2.145584
    6 17.669539 -7.187741 -2.733833 2.871889 0.334597 -1.634788
    7 22.126706 1.564699 -6.335211 0.513420 1.285224 2.025668
    8 21.208709 -2.780734 7.424168 2.782695 -0.938640 -1.697380
    9 20.181334 7.155418 3.562006 -0.040741 -0.474365 1.497196
    10 33.506662 0.000000 0.000000 -0.567428 0.000000 0.000000
    11 0.318965 -0.364725 -6.519911 2.092051 1.223182 -2.646576
    12 0.318966 1.901189 6.668600 -0.891150 -1.297525 2.480363
    13 0.000000 0.000003 -58.197571 0.000000 1.570795 -1.570796
    14 0.000000 0.000004 -82.250572 0.000000 1.570795 -1.570796
    15 0.000000 0.000005 -109.159569 0.000000 1.570795 -1.570796
    16 0.000000 0.000006 -137.401566 0.000000 1.570795 -1.570796
    17 0.000000 0.000006 -147.493576 0.000000 1.570795 -1.570796
    18 0.000000 0.000007 -153.883575 0.000000 1.570795 -1.570796
    19 0.000000 0.000007 -157.752563 0.000000 1.570795 -1.570796
    20 0.000000 0.000007 -161.397568 0.000000 1.570795 -1.570796
  time 1
    0 0.000000 0.000000 1.171719 0.000000 1.570795 -1.570796
    1 9.369289 0.000000 0.000000 0.000000 0.000000 0.000000
    2 5.611620 9.553144 -0.675802 -0.055105 0.070396 1.480528
    3 5.045197 -0.460952 -6.155680 -2.478408 1.481421 -0.995917
    4 4.107668 -7.068403 0.500015 3.196698 -0.070393 -1.661065
    5 4.330332 0.640645 8.527976 -0.663064 -1.481418 2.145584
    6 19.173491 -6.300995 -2.425230 2.872404 0.334526 -1.633251
    7 23.513467 1.342036 -5.436746 0.539638 1.280705 2.052973
    8 22.712662 -2.452599 6.549142 2.780409 -0.938686 -1.695006
    9 21.564189 6.331174 3.132305 -0.039870 -0.474460 1.495317
    10 35.448127 0.000000 0.000000 -0.548224 0.000000 0.000000
    11 0.295527 -0.341287 -6.094116 2.598852 1.371385 -2.122429
    12 0.295528 1.776185 6.234993 -0.084896 -1.399735 1.656948
    13 0.000000 0.000003 -58.197571 0.000000 1.570795 -1.570796
    14 0.000000 0.000004 -82.250572 0.000000 1.570795 -1.570796
    15 0.000000 0.000005 -109.159569 0.000000 1.570795 -1.570796
    16 0.000000 0.000006 -137.401566 0.000000 1.570795 -1.570796
    17 0.000000 0.000006 -147.493576 0.000000 1.570795 -1.570796
    18 0.000000 0.000007 -153.883575 0.000000 1.570795 -1.570796
    19 0.000000 0.000007 -157.752563 0.000000 1.570795 -1.570796
    20 0.000000 0.000007 -161.397568 0.000000 1.570795 -1.570796
  time 2
    0 0.000000 0.000000 1.171719 0.000000 1.570795 -1.570796
    1 9.369289 0.000000 0.000000 0.000000 0.000000 0.000000
    2 5.478804 8.877342 -0.625019 -0.055105 0.070396 1.480528
    3 4.947538 -0.417982 -5.593163 -2.478408 1.481421 -0.995917
    4 4.095949 -6.423852 0.453139 3.196698 -0.070393 -1.661065
    5 4.299081 0.582049 7.750608 -0.663064 -1.481418 2.145584
    6 19.028955 -6.281464 -2.421324 2.941961 0.318087 -1.417058
    7 23.365025 1.338130 -5.417214 0.286701 1.312075 1.790322
    8 22.568126 -2.444786 6.529610 2.460433 -0.916962 -1.366278
    9 21.415747 6.311642 3.124492 0.066679 -0.471674 1.262155
    10 38.764635 0.000000 0.000000 -0.517955 0.000000 0.000000
    11 0.279902 -0.321755 -5.734730 4.326063 1.103793 -0.348388
    12 0.279902 1.674619 5.867794 1.184468 -1.103784 0.348382
    13 0.000000 0.000003 -58.197571 0.000000 1.570795 -1.570796
    14 0.000000 0.000004 -82.250572 0.000000 1.570795 -1.570796
    15 0.000000 0.000005 -109.159569 0.000000 1.570795 -1.570796
    16 0.000000 0.000006 -137.401566 0.000000 1.570795 -1.570796
    17 0.000000 0.000006 -147.493576 0.000000 1.570795 -1.570796
    18 0.000000 0.000007 -153.883575 0.000000 1.570795 -1.570796
    19 0.000000 0.000007 -157.752563 0.000000 1.570795 -1.570796
    20 0.000000 0.000007 -161.397568 0.000000 1.570795 -1.570796
  time 3
    0 0.000000 0.000000 1.171719 0.000000 1.570795 -1.570796
    1 9.369289 0.000000 0.000000 0.000000 0.000000 0.000000
    2 5.303017 9.232821 -0.652364 -0.055105 0.070396 1.480528
    3 4.752220 -0.441420 -5.890047 -2.478408 1.481421 -0.995917
    4 3.853754 -6.759799 0.476577 3.196698 -0.070393 -1.661065
    5 4.068605 0.613300 8.160777 -0.663064 -1.481418 2.145584
    6 18.946922 -6.328340 -2.436949 2.964288 0.309391 -1.344768
    7 23.286898 1.349849 -5.464090 0.021273 1.322808 1.516402
    8 22.482186 -2.460412 6.572580 2.360651 -0.896019 -1.263545
    9 21.337620 6.354612 3.144024 0.082851 -0.469266 1.226512
    10 38.331028 0.000000 0.000000 -0.477226 0.000000 0.000000
    11 0.268183 -0.306130 -5.500348 4.360552 1.056141 -0.309320
    12 0.268183 1.604305 5.629505 1.212780 -1.065456 0.316361
    13 0.000000 0.000003 -58.197571 0.000000 1.570795 -1.570796
    14 0.000000 0.000004 -82.250572 0.000000 1.570795 -1.570796
    15 0.000000 0.000005 -109.159569 0.000000 1.570795 -1.570796
    16 0.000000 0.000006 -137.401566 0.000000 1.570795 -1.570796
    17 0.000000 0.000006 -147.493576 0.000000 1.570795 -1.570796
    18 0.000000 0.000007 -153.883575 0.000000 1.570795 -1.570796
    19 0.000000 0.000007 -157.752563 0.000000 1.570795 -1.570796
    20 0.000000 0.000007 -161.397568 0.000000 1.570795 -1.570796
  time 4
    0 0.000000 0.000000 1.171719 0.000000 1.570795 -1.570796
    1 9.369289 0.000000 0.000000 0.000000 0.000000 0.000000
    2 5.060822 10.049252 -0.710959 -0.055105 0.070396 1.480528
    3 4.470961 -0.492203 -6.565849 -2.478408 1.481421 -0.995917
    4 3.467024 -7.541073 0.531266 3.196698 -0.070393 -1.661065
    5 3.705313 0.683615 9.102212 -0.663064 -1.481418 2.145584
    6 18.853169 -6.422093 -2.468200 2.959131 0.311583 -1.361611
    7 23.208770 1.373287 -5.561750 0.085093 1.321942 1.582137
    8 22.392339 -2.495569 6.670239 2.383460 -0.901484 -1.286972
    9 21.259492 6.444459 3.190901 0.062045 -0.472241 1.272421
    10 37.112241 0.000000 0.000000 -0.427303 0.000000 0.000000
    11 0.256464 -0.294411 -5.254247 4.346002 1.077496 -0.325881
    12 0.256464 1.533990 5.375591 1.194541 -1.090915 0.337062
    13 0.000000 0.000003 -58.197571 0.000000 1.570795 -1.570796
    14 0.000000 0.000004 -82.250572 0.000000 1.570795 -1.570796
    15 0.000000 0.000005 -109.159569 0.000000 1.570795 -1.570796
    16 0.000000 0.000006 -137.401566 0.000000 1.570795 -1.570796
    17 0.000000 0.000006 -147.493576 0.000000 1.570795 -1.570796
    18 0.000000 0.000007 -153.883575 0.000000 1.570795 -1.570796
    19 0.000000 0.000007 -157.752563 0.000000 1.570795 -1.570796
    20 0.000000 0.000007 -161.397568 0.000000 1.570795 -1.570796
  time 5
    0 0.000000 0.000000 1.171719 0.000000 1.570795 -1.570796
    1 9.369289 0.000000 0.000000 0.000000 0.000000 0.000000
    2 4.767845 11.096159 -0.785180 -0.055105 0.070396 1.480528
    3 4.127200 -0.558611 -7.440876 -2.478408 1.481421 -0.995917
    4 2.990447 -8.545010 0.601581 3.196698 -0.070393 -1.661065
    5 3.259987 0.773461 10.313186 -0.663064 -1.481418 2.145584
    6 18.681288 -6.554909 -2.515077 2.945419 0.316850 -1.405993
    7 23.052516 1.408444 -5.698473 0.247928 1.314900 1.750231
    8 22.216553 -2.546352 6.799149 2.444809 -0.914160 -1.350238
    9 21.103237 6.569463 3.257309 0.030571 -0.475073 1.341394
    10 35.186401 0.000000 0.000000 -0.370245 0.000000 0.000000
    11 0.244744 -0.282691 -5.051116 4.292072 1.142074 -0.386092
    12 0.244745 1.475395 5.168554 1.137544 -1.154842 0.400266
    13 0.000000 0.000003 -58.197571 0.000000 1.570795 -1.570796
    14 0.000000 0.000004 -82.250572 0.000000 1.570795 -1.570796
    15 0.000000 0.000005 -109.159569 0.000000 1.570795 -1.570796
    16 0.000000 0.000006 -137.401566 0.000000 1.570795 -1.570796
    17 0.000000 0.000006 -147.493576 0.000000 1.570795 -1.570796
    18 0.000000 0.000007 -153.883575 0.000000 1.570795 -1.570796
    19 0.000000 0.000007 -157.752563 0.000000 1.570795 -1.570796
    20 0.000000 0.000007 -161.397568 0.000000 1.570795 -1.570796
  time 6
    0 0.000000 0.000000 1.171719 0.000000 1.570795 -1.570796
    1 9.369289 0.000000 0.000000 0.000000 0.000000 0.000000
    2 4.447522 12.229006 -0.863308 -0.055105 0.070396 1.480528
    3 3.752189 -0.628925 -8.382311 -2.478408 1.481421 -0.995917
    4 2.470900 -9.623168 0.679708 3.196698 -0.070393 -1.661065
    5 2.775597 0.871120 11.617914 -0.663064 -1.481418 2.145584
    6 18.329715 -6.715070 -2.569766 2.927219 0.322860 -1.463837
    7 22.724381 1.447508 -5.858634 0.439842 1.296145 1.949097
    8 21.864979 -2.604948 6.955404 2.527770 -0.926974 -1.435559
    9 20.775102 6.713998 3.331530 -0.005691 -0.475971 1.420560
    10 32.772264 0.000000 0.000000 -0.308892 0.000000 0.000000
    11 0.240838 -0.274879 -4.941738 4.186201 1.226259 -0.500303
    12 0.240839 1.440237 5.055269 1.031466 -1.234181 0.514254
    13 0.000000 0.000003 -58.197571 0.000000 1.570795 -1.570796
    14 0.000000 0.000004 -82.250572 0.000000 1.570795 -1.570796
    15 0.000000 0.000005 -109.159569 0.000000 1.570795 -1.570796
    16 0.000000 0.000006 -137.401566 0.000000 1.570795 -1.570796
    17 0.000000 0.000006 -147.493576 0.000000 1.570795 -1.570796
    18 0.000000 0.000007 -153.883575 0.000000 1.570795 -1.570796
    19 0.000000 0.000007 -157.752563 0.000000 1.570795 -1.570796
    20 0.000000 0.000007 -161.397568 0.000000 1.570795 -1.570796
  time 7
    0 0.000000 0.000000 1.171719 0.000000 1.570795 -1.570796
    1 9.369289 0.000000 0.000000 0.000000 0.000000 0.000000
    2 4.131106 13.342322 -0.941435 -0.055105 0.070396 1.480528
    3 3.377178 -0.699240 -9.308120 -2.478408 1.481421 -0.995917
    4 1.955259 -10.689607 0.753929 3.196698 -0.070393 -1.661065
    5 2.295113 0.968780 12.903109 -0.663064 -1.481418 2.145584
    6 17.657820 -6.879138 -2.628361 2.906409 0.328375 -1.528812
    7 22.075923 1.486572 -6.026608 0.618746 1.264812 2.135684
    8 21.196990 -2.667449 7.123378 2.623687 -0.936114 -1.534125
    9 20.130551 6.870253 3.413564 -0.043664 -0.474129 1.503559
    10 30.166716 0.000000 0.000000 -0.246483 0.000000 0.000000
    11 0.240838 -0.278785 -4.972988 4.005343 1.306597 -0.689657
    12 0.240839 1.451956 5.090426 0.863749 -1.306618 0.689683
    13 0.000000 0.000003 -58.197571 0.000000 1.570795 -1.570796
    14 0.000000 0.000004 -82.250572 0.000000 1.570795 -1.570796
    15 0.000000 0.000005 -109.159569 0.000000 1.570795 -1.570796
    16 0.000000 0.000006 -137.401566 0.000000 1.570795 -1.570796
    17 0.000000 0.000006 -147.493576 0.000000 1.570795 -1.570796
    18 0.000000 0.000007 -153.883575 0.000000 1.570795 -1.570796
    19 0.000000 0.000007 -157.752563 0.000000 1.570795 -1.570796
    20 0.000000 0.000007 -161.397568 0.000000 1.570795 -1.570796
  time 8
    0 0.000000 0.000000 1.171719 0.000000 1.570795 -1.570796
    1 9.369289 0.000000 0.000000 0.000000 0.000000 0.000000
    2 3.838129 14.365790 -1.015656 -0.055105 0.070396 1.480528
    3 3.033417 -0.761742 -10.163615 -2.478408 1.481421 -0.995917
    4 1.486495 -11.670106 0.824244 3.196698 -0.070393 -1.661065
    5 1.853694 1.058626 14.086739 -0.663064 -1.481418 2.145584
    6 16.427313 -7.043205 -2.683051 2.884386 0.332758 -1.596614
    7 20.864949 1.529542 -6.194582 0.765121 1.223650 2.290269
    8 19.966484 -2.726045 7.283539 2.725428 -0.939513 -1.638600
    9 18.919577 7.022601 3.495597 -0.080922 -0.469597 1.585473
    10 27.631483 0.000000 0.000000 -0.186447 0.000000 0.000000
    11 0.264276 -0.302223 -5.437846 3.565903 1.383578 -1.139851
    12 0.264277 1.584773 5.563097 0.514427 -1.374695 1.048031
    13 0.000000 0.000003 -58.197571 0.000000 1.570795 -1.570796
    14 0.000000 0.000004 -82.250572 0.000000 1.570795 -1.570796
    15 0.000000 0.000005 -109.159569 0.000000 1.570795 -1.570796
    16 0.000000 0.000006 -137.401566 0.000000 1.570795 -1.570796
    17 0.000000 0.000006 -147.493576 0.000000 1.570795 -1.570796
    18 0.000000 0.000007 -153.883575 0.000000 1.570795 -1.570796
    19 0.000000 0.000007 -157.752563 0.000000 1.570795 -1.570796
    20 0.000000 0.000007 -161.397568 0.000000 1.570795 -1.570796
  time 9
    0 0.000000 0.000000 1.171719 0.000000 1.570795 -1.570796
    1 9.369289 0.000000 0.000000 0.000000 0.000000 0.000000
    2 3.451398 15.240817 -1.078158 -0.055105 0.070396 1.480528
    3 2.603716 -0.816431 -10.894106 -2.478408 1.481421 -0.995917
    4 0.943509 -12.509975 0.882839 3.196698 -0.070393 -1.661065
    5 1.341959 1.132847 15.102395 -0.663064 -1.481418 2.145584
    6 14.212402 -7.191648 -2.733833 2.862394 0.335657 -1.663679
    7 18.673476 1.564699 -6.343024 0.876562 1.177178 2.409676
    8 17.755479 -2.780734 7.431981 2.825808 -0.936665 -1.741703
    9 16.724198 7.159324 3.565912 -0.114977 -0.462940 1.661169
    10 25.350163 0.000000 0.000000 -0.131831 0.000000 0.000000
    11 0.303340 -0.345193 -6.203495 2.670441 1.379265 -2.049488
    12 0.303340 1.811342 6.348277 -0.219285 -1.396121 1.793354
    13 0.000000 0.000003 -58.197571 0.000000 1.570795 -1.570796
    14 0.000000 0.000004 -82.250572 0.000000 1.570795 -1.570796
    15 0.000000 0.000005 -109.159569 0.000000 1.570795 -1.570796
    16 0.000000 0.000006 -137.401566 0.000000 1.570795 -1.570796
    17 0.000000 0.000006 -147.493576 0.000000 1.570795 -1.570796
    18 0.000000 0.000007 -153.883575 0.000000 1.570795 -1.570796
    19 0.000000 0.000007 -157.752563 0.000000 1.570795 -1.570796
    20 0.000000 0.000007 -161.397568 0.000000 1.570795 -1.570796
  time 10
    0 0.000000 0.000000 1.171719 0.000000 1.570795 -1.570796
    1 9.369289 0.000000 0.000000 0.000000 0.000000 0.000000
    2 2.990447 15.924432 -1.125034 -0.055105 0.070396 1.480528
    3 2.107608 -0.859401 -11.464436 -2.478408 1.481421 -0.995917
    4 0.361460 -13.166245 0.929716 3.196698 -0.070393 -1.661065
    5 0.779442 1.195349 15.891482 -0.663064 -1.481418 2.145584
    6 12.056086 -7.308839 -2.776803 2.841948 0.337107 -1.725580
    7 16.536692 1.595950 -6.460215 0.956906 1.130744 2.497515
    8 15.599163 -2.827611 7.549172 2.916826 -0.928673 -1.835203
    9 14.587414 7.268703 3.624508 -0.142065 -0.455857 1.722261
    10 23.408697 0.000000 0.000000 -0.085076 0.000000 0.000000
    11 0.326778 -0.376444 -6.730855 2.163723 1.262372 -2.570861
    12 0.326779 1.963691 6.887356 -0.800244 -1.324803 2.386283
    13 0.000000 0.000003 -58.197571 0.000000 1.570795 -1.570796
    14 0.000000 0.000004 -82.250572 0.000000 1.570795 -1.570796
    15 0.000000 0.000005 -109.159569 0.000000 1.570795 -1.570796
    16 0.000000 0.000006 -137.401566 0.000000 1.570795 -1.570796
    17 0.000000 0.000006 -147.493576 0.000000 1.570795 -1.570796
    18 0.000000 0.000007 -153.883575 0.000000 1.570795 -1.570796
    19 0.000000 0.000007 -157.752563 0.000000 1.570795 -1.570796
    20 0.000000 0.000007 -161.397568 0.000000 1.570795 -1.570796
  time 11
    0 0.000000 0.000000 1.171719 0.000000 1.570795 -1.570796
    1 9.369289 0.000000 0.000000 0.000000 0.000000 0.000000
    2 2.701375 16.373664 -1.156285 -0.055105 0.070396 1.480528
    3 1.795098 -0.886746 -11.839448 -2.478408 1.481421 -0.995917
    4 -0.005738 -13.592039 0.960967 3.196698 -0.070393 -1.661065
    5 0.423962 1.230506 16.407122 -0.663064 -1.481418 2.145584
    6 10.927146 -7.383060 -2.800242 2.825447 0.337425 -1.775495
    7 15.415564 1.615482 -6.538342 1.009666 1.091540 2.556388
    8 14.470222 -2.854955 7.623393 2.988137 -0.918661 -1.908547
    9 13.466286 7.339017 3.659665 -0.152297 -0.452741 1.745613
    10 21.826618 0.000000 0.000000 -0.047880 0.000000 0.000000
    11 0.334591 -0.384257 -6.891016 1.988792 1.139649 -2.758056
    12 0.334591 2.010567 7.051424 -1.037520 -1.230590 2.633770
    13 0.000000 0.000003 -58.197571 0.000000 1.570795 -1.570796
    14 0.000000 0.000004 -82.250572 0.000000 1.570795 -1.570796
    15 0.000000 0.000005 -109.159569 0.000000 1.570795 -1.570796
    16 0.000000 0.000006 -137.401566 0.000000 1.570795 -1.570796
    17 0.000000 0.000006 -147.493576 0.000000 1.570795 -1.570796
    18 0.000000 0.000007 -153.883575 0.000000 1.570795 -1.570796
    19 0.000000 0.000007 -157.752563 0.000000 1.570795 -1.570796
    20 0.000000 0.000007 -161.397568 0.000000 1.570795 -1.570796
  time 12
    0 0.000000 0.000000 1.171719 0.000000 1.570795 -1.570796
    1 9.369289 0.000000 0.000000 0.000000 0.000000 0.000000
    2 2.580278 16.545544 -1.168004 -0.055105 0.070396 1.480528
    3 1.666188 -0.898465 -11.980077 -2.478408 1.481421 -0.995917
    4 -0.158087 -13.760013 0.972686 3.196698 -0.070393 -1.661065
    5 0.279427 1.246132 16.606347 -0.663064 -1.481418 2.145584
    6 10.415411 -7.351809 -2.788522 2.805244 0.336718 -1.836474
    7 14.899923 1.607669 -6.503185 1.062816 1.041980 2.617066
    8 13.958488 -2.843236 7.588236 3.071914 -0.902219 -1.994818
    9 12.950645 7.307766 3.640133 -0.156527 -0.451419 1.755301
    10 20.412512 0.000000 0.000000 -0.021143 0.000000 0.000000
    11 0.338497 -0.388163 -6.953518 1.928354 1.064813 -2.825711
    12 0.338498 2.030099 7.117832 -1.125151 -1.166313 2.727805
    13 0.000000 0.000003 -58.197571 0.000000 1.570795 -1.570796
    14 0.000000 0.000004 -82.250572 0.000000 1.570795 -1.570796
    15 0.000000 0.000005 -109.159569 0.000000 1.570795 -1.570796
    16 0.000000 0.000006 -137.401566 0.000000 1.570795 -1.570796
    17 0.000000 0.000006 -147.493576 0.000000 1.570795 -1.570796
    18 0.000000 0.000007 -153.883575 0.000000 1.570795 -1.570796
    19 0.000000 0.000007 -157.752563 0.000000 1.570795 -1.570796
    20 0.000000 0.000007 -161.397568 0.000000 1.570795 -1.570796
  time 13
    0 0.000000 0.000000 1.171719 0.000000 1.570795 -1.570796
    1 9.369289 0.000000 0.000000 0.000000 0.000000 0.000000
    2 2.494338 16.529919 -1.168004 -0.055105 0.070396 1.480528
    3 1.584154 -0.898465 -11.968358 -2.478408 1.481421 -0.995917
    4 -0.244027 -13.740481 0.972686 3.196698 -0.070393 -1.661065
    5 0.193487 1.246132 16.586815 -0.663064 -1.481418 2.145584
    6 9.962272 -7.242430 -2.749459 2.769843 0.332652 -1.944171
    7 14.431159 1.580324 -6.389900 1.134508 0.951221 2.702305
    8 13.505349 -2.800266 7.478858 3.208930 -0.862950 -2.136335
    9 12.481881 7.206201 3.589350 -0.187751 -0.440041 1.827672
    10 19.154661 0.000000 0.000000 -0.005230 0.000000 0.000000
    11 0.338497 -0.388163 -6.937892 1.901161 1.020448 -2.857248
    12 0.338498 2.026193 7.098300 -1.169256 -1.121806 2.776255
    13 0.000000 0.000003 -58.197571 0.000000 1.570795 -1.570796
    14 0.000000 0.000004 -82.250572 0.000000 1.570795 -1.570796
    15 0.000000 0.000005 -109.159569 0.000000 1.570795 -1.570796
    16 0.000000 0.000006 -137.401566 0.000000 1.570795 -1.570796
    17 0.000000 0.000006 -147.493576 0.000000 1.570795 -1.570796
    18 0.000000 0.000007 -153.883575 0.000000 1.570795 -1.570796
    19 0.000000 0.000007 -157.752563 0.000000 1.570795 -1.570796
    20 0.000000 0.000007 -161.397568 0.000000 1.570795 -1.570796
  time 14
    0 0.000000 0.000000 1.171719 0.000000 1.570795 -1.570796
    1 9.369289 0.000000 0.000000 0.000000 0.000000 0.000000
    2 2.474806 16.412728 -1.160192 -0.055105 0.070396 1.480528
    3 1.572435 -0.890652 -11.870699 -2.478408 1.481421 -0.995917
    4 -0.240121 -13.635009 0.964873 3.196698 -0.070393 -1.661065
    5 0.193487 1.234413 16.453999 -0.663064 -1.481418 2.145584
    6 9.681014 -7.125239 -2.710395 2.717729 0.319714 -2.106515
    7 14.134275 1.552980 -6.268803 1.207305 0.808980 2.796573
    8 13.224091 -2.761202 7.361667 3.386120 -0.782760 -2.320433
    9 12.184996 7.096822 3.530755 -0.247370 -0.410957 1.971907
    10 18.420264 0.000000 0.000000 0.000000 0.000000 0.000000
    11 0.334591 -0.384257 -6.855858 1.873761 0.965987 -2.889930
    12 0.334591 1.998848 7.016266 -1.214688 -1.062635 2.827390
    13 0.000000 0.000003 -58.197571 0.000000 1.570795 -1.570796
    14 0.000000 0.000004 -82.250572 0.000000 1.570795 -1.570796
    15 0.000000 0.000005 -109.159569 0.000000 1.570795 -1.570796
    16 0.000000 0.000006 -137.401566 0.000000 1.570795 -1.570796
    17 0.000000 0.000006 -147.493576 0.000000 1.570795 -1.570796
    18 0.000000 0.000007 -153.883575 0.000000 1.570795 -1.570796
    19 0.000000 0.000007 -157.752563 0.000000 1.570795 -1.570796
    20 0.000000 0.000007 -161.397568 0.000000 1.570795 -1.570796
  time 15
    0 0.000000 0.000000 1.171719 0.000000 1.570795 -1.570796
    1 9.369289 0.000000 0.000000 0.000000 0.000000 0.000000
    2 2.560746 16.143188 -1.140660 -0.055105 0.070396 1.480528
    3 1.666188 -0.875027 -11.644129 -2.478408 1.481421 -0.995917
    4 -0.111210 -13.373283 0.945341 3.196698 -0.070393 -1.661065
    5 0.314584 1.210974 16.141489 -0.663064 -1.481418 2.145584
    6 9.692733 -7.039299 -2.679144 2.650689 0.288922 -2.329348
    7 14.134275 1.529542 -6.186769 1.267677 0.605882 2.888819
    8 13.235810 -2.726045 7.279633 3.575504 -0.641117 -2.519832
    9 12.184996 7.018695 3.487785 -0.329847 -0.349674 2.193139
    10 19.131223 0.000000 0.000000 0.000000 0.000000 0.000000
    11 0.326778 -0.376444 -6.730855 1.808307 0.765515 -2.975423
    12 0.326779 1.963691 6.887356 -1.310734 -0.850383 2.944197
    13 0.000000 0.000003 -58.197571 0.000000 1.570795 -1.570796
    14 0.000000 0.000004 -82.250572 0.000000 1.570795 -1.570796
    15 0.000000 0.000005 -109.159569 0.000000 1.570795 -1.570796
    16 0.000000 0.000006 -137.401566 0.000000 1.570795 -1.570796
    17 0.000000 0.000006 -147.493576 0.000000 1.570795 -1.570796
    18 0.000000 0.000007 -153.883575 0.000000 1.570795 -1.570796
    19 0.000000 0.000007 -157.752563 0.000000 1.570795 -1.570796
    20 0.000000 0.000007 -161.397568 0.000000 1.570795 -1.570796
  time 16
    0 0.000000 0.000000 1.171719 0.000000 1.570795 -1.570796
    1 9.369289 0.000000 0.000000 0.000000 0.000000 0.000000
    2 2.748252 15.186128 -1.074252 -0.055105 0.070396 1.480528
    3 1.904476 -0.812525 -10.847230 -2.478408 1.481421 -0.995917
    4 0.252082 -12.455286 0.878933 3.196698 -0.070393 -1.661065
    5 0.646626 1.128941 15.032080 -0.663064 -1.481418 2.145584
    6 14.567882 -7.031486 -2.679144 2.580192 0.231970 -2.601541
    7 19.009423 1.525635 -6.178956 1.306776 0.347461 2.973336
    8 18.110959 -2.722139 7.267914 3.741697 -0.433109 -2.699815
    9 17.060145 7.010882 3.483878 -0.413507 -0.242876 2.477561
    10 29.018244 0.000000 0.000000 0.000000 0.000000 0.000000
    11 0.303340 -0.349100 -6.246465 1.810090 0.773045 -2.972824
    12 0.303340 1.823061 6.391247 -1.314382 -0.838049 2.949130
    13 0.000000 0.000003 -58.197571 0.000000 1.570795 -1.570796
    14 0.000000 0.000004 -82.250572 0.000000 1.570795 -1.570796
    15 0.000000 0.000005 -109.159569 0.000000 1.570795 -1.570796
    16 0.000000 0.000006 -137.401566 0.000000 1.570795 -1.570796
    17 0.000000 0.000006 -147.493576 0.000000 1.570795 -1.570796
    18 0.000000 0.000007 -153.883575 0.000000 1.570795 -1.570796
    19 0.000000 0.000007 -157.752563 0.000000 1.570795 -1.570796
    20 0.000000 0.000007 -161.397568 0.000000 1.570795 -1.570796
  time 17
    0 0.000000 0.000000 1.171719 0.000000 1.570795 -1.570796
    1 9.369289 0.000000 0.000000 0.000000 0.000000 0.000000
    2 3.103731 11.291478 -0.796899 -0.055105 0.070396 1.480528
    3 2.451368 -0.570330 -7.601037 -2.478408 1.481421 -0.995917
    4 1.295082 -8.728610 0.617206 3.196698 -0.070393 -1.661065
    5 1.568529 0.789087 10.535849 -0.663064 -1.481418 2.145584
    6 19.439124 -7.191648 -2.733833 2.542790 0.183643 -2.782265
    7 23.900198 1.564699 -6.339117 1.319136 0.170197 3.021589
    8 22.978295 -2.780734 7.431981 3.824114 -0.279663 -2.792787
    9 21.947013 7.159324 3.565912 -0.453470 -0.149912 2.681514
    10 46.440650 0.000000 0.000000 0.000000 0.000000 0.000000
    11 0.279902 -0.321755 -5.734730 4.354997 1.064510 -0.315662
    12 0.279902 1.674619 5.867794 1.239683 -1.021788 0.285221
    13 0.000000 0.000003 -58.197571 0.000000 1.570795 -1.570796
    14 0.000000 0.000004 -82.250572 0.000000 1.570795 -1.570796
    15 0.000000 0.000005 -109.159569 0.000000 1.570795 -1.570796
    16 0.000000 0.000006 -137.401566 0.000000 1.570795 -1.570796
    17 0.000000 0.000006 -147.493576 0.000000 1.570795 -1.570796
    18 0.000000 0.000007 -153.883575 0.000000 1.570795 -1.570796
    19 0.000000 0.000007 -157.752563 0.000000 1.570795 -1.570796
    20 0.000000 0.000007 -161.397568 0.000000 1.570795 -1.570796
  time 18
    0 0.000000 0.000000 1.171719 0.000000 1.570795 -1.570796
    1 9.369289 0.000000 0.000000 0.000000 0.000000 0.000000
    2 3.967039 8.416390 -0.593768 -0.055105 0.070396 1.480528
    3 3.459211 -0.390637 -5.210339 -2.478408 1.481421 -0.995917
    4 2.666218 -5.982432 0.421888 3.196698 -0.070393 -1.661065
    5 2.853724 0.539079 7.219342 -0.663064 -1.481418 2.145584
    6 24.306460 -7.480719 -2.835399 2.601487 0.252757 -2.512838
    7 28.806597 1.638920 -6.636001 1.298514 0.421237 2.951448
    8 27.849537 -2.890113 7.717146 3.726401 -0.457129 -2.682930
    9 26.857319 7.428864 3.706541 -0.407318 -0.253499 2.452401
    10 42.999139 0.000000 0.000000 0.000000 0.000000 0.000000
    11 0.275995 -0.313942 -5.648790 4.393258 0.999559 -0.271132
    12 0.275996 1.647275 5.777947 1.261653 -0.979333 0.259191
    13 0.000000 0.000003 -58.197571 0.000000 1.570795 -1.570796
    14 0.000000 0.000004 -82.250572 0.000000 1.570795 -1.570796
    15 0.000000 0.000005 -109.159569 0.000000 1.570795 -1.570796
    16 0.000000 0.000006 -137.401566 0.000000 1.570795 -1.570796
    17 0.000000 0.000006 -147.493576 0.000000 1.570795 -1.570796
    18 0.000000 0.000007 -153.883575 0.000000 1.570795 -1.570796
    19 0.000000 0.000007 -157.752563 0.000000 1.570795 -1.570796
    20 0.000000 0.000007 -161.397568 0.000000 1.570795 -1.570796
  time 19
    0 0.000000 0.000000 1.171719 0.000000 1.570795 -1.570796
    1 9.369289 0.000000 0.000000 0.000000 0.000000 0.000000
    2 4.865504 6.424142 -0.453139 -0.055105 0.070396 1.480528
    3 4.455335 -0.265633 -3.546226 -2.478408 1.481421 -0.995917
    4 3.912350 -4.072217 0.285165 3.196698 -0.070393 -1.661065
    5 4.041260 0.367199 4.914584 -0.663064 -1.481418 2.145584
    6 22.751725 -7.746352 -2.929152 3.028081 0.273120 -1.123411
    7 27.290926 1.705328 -6.909447 -0.463718 1.292869 1.014793
    8 26.298708 -2.987772 7.982779 2.646223 -0.937400 -1.557289
    9 25.341648 7.678871 3.835451 0.117216 -0.462420 1.150020
    10 40.217804 0.000000 0.000000 0.000000 0.000000 0.000000
    11 0.275995 -0.317849 -5.691760 4.413197 0.957501 -0.247083
    12 0.275996 1.658994 5.824824 1.275208 -0.949211 0.242674
    13 0.000000 0.000003 -58.197571 0.000000 1.570795 -1.570796
    14 0.000000 0.000004 -82.250572 0.000000 1.570795 -1.570796
    15 0.000000 0.000005 -109.159569 0.000000 1.570795 -1.570796
    16 0.000000 0.000006 -137.401566 0.000000 1.570795 -1.570796
    17 0.000000 0.000006 -147.493576 0.000000 1.570795 -1.570796
    18 0.000000 0.000007 -153.883575 0.000000 1.570795 -1.570796
    19 0.000000 0.000007 -157.752563 0.000000 1.570795 -1.570796
    20 0.000000 0.000007 -161.397568 0.000000 1.570795 -1.570796
  time 20
    0 0.000000 0.000000 1.171719 0.000000 1.570795 -1.570796
    1 9.369289 0.000000 0.000000 0.000000 0.000000 0.000000
    2 5.263953 5.724902 -0.402356 -0.055105 0.070396 1.480528
    3 4.888942 -0.218757 -2.960270 -2.478408 1.481421 -0.995917
    4 4.439710 -3.400322 0.238289 3.196698 -0.070393 -1.661065
    5 4.545182 0.304697 4.102059 -0.663064 -1.481418 2.145584
    6 20.661818 -7.844011 -2.960403 3.028081 0.273120 -1.123411
    7 25.212738 1.728766 -7.007106 -0.463783 1.292869 1.014793
    8 24.204895 -3.022929 8.076532 2.646223 -0.937400 -1.557289
    9 23.263460 7.768718 3.882328 0.117216 -0.462420 1.150020
    10 38.764635 0.000000 0.000000 0.000000 0.000000 0.000000
    11 0.279902 -0.321755 -5.734730 4.420824 0.939550 -0.237701
    12 0.279902 1.674619 5.867794 1.279229 -0.939536 0.237697
    13 0.000000 0.000003 -58.197571 0.000000 1.570795 -1.570796
    14 0.000000 0.000004 -82.250572 0.000000 1.570795 -1.570796
    15 0.000000 0.000005 -109.159569 0.000000 1.570795 -1.570796
    16 0.000000 0.000006 -137.401566 0.000000 1.570795 -1.570796
    17 0.000000 0.000006 -147.493576 0.000000 1.570795 -1.570796
    18 0.000000 0.000007 -153.883575 0.000000 1.570795 -1.570796
    19 0.000000 0.000007 -157.752563 0.000000 1.570795 -1.570796
    20 0.000000 0.000007 -161.397568 0.000000 1.570795 -1.570796
  time 21
    0 0.000000 0.000000 1.171719 0.000000 1.570795 -1.570796
    1 9.369289 0.000000 0.000000 0.000000 0.000000 0.000000
    2 5.248328 6.099913 -0.429701 -0.055105 0.070396 1.480528
    3 4.853785 -0.246101 -3.276686 -2.478408 1.481421 -0.995917
    4 4.353770 -3.759708 0.265633 3.196698 -0.070393 -1.661065
    5 4.474867 0.339854 4.539573 -0.663064 -1.481418 2.145584
    6 20.587597 -7.789322 -2.940871 3.027899 0.273261 -1.124149
    7 25.126798 1.717047 -6.948511 -0.466125 1.292530 1.012265
    8 24.126767 -3.003397 8.021843 2.645897 -0.937400 -1.556972
    9 23.177519 7.717935 3.854983 0.117900 -0.462279 1.148502
    10 38.553691 0.000000 0.000000 -0.006251 0.000000 0.000000
    11 0.275995 -0.317849 -5.680041 4.417715 0.947057 -0.241577
    12 0.275996 1.658994 5.813105 1.275954 -0.947439 0.241749
    13 0.000000 0.000003 -58.197571 0.000000 1.570795 -1.570796
    14 0.000000 0.000004 -82.250572 0.000000 1.570795 -1.570796
    15 0.000000 0.000005 -109.159569 0.000000 1.570795 -1.570796
    16 0.000000 0.000006 -137.401566 0.000000 1.570795 -1.570796
    17 0.000000 0.000006 -147.493576 0.000000 1.570795 -1.570796
    18 0.000000 0.000007 -153.883575 0.000000 1.570795 -1.570796
    19 0.000000 0.000007 -157.752563 0.000000 1.570795 -1.570796
    20 0.000000 0.000007 -161.397568 0.000000 1.570795 -1.570796
  time 22
    0 0.000000 0.000000 1.171719 0.000000 1.570795 -1.570796
    1 9.369289 0.000000 0.000000 0.000000 0.000000 0.000000
    2 5.154575 6.631179 -0.468764 -0.055105 0.070396 1.480528
    3 4.736594 -0.277352 -3.718106 -2.478408 1.481421 -0.995917
    4 4.166264 -4.267536 0.300790 3.196698 -0.070393 -1.661065
    5 4.302987 0.386731 5.152873 -0.663064 -1.481418 2.145584
    6 20.364934 -7.640880 -2.890088 3.027353 0.273650 -1.126116
    7 24.884603 1.677984 -6.800069 -0.472565 1.291588 1.005619
    8 23.904104 -2.948708 7.877307 2.645080 -0.937354 -1.556075
    9 22.931418 7.581212 3.784669 0.119766 -0.461806 1.144309
    10 37.963829 0.000000 0.000000 -0.023550 0.000000 0.000000
    11 0.272089 -0.310036 -5.551131 4.405818 0.973844 -0.256068
    12 0.272090 1.619930 5.680288 1.263601 -0.975160 0.256813
    13 0.000000 0.000003 -58.197571 0.000000 1.570795 -1.570796
    14 0.000000 0.000004 -82.250572 0.000000 1.570795 -1.570796
    15 0.000000 0.000005 -109.159569 0.000000 1.570795 -1.570796
    16 0.000000 0.000006 -137.401566 0.000000 1.570795 -1.570796
    17 0.000000 0.000006 -147.493576 0.000000 1.570795 -1.570796
    18 0.000000 0.000007 -153.883575 0.000000 1.570795 -1.570796
    19 0.000000 0.000007 -157.752563 0.000000 1.570795 -1.570796
    20 0.000000 0.000007 -161.397568 0.000000 1.570795 -1.570796
  time 23
    0 0.000000 0.000000 1.171719 0.000000 1.570795 -1.570796
    1 9.369289 0.000000 0.000000 0.000000 0.000000 0.000000
    2 5.006133 7.291356 -0.515641 -0.055105 0.070396 1.480528
    3 4.556901 -0.320322 -4.268904 -2.478408 1.481421 -0.995917
    4 3.904537 -4.900368 0.343760 3.196698 -0.070393 -1.661065
    5 4.060792 0.441420 5.914615 -0.663064 -1.481418 2.145584
    6 19.982109 -7.390872 -2.804148 3.026959 0.273968 -1.127653
    7 24.466621 1.615482 -6.546155 -0.477184 1.290911 1.000780
    8 23.521280 -2.854955 7.627300 2.644427 -0.937308 -1.555442
    9 22.517343 7.346830 3.663571 0.121104 -0.461476 1.141272
    10 37.088802 0.000000 0.000000 -0.049698 0.000000 0.000000
    11 0.260370 -0.298317 -5.375345 4.384677 1.015668 -0.281262
    12 0.260370 1.569147 5.500595 1.241714 -1.018221 0.282887
    13 0.000000 0.000003 -58.197571 0.000000 1.570795 -1.570796
    14 0.000000 0.000004 -82.250572 0.000000 1.570795 -1.570796
    15 0.000000 0.000005 -109.159569 0.000000 1.570795 -1.570796
    16 0.000000 0.000006 -137.401566 0.000000 1.570795 -1.570796
    17 0.000000 0.000006 -147.493576 0.000000 1.570795 -1.570796
    18 0.000000 0.000007 -153.883575 0.000000 1.570795 -1.570796
    19 0.000000 0.000007 -157.752563 0.000000 1.570795 -1.570796
    20 0.000000 0.000007 -161.397568 0.000000 1.570795 -1.570796
  time 24
    0 0.000000 0.000000 1.171719 0.000000 1.570795 -1.570796
    1 9.369289 0.000000 0.000000 0.000000 0.000000 0.000000
    2 4.826440 8.045285 -0.566424 -0.055105 0.070396 1.480528
    3 4.334238 -0.367199 -4.897830 -2.478408 1.481421 -0.995917
    4 3.588121 -5.626952 0.394543 3.196698 -0.070393 -1.661065
    5 3.767815 0.507828 6.789641 -0.663064 -1.481418 2.145584
    6 19.446937 -7.058831 -2.690863 3.027201 0.273756 -1.126669
    7 23.888479 1.533448 -6.210207 -0.473931 1.291400 1.004175
    8 22.986107 -2.733858 7.299165 2.644862 -0.937354 -1.555864
    9 21.939200 7.038227 3.499504 0.120140 -0.461712 1.143441
    10 36.006738 0.000000 0.000000 -0.082461 0.000000 0.000000
    11 0.252557 -0.290504 -5.191745 4.351722 1.069383 -0.319450
    12 0.252558 1.514458 5.313089 1.207516 -1.073103 0.322395
    13 0.000000 0.000003 -58.197571 0.000000 1.570795 -1.570796
    14 0.000000 0.000004 -82.250572 0.000000 1.570795 -1.570796
    15 0.000000 0.000005 -109.159569 0.000000 1.570795 -1.570796
    16 0.000000 0.000006 -137.401566 0.000000 1.570795 -1.570796
    17 0.000000 0.000006 -147.493576 0.000000 1.570795 -1.570796
    18 0.000000 0.000007 -153.883575 0.000000 1.570795 -1.570796
    19 0.000000 0.000007 -157.752563 0.000000 1.570795 -1.570796
    20 0.000000 0.000007 -161.397568 0.000000 1.570795 -1.570796
  time 25
    0 0.000000 0.000000 1.171719 0.000000 1.570795 -1.570796
    1 9.369289 0.000000 0.000000 0.000000 0.000000 0.000000
    2 4.627215 8.861716 -0.625019 -0.055105 0.070396 1.480528
    3 4.095950 -0.417982 -5.581444 -2.478408 1.481421 -0.995917
    4 3.244361 -6.408226 0.453139 3.196698 -0.070393 -1.661065
    5 3.447492 0.578143 7.731076 -0.663064 -1.481418 2.145584
    6 18.775041 -6.742415 -2.581485 3.028081 0.273120 -1.123411
    7 23.173613 1.455321 -5.885978 -0.463718 1.292869 1.014793
    8 22.314212 -2.616667 6.986655 2.646223 -0.937400 -1.557289
    9 21.224335 6.741343 3.347155 0.117216 -0.462420 1.150020
    10 34.791857 0.000000 0.000000 -0.119640 0.000000 0.000000
    11 0.244744 -0.282691 -5.039397 4.301316 1.132329 -0.375873
    12 0.244745 1.471488 5.156835 1.155617 -1.136751 0.380446
    13 0.000000 0.000003 -58.197571 0.000000 1.570795 -1.570796
    14 0.000000 0.000004 -82.250572 0.000000 1.570795 -1.570796
    15 0.000000 0.000005 -109.159569 0.000000 1.570795 -1.570796
    16 0.000000 0.000006 -137.401566 0.000000 1.570795 -1.570796
    17 0.000000 0.000006 -147.493576 0.000000 1.570795 -1.570796
    18 0.000000 0.000007 -153.883575 0.000000 1.570795 -1.570796
    19 0.000000 0.000007 -157.752563 0.000000 1.570795 -1.570796
    20 0.000000 0.000007 -161.397568 0.000000 1.570795 -1.570796
  time 26
    0 0.000000 0.000000 1.171719 0.000000 1.570795 -1.570796
    1 9.369289 0.000000 0.000000 0.000000 0.000000 0.000000
    2 4.431897 9.689866 -0.683615 -0.055105 0.070396 1.480528
    3 3.857661 -0.468764 -6.268965 -2.478408 1.481421 -0.995917
    4 2.900600 -7.201219 0.507828 3.196698 -0.070393 -1.661065
    5 3.131076 0.652364 8.688137 -0.663064 -1.481418 2.145584
    6 17.993767 -6.574441 -2.522889 3.023592 0.276337 -1.140009
    7 22.368901 1.412351 -5.714098 -0.407054 1.300288 1.073666
    8 21.529032 -2.554165 6.818681 2.665330 -0.938272 -1.576812
    9 20.423529 6.585088 3.265122 0.097592 -0.466622 1.193833
    10 33.534006 0.000000 0.000000 -0.159035 0.000000 0.000000
    11 0.240838 -0.274879 -4.957363 4.222887 1.201710 -0.461146
    12 0.240839 1.444144 5.070895 1.076028 -1.205481 0.466818
    13 0.000000 0.000003 -58.197571 0.000000 1.570795 -1.570796
    14 0.000000 0.000004 -82.250572 0.000000 1.570795 -1.570796
    15 0.000000 0.000005 -109.159569 0.000000 1.570795 -1.570796
    16 0.000000 0.000006 -137.401566 0.000000 1.570795 -1.570796
    17 0.000000 0.000006 -147.493576 0.000000 1.570795 -1.570796
    18 0.000000 0.000007 -153.883575 0.000000 1.570795 -1.570796
    19 0.000000 0.000007 -157.752563 0.000000 1.570795 -1.570796
    20 0.000000 0.000007 -161.397568 0.000000 1.570795 -1.570796
  time 27
    0 0.000000 0.000000 1.171719 0.000000 1.570795 -1.570796
    1 9.369289 0.000000 0.000000 0.000000 0.000000 0.000000
    2 4.252204 10.478953 -0.738304 -0.055105 0.070396 1.480528
    3 3.642811 -0.519547 -6.925235 -2.478408 1.481421 -0.995917
    4 2.584184 -7.951242 0.562517 3.196698 -0.070393 -1.661065
    5 2.834192 0.718772 9.594414 -0.663064 -1.481418 2.145584
    6 17.130460 -6.597879 -2.530702 3.009425 0.285740 -1.191091
    7 21.509500 1.416257 -5.737536 -0.267249 1.313544 1.218500
    8 20.665724 -2.561978 6.842119 2.713398 -0.939421 -1.626253
    9 19.564128 6.608526 3.276841 0.061360 -0.472335 1.273939
    10 32.311313 0.000000 0.000000 -0.198430 0.000000 0.000000
    11 0.240838 -0.278785 -4.972988 4.096622 1.272699 -0.594649
    12 0.240839 1.451956 5.090426 0.955028 -1.272719 0.594635
    13 0.000000 0.000003 -58.197571 0.000000 1.570795 -1.570796
    14 0.000000 0.000004 -82.250572 0.000000 1.570795 -1.570796
    15 0.000000 0.000005 -109.159569 0.000000 1.570795 -1.570796
    16 0.000000 0.000006 -137.401566 0.000000 1.570795 -1.570796
    17 0.000000 0.000006 -147.493576 0.000000 1.570795 -1.570796
    18 0.000000 0.000007 -153.883575 0.000000 1.570795 -1.570796
    19 0.000000 0.000007 -157.752563 0.000000 1.570795 -1.570796
    20 0.000000 0.000007 -161.397568 0.000000 1.570795 -1.570796
  time 28
    0 0.000000 0.000000 1.171719 0.000000 1.570795 -1.570796
    1 9.369289 0.000000 0.000000 0.000000 0.000000 0.000000
    2 4.006103 11.174287 -0.789087 -0.055105 0.070396 1.480528
    3 3.357646 -0.562517 -7.503378 -2.478408 1.481421 -0.995917
    4 2.213079 -8.615325 0.609394 3.196698 -0.070393 -1.661065
    5 2.486525 0.781274 10.399127 -0.663064 -1.481418 2.145584
    6 16.329654 -6.820542 -2.604923 2.986978 0.298608 -1.268913
    7 20.739945 1.470946 -5.964106 -0.048727 1.322582 1.444094
    8 19.872731 -2.644011 7.060876 2.783675 -0.938594 -1.698383
    9 18.794573 6.811657 3.386219 0.017323 -0.475734 1.370313
    10 31.205810 0.000000 0.000000 -0.235609 0.000000 0.000000
    11 0.252557 -0.290504 -5.195652 3.837004 1.348025 -0.863022
    12 0.252558 1.514458 5.316996 0.740966 -1.338815 0.816312
    13 0.000000 0.000003 -58.197571 0.000000 1.570795 -1.570796
    14 0.000000 0.000004 -82.250572 0.000000 1.570795 -1.570796
    15 0.000000 0.000005 -109.159569 0.000000 1.570795 -1.570796
    16 0.000000 0.000006 -137.401566 0.000000 1.570795 -1.570796
    17 0.000000 0.000006 -147.493576 0.000000 1.570795 -1.570796
    18 0.000000 0.000007 -153.883575 0.000000 1.570795 -1.570796
    19 0.000000 0.000007 -157.752563 0.000000 1.570795 -1.570796
    20 0.000000 0.000007 -161.397568 0.000000 1.570795 -1.570796
  time 29
    0 0.000000 0.000000 1.171719 0.000000 1.570795 -1.570796
    1 9.369289 0.000000 0.000000 0.000000 0.000000 0.000000
    2 3.658436 11.721178 -0.828150 -0.055105 0.070396 1.480528
    3 2.986541 -0.597674 -7.960423 -2.478408 1.481421 -0.995917
    4 1.767753 -9.142685 0.644551 3.196698 -0.070393 -1.661065
    5 2.060731 0.828150 11.031958 -0.663064 -1.481418 2.145584
    6 15.778856 -7.207273 -2.741646 2.957250 0.312325 -1.367758
    7 20.243836 1.568605 -6.354743 0.223662 1.316406 1.725237
    8 19.321933 -2.788547 7.443700 2.870065 -0.933450 -1.787134
    9 18.294558 7.174950 3.573725 -0.030758 -0.475073 1.475362
    10 30.299533 0.000000 0.000000 -0.268372 0.000000 0.000000
    11 0.272089 -0.313942 -5.609727 3.234530 1.399618 -1.476494
    12 0.272090 1.635556 5.742790 0.292655 -1.392694 1.273715
    13 0.000000 0.000003 -58.197571 0.000000 1.570795 -1.570796
    14 0.000000 0.000004 -82.250572 0.000000 1.570795 -1.570796
    15 0.000000 0.000005 -109.159569 0.000000 1.570795 -1.570796
    16 0.000000 0.000006 -137.401566 0.000000 1.570795 -1.570796
    17 0.000000 0.000006 -147.493576 0.000000 1.570795 -1.570796
    18 0.000000 0.000007 -153.883575 0.000000 1.570795 -1.570796
    19 0.000000 0.000007 -157.752563 0.000000 1.570795 -1.570796
    20 0.000000 0.000007 -161.397568 0.000000 1.570795 -1.570796
  time 30
    0 0.000000 0.000000 1.171719 0.000000 1.570795 -1.570796
    1 9.369289 0.000000 0.000000 0.000000 0.000000 0.000000
    2 3.314675 12.076658 -0.851588 -0.055105 0.070396 1.480528
    3 2.623248 -0.621113 -8.257307 -2.478408 1.481421 -0.995917
    4 1.369303 -9.478632 0.667989 3.196698 -0.070393 -1.661065
    5 1.666188 0.859401 11.442127 -0.663064 -1.481418 2.145584
    6 15.470253 -7.652599 -2.893994 2.921273 0.324592 -1.482524
    7 19.993829 1.681890 -6.811788 0.495140 1.288161 2.006597
    8 19.013330 -2.952614 7.889026 2.966417 -0.922060 -1.886227
    9 18.044550 7.589025 3.788575 -0.080394 -0.469691 1.584243
    10 29.674514 0.000000 0.000000 -0.294520 0.000000 0.000000
    11 0.295527 -0.341287 -6.090210 2.512423 1.359426 -2.210741
    12 0.295528 1.776185 6.231086 -0.359354 -1.388590 1.935662
    13 0.000000 0.000003 -58.197571 0.000000 1.570795 -1.570796
    14 0.000000 0.000004 -82.250572 0.000000 1.570795 -1.570796
    15 0.000000 0.000005 -109.159569 0.000000 1.570795 -1.570796
    16 0.000000 0.000006 -137.401566 0.000000 1.570795 -1.570796
    17 0.000000 0.000006 -147.493576 0.000000 1.570795 -1.570796
    18 0.000000 0.000007 -153.883575 0.000000 1.570795 -1.570796
    19 0.000000 0.000007 -157.752563 0.000000 1.570795 -1.570796
    20 0.000000 0.000007 -161.397568 0.000000 1.570795 -1.570796
  time 31
    0 0.000000 0.000000 1.171719 0.000000 1.570795 -1.570796
    1 9.369289 0.000000 0.000000 0.000000 0.000000 0.000000
    2 3.084199 12.193849 -0.863308 -0.055105 0.070396 1.480528
    3 2.388866 -0.625019 -8.354966 -2.478408 1.481421 -0.995917
    4 1.119296 -9.591917 0.675802 3.196698 -0.070393 -1.661065
    5 1.420087 0.867214 11.578850 -0.663064 -1.481418 2.145584
    6 15.341343 -8.031517 -3.026811 2.880595 0.333359 -1.608232
    7 19.915701 1.775643 -7.194612 0.718021 1.238903 2.240210
    8 18.884420 -3.093244 8.260131 3.066471 -0.903459 -1.989172
    9 17.966423 7.940598 3.972174 -0.129407 -0.459399 1.693631
    10 29.420600 0.000000 0.000000 -0.311819 0.000000 0.000000
    11 0.318965 -0.364725 -6.504285 2.147308 1.254352 -2.588083
    12 0.318966 1.897282 6.656880 -0.814255 -1.321096 2.400730
    13 0.000000 0.000003 -58.197571 0.000000 1.570795 -1.570796
    14 0.000000 0.000004 -82.250572 0.000000 1.570795 -1.570796
    15 0.000000 0.000005 -109.159569 0.000000 1.570795 -1.570796
    16 0.000000 0.000006 -137.401566 0.000000 1.570795 -1.570796
    17 0.000000 0.000006 -147.493576 0.000000 1.570795 -1.570796
    18 0.000000 0.000007 -153.883575 0.000000 1.570795 -1.570796
    19 0.000000 0.000007 -157.752563 0.000000 1.570795 -1.570796
    20 0.000000 0.000007 -161.397568 0.000000 1.570795 -1.570796
  time 32
    0 0.000000 0.000000 1.171719 0.000000 1.570795 -1.570796
    1 9.369289 0.000000 0.000000 0.000000 0.000000 0.000000
    2 3.076387 12.068845 -0.851588 -0.055105 0.070396 1.480528
    3 2.384960 -0.617206 -8.249494 -2.478408 1.481421 -0.995917
    4 1.131015 -9.470820 0.667989 3.196698 -0.070393 -1.661065
    5 1.431806 0.859401 11.430408 -0.663064 -1.481418 2.145584
    6 15.337436 -8.183865 -3.077594 2.837459 0.337283 -1.739165
    7 19.931327 1.814707 -7.354773 0.880595 1.175145 2.414082
    8 18.880513 -3.151839 8.412480 3.163694 -0.877785 -2.089532
    9 17.982048 8.085134 4.046395 -0.175840 -0.444668 1.799837
    10 29.615918 0.000000 0.000000 -0.318070 0.000000 0.000000
    11 0.326778 -0.376444 -6.730855 1.988792 1.139649 -2.758056
    12 0.326779 1.963691 6.887356 -1.037520 -1.230590 2.633770
    13 0.000000 0.000003 -58.197571 0.000000 1.570795 -1.570796
    14 0.000000 0.000004 -82.250572 0.000000 1.570795 -1.570796
    15 0.000000 0.000005 -109.159569 0.000000 1.570795 -1.570796
    16 0.000000 0.000006 -137.401566 0.000000 1.570795 -1.570796
    17 0.000000 0.000006 -147.493576 0.000000 1.570795 -1.570796
    18 0.000000 0.000007 -153.883575 0.000000 1.570795 -1.570796
    19 0.000000 0.000007 -157.752563 0.000000 1.570795 -1.570796
    20 0.000000 0.000007 -161.397568 0.000000 1.570795 -1.570796
  time 33
    0 0.000000 0.000000 1.171719 0.000000 1.570795 -1.570796
    1 9.369289 0.000000 0.000000 0.000000 0.000000 0.000000
    2 3.541245 11.686021 -0.824244 -0.055105 0.070396 1.480528
    3 2.869350 -0.593768 -7.929172 -2.478408 1.481421 -0.995917
    4 1.658375 -9.103621 0.644551 3.196698 -0.070393 -1.661065
    5 1.947446 0.824244 10.988988 -0.663064 -1.481418 2.145584
    6 15.575725 -8.129176 -3.058062 2.795021 0.335905 -1.867517
    7 20.165709 1.802987 -7.296178 0.992556 1.105173 2.537173
    8 19.122708 -3.128401 8.357791 3.252098 -0.846921 -2.181027
    9 18.216431 8.034351 4.022957 -0.217732 -0.426727 1.899030
    10 30.311252 0.000000 0.000000 -0.318070 0.000000 0.000000
    11 0.322872 -0.372538 -6.652727 1.878818 0.976945 -2.883763
    12 0.322872 1.940253 6.805323 -1.204698 -1.077090 2.816027
    13 0.000000 0.000003 -58.197571 0.000000 1.570795 -1.570796
    14 0.000000 0.000004 -82.250572 0.000000 1.570795 -1.570796
    15 0.000000 0.000005 -109.159569 0.000000 1.570795 -1.570796
    16 0.000000 0.000006 -137.401566 0.000000 1.570795 -1.570796
    17 0.000000 0.000006 -147.493576 0.000000 1.570795 -1.570796
    18 0.000000 0.000007 -153.883575 0.000000 1.570795 -1.570796
    19 0.000000 0.000007 -157.752563 0.000000 1.570795 -1.570796
    20 0.000000 0.000007 -161.397568 0.000000 1.570795 -1.570796
  time 34
    0 0.000000 0.000000 1.171719 0.000000 1.570795 -1.570796
    1 9.369289 0.000000 0.000000 0.000000 0.000000 0.000000
    2 4.381114 10.998500 -0.777367 -0.055105 0.070396 1.480528
    3 3.744376 -0.550798 -7.358842 -2.478408 1.481421 -0.995917
    4 2.619342 -8.451257 0.597674 3.196698 -0.070393 -1.661065
    5 2.884975 0.765648 10.199902 -0.663064 -1.481418 2.145584
    6 16.329654 -7.941670 -2.995560 2.758134 0.330496 -1.980193
    7 20.888387 1.756111 -7.108672 1.065289 1.039382 2.619956
    8 19.872731 -3.061993 8.174191 3.324662 -0.815093 -2.256323
    9 18.943015 7.858564 3.929204 -0.252346 -0.408030 1.984342
    10 31.729264 0.000000 0.000000 -0.318070 0.000000 0.000000
    11 0.311153 -0.356912 -6.355843 1.870238 0.958061 -2.894202
    12 0.311153 1.854312 6.504532 -1.226544 -1.044170 2.841000
    13 0.000000 0.000003 -58.197571 0.000000 1.570795 -1.570796
    14 0.000000 0.000004 -82.250572 0.000000 1.570795 -1.570796
    15 0.000000 0.000005 -109.159569 0.000000 1.570795 -1.570796
    16 0.000000 0.000006 -137.401566 0.000000 1.570795 -1.570796
    17 0.000000 0.000006 -147.493576 0.000000 1.570795 -1.570796
    18 0.000000 0.000007 -153.883575 0.000000 1.570795 -1.570796
    19 0.000000 0.000007 -157.752563 0.000000 1.570795 -1.570796
    20 0.000000 0.000007 -161.397568 0.000000 1.570795 -1.570796
  time 35
    0 0.000000 0.000000 1.171719 0.000000 1.570795 -1.570796
    1 9.369289 0.000000 0.000000 0.000000 0.000000 0.000000
    2 5.185826 10.041440 -0.710959 -0.055105 0.070396 1.480528
    3 4.595965 -0.492203 -6.558036 -2.478408 1.481421 -0.995917
    4 3.592028 -7.533261 0.531266 3.196698 -0.070393 -1.661065
    5 3.834223 0.683615 9.090493 -0.663064 -1.481418 2.145584
    6 17.786730 -7.472906 -2.831493 2.737173 0.325547 -2.045290
    7 22.282961 1.638920 -6.628188 1.100614 0.998446 2.661347
    8 21.325900 -2.886206 7.709333 3.366959 -0.793461 -2.300435
    9 20.337589 7.421051 3.702635 -0.272623 -0.395188 2.036252
    10 34.498880 0.000000 0.000000 -0.318070 0.000000 0.000000
    11 0.291621 -0.333474 -5.996457 2.047697 1.192245 -2.694013
    12 0.291621 1.748840 6.137333 -1.011985 -1.245115 2.606771
    13 0.000000 0.000003 -58.197571 0.000000 1.570795 -1.570796
    14 0.000000 0.000004 -82.250572 0.000000 1.570795 -1.570796
    15 0.000000 0.000005 -109.159569 0.000000 1.570795 -1.570796
    16 0.000000 0.000006 -137.401566 0.000000 1.570795 -1.570796
    17 0.000000 0.000006 -147.493576 0.000000 1.570795 -1.570796
    18 0.000000 0.000007 -153.883575 0.000000 1.570795 -1.570796
    19 0.000000 0.000007 -157.752563 0.000000 1.570795 -1.570796
    20 0.000000 0.000007 -161.397568 0.000000 1.570795 -1.570796
  time 36
    0 0.000000 0.000000 1.171719 0.000000 1.570795 -1.570796
    1 9.369289 0.000000 0.000000 0.000000 0.000000 0.000000
    2 5.568650 9.072660 -0.640645 -0.055105 0.070396 1.480528
    3 5.025665 -0.429701 -5.753324 -2.478408 1.481421 -0.995917
    4 4.146732 -6.607451 0.464858 3.196698 -0.070393 -1.661065
    5 4.357676 0.597674 7.973271 -0.663064 -1.481418 2.145584
    6 18.966453 -6.312714 -2.433043 2.746182 0.327844 -2.017075
    7 23.306430 1.345942 -5.448465 1.088969 1.012719 2.647622
    8 22.505624 -2.456506 6.560861 3.334569 -0.810225 -2.266718
    9 21.357151 6.342893 3.140118 -0.258286 -0.404395 1.999452
    10 38.764635 0.000000 0.000000 -0.318070 0.000000 0.000000
    11 0.279902 -0.321755 -5.734730 4.252650 1.178513 -0.429081
    12 0.279902 1.674619 5.867794 1.111055 -1.178506 0.429071
    13 0.000000 0.000003 -58.197571 0.000000 1.570795 -1.570796
    14 0.000000 0.000004 -82.250572 0.000000 1.570795 -1.570796
    15 0.000000 0.000005 -109.159569 0.000000 1.570795 -1.570796
    16 0.000000 0.000006 -137.401566 0.000000 1.570795 -1.570796
    17 0.000000 0.000006 -147.493576 0.000000 1.570795 -1.570796
    18 0.000000 0.000007 -153.883575 0.000000 1.570795 -1.570796
    19 0.000000 0.000007 -157.752563 0.000000 1.570795 -1.570796
    20 0.000000 0.000007 -161.397568 0.000000 1.570795 -1.570796
  time 37
    0 0.000000 0.000000 1.171719 0.000000 1.570795 -1.570796
    1 9.369289 0.000000 0.000000 0.000000 0.000000 0.000000
    2 5.482710 8.596083 -0.605487 -0.055105 0.070396 1.480528
    3 4.967070 -0.402356 -5.358781 -2.478408 1.481421 -0.995917
    4 4.150638 -6.154312 0.433607 3.196698 -0.070393 -1.661065
    5 4.342051 0.554704 7.426380 -0.663064 -1.481418 2.145584
    6 18.579723 -6.324434 -2.436949 2.923033 0.324097 -1.477053
    7 22.923605 1.349849 -5.460184 0.479331 1.290609 1.990128
    8 22.118893 -2.460412 6.572580 2.546986 -0.929316 -1.455346
    9 20.974327 6.354612 3.144024 0.037413 -0.474649 1.326428
    10 37.577099 0.000000 0.000000 -0.318070 0.000000 0.000000
    11 0.272089 -0.310036 -5.558944 4.292901 1.141211 -0.385167
    12 0.272090 1.623837 5.688101 1.150353 -1.142183 0.386216
    13 0.000000 0.000003 -58.197571 0.000000 1.570795 -1.570796
    14 0.000000 0.000004 -82.250572 0.000000 1.570795 -1.570796
    15 0.000000 0.000005 -109.159569 0.000000 1.570795 -1.570796
    16 0.000000 0.000006 -137.401566 0.000000 1.570795 -1.570796
    17 0.000000 0.000006 -147.493576 0.000000 1.570795 -1.570796
    18 0.000000 0.000007 -153.883575 0.000000 1.570795 -1.570796
    19 0.000000 0.000007 -157.752563 0.000000 1.570795 -1.570796
    20 0.000000 0.000007 -161.397568 0.000000 1.570795 -1.570796
  time 38
    0 0.000000 0.000000 1.171719 0.000000 1.570795 -1.570796
    1 9.369289 0.000000 0.000000 0.000000 0.000000 0.000000
    2 5.193639 8.650772 -0.609394 -0.055105 0.070396 1.480528
    3 4.674092 -0.406262 -5.405658 -2.478408 1.481421 -0.995917
    4 3.849848 -6.205095 0.437513 3.196698 -0.070393 -1.661065
    5 4.045167 0.562517 7.488881 -0.663064 -1.481418 2.145584
    6 17.974236 -6.676007 -2.558047 2.936713 0.319855 -1.433717
    7 22.364995 1.435789 -5.815664 0.268485 1.313469 1.771541
    8 21.513406 -2.589322 6.916340 2.470993 -0.918753 -1.377148
    9 20.419623 6.678841 3.315904 0.065870 -0.471769 1.263962
    10 36.471596 0.000000 0.000000 -0.318070 0.000000 0.000000
    11 0.260370 -0.302223 -5.383157 4.288921 1.145268 -0.389571
    12 0.260370 1.573054 5.512314 1.148653 -1.143908 0.388066
    13 0.000000 0.000003 -58.197571 0.000000 1.570795 -1.570796
    14 0.000000 0.000004 -82.250572 0.000000 1.570795 -1.570796
    15 0.000000 0.000005 -109.159569 0.000000 1.570795 -1.570796
    16 0.000000 0.000006 -137.401566 0.000000 1.570795 -1.570796
    17 0.000000 0.000006 -147.493576 0.000000 1.570795 -1.570796
    18 0.000000 0.000007 -153.883575 0.000000 1.570795 -1.570796
    19 0.000000 0.000007 -157.752563 0.000000 1.570795 -1.570796
    20 0.000000 0.000007 -161.397568 0.000000 1.570795 -1.570796
  time 39
    0 0.000000 0.000000 1.171719 0.000000 1.570795 -1.570796
    1 9.369289 0.000000 0.000000 0.000000 0.000000 0.000000
    2 4.791283 9.053128 -0.640645 -0.055105 0.070396 1.480528
    3 4.252204 -0.429701 -5.741605 -2.478408 1.481421 -0.995917
    4 3.373271 -6.591826 0.464858 3.196698 -0.070393 -1.661065
    5 3.584215 0.597674 7.953739 -0.663064 -1.481418 2.145584
    6 17.247651 -7.386966 -2.804148 2.938898 0.319148 -1.426832
    7 21.736069 1.615482 -6.538342 0.150669 1.319984 1.649750
    8 20.790728 -2.854955 7.623393 2.455697 -0.916135 -1.361424
    9 19.786791 7.342924 3.659665 0.071997 -0.470919 1.250515
    10 35.452034 0.000000 0.000000 -0.332356 0.000000 0.000000
    11 0.256464 -0.294411 -5.250341 4.223923 1.200941 -0.460001
    12 0.256464 1.533990 5.375591 1.091075 -1.194430 0.450609
    13 0.000000 0.000003 -58.197571 0.000000 1.570795 -1.570796
    14 0.000000 0.000004 -82.250572 0.000000 1.570795 -1.570796
    15 0.000000 0.000005 -109.159569 0.000000 1.570795 -1.570796
    16 0.000000 0.000006 -137.401566 0.000000 1.570795 -1.570796
    17 0.000000 0.000006 -147.493576 0.000000 1.570795 -1.570796
    18 0.000000 0.000007 -153.883575 0.000000 1.570795 -1.570796
    19 0.000000 0.000007 -157.752563 0.000000 1.570795 -1.570796
    20 0.000000 0.000007 -161.397568 0.000000 1.570795 -1.570796
  time 40
    0 0.000000 0.000000 1.171719 0.000000 1.570795 -1.570796
    1 9.369289 0.000000 0.000000 0.000000 0.000000 0.000000
    2 4.373301 9.728930 -0.687521 -0.055105 0.070396 1.480528
    3 3.802972 -0.472671 -6.304122 -2.478408 1.481421 -0.995917
    4 2.838098 -7.240283 0.511734 3.196698 -0.070393 -1.661065
    5 3.068574 0.656270 8.735013 -0.663064 -1.481418 2.145584
    6 16.759355 -7.765884 -2.933058 2.931648 0.321516 -1.449822
    7 21.294649 1.709235 -6.928979 0.134275 1.320586 1.632919
    8 20.302432 -2.995584 7.998405 2.488903 -0.921601 -1.395616
    9 19.349278 7.694497 3.843264 0.058686 -0.472666 1.279796
    10 34.530131 0.000000 0.000000 -0.373466 0.000000 0.000000
    11 0.252557 -0.290504 -5.195652 4.069554 1.283913 -0.622927
    12 0.252558 1.514458 5.316996 0.960126 -1.270481 0.589306
    13 0.000000 0.000003 -58.197571 0.000000 1.570795 -1.570796
    14 0.000000 0.000004 -82.250572 0.000000 1.570795 -1.570796
    15 0.000000 0.000005 -109.159569 0.000000 1.570795 -1.570796
    16 0.000000 0.000006 -137.401566 0.000000 1.570795 -1.570796
    17 0.000000 0.000006 -147.493576 0.000000 1.570795 -1.570796
    18 0.000000 0.000007 -153.883575 0.000000 1.570795 -1.570796
    19 0.000000 0.000007 -157.752563 0.000000 1.570795 -1.570796
    20 0.000000 0.000007 -161.397568 0.000000 1.570795 -1.570796
  time 41
    0 0.000000 0.000000 1.171719 0.000000 1.570795 -1.570796
    1 9.369289 0.000000 0.000000 0.000000 0.000000 0.000000
    2 4.033447 10.404732 -0.734397 -0.055105 0.070396 1.480528
    3 3.424054 -0.515641 -6.862733 -2.478408 1.481421 -0.995917
    4 2.377147 -7.880927 0.554704 3.196698 -0.070393 -1.661065
    5 2.627155 0.714866 9.512381 -0.663064 -1.481418 2.145584
    6 16.509347 -7.945577 -2.995560 2.917845 0.325511 -1.493282
    7 21.068080 1.756111 -7.108672 0.197639 1.317837 1.698293
    8 20.052424 -3.061993 8.178098 2.556785 -0.930373 -1.465372
    9 19.122708 7.862471 3.933111 0.032935 -0.474932 1.336188
    10 33.733231 0.000000 0.000000 -0.434801 0.000000 0.000000
    11 0.256464 -0.294411 -5.258153 3.772047 1.359239 -0.929575
    12 0.256464 1.533990 5.383404 0.732012 -1.340726 0.825517
    13 0.000000 0.000003 -58.197571 0.000000 1.570795 -1.570796
    14 0.000000 0.000004 -82.250572 0.000000 1.570795 -1.570796
    15 0.000000 0.000005 -109.159569 0.000000 1.570795 -1.570796
    16 0.000000 0.000006 -137.401566 0.000000 1.570795 -1.570796
    17 0.000000 0.000006 -147.493576 0.000000 1.570795 -1.570796
    18 0.000000 0.000007 -153.883575 0.000000 1.570795 -1.570796
    19 0.000000 0.000007 -157.752563 0.000000 1.570795 -1.570796
    20 0.000000 0.000007 -161.397568 0.000000 1.570795 -1.570796
  time 42
    0 0.000000 0.000000 1.171719 0.000000 1.570795 -1.570796
    1 9.369289 0.000000 0.000000 0.000000 0.000000 0.000000
    2 3.552964 10.834433 -0.765648 -0.055105 0.070396 1.480528
    3 2.924039 -0.542985 -7.222119 -2.478408 1.481421 -0.995917
    4 1.818536 -8.291096 0.585955 3.196698 -0.070393 -1.661065
    5 2.084169 0.750023 10.008490 -0.663064 -1.481418 2.145584
    6 16.396062 -8.023704 -3.022905 2.900828 0.329647 -1.546147
    7 20.966514 1.775643 -7.190706 0.305632 1.310569 1.809970
    8 19.939139 -3.089337 8.256225 2.641651 -0.937170 -1.552593
    9 19.021143 7.936692 3.968268 0.003514 -0.475971 1.400461
    10 33.127744 0.000000 0.000000 -0.502318 0.000000 0.000000
    11 0.291621 -0.333474 -5.976925 3.201492 1.400038 -1.510013
    12 0.291621 1.744934 6.113895 0.353093 -1.389010 1.212273
    13 0.000000 0.000003 -58.197571 0.000000 1.570795 -1.570796
    14 0.000000 0.000004 -82.250572 0.000000 1.570795 -1.570796
    15 0.000000 0.000005 -109.159569 0.000000 1.570795 -1.570796
    16 0.000000 0.000006 -137.401566 0.000000 1.570795 -1.570796
    17 0.000000 0.000006 -147.493576 0.000000 1.570795 -1.570796
    18 0.000000 0.000007 -153.883575 0.000000 1.570795 -1.570796
    19 0.000000 0.000007 -157.752563 0.000000 1.570795 -1.570796
    20 0.000000 0.000007 -161.397568 0.000000 1.570795 -1.570796
  time 43
    0 0.000000 0.000000 1.171719 0.000000 1.570795 -1.570796
    1 9.369289 0.000000 0.000000 0.000000 0.000000 0.000000
    2 3.416241 10.971156 -0.773461 -0.055105 0.070396 1.480528
    3 2.783409 -0.550798 -7.335404 -2.478408 1.481421 -0.995917
    4 1.662281 -8.420006 0.593768 3.196698 -0.070393 -1.661065
    5 1.927915 0.761742 10.164744 -0.663064 -1.481418 2.145584
    6 16.364812 -8.043236 -3.030717 2.884356 0.332758 -1.596676
    7 20.939170 1.779549 -7.210238 0.420391 1.298668 1.928871
    8 19.907888 -3.097150 8.275757 2.723251 -0.939467 -1.636331
    9 18.993798 7.956224 3.979987 -0.022361 -0.475498 1.456999
    10 32.846485 0.000000 0.000000 -0.554510 0.000000 0.000000
    11 0.326778 -0.372538 -6.672259 2.511926 1.359356 -2.211225
    12 0.326779 1.948065 6.828761 -0.254893 -1.394605 1.829515
    13 0.000000 0.000003 -58.197571 0.000000 1.570795 -1.570796
    14 0.000000 0.000004 -82.250572 0.000000 1.570795 -1.570796
    15 0.000000 0.000005 -109.159569 0.000000 1.570795 -1.570796
    16 0.000000 0.000006 -137.401566 0.000000 1.570795 -1.570796
    17 0.000000 0.000006 -147.493576 0.000000 1.570795 -1.570796
    18 0.000000 0.000007 -153.883575 0.000000 1.570795 -1.570796
    19 0.000000 0.000007 -157.752563 0.000000 1.570795 -1.570796
    20 0.000000 0.000007 -161.397568 0.000000 1.570795 -1.570796
  time 44
    0 0.000000 0.000000 1.171719 0.000000 1.570795 -1.570796
    1 9.369289 0.000000 0.000000 0.000000 0.000000 0.000000
    2 4.646747 10.619582 -0.750023 -0.055105 0.070396 1.480528
    3 4.029541 -0.527360 -7.042426 -2.478408 1.481421 -0.995917
    4 2.955289 -8.087965 0.570330 3.196698 -0.070393 -1.661065
    5 3.209204 0.730491 9.762388 -0.663064 -1.481418 2.145584
    6 17.669539 -7.187741 -2.733833 2.871889 0.334597 -1.634788
    7 22.126706 1.564699 -6.335211 0.513420 1.285224 2.025668
    8 21.208709 -2.780734 7.424168 2.782695 -0.938640 -1.697380
    9 20.181334 7.155418 3.562006 -0.040741 -0.474365 1.497196
    10 33.506662 0.000000 0.000000 -0.567428 0.000000 0.000000
    11 0.318965 -0.364725 -6.519911 2.092051 1.223182 -2.646576
    12 0.318966 1.901189 6.668600 -0.891150 -1.297525 2.480363
    13 0.000000 0.000003 -58.197571 0.000000 1.570795 -1.570796
    14 0.000000 0.000004 -82.250572 0.000000 1.570795 -1.570796
    15 0.000000 0.000005 -109.159569 0.000000 1.570795 -1.570796
    16 0.000000 0.000006 -137.401566 0.000000 1.570795 -1.570796
    17 0.000000 0.000006 -147.493576 0.000000 1.570795 -1.570796
    18 0.000000 0.000007 -153.883575 0.000000 1.570795 -1.570796
    19 0.000000 0.000007 -157.752563 0.000000 1.570795 -1.570796
    20 0.000000 0.000007 -161.397568 0.000000 1.570795 -1.570796
end
