// Created by Crowbar 0.24.0.0
version 1
nodes
  0 "Barnacle.base" -1
  1 "Barnacle.body" 0
  2 "Barnacle.belly2" 1
  3 "Barnacle.belly3" 1
  4 "Barnacle.belly4" 1
  5 "Barnacle.belly1" 1
  6 "Barnacle.mouth3" 1
  7 "Barnacle.mouth2" 1
  8 "Barnacle.mouth4" 1
  9 "Barnacle.mouth1" 1
  10 "Barnacle.innards" 1
  11 "Barnacle.jaw2" 10
  12 "Barnacle.jaw1" 10
  13 "Barnacle.tongue1" -1
  14 "Barnacle.tongue2" -1
  15 "Barnacle.tongue3" -1
  16 "Barnacle.tongue4" -1
  17 "Barnacle.tongue5" -1
  18 "Barnacle.tongue6" -1
  19 "Barnacle.tongue7" -1
  20 "Barnacle.tongue8" -1
end
skeleton
  time 0
    0 0.000000 0.000000 1.171719 0.000000 1.570795 -1.570796
    1 9.369289 0.000000 0.000000 0.000000 0.000000 0.000000
    2 1.584154 7.599959 0.000000 0.000000 0.000000 1.570796
    3 1.584154 0.000000 -6.319748 0.000000 1.570796 1.570796
    4 1.584154 -7.275440 0.000000 3.141593 0.000001 -1.570797
    5 1.584154 0.000000 8.758451 0.000000 -1.570796 1.570796
    6 20.595409 -5.707227 -6.390195 3.141593 0.840591 -1.570797
    7 20.595409 5.869518 -6.241458 0.000000 0.817303 1.570796
    8 20.595409 -6.511317 5.568643 3.141593 -0.708724 -1.570797
    9 20.595409 4.764720 7.120708 0.000000 -0.979883 1.570796
    10 36.209869 0.000000 0.000000 0.000000 0.000000 0.000000
    11 0.205681 -0.235815 -4.195621 3.141593 1.400341 -1.570797
    12 0.205681 1.225387 4.293527 -0.000001 -1.400341 1.570797
    13 0.000000 0.000003 -58.197571 0.000000 1.570795 -1.570796
    14 0.000000 0.000004 -82.250572 0.000000 1.570795 -1.570796
    15 0.000000 0.000005 -109.159569 0.000000 1.570795 -1.570796
    16 0.000000 0.000006 -137.401566 0.000000 1.570795 -1.570796
    17 0.000000 0.000006 -147.493576 0.000000 1.570795 -1.570796
    18 0.000000 0.000007 -153.883575 0.000000 1.570795 -1.570796
    19 0.000000 0.000007 -157.752563 0.000000 1.570795 -1.570796
    20 0.000000 0.000007 -161.397568 0.000000 1.570795 -1.570796
end
