// Created by Crowbar 0.24.0.0
version 1
nodes
  0 "Barnacle.base" -1
  1 "Barnacle.body" 0
  2 "Barnacle.belly2" 1
  3 "Barnacle.belly3" 1
  4 "Barnacle.belly4" 1
  5 "Barnacle.belly1" 1
  6 "Barnacle.mouth3" 1
  7 "Barnacle.mouth2" 1
  8 "Barnacle.mouth4" 1
  9 "Barnacle.mouth1" 1
  10 "Barnacle.innards" 1
  11 "Barnacle.jaw2" 10
  12 "Barnacle.jaw1" 10
  13 "Barnacle.tongue1" -1
  14 "Barnacle.tongue2" -1
  15 "Barnacle.tongue3" -1
  16 "Barnacle.tongue4" -1
  17 "Barnacle.tongue5" -1
  18 "Barnacle.tongue6" -1
  19 "Barnacle.tongue7" -1
  20 "Barnacle.tongue8" -1
end
skeleton
  time 0
    0 0.000000 0.000000 1.171719 0.000000 1.570795 -1.570796
    1 9.369289 0.000000 0.000000 0.000000 0.000000 0.000000
    2 4.525650 10.560987 -0.746117 -0.055105 0.070396 1.480528
    3 3.998290 -0.660176 -8.804199 -2.478408 1.481421 -0.995917
    4 2.650593 -10.107558 0.714866 3.196698 -0.070393 -1.661065
    5 2.974822 0.914090 12.199963 -0.663064 -1.481418 2.145584
    6 22.880635 -5.722853 -3.690894 3.131006 0.478055 -1.122182
    7 24.947105 1.455321 -2.889793 -0.898551 0.839786 0.377381
    8 22.943137 -3.640135 5.556924 2.147969 -0.457772 -0.841739
    9 26.263551 5.108480 4.491722 0.313862 -0.635317 0.937102
    10 6.207031 0.000000 0.000000 0.000000 0.000000 0.000000
    11 0.010277 -0.011787 -0.209717 -2.756529 1.386728 -1.179768
    12 0.010284 0.061249 0.214600 0.385047 -1.386723 1.179779
    13 0.000000 0.000003 -58.197571 0.000000 1.570795 -1.570796
    14 0.000000 0.000004 -82.250572 0.000000 1.570795 -1.570796
    15 0.000000 0.000005 -109.159569 0.000000 1.570795 -1.570796
    16 0.000000 0.000006 -137.401566 0.000000 1.570795 -1.570796
    17 0.000000 0.000006 -147.493576 0.000000 1.570795 -1.570796
    18 0.000000 0.000007 -153.883575 0.000000 1.570795 -1.570796
    19 0.000000 0.000007 -157.752563 0.000000 1.570795 -1.570796
    20 0.000000 0.000007 -161.397568 0.000000 1.570795 -1.570796
  time 1
    0 0.000000 0.000000 1.171719 0.000000 1.570795 -1.570796
    1 9.369289 0.000000 0.000000 0.000000 0.000000 0.000000
    2 4.885036 10.346136 -0.730491 -0.055105 0.070396 1.480528
    3 4.369395 -0.648457 -8.624506 -2.478408 1.481421 -0.995917
    4 3.052949 -9.904427 0.699240 3.196698 -0.070393 -1.661065
    5 3.365458 0.898465 11.953861 -0.663064 -1.481418 2.145584
    6 22.732193 -5.707227 -3.683081 3.113048 0.488449 -1.160786
    7 24.798663 1.447508 -2.874168 -0.593959 1.075422 0.778653
    8 22.798602 -3.628416 5.541299 2.349546 -0.621782 -1.158331
    9 26.115109 5.096761 4.480002 0.305278 -0.639047 0.951561
    10 6.207031 0.000000 0.000000 0.000000 0.000000 0.000000
    11 0.010277 -0.011787 -0.209717 -2.756529 1.386728 -1.179768
    12 0.010284 0.061249 0.214600 0.385047 -1.386723 1.179779
    13 0.000000 0.000003 -58.197571 0.000000 1.570795 -1.570796
    14 0.000000 0.000004 -82.250572 0.000000 1.570795 -1.570796
    15 0.000000 0.000005 -109.159569 0.000000 1.570795 -1.570796
    16 0.000000 0.000006 -137.401566 0.000000 1.570795 -1.570796
    17 0.000000 0.000006 -147.493576 0.000000 1.570795 -1.570796
    18 0.000000 0.000007 -153.883575 0.000000 1.570795 -1.570796
    19 0.000000 0.000007 -157.752563 0.000000 1.570795 -1.570796
    20 0.000000 0.000007 -161.397568 0.000000 1.570795 -1.570796
  time 2
    0 0.000000 0.000000 1.171719 0.000000 1.570795 -1.570796
    1 9.369289 0.000000 0.000000 0.000000 0.000000 0.000000
    2 5.178013 10.166443 -0.718772 -0.055105 0.070396 1.480528
    3 4.670186 -0.636738 -8.476064 -2.478408 1.481421 -0.995917
    4 3.377177 -9.732546 0.687521 3.196698 -0.070393 -1.661065
    5 3.685781 0.882839 11.746824 -0.663064 -1.481418 2.145584
    6 22.345463 -5.672070 -3.659643 3.120814 0.484065 -1.144189
    7 24.404119 1.424070 -2.835104 0.165697 1.178986 1.643610
    8 22.411871 -3.604978 5.502235 2.714160 -0.700594 -1.608207
    9 25.724472 5.061604 4.448751 0.308979 -0.637489 0.945344
    10 6.207031 0.000000 0.000000 0.000000 0.000000 0.000000
    11 0.010277 -0.011787 -0.209717 -2.756529 1.386728 -1.179768
    12 0.010284 0.061249 0.214600 0.385047 -1.386723 1.179779
    13 0.000000 0.000003 -58.197571 0.000000 1.570795 -1.570796
    14 0.000000 0.000004 -82.250572 0.000000 1.570795 -1.570796
    15 0.000000 0.000005 -109.159569 0.000000 1.570795 -1.570796
    16 0.000000 0.000006 -137.401566 0.000000 1.570795 -1.570796
    17 0.000000 0.000006 -147.493576 0.000000 1.570795 -1.570796
    18 0.000000 0.000007 -153.883575 0.000000 1.570795 -1.570796
    19 0.000000 0.000007 -157.752563 0.000000 1.570795 -1.570796
    20 0.000000 0.000007 -161.397568 0.000000 1.570795 -1.570796
  time 3
    0 0.000000 0.000000 1.171719 0.000000 1.570795 -1.570796
    1 9.369289 0.000000 0.000000 0.000000 0.000000 0.000000
    2 5.306924 10.092222 -0.710959 -0.055105 0.070396 1.480528
    3 4.803002 -0.632832 -8.413562 -2.478408 1.481421 -0.995917
    4 3.517807 -9.658325 0.683615 3.196698 -0.070393 -1.661065
    5 3.822504 0.875027 11.656977 -0.663064 -1.481418 2.145584
    6 21.798571 -5.617381 -3.624485 3.140834 0.471975 -1.100667
    7 23.849415 1.396725 -2.776508 0.472825 1.138879 1.991139
    8 21.864979 -3.565914 5.447546 2.880789 -0.692603 -1.787662
    9 25.169768 5.010821 4.405781 0.318651 -0.633192 0.929077
    10 6.207031 0.000000 0.000000 0.000000 0.000000 0.000000
    11 0.010277 -0.011787 -0.209717 -2.756529 1.386728 -1.179768
    12 0.010284 0.061249 0.214600 0.385047 -1.386723 1.179779
    13 0.000000 0.000003 -58.197571 0.000000 1.570795 -1.570796
    14 0.000000 0.000004 -82.250572 0.000000 1.570795 -1.570796
    15 0.000000 0.000005 -109.159569 0.000000 1.570795 -1.570796
    16 0.000000 0.000006 -137.401566 0.000000 1.570795 -1.570796
    17 0.000000 0.000006 -147.493576 0.000000 1.570795 -1.570796
    18 0.000000 0.000007 -153.883575 0.000000 1.570795 -1.570796
    19 0.000000 0.000007 -157.752563 0.000000 1.570795 -1.570796
    20 0.000000 0.000007 -161.397568 0.000000 1.570795 -1.570796
  time 4
    0 0.000000 0.000000 1.171719 0.000000 1.570795 -1.570796
    1 9.369289 0.000000 0.000000 0.000000 0.000000 0.000000
    2 5.252234 10.119567 -0.714866 -0.055105 0.070396 1.480528
    3 4.744407 -0.632832 -8.437000 -2.478408 1.481421 -0.995917
    4 3.459211 -9.689576 0.683615 3.196698 -0.070393 -1.661065
    5 3.763908 0.878933 11.696041 -0.663064 -1.481418 2.145584
    6 21.169646 -5.550972 -3.581515 3.167862 0.453592 -1.040118
    7 23.212677 1.361568 -2.706194 0.576264 1.111688 2.111123
    8 21.239960 -3.526851 5.385044 2.968486 -0.683417 -1.857998
    9 24.533030 4.952226 4.354999 0.332118 -0.627007 0.906230
    10 6.207031 0.000000 0.000000 0.000000 0.000000 0.000000
    11 0.010277 -0.011787 -0.209717 -2.756529 1.386728 -1.179768
    12 0.010284 0.061249 0.214600 0.385047 -1.386723 1.179779
    13 0.000000 0.000003 -58.197571 0.000000 1.570795 -1.570796
    14 0.000000 0.000004 -82.250572 0.000000 1.570795 -1.570796
    15 0.000000 0.000005 -109.159569 0.000000 1.570795 -1.570796
    16 0.000000 0.000006 -137.401566 0.000000 1.570795 -1.570796
    17 0.000000 0.000006 -147.493576 0.000000 1.570795 -1.570796
    18 0.000000 0.000007 -153.883575 0.000000 1.570795 -1.570796
    19 0.000000 0.000007 -157.752563 0.000000 1.570795 -1.570796
    20 0.000000 0.000007 -161.397568 0.000000 1.570795 -1.570796
  time 5
    0 0.000000 0.000000 1.171719 0.000000 1.570795 -1.570796
    1 9.369289 0.000000 0.000000 0.000000 0.000000 0.000000
    2 5.107699 10.201601 -0.718772 -0.055105 0.070396 1.480528
    3 4.599871 -0.636738 -8.507315 -2.478408 1.481421 -0.995917
    4 3.299050 -9.767704 0.691427 3.196698 -0.070393 -1.661065
    5 3.611560 0.886746 11.789794 -0.663064 -1.481418 2.145584
    6 20.548533 -5.488471 -3.542452 3.196984 0.430790 -0.972070
    7 22.575939 1.330317 -2.639786 0.396190 1.153830 1.903589
    8 20.614941 -3.483881 5.318635 2.900168 -0.697104 -1.736427
    9 23.900198 4.893630 4.308122 0.347232 -0.619548 0.880275
    10 6.207031 0.000000 0.000000 0.000000 0.000000 0.000000
    11 0.010277 -0.011787 -0.209717 -2.756529 1.386728 -1.179768
    12 0.010284 0.061249 0.214600 0.385047 -1.386723 1.179779
    13 0.000000 0.000003 -58.197571 0.000000 1.570795 -1.570796
    14 0.000000 0.000004 -82.250572 0.000000 1.570795 -1.570796
    15 0.000000 0.000005 -109.159569 0.000000 1.570795 -1.570796
    16 0.000000 0.000006 -137.401566 0.000000 1.570795 -1.570796
    17 0.000000 0.000006 -147.493576 0.000000 1.570795 -1.570796
    18 0.000000 0.000007 -153.883575 0.000000 1.570795 -1.570796
    19 0.000000 0.000007 -157.752563 0.000000 1.570795 -1.570796
    20 0.000000 0.000007 -161.397568 0.000000 1.570795 -1.570796
  time 6
    0 0.000000 0.000000 1.171719 0.000000 1.570795 -1.570796
    1 9.369289 0.000000 0.000000 0.000000 0.000000 0.000000
    2 4.904567 10.318792 -0.730491 -0.055105 0.070396 1.480528
    3 4.392834 -0.644551 -8.601068 -2.478408 1.481421 -0.995917
    4 3.076387 -9.877082 0.699240 3.196698 -0.070393 -1.661065
    5 3.388897 0.894559 11.922611 -0.663064 -1.481418 2.145584
    6 20.001641 -5.429875 -3.507294 3.224042 0.406255 -0.905436
    7 22.017328 1.299066 -2.581190 0.002993 1.181961 1.461647
    8 20.075862 -3.448723 5.263946 2.751067 -0.696323 -1.516396
    9 23.345493 4.842847 4.265152 0.362067 -0.611805 0.854609
    10 6.207031 0.000000 0.000000 0.000000 0.000000 0.000000
    11 0.010277 -0.011787 -0.209717 -2.756529 1.386728 -1.179768
    12 0.010284 0.061249 0.214600 0.385047 -1.386723 1.179779
    13 0.000000 0.000003 -58.197571 0.000000 1.570795 -1.570796
    14 0.000000 0.000004 -82.250572 0.000000 1.570795 -1.570796
    15 0.000000 0.000005 -109.159569 0.000000 1.570795 -1.570796
    16 0.000000 0.000006 -137.401566 0.000000 1.570795 -1.570796
    17 0.000000 0.000006 -147.493576 0.000000 1.570795 -1.570796
    18 0.000000 0.000007 -153.883575 0.000000 1.570795 -1.570796
    19 0.000000 0.000007 -157.752563 0.000000 1.570795 -1.570796
    20 0.000000 0.000007 -161.397568 0.000000 1.570795 -1.570796
  time 7
    0 0.000000 0.000000 1.171719 0.000000 1.570795 -1.570796
    1 9.369289 0.000000 0.000000 0.000000 0.000000 0.000000
    2 4.674092 10.451608 -0.738304 -0.055105 0.070396 1.480528
    3 4.154545 -0.652364 -8.714352 -2.478408 1.481421 -0.995917
    4 2.822473 -10.005992 0.707053 3.196698 -0.070393 -1.661065
    5 3.138889 0.906278 12.078865 -0.663064 -1.481418 2.145584
    6 19.611004 -5.390811 -3.483856 3.245943 0.383559 -0.848575
    7 21.626691 1.279534 -2.538220 -0.445307 1.125472 0.953970
    8 19.689132 -3.421379 5.224883 2.572626 -0.653334 -1.260801
    9 22.954856 4.807690 4.233901 0.374725 -0.604770 0.832486
    10 6.207031 0.000000 0.000000 0.000000 0.000000 0.000000
    11 0.010277 -0.011787 -0.209717 -2.756529 1.386728 -1.179768
    12 0.010284 0.061249 0.214600 0.385047 -1.386723 1.179779
    13 0.000000 0.000003 -58.197571 0.000000 1.570795 -1.570796
    14 0.000000 0.000004 -82.250572 0.000000 1.570795 -1.570796
    15 0.000000 0.000005 -109.159569 0.000000 1.570795 -1.570796
    16 0.000000 0.000006 -137.401566 0.000000 1.570795 -1.570796
    17 0.000000 0.000006 -147.493576 0.000000 1.570795 -1.570796
    18 0.000000 0.000007 -153.883575 0.000000 1.570795 -1.570796
    19 0.000000 0.000007 -157.752563 0.000000 1.570795 -1.570796
    20 0.000000 0.000007 -161.397568 0.000000 1.570795 -1.570796
  time 8
    0 0.000000 0.000000 1.171719 0.000000 1.570795 -1.570796
    1 9.369289 0.000000 0.000000 0.000000 0.000000 0.000000
    2 4.443616 10.584425 -0.746117 -0.055105 0.070396 1.480528
    3 3.912350 -0.660176 -8.823731 -2.478408 1.481421 -0.995917
    4 2.568559 -10.134902 0.714866 3.196698 -0.070393 -1.661065
    5 2.888881 0.917997 12.231214 -0.663064 -1.481418 2.145584
    6 19.466469 -5.375186 -3.472137 3.260474 0.366838 -0.808926
    7 21.478249 1.271721 -2.522594 -0.744824 0.992646 0.591200
    8 19.540690 -3.413566 5.209257 2.410351 -0.565841 -1.024149
    9 22.806414 4.795971 4.222182 0.383526 -0.599671 0.816942
    10 6.207031 0.000000 0.000000 0.000000 0.000000 0.000000
    11 0.010277 -0.011787 -0.209717 -2.756529 1.386728 -1.179768
    12 0.010284 0.061249 0.214600 0.385047 -1.386723 1.179779
    13 0.000000 0.000003 -58.197571 0.000000 1.570795 -1.570796
    14 0.000000 0.000004 -82.250572 0.000000 1.570795 -1.570796
    15 0.000000 0.000005 -109.159569 0.000000 1.570795 -1.570796
    16 0.000000 0.000006 -137.401566 0.000000 1.570795 -1.570796
    17 0.000000 0.000006 -147.493576 0.000000 1.570795 -1.570796
    18 0.000000 0.000007 -153.883575 0.000000 1.570795 -1.570796
    19 0.000000 0.000007 -157.752563 0.000000 1.570795 -1.570796
    20 0.000000 0.000007 -161.397568 0.000000 1.570795 -1.570796
  time 9
    0 0.000000 0.000000 1.171719 0.000000 1.570795 -1.570796
    1 9.369289 0.000000 0.000000 0.000000 0.000000 0.000000
    2 4.240485 10.701616 -0.757836 -0.055105 0.070396 1.480528
    3 3.705313 -0.667989 -8.921390 -2.478408 1.481421 -0.995917
    4 2.341989 -10.244281 0.722678 3.196698 -0.070393 -1.661065
    5 2.670125 0.929716 12.364030 -0.663064 -1.481418 2.145584
    6 19.880544 -5.410343 -3.495575 3.265752 0.360368 -0.794050
    7 21.896230 1.291253 -2.561658 -0.900893 0.836396 0.373696
    8 19.958671 -3.437004 5.248321 2.286128 -0.454603 -0.837254
    9 23.228302 4.827222 4.249527 0.386823 -0.597688 0.811086
    10 6.207031 0.000000 0.000000 0.000000 0.000000 0.000000
    11 0.010277 -0.011787 -0.209717 -2.756529 1.386728 -1.179768
    12 0.010284 0.061249 0.214600 0.385047 -1.386723 1.179779
    13 0.000000 0.000003 -58.197571 0.000000 1.570795 -1.570796
    14 0.000000 0.000004 -82.250572 0.000000 1.570795 -1.570796
    15 0.000000 0.000005 -109.159569 0.000000 1.570795 -1.570796
    16 0.000000 0.000006 -137.401566 0.000000 1.570795 -1.570796
    17 0.000000 0.000006 -147.493576 0.000000 1.570795 -1.570796
    18 0.000000 0.000007 -153.883575 0.000000 1.570795 -1.570796
    19 0.000000 0.000007 -157.752563 0.000000 1.570795 -1.570796
    20 0.000000 0.000007 -161.397568 0.000000 1.570795 -1.570796
  time 10
    0 0.000000 0.000000 1.171719 0.000000 1.570795 -1.570796
    1 9.369289 0.000000 0.000000 0.000000 0.000000 0.000000
    2 4.095949 10.783650 -0.761742 -0.055105 0.070396 1.480528
    3 3.560777 -0.675802 -8.991704 -2.478408 1.481421 -0.995917
    4 2.185735 -10.322408 0.730491 3.196698 -0.070393 -1.661065
    5 2.513870 0.933622 12.461689 -0.663064 -1.481418 2.145584
    6 20.759477 -5.500190 -3.550264 3.250463 0.378504 -0.836404
    7 22.790789 1.334223 -2.651505 -0.974080 0.704060 0.249956
    8 20.829792 -3.491693 5.334261 2.200663 -0.353056 -0.711673
    9 24.115048 4.905349 4.315935 0.377430 -0.603212 0.827715
    10 6.207031 0.000000 0.000000 0.000000 0.000000 0.000000
    11 0.010277 -0.011787 -0.209717 -2.756529 1.386728 -1.179768
    12 0.010284 0.061249 0.214600 0.385047 -1.386723 1.179779
    13 0.000000 0.000003 -58.197571 0.000000 1.570795 -1.570796
    14 0.000000 0.000004 -82.250572 0.000000 1.570795 -1.570796
    15 0.000000 0.000005 -109.159569 0.000000 1.570795 -1.570796
    16 0.000000 0.000006 -137.401566 0.000000 1.570795 -1.570796
    17 0.000000 0.000006 -147.493576 0.000000 1.570795 -1.570796
    18 0.000000 0.000007 -153.883575 0.000000 1.570795 -1.570796
    19 0.000000 0.000007 -157.752563 0.000000 1.570795 -1.570796
    20 0.000000 0.000007 -161.397568 0.000000 1.570795 -1.570796
  time 11
    0 0.000000 0.000000 1.171719 0.000000 1.570795 -1.570796
    1 9.369289 0.000000 0.000000 0.000000 0.000000 0.000000
    2 4.041260 10.814901 -0.765648 -0.055105 0.070396 1.480528
    3 3.502181 -0.675802 -9.015143 -2.478408 1.481421 -0.995917
    4 2.127139 -10.353659 0.730491 3.196698 -0.070393 -1.661065
    5 2.455274 0.937529 12.496847 -0.663064 -1.481418 2.145584
    6 21.736069 -5.601755 -3.616673 3.215002 0.414846 -0.928118
    7 23.786913 1.388912 -2.760883 -0.996980 0.644935 0.204158
    8 21.806384 -3.558102 5.435827 2.140293 -0.305888 -0.661862
    9 25.107266 4.999102 4.397969 0.357029 -0.614496 0.863358
    10 6.207031 0.000000 0.000000 0.000000 0.000000 0.000000
    11 0.010277 -0.011787 -0.209717 -2.756529 1.386728 -1.179768
    12 0.010284 0.061249 0.214600 0.385047 -1.386723 1.179779
    13 0.000000 0.000003 -58.197571 0.000000 1.570795 -1.570796
    14 0.000000 0.000004 -82.250572 0.000000 1.570795 -1.570796
    15 0.000000 0.000005 -109.159569 0.000000 1.570795 -1.570796
    16 0.000000 0.000006 -137.401566 0.000000 1.570795 -1.570796
    17 0.000000 0.000006 -147.493576 0.000000 1.570795 -1.570796
    18 0.000000 0.000007 -153.883575 0.000000 1.570795 -1.570796
    19 0.000000 0.000007 -157.752563 0.000000 1.570795 -1.570796
    20 0.000000 0.000007 -161.397568 0.000000 1.570795 -1.570796
  time 12
    0 0.000000 0.000000 1.171719 0.000000 1.570795 -1.570796
    1 9.369289 0.000000 0.000000 0.000000 0.000000 0.000000
    2 4.197515 10.740680 -0.757836 -0.055105 0.070396 1.480528
    3 3.662343 -0.671896 -8.952641 -2.478408 1.481421 -0.995917
    4 2.295113 -10.279438 0.726585 3.196698 -0.070393 -1.661065
    5 2.619342 0.929716 12.407000 -0.663064 -1.481418 2.145584
    6 22.536875 -5.691602 -3.671362 3.170805 0.451435 -1.033357
    7 24.599438 1.435789 -2.854636 -0.979610 0.690993 0.239409
    8 22.603283 -3.616697 5.521767 2.110136 -0.342906 -0.700592
    9 25.915884 5.077229 4.464377 0.333610 -0.626252 0.903628
    10 6.207031 0.000000 0.000000 0.000000 0.000000 0.000000
    11 0.010277 -0.011787 -0.209717 -2.756529 1.386728 -1.179768
    12 0.010284 0.061249 0.214600 0.385047 -1.386723 1.179779
    13 0.000000 0.000003 -58.197571 0.000000 1.570795 -1.570796
    14 0.000000 0.000004 -82.250572 0.000000 1.570795 -1.570796
    15 0.000000 0.000005 -109.159569 0.000000 1.570795 -1.570796
    16 0.000000 0.000006 -137.401566 0.000000 1.570795 -1.570796
    17 0.000000 0.000006 -147.493576 0.000000 1.570795 -1.570796
    18 0.000000 0.000007 -153.883575 0.000000 1.570795 -1.570796
    19 0.000000 0.000007 -157.752563 0.000000 1.570795 -1.570796
    20 0.000000 0.000007 -161.397568 0.000000 1.570795 -1.570796
  time 13
    0 0.000000 0.000000 1.171719 0.000000 1.570795 -1.570796
    1 9.369289 0.000000 0.000000 0.000000 0.000000 0.000000
    2 4.525650 10.560987 -0.746117 -0.055105 0.070396 1.480528
    3 3.998290 -0.660176 -8.804199 -2.478408 1.481421 -0.995917
    4 2.650593 -10.107558 0.714866 3.196698 -0.070393 -1.661065
    5 2.974822 0.914090 12.199963 -0.663064 -1.481418 2.145584
    6 22.880635 -5.722853 -3.690894 3.131006 0.478055 -1.122182
    7 24.947105 1.455321 -2.889793 -0.900893 0.836396 0.373696
    8 22.943137 -3.640135 5.556924 2.145138 -0.455246 -0.838151
    9 26.263551 5.108480 4.491722 0.313862 -0.635317 0.937102
    10 6.207031 0.000000 0.000000 0.000000 0.000000 0.000000
    11 0.010277 -0.011787 -0.209717 -2.756529 1.386728 -1.179768
    12 0.010284 0.061249 0.214600 0.385047 -1.386723 1.179779
    13 0.000000 0.000003 -58.197571 0.000000 1.570795 -1.570796
    14 0.000000 0.000004 -82.250572 0.000000 1.570795 -1.570796
    15 0.000000 0.000005 -109.159569 0.000000 1.570795 -1.570796
    16 0.000000 0.000006 -137.401566 0.000000 1.570795 -1.570796
    17 0.000000 0.000006 -147.493576 0.000000 1.570795 -1.570796
    18 0.000000 0.000007 -153.883575 0.000000 1.570795 -1.570796
    19 0.000000 0.000007 -157.752563 0.000000 1.570795 -1.570796
    20 0.000000 0.000007 -161.397568 0.000000 1.570795 -1.570796
end
