$modelname "crane_hook_cargo_winch.mdl"

$bodygroup "Body"
{
	studio "hook.smd"
}

$surfaceprop "solidmetal"

$contents "solid"

$cdmaterials "models\hook\"

$sequence "stupidbullshit" {
	"hook.smd"
}

$collisionmodel "hook_physics.smd"
{
	$mass 125
	$inertia 1
	$damping 0
	$rotdamping 0
	$rootbone " "
	$concave
}
