// Created by Crowbar 0.44.0.0
version 1
nodes
  0 "Bip01" -1
  1 "Bip01 Pelvis" 0
  2 "Bip01 Spine" 1
  3 "Bip01 Spine1" 2
  4 "Bip01 Spine2" 3
  5 "Bip01 Spine3" 4
  6 "Bip01 Neck" 5
  7 "Bip01 R Arm" 6
  8 "Bip01 R Arm1" 7
  9 "Bip01 R Arm2" 8
  10 "Bip01 R Hand" 9
  11 "egon" 10
  12 "handle" 11
  13 "Bip01 R Finger0" 10
  14 "Bip01 R Finger01" 13
  15 "Bip01 R Finger02" 14
  16 "Bip01 R Finger1" 10
  17 "Bip01 R Finger11" 16
  18 "Bip01 R Finger12" 17
  19 "Bip01 R Finger2" 10
  20 "Bip01 R Finger21" 19
  21 "Bip01 R Finger22" 20
  22 "Bip01 R Finger3" 10
  23 "Bip01 R Finger31" 22
  24 "Bip01 R Finger32" 23
  25 "Bip01 R Finger4" 10
  26 "Bip01 R Finger41" 25
  27 "Bip01 R Finger42" 26
  28 "R_Arm_bone" 9
  29 "Bip01 L Arm" 6
  30 "Bip01 L Arm1" 29
  31 "Bip01 L Arm2" 30
  32 "Bip01 L Hand" 31
  33 "Bip01 L Finger0" 32
  34 "Bip01 L Finger01" 33
  35 "Bip01 L Finger02" 34
  36 "Bip01 L Finger1" 32
  37 "Bip01 L Finger11" 36
  38 "Bip01 L Finger12" 37
  39 "Bip01 L Finger2" 32
  40 "Bip01 L Finger21" 39
  41 "Bip01 L Finger22" 40
  42 "Bip01 L Finger3" 32
  43 "Bip01 L Finger31" 42
  44 "Bip01 L Finger32" 43
  45 "Bip01 L Finger4" 32
  46 "Bip01 L Finger41" 45
  47 "Bip01 L Finger42" 46
  48 "L_Arm_bone" 31
end
skeleton
  time 0
    0 0.001490 -1.269570 -24.602341 0.000000 0.000000 -1.570795
    1 0.000000 0.000000 0.000000 0.000000 -1.570451 -1.570795
    2 1.326318 -0.003921 0.000002 -0.000004 -0.000001 0.000796
    3 4.926311 -0.003923 0.000000 0.000000 0.000000 0.000000
    4 4.926314 -0.003923 0.000000 0.000000 0.000000 0.000000
    5 4.926313 -0.003923 0.000000 0.000000 0.000000 0.000000
    6 4.926363 -0.001508 0.000000 0.000000 0.000000 0.059973
    7 0.000006 0.001514 -1.894737 -0.000014 1.370796 3.080810
    8 4.926315 0.000000 0.000000 -1.154046 -1.002881 1.145660
    9 11.368427 0.000000 0.000000 0.000000 0.000000 -1.909099
    10 11.368425 -0.000001 0.000000 1.570000 0.000000 0.000000
    11 0.032971 1.150015 5.622995 1.396129 -0.032008 1.508956
    12 -0.000001 0.000016 7.946509 0.000000 0.000000 0.000000
    13 1.126233 0.104084 1.358369 -1.823541 -0.487125 0.071487
    14 2.373623 0.000003 0.000001 0.000000 0.000000 0.113389
    15 1.071903 0.000002 -0.000001 0.000000 0.000000 0.017445
    16 3.789474 -0.000905 1.136844 -0.011610 -0.156576 0.079348
    17 1.136842 0.000000 -0.000001 0.000000 0.000000 0.000000
    18 1.136840 0.000000 0.000006 0.000000 0.000000 0.000000
    19 3.789474 -0.000302 0.378948 -0.005372 -0.078320 0.078679
    20 1.326316 0.000000 -0.000005 0.000000 0.000000 0.000000
    21 1.326317 0.000000 -0.000004 0.000000 0.000000 0.008722
    22 3.789474 0.000302 -0.378948 0.000794 -0.000062 0.078500
    23 1.136842 0.000000 0.000000 0.000000 0.000000 0.000000
    24 1.136842 -0.000001 -0.000001 0.000000 0.000000 0.000000
    25 3.789475 0.000905 -1.136840 0.012516 0.147755 0.079485
    26 0.947368 0.000000 -0.000002 0.000000 0.000000 0.000000
    27 0.947370 0.000001 -0.000004 0.000000 0.000000 0.000000
    28 8.551308 0.194140 -0.071740 1.257628 -1.547274 -1.282472
    29 0.000002 0.001504 1.894737 -0.000014 -1.370796 3.080837
    30 4.926316 0.000000 0.000001 -0.644753 0.916180 -1.202671
    31 11.368430 0.000000 -0.000001 0.000000 0.000000 -1.239463
    32 11.368423 -0.000002 0.000001 -0.124157 -0.506274 -0.304336
    33 1.126226 0.104085 -1.358371 2.343660 0.405977 1.055648
    34 2.373625 0.000002 0.000000 0.000000 0.000000 0.907264
    35 1.071900 -0.000002 -0.000001 0.000000 0.000000 0.287804
    36 3.789470 -0.000905 -1.136842 0.135651 0.213347 1.035391
    37 1.136841 0.000001 0.000002 0.000000 0.000000 0.758580
    38 1.136841 0.000000 -0.000002 0.000000 0.000000 0.994242
    39 3.789472 -0.000300 -0.378948 0.065439 0.043421 0.996103
    40 1.326317 0.000000 0.000000 0.000000 0.000000 0.880738
    41 1.326312 0.000001 -0.000001 0.000000 0.000000 1.125071
    42 3.789465 0.000303 0.378946 -0.000434 -0.069113 1.012224
    43 1.136846 0.000000 0.000000 0.000000 0.000000 0.967969
    44 1.136838 -0.000001 0.000000 0.000000 0.000000 0.522955
    45 3.789470 0.000905 1.136842 -0.126909 -0.156684 1.018422
    46 0.947368 0.000000 0.000000 0.000000 0.000000 1.125076
    47 0.947363 0.000001 0.000000 0.000000 0.000000 0.496820
    48 8.530912 0.189986 -0.101290 -4.704724 -0.258064 4.685457
  time 1
    0 0.001490 -1.269570 -24.602341 0.000000 0.000000 -1.570795
    1 0.000000 0.000000 0.000000 0.000000 -1.570451 -1.570795
    2 1.326318 -0.003921 0.000002 -0.000004 -0.000001 0.000796
    3 4.926311 -0.003923 0.000000 0.000000 0.000000 0.000000
    4 4.926314 -0.003923 0.000000 0.000000 0.000000 0.000000
    5 4.926313 -0.003923 0.000000 0.000000 0.000000 0.000000
    6 4.926363 -0.001508 0.000000 0.000000 0.000000 0.059973
    7 0.000006 0.001514 -1.894737 -0.000014 1.370796 3.080810
    8 4.926315 0.000000 0.000000 -1.154046 -1.002881 1.145660
    9 11.368427 0.000000 0.000000 0.000000 0.000000 -1.909099
    10 11.368425 -0.000001 0.000000 1.570000 0.000000 0.000000
    11 0.032971 1.150015 5.622995 1.396129 -0.032008 1.508956
    12 -0.000001 0.000016 7.946509 0.000000 0.000000 0.000000
    13 1.126233 0.104084 1.358369 -1.823541 -0.487125 0.071487
    14 2.373623 0.000003 0.000001 0.000000 0.000000 0.113389
    15 1.071903 0.000002 -0.000001 0.000000 0.000000 0.017445
    16 3.789474 -0.000905 1.136844 -0.011610 -0.156576 0.079348
    17 1.136842 0.000000 -0.000001 0.000000 0.000000 0.000000
    18 1.136840 0.000000 0.000006 0.000000 0.000000 0.000000
    19 3.789474 -0.000302 0.378948 -0.005372 -0.078320 0.078679
    20 1.326316 0.000000 -0.000005 0.000000 0.000000 0.000000
    21 1.326317 0.000000 -0.000004 0.000000 0.000000 0.008722
    22 3.789474 0.000302 -0.378948 0.000794 -0.000062 0.078500
    23 1.136842 0.000000 0.000000 0.000000 0.000000 0.000000
    24 1.136842 -0.000001 -0.000001 0.000000 0.000000 0.000000
    25 3.789475 0.000905 -1.136840 0.012516 0.147755 0.079485
    26 0.947368 0.000000 -0.000002 0.000000 0.000000 0.000000
    27 0.947370 0.000001 -0.000004 0.000000 0.000000 0.000000
    28 8.551308 0.194140 -0.071740 1.257628 -1.547274 -1.282472
    29 0.000002 0.001504 1.894737 -0.000014 -1.370796 3.080837
    30 4.926316 0.000000 0.000001 -0.644753 0.916180 -1.202671
    31 11.368430 0.000000 -0.000001 0.000000 0.000000 -1.239463
    32 11.368423 -0.000002 0.000001 -0.124157 -0.506274 -0.304336
    33 1.126226 0.104085 -1.358371 2.343660 0.405977 1.055648
    34 2.373625 0.000002 0.000000 0.000000 0.000000 0.907264
    35 1.071900 -0.000002 -0.000001 0.000000 0.000000 0.287804
    36 3.789470 -0.000905 -1.136842 0.135651 0.213347 1.035391
    37 1.136841 0.000001 0.000002 0.000000 0.000000 0.758580
    38 1.136841 0.000000 -0.000002 0.000000 0.000000 0.994242
    39 3.789472 -0.000300 -0.378948 0.065439 0.043421 0.996103
    40 1.326317 0.000000 0.000000 0.000000 0.000000 0.880738
    41 1.326312 0.000001 -0.000001 0.000000 0.000000 1.125071
    42 3.789465 0.000303 0.378946 -0.000434 -0.069113 1.012224
    43 1.136846 0.000000 0.000000 0.000000 0.000000 0.967969
    44 1.136838 -0.000001 0.000000 0.000000 0.000000 0.522955
    45 3.789470 0.000905 1.136842 -0.126909 -0.156684 1.018422
    46 0.947368 0.000000 0.000000 0.000000 0.000000 1.125076
    47 0.947363 0.000001 0.000000 0.000000 0.000000 0.496820
    48 8.530912 0.189986 -0.101290 -4.704724 -0.258064 4.685457
  time 2
    0 0.001490 -1.269570 -24.602341 0.000000 0.000000 -1.570795
    1 0.000000 0.000000 0.000000 0.000000 -1.570451 -1.570795
    2 1.326318 -0.003921 0.000002 -0.000004 -0.000001 0.000796
    3 4.926311 -0.003923 0.000000 0.000000 0.000000 0.000000
    4 4.926314 -0.003923 0.000000 0.000000 0.000000 0.000000
    5 4.926313 -0.003923 0.000000 0.000000 0.000000 0.000000
    6 4.926363 -0.001508 0.000000 0.000000 0.000000 0.059973
    7 0.000006 0.001514 -1.894737 -0.000014 1.370796 3.080810
    8 4.926315 0.000000 0.000000 -1.154046 -1.002881 1.145660
    9 11.368427 0.000000 0.000000 0.000000 0.000000 -1.909099
    10 11.368425 -0.000001 0.000000 1.570000 0.000000 0.000000
    11 0.032971 1.150015 5.622995 1.396129 -0.032008 1.508956
    12 -0.000001 0.000016 7.946509 0.000000 0.000000 0.000000
    13 1.126233 0.104084 1.358369 -1.823541 -0.487125 0.071487
    14 2.373623 0.000003 0.000001 0.000000 0.000000 0.113389
    15 1.071903 0.000002 -0.000001 0.000000 0.000000 0.017445
    16 3.789474 -0.000905 1.136844 -0.011610 -0.156576 0.079348
    17 1.136842 0.000000 -0.000001 0.000000 0.000000 0.000000
    18 1.136840 0.000000 0.000006 0.000000 0.000000 0.000000
    19 3.789474 -0.000302 0.378948 -0.005372 -0.078320 0.078679
    20 1.326316 0.000000 -0.000005 0.000000 0.000000 0.000000
    21 1.326317 0.000000 -0.000004 0.000000 0.000000 0.008722
    22 3.789474 0.000302 -0.378948 0.000794 -0.000062 0.078500
    23 1.136842 0.000000 0.000000 0.000000 0.000000 0.000000
    24 1.136842 -0.000001 -0.000001 0.000000 0.000000 0.000000
    25 3.789475 0.000905 -1.136840 0.012516 0.147755 0.079485
    26 0.947368 0.000000 -0.000002 0.000000 0.000000 0.000000
    27 0.947370 0.000001 -0.000004 0.000000 0.000000 0.000000
    28 8.551308 0.194140 -0.071740 1.257628 -1.547274 -1.282472
    29 0.000002 0.001504 1.894737 -0.000014 -1.370796 3.080837
    30 4.926316 0.000000 0.000001 -0.644753 0.916180 -1.202671
    31 11.368430 0.000000 -0.000001 0.000000 0.000000 -1.239463
    32 11.368423 -0.000002 0.000001 -0.124157 -0.506274 -0.304336
    33 1.126226 0.104085 -1.358371 2.343660 0.405977 1.055648
    34 2.373625 0.000002 0.000000 0.000000 0.000000 0.907264
    35 1.071900 -0.000002 -0.000001 0.000000 0.000000 0.287804
    36 3.789470 -0.000905 -1.136842 0.135651 0.213347 1.035391
    37 1.136841 0.000001 0.000002 0.000000 0.000000 0.758580
    38 1.136841 0.000000 -0.000002 0.000000 0.000000 0.994242
    39 3.789472 -0.000300 -0.378948 0.065439 0.043421 0.996103
    40 1.326317 0.000000 0.000000 0.000000 0.000000 0.880738
    41 1.326312 0.000001 -0.000001 0.000000 0.000000 1.125071
    42 3.789465 0.000303 0.378946 -0.000434 -0.069113 1.012224
    43 1.136846 0.000000 0.000000 0.000000 0.000000 0.967969
    44 1.136838 -0.000001 0.000000 0.000000 0.000000 0.522955
    45 3.789470 0.000905 1.136842 -0.126909 -0.156684 1.018422
    46 0.947368 0.000000 0.000000 0.000000 0.000000 1.125076
    47 0.947363 0.000001 0.000000 0.000000 0.000000 0.496820
    48 8.530912 0.189986 -0.101290 -4.704724 -0.258064 4.685457
end
