version 1
nodes
0 "root" -1
end
skeleton
time 0
0 0 0 0 0 0 0
end
triangles
bcrate08.vmt.001
0  -18.920002 -16.719999 7.280001  1.000000 -0.000000 0.000000  0.895833 0.104167 0
0  -18.920002 0.520940 23.271862  1.000000 -0.000000 0.000000  0.487667 0.482762 0
0  -18.920002 -16.719999 40.720001  1.000000 -0.000000 0.000000  0.895833 0.895833 0
bcrate08.vmt.001
0  -21.120001 -21.120001 2.879999  0.000000 1.000000 -0.000000  1.000000 0.000000 0
0  -2.668714 -21.120001 6.400000  0.000000 1.000000 0.000000  0.563180 0.083333 0
0  -3.961296 -21.120001 2.879999  0.000000 1.000000 0.000000  0.593781 0.000000 0
bcrate08.vmt.001
0  -21.120001 -21.120001 2.879999  -0.000000 0.000000 1.000000  0.000000 1.000000 0
0  -17.600000 -0.495161 2.879999  -0.000000 0.000000 1.000000  0.083333 0.511723 0
0  -21.120001 -0.273916 2.879999  -0.000000 0.000000 1.000000  0.000000 0.506485 0
bcrate08.vmt.001
0  -21.120001 -17.600000 41.599998  1.000000 0.000000 -0.000000  0.916667 0.916667 0
0  -21.119999 -20.390661 44.390663  1.000000 -0.000002 -0.000002  0.982733 0.982733 0
0  -21.120001 -21.120001 44.347557  1.000000 -0.000002 -0.000001  1.000000 0.981713 0
bcrate08.vmt.001
0  -17.600000 -21.120001 41.599998  -0.928476 0.371391 0.000000  0.916667 0.916667 0
0  -16.719999 -18.920002 7.280001  -0.928477 0.371389 0.000000  0.895833 0.104167 0
0  -17.600000 -21.120001 6.400000  -0.928477 0.371389 0.000000  0.916667 0.083333 0
bcrate08.vmt.001
0  -17.600000 -21.120001 6.400000  0.000000 0.371391 -0.928476  0.916667 0.083333 0
0  -1.599917 -18.920002 7.280001  0.000000 0.371392 -0.928476  0.537877 0.104167 0
0  -2.668714 -21.120001 6.400000  0.000000 0.371392 -0.928476  0.563180 0.083333 0
bcrate08.vmt.001
0  -17.600000 -17.600000 2.879999  -0.928476 0.000000 0.371391  0.083333 0.916667 0
0  -16.719999 -0.773624 5.079998  -0.928477 0.000000 0.371391  0.104167 0.518315 0
0  -17.600000 -0.495161 2.879999  -0.928477 0.000000 0.371391  0.083333 0.511723 0
bcrate08.vmt.001
0  2.328424 -16.719999 42.920002  0.000000 -0.928477 -0.371389  0.555124 0.895833 0
0  1.850674 -17.515617 44.909050  0.000000 -0.928477 -0.371389  0.543813 0.914669 0
0  -12.622564 -17.535479 44.958698  0.000000 -0.928476 -0.371392  0.201170 0.915139 0
bcrate08.vmt.001
0  -21.120001 -17.600000 41.599998  0.371389 0.000000 0.928477  0.916667 0.916667 0
0  -18.920002 -4.501568 40.720001  0.371391 0.000000 0.928477  0.606571 0.895833 0
0  -21.120001 -4.856270 41.599998  0.371391 0.000000 0.928477  0.614968 0.916667 0
bcrate08.vmt.001
0  -21.120001 -17.600000 6.400000  0.371392 -0.928476 0.000000  0.916667 0.083333 0
0  -18.920002 -16.719999 40.720001  0.371391 -0.928477 0.000000  0.895833 0.895833 0
0  -21.120001 -17.600000 41.599998  0.371391 -0.928477 0.000000  0.916667 0.916667 0
bcrate08.vmt.001
0  -21.500000 -0.585886 22.965227  -1.000000 0.000000 0.000000  0.512206 0.478442 0
0  -21.500000 -1.309083 11.393831  -1.000000 0.000000 0.000000  0.527272 0.237371 0
0  -21.500000 -19.000000 5.000000  -1.000000 0.000000 0.000000  0.895833 0.104167 0
bcrate08.vmt.001
0  -9.204883 -24.000000 0.000000  0.000000 -1.000000 0.000001  0.691768 0.000000 0
0  -4.296566 -24.000000 4.000000  0.000000 -1.000000 0.000001  0.589512 0.083333 0
0  -20.000000 -24.000000 4.000000  0.000000 -1.000000 0.000000  0.916667 0.083333 0
bcrate08.vmt.001
0  -24.000000 -24.000000 0.000000  0.000000 0.000000 -1.000000  0.000000 1.000000 0
0  -20.000000 -15.971748 0.000000  0.000000 0.000000 -1.000000  0.083333 0.832745 0
0  -20.000000 -20.000000 0.000000  0.000000 0.000000 -1.000000  0.083333 0.916667 0
bcrate08.vmt.001
0  -24.000000 -24.000000 0.000000  -1.000000 0.000000 0.000000  1.000000 0.000000 0
0  -24.000000 -20.000002 43.594959  -1.000000 0.000000 0.000000  0.916667 0.908228 0
0  -24.000000 -20.000000 4.000000  -1.000000 0.000000 0.000000  0.916667 0.083333 0
bcrate08.vmt.001
0  -20.000000 -24.000000 4.000000  0.000000 -0.371391 0.928477  0.916667 0.083333 0
0  -3.281310 -21.500000 5.000000  0.000000 -0.371391 0.928477  0.568361 0.104167 0
0  -19.000000 -21.500000 5.000000  0.000000 -0.371390 0.928477  0.895833 0.104167 0
bcrate08.vmt.001
0  -19.602745 -12.500000 0.993137  0.928477 0.000000 -0.371391  0.091609 0.760417 0
0  -19.000000 -0.331991 2.500000  0.928477 0.000000 -0.371391  0.104167 0.506916 0
0  -19.000000 -19.000000 2.500000  0.928477 0.000000 -0.371391  0.104167 0.895833 0
bcrate08.vmt.001
0  -24.000000 -20.000002 43.594959  -0.371394 0.928475 0.000000  0.916667 0.908228 0
0  -21.500000 -19.000000 43.000000  -0.371392 0.928476 0.000000  0.895833 0.895833 0
0  -21.500000 -19.000000 5.000000  -0.371391 0.928477 0.000000  0.895833 0.104167 0
borked_crate
0  -21.500000 -1.309083 11.393831  -0.097469 0.986602 -0.130833  0.476755 0.083333 0
0  -18.920002 0.520940 23.271862  -0.097469 0.986602 -0.130833  0.457783 0.166667 0
0  -18.920002 -1.035333 11.536107  -0.097469 0.986602 -0.130833  0.459502 0.083333 0
bcrate08.vmt.001
0  -16.719999 -4.707653 42.920002  -0.928477 0.000000 -0.371391  0.104167 0.611450 0
0  -16.719999 -16.719999 42.920002  -0.928476 0.000000 -0.371392  0.104167 0.895833 0
0  -17.600000 -13.452995 45.120003  -0.928477 0.000000 -0.371391  0.083333 0.818489 0
borked_crate
0  -3.875942 -21.500002 20.885464  0.924918 -0.278485 0.258790  0.522476 0.500000 0
0  -0.179958 -18.920002 10.452344  0.924918 -0.278485 0.258790  0.543003 0.416667 0
0  -3.229828 -18.920002 21.352600  0.924918 -0.278485 0.258790  0.539860 0.500000 0
borked_crate
0  -12.037619 -8.301380 45.500000  -0.382484 0.243638 0.891261  0.916667 0.303817 0
0  -9.146042 -3.761941 45.500000  -0.382484 0.243638 0.891261  0.937380 0.333333 0
0  -11.766970 -4.575252 44.597561  -0.382484 0.243638 0.891261  0.916667 0.333333 0
borked_crate
0  0.862538 -21.500000 42.293175  -0.053183 0.573979 0.817141  1.000000 0.191875 0
0  -5.686868 -21.120001 41.599998  -0.053183 0.573979 0.817141  0.959912 0.195734 0
0  -12.771164 -21.500000 41.405846  -0.053183 0.573979 0.817141  0.916667 0.198133 0
borked_crate
0  -12.622564 -17.535479 44.958698  0.014375 -0.667614 0.744369  0.916667 0.230239 0
0  2.073905 -16.615501 45.500000  0.014375 -0.667614 0.744369  1.000000 0.227068 0
0  -12.599924 -16.931454 45.500000  0.014375 -0.667614 0.744369  0.916667 0.235130 0
bcrate08.vmt.001
0  -21.120001 -0.273916 2.879999  1.000000 0.000000 0.000000  0.506485 0.000000 0
0  -21.120001 -17.600000 6.400000  1.000000 -0.000001 0.000000  0.916667 0.083333 0
0  -21.120001 -21.120001 2.879999  1.000000 -0.000001 0.000000  1.000000 0.000000 0
bcrate08.vmt.001
0  -17.507118 -19.000000 45.500000  0.000000 0.928477 0.371389  0.135268 0.895833 0
0  -16.537659 -19.107700 45.769253  0.000000 0.928477 0.371389  0.155465 0.898077 0
0  -15.898136 -19.000000 45.500000  0.000000 0.928477 0.371389  0.168789 0.895833 0
borked_crate
0  -5.485556 -24.000000 0.762109  0.199830 -0.094789 -0.975235  0.333333 0.827412 0
0  -7.307492 -20.000000 0.000000  0.199830 -0.094789 -0.975235  0.312179 0.800511 0
0  -4.464488 -19.775703 0.560745  0.199830 -0.094789 -0.975235  0.333333 0.799060 0
borked_crate
0  -12.501173 -0.324988 5.079998  -0.088694 0.996050 0.004315  0.416667 0.034422 0
0  1.038947 0.891885 2.500000  -0.088694 0.996050 0.004315  0.333333 0.023634 0
0  -12.496245 -0.313372 2.500000  -0.088694 0.996050 0.004315  0.416667 0.015890 0
bcrate08.vmt.001
0  -7.307492 -20.000000 0.000000  0.000000 0.000000 -1.000000  0.347761 0.916667 0
0  -24.000000 -24.000000 0.000000  0.000000 0.000000 -1.000000  0.000000 1.000000 0
0  -20.000000 -20.000000 0.000000  0.000000 0.000000 -1.000000  0.083333 0.916667 0
bcrate08.vmt.001
0  -20.000002 -24.000000 43.272266  0.000000 -1.000000 0.000000  0.916667 0.901505 0
0  -24.000000 -24.000000 0.000000  0.000000 -1.000000 0.000000  1.000000 0.000000 0
0  -20.000000 -24.000000 4.000000  0.000000 -1.000000 0.000000  0.916667 0.083333 0
borked_crate
0  0.765652 -21.500000 30.831875  0.920781 0.203709 -0.332662  0.523491 0.583333 0
0  -3.229828 -18.920002 21.352600  0.920781 0.203709 -0.332662  0.539860 0.500000 0
0  0.494922 -18.920002 31.662399  0.920781 0.203709 -0.332662  0.540674 0.583333 0
borked_crate
0  -21.500000 -2.934093 34.296043  0.168651 0.955343 0.242644  0.476368 0.250000 0
0  -21.500000 -5.144768 43.000000  0.168651 0.955343 0.242644  0.478735 0.322753 0
0  -21.120001 -4.856270 41.599998  0.168651 0.955343 0.242644  0.476017 0.311121 0
borked_crate
0  -11.936104 -3.869510 42.920002  -0.088246 0.914946 0.393811  0.416667 0.317655 0
0  -17.319038 -5.033282 44.417603  -0.088246 0.914946 0.393811  0.452223 0.333333 0
0  -11.766970 -4.575252 44.597561  -0.088246 0.914946 0.393811  0.416667 0.333333 0
borked_crate
0  0.494922 -18.920002 31.662399  0.911003 -0.388618 -0.138022  0.540674 0.583333 0
0  1.867195 -18.920002 40.720001  0.911003 -0.388618 -0.138022  0.542871 0.646214 0
0  1.062037 -21.119999 41.599998  0.911003 -0.388618 -0.138022  0.527706 0.660600 0
borked_crate
0  2.328424 -16.719999 42.920002  0.989912 -0.098692 0.101653  0.558831 0.651589 0
0  2.405009 -13.294443 45.500000  0.989912 -0.098692 0.101653  0.583333 0.654108 0
0  2.073905 -16.615501 45.500000  0.989912 -0.098692 0.101653  0.560402 0.666667 0
bcrate08.vmt.001
0  -15.540825 -21.500000 43.000000  0.000000 -0.371392 -0.928476  0.823767 0.895833 0
0  -19.732328 -23.330820 43.732330  0.000000 -0.371392 -0.928476  0.911090 0.911090 0
0  -19.000000 -21.500000 43.000000  0.000000 -0.371392 -0.928476  0.895833 0.895833 0
bcrate08.vmt.001
0  -24.000000 -8.937675 44.000000  -1.000000 0.000000 0.000009  0.686202 0.916667 0
0  -23.999998 -5.584444 44.201046  -1.000000 0.000000 0.000009  0.616342 0.920855 0
0  -24.000000 -5.547838 44.000000  -1.000000 0.000000 0.000009  0.615580 0.916667 0
bcrate08.vmt.001
0  -18.870605 -18.870605 45.120003  -0.000001 0.000000 -1.000000  0.053253 0.946747 0
0  -17.600000 -13.452995 45.120003  -0.000001 0.000000 -1.000000  0.083333 0.818489 0
0  -17.600000 -17.600000 45.120003  0.000000 0.000000 -1.000000  0.083333 0.916667 0
borked_crate
0  -24.000000 -8.937675 44.000000  -0.143632 0.034111 0.989043  0.838761 0.306933 0
0  -21.120001 -15.875179 44.657513  -0.143632 0.034111 0.989043  0.859231 0.250000 0
0  -21.120001 -5.346851 44.294399  -0.143632 0.034111 0.989043  0.856769 0.333333 0
borked_crate
0  -17.600000 -13.452995 45.120003  -0.147990 0.087122 0.985144  0.881749 0.266958 0
0  -12.037619 -8.301380 45.500000  -0.147990 0.087122 0.985144  0.916667 0.303817 0
0  -17.319038 -5.033282 44.417603  -0.147990 0.087122 0.985144  0.881111 0.333333 0
bcrate08.vmt.001
0  -24.000000 -8.937675 44.000000  -0.371392 0.000000 -0.928476  0.686202 0.916667 0
0  -21.500000 -5.144768 43.000000  -0.371392 0.000000 -0.928476  0.607183 0.895833 0
0  -21.500000 -19.000000 43.000000  -0.371390 -0.000000 -0.928477  0.895833 0.895833 0
bcrate08.vmt.001
0  -20.000000 -1.105623 0.000000  0.000000 0.000000 -1.000000  0.083333 0.523034 0
0  -24.000000 0.476859 0.000000  0.000000 0.000000 -1.000000  0.000000 0.490065 0
0  -20.000000 0.225445 0.000000  0.000000 0.000000 -1.000000  0.083333 0.495303 0
bcrate08.vmt.001
0  -13.005692 -17.600000 45.120003  0.000000 0.000000 -1.000000  0.192100 0.916667 0
0  -18.870605 -18.870605 45.120003  -0.000001 0.000000 -1.000000  0.053253 0.946747 0
0  -17.600000 -17.600000 45.120003  0.000000 0.000000 -1.000000  0.083333 0.916667 0
bcrate08.vmt.001
0  -7.307492 -20.000000 0.000000  0.000000 0.928477 -0.371391  0.347761 0.916667 0
0  -20.000000 -20.000000 0.000000  0.000000 0.928477 -0.371391  0.083333 0.916667 0
0  -19.000000 -19.000000 2.500000  0.000000 0.928477 -0.371391  0.104167 0.895833 0
borked_crate
0  1.839250 -13.123573 42.920002  0.957676 0.210768 -0.196046  0.583333 0.638602 0
0  -0.427020 -0.426471 45.500000  0.957676 0.210768 -0.196046  0.666667 0.645479 0
0  2.405009 -13.294443 45.500000  0.957676 0.210768 -0.196046  0.583333 0.654108 0
bcrate08.vmt.001
0  -0.603223 -12.729655 5.079998  0.000000 0.000000 1.000000  0.485719 0.801365 0
0  -12.501173 -0.324988 5.079998  0.000000 0.000000 1.000000  0.204044 0.507694 0
0  -16.719999 -16.719999 5.079998  0.000000 0.000000 1.000000  0.104167 0.895833 0
bcrate08.vmt.001
0  -20.000002 -24.000000 43.272266  0.928477 -0.371391 -0.000000  0.916667 0.901505 0
0  -19.000000 -21.500000 5.000000  0.928477 -0.371390 0.000000  0.895833 0.104167 0
0  -19.000000 -21.500000 43.000000  0.928477 -0.371391 -0.000000  0.895833 0.895833 0
borked_crate
0  -19.732328 -23.330820 43.732330  -0.250370 -0.402220 0.880644  0.868002 0.197060 0
0  -20.518553 -21.120001 44.518555  -0.250370 -0.402220 0.880644  0.862519 0.214577 0
0  -21.120001 -21.120001 44.347557  -0.250370 -0.402220 0.880644  0.858575 0.214537 0
borked_crate
0  -13.005692 -17.600000 45.120003  -0.098050 -0.066933 -0.992928  0.913949 0.230646 0
0  -15.898136 -19.000000 45.500000  -0.098050 -0.066933 -0.992928  0.893647 0.226412 0
0  -18.211550 -15.611107 45.500000  -0.098050 -0.066933 -0.992928  0.878681 0.250000 0
bcrate08.vmt.001
0  -12.496245 -0.313372 2.500000  0.000000 -0.000000 -1.000000  0.239662 0.506529 0
0  -1.713312 -12.589905 2.500001  0.000000 0.000000 -1.000000  0.464306 0.762290 0
0  -19.000000 -19.000000 2.500000  0.000000 0.000000 -1.000000  0.104167 0.895833 0
bcrate08.vmt.001
0  -17.600000 -21.120001 41.599998  -0.000000 1.000000 -0.000000  0.916667 0.916667 0
0  -17.600000 -21.120001 6.400000  0.000000 1.000000 -0.000001  0.916667 0.083333 0
0  -21.120001 -21.120001 44.347557  0.000000 1.000000 -0.000003  1.000000 0.981713 0
bcrate08.vmt.001
0  -20.518553 -21.120001 44.518555  -0.000000 1.000000 -0.000005  0.985761 0.985761 0
0  -10.610891 -21.119999 41.599998  -0.000000 1.000000 0.000000  0.751205 0.916667 0
0  -17.600000 -21.120001 41.599998  -0.000000 1.000000 -0.000000  0.916667 0.916667 0
bcrate08.vmt.001
0  -5.686868 -21.120001 41.599998  -0.000000 1.000000 -0.000002  0.634632 0.916667 0
0  0.956778 -21.119999 42.542656  -0.000000 1.000000 -0.000002  0.477349 0.938983 0
0  1.062037 -21.119999 41.599998  -0.000000 1.000000 -0.000002  0.474857 0.916667 0
bcrate08.vmt.001
0  -3.961296 -21.120001 2.879999  0.000000 0.000000 1.000000  0.406219 1.000000 0
0  -17.600000 -17.600000 2.879999  0.000000 0.000000 1.000000  0.083333 0.916667 0
0  -21.120001 -21.120001 2.879999  -0.000000 0.000000 1.000000  0.000000 1.000000 0
borked_crate
0  -11.936104 -3.869510 42.920002  -0.313690 0.900322 0.301693  0.416667 0.317655 0
0  -9.146042 -3.761941 45.500000  -0.313690 0.900322 0.301693  0.395954 0.333333 0
0  0.325156 0.402548 42.919998  -0.313690 0.900322 0.301693  0.333333 0.292109 0
bcrate08.vmt.001
0  -3.229828 -18.920002 21.352600  0.000000 1.000000 -0.000000  0.576464 0.437325 0
0  -16.719999 -18.920002 7.280001  0.000000 1.000000 0.000000  0.895833 0.104167 0
0  -16.719999 -18.920002 40.720001  0.000000 1.000000 0.000000  0.895833 0.895833 0
bcrate08.vmt.001
0  -21.120001 -15.875179 44.657513  1.000000 0.000000 -0.000000  0.875833 0.989051 0
0  -21.119999 -20.390661 44.390663  1.000000 -0.000002 -0.000002  0.982733 0.982733 0
0  -21.120001 -17.600000 41.599998  1.000000 0.000000 -0.000000  0.916667 0.916667 0
borked_crate
0  0.673284 0.572806 5.079997  0.973472 -0.198731 0.113393  0.666667 0.372369 0
0  -1.713312 -12.589905 2.500001  0.973472 -0.198731 0.113393  0.583333 0.350955 0
0  1.038947 0.891885 2.500000  0.973472 -0.198731 0.113393  0.666667 0.356967 0
bcrate08.vmt.001
0  -3.875942 -21.500002 20.885464  -0.000000 -1.000000 0.000000  0.580749 0.435114 0
0  -19.000000 -21.500000 43.000000  -0.000000 -1.000000 0.000000  0.895833 0.895833 0
0  -19.000000 -21.500000 5.000000  -0.000000 -1.000000 -0.000000  0.895833 0.104167 0
borked_crate
0  -4.296566 -24.000000 4.000000  0.912097 -0.236432 -0.334932  0.506636 0.362669 0
0  -5.485556 -24.000000 0.762109  0.912097 -0.236432 -0.334932  0.505921 0.333333 0
0  -3.961296 -21.120001 2.879999  0.912097 -0.236432 -0.334932  0.525758 0.352746 0
bcrate08.vmt.001
0  -21.500000 -0.669437 5.000000  -0.371391 0.000000 0.928477  0.513947 0.104167 0
0  -24.000000 -20.000000 4.000000  -0.371391 0.000000 0.928477  0.916667 0.083333 0
0  -21.500000 -19.000000 5.000000  -0.371391 0.000000 0.928477  0.895833 0.104167 0
borked_crate
0  -19.602745 -12.500000 0.993137  -0.088293 0.283282 -0.954964  0.213314 0.750000 0
0  -24.000000 -17.218468 0.000000  -0.088293 0.283282 -0.954964  0.186274 0.781698 0
0  -24.000000 -12.500000 1.399696  -0.088293 0.283282 -0.954964  0.182456 0.750000 0
borked_crate
0  -21.500000 -0.585886 22.965227  -0.406564 0.886678 0.220245  0.475570 0.166667 0
0  -18.920002 -2.317863 34.700523  -0.406564 0.886678 0.220245  0.458932 0.250000 0
0  -18.920002 0.520940 23.271862  -0.406564 0.886678 0.220245  0.457783 0.166667 0
bcrate08.vmt.001
0  -24.000000 -17.218468 0.000000  -1.000000 0.000000 0.000000  0.858718 0.000000 0
0  -24.000000 -24.000000 0.000000  -1.000000 0.000000 0.000000  1.000000 0.000000 0
0  -24.000000 -20.000000 4.000000  -1.000000 0.000000 0.000000  0.916667 0.083333 0
bcrate08.vmt.001
0  -16.719999 -18.920002 40.720001  0.000001 0.371391 0.928477  0.895833 0.895833 0
0  -10.610891 -21.119999 41.599998  -0.000000 0.371389 0.928477  0.751205 0.916667 0
0  -7.037735 -20.932333 41.524933  -0.000000 0.371391 0.928477  0.666613 0.914890 0
bcrate08.vmt.001
0  -12.599924 -16.931454 45.500000  0.000000 0.000000 1.000000  0.237502 0.852739 0
0  2.405009 -13.294443 45.500000  -0.000000 0.000000 1.000000  0.550104 0.776968 0
0  -12.037619 -8.301380 45.500000  0.000000 0.000000 1.000000  0.249216 0.672945 0
borked_crate
0  -24.000000 -12.500000 1.399696  -0.091694 -0.089638 -0.991745  0.182456 0.750000 0
0  -20.000000 -1.105623 0.000000  -0.091694 -0.089638 -0.991745  0.201153 0.675681 0
0  -19.602745 -12.500000 0.993137  -0.091694 -0.089638 -0.991745  0.213314 0.750000 0
bcrate08.vmt.001
0  -21.120001 -0.970285 6.400000  0.371391 0.000000 -0.928476  0.522971 0.083333 0
0  -18.920002 -16.719999 7.280001  0.371391 0.000000 -0.928477  0.895833 0.104167 0
0  -21.120001 -17.600000 6.400000  0.371391 0.000000 -0.928476  0.916667 0.083333 0
bcrate08.vmt.001
0  -11.936104 -3.869510 42.920002  -0.000001 -0.000000 -1.000000  0.217422 0.591608 0
0  1.839250 -13.123573 42.920002  -0.000000 -0.000000 -1.000000  0.543543 0.810691 0
0  -16.719999 -16.719999 42.920002  -0.000000 0.000000 -1.000000  0.104167 0.895833 0
borked_crate
0  -20.000000 0.225445 0.000000  0.061542 0.979128 0.193703  0.466620 0.001703 0
0  -24.000000 0.476859 0.000000  0.061542 0.979128 0.193703  0.493237 0.003685 0
0  -21.120001 -0.273916 2.879999  0.061542 0.979128 0.193703  0.474132 0.022847 0
bcrate08.vmt.001
0  -3.048853 -17.600000 2.879999  0.000000 -0.928476 0.371391  0.427821 0.916667 0
0  -16.719999 -16.719999 5.079998  0.000000 -0.928477 0.371391  0.104167 0.895833 0
0  -17.600000 -17.600000 2.879999  0.000000 -0.928477 0.371391  0.083333 0.916667 0
bcrate08.vmt.001
0  -18.920002 -4.501568 40.720001  1.000000 0.000000 0.000000  0.606571 0.895833 0
0  -18.920002 -16.719999 40.720001  1.000000 -0.000000 0.000000  0.895833 0.895833 0
0  -18.920002 -2.317863 34.700523  1.000000 0.000000 0.000000  0.554874 0.753327 0
bcrate08.vmt.001
0  -18.920002 -16.719999 7.280001  1.000000 -0.000000 0.000000  0.895833 0.104167 0
0  -18.920002 -1.017036 7.280001  1.000000 0.000000 0.000000  0.524078 0.104167 0
0  -18.920002 -1.035333 11.536107  1.000000 0.000000 0.000000  0.524511 0.204927 0
bcrate08.vmt.001
0  -18.920002 -1.035333 11.536107  1.000000 0.000000 0.000000  0.524511 0.204927 0
0  -18.920002 0.520940 23.271862  1.000000 -0.000000 0.000000  0.487667 0.482762 0
0  -18.920002 -16.719999 7.280001  1.000000 -0.000000 0.000000  0.895833 0.104167 0
bcrate08.vmt.001
0  -18.920002 -2.317863 34.700523  1.000000 0.000000 0.000000  0.554874 0.753327 0
0  -18.920002 -16.719999 40.720001  1.000000 -0.000000 0.000000  0.895833 0.895833 0
0  -18.920002 0.520940 23.271862  1.000000 -0.000000 0.000000  0.487667 0.482762 0
bcrate08.vmt.001
0  -21.120001 -21.120001 2.879999  0.000000 1.000000 -0.000000  1.000000 0.000000 0
0  -17.600000 -21.120001 6.400000  0.000000 1.000000 -0.000001  0.916667 0.083333 0
0  -2.668714 -21.120001 6.400000  0.000000 1.000000 0.000000  0.563180 0.083333 0
bcrate08.vmt.001
0  -21.120001 -21.120001 2.879999  -0.000000 0.000000 1.000000  0.000000 1.000000 0
0  -17.600000 -17.600000 2.879999  0.000000 0.000000 1.000000  0.083333 0.916667 0
0  -17.600000 -0.495161 2.879999  -0.000000 0.000000 1.000000  0.083333 0.511723 0
bcrate08.vmt.001
0  -21.120001 -21.120001 44.347557  1.000000 -0.000002 -0.000001  1.000000 0.981713 0
0  -21.120001 -21.120001 2.879999  1.000000 -0.000001 0.000000  1.000000 0.000000 0
0  -21.120001 -17.600000 6.400000  1.000000 -0.000001 0.000000  0.916667 0.083333 0
bcrate08.vmt.001
0  -21.120001 -17.600000 6.400000  1.000000 -0.000001 0.000000  0.916667 0.083333 0
0  -21.120001 -17.600000 41.599998  1.000000 0.000000 -0.000000  0.916667 0.916667 0
0  -21.120001 -21.120001 44.347557  1.000000 -0.000002 -0.000001  1.000000 0.981713 0
bcrate08.vmt.001
0  -17.600000 -21.120001 41.599998  -0.928476 0.371391 0.000000  0.916667 0.916667 0
0  -16.719999 -18.920002 40.720001  -0.928476 0.371391 0.000000  0.895833 0.895833 0
0  -16.719999 -18.920002 7.280001  -0.928477 0.371389 0.000000  0.895833 0.104167 0
bcrate08.vmt.001
0  -17.600000 -21.120001 6.400000  0.000000 0.371391 -0.928476  0.916667 0.083333 0
0  -16.719999 -18.920002 7.280001  0.000000 0.371391 -0.928476  0.895833 0.104167 0
0  -1.599917 -18.920002 7.280001  0.000000 0.371392 -0.928476  0.537877 0.104167 0
bcrate08.vmt.001
0  -17.600000 -17.600000 2.879999  -0.928476 0.000000 0.371391  0.083333 0.916667 0
0  -16.719999 -16.719999 5.079998  -0.928476 0.000000 0.371391  0.104167 0.895833 0
0  -16.719999 -0.773624 5.079998  -0.928477 0.000000 0.371391  0.104167 0.518315 0
bcrate08.vmt.001
0  -13.005692 -17.600000 45.120003  0.000000 -0.928476 -0.371393  0.192100 0.916667 0
0  -17.600000 -17.600000 45.120003  0.000000 -0.928477 -0.371391  0.083333 0.916667 0
0  -16.719999 -16.719999 42.920002  0.000000 -0.928477 -0.371391  0.104167 0.895833 0
bcrate08.vmt.001
0  -16.719999 -16.719999 42.920002  0.000000 -0.928477 -0.371391  0.104167 0.895833 0
0  2.328424 -16.719999 42.920002  0.000000 -0.928477 -0.371389  0.555124 0.895833 0
0  -12.622564 -17.535479 44.958698  0.000000 -0.928476 -0.371392  0.201170 0.915139 0
bcrate08.vmt.001
0  -12.622564 -17.535479 44.958698  0.000000 -0.928476 -0.371392  0.201170 0.915139 0
0  -13.005692 -17.600000 45.120003  0.000000 -0.928476 -0.371393  0.192100 0.916667 0
0  -16.719999 -16.719999 42.920002  0.000000 -0.928477 -0.371391  0.104167 0.895833 0
bcrate08.vmt.001
0  -21.120001 -17.600000 41.599998  0.371389 0.000000 0.928477  0.916667 0.916667 0
0  -18.920002 -16.719999 40.720001  0.371388 0.000000 0.928478  0.895833 0.895833 0
0  -18.920002 -4.501568 40.720001  0.371391 0.000000 0.928477  0.606571 0.895833 0
bcrate08.vmt.001
0  -21.120001 -17.600000 6.400000  0.371392 -0.928476 0.000000  0.916667 0.083333 0
0  -18.920002 -16.719999 7.280001  0.371392 -0.928476 0.000000  0.895833 0.104167 0
0  -18.920002 -16.719999 40.720001  0.371391 -0.928477 0.000000  0.895833 0.895833 0
bcrate08.vmt.001
0  -21.500000 -19.000000 5.000000  -1.000000 0.000000 0.000000  0.895833 0.104167 0
0  -21.500000 -19.000000 43.000000  -1.000000 0.000000 0.000000  0.895833 0.895833 0
0  -21.500000 -0.585886 22.965227  -1.000000 0.000000 0.000000  0.512206 0.478442 0
bcrate08.vmt.001
0  -21.500000 -5.144768 43.000000  -1.000000 0.000000 0.000000  0.607183 0.895833 0
0  -21.500000 -2.934093 34.296043  -1.000000 0.000000 0.000000  0.561127 0.714501 0
0  -21.500000 -19.000000 43.000000  -1.000000 0.000000 0.000000  0.895833 0.895833 0
bcrate08.vmt.001
0  -21.500000 -1.309083 11.393831  -1.000000 0.000000 0.000000  0.527272 0.237371 0
0  -21.500000 -0.669437 5.000000  -1.000000 0.000000 0.000000  0.513947 0.104167 0
0  -21.500000 -19.000000 5.000000  -1.000000 0.000000 0.000000  0.895833 0.104167 0
bcrate08.vmt.001
0  -21.500000 -2.934093 34.296043  -1.000000 0.000000 0.000000  0.561127 0.714501 0
0  -21.500000 -0.585886 22.965227  -1.000000 0.000000 0.000000  0.512206 0.478442 0
0  -21.500000 -19.000000 43.000000  -1.000000 0.000000 0.000000  0.895833 0.895833 0
bcrate08.vmt.001
0  -20.000000 -24.000000 4.000000  0.000000 -1.000000 0.000000  0.916667 0.083333 0
0  -24.000000 -24.000000 0.000000  0.000000 -1.000000 0.000000  1.000000 0.000000 0
0  -9.204883 -24.000000 0.000000  0.000000 -1.000000 0.000001  0.691768 0.000000 0
bcrate08.vmt.001
0  -9.204883 -24.000000 0.000000  0.000000 -1.000000 0.000001  0.691768 0.000000 0
0  -5.485556 -24.000000 0.762109  0.000000 -1.000000 0.000001  0.614282 0.015877 0
0  -4.296566 -24.000000 4.000000  0.000000 -1.000000 0.000001  0.589512 0.083333 0
bcrate08.vmt.001
0  -24.000000 -24.000000 0.000000  0.000000 0.000000 -1.000000  0.000000 1.000000 0
0  -24.000000 -17.218468 0.000000  0.000000 0.000000 -1.000000  0.000000 0.858718 0
0  -20.000000 -15.971748 0.000000  0.000000 0.000000 -1.000000  0.083333 0.832745 0
bcrate08.vmt.001
0  -24.000000 -24.000000 0.000000  -1.000000 0.000000 0.000000  1.000000 0.000000 0
0  -24.000000 -24.000000 43.358570  -1.000000 0.000000 0.000000  1.000000 0.903304 0
0  -24.000000 -20.000002 43.594959  -1.000000 0.000000 0.000000  0.916667 0.908228 0
bcrate08.vmt.001
0  -20.000000 -24.000000 4.000000  0.000000 -0.371391 0.928477  0.916667 0.083333 0
0  -4.296566 -24.000000 4.000000  0.000000 -0.371391 0.928476  0.589512 0.083333 0
0  -3.281310 -21.500000 5.000000  0.000000 -0.371391 0.928477  0.568361 0.104167 0
bcrate08.vmt.001
0  -19.000000 -19.000000 2.500000  0.928477 0.000000 -0.371391  0.104167 0.895833 0
0  -20.000000 -20.000000 0.000000  0.928477 0.000000 -0.371391  0.083333 0.916667 0
0  -20.000000 -15.971748 0.000000  0.928477 0.000000 -0.371391  0.083333 0.832745 0
bcrate08.vmt.001
0  -19.602745 -12.500000 0.993137  0.928477 0.000000 -0.371391  0.091609 0.760417 0
0  -20.000000 -1.105623 0.000000  0.928477 0.000000 -0.371391  0.083333 0.523034 0
0  -19.000000 -0.331991 2.500000  0.928477 0.000000 -0.371391  0.104167 0.506916 0
bcrate08.vmt.001
0  -19.000000 -19.000000 2.500000  0.928477 0.000000 -0.371391  0.104167 0.895833 0
0  -20.000000 -15.971748 0.000000  0.928477 0.000000 -0.371391  0.083333 0.832745 0
0  -19.602745 -12.500000 0.993137  0.928477 0.000000 -0.371391  0.091609 0.760417 0
bcrate08.vmt.001
0  -20.000000 0.225445 0.000000  0.928477 0.000000 -0.371391  0.083333 0.495303 0
0  -19.000000 -0.331991 2.500000  0.928477 0.000000 -0.371391  0.104167 0.506916 0
0  -20.000000 -1.105623 0.000000  0.928477 0.000000 -0.371391  0.083333 0.523034 0
bcrate08.vmt.001
0  -21.500000 -19.000000 5.000000  -0.371391 0.928477 0.000000  0.895833 0.104167 0
0  -24.000000 -20.000000 4.000000  -0.371391 0.928477 0.000000  0.916667 0.083333 0
0  -24.000000 -20.000002 43.594959  -0.371394 0.928475 0.000000  0.916667 0.908228 0
bcrate08.vmt.001
0  -24.000000 -20.000002 43.594959  -0.371394 0.928475 0.000000  0.916667 0.908228 0
0  -23.427858 -19.771143 43.771145  -0.371400 0.928473 0.000000  0.911899 0.911899 0
0  -21.500000 -19.000000 43.000000  -0.371392 0.928476 0.000000  0.895833 0.895833 0
borked_crate
0  -21.500000 -1.309083 11.393831  -0.387823 0.919939 -0.057495  0.476755 0.083333 0
0  -21.500000 -0.585886 22.965227  -0.387823 0.919939 -0.057495  0.475570 0.166667 0
0  -18.920002 0.520940 23.271862  -0.387823 0.919939 -0.057495  0.457783 0.166667 0
bcrate08.vmt.001
0  -17.600000 -17.600000 45.120003  -0.928476 0.000000 -0.371392  0.083333 0.916667 0
0  -17.600000 -13.452995 45.120003  -0.928477 0.000000 -0.371391  0.083333 0.818489 0
0  -16.719999 -16.719999 42.920002  -0.928476 0.000000 -0.371392  0.104167 0.895833 0
bcrate08.vmt.001
0  -17.319038 -5.033282 44.417603  -0.928477 0.000001 -0.371391  0.089985 0.619159 0
0  -16.719999 -4.707653 42.920002  -0.928477 0.000000 -0.371391  0.104167 0.611450 0
0  -17.600000 -13.452995 45.120003  -0.928477 0.000000 -0.371391  0.083333 0.818489 0
borked_crate
0  -3.875942 -21.500002 20.885464  0.905982 -0.352988 0.233658  0.522476 0.500000 0
0  -1.119592 -21.500000 10.198058  0.905982 -0.352988 0.233658  0.525271 0.416667 0
0  -0.179958 -18.920002 10.452344  0.905982 -0.352988 0.233658  0.543003 0.416667 0
borked_crate
0  -12.756920 -21.120001 41.746384  0.050669 -0.667576 0.742816  0.916667 0.201210 0
0  -12.771164 -21.500000 41.405846  0.050669 -0.667576 0.742816  0.916667 0.198133 0
0  -10.610891 -21.119999 41.599998  0.050669 -0.667576 0.742816  0.929681 0.199185 0
borked_crate
0  0.862538 -21.500000 42.293175  -0.119652 -0.523964 0.843294  1.000000 0.191875 0
0  0.956778 -21.119999 42.542656  -0.119652 -0.523964 0.843294  1.000000 0.194613 0
0  -5.686868 -21.120001 41.599998  -0.119652 -0.523964 0.843294  0.959912 0.195734 0
borked_crate
0  -5.686868 -21.120001 41.599998  0.000000 0.371387 0.928478  0.959912 0.195734 0
0  -7.037735 -20.932333 41.524933  0.000000 0.371387 0.928478  0.951495 0.197320 0
0  -10.610891 -21.119999 41.599998  0.000000 0.371387 0.928478  0.929681 0.199185 0
borked_crate
0  -10.610891 -21.119999 41.599998  0.000000 -0.454971 0.890506  0.929681 0.199185 0
0  -12.771164 -21.500000 41.405846  0.000000 -0.454971 0.890506  0.916667 0.198133 0
0  -5.686868 -21.120001 41.599998  0.000000 -0.454971 0.890506  0.959912 0.195734 0
borked_crate
0  -12.622564 -17.535479 44.958698  0.003620 -0.549441 0.835524  0.916667 0.230239 0
0  1.850674 -17.515617 44.909050  0.003620 -0.549441 0.835524  1.000000 0.220583 0
0  2.073905 -16.615501 45.500000  0.003620 -0.549441 0.835524  1.000000 0.227068 0
bcrate08.vmt.001
0  -21.120001 -0.273916 2.879999  1.000000 0.000000 0.000000  0.506485 0.000000 0
0  -21.120001 -0.970285 6.400000  1.000000 0.000000 0.000000  0.522971 0.083333 0
0  -21.120001 -17.600000 6.400000  1.000000 -0.000001 0.000000  0.916667 0.083333 0
borked_crate
0  -5.485556 -24.000000 0.762109  0.199831 -0.094789 -0.975235  0.333333 0.827412 0
0  -9.204883 -24.000000 0.000000  0.199831 -0.094789 -0.975235  0.304163 0.827180 0
0  -7.307492 -20.000000 0.000000  0.199831 -0.094789 -0.975235  0.312179 0.800511 0
borked_crate
0  -12.501173 -0.324988 5.079998  -0.067553 0.991293 0.113023  0.416667 0.034422 0
0  0.673284 0.572806 5.079997  -0.067553 0.991293 0.113023  0.333333 0.039036 0
0  1.038947 0.891885 2.500000  -0.067553 0.991293 0.113023  0.333333 0.023634 0
bcrate08.vmt.001
0  -7.307492 -20.000000 0.000000  0.000000 0.000000 -1.000000  0.347761 0.916667 0
0  -9.204883 -24.000000 0.000000  0.000000 0.000000 -1.000000  0.308232 1.000000 0
0  -24.000000 -24.000000 0.000000  0.000000 0.000000 -1.000000  0.000000 1.000000 0
bcrate08.vmt.001
0  -20.000002 -24.000000 43.272266  0.000000 -1.000000 0.000000  0.916667 0.901505 0
0  -24.000000 -24.000000 43.358570  0.000000 -1.000000 0.000000  1.000000 0.903304 0
0  -24.000000 -24.000000 0.000000  0.000000 -1.000000 0.000000  1.000000 0.000000 0
borked_crate
0  0.765652 -21.500000 30.831875  0.896111 -0.148699 -0.418179  0.523491 0.583333 0
0  -3.875942 -21.500002 20.885464  0.896111 -0.148699 -0.418179  0.522476 0.500000 0
0  -3.229828 -18.920002 21.352600  0.896111 -0.148699 -0.418179  0.539860 0.500000 0
borked_crate
0  -21.500000 -5.144768 43.000000  -0.086642 0.980126 0.178455  0.478735 0.322753 0
0  -24.000000 -5.547838 44.000000  -0.086642 0.980126 0.178455  0.494970 0.331686 0
0  -21.120001 -5.346851 44.294399  -0.086642 0.980126 0.178455  0.476564 0.333333 0
borked_crate
0  -21.120001 -4.856270 41.599998  -0.052904 0.965037 0.256720  0.476017 0.311121 0
0  -18.920002 -4.501568 40.720001  -0.052904 0.965037 0.256720  0.461624 0.302885 0
0  -21.500000 -2.934093 34.296043  -0.052904 0.965037 0.256720  0.476368 0.250000 0
borked_crate
0  -24.000000 -5.547838 44.000000  -0.086638 0.980126 0.178459  0.494970 0.331686 0
0  -23.999998 -5.584444 44.201046  -0.086638 0.980126 0.178459  0.495008 0.333333 0
0  -21.120001 -5.346851 44.294399  -0.086638 0.980126 0.178459  0.476564 0.333333 0
borked_crate
0  -18.920002 -4.501568 40.720001  -0.267839 0.905708 0.328566  0.461624 0.302885 0
0  -18.920002 -2.317863 34.700523  -0.267839 0.905708 0.328566  0.458932 0.250000 0
0  -21.500000 -2.934093 34.296043  -0.267839 0.905708 0.328566  0.476368 0.250000 0
borked_crate
0  -21.500000 -5.144768 43.000000  -0.086643 0.980126 0.178454  0.478735 0.322753 0
0  -21.120001 -5.346851 44.294399  -0.086643 0.980126 0.178454  0.476564 0.333333 0
0  -21.120001 -4.856270 41.599998  -0.086643 0.980126 0.178454  0.476017 0.311121 0
borked_crate
0  -11.936104 -3.869510 42.920002  -0.170782 0.974783 0.143638  0.416667 0.317655 0
0  -16.719999 -4.707653 42.920002  -0.170782 0.974783 0.143638  0.447989 0.320511 0
0  -17.319038 -5.033282 44.417603  -0.170782 0.974783 0.143638  0.452223 0.333333 0
borked_crate
0  0.956778 -21.119999 42.542656  0.946726 -0.304194 0.105712  0.527946 0.666667 0
0  0.862538 -21.500000 42.293175  0.946726 -0.304194 0.105712  0.525208 0.666667 0
0  1.062037 -21.119999 41.599998  0.946726 -0.304194 0.105712  0.527706 0.660600 0
borked_crate
0  0.765652 -21.500000 30.831875  0.992952 0.114291 -0.031364  0.523491 0.583333 0
0  0.494922 -18.920002 31.662399  0.992952 0.114291 -0.031364  0.540674 0.583333 0
0  1.062037 -21.119999 41.599998  0.992952 0.114291 -0.031364  0.527706 0.660600 0
borked_crate
0  1.062037 -21.119999 41.599998  0.879727 -0.475421 -0.007437  0.527706 0.660600 0
0  0.862538 -21.500000 42.293175  0.879727 -0.475421 -0.007437  0.525208 0.666667 0
0  0.765652 -21.500000 30.831875  0.879727 -0.475421 -0.007437  0.523491 0.583333 0
borked_crate
0  2.073905 -16.615501 45.500000  0.946725 -0.304196 0.105716  0.560402 0.666667 0
0  1.850674 -17.515617 44.909050  0.946725 -0.304196 0.105716  0.553916 0.666667 0
0  2.328424 -16.719999 42.920002  0.946725 -0.304196 0.105716  0.558831 0.651589 0
borked_crate
0  2.328424 -16.719999 42.920002  0.970043 0.131943 -0.203980  0.558831 0.651589 0
0  1.839250 -13.123573 42.920002  0.970043 0.131943 -0.203980  0.583333 0.638602 0
0  2.405009 -13.294443 45.500000  0.970043 0.131943 -0.203980  0.583333 0.654108 0
bcrate08.vmt.001
0  -18.870605 -18.870605 45.120003  -0.000001 0.000000 -1.000000  0.053253 0.946747 0
0  -19.523382 -15.730214 45.120003  -0.000002 0.000000 -1.000000  0.037799 0.872401 0
0  -17.600000 -13.452995 45.120003  -0.000001 0.000000 -1.000000  0.083333 0.818489 0
borked_crate
0  -21.120001 -5.346851 44.294399  -0.027411 -0.059826 0.997832  0.856769 0.333333 0
0  -23.999998 -5.584444 44.201046  -0.027411 -0.059826 0.997832  0.838325 0.333333 0
0  -24.000000 -8.937675 44.000000  -0.027411 -0.059826 0.997832  0.838761 0.306933 0
borked_crate
0  -24.000000 -8.937675 44.000000  -0.276178 -0.023588 0.960817  0.838761 0.306933 0
0  -23.743740 -16.113401 43.897495  -0.276178 -0.023588 0.960817  0.841686 0.250000 0
0  -21.120001 -15.875179 44.657513  -0.276178 -0.023588 0.960817  0.859231 0.250000 0
borked_crate
0  -11.766970 -4.575252 44.597561  -0.051116 0.238585 0.969775  0.916667 0.333333 0
0  -17.319038 -5.033282 44.417603  -0.051116 0.238585 0.969775  0.881111 0.333333 0
0  -12.037619 -8.301380 45.500000  -0.051116 0.238585 0.969775  0.916667 0.303817 0
borked_crate
0  -17.600000 -13.452995 45.120003  -0.290210 0.245117 0.925038  0.881749 0.266958 0
0  -19.523382 -15.730214 45.120003  -0.290210 0.245117 0.925038  0.869908 0.250000 0
0  -18.211550 -15.611107 45.500000  -0.290210 0.245117 0.925038  0.878681 0.250000 0
borked_crate
0  -18.211550 -15.611107 45.500000  -0.290211 0.245117 0.925038  0.878681 0.250000 0
0  -12.037619 -8.301380 45.500000  -0.290211 0.245117 0.925038  0.916667 0.303817 0
0  -17.600000 -13.452995 45.120003  -0.290211 0.245117 0.925038  0.881749 0.266958 0
bcrate08.vmt.001
0  -21.500000 -19.000000 43.000000  -0.371390 -0.000000 -0.928477  0.895833 0.895833 0
0  -23.427858 -19.771143 43.771145  -0.371389 -0.000001 -0.928477  0.911899 0.911899 0
0  -23.743740 -16.113401 43.897495  -0.371390 -0.000000 -0.928477  0.835696 0.914531 0
bcrate08.vmt.001
0  -23.743740 -16.113401 43.897495  -0.371390 -0.000000 -0.928477  0.835696 0.914531 0
0  -24.000000 -8.937675 44.000000  -0.371392 0.000000 -0.928476  0.686202 0.916667 0
0  -21.500000 -19.000000 43.000000  -0.371390 -0.000000 -0.928477  0.895833 0.895833 0
bcrate08.vmt.001
0  -24.000000 -5.547838 44.000000  -0.371390 0.000000 -0.928477  0.615580 0.916667 0
0  -21.500000 -5.144768 43.000000  -0.371392 0.000000 -0.928476  0.607183 0.895833 0
0  -24.000000 -8.937675 44.000000  -0.371392 0.000000 -0.928476  0.686202 0.916667 0
bcrate08.vmt.001
0  -20.000000 -1.105623 0.000000  0.000000 0.000000 -1.000000  0.083333 0.523034 0
0  -24.000000 -2.423580 0.000000  0.000000 0.000000 -1.000000  0.000000 0.550491 0
0  -24.000000 0.476859 0.000000  0.000000 0.000000 -1.000000  0.000000 0.490065 0
bcrate08.vmt.001
0  -19.000000 -19.000000 2.500000  0.000000 0.928477 -0.371391  0.104167 0.895833 0
0  -3.551297 -19.000000 2.500000  0.000000 0.928477 -0.371391  0.426015 0.895833 0
0  -7.307492 -20.000000 0.000000  0.000000 0.928477 -0.371391  0.347761 0.916667 0
bcrate08.vmt.001
0  -4.464488 -19.775703 0.560745  0.000001 0.928476 -0.371392  0.406990 0.911994 0
0  -7.307492 -20.000000 0.000000  0.000000 0.928477 -0.371391  0.347761 0.916667 0
0  -3.551297 -19.000000 2.500000  0.000000 0.928477 -0.371391  0.426015 0.895833 0
borked_crate
0  1.839250 -13.123573 42.920002  0.944999 0.105782 0.309495  0.583333 0.638602 0
0  0.325156 0.402548 42.919998  0.944999 0.105782 0.309495  0.666667 0.625442 0
0  -0.427020 -0.426471 45.500000  0.944999 0.105782 0.309495  0.666667 0.645479 0
bcrate08.vmt.001
0  -16.719999 -16.719999 5.079998  0.000000 0.000000 1.000000  0.104167 0.895833 0
0  -1.880465 -16.719999 5.079998  0.000000 0.000000 1.000000  0.455481 0.895833 0
0  -0.603223 -12.729655 5.079998  0.000000 0.000000 1.000000  0.485719 0.801365 0
bcrate08.vmt.001
0  -0.603223 -12.729655 5.079998  0.000000 0.000000 1.000000  0.485719 0.801365 0
0  0.673284 0.572806 5.079997  0.000000 0.000000 1.000000  0.515939 0.486439 0
0  -12.501173 -0.324988 5.079998  0.000000 0.000000 1.000000  0.204044 0.507694 0
bcrate08.vmt.001
0  -12.501173 -0.324988 5.079998  0.000000 0.000000 1.000000  0.204044 0.507694 0
0  -16.719999 -0.773624 5.079998  0.000000 0.000000 1.000000  0.104167 0.518315 0
0  -16.719999 -16.719999 5.079998  0.000000 0.000000 1.000000  0.104167 0.895833 0
bcrate08.vmt.001
0  -19.000000 -21.500000 43.000000  0.928477 -0.371391 -0.000000  0.895833 0.895833 0
0  -19.732328 -23.330820 43.732330  0.928477 -0.371390 -0.000001  0.911090 0.911090 0
0  -20.000002 -24.000000 43.272266  0.928477 -0.371391 -0.000000  0.916667 0.901505 0
bcrate08.vmt.001
0  -20.000002 -24.000000 43.272266  0.928477 -0.371391 -0.000000  0.916667 0.901505 0
0  -20.000000 -24.000000 4.000000  0.928477 -0.371390 0.000000  0.916667 0.083333 0
0  -19.000000 -21.500000 5.000000  0.928477 -0.371390 0.000000  0.895833 0.104167 0
borked_crate
0  -21.120001 -15.875179 44.657513  -0.273026 -0.056751 0.960331  0.859231 0.250000 0
0  -23.743740 -16.113401 43.897495  -0.273026 -0.056751 0.960331  0.841686 0.250000 0
0  -23.427858 -19.771143 43.771145  -0.273026 -0.056751 0.960331  0.843522 0.224014 0
borked_crate
0  -23.427858 -19.771143 43.771145  -0.273019 -0.056752 0.960333  0.843522 0.224014 0
0  -24.000000 -20.000002 43.594959  -0.273019 -0.056752 0.960333  0.839758 0.222332 0
0  -21.120001 -21.120001 44.347557  -0.273019 -0.056752 0.960333  0.858575 0.214537 0
borked_crate
0  -24.000000 -24.000000 43.358570  0.020264 -0.342783 0.939196  0.839628 0.193158 0
0  -20.000002 -24.000000 43.272266  0.020264 -0.342783 0.939196  0.866422 0.191362 0
0  -21.120001 -21.120001 44.347557  0.020264 -0.342783 0.939196  0.858575 0.214537 0
borked_crate
0  -15.540825 -21.500000 43.000000  0.390413 -0.622494 0.678292  0.897028 0.204138 0
0  -12.771164 -21.500000 41.405846  0.390413 -0.622494 0.678292  0.916667 0.198133 0
0  -12.756920 -21.120001 41.746384  0.390413 -0.622494 0.678292  0.916667 0.201210 0
borked_crate
0  -20.000002 -24.000000 43.272266  -0.332108 -0.440555 0.834036  0.866422 0.191362 0
0  -19.732328 -23.330820 43.732330  -0.332108 -0.440555 0.834036  0.868002 0.197060 0
0  -21.120001 -21.120001 44.347557  -0.332108 -0.440555 0.834036  0.858575 0.214537 0
borked_crate
0  -21.120001 -15.875179 44.657513  -0.273025 -0.056752 0.960331  0.859231 0.250000 0
0  -23.427858 -19.771143 43.771145  -0.273025 -0.056752 0.960331  0.843522 0.224014 0
0  -21.119999 -20.390661 44.390663  -0.273025 -0.056752 0.960331  0.858649 0.219570 0
borked_crate
0  -21.120001 -21.120001 44.347557  -0.273025 -0.056759 0.960331  0.858575 0.214537 0
0  -21.119999 -20.390661 44.390663  -0.273025 -0.056759 0.960331  0.858649 0.219570 0
0  -23.427858 -19.771143 43.771145  -0.273025 -0.056759 0.960331  0.843522 0.224014 0
borked_crate
0  -12.756920 -21.120001 41.746384  0.282961 0.540621 0.792251  0.916667 0.201210 0
0  -20.518553 -21.120001 44.518555  0.282961 0.540621 0.792251  0.862519 0.214577 0
0  -15.540825 -21.500000 43.000000  0.282961 0.540621 0.792251  0.897028 0.204138 0
borked_crate
0  -15.540825 -21.500000 43.000000  0.266843 -0.237284 0.934072  0.897028 0.204138 0
0  -20.518553 -21.120001 44.518555  0.266843 -0.237284 0.934072  0.862519 0.214577 0
0  -19.732328 -23.330820 43.732330  0.266843 -0.237284 0.934072  0.868002 0.197060 0
borked_crate
0  -21.120001 -21.120001 44.347557  -0.273023 -0.056753 0.960332  0.858575 0.214537 0
0  -24.000000 -20.000002 43.594959  -0.273023 -0.056753 0.960332  0.839758 0.222332 0
0  -24.000000 -24.000000 43.358570  -0.273023 -0.056753 0.960332  0.839628 0.193158 0
borked_crate
0  -18.211550 -15.611107 45.500000  -0.273023 -0.056753 0.960332  0.878681 0.250000 0
0  -19.523382 -15.730214 45.120003  -0.273023 -0.056753 0.960332  0.869908 0.250000 0
0  -18.870605 -18.870605 45.120003  -0.273023 -0.056753 0.960332  0.873702 0.229347 0
borked_crate
0  -13.005692 -17.600000 45.120003  0.390420 -0.622491 0.678290  0.913949 0.230646 0
0  -12.622564 -17.535479 44.958698  0.390420 -0.622491 0.678290  0.916667 0.230239 0
0  -12.599924 -16.931454 45.500000  0.390420 -0.622491 0.678290  0.916667 0.235130 0
borked_crate
0  -18.211550 -15.611107 45.500000  0.026210 -0.120984 0.992308  0.878681 0.250000 0
0  -18.870605 -18.870605 45.120003  0.026210 -0.120984 0.992308  0.873702 0.229347 0
0  -13.005692 -17.600000 45.120003  0.026210 -0.120984 0.992308  0.913949 0.230646 0
borked_crate
0  -17.507118 -19.000000 45.500000  0.000000 0.000000 -1.000000  0.882701 0.228138 0
0  -18.211550 -15.611107 45.500000  0.000000 0.000000 -1.000000  0.878681 0.250000 0
0  -15.898136 -19.000000 45.500000  0.000000 0.000000 -1.000000  0.893647 0.226412 0
borked_crate
0  -13.005692 -17.600000 45.120003  0.390417 -0.622492 0.678290  0.913949 0.230646 0
0  -12.599924 -16.931454 45.500000  0.390417 -0.622492 0.678290  0.916667 0.235130 0
0  -15.898136 -19.000000 45.500000  0.390417 -0.622492 0.678290  0.893647 0.226412 0
bcrate08.vmt.001
0  -19.000000 -19.000000 2.500000  0.000000 0.000000 -1.000000  0.104167 0.895833 0
0  -19.000000 -0.331991 2.500000  0.000000 0.000000 -1.000000  0.104167 0.506916 0
0  -12.496245 -0.313372 2.500000  0.000000 -0.000000 -1.000000  0.239662 0.506529 0
bcrate08.vmt.001
0  -12.496245 -0.313372 2.500000  0.000000 -0.000000 -1.000000  0.239662 0.506529 0
0  1.038947 0.891885 2.500000  0.000000 -0.000000 -1.000000  0.521645 0.481419 0
0  -1.713312 -12.589905 2.500001  0.000000 0.000000 -1.000000  0.464306 0.762290 0
bcrate08.vmt.001
0  -1.713312 -12.589905 2.500001  0.000000 0.000000 -1.000000  0.464306 0.762290 0
0  -3.551297 -19.000000 2.500000  0.000000 0.000000 -1.000000  0.426015 0.895833 0
0  -19.000000 -19.000000 2.500000  0.000000 0.000000 -1.000000  0.104167 0.895833 0
bcrate08.vmt.001
0  -21.120001 -21.120001 2.879999  0.000000 1.000000 -0.000000  1.000000 0.000000 0
0  -21.120001 -21.120001 44.347557  0.000000 1.000000 -0.000003  1.000000 0.981713 0
0  -17.600000 -21.120001 6.400000  0.000000 1.000000 -0.000001  0.916667 0.083333 0
bcrate08.vmt.001
0  -20.518553 -21.120001 44.518555  -0.000000 1.000000 -0.000005  0.985761 0.985761 0
0  -17.600000 -21.120001 41.599998  -0.000000 1.000000 -0.000000  0.916667 0.916667 0
0  -21.120001 -21.120001 44.347557  0.000000 1.000000 -0.000003  1.000000 0.981713 0
bcrate08.vmt.001
0  -20.518553 -21.120001 44.518555  0.000001 -1.000000 0.000003  0.985761 0.985761 0
0  -12.756920 -21.120001 41.746384  0.000001 -1.000000 0.000003  0.802010 0.920132 0
0  -10.610891 -21.119999 41.599998  0.000001 -1.000000 0.000003  0.751205 0.916667 0
bcrate08.vmt.001
0  -3.961296 -21.120001 2.879999  0.000000 0.000000 1.000000  0.406219 1.000000 0
0  -3.048853 -17.600000 2.879999  0.000000 0.000000 1.000000  0.427821 0.916667 0
0  -17.600000 -17.600000 2.879999  0.000000 0.000000 1.000000  0.083333 0.916667 0
borked_crate
0  -0.427020 -0.426471 45.500000  -0.350631 0.916560 0.192291  0.333333 0.312145 0
0  0.325156 0.402548 42.919998  -0.350631 0.916560 0.192291  0.333333 0.292109 0
0  -9.146042 -3.761941 45.500000  -0.350631 0.916560 0.192291  0.395954 0.333333 0
borked_crate
0  -11.936104 -3.869510 42.920002  -0.392731 0.832873 0.389982  0.416667 0.317655 0
0  -11.766970 -4.575252 44.597561  -0.392731 0.832873 0.389982  0.416667 0.333333 0
0  -9.146042 -3.761941 45.500000  -0.392731 0.832873 0.389982  0.395954 0.333333 0
bcrate08.vmt.001
0  -16.719999 -18.920002 40.720001  0.000000 1.000000 0.000000  0.895833 0.895833 0
0  1.867195 -18.920002 40.720001  0.000000 1.000000 0.000000  0.455796 0.895833 0
0  0.494922 -18.920002 31.662399  0.000000 1.000000 0.000000  0.488283 0.681401 0
bcrate08.vmt.001
0  -3.229828 -18.920002 21.352600  0.000000 1.000000 -0.000000  0.576464 0.437325 0
0  -0.179958 -18.920002 10.452344  0.000000 1.000000 0.000000  0.504260 0.179269 0
0  -16.719999 -18.920002 7.280001  0.000000 1.000000 0.000000  0.895833 0.104167 0
bcrate08.vmt.001
0  -16.719999 -18.920002 40.720001  0.000000 1.000000 0.000000  0.895833 0.895833 0
0  0.494922 -18.920002 31.662399  0.000000 1.000000 0.000000  0.488283 0.681401 0
0  -3.229828 -18.920002 21.352600  0.000000 1.000000 -0.000000  0.576464 0.437325 0
bcrate08.vmt.001
0  -1.599917 -18.920002 7.280001  0.000000 1.000000 0.000000  0.537877 0.104167 0
0  -16.719999 -18.920002 7.280001  0.000000 1.000000 0.000000  0.895833 0.104167 0
0  -0.179958 -18.920002 10.452344  0.000000 1.000000 0.000000  0.504260 0.179269 0
bcrate08.vmt.001
0  -21.120001 -17.600000 41.599998  1.000000 0.000000 -0.000000  0.916667 0.916667 0
0  -21.120001 -4.856270 41.599998  1.000000 0.000000 0.000000  0.614968 0.916667 0
0  -21.120001 -15.875179 44.657513  1.000000 0.000000 -0.000000  0.875833 0.989051 0
bcrate08.vmt.001
0  -21.120001 -5.346851 44.294399  1.000000 0.000000 0.000000  0.626583 0.980454 0
0  -21.120001 -15.875179 44.657513  1.000000 0.000000 -0.000000  0.875833 0.989051 0
0  -21.120001 -4.856270 41.599998  1.000000 0.000000 0.000000  0.614968 0.916667 0
borked_crate
0  0.673284 0.572806 5.079997  0.913313 -0.087642 -0.397716  0.666667 0.372369 0
0  -0.603223 -12.729655 5.079998  0.913313 -0.087642 -0.397716  0.583333 0.370829 0
0  -1.713312 -12.589905 2.500001  0.913313 -0.087642 -0.397716  0.583333 0.350955 0
bcrate08.vmt.001
0  -19.000000 -21.500000 5.000000  -0.000000 -1.000000 -0.000000  0.895833 0.104167 0
0  -3.281310 -21.500000 5.000000  0.000000 -1.000000 -0.000000  0.568361 0.104167 0
0  -1.119592 -21.500000 10.198058  0.000000 -1.000000 -0.000000  0.523325 0.212459 0
bcrate08.vmt.001
0  -3.875942 -21.500002 20.885464  -0.000000 -1.000000 0.000000  0.580749 0.435114 0
0  0.765652 -21.500000 30.831875  0.000000 -1.000000 0.000000  0.484049 0.642331 0
0  -12.771164 -21.500000 41.405846  0.000000 -1.000000 0.000000  0.766066 0.862622 0
bcrate08.vmt.001
0  -19.000000 -21.500000 5.000000  -0.000000 -1.000000 -0.000000  0.895833 0.104167 0
0  -1.119592 -21.500000 10.198058  0.000000 -1.000000 -0.000000  0.523325 0.212459 0
0  -3.875942 -21.500002 20.885464  -0.000000 -1.000000 0.000000  0.580749 0.435114 0
bcrate08.vmt.001
0  -15.540825 -21.500000 43.000000  0.000000 -1.000000 0.000000  0.823767 0.895833 0
0  -19.000000 -21.500000 43.000000  -0.000000 -1.000000 0.000000  0.895833 0.895833 0
0  -12.771164 -21.500000 41.405846  0.000000 -1.000000 0.000000  0.766066 0.862622 0
bcrate08.vmt.001
0  0.765652 -21.500000 30.831875  0.000000 -1.000000 0.000000  0.484049 0.642331 0
0  0.862538 -21.500000 42.293175  0.000000 -1.000000 0.000000  0.482031 0.881108 0
0  -12.771164 -21.500000 41.405846  0.000000 -1.000000 0.000000  0.766066 0.862622 0
bcrate08.vmt.001
0  -12.771164 -21.500000 41.405846  0.000000 -1.000000 0.000000  0.766066 0.862622 0
0  -19.000000 -21.500000 43.000000  -0.000000 -1.000000 0.000000  0.895833 0.895833 0
0  -3.875942 -21.500002 20.885464  -0.000000 -1.000000 0.000000  0.580749 0.435114 0
borked_crate
0  -3.281310 -21.500000 5.000000  0.912097 -0.236432 -0.334932  0.523677 0.371260 0
0  -4.296566 -24.000000 4.000000  0.912097 -0.236432 -0.334932  0.506636 0.362669 0
0  -3.961296 -21.120001 2.879999  0.912097 -0.236432 -0.334932  0.525758 0.352746 0
borked_crate
0  -5.485556 -24.000000 0.762109  0.912097 -0.236431 -0.334932  0.505921 0.333333 0
0  -4.464488 -19.775703 0.560745  0.912097 -0.236431 -0.334932  0.534273 0.333333 0
0  -3.961296 -21.120001 2.879999  0.912097 -0.236431 -0.334932  0.525758 0.352746 0
borked_crate
0  -1.713312 -12.589905 2.500001  0.876114 -0.280429 -0.392153  0.583333 0.350955 0
0  -0.603223 -12.729655 5.079998  0.876114 -0.280429 -0.392153  0.583333 0.370829 0
0  -1.880465 -16.719999 5.079998  0.876114 -0.280429 -0.392153  0.556077 0.371246 0
borked_crate
0  -1.713312 -12.589905 2.500001  0.891435 -0.265483 -0.367235  0.583333 0.350955 0
0  -1.880465 -16.719999 5.079998  0.891435 -0.265483 -0.367235  0.556077 0.371246 0
0  -3.048853 -17.600000 2.879999  0.891435 -0.265483 -0.367235  0.549429 0.353227 0
borked_crate
0  -3.551297 -19.000000 2.500000  0.931337 -0.267045 -0.247587  0.539928 0.349867 0
0  -1.713312 -12.589905 2.500001  0.931337 -0.267045 -0.247587  0.583333 0.350955 0
0  -3.048853 -17.600000 2.879999  0.931337 -0.267045 -0.247587  0.549429 0.353227 0
borked_crate
0  -3.551297 -19.000000 2.500000  0.912096 -0.236431 -0.334934  0.539928 0.349867 0
0  -3.048853 -17.600000 2.879999  0.912096 -0.236431 -0.334934  0.549429 0.353227 0
0  -3.961296 -21.120001 2.879999  0.912096 -0.236431 -0.334934  0.525758 0.352746 0
borked_crate
0  -1.599917 -18.920002 7.280001  0.876114 -0.280429 -0.392153  0.541849 0.390056 0
0  -0.179958 -18.920002 10.452344  0.876114 -0.280429 -0.392153  0.543003 0.416667 0
0  -1.119592 -21.500000 10.198058  0.876114 -0.280429 -0.392153  0.525271 0.416667 0
borked_crate
0  -2.668714 -21.120001 6.400000  0.880826 -0.273278 -0.386607  0.526547 0.383326 0
0  -1.599917 -18.920002 7.280001  0.880826 -0.273278 -0.386607  0.541849 0.390056 0
0  -1.119592 -21.500000 10.198058  0.880826 -0.273278 -0.386607  0.525271 0.416667 0
borked_crate
0  -2.668714 -21.120001 6.400000  0.920833 -0.073612 -0.382946  0.526547 0.383326 0
0  -1.119592 -21.500000 10.198058  0.920833 -0.073612 -0.382946  0.525271 0.416667 0
0  -3.281310 -21.500000 5.000000  0.920833 -0.073612 -0.382946  0.523677 0.371260 0
borked_crate
0  -4.464488 -19.775703 0.560745  0.912097 -0.236430 -0.334932  0.534273 0.333333 0
0  -3.551297 -19.000000 2.500000  0.912097 -0.236430 -0.334932  0.539928 0.349867 0
0  -3.961296 -21.120001 2.879999  0.912097 -0.236430 -0.334932  0.525758 0.352746 0
borked_crate
0  -3.961296 -21.120001 2.879999  0.912097 -0.236427 -0.334934  0.525758 0.352746 0
0  -2.668714 -21.120001 6.400000  0.912097 -0.236427 -0.334934  0.526547 0.383326 0
0  -3.281310 -21.500000 5.000000  0.912097 -0.236427 -0.334934  0.523677 0.371260 0
bcrate08.vmt.001
0  -21.500000 -0.669437 5.000000  -0.371391 0.000000 0.928477  0.513947 0.104167 0
0  -24.000000 -0.314473 4.000000  -0.371391 0.000000 0.928477  0.506551 0.083333 0
0  -24.000000 -20.000000 4.000000  -0.371391 0.000000 0.928477  0.916667 0.083333 0
borked_crate
0  -19.602745 -12.500000 0.993137  -0.088293 0.283282 -0.954964  0.213314 0.750000 0
0  -20.000000 -15.971748 0.000000  -0.088293 0.283282 -0.954964  0.213778 0.773534 0
0  -24.000000 -17.218468 0.000000  -0.088293 0.283282 -0.954964  0.186274 0.781698 0
borked_crate
0  -21.500000 -0.585886 22.965227  -0.256785 0.946360 0.196124  0.475570 0.166667 0
0  -21.500000 -2.934093 34.296043  -0.256785 0.946360 0.196124  0.476368 0.250000 0
0  -18.920002 -2.317863 34.700523  -0.256785 0.946360 0.196124  0.458932 0.250000 0
bcrate08.vmt.001
0  -24.000000 -20.000000 4.000000  -1.000000 0.000000 0.000000  0.916667 0.083333 0
0  -24.000000 -0.314473 4.000000  -1.000000 0.000000 0.000000  0.506551 0.083333 0
0  -24.000000 -12.500000 1.399696  -1.000000 0.000000 0.000000  0.760417 0.029160 0
bcrate08.vmt.001
0  -24.000000 0.476859 0.000000  -1.000000 0.000000 0.000000  0.490065 0.000000 0
0  -24.000000 -2.423580 0.000000  -1.000000 0.000000 0.000000  0.550491 0.000000 0
0  -24.000000 -0.314473 4.000000  -1.000000 0.000000 0.000000  0.506551 0.083333 0
bcrate08.vmt.001
0  -24.000000 -12.500000 1.399696  -1.000000 0.000000 0.000000  0.760417 0.029160 0
0  -24.000000 -17.218468 0.000000  -1.000000 0.000000 0.000000  0.858718 0.000000 0
0  -24.000000 -20.000000 4.000000  -1.000000 0.000000 0.000000  0.916667 0.083333 0
bcrate08.vmt.001
0  -24.000000 -0.314473 4.000000  -1.000000 0.000000 0.000000  0.506551 0.083333 0
0  -24.000000 -2.423580 0.000000  -1.000000 0.000000 0.000000  0.550491 0.000000 0
0  -24.000000 -12.500000 1.399696  -1.000000 0.000000 0.000000  0.760417 0.029160 0
bcrate08.vmt.001
0  -5.686868 -21.120001 41.599998  0.000000 0.371388 0.928478  0.634632 0.916667 0
0  1.062037 -21.119999 41.599998  0.000001 0.371390 0.928477  0.474857 0.916667 0
0  1.867195 -18.920002 40.720001  0.000001 0.371390 0.928477  0.455796 0.895833 0
bcrate08.vmt.001
0  1.867195 -18.920002 40.720001  0.000001 0.371390 0.928477  0.455796 0.895833 0
0  -16.719999 -18.920002 40.720001  0.000001 0.371391 0.928477  0.895833 0.895833 0
0  -7.037735 -20.932333 41.524933  -0.000000 0.371391 0.928477  0.666613 0.914890 0
bcrate08.vmt.001
0  -17.600000 -21.120001 41.599998  0.000001 0.371391 0.928477  0.916667 0.916667 0
0  -10.610891 -21.119999 41.599998  -0.000000 0.371389 0.928477  0.751205 0.916667 0
0  -16.719999 -18.920002 40.720001  0.000001 0.371391 0.928477  0.895833 0.895833 0
bcrate08.vmt.001
0  -7.037735 -20.932333 41.524933  -0.000000 0.371391 0.928477  0.666613 0.914890 0
0  -5.686868 -21.120001 41.599998  0.000000 0.371388 0.928478  0.634632 0.916667 0
0  1.867195 -18.920002 40.720001  0.000001 0.371390 0.928477  0.455796 0.895833 0
bcrate08.vmt.001
0  -12.599924 -16.931454 45.500000  0.000000 0.000000 1.000000  0.237502 0.852739 0
0  2.073905 -16.615501 45.500000  0.000000 0.000000 1.000000  0.543206 0.846156 0
0  2.405009 -13.294443 45.500000  -0.000000 0.000000 1.000000  0.550104 0.776968 0
bcrate08.vmt.001
0  2.405009 -13.294443 45.500000  -0.000000 0.000000 1.000000  0.550104 0.776968 0
0  -0.427020 -0.426471 45.500000  -0.000000 0.000000 1.000000  0.491104 0.508885 0
0  -9.146042 -3.761941 45.500000  0.000000 0.000000 1.000000  0.309457 0.578374 0
bcrate08.vmt.001
0  -12.037619 -8.301380 45.500000  0.000000 0.000000 1.000000  0.249216 0.672945 0
0  -18.211550 -15.611107 45.500000  0.000000 0.000000 1.000000  0.120593 0.825231 0
0  -12.599924 -16.931454 45.500000  0.000000 0.000000 1.000000  0.237502 0.852739 0
bcrate08.vmt.001
0  2.405009 -13.294443 45.500000  -0.000000 0.000000 1.000000  0.550104 0.776968 0
0  -9.146042 -3.761941 45.500000  0.000000 0.000000 1.000000  0.309457 0.578374 0
0  -12.037619 -8.301380 45.500000  0.000000 0.000000 1.000000  0.249216 0.672945 0
bcrate08.vmt.001
0  -18.211550 -15.611107 45.500000  0.000000 0.000000 1.000000  0.120593 0.825231 0
0  -15.898136 -19.000000 45.500000  0.000000 0.000000 1.000000  0.168789 0.895833 0
0  -12.599924 -16.931454 45.500000  0.000000 0.000000 1.000000  0.237502 0.852739 0
borked_crate
0  -24.000000 -12.500000 1.399696  0.045287 -0.137446 -0.989473  0.182456 0.750000 0
0  -24.000000 -2.423580 0.000000  0.045287 -0.137446 -0.989473  0.175476 0.685799 0
0  -20.000000 -1.105623 0.000000  0.045287 -0.137446 -0.989473  0.201153 0.675681 0
bcrate08.vmt.001
0  -21.120001 -0.970285 6.400000  0.371391 0.000000 -0.928476  0.522971 0.083333 0
0  -18.920002 -1.017036 7.280001  0.371391 0.000000 -0.928477  0.524078 0.104167 0
0  -18.920002 -16.719999 7.280001  0.371391 0.000000 -0.928477  0.895833 0.104167 0
bcrate08.vmt.001
0  -16.719999 -16.719999 42.920002  -0.000000 0.000000 -1.000000  0.104167 0.895833 0
0  -16.719999 -4.707653 42.920002  -0.000002 0.000000 -1.000000  0.104167 0.611450 0
0  -11.936104 -3.869510 42.920002  -0.000001 -0.000000 -1.000000  0.217422 0.591608 0
bcrate08.vmt.001
0  -11.936104 -3.869510 42.920002  -0.000001 -0.000000 -1.000000  0.217422 0.591608 0
0  0.325156 0.402548 42.919998  -0.000001 -0.000000 -1.000000  0.507698 0.490470 0
0  1.839250 -13.123573 42.920002  -0.000000 -0.000000 -1.000000  0.543543 0.810691 0
bcrate08.vmt.001
0  1.839250 -13.123573 42.920002  -0.000000 -0.000000 -1.000000  0.543543 0.810691 0
0  2.328424 -16.719999 42.920002  0.000000 0.000000 -1.000000  0.555124 0.895833 0
0  -16.719999 -16.719999 42.920002  -0.000000 0.000000 -1.000000  0.104167 0.895833 0
borked_crate
0  -19.000000 -0.331991 2.500000  0.061542 0.979128 0.193703  0.460014 0.019165 0
0  -20.000000 0.225445 0.000000  0.061542 0.979128 0.193703  0.466620 0.001703 0
0  -21.120001 -0.273916 2.879999  0.061542 0.979128 0.193703  0.474132 0.022847 0
borked_crate
0  -24.000000 0.476859 0.000000  0.061541 0.979128 0.193704  0.493237 0.003685 0
0  -24.000000 -0.314473 4.000000  0.061541 0.979128 0.193704  0.493329 0.032029 0
0  -21.120001 -0.273916 2.879999  0.061541 0.979128 0.193704  0.474132 0.022847 0
borked_crate
0  -21.500000 -1.309083 11.393831  -0.105745 0.994384 0.004275  0.476755 0.083333 0
0  -18.920002 -1.035333 11.536107  -0.105745 0.994384 0.004275  0.459502 0.083333 0
0  -18.920002 -1.017036 7.280001  -0.105745 0.994384 0.004275  0.459536 0.053304 0
borked_crate
0  -21.500000 -1.309083 11.393831  -0.005700 0.997720 0.067255  0.476755 0.083333 0
0  -18.920002 -1.017036 7.280001  -0.005700 0.997720 0.067255  0.459536 0.053304 0
0  -21.120001 -0.970285 6.400000  -0.005700 0.997720 0.067255  0.474206 0.047969 0
borked_crate
0  -21.500000 -0.669437 5.000000  0.388040 0.917065 0.091744  0.476707 0.038128 0
0  -21.500000 -1.309083 11.393831  0.388040 0.917065 0.091744  0.476755 0.083333 0
0  -21.120001 -0.970285 6.400000  0.388040 0.917065 0.091744  0.474206 0.047969 0
borked_crate
0  -21.500000 -0.669437 5.000000  0.061538 0.979128 0.193703  0.476707 0.038128 0
0  -21.120001 -0.970285 6.400000  0.061538 0.979128 0.193703  0.474206 0.047969 0
0  -21.120001 -0.273916 2.879999  0.061538 0.979128 0.193703  0.474132 0.022847 0
borked_crate
0  -16.719999 -0.773624 5.079998  -0.105744 0.994384 0.004275  0.444854 0.036638 0
0  -12.501173 -0.324988 5.079998  -0.105744 0.994384 0.004275  0.416667 0.034422 0
0  -12.496245 -0.313372 2.500000  -0.105744 0.994384 0.004275  0.416667 0.015890 0
borked_crate
0  -17.600000 -0.495161 2.879999  -0.025194 0.990464 0.135445  0.450703 0.021261 0
0  -16.719999 -0.773624 5.079998  -0.025194 0.990464 0.135445  0.444854 0.036638 0
0  -12.496245 -0.313372 2.500000  -0.025194 0.990464 0.135445  0.416667 0.015890 0
borked_crate
0  -17.600000 -0.495161 2.879999  -0.002620 0.915331 0.402693  0.450703 0.021261 0
0  -12.496245 -0.313372 2.500000  -0.002620 0.915331 0.402693  0.416667 0.015890 0
0  -19.000000 -0.331991 2.500000  -0.002620 0.915331 0.402693  0.460014 0.019165 0
borked_crate
0  -24.000000 -0.314473 4.000000  0.061541 0.979128 0.193703  0.493329 0.032029 0
0  -21.500000 -0.669437 5.000000  0.061541 0.979128 0.193703  0.476707 0.038128 0
0  -21.120001 -0.273916 2.879999  0.061541 0.979128 0.193703  0.474132 0.022847 0
borked_crate
0  -21.120001 -0.273916 2.879999  0.061542 0.979129 0.193700  0.474132 0.022847 0
0  -17.600000 -0.495161 2.879999  0.061542 0.979129 0.193700  0.450703 0.021261 0
0  -19.000000 -0.331991 2.500000  0.061542 0.979129 0.193700  0.460014 0.019165 0
bcrate08.vmt.001
0  -3.048853 -17.600000 2.879999  0.000000 -0.928476 0.371391  0.427821 0.916667 0
0  -1.880465 -16.719999 5.079998  0.000000 -0.928476 0.371391  0.455481 0.895833 0
0  -16.719999 -16.719999 5.079998  0.000000 -0.928477 0.371391  0.104167 0.895833 0
end
