version 1
nodes
0 "root" -1
end
skeleton
time 0
0 0 0 0 0 0 0
end
triangles
bcrate08.vmt.001
0  12.573619 0.248762 42.919998  -0.000005 -0.000001 -1.000000  0.797671 0.494111 0
0  5.820961 12.538926 42.920002  -0.000000 0.000000 -1.000000  0.637807 0.203150 0
0  16.719999 16.719999 42.920002  0.000000 0.000000 -1.000000  0.895833 0.104167 0
bcrate08.vmt.001
0  18.920002 12.468962 37.370502  -1.000000 0.000000 0.000000  0.204807 0.816536 0
0  18.920002 0.514237 39.164948  -1.000000 0.000000 0.000000  0.487826 0.859019 0
0  18.920002 0.567315 40.720001  -1.000000 0.000000 0.000000  0.486569 0.895833 0
bcrate08.vmt.001
0  21.120001 21.120001 45.120003  -0.000000 -1.000000 -0.000000  0.000000 1.000000 0
0  17.600000 21.120003 37.558952  -0.000000 -1.000000 -0.000000  0.083333 0.820998 0
0  21.120001 21.120001 36.160969  -0.000001 -1.000000 0.000000  0.000000 0.787902 0
bcrate08.vmt.001
0  21.120001 21.120001 45.120003  0.000000 0.000000 -1.000000  1.000000 0.000000 0
0  0.269588 17.600000 45.120003  0.000000 0.000000 -1.000000  0.506382 0.083333 0
0  -0.004133 21.120001 45.120003  0.000000 0.000000 -1.000000  0.499902 0.000000 0
bcrate08.vmt.001
0  21.120001 21.120001 45.120003  -1.000000 -0.000000 -0.000000  0.000000 1.000000 0
0  21.119999 0.736890 41.599998  -1.000000 0.000000 -0.000000  0.482555 0.916667 0
0  21.119999 0.857041 45.120003  -1.000000 0.000000 -0.000000  0.479710 1.000000 0
bcrate08.vmt.001
0  17.600000 21.120001 41.599998  0.928477 -0.371391 -0.000000  0.083333 0.916667 0
0  16.719999 18.920002 37.918709  0.928477 -0.371391 -0.000000  0.104167 0.829515 0
0  17.600000 21.120003 37.558952  0.928476 -0.371391 -0.000000  0.083333 0.820998 0
bcrate08.vmt.001
0  5.816875 16.719997 42.920002  -0.000000 0.928477 -0.371391  0.637710 0.104167 0
0  -0.066078 16.819546 43.168873  0.000000 0.928476 -0.371393  0.498436 0.101810 0
0  0.269588 17.600000 45.120003  0.000000 0.928476 -0.371392  0.506382 0.083333 0
bcrate08.vmt.001
0  21.120001 17.600000 41.599998  -0.371390 0.000000 0.928477  0.083333 0.916667 0
0  18.920002 0.567315 40.720001  -0.371388 0.000000 0.928478  0.486569 0.895833 0
0  21.119999 0.736890 41.599998  -0.371388 0.000000 0.928478  0.482555 0.916667 0
bcrate08.vmt.001
0  0.718354 12.618706 45.500004  0.000000 -0.000004 1.000000  0.514966 0.237110 0
0  12.551363 0.424032 45.500000  0.000000 -0.000000 1.000000  0.761487 0.491166 0
0  19.000000 19.000000 45.500000  0.000000 0.000000 1.000000  0.895833 0.104167 0
bcrate08.vmt.001
0  21.500000 0.808782 43.000000  1.000000 0.000000 0.000000  0.483150 0.895833 0
0  21.500000 12.481962 36.461555  1.000000 -0.000000 0.000000  0.239959 0.759616 0
0  21.500000 19.000000 43.000000  1.000000 -0.000000 0.000000  0.104167 0.895833 0
bcrate08.vmt.001
0  24.000000 24.000000 48.000000  0.000000 1.000000 0.000000  0.000000 1.000000 0
0  20.000000 24.000000 36.591198  0.000000 1.000000 0.000000  0.083333 0.762317 0
0  20.000000 24.000000 44.000000  0.000000 1.000000 0.000000  0.083333 0.916667 0
bcrate08.vmt.001
0  24.000000 24.000000 48.000000  -0.000000 0.000000 1.000000  1.000000 0.000000 0
0  0.668003 20.000000 48.000000  0.000000 0.000000 1.000000  0.513917 0.083333 0
0  20.000000 20.000000 48.000000  0.000000 0.000000 1.000000  0.916667 0.083333 0
bcrate08.vmt.001
0  24.000000 24.000000 48.000000  1.000000 0.000000 0.000000  0.000000 1.000000 0
0  24.000000 1.001477 44.000000  1.000000 0.000000 0.000000  0.479136 0.916667 0
0  24.000000 20.000000 44.000000  1.000000 0.000000 0.000000  0.083333 0.916667 0
bcrate08.vmt.001
0  20.000000 24.000000 44.000000  -0.928477 0.371390 0.000000  0.083333 0.916667 0
0  19.000000 21.500000 37.000008  -0.928477 0.371391 0.000000  0.104167 0.770833 0
0  19.000000 21.500000 43.000000  -0.928477 0.371390 0.000000  0.104167 0.895833 0
bcrate08.vmt.001
0  20.000000 20.000000 48.000000  0.000000 -0.928477 0.371391  0.916667 0.083333 0
0  0.237911 19.000000 45.500000  0.000000 -0.928476 0.371392  0.504956 0.104167 0
0  19.000000 19.000000 45.500000  0.000000 -0.928477 0.371391  0.895833 0.104167 0
bcrate08.vmt.001
0  24.000000 20.000000 44.000000  0.371392 0.000000 -0.928476  0.083333 0.916667 0
0  21.500000 0.808782 43.000000  0.371391 0.000000 -0.928477  0.483150 0.895833 0
0  21.500000 19.000000 43.000000  0.371392 0.000000 -0.928476  0.104167 0.895833 0
bcrate08.vmt.001
0  10.259310 18.920002 40.720001  0.000000 -0.371390 0.928477  0.257119 0.895833 0
0  16.719999 18.920002 40.720001  0.000000 -0.371390 0.928477  0.104167 0.895833 0
0  17.600000 21.120001 41.599998  0.000000 -0.371390 0.928477  0.083333 0.916667 0
bcrate08.vmt.001
0  10.259310 18.920002 40.720001  0.000001 -1.000000 0.000000  0.257119 0.895833 0
0  16.719999 18.920002 37.918709  0.000000 -1.000000 0.000000  0.104167 0.829515 0
0  16.719999 18.920002 40.720001  0.000000 -1.000000 0.000000  0.104167 0.895833 0
bcrate08.vmt.001
0  24.000000 20.000000 35.203384  1.000000 0.000000 0.000000  0.083333 0.733404 0
0  24.000000 24.000000 48.000000  1.000000 0.000000 0.000000  0.000000 1.000000 0
0  24.000000 20.000000 44.000000  1.000000 0.000000 0.000000  0.083333 0.916667 0
borked_crate
0  20.000000 24.000000 36.591198  -0.369174 -0.004737 -0.929348  0.799409 0.174242 0
0  24.000000 24.000000 35.002243  -0.369174 -0.004737 -0.929348  0.826993 0.173474 0
0  21.120001 21.120001 36.160969  -0.369174 -0.004737 -0.929348  0.807417 0.192993 0
bcrate08.vmt.001
0  21.119999 0.857041 45.120003  -0.000002 0.000000 -1.000000  1.000000 0.479710 0
0  17.600000 17.600000 45.120003  0.000000 0.000000 -1.000000  0.916667 0.083333 0
0  21.120001 21.120001 45.120003  0.000000 0.000000 -1.000000  1.000000 0.000000 0
bcrate08.vmt.001
0  12.728048 21.500000 39.496765  0.000000 1.000000 -0.000001  0.234832 0.822849 0
0  -0.464342 21.500000 43.000000  0.000000 1.000000 0.000001  0.509674 0.895833 0
0  19.000000 21.500000 43.000000  0.000000 1.000000 -0.000000  0.104167 0.895833 0
bcrate08.vmt.001
0  19.000000 0.735548 45.500000  -0.928476 0.000000 0.371391  0.895833 0.484676 0
0  20.000000 20.000000 48.000000  -0.928477 0.000000 0.371391  0.916667 0.083333 0
0  19.000000 19.000000 45.500000  -0.928477 0.000000 0.371391  0.895833 0.104167 0
bcrate08.vmt.001
0  21.120001 21.120001 36.160969  -1.000000 0.000000 0.000000  0.000000 0.787902 0
0  21.120001 17.600000 41.599998  -1.000000 0.000000 -0.000000  0.083333 0.916667 0
0  21.120001 21.120001 45.120003  -1.000000 -0.000000 -0.000000  0.000000 1.000000 0
borked_crate
0  12.551363 0.424032 45.500000  0.189829 -0.979447 0.068176  0.583333 0.314129 0
0  11.971882 0.132138 42.920002  0.189829 -0.979447 0.068176  0.586726 0.333333 0
0  12.573619 0.248762 42.919998  0.189829 -0.979447 0.068176  0.583333 0.331584 0
bcrate08.vmt.001
0  -0.464342 21.500000 43.000000  0.000000 0.371391 -0.928477  0.509674 0.895833 0
0  20.000000 24.000000 44.000000  0.000000 0.371391 -0.928477  0.083333 0.916667 0
0  19.000000 21.500000 43.000000  0.000000 0.371391 -0.928477  0.104167 0.895833 0
borked_crate
0  5.944155 -0.856523 45.500000  -0.437211 -0.173968 -0.882373  0.712751 0.333333 0
0  0.675448 12.384597 45.500000  -0.437211 -0.173968 -0.882373  0.666667 0.251318 0
0  5.820961 12.538926 42.920002  -0.437211 -0.173968 -0.882373  0.703137 0.250000 0
borked_crate
0  0.675448 12.384597 45.500000  -0.980966 0.179789 -0.073365  0.000000 0.415348 0
0  0.718354 12.618706 45.500004  -0.980966 0.179789 -0.073365  0.000410 0.416667 0
0  0.722639 12.619055 45.443554  -0.980966 0.179789 -0.073365  0.000000 0.416667 0
borked_crate
0  0.237911 19.000000 45.500000  -0.979021 -0.073712 0.189957  0.021341 0.460383 0
0  0.269588 17.600000 45.120003  -0.979021 -0.073712 0.189957  0.014696 0.450847 0
0  0.718354 12.618706 45.500004  -0.979021 -0.073712 0.189957  0.000410 0.416667 0
borked_crate
0  12.728048 21.500000 39.496765  -0.077159 -0.365895 -0.927452  0.750000 0.191648 0
0  10.259310 18.920002 40.720001  -0.077159 -0.365895 -0.927452  0.734072 0.209183 0
0  -0.944917 21.500000 40.634277  -0.077159 -0.365895 -0.927452  0.666667 0.188766 0
borked_crate
0  -0.066078 16.819546 43.168873  -0.391946 -0.493909 -0.776165  0.666667 0.221038 0
0  5.820961 12.538926 42.920002  -0.391946 -0.493909 -0.776165  0.703137 0.250000 0
0  0.722639 12.619055 45.443554  -0.391946 -0.493909 -0.776165  0.666667 0.250000 0
bcrate08.vmt.001
0  21.119999 17.599998 36.337975  -0.371392 0.928476 0.000000  0.083333 0.792092 0
0  18.920002 16.719999 40.720001  -0.371392 0.928476 0.000000  0.104167 0.895833 0
0  21.120001 17.600000 41.599998  -0.371392 0.928476 0.000000  0.083333 0.916667 0
borked_crate
0  21.500000 12.481962 36.461555  -0.328375 -0.140209 -0.934083  0.809860 0.250000 0
0  18.920002 0.514237 39.164948  -0.328375 -0.140209 -0.934083  0.791538 0.333333 0
0  18.920002 12.468962 37.370502  -0.328375 -0.140209 -0.934083  0.792940 0.250000 0
bcrate08.vmt.001
0  21.500000 19.000000 36.133793  0.371391 -0.928477 0.000000  0.104167 0.752787 0
0  24.000000 20.000000 44.000000  0.371391 -0.928477 0.000000  0.083333 0.916667 0
0  21.500000 19.000000 43.000000  0.371391 -0.928477 0.000000  0.104167 0.895833 0
borked_crate
0  24.000000 1.001477 44.000000  0.063262 -0.997416 0.034047  0.507494 0.288151 0
0  24.000000 1.138017 48.000000  0.063262 -0.997416 0.034047  0.506947 0.264490 0
0  21.119999 0.857041 45.120003  0.063262 -0.997416 0.034047  0.526517 0.289950 0
bcrate08.vmt.001
0  -0.004133 21.120001 45.120003  0.000000 -1.000000 -0.000000  0.500098 1.000000 0
0  17.600000 21.120001 41.599998  0.000000 -1.000000 -0.000001  0.083333 0.916667 0
0  21.120001 21.120001 45.120003  -0.000000 -1.000000 -0.000000  0.000000 1.000000 0
bcrate08.vmt.001
0  17.600000 0.633780 45.120003  0.928477 0.000000 -0.371391  0.916667 0.484996 0
0  16.719999 16.719999 42.920002  0.928476 0.000000 -0.371392  0.895833 0.104167 0
0  17.600000 17.600000 45.120003  0.928476 0.000000 -0.371392  0.916667 0.083333 0
bcrate08.vmt.001
0  20.000000 0.916903 48.000000  -0.000002 0.000000 1.000000  0.916667 0.480898 0
0  24.000000 24.000000 48.000000  -0.000000 0.000000 1.000000  1.000000 0.000000 0
0  20.000000 20.000000 48.000000  0.000000 0.000000 1.000000  0.916667 0.083333 0
bcrate08.vmt.001
0  -0.455607 24.000000 44.000000  0.000000 1.000000 0.000000  0.509492 0.916667 0
0  24.000000 24.000000 48.000000  0.000000 1.000000 0.000000  0.000000 1.000000 0
0  20.000000 24.000000 44.000000  0.000000 1.000000 0.000000  0.083333 0.916667 0
bcrate08.vmt.001
0  5.816875 16.719997 42.920002  0.000001 0.000000 -1.000000  0.637710 0.104167 0
0  16.719999 16.719999 42.920002  0.000000 0.000000 -1.000000  0.895833 0.104167 0
0  5.820961 12.538926 42.920002  -0.000000 0.000000 -1.000000  0.637807 0.203150 0
bcrate08.vmt.001
0  12.573619 0.248762 42.919998  -0.000005 -0.000001 -1.000000  0.797671 0.494111 0
0  11.971882 0.132138 42.920002  -0.000015 -0.000003 -1.000000  0.783425 0.496872 0
0  5.820961 12.538926 42.920002  -0.000000 0.000000 -1.000000  0.637807 0.203150 0
bcrate08.vmt.001
0  16.719999 16.719999 42.920002  0.000000 0.000000 -1.000000  0.895833 0.104167 0
0  16.719999 0.502872 42.920002  0.000002 0.000000 -1.000000  0.895833 0.488095 0
0  12.573619 0.248762 42.919998  -0.000005 -0.000001 -1.000000  0.797671 0.494111 0
bcrate08.vmt.001
0  18.920002 0.567315 40.720001  -1.000000 0.000000 0.000000  0.486569 0.895833 0
0  18.920002 16.719999 40.720001  -1.000000 0.000000 0.000000  0.104167 0.895833 0
0  18.920002 12.468962 37.370502  -1.000000 0.000000 0.000000  0.204807 0.816536 0
bcrate08.vmt.001
0  18.920002 16.719999 37.156734  -1.000000 0.000000 0.000000  0.104167 0.811476 0
0  18.920002 12.468962 37.370502  -1.000000 0.000000 0.000000  0.204807 0.816536 0
0  18.920002 16.719999 40.720001  -1.000000 0.000000 0.000000  0.104167 0.895833 0
bcrate08.vmt.001
0  21.120001 21.120001 45.120003  -0.000000 -1.000000 -0.000000  0.000000 1.000000 0
0  17.600000 21.120001 41.599998  0.000000 -1.000000 -0.000001  0.083333 0.916667 0
0  17.600000 21.120003 37.558952  -0.000000 -1.000000 -0.000000  0.083333 0.820998 0
bcrate08.vmt.001
0  21.120001 21.120001 45.120003  0.000000 0.000000 -1.000000  1.000000 0.000000 0
0  17.600000 17.600000 45.120003  0.000000 0.000000 -1.000000  0.916667 0.083333 0
0  0.269588 17.600000 45.120003  0.000000 0.000000 -1.000000  0.506382 0.083333 0
bcrate08.vmt.001
0  21.120001 21.120001 45.120003  -1.000000 -0.000000 -0.000000  0.000000 1.000000 0
0  21.120001 17.600000 41.599998  -1.000000 0.000000 -0.000000  0.083333 0.916667 0
0  21.119999 0.736890 41.599998  -1.000000 0.000000 -0.000000  0.482555 0.916667 0
bcrate08.vmt.001
0  17.600000 21.120001 41.599998  0.928477 -0.371391 -0.000000  0.083333 0.916667 0
0  16.719999 18.920002 40.720001  0.928477 -0.371390 0.000000  0.104167 0.895833 0
0  16.719999 18.920002 37.918709  0.928477 -0.371391 -0.000000  0.104167 0.829515 0
bcrate08.vmt.001
0  0.269588 17.600000 45.120003  0.000000 0.928476 -0.371392  0.506382 0.083333 0
0  17.600000 17.600000 45.120003  -0.000000 0.928476 -0.371392  0.916667 0.083333 0
0  5.816875 16.719997 42.920002  -0.000000 0.928477 -0.371391  0.637710 0.104167 0
bcrate08.vmt.001
0  16.719999 16.719999 42.920002  -0.000000 0.928476 -0.371393  0.895833 0.104167 0
0  5.816875 16.719997 42.920002  -0.000000 0.928477 -0.371391  0.637710 0.104167 0
0  17.600000 17.600000 45.120003  -0.000000 0.928476 -0.371392  0.916667 0.083333 0
bcrate08.vmt.001
0  21.120001 17.600000 41.599998  -0.371390 0.000000 0.928477  0.083333 0.916667 0
0  18.920002 16.719999 40.720001  -0.371391 0.000000 0.928477  0.104167 0.895833 0
0  18.920002 0.567315 40.720001  -0.371388 0.000000 0.928478  0.486569 0.895833 0
bcrate08.vmt.001
0  19.000000 0.735548 45.500000  0.000000 0.000000 1.000000  0.895833 0.484676 0
0  19.000000 19.000000 45.500000  0.000000 0.000000 1.000000  0.895833 0.104167 0
0  12.551363 0.424032 45.500000  0.000000 -0.000000 1.000000  0.761487 0.491166 0
bcrate08.vmt.001
0  0.718354 12.618706 45.500004  0.000000 -0.000004 1.000000  0.514966 0.237110 0
0  0.675448 12.384597 45.500000  0.000000 -0.000012 1.000000  0.514072 0.241988 0
0  12.551363 0.424032 45.500000  0.000000 -0.000000 1.000000  0.761487 0.491166 0
bcrate08.vmt.001
0  19.000000 19.000000 45.500000  0.000000 0.000000 1.000000  0.895833 0.104167 0
0  0.237911 19.000000 45.500000  0.000000 0.000001 1.000000  0.504956 0.104167 0
0  0.718354 12.618706 45.500004  0.000000 -0.000004 1.000000  0.514966 0.237110 0
bcrate08.vmt.001
0  0.675448 12.384597 45.500000  0.000000 -0.000012 1.000000  0.514072 0.241988 0
0  5.944155 -0.856523 45.500000  0.000000 0.000000 1.000000  0.623836 0.517844 0
0  12.551363 0.424032 45.500000  0.000000 -0.000000 1.000000  0.761487 0.491166 0
bcrate08.vmt.001
0  21.500000 19.000000 36.133793  1.000000 -0.000001 0.000000  0.104167 0.752787 0
0  21.500000 19.000000 43.000000  1.000000 -0.000000 0.000000  0.104167 0.895833 0
0  21.500000 12.481962 36.461555  1.000000 -0.000000 0.000000  0.239959 0.759616 0
bcrate08.vmt.001
0  21.500000 0.808782 43.000000  1.000000 0.000000 0.000000  0.483150 0.895833 0
0  21.500000 0.629341 37.743004  1.000000 0.000000 0.000000  0.486889 0.786313 0
0  21.500000 12.481962 36.461555  1.000000 -0.000000 0.000000  0.239959 0.759616 0
bcrate08.vmt.001
0  24.000000 24.000000 48.000000  0.000000 1.000000 0.000000  0.000000 1.000000 0
0  24.000000 24.000000 35.002243  0.000000 1.000000 0.000000  0.000000 0.729213 0
0  20.000000 24.000000 36.591198  0.000000 1.000000 0.000000  0.083333 0.762317 0
bcrate08.vmt.001
0  24.000000 24.000000 48.000000  -0.000000 0.000000 1.000000  1.000000 0.000000 0
0  0.356956 24.000000 48.000000  0.000000 0.000000 1.000000  0.507437 0.000000 0
0  0.668003 20.000000 48.000000  0.000000 0.000000 1.000000  0.513917 0.083333 0
bcrate08.vmt.001
0  24.000000 24.000000 48.000000  1.000000 0.000000 0.000000  0.000000 1.000000 0
0  24.000000 1.138017 48.000000  1.000000 0.000000 0.000000  0.476291 1.000000 0
0  24.000000 1.001477 44.000000  1.000000 0.000000 0.000000  0.479136 0.916667 0
bcrate08.vmt.001
0  20.000000 24.000000 44.000000  -0.928477 0.371390 0.000000  0.083333 0.916667 0
0  20.000000 24.000000 36.591198  -0.928477 0.371391 0.000000  0.083333 0.762317 0
0  19.000000 21.500000 37.000008  -0.928477 0.371391 0.000000  0.104167 0.770833 0
bcrate08.vmt.001
0  20.000000 20.000000 48.000000  0.000000 -0.928477 0.371391  0.916667 0.083333 0
0  0.668003 20.000000 48.000000  0.000000 -0.928476 0.371392  0.513917 0.083333 0
0  0.237911 19.000000 45.500000  0.000000 -0.928476 0.371392  0.504956 0.104167 0
bcrate08.vmt.001
0  24.000000 20.000000 44.000000  0.371392 0.000000 -0.928476  0.083333 0.916667 0
0  24.000000 1.001477 44.000000  0.371391 0.000000 -0.928477  0.479136 0.916667 0
0  21.500000 0.808782 43.000000  0.371391 0.000000 -0.928477  0.483150 0.895833 0
bcrate08.vmt.001
0  17.600000 21.120001 41.599998  0.000000 -0.371390 0.928477  0.083333 0.916667 0
0  -0.719189 21.120001 41.599998  0.000000 -0.371389 0.928478  0.517026 0.916667 0
0  10.259310 18.920002 40.720001  0.000000 -0.371390 0.928477  0.257119 0.895833 0
bcrate08.vmt.001
0  -0.722010 20.312862 41.277145  0.000000 -0.371389 0.928478  0.517093 0.909023 0
0  10.259310 18.920002 40.720001  0.000000 -0.371390 0.928477  0.257119 0.895833 0
0  -0.719189 21.120001 41.599998  0.000000 -0.371389 0.928478  0.517026 0.916667 0
bcrate08.vmt.001
0  10.259310 18.920002 40.720001  0.000001 -1.000000 0.000000  0.257119 0.895833 0
0  12.626699 18.920000 39.548180  0.000006 -1.000000 0.000000  0.201072 0.868091 0
0  16.719999 18.920002 37.918709  0.000000 -1.000000 0.000000  0.104167 0.829515 0
bcrate08.vmt.001
0  24.000000 20.000000 35.203384  1.000000 0.000000 0.000000  0.083333 0.733404 0
0  24.000000 24.000000 35.002243  1.000000 0.000000 0.000000  0.000000 0.729213 0
0  24.000000 24.000000 48.000000  1.000000 0.000000 0.000000  0.000000 1.000000 0
borked_crate
0  19.000000 21.500000 37.000008  -0.368695 -0.004523 -0.929539  0.792868 0.190802 0
0  20.000000 24.000000 36.591198  -0.368695 -0.004523 -0.929539  0.799409 0.174242 0
0  21.120001 21.120001 36.160969  -0.368695 -0.004523 -0.929539  0.807417 0.192993 0
borked_crate
0  24.000000 24.000000 35.002243  -0.331699 -0.047379 -0.942195  0.826993 0.173474 0
0  24.000000 20.000000 35.203384  -0.331699 -0.047379 -0.942195  0.826720 0.200093 0
0  21.120001 21.120001 36.160969  -0.331699 -0.047379 -0.942195  0.807417 0.192993 0
borked_crate
0  21.500000 12.481962 36.461555  -0.331703 -0.047379 -0.942194  0.809860 0.250000 0
0  18.920002 12.468962 37.370502  -0.331703 -0.047379 -0.942194  0.792940 0.250000 0
0  18.920002 16.719999 37.156734  -0.331703 -0.047379 -0.942194  0.792766 0.222132 0
borked_crate
0  21.500000 12.481962 36.461555  -0.331699 -0.047378 -0.942195  0.809860 0.250000 0
0  18.920002 16.719999 37.156734  -0.331699 -0.047378 -0.942195  0.792766 0.222132 0
0  21.119999 17.599998 36.337975  -0.331699 -0.047378 -0.942195  0.807369 0.216244 0
borked_crate
0  21.500000 19.000000 36.133793  -0.331689 -0.047379 -0.942198  0.809930 0.206963 0
0  21.500000 12.481962 36.461555  -0.331689 -0.047379 -0.942198  0.809860 0.250000 0
0  21.119999 17.599998 36.337975  -0.331689 -0.047379 -0.942198  0.807369 0.216244 0
borked_crate
0  21.500000 19.000000 36.133793  -0.331718 -0.047379 -0.942188  0.809930 0.206963 0
0  21.119999 17.599998 36.337975  -0.331718 -0.047379 -0.942188  0.807369 0.216244 0
0  21.120001 21.120001 36.160969  -0.331718 -0.047379 -0.942188  0.807417 0.192993 0
borked_crate
0  16.719999 18.920002 37.918709  -0.369852 -0.003986 -0.929082  0.777759 0.207904 0
0  12.626699 18.920000 39.548180  -0.369852 -0.003986 -0.929082  0.750000 0.208258 0
0  12.728048 21.500000 39.496765  -0.369852 -0.003986 -0.929082  0.750000 0.191648 0
borked_crate
0  17.600000 21.120003 37.558952  -0.369851 -0.003987 -0.929082  0.783346 0.193485 0
0  16.719999 18.920002 37.918709  -0.369851 -0.003987 -0.929082  0.777759 0.207904 0
0  12.728048 21.500000 39.496765  -0.369851 -0.003987 -0.929082  0.750000 0.191648 0
borked_crate
0  17.600000 21.120003 37.558952  -0.369855 -0.003982 -0.929081  0.783346 0.193485 0
0  12.728048 21.500000 39.496765  -0.369855 -0.003982 -0.929081  0.750000 0.191648 0
0  19.000000 21.500000 37.000008  -0.369855 -0.003982 -0.929081  0.792868 0.190802 0
borked_crate
0  24.000000 20.000000 35.203384  -0.331700 -0.047377 -0.942195  0.826720 0.200093 0
0  21.500000 19.000000 36.133793  -0.331700 -0.047377 -0.942195  0.809930 0.206963 0
0  21.120001 21.120001 36.160969  -0.331700 -0.047377 -0.942195  0.807417 0.192993 0
borked_crate
0  21.120001 21.120001 36.160969  -0.369102 -0.007164 -0.929361  0.807417 0.192993 0
0  17.600000 21.120003 37.558952  -0.369102 -0.007164 -0.929361  0.783346 0.193485 0
0  19.000000 21.500000 37.000008  -0.369102 -0.007164 -0.929361  0.792868 0.190802 0
bcrate08.vmt.001
0  21.119999 0.857041 45.120003  -0.000002 0.000000 -1.000000  1.000000 0.479710 0
0  17.600000 0.633780 45.120003  -0.000002 0.000000 -1.000000  0.916667 0.484996 0
0  17.600000 17.600000 45.120003  0.000000 0.000000 -1.000000  0.916667 0.083333 0
bcrate08.vmt.001
0  19.000000 21.500000 43.000000  0.000000 1.000000 -0.000000  0.104167 0.895833 0
0  19.000000 21.500000 37.000008  0.000000 1.000000 0.000000  0.104167 0.770833 0
0  12.728048 21.500000 39.496765  0.000000 1.000000 -0.000001  0.234832 0.822849 0
bcrate08.vmt.001
0  12.728048 21.500000 39.496765  0.000000 1.000000 -0.000001  0.234832 0.822849 0
0  -0.944917 21.500000 40.634277  0.000000 1.000000 0.000001  0.519686 0.846548 0
0  -0.464342 21.500000 43.000000  0.000000 1.000000 0.000001  0.509674 0.895833 0
bcrate08.vmt.001
0  19.000000 0.735548 45.500000  -0.928476 0.000000 0.371391  0.895833 0.484676 0
0  20.000000 0.916903 48.000000  -0.928476 0.000000 0.371391  0.916667 0.480898 0
0  20.000000 20.000000 48.000000  -0.928477 0.000000 0.371391  0.916667 0.083333 0
bcrate08.vmt.001
0  21.120001 21.120001 36.160969  -1.000000 0.000000 0.000000  0.000000 0.787902 0
0  21.119999 17.599998 36.337975  -1.000000 0.000001 0.000000  0.083333 0.792092 0
0  21.120001 17.600000 41.599998  -1.000000 0.000000 -0.000000  0.083333 0.916667 0
borked_crate
0  12.551363 0.424032 45.500000  0.189829 -0.979447 0.068176  0.583333 0.314129 0
0  5.944155 -0.856523 45.500000  0.189829 -0.979447 0.068176  0.620582 0.333333 0
0  11.971882 0.132138 42.920002  0.189829 -0.979447 0.068176  0.586726 0.333333 0
bcrate08.vmt.001
0  -0.464342 21.500000 43.000000  0.000000 0.371391 -0.928477  0.509674 0.895833 0
0  -0.455607 24.000000 44.000000  0.000000 0.371391 -0.928477  0.509492 0.916667 0
0  20.000000 24.000000 44.000000  0.000000 0.371391 -0.928477  0.083333 0.916667 0
borked_crate
0  0.722639 12.619055 45.443554  -0.441707 -0.124979 -0.888412  0.666667 0.250000 0
0  5.820961 12.538926 42.920002  -0.441707 -0.124979 -0.888412  0.703137 0.250000 0
0  0.675448 12.384597 45.500000  -0.441707 -0.124979 -0.888412  0.666667 0.251318 0
borked_crate
0  11.971882 0.132138 42.920002  -0.362070 -0.179504 -0.914704  0.746608 0.333333 0
0  5.944155 -0.856523 45.500000  -0.362070 -0.179504 -0.914704  0.712751 0.333333 0
0  5.820961 12.538926 42.920002  -0.362070 -0.179504 -0.914704  0.703137 0.250000 0
borked_crate
0  0.722639 12.619055 45.443554  -0.992559 -0.095200 -0.075922  0.000000 0.416667 0
0  0.718354 12.618706 45.500004  -0.992559 -0.095200 -0.075922  0.000410 0.416667 0
0  0.269588 17.600000 45.120003  -0.992559 -0.095200 -0.075922  0.014696 0.450847 0
borked_crate
0  0.237911 19.000000 45.500000  -0.977151 -0.075983 0.198500  0.021341 0.460383 0
0  0.668003 20.000000 48.000000  -0.977151 -0.075983 0.198500  0.039483 0.467002 0
0  -0.004133 21.120001 45.120003  -0.977151 -0.075983 0.198500  0.025164 0.474858 0
borked_crate
0  0.356956 24.000000 48.000000  -0.977151 -0.075986 0.198500  0.049079 0.494068 0
0  -0.455607 24.000000 44.000000  -0.977151 -0.075986 0.198500  0.026580 0.494560 0
0  -0.004133 21.120001 45.120003  -0.977151 -0.075986 0.198500  0.025164 0.474858 0
borked_crate
0  -0.944917 21.500000 40.634277  -0.977151 -0.075984 0.198501  0.000000 0.477901 0
0  -0.722010 20.312862 41.277145  -0.977151 -0.075984 0.198501  0.000000 0.469715 0
0  -0.719189 21.120001 41.599998  -0.977151 -0.075984 0.198501  0.004488 0.475207 0
borked_crate
0  -0.944917 21.500000 40.634277  -0.977151 -0.075988 0.198497  0.000000 0.477901 0
0  -0.719189 21.120001 41.599998  -0.977151 -0.075988 0.198497  0.004488 0.475207 0
0  -0.464342 21.500000 43.000000  -0.977151 -0.075988 0.198497  0.013852 0.477662 0
borked_crate
0  -0.464342 21.500000 43.000000  -0.977151 -0.075988 0.198501  0.013852 0.477662 0
0  -0.719189 21.120001 41.599998  -0.977151 -0.075988 0.198501  0.004488 0.475207 0
0  -0.004133 21.120001 45.120003  -0.977151 -0.075988 0.198501  0.025164 0.474858 0
borked_crate
0  0.269588 17.600000 45.120003  -0.977151 -0.075984 0.198500  0.014696 0.450847 0
0  -0.066078 16.819546 43.168873  -0.977151 -0.075984 0.198500  0.000000 0.445629 0
0  0.722639 12.619055 45.443554  -0.977151 -0.075984 0.198500  0.000000 0.416667 0
borked_crate
0  -0.455607 24.000000 44.000000  -0.977151 -0.075986 0.198499  0.026580 0.494560 0
0  -0.464342 21.500000 43.000000  -0.977151 -0.075986 0.198499  0.013852 0.477662 0
0  -0.004133 21.120001 45.120003  -0.977151 -0.075986 0.198499  0.025164 0.474858 0
borked_crate
0  -0.004133 21.120001 45.120003  -0.977153 -0.075985 0.198491  0.025164 0.474858 0
0  0.269588 17.600000 45.120003  -0.977153 -0.075985 0.198491  0.014696 0.450847 0
0  0.237911 19.000000 45.500000  -0.977153 -0.075985 0.198491  0.021341 0.460383 0
borked_crate
0  0.668003 20.000000 48.000000  -0.977151 -0.075985 0.198499  0.039483 0.467002 0
0  0.356956 24.000000 48.000000  -0.977151 -0.075985 0.198499  0.049079 0.494068 0
0  -0.004133 21.120001 45.120003  -0.977151 -0.075985 0.198499  0.025164 0.474858 0
borked_crate
0  -0.722010 20.312862 41.277145  -0.105935 -0.488817 -0.865931  0.666667 0.196951 0
0  -0.944917 21.500000 40.634277  -0.105935 -0.488817 -0.865931  0.666667 0.188766 0
0  10.259310 18.920002 40.720001  -0.105935 -0.488817 -0.865931  0.734072 0.209183 0
borked_crate
0  12.728048 21.500000 39.496765  -0.443612 -0.000434 -0.896219  0.750000 0.191648 0
0  12.626699 18.920000 39.548180  -0.443612 -0.000434 -0.896219  0.750000 0.208258 0
0  10.259310 18.920002 40.720001  -0.443612 -0.000434 -0.896219  0.734072 0.209183 0
borked_crate
0  -0.066078 16.819546 43.168873  -0.042267 -0.000041 -0.999106  0.666667 0.221038 0
0  5.816875 16.719997 42.920002  -0.042267 -0.000041 -0.999106  0.703700 0.224317 0
0  5.820961 12.538926 42.920002  -0.042267 -0.000041 -0.999106  0.703137 0.250000 0
bcrate08.vmt.001
0  21.119999 17.599998 36.337975  -0.371392 0.928476 0.000000  0.083333 0.792092 0
0  18.920002 16.719999 37.156734  -0.371392 0.928476 0.000000  0.104167 0.811476 0
0  18.920002 16.719999 40.720001  -0.371392 0.928476 0.000000  0.104167 0.895833 0
borked_crate
0  21.500000 12.481962 36.461555  -0.477292 -0.094455 -0.873653  0.809860 0.250000 0
0  21.500000 0.629341 37.743004  -0.477292 -0.094455 -0.873653  0.808431 0.333333 0
0  18.920002 0.514237 39.164948  -0.477292 -0.094455 -0.873653  0.791538 0.333333 0
bcrate08.vmt.001
0  21.500000 19.000000 36.133793  0.371391 -0.928477 0.000000  0.104167 0.752787 0
0  24.000000 20.000000 35.203384  0.371391 -0.928477 0.000000  0.083333 0.733404 0
0  24.000000 20.000000 44.000000  0.371391 -0.928477 0.000000  0.083333 0.916667 0
borked_crate
0  21.500000 0.808782 43.000000  0.063261 -0.997416 0.034044  0.524247 0.301653 0
0  24.000000 1.001477 44.000000  0.063261 -0.997416 0.034044  0.507494 0.288151 0
0  21.119999 0.857041 45.120003  0.063261 -0.997416 0.034044  0.526517 0.289950 0
borked_crate
0  24.000000 1.138017 48.000000  0.055145 -0.997587 0.042180  0.506947 0.264490 0
0  20.000000 0.916903 48.000000  0.055145 -0.997587 0.042180  0.533656 0.275358 0
0  21.119999 0.857041 45.120003  0.055145 -0.997587 0.042180  0.526517 0.289950 0
borked_crate
0  12.551363 0.424032 45.500000  0.061028 -0.995805 0.068176  0.583333 0.314129 0
0  12.573619 0.248762 42.919998  0.061028 -0.995805 0.068176  0.583333 0.331584 0
0  16.719999 0.502872 42.920002  0.061028 -0.995805 0.068176  0.555942 0.317452 0
borked_crate
0  12.551363 0.424032 45.500000  0.044596 -0.998141 0.041554  0.583333 0.314129 0
0  16.719999 0.502872 42.920002  0.044596 -0.998141 0.041554  0.555942 0.317452 0
0  17.600000 0.633780 45.120003  0.044596 -0.998141 0.041554  0.549913 0.300640 0
borked_crate
0  19.000000 0.735548 45.500000  0.048058 -0.994838 0.089375  0.540577 0.293938 0
0  12.551363 0.424032 45.500000  0.048058 -0.994838 0.089375  0.583333 0.314129 0
0  17.600000 0.633780 45.120003  0.048058 -0.994838 0.089375  0.549913 0.300640 0
borked_crate
0  19.000000 0.735548 45.500000  0.063263 -0.997416 0.034046  0.540577 0.293938 0
0  17.600000 0.633780 45.120003  0.063263 -0.997416 0.034046  0.549913 0.300640 0
0  21.119999 0.857041 45.120003  0.063263 -0.997416 0.034046  0.526517 0.289950 0
borked_crate
0  18.920002 0.567315 40.720001  0.063263 -0.997416 0.034044  0.541617 0.323813 0
0  18.920002 0.514237 39.164948  0.063263 -0.997416 0.034044  0.541795 0.333333 0
0  21.119999 0.736890 41.599998  0.063263 -0.997416 0.034044  0.526942 0.311297 0
borked_crate
0  21.119999 0.736890 41.599998  0.063262 -0.997416 0.034045  0.526942 0.311297 0
0  18.920002 0.514237 39.164948  0.063262 -0.997416 0.034045  0.541795 0.333333 0
0  21.500000 0.629341 37.743004  0.063262 -0.997416 0.034045  0.524903 0.333333 0
borked_crate
0  21.119999 0.736890 41.599998  0.063268 -0.997416 0.034045  0.526942 0.311297 0
0  21.500000 0.629341 37.743004  0.063268 -0.997416 0.034045  0.524903 0.333333 0
0  21.500000 0.808782 43.000000  0.063268 -0.997416 0.034045  0.524247 0.301653 0
borked_crate
0  20.000000 0.916903 48.000000  0.065396 -0.996792 0.046150  0.533656 0.275358 0
0  19.000000 0.735548 45.500000  0.065396 -0.996792 0.046150  0.540577 0.293938 0
0  21.119999 0.857041 45.120003  0.065396 -0.996792 0.046150  0.526517 0.289950 0
borked_crate
0  21.119999 0.857041 45.120003  0.063268 -0.997416 0.034046  0.526517 0.289950 0
0  21.119999 0.736890 41.599998  0.063268 -0.997416 0.034046  0.526942 0.311297 0
0  21.500000 0.808782 43.000000  0.063268 -0.997416 0.034046  0.524247 0.301653 0
bcrate08.vmt.001
0  -0.004133 21.120001 45.120003  0.000000 -1.000000 -0.000000  0.500098 1.000000 0
0  -0.719189 21.120001 41.599998  0.000000 -1.000000 0.000000  0.517026 0.916667 0
0  17.600000 21.120001 41.599998  0.000000 -1.000000 -0.000001  0.083333 0.916667 0
bcrate08.vmt.001
0  17.600000 0.633780 45.120003  0.928477 0.000000 -0.371391  0.916667 0.484996 0
0  16.719999 0.502872 42.920002  0.928477 0.000000 -0.371391  0.895833 0.488095 0
0  16.719999 16.719999 42.920002  0.928476 0.000000 -0.371392  0.895833 0.104167 0
bcrate08.vmt.001
0  20.000000 0.916903 48.000000  -0.000002 0.000000 1.000000  0.916667 0.480898 0
0  24.000000 1.138017 48.000000  -0.000003 0.000000 1.000000  1.000000 0.476291 0
0  24.000000 24.000000 48.000000  -0.000000 0.000000 1.000000  1.000000 0.000000 0
bcrate08.vmt.001
0  -0.455607 24.000000 44.000000  0.000000 1.000000 0.000000  0.509492 0.916667 0
0  0.356956 24.000000 48.000000  0.000000 1.000000 0.000000  0.492563 1.000000 0
0  24.000000 24.000000 48.000000  0.000000 1.000000 0.000000  0.000000 1.000000 0
end
