$modelname "gibs/crate_double1_gib8.mdl"

$origin 0 0 -24

$illumposition -24 24 60

$staticprop

$bodygroup "Body"
{
	studio "crate_double1_gib8.smd"
}

$surfaceprop "Wood_Crate"

$contents "solid"

//$illumposition 0.087 0.091 3.274

$cdmaterials "models\crates\"

$sequence "idle" {
	"crate_double1_gib8.smd"
	fadein 0.2
	fadeout 0.2
	fps 30
}

$collisionmodel "crate_double1_gib8.smd"
{
	$mass 20
	$inertia 1
	$damping 0
	$rotdamping 0
	$concave
}

$collisiontext
{
	break 
	{
		"model"		"gibs\wood_gib01a_gib.mdl"
		"fadetime"		"60"
		"debris"		"1"
	}
	break 
	{
		"model"		"gibs\wood_gib01b_gib.mdl"
		"fadetime"		"60"
		"debris"		"1"
	}
	break 
	{
		"model"		"gibs\wood_gib01c_gib.mdl"
		"fadetime"		"60"
		"debris"		"1"
	}
	break 
	{
		"model"		"gibs\wood_gib01d_gib.mdl"
		"fadetime"		"60"
		"debris"		"1"
	}
	break 
	{
		"model"		"gibs\wood_gib01e_gib.mdl"
		"fadetime"		"60"
		"debris"		"1"
	}
}

$keyvalues
{
	prop_data 
	{
		"health"			"30"
	}
}
