version 1
nodes
0 "root" -1
end
skeleton
time 0
0 0 0 0 0 0 0
end
triangles
Wood_Pallet_01.001
0  27.142694 32.794598 -0.001397  -0.577349 0.577349 -0.577349  0.561641 0.071422 0
0  33.017700 -33.205402 -0.001390  0.577349 -0.577349 -0.577349  0.473422 0.909502 0
0  27.142700 -33.205402 -0.001390  -0.577349 -0.577349 -0.577349  0.561641 0.909502 0
Wood_Pallet_01.001
0  27.142694 32.794598 -0.001397  -0.577349 0.577349 -0.577349  0.561641 0.071422 0
0  33.017696 32.794598 -0.001397  0.577349 0.577349 -0.577349  0.473422 0.071422 0
0  33.017700 -33.205402 -0.001390  0.577349 -0.577349 -0.577349  0.473422 0.909502 0
Wood_Pallet_01.001
0  33.017696 32.794598 -0.001397  0.577349 0.577349 -0.577349  0.274929 0.071422 0
0  33.017700 -33.205402 4.023813  0.577349 -0.577349 0.577349  0.252874 0.909502 0
0  33.017700 -33.205402 -0.001390  0.577349 -0.577349 -0.577349  0.274929 0.909502 0
Wood_Pallet_01.001
0  33.017696 32.794598 -0.001397  0.577349 0.577349 -0.577349  0.274929 0.071422 0
0  33.017696 32.794598 4.023819  0.577349 0.577349 0.577349  0.252874 0.071422 0
0  33.017700 -33.205402 4.023813  0.577349 -0.577349 0.577349  0.252874 0.909502 0
Wood_Pallet_01.001
0  27.142694 32.794598 -0.001397  -0.577349 0.577349 -0.577349  0.561641 0.071422 0
0  33.017696 32.794598 4.023819  0.577349 0.577349 0.577349  0.473422 0.049367 0
0  33.017696 32.794598 -0.001397  0.577349 0.577349 -0.577349  0.473422 0.071422 0
Wood_Pallet_01.001
0  27.142694 32.794598 -0.001397  -0.577349 0.577349 -0.577349  0.561641 0.071422 0
0  27.142694 32.794598 4.023819  -0.577349 0.577349 0.577349  0.561641 0.049367 0
0  33.017696 32.794598 4.023819  0.577349 0.577349 0.577349  0.473422 0.049367 0
Wood_Pallet_01.001
0  27.142700 -33.205402 -0.001390  -0.577349 -0.577349 -0.577349  0.971629 0.071422 0
0  27.142694 32.794598 4.023819  -0.577349 0.577349 0.577349  0.993684 0.909502 0
0  27.142694 32.794598 -0.001397  -0.577349 0.577349 -0.577349  0.971629 0.909502 0
Wood_Pallet_01.001
0  27.142700 -33.205402 -0.001390  -0.577349 -0.577349 -0.577349  0.971629 0.071422 0
0  27.142700 -33.205402 4.023813  -0.577349 -0.577349 0.577349  0.993684 0.071422 0
0  27.142694 32.794598 4.023819  -0.577349 0.577349 0.577349  0.993684 0.909502 0
Wood_Pallet_01.001
0  33.017700 -33.205402 -0.001390  0.577349 -0.577349 -0.577349  0.473422 0.909502 0
0  27.142700 -33.205402 4.023813  -0.577349 -0.577349 0.577349  0.561641 0.931557 0
0  27.142700 -33.205402 -0.001390  -0.577349 -0.577349 -0.577349  0.561641 0.909502 0
Wood_Pallet_01.001
0  33.017700 -33.205402 -0.001390  0.577349 -0.577349 -0.577349  0.473422 0.909502 0
0  33.017700 -33.205402 4.023813  0.577349 -0.577349 0.577349  0.473422 0.931557 0
0  27.142700 -33.205402 4.023813  -0.577349 -0.577349 0.577349  0.561641 0.931557 0
Wood_Pallet_01.001
0  33.017700 -33.205402 4.023813  0.577349 -0.577349 0.577349  0.473422 0.909502 0
0  27.142694 32.794598 4.023819  -0.577349 0.577349 0.577349  0.561641 0.071422 0
0  27.142700 -33.205402 4.023813  -0.577349 -0.577349 0.577349  0.561641 0.909502 0
Wood_Pallet_01.001
0  33.017700 -33.205402 4.023813  0.577349 -0.577349 0.577349  0.473422 0.909502 0
0  33.017696 32.794598 4.023819  0.577349 0.577349 0.577349  0.473422 0.071422 0
0  27.142694 32.794598 4.023819  -0.577349 0.577349 0.577349  0.561641 0.071422 0
end
