version 1
nodes
0 "root" -1
end
skeleton
time 0
0 0 0 0 0 0 0
end
triangles
Wood_Pallet_01.001
0  -21.079723 32.527660 14.713814  -0.565905 0.588855 -0.577013  0.870408 0.071422 0
0  -13.864645 32.361858 16.617319  0.588519 0.565600 0.577654  0.760134 0.049367 0
0  -13.864645 32.361858 14.713814  0.588519 0.565600 -0.577654  0.760134 0.071422 0
Wood_Pallet_01.001
0  -21.079723 32.527660 14.713814  -0.565905 0.588855 -0.577013  0.870408 0.071422 0
0  -21.079723 32.527660 16.617319  -0.565905 0.588855 0.577013  0.870408 0.049367 0
0  -13.864645 32.361858 16.617319  0.588519 0.565600 0.577654  0.760134 0.049367 0
Wood_Pallet_01.001
0  -14.971983 -33.015396 14.713821  0.563494 -0.625324 -0.539811  0.760134 0.909502 0
0  -22.187059 -32.849594 16.617315  -0.589160 -0.527085 0.612384  0.870408 0.931557 0
0  -22.187059 -32.849594 14.713821  -0.603534 -0.588031 -0.538438  0.870408 0.909502 0
Wood_Pallet_01.001
0  -14.971983 -33.015396 14.713821  0.563494 -0.625324 -0.539811  0.760134 0.909502 0
0  -14.971983 -33.015396 16.617315  0.553026 -0.562212 0.614826  0.760134 0.931557 0
0  -22.187059 -32.849594 16.617315  -0.589160 -0.527085 0.612384  0.870408 0.931557 0
Wood_Pallet_01.001
0  -14.971983 -33.015396 16.617315  0.553026 -0.562212 0.614826  0.760134 0.909502 0
0  -21.641998 -19.725113 15.055729  -0.725242 0.028169 0.687887  0.870407 0.723922 0
0  -22.187059 -32.849594 16.617315  -0.589160 -0.527085 0.612384  0.870407 0.909502 0
Wood_Pallet_01.001
0  -14.971983 -33.015396 16.617315  0.553026 -0.562212 0.614826  0.760134 0.909502 0
0  -14.426924 -19.890915 15.055729  0.734672 -0.002777 0.678396  0.760134 0.723922 0
0  -21.641998 -19.725113 15.055729  -0.725242 0.028169 0.687887  0.870407 0.723922 0
Wood_Pallet_01.001
0  -14.418314 -0.631780 16.617315  0.695730 -0.035432 0.717399  0.760134 0.503385 0
0  -21.641998 -19.725113 15.055729  -0.725242 0.028169 0.687887  0.870407 0.723922 0
0  -14.426924 -19.890915 15.055729  0.734672 -0.002777 0.678396  0.760134 0.723922 0
Wood_Pallet_01.001
0  -14.418314 -0.631780 16.617315  0.695730 -0.035432 0.717399  0.760134 0.503385 0
0  -21.633390 -0.465978 16.617315  -0.700369 -0.022431 0.713401  0.870407 0.503385 0
0  -21.641998 -19.725113 15.055729  -0.725242 0.028169 0.687887  0.870407 0.723922 0
Wood_Pallet_01.001
0  -13.864645 32.361858 16.617319  0.588519 0.565600 0.577654  0.760134 0.071422 0
0  -21.633390 -0.465978 16.617315  -0.700369 -0.022431 0.713401  0.870407 0.503385 0
0  -14.418314 -0.631780 16.617315  0.695730 -0.035432 0.717399  0.760134 0.503385 0
Wood_Pallet_01.001
0  -13.864645 32.361858 16.617319  0.588519 0.565600 0.577654  0.760134 0.071422 0
0  -21.079723 32.527660 16.617319  -0.565905 0.588855 0.577013  0.870407 0.071422 0
0  -21.633390 -0.465978 16.617315  -0.700369 -0.022431 0.713401  0.870407 0.503385 0
Wood_Pallet_01.001
0  -14.971983 -33.015396 16.617315  0.553026 -0.562212 0.614826  0.252874 0.909502 0
0  -14.971983 -33.015396 14.713821  0.563494 -0.625324 -0.539811  0.274929 0.909502 0
0  -14.426924 -19.890915 13.152231  0.689596 -0.027924 -0.723624  0.274929 0.723922 0
Wood_Pallet_01.001
0  -14.971983 -33.015396 16.617315  0.553026 -0.562212 0.614826  0.252874 0.909502 0
0  -14.426924 -19.890915 13.152231  0.689596 -0.027924 -0.723624  0.274929 0.723922 0
0  -14.426924 -19.890915 15.055729  0.734672 -0.002777 0.678396  0.252874 0.723922 0
Wood_Pallet_01.001
0  -14.418314 -0.631780 14.713818  0.714927 0.022523 -0.698813  0.274929 0.495758 0
0  -14.426924 -19.890915 15.055729  0.734672 -0.002777 0.678396  0.252874 0.723922 0
0  -14.426924 -19.890915 13.152231  0.689596 -0.027924 -0.723624  0.274929 0.723922 0
Wood_Pallet_01.001
0  -14.418314 -0.631780 14.713818  0.714927 0.022523 -0.698813  0.274929 0.495758 0
0  -14.418314 -0.631780 16.617315  0.695730 -0.035432 0.717399  0.252874 0.495758 0
0  -14.426924 -19.890915 15.055729  0.734672 -0.002777 0.678396  0.252874 0.723922 0
Wood_Pallet_01.001
0  -13.864645 32.361858 14.713814  0.588519 0.565600 -0.577654  0.274929 0.071422 0
0  -14.418314 -0.631780 16.617315  0.695730 -0.035432 0.717399  0.252874 0.495758 0
0  -14.418314 -0.631780 14.713818  0.714927 0.022523 -0.698813  0.274929 0.495758 0
Wood_Pallet_01.001
0  -13.864645 32.361858 14.713814  0.588519 0.565600 -0.577654  0.274929 0.071422 0
0  -13.864645 32.361858 16.617319  0.588519 0.565600 0.577654  0.252874 0.071422 0
0  -14.418314 -0.631780 16.617315  0.695730 -0.035432 0.717399  0.252874 0.495758 0
Wood_Pallet_01.001
0  -21.079723 32.527660 16.617319  -0.565905 0.588855 0.577013  0.993684 0.909502 0
0  -21.079723 32.527660 14.713814  -0.565905 0.588855 -0.577013  0.971629 0.909502 0
0  -21.633390 -0.465978 14.713818  -0.717643 0.033906 -0.695547  0.971629 0.495758 0
Wood_Pallet_01.001
0  -21.079723 32.527660 16.617319  -0.565905 0.588855 0.577013  0.993684 0.909502 0
0  -21.633390 -0.465978 14.713818  -0.717643 0.033906 -0.695547  0.971629 0.495758 0
0  -21.633390 -0.465978 16.617315  -0.700369 -0.022431 0.713401  0.993684 0.495758 0
Wood_Pallet_01.001
0  -21.633390 -0.465978 16.617315  -0.700369 -0.022431 0.713401  0.993684 0.495758 0
0  -21.633390 -0.465978 14.713818  -0.717643 0.033906 -0.695547  0.971629 0.495758 0
0  -21.641998 -19.725113 13.152231  -0.680746 0.000458 -0.732505  0.971629 0.257002 0
Wood_Pallet_01.001
0  -21.633390 -0.465978 16.617315  -0.700369 -0.022431 0.713401  0.993684 0.495758 0
0  -21.641998 -19.725113 13.152231  -0.680746 0.000458 -0.732505  0.971629 0.257002 0
0  -21.641998 -19.725113 15.055729  -0.725242 0.028169 0.687887  0.993684 0.257002 0
Wood_Pallet_01.001
0  -22.187059 -32.849594 14.713821  -0.603534 -0.588031 -0.538438  0.971629 0.071422 0
0  -21.641998 -19.725113 15.055729  -0.725242 0.028169 0.687887  0.993684 0.257002 0
0  -21.641998 -19.725113 13.152231  -0.680746 0.000458 -0.732505  0.971629 0.257002 0
Wood_Pallet_01.001
0  -22.187059 -32.849594 14.713821  -0.603534 -0.588031 -0.538438  0.971629 0.071422 0
0  -22.187059 -32.849594 16.617315  -0.589160 -0.527085 0.612384  0.993684 0.071422 0
0  -21.641998 -19.725113 15.055729  -0.725242 0.028169 0.687887  0.993684 0.257002 0
Wood_Pallet_01.001
0  -14.971983 -33.015396 14.713821  0.563494 -0.625324 -0.539811  0.760134 0.909502 0
0  -22.187059 -32.849594 14.713821  -0.603534 -0.588031 -0.538438  0.870407 0.909502 0
0  -21.641998 -19.725113 13.152231  -0.680746 0.000458 -0.732505  0.870407 0.723922 0
Wood_Pallet_01.001
0  -14.971983 -33.015396 14.713821  0.563494 -0.625324 -0.539811  0.760134 0.909502 0
0  -21.641998 -19.725113 13.152231  -0.680746 0.000458 -0.732505  0.870407 0.723922 0
0  -14.426924 -19.890915 13.152231  0.689596 -0.027924 -0.723624  0.760134 0.723922 0
Wood_Pallet_01.001
0  -21.633390 -0.465978 14.713818  -0.717643 0.033906 -0.695547  0.870407 0.503385 0
0  -14.426924 -19.890915 13.152231  0.689596 -0.027924 -0.723624  0.760134 0.723922 0
0  -21.641998 -19.725113 13.152231  -0.680746 0.000458 -0.732505  0.870407 0.723922 0
Wood_Pallet_01.001
0  -21.633390 -0.465978 14.713818  -0.717643 0.033906 -0.695547  0.870407 0.503385 0
0  -14.418314 -0.631780 14.713818  0.714927 0.022523 -0.698813  0.760134 0.503385 0
0  -14.426924 -19.890915 13.152231  0.689596 -0.027924 -0.723624  0.760134 0.723922 0
Wood_Pallet_01.001
0  -21.079723 32.527660 14.713814  -0.565905 0.588855 -0.577013  0.870407 0.071422 0
0  -14.418314 -0.631780 14.713818  0.714927 0.022523 -0.698813  0.760134 0.503385 0
0  -21.633390 -0.465978 14.713818  -0.717643 0.033906 -0.695547  0.870407 0.503385 0
Wood_Pallet_01.001
0  -21.079723 32.527660 14.713814  -0.565905 0.588855 -0.577013  0.870407 0.071422 0
0  -13.864645 32.361858 14.713814  0.588519 0.565600 -0.577654  0.760134 0.071422 0
0  -14.418314 -0.631780 14.713818  0.714927 0.022523 -0.698813  0.760134 0.503385 0
end
