version 1
nodes
  0 "Bip01" -1
  1 "Bip01 Pelvis" 0
  2 "Bip01 Spine" 1
  3 "Bip01 Spine1" 2
  4 "Bip01 Spine2" 3
  5 "Bip01 Spine3" 4
  6 "Bip01 Neck" 5
  7 "Bip01 L Clavicle" 6
  8 "Bip01 L UpperArm" 7
  9 "Bip01 L Forearm" 8
  10 "Bip01 L Hand" 9
  11 "Bip01 L Finger0" 10
  12 "Bip01 L Finger01" 11
  13 "Bip01 L Finger02" 12
  14 "Bip01 L Finger1" 10
  15 "Bip01 L Finger11" 14
  16 "Bip01 L Finger12" 15
  17 "Bip01 L Finger2" 10
  18 "Bip01 L Finger21" 17
  19 "Bip01 L Finger22" 18
  20 "Bip01 L Finger3" 10
  21 "Bip01 L Finger31" 20
  22 "Bip01 L Finger32" 21
  23 "Bip01 L Finger4" 10
  24 "Bip01 L Finger41" 23
  25 "Bip01 L Finger42" 24
  26 "Bip01 R Clavicle" 6
  27 "Bip01 R UpperArm" 26
  28 "Bip01 R Forearm" 27
  29 "Bip01 R Hand" 28
  30 "Bip01 R Finger0" 29
  31 "Bip01 R Finger01" 30
  32 "Bip01 R Finger02" 31
  33 "Bip01 R Finger1" 29
  34 "Bip01 R Finger11" 33
  35 "Bip01 R Finger12" 34
  36 "Bip01 R Finger2" 29
  37 "Bip01 R Finger21" 36
  38 "Bip01 R Finger22" 37
  39 "Bip01 R Finger3" 29
  40 "Bip01 R Finger31" 39
  41 "Bip01 R Finger32" 40
  42 "Bip01 R Finger4" 29
  43 "Bip01 R Finger41" 42
  44 "Bip01 R Finger42" 43
  45 "tie1" 5
  46 "tie2" 45
  47 "tie3" 46
  48 "tie4" 47
  49 "tie5" 48
  50 "tie6" 49
  51 "tie7" 50
  52 "tie8" 51
  53 "tie9" 52
  54 "Bip01 L Thigh" 2
  55 "Bip01 L Calf" 54
  56 "Bip01 L Foot" 55
  57 "Bip01 L Toe0" 56
  58 "Bip01 R Thigh" 2
  59 "Bip01 R Calf" 58
  60 "Bip01 R Foot" 59
  61 "Bip01 R Toe0" 60
  62 "Master Coat Bone" 1
  63 "coat22" 62
  64 "coat23" 63
  65 "coat24" 64
  66 "coat25" 65
  67 "coat26" 66
  68 "coat15" 62
  69 "coat16" 68
  70 "coat17" 69
  71 "coat18" 70
  72 "coat19" 71
  73 "coat8" 68
  74 "coat9" 73
  75 "coat10" 74
  76 "coat11" 75
  77 "coat12" 76
  78 "coat13" 77
  79 "coat1" 73
  80 "coat2" 79
  81 "coat3" 80
  82 "coat4" 81
  83 "coat5" 82
  84 "coat6" 83
  85 "coat28" 62
  86 "coat29" 85
  87 "coat30" 86
  88 "coat31" 87
  89 "coat32" 88
  90 "coat33" 89
  91 "coat35" 85
  92 "coat36" 91
  93 "coat37" 92
  94 "coat38" 93
  95 "coat39" 94
  96 "coat40" 95
  97 "coat42" 91
  98 "coat43" 97
  99 "coat44" 98
  100 "coat45" 99
  101 "coat46" 100
  102 "coat47" 101
  103 "Bip01 Head" 6
  104 "Dummy05" 103
  105 "L_eyebrow" 104
  106 "C_eyebrow" 104
  107 "R_eyebrow" 104
  108 "R_Eye" 104
  109 "Eyelids" 104
  110 "L_Eye" 104
  111 "Mouth" 104
  112 "needle" 29
end
skeleton
  time 0
    0 -0.221743 17.619999 19.249394 0.000000 -2.346240 -1.571015
    1 -1.081144 0.039064 0.000000 -1.570795 -1.570451 0.000000
    2 3.928664 0.383633 0.000004 -0.000004 -0.000001 0.053101
    3 3.442969 -0.003536 0.000000 -0.026126 0.001414 0.039204
    4 4.441442 -0.003536 0.000000 -0.034303 0.006400 0.143770
    5 4.441389 -0.003537 0.000000 -0.024709 0.008653 0.287670
    6 4.441391 -0.002040 0.000000 0.000000 -0.026163 -0.249514
    7 0.039065 0.002036 1.614274 -1.231506 -1.090161 4.569993
    8 5.073841 0.000000 0.000002 0.475598 0.687986 0.123184
    9 12.008149 0.000000 -0.000001 0.000000 0.000000 -0.002446
    10 10.249352 0.000000 0.000001 0.022848 0.257672 0.237980
    11 1.181375 0.259444 -1.427523 -0.025243 0.326211 0.261409
    12 0.625234 0.000001 0.000001 0.000000 0.000000 0.078504
    13 1.041844 -0.000001 -0.000002 0.000000 0.000000 0.069773
    14 3.078694 -0.001585 -0.932039 0.017036 0.425518 0.276963
    15 1.037910 0.000000 0.000000 0.000000 0.000000 0.270488
    16 1.045435 0.000000 0.000000 0.000000 0.000000 0.270474
    17 3.037215 -0.002121 -0.118179 0.006226 0.077798 0.270900
    18 1.172003 0.000000 0.000001 0.000000 0.000000 0.270453
    19 1.160927 -0.000001 -0.000001 0.000000 0.000000 0.270386
    20 3.016583 -0.002115 0.630064 -0.003141 -0.182695 0.271086
    21 1.172903 0.000000 0.000000 0.000000 0.000000 0.270465
    22 1.106930 0.000000 0.000000 0.000000 0.000000 0.270496
    23 3.018031 0.000839 1.326849 -0.028695 -0.406292 0.280668
    24 0.966920 -0.000001 0.000000 0.000000 0.000000 0.270484
    25 0.889192 0.000000 0.000000 0.000000 0.000000 0.270525
    26 -0.039063 0.002045 -1.614274 -0.565760 1.346018 2.832935
    27 4.700062 0.000000 -0.000002 -0.002202 -0.415890 0.436184
    28 12.049679 0.000000 0.000001 0.000000 0.000000 -0.002471
    29 10.341693 0.000000 0.000000 2.725568 0.489065 0.677248
    30 1.183587 0.034756 1.438863 0.006122 -0.443649 0.611348
    31 0.607801 -0.000001 0.000001 0.000000 0.000000 0.122150
    32 1.063063 0.000000 0.000000 0.000000 0.000000 0.008713
    33 2.980024 0.000245 0.949516 -0.015554 -0.240855 0.535760
    34 1.136771 0.000001 0.000000 0.000000 0.000000 0.698068
    35 0.915120 -0.000001 0.000000 0.000000 0.000000 0.410056
    36 2.949259 0.002912 0.177525 0.002599 -0.001366 0.532275
    37 1.294390 -0.000001 0.000000 0.000000 0.000000 0.410080
    38 1.183920 0.000000 0.000000 0.000000 0.000000 0.506098
    39 2.929018 0.004853 -0.564108 0.027672 0.175553 0.536532
    40 1.243111 -0.000001 0.000000 0.000000 0.000000 0.410092
    41 1.045437 0.000000 0.000000 0.000000 0.000000 0.532245
    42 2.925027 0.005852 -1.260345 0.070198 0.303831 0.549519
    43 1.019747 0.000000 0.000000 0.000000 0.000000 0.410145
    44 0.829236 0.000000 0.000000 0.000000 0.000000 0.802756
    45 2.738953 3.890889 0.113747 0.821823 -2.275424 0.167247
    46 0.000000 -1.023687 -1.922726 -0.968926 0.078232 -0.006843
    47 0.000000 -0.558375 -1.804806 -0.618723 -0.052156 -0.019915
    48 0.000000 -0.325718 -1.929488 -0.469874 -0.375154 -0.698014
    49 0.000000 0.046531 -1.430430 -0.005126 0.069906 -0.096500
    50 0.000000 0.000000 -1.347565 -0.165666 -0.100217 -0.204687
    51 0.000000 -0.046531 -2.135521 -0.035942 0.243119 0.113350
    52 0.000000 -0.279187 -2.151380 -0.067903 0.259425 -0.266038
    53 0.000000 0.000000 -2.561731 0.000000 0.000000 0.000000
    54 -3.942821 -0.175161 3.416453 -0.021406 -2.710583 -1.005331
    55 19.302956 0.000000 0.000000 0.000000 0.000000 -0.931132
    56 15.657714 0.000000 0.000000 -0.423676 -0.408785 -0.718137
    57 3.741828 7.474068 0.000000 0.000000 0.000000 1.570796
    58 -3.942821 -0.175142 -3.416451 0.388884 2.395153 0.733131
    59 19.302958 0.000000 0.000000 0.000000 0.000000 -1.536792
    60 15.657715 0.000000 0.000000 -0.375997 0.481724 -0.261537
    61 3.741828 7.351521 0.000000 0.000000 0.000000 1.570796
    62 3.610322 -4.629949 0.120559 4.162413 -1.570796 0.000000
    63 0.020904 0.162877 -3.733182 0.111573 0.093935 0.032814
    64 -0.019352 0.137420 -3.405710 0.172398 0.142017 0.054554
    65 0.569714 0.087664 -3.318187 0.078364 0.066706 0.022048
    66 0.070000 -0.152187 -3.063760 0.000000 0.000000 0.000000
    67 0.024384 -0.095503 -3.858786 0.000000 0.000000 0.000000
    68 -3.157967 -0.761639 0.000000 0.000000 0.000000 -0.532291
    69 0.533821 0.211199 -3.733182 0.233002 0.160564 0.076629
    70 0.062252 0.167974 -3.397897 0.048386 0.137518 0.030872
    71 0.050167 -0.521942 -5.490128 0.130708 0.336413 0.090951
    72 0.172730 -0.024583 -3.063760 0.030713 0.089166 0.019163
    73 -2.039191 -1.546796 0.285165 0.000000 -0.026113 0.000000
    74 -1.587337 -0.163813 -3.873811 0.322851 0.000000 0.000000
    75 0.062252 0.179693 -3.468212 0.156329 0.060314 -0.006894
    76 -1.164714 -0.557099 -3.243966 0.068610 0.660454 0.129364
    77 0.164917 -0.024583 -3.063760 0.119086 0.148450 0.035932
    78 -0.126291 -0.415926 -3.858785 0.164447 0.201197 0.053631
    79 0.718047 -3.417110 5.742363 0.000000 0.253062 0.000000
    80 -0.099010 -0.156000 -3.733182 0.000000 0.401383 0.000000
    81 -0.261977 0.000000 -3.405710 0.208996 0.045620 0.011026
    82 -0.129526 -0.018020 -3.486161 0.494503 0.122231 0.015066
    83 0.164917 -0.024583 -3.063760 0.349041 0.085135 -0.022243
    84 -0.126291 -0.415926 -3.858785 0.052349 0.000000 0.000000
    85 4.275346 -0.770885 0.001638 0.000000 0.000000 0.558459
    86 0.085648 -0.123393 -3.713003 0.251567 -0.004590 0.074101
    87 0.251454 0.000000 -3.436529 0.152786 0.021896 0.030848
    88 0.178288 -0.048473 -3.449569 0.188474 -0.003190 0.086901
    89 -0.175338 -0.023416 -3.087450 0.247185 -0.006988 0.135496
    90 0.107031 -0.397894 -3.844214 0.000000 0.000000 0.000000
    91 2.622022 -3.591586 0.000000 0.107078 -0.050902 0.140108
    92 0.085648 -0.123393 -3.713003 0.065958 -0.043534 0.271187
    93 0.251454 0.000000 -3.436529 0.266480 -0.117475 0.142832
    94 0.178288 -0.048474 -3.449569 0.162000 -0.064898 0.093175
    95 -0.175338 -0.023416 -3.087450 0.229254 -0.093164 0.118393
    96 0.107031 -0.397894 -3.844214 0.000000 0.000000 0.000000
    97 -1.046802 -4.323879 -0.156255 0.093336 -0.016690 -0.130854
    98 -0.199517 -0.545281 -3.474714 0.056942 -0.027412 0.133516
    99 0.251454 0.000000 -3.436529 0.118381 -0.044338 0.056656
    100 0.178288 -0.048474 -3.449569 0.169366 -0.117859 0.330247
    101 -0.175338 -0.023416 -3.087450 0.183867 -0.170476 0.492608
    102 0.107031 -0.397894 -3.844214 0.245277 -0.097066 0.141909
    103 2.562340 0.000000 0.000000 0.082384 -0.026280 0.322570
    104 8.541129 0.000000 0.000000 0.000000 0.000000 0.000000
    105 -3.702482 3.207059 1.404841 -3.141591 -1.570796 0.000000
    106 -3.872150 3.207061 0.113746 -3.377184 -1.570796 0.000000
    107 -3.702482 3.207063 -1.237172 -3.141591 -1.570796 0.000000
    108 -4.882301 4.254779 -1.016848 -0.916356 -1.063710 3.687560
    109 -4.887398 4.344111 0.122031 -3.368344 -1.570796 0.000000
    110 -4.882292 4.270530 1.216630 -0.916356 -1.063710 3.687560
    111 -7.351523 1.350579 0.144448 -0.034706 -3.176297 -1.301765
    112 4.991368 -0.677071 0.532282 1.237053 -2.969057 -0.819481
  time 1
    0 -0.221743 17.619999 19.249394 0.000000 -2.346240 -1.571015
    1 -1.081144 0.039064 0.000000 -1.570795 -1.570451 0.000000
    2 3.928664 0.383633 0.000004 -0.000004 -0.000001 0.053101
    3 3.442969 -0.003536 0.000000 -0.026126 0.001414 0.039204
    4 4.441442 -0.003536 0.000000 -0.034303 0.006400 0.143770
    5 4.441389 -0.003537 0.000000 -0.024709 0.008653 0.287670
    6 4.441391 -0.002040 0.000000 0.000000 -0.026163 -0.249514
    7 0.039065 0.002036 1.614274 -1.231506 -1.090161 4.569993
    8 5.073841 0.000000 0.000002 0.475598 0.687986 0.123184
    9 12.008149 0.000000 -0.000001 0.000000 0.000000 -0.002446
    10 10.249352 0.000000 0.000001 0.022848 0.257672 0.237980
    11 1.181375 0.259444 -1.427523 -0.025243 0.326211 0.261409
    12 0.625234 0.000001 0.000001 0.000000 0.000000 0.078504
    13 1.041844 -0.000001 -0.000002 0.000000 0.000000 0.069773
    14 3.078694 -0.001585 -0.932039 0.017036 0.425518 0.276963
    15 1.037910 0.000000 0.000000 0.000000 0.000000 0.270488
    16 1.045435 0.000000 0.000000 0.000000 0.000000 0.270474
    17 3.037215 -0.002121 -0.118179 0.006226 0.077798 0.270900
    18 1.172003 0.000000 0.000001 0.000000 0.000000 0.270453
    19 1.160927 -0.000001 -0.000001 0.000000 0.000000 0.270386
    20 3.016583 -0.002115 0.630064 -0.003141 -0.182695 0.271086
    21 1.172903 0.000000 0.000000 0.000000 0.000000 0.270465
    22 1.106930 0.000000 0.000000 0.000000 0.000000 0.270496
    23 3.018031 0.000839 1.326849 -0.028695 -0.406292 0.280668
    24 0.966920 -0.000001 0.000000 0.000000 0.000000 0.270484
    25 0.889192 0.000000 0.000000 0.000000 0.000000 0.270525
    26 -0.039063 0.002045 -1.614274 -0.565760 1.346018 2.832935
    27 4.700062 0.000000 -0.000002 -0.002202 -0.415890 0.436184
    28 12.049679 0.000000 0.000001 0.000000 0.000000 -0.002471
    29 10.341693 0.000000 0.000000 2.725568 0.489065 0.677248
    30 1.183587 0.034756 1.438863 0.006122 -0.443649 0.611348
    31 0.607801 -0.000001 0.000001 0.000000 0.000000 0.122150
    32 1.063063 0.000000 0.000000 0.000000 0.000000 0.008713
    33 2.980024 0.000245 0.949516 -0.015554 -0.240855 0.535760
    34 1.136771 0.000001 0.000000 0.000000 0.000000 0.698068
    35 0.915120 -0.000001 0.000000 0.000000 0.000000 0.410056
    36 2.949259 0.002912 0.177525 0.002599 -0.001366 0.532275
    37 1.294390 -0.000001 0.000000 0.000000 0.000000 0.410080
    38 1.183920 0.000000 0.000000 0.000000 0.000000 0.506098
    39 2.929018 0.004853 -0.564108 0.027672 0.175553 0.536532
    40 1.243111 -0.000001 0.000000 0.000000 0.000000 0.410092
    41 1.045437 0.000000 0.000000 0.000000 0.000000 0.532245
    42 2.925027 0.005852 -1.260345 0.070198 0.303831 0.549519
    43 1.019747 0.000000 0.000000 0.000000 0.000000 0.410145
    44 0.829236 0.000000 0.000000 0.000000 0.000000 0.802756
    45 2.738953 3.890889 0.113747 0.821823 -2.275424 0.167247
    46 0.000000 -1.023687 -1.922726 -0.968926 0.078232 -0.006843
    47 0.000000 -0.558375 -1.804806 -0.618723 -0.052156 -0.019915
    48 0.000000 -0.325718 -1.929488 -0.469874 -0.375154 -0.698014
    49 0.000000 0.046531 -1.430430 -0.005126 0.069906 -0.096500
    50 0.000000 0.000000 -1.347565 -0.165666 -0.100217 -0.204687
    51 0.000000 -0.046531 -2.135521 -0.035942 0.243119 0.113350
    52 0.000000 -0.279187 -2.151380 -0.067903 0.259425 -0.266038
    53 0.000000 0.000000 -2.561731 0.000000 0.000000 0.000000
    54 -3.942821 -0.175161 3.416453 -0.021406 -2.710583 -1.005331
    55 19.302956 0.000000 0.000000 0.000000 0.000000 -0.931132
    56 15.657714 0.000000 0.000000 -0.423676 -0.408785 -0.718137
    57 3.741828 7.474068 0.000000 0.000000 0.000000 1.570796
    58 -3.942821 -0.175142 -3.416451 0.388884 2.395153 0.733131
    59 19.302958 0.000000 0.000000 0.000000 0.000000 -1.536792
    60 15.657715 0.000000 0.000000 -0.375997 0.481724 -0.261537
    61 3.741828 7.351521 0.000000 0.000000 0.000000 1.570796
    62 3.610322 -4.629949 0.120559 4.162413 -1.570796 0.000000
    63 0.020904 0.162877 -3.733182 0.111573 0.093935 0.032814
    64 -0.019352 0.137420 -3.405710 0.172398 0.142017 0.054554
    65 0.569714 0.087664 -3.318187 0.078364 0.066706 0.022048
    66 0.070000 -0.152187 -3.063760 0.000000 0.000000 0.000000
    67 0.024384 -0.095503 -3.858786 0.000000 0.000000 0.000000
    68 -3.157967 -0.761639 0.000000 0.000000 0.000000 -0.532291
    69 0.533821 0.211199 -3.733182 0.233002 0.160564 0.076629
    70 0.062252 0.167974 -3.397897 0.048386 0.137518 0.030872
    71 0.050167 -0.521942 -5.490128 0.130708 0.336413 0.090951
    72 0.172730 -0.024583 -3.063760 0.030713 0.089166 0.019163
    73 -2.039191 -1.546796 0.285165 0.000000 -0.026113 0.000000
    74 -1.587337 -0.163813 -3.873811 0.322851 0.000000 0.000000
    75 0.062252 0.179693 -3.468212 0.156329 0.060314 -0.006894
    76 -1.164714 -0.557099 -3.243966 0.068610 0.660454 0.129364
    77 0.164917 -0.024583 -3.063760 0.119086 0.148450 0.035932
    78 -0.126291 -0.415926 -3.858785 0.164447 0.201197 0.053631
    79 0.718047 -3.417110 5.742363 0.000000 0.253062 0.000000
    80 -0.099010 -0.156000 -3.733182 0.000000 0.401383 0.000000
    81 -0.261977 0.000000 -3.405710 0.208996 0.045620 0.011026
    82 -0.129526 -0.018020 -3.486161 0.494503 0.122231 0.015066
    83 0.164917 -0.024583 -3.063760 0.349041 0.085135 -0.022243
    84 -0.126291 -0.415926 -3.858785 0.052349 0.000000 0.000000
    85 4.275346 -0.770885 0.001638 0.000000 0.000000 0.558459
    86 0.085648 -0.123393 -3.713003 0.251567 -0.004590 0.074101
    87 0.251454 0.000000 -3.436529 0.152786 0.021896 0.030848
    88 0.178288 -0.048473 -3.449569 0.188474 -0.003190 0.086901
    89 -0.175338 -0.023416 -3.087450 0.247185 -0.006988 0.135496
    90 0.107031 -0.397894 -3.844214 0.000000 0.000000 0.000000
    91 2.622022 -3.591586 0.000000 0.107078 -0.050902 0.140108
    92 0.085648 -0.123393 -3.713003 0.065958 -0.043534 0.271187
    93 0.251454 0.000000 -3.436529 0.266480 -0.117475 0.142832
    94 0.178288 -0.048474 -3.449569 0.162000 -0.064898 0.093175
    95 -0.175338 -0.023416 -3.087450 0.229254 -0.093164 0.118393
    96 0.107031 -0.397894 -3.844214 0.000000 0.000000 0.000000
    97 -1.046802 -4.323879 -0.156255 0.093336 -0.016690 -0.130854
    98 -0.199517 -0.545281 -3.474714 0.056942 -0.027412 0.133516
    99 0.251454 0.000000 -3.436529 0.118381 -0.044338 0.056656
    100 0.178288 -0.048474 -3.449569 0.169366 -0.117859 0.330247
    101 -0.175338 -0.023416 -3.087450 0.183867 -0.170476 0.492608
    102 0.107031 -0.397894 -3.844214 0.245277 -0.097066 0.141909
    103 2.562340 0.000000 0.000000 0.082384 -0.026280 0.322570
    104 8.541129 0.000000 0.000000 0.000000 0.000000 0.000000
    105 -3.702482 3.207059 1.404841 -3.141591 -1.570796 0.000000
    106 -3.872150 3.207061 0.113746 -3.377184 -1.570796 0.000000
    107 -3.702482 3.207063 -1.237172 -3.141591 -1.570796 0.000000
    108 -4.882301 4.254779 -1.016848 -0.916356 -1.063710 3.687560
    109 -4.887398 4.344111 0.122031 -3.368344 -1.570796 0.000000
    110 -4.882292 4.270530 1.216630 -0.916356 -1.063710 3.687560
    111 -7.351523 1.350579 0.144448 -0.034706 -3.176297 -1.301765
    112 4.991368 -0.677071 0.532282 1.237053 -2.969057 -0.819481
end
