version 1
nodes
  0 "Bip01" -1
  1 "Bip01 Pelvis" 0
  2 "Bip01 Spine" 1
  3 "Bip01 Spine1" 2
  4 "Bip01 Spine2" 3
  5 "Bip01 Spine3" 4
  6 "Bip01 Neck" 5
  7 "Bip01 L Clavicle" 6
  8 "Bip01 L UpperArm" 7
  9 "Bip01 L Forearm" 8
  10 "Bip01 L Hand" 9
  11 "Bip01 L Finger0" 10
  12 "Bip01 L Finger01" 11
  13 "Bip01 L Finger02" 12
  14 "Bip01 L Finger1" 10
  15 "Bip01 L Finger11" 14
  16 "Bip01 L Finger12" 15
  17 "Bip01 L Finger2" 10
  18 "Bip01 L Finger21" 17
  19 "Bip01 L Finger22" 18
  20 "Bip01 L Finger3" 10
  21 "Bip01 L Finger31" 20
  22 "Bip01 L Finger32" 21
  23 "Bip01 L Finger4" 10
  24 "Bip01 L Finger41" 23
  25 "Bip01 L Finger42" 24
  26 "Bip01 R Clavicle" 6
  27 "Bip01 R UpperArm" 26
  28 "Bip01 R Forearm" 27
  29 "Bip01 R Hand" 28
  30 "Bip01 R Finger0" 29
  31 "Bip01 R Finger01" 30
  32 "Bip01 R Finger02" 31
  33 "Bip01 R Finger1" 29
  34 "Bip01 R Finger11" 33
  35 "Bip01 R Finger12" 34
  36 "Bip01 R Finger2" 29
  37 "Bip01 R Finger21" 36
  38 "Bip01 R Finger22" 37
  39 "Bip01 R Finger3" 29
  40 "Bip01 R Finger31" 39
  41 "Bip01 R Finger32" 40
  42 "Bip01 R Finger4" 29
  43 "Bip01 R Finger41" 42
  44 "Bip01 R Finger42" 43
  45 "tie1" 5
  46 "tie2" 45
  47 "tie3" 46
  48 "tie4" 47
  49 "tie5" 48
  50 "tie6" 49
  51 "tie7" 50
  52 "tie8" 51
  53 "tie9" 52
  54 "Bip01 L Thigh" 2
  55 "Bip01 L Calf" 54
  56 "Bip01 L Foot" 55
  57 "Bip01 L Toe0" 56
  58 "Bip01 R Thigh" 2
  59 "Bip01 R Calf" 58
  60 "Bip01 R Foot" 59
  61 "Bip01 R Toe0" 60
  62 "Master Coat Bone" 1
  63 "coat22" 62
  64 "coat23" 63
  65 "coat24" 64
  66 "coat25" 65
  67 "coat26" 66
  68 "coat15" 62
  69 "coat16" 68
  70 "coat17" 69
  71 "coat18" 70
  72 "coat19" 71
  73 "coat8" 68
  74 "coat9" 73
  75 "coat10" 74
  76 "coat11" 75
  77 "coat12" 76
  78 "coat13" 77
  79 "coat1" 73
  80 "coat2" 79
  81 "coat3" 80
  82 "coat4" 81
  83 "coat5" 82
  84 "coat6" 83
  85 "coat28" 62
  86 "coat29" 85
  87 "coat30" 86
  88 "coat31" 87
  89 "coat32" 88
  90 "coat33" 89
  91 "coat35" 85
  92 "coat36" 91
  93 "coat37" 92
  94 "coat38" 93
  95 "coat39" 94
  96 "coat40" 95
  97 "coat42" 91
  98 "coat43" 97
  99 "coat44" 98
  100 "coat45" 99
  101 "coat46" 100
  102 "coat47" 101
  103 "Bip01 Head" 6
  104 "Dummy05" 103
  105 "L_eyebrow" 104
  106 "C_eyebrow" 104
  107 "R_eyebrow" 104
  108 "R_Eye" 104
  109 "Eyelids" 104
  110 "L_Eye" 104
  111 "Mouth" 104
  112 "needle" 29
end
skeleton
  time 0
    0 0.004827 3.453397 2.050171 0.000000 1.613538 -1.570919
    1 -3.346838 1.246132 0.000000 -1.570795 -1.570451 0.000000
    2 3.928664 0.383633 0.000004 0.000019 0.113437 0.349811
    3 3.442969 -0.003536 0.000000 0.000000 0.000000 0.174498
    4 4.441442 -0.003536 0.000000 0.000144 0.183232 0.253054
    5 4.441389 -0.003537 0.000000 0.000063 0.078511 -0.322852
    6 4.441391 -0.002040 0.000000 -0.006315 -0.025342 -0.005115
    7 0.039065 -0.005777 1.614274 -0.606220 -1.359562 3.738868
    8 5.073841 0.000000 0.000002 -0.324289 1.036287 -0.306666
    9 12.008149 0.000000 -0.000001 0.000000 0.000000 -0.163973
    10 10.249352 0.000000 0.000001 -3.227072 0.043799 -0.009077
    11 1.181375 0.259444 -1.427523 -0.000866 0.462666 -0.000266
    12 0.625234 0.000001 0.000001 0.000000 0.000000 0.000000
    13 1.041844 -0.000001 -0.000002 0.000000 0.000000 0.000000
    14 3.078694 -0.001585 -0.932039 -0.013759 0.347639 -0.204943
    15 1.037910 0.000000 0.000000 0.000000 0.000000 0.270488
    16 1.045435 0.000000 0.000000 0.000000 0.000000 0.244293
    17 3.037215 -0.002121 -0.118179 -0.004695 0.147919 -0.148890
    18 1.172003 0.000000 0.000001 0.000000 0.000000 0.113401
    19 1.160927 -0.000001 -0.000001 0.000000 0.000000 0.279219
    20 3.016583 -0.002115 0.630064 -0.000419 -0.078537 -0.043591
    21 1.172903 0.000000 0.000000 0.000000 0.000000 0.113422
    22 1.106930 0.000000 0.000000 0.000000 0.000000 0.000000
    23 3.018031 0.000839 1.326849 0.003538 -0.314082 -0.044507
    24 0.966920 -0.000001 0.000000 0.000000 0.000000 0.113437
    25 0.889192 0.000000 0.000000 0.000000 0.000000 0.000000
    26 -0.039063 0.009858 -1.614274 -1.233897 1.034110 1.948221
    27 4.700062 0.000000 -0.000002 0.091141 -0.484090 0.354399
    28 12.049679 0.000000 0.000001 0.000000 0.000000 -0.312298
    29 10.341693 0.000000 0.000000 0.197481 0.105917 -0.186455
    30 1.183587 0.034756 1.438863 -0.008515 -0.208989 0.071139
    31 0.607801 -0.000001 0.000001 0.000000 0.000000 0.000000
    32 1.063063 0.000000 0.000000 0.000000 0.000000 0.000000
    33 2.980024 0.000245 0.949516 0.014258 -0.259837 0.304764
    34 1.136771 0.000001 0.000000 0.000000 0.000000 0.052341
    35 0.915120 -0.000001 0.000000 0.000000 0.000000 0.087231
    36 2.949259 0.002912 0.177525 0.002868 -0.157896 0.339830
    37 1.294390 -0.000001 0.000000 0.000000 0.000000 -0.174498
    38 1.183920 0.000000 0.000000 0.000000 0.000000 0.506098
    39 2.929018 0.004853 -0.564108 0.007394 0.060141 0.157400
    40 1.243111 -0.000001 0.000000 0.000000 0.000000 0.165771
    41 1.045437 0.000000 0.000000 0.000000 0.000000 0.113403
    42 2.925027 0.005852 -1.260345 -0.058763 0.339266 0.038619
    43 1.019747 0.000000 0.000000 0.000000 0.000000 0.165743
    44 0.829236 0.000000 0.000000 0.000000 0.000000 0.130849
    45 2.738953 3.890889 0.113747 3.097163 -1.570796 0.000000
    46 0.000000 -1.023687 -1.922726 0.000000 0.000000 0.000000
    47 0.000000 -0.558375 -1.804806 0.000000 0.000000 0.000000
    48 0.000000 -0.325718 -1.929488 0.000000 0.000000 0.000000
    49 0.000000 0.046531 -1.430430 0.000000 0.000000 0.000000
    50 0.000000 0.000000 -1.347565 0.000000 0.000000 0.000000
    51 0.000000 -0.046531 -2.135521 0.000000 0.000000 0.000000
    52 0.000000 -0.279187 -2.151380 0.000000 0.000000 0.000000
    53 0.000000 0.000000 -2.561731 0.000000 0.000000 0.000000
    54 -4.185016 0.985031 2.963314 -0.770490 -2.949843 -0.511107
    55 19.302956 0.000000 0.000000 0.000000 0.000000 -0.086779
    56 15.657714 0.000000 0.000000 0.451673 -0.226904 -0.290628
    57 3.741828 7.474068 0.000000 0.000000 0.000000 1.570796
    58 -3.419367 0.977237 -3.826620 0.850731 2.966303 -0.600561
    59 19.302958 0.000000 0.000000 0.000000 0.000000 -0.443611
    60 15.657715 0.000000 0.000000 -0.725445 -0.063607 -0.217884
    61 3.741828 7.351521 0.000000 0.000000 0.000000 1.570796
    62 3.610322 -4.629949 0.120559 3.021084 -1.529204 0.066726
    63 0.020904 0.162877 -3.733182 0.000000 0.000000 0.000000
    64 -0.019352 0.137420 -3.405710 -0.034880 0.000000 0.000000
    65 -0.121713 -1.701453 -3.568195 -0.197568 0.077882 0.007514
    66 0.070000 -0.191251 -3.208296 -0.174635 -0.077984 -0.095289
    67 -0.038118 1.330322 -3.225954 0.000000 0.000000 0.000000
    68 -4.333784 -1.456973 -0.039064 0.000000 0.000000 0.000000
    69 -0.099011 0.379173 -3.733182 0.009288 0.000000 0.000000
    70 -0.261977 0.441420 -3.354927 0.063977 -0.039546 0.001846
    71 -0.129526 -0.650852 -3.454910 -0.229177 -0.022658 -0.011673
    72 0.164917 -0.024583 -3.063760 0.129565 -0.064874 -0.065040
    73 -2.402483 -3.230441 0.007813 -0.084177 0.095149 -0.929526
    74 -1.259202 0.742465 -3.701931 0.112238 -0.002603 -0.021216
    75 0.499765 -0.582049 -3.397897 -0.078414 -0.058148 0.035482
    76 -0.192028 0.013231 -3.411940 0.050760 -0.001290 0.006158
    77 0.059445 -0.024583 -2.829378 0.024088 -0.118790 -0.008929
    78 -0.075508 -0.501866 -3.913474 0.000000 0.000000 0.000000
    79 1.061808 -3.831185 0.000000 0.003152 0.017150 -0.569494
    80 -0.099010 -0.156000 -3.733182 0.047153 0.131547 0.299591
    81 1.015406 -0.781274 -3.218204 -0.079459 -0.275894 0.089174
    82 0.811909 -0.787575 -3.118962 -0.327882 0.326073 -0.409674
    83 0.278202 -0.508973 -2.927037 -0.320467 -0.228226 -0.456168
    84 -0.388018 -0.830001 -3.491586 0.000000 0.000000 -0.366515
    85 4.275346 -0.770885 0.001638 0.000000 0.000000 -0.023615
    86 0.085648 -0.123393 -3.713003 -0.018584 0.000000 0.000000
    87 0.251454 0.000000 -3.436529 -0.022357 0.022771 -0.000923
    88 0.186101 -0.415672 -3.469101 0.182255 -0.133994 0.229806
    89 -0.214402 -0.347645 -3.048386 -0.381903 0.065551 -0.018982
    90 0.087499 0.688077 -3.750461 0.000000 0.000000 0.000000
    91 2.622022 -3.591586 0.000000 -0.018922 -0.206058 0.236992
    92 0.085648 -0.123393 -3.713003 0.000000 0.100345 0.000000
    93 0.251454 0.000000 -3.436529 0.000000 -0.067866 0.000000
    94 0.178288 -0.048474 -3.449569 0.043614 -0.154764 0.000000
    95 -0.175338 -0.023416 -3.087450 0.000000 -0.195513 0.000000
    96 0.107031 -0.397894 -3.844214 0.000000 0.000000 0.000000
    97 -0.824139 -4.425444 -0.007813 -0.046452 0.049756 0.345716
    98 0.402064 -0.236678 -3.713003 -0.139469 0.269739 0.982996
    99 0.251454 -0.218757 -3.499031 -0.225150 -0.300926 0.497443
    100 -0.251413 -0.704744 -3.469101 -0.330801 -0.428412 0.338823
    101 -1.261309 0.207060 -2.720251 -0.235699 0.528038 -0.252989
    102 0.107031 -0.397894 -3.844214 0.029842 0.362368 0.083965
    103 2.562340 0.000000 0.000000 -1.144262 -0.825802 0.019811
    104 8.541129 0.000000 0.000000 0.000000 0.000000 0.000000
    105 -3.702482 3.207059 1.404841 -3.220102 -1.570796 0.000000
    106 -3.872150 3.207061 0.113746 -3.324835 -1.570796 0.000000
    107 -3.702482 3.207063 -1.237172 -3.063056 -1.570796 0.000000
    108 -4.882301 4.254779 -1.016848 0.809184 -1.355456 1.958030
    109 -4.887398 4.344111 0.122031 -3.158985 -1.570796 0.000000
    110 -4.882292 4.270530 1.216630 0.809184 -1.355456 1.958030
    111 -7.351523 1.350579 0.144448 0.045255 -3.032774 -1.374918
    112 4.991368 -0.677071 0.532282 1.237053 -2.969057 -0.819481
  time 1
    0 0.004827 3.453397 2.050171 0.000000 1.613538 -1.570919
    1 -3.346838 1.246132 0.000000 -1.570795 -1.570451 0.000000
    2 3.928664 0.383633 0.000004 0.000019 0.113437 0.349811
    3 3.442969 -0.003536 0.000000 0.000000 0.000000 0.174498
    4 4.441442 -0.003536 0.000000 0.000144 0.183232 0.253054
    5 4.441389 -0.003537 0.000000 0.000063 0.078511 -0.322852
    6 4.441391 -0.002040 0.000000 -0.006315 -0.025342 -0.005115
    7 0.039065 -0.005777 1.614274 -0.606220 -1.359562 3.738868
    8 5.073841 0.000000 0.000002 -0.324289 1.036287 -0.306666
    9 12.008149 0.000000 -0.000001 0.000000 0.000000 -0.163973
    10 10.249352 0.000000 0.000001 -3.227072 0.043799 -0.009077
    11 1.181375 0.259444 -1.427523 -0.000866 0.462666 -0.000266
    12 0.625234 0.000001 0.000001 0.000000 0.000000 0.000000
    13 1.041844 -0.000001 -0.000002 0.000000 0.000000 0.000000
    14 3.078694 -0.001585 -0.932039 -0.013759 0.347639 -0.204943
    15 1.037910 0.000000 0.000000 0.000000 0.000000 0.270488
    16 1.045435 0.000000 0.000000 0.000000 0.000000 0.244293
    17 3.037215 -0.002121 -0.118179 -0.004695 0.147919 -0.148890
    18 1.172003 0.000000 0.000001 0.000000 0.000000 0.113401
    19 1.160927 -0.000001 -0.000001 0.000000 0.000000 0.279219
    20 3.016583 -0.002115 0.630064 -0.000419 -0.078537 -0.043591
    21 1.172903 0.000000 0.000000 0.000000 0.000000 0.113422
    22 1.106930 0.000000 0.000000 0.000000 0.000000 0.000000
    23 3.018031 0.000839 1.326849 0.003538 -0.314082 -0.044507
    24 0.966920 -0.000001 0.000000 0.000000 0.000000 0.113437
    25 0.889192 0.000000 0.000000 0.000000 0.000000 0.000000
    26 -0.039063 0.009858 -1.614274 -1.233897 1.034110 1.948221
    27 4.700062 0.000000 -0.000002 0.091141 -0.484090 0.354399
    28 12.049679 0.000000 0.000001 0.000000 0.000000 -0.312298
    29 10.341693 0.000000 0.000000 0.197481 0.105917 -0.186455
    30 1.183587 0.034756 1.438863 -0.008515 -0.208989 0.071139
    31 0.607801 -0.000001 0.000001 0.000000 0.000000 0.000000
    32 1.063063 0.000000 0.000000 0.000000 0.000000 0.000000
    33 2.980024 0.000245 0.949516 0.014258 -0.259837 0.304764
    34 1.136771 0.000001 0.000000 0.000000 0.000000 0.052341
    35 0.915120 -0.000001 0.000000 0.000000 0.000000 0.087231
    36 2.949259 0.002912 0.177525 0.002868 -0.157896 0.339830
    37 1.294390 -0.000001 0.000000 0.000000 0.000000 -0.174498
    38 1.183920 0.000000 0.000000 0.000000 0.000000 0.506098
    39 2.929018 0.004853 -0.564108 0.007394 0.060141 0.157400
    40 1.243111 -0.000001 0.000000 0.000000 0.000000 0.165771
    41 1.045437 0.000000 0.000000 0.000000 0.000000 0.113403
    42 2.925027 0.005852 -1.260345 -0.058763 0.339266 0.038619
    43 1.019747 0.000000 0.000000 0.000000 0.000000 0.165743
    44 0.829236 0.000000 0.000000 0.000000 0.000000 0.130849
    45 2.738953 3.890889 0.113747 3.097163 -1.570796 0.000000
    46 0.000000 -1.023687 -1.922726 0.000000 0.000000 0.000000
    47 0.000000 -0.558375 -1.804806 0.000000 0.000000 0.000000
    48 0.000000 -0.325718 -1.929488 0.000000 0.000000 0.000000
    49 0.000000 0.046531 -1.430430 0.000000 0.000000 0.000000
    50 0.000000 0.000000 -1.347565 0.000000 0.000000 0.000000
    51 0.000000 -0.046531 -2.135521 0.000000 0.000000 0.000000
    52 0.000000 -0.279187 -2.151380 0.000000 0.000000 0.000000
    53 0.000000 0.000000 -2.561731 0.000000 0.000000 0.000000
    54 -4.185016 0.985031 2.963314 -0.770490 -2.949843 -0.511107
    55 19.302956 0.000000 0.000000 0.000000 0.000000 -0.086779
    56 15.657714 0.000000 0.000000 0.451673 -0.226904 -0.290628
    57 3.741828 7.474068 0.000000 0.000000 0.000000 1.570796
    58 -3.419367 0.977237 -3.826620 0.850731 2.966303 -0.600561
    59 19.302958 0.000000 0.000000 0.000000 0.000000 -0.443611
    60 15.657715 0.000000 0.000000 -0.725445 -0.063607 -0.217884
    61 3.741828 7.351521 0.000000 0.000000 0.000000 1.570796
    62 3.610322 -4.629949 0.120559 3.021084 -1.529204 0.066726
    63 0.020904 0.162877 -3.733182 0.000000 0.000000 0.000000
    64 -0.019352 0.137420 -3.405710 -0.034880 0.000000 0.000000
    65 -0.121713 -1.701453 -3.568195 -0.197568 0.077882 0.007514
    66 0.070000 -0.191251 -3.208296 -0.174635 -0.077984 -0.095289
    67 -0.038118 1.330322 -3.225954 0.000000 0.000000 0.000000
    68 -4.333784 -1.456973 -0.039064 0.000000 0.000000 0.000000
    69 -0.099011 0.379173 -3.733182 0.009288 0.000000 0.000000
    70 -0.261977 0.441420 -3.354927 0.063977 -0.039546 0.001846
    71 -0.129526 -0.650852 -3.454910 -0.229177 -0.022658 -0.011673
    72 0.164917 -0.024583 -3.063760 0.129565 -0.064874 -0.065040
    73 -2.402483 -3.230441 0.007813 -0.084177 0.095149 -0.929526
    74 -1.259202 0.742465 -3.701931 0.112238 -0.002603 -0.021216
    75 0.499765 -0.582049 -3.397897 -0.078414 -0.058148 0.035482
    76 -0.192028 0.013231 -3.411940 0.050760 -0.001290 0.006158
    77 0.059445 -0.024583 -2.829378 0.024088 -0.118790 -0.008929
    78 -0.075508 -0.501866 -3.913474 0.000000 0.000000 0.000000
    79 1.061808 -3.831185 0.000000 0.003152 0.017150 -0.569494
    80 -0.099010 -0.156000 -3.733182 0.047153 0.131547 0.299591
    81 1.015406 -0.781274 -3.218204 -0.079459 -0.275894 0.089174
    82 0.811909 -0.787575 -3.118962 -0.327882 0.326073 -0.409674
    83 0.278202 -0.508973 -2.927037 -0.320467 -0.228226 -0.456168
    84 -0.388018 -0.830001 -3.491586 0.000000 0.000000 -0.366515
    85 4.275346 -0.770885 0.001638 0.000000 0.000000 -0.023615
    86 0.085648 -0.123393 -3.713003 -0.018584 0.000000 0.000000
    87 0.251454 0.000000 -3.436529 -0.022357 0.022771 -0.000923
    88 0.186101 -0.415672 -3.469101 0.182255 -0.133994 0.229806
    89 -0.214402 -0.347645 -3.048386 -0.381903 0.065551 -0.018982
    90 0.087499 0.688077 -3.750461 0.000000 0.000000 0.000000
    91 2.622022 -3.591586 0.000000 -0.018922 -0.206058 0.236992
    92 0.085648 -0.123393 -3.713003 0.000000 0.100345 0.000000
    93 0.251454 0.000000 -3.436529 0.000000 -0.067866 0.000000
    94 0.178288 -0.048474 -3.449569 0.043614 -0.154764 0.000000
    95 -0.175338 -0.023416 -3.087450 0.000000 -0.195513 0.000000
    96 0.107031 -0.397894 -3.844214 0.000000 0.000000 0.000000
    97 -0.824139 -4.425444 -0.007813 -0.046452 0.049756 0.345716
    98 0.402064 -0.236678 -3.713003 -0.139469 0.269739 0.982996
    99 0.251454 -0.218757 -3.499031 -0.225150 -0.300926 0.497443
    100 -0.251413 -0.704744 -3.469101 -0.330801 -0.428412 0.338823
    101 -1.261309 0.207060 -2.720251 -0.235699 0.528038 -0.252989
    102 0.107031 -0.397894 -3.844214 0.029842 0.362368 0.083965
    103 2.562340 0.000000 0.000000 -1.144262 -0.825802 0.019811
    104 8.541129 0.000000 0.000000 0.000000 0.000000 0.000000
    105 -3.702482 3.207059 1.404841 -3.220102 -1.570796 0.000000
    106 -3.872150 3.207061 0.113746 -3.324835 -1.570796 0.000000
    107 -3.702482 3.207063 -1.237172 -3.063056 -1.570796 0.000000
    108 -4.882301 4.254779 -1.016848 0.809184 -1.355456 1.958030
    109 -4.887398 4.344111 0.122031 -3.158985 -1.570796 0.000000
    110 -4.882292 4.270530 1.216630 0.809184 -1.355456 1.958030
    111 -7.351523 1.350579 0.144448 0.045255 -3.032774 -1.374918
    112 4.991368 -0.677071 0.532282 1.237053 -2.969057 -0.819481
end
