version 1
nodes
  0 "Bip01" -1
  1 "Bip01 Pelvis" 0
  2 "Bip01 Spine" 1
  3 "Bip01 Spine1" 2
  4 "Bip01 Spine2" 3
  5 "Bip01 Spine3" 4
  6 "Bip01 Neck" 5
  7 "Bip01 L Clavicle" 6
  8 "Bip01 L UpperArm" 7
  9 "Bip01 L Forearm" 8
  10 "Bip01 L Hand" 9
  11 "Bip01 L Finger0" 10
  12 "Bip01 L Finger01" 11
  13 "Bip01 L Finger02" 12
  14 "Bip01 L Finger1" 10
  15 "Bip01 L Finger11" 14
  16 "Bip01 L Finger12" 15
  17 "Bip01 L Finger2" 10
  18 "Bip01 L Finger21" 17
  19 "Bip01 L Finger22" 18
  20 "Bip01 L Finger3" 10
  21 "Bip01 L Finger31" 20
  22 "Bip01 L Finger32" 21
  23 "Bip01 L Finger4" 10
  24 "Bip01 L Finger41" 23
  25 "Bip01 L Finger42" 24
  26 "Bip01 R Clavicle" 6
  27 "Bip01 R UpperArm" 26
  28 "Bip01 R Forearm" 27
  29 "Bip01 R Hand" 28
  30 "Bip01 R Finger0" 29
  31 "Bip01 R Finger01" 30
  32 "Bip01 R Finger02" 31
  33 "Bip01 R Finger1" 29
  34 "Bip01 R Finger11" 33
  35 "Bip01 R Finger12" 34
  36 "Bip01 R Finger2" 29
  37 "Bip01 R Finger21" 36
  38 "Bip01 R Finger22" 37
  39 "Bip01 R Finger3" 29
  40 "Bip01 R Finger31" 39
  41 "Bip01 R Finger32" 40
  42 "Bip01 R Finger4" 29
  43 "Bip01 R Finger41" 42
  44 "Bip01 R Finger42" 43
  45 "tie1" 5
  46 "tie2" 45
  47 "tie3" 46
  48 "tie4" 47
  49 "tie5" 48
  50 "tie6" 49
  51 "tie7" 50
  52 "tie8" 51
  53 "tie9" 52
  54 "Bip01 L Thigh" 2
  55 "Bip01 L Calf" 54
  56 "Bip01 L Foot" 55
  57 "Bip01 L Toe0" 56
  58 "Bip01 R Thigh" 2
  59 "Bip01 R Calf" 58
  60 "Bip01 R Foot" 59
  61 "Bip01 R Toe0" 60
  62 "Master Coat Bone" 1
  63 "coat22" 62
  64 "coat23" 63
  65 "coat24" 64
  66 "coat25" 65
  67 "coat26" 66
  68 "coat15" 62
  69 "coat16" 68
  70 "coat17" 69
  71 "coat18" 70
  72 "coat19" 71
  73 "coat8" 68
  74 "coat9" 73
  75 "coat10" 74
  76 "coat11" 75
  77 "coat12" 76
  78 "coat13" 77
  79 "coat1" 73
  80 "coat2" 79
  81 "coat3" 80
  82 "coat4" 81
  83 "coat5" 82
  84 "coat6" 83
  85 "coat28" 62
  86 "coat29" 85
  87 "coat30" 86
  88 "coat31" 87
  89 "coat32" 88
  90 "coat33" 89
  91 "coat35" 85
  92 "coat36" 91
  93 "coat37" 92
  94 "coat38" 93
  95 "coat39" 94
  96 "coat40" 95
  97 "coat42" 91
  98 "coat43" 97
  99 "coat44" 98
  100 "coat45" 99
  101 "coat46" 100
  102 "coat47" 101
  103 "Bip01 Head" 6
  104 "Dummy05" 103
  105 "L_eyebrow" 104
  106 "C_eyebrow" 104
  107 "R_eyebrow" 104
  108 "R_Eye" 104
  109 "Eyelids" 104
  110 "L_Eye" 104
  111 "Mouth" 104
  112 "needle" 29
end
skeleton
  time 0
    0 -0.233462 -0.622419 38.496143 0.000000 0.000000 -1.571015
    1 -0.202211 0.000000 0.000000 -1.570795 -1.570451 0.000000
    2 3.928664 0.383633 0.000004 -0.000004 -0.000001 0.018250
    3 3.442969 -0.003536 0.000000 0.000000 0.000000 0.008727
    4 4.441442 -0.003536 0.000000 0.000000 0.000000 0.017453
    5 4.441389 -0.003537 0.000000 0.000000 0.000000 0.000000
    6 4.441391 -0.002040 0.000000 0.000000 0.000000 0.000000
    7 0.000001 0.002036 1.614274 -0.000014 -1.292311 3.140810
    8 5.073841 0.000000 0.000002 0.050032 1.131042 0.062908
    9 12.008149 0.000000 -0.000001 0.000000 0.000000 -0.226308
    10 10.249352 0.000000 0.000001 -1.247159 0.209301 0.000000
    11 1.181375 0.259444 -1.427523 -0.000826 0.183277 -0.000221
    12 0.625234 0.000001 0.000001 0.000000 0.000000 0.061068
    13 1.041844 -0.000001 -0.000002 0.000000 0.000000 -0.122166
    14 3.078694 -0.001585 -0.932039 0.003986 0.060971 0.078531
    15 1.037910 0.000000 0.000000 0.000000 0.000000 0.261713
    16 1.045435 0.000000 0.000000 0.000000 0.000000 0.410105
    17 3.037215 -0.002121 -0.118179 0.000573 0.026180 0.052263
    18 1.172003 0.000000 0.000001 0.000000 0.000000 0.191952
    19 1.160927 -0.000001 -0.000001 0.000000 0.000000 0.366421
    20 3.016583 -0.002115 0.630064 -0.000419 -0.008751 -0.043591
    21 1.172903 0.000000 0.000000 0.000000 0.000000 0.130861
    22 1.106930 0.000000 0.000000 0.000000 0.000000 0.471183
    23 3.018031 0.000839 1.326849 0.005051 -0.095880 -0.061284
    24 0.966920 -0.000001 0.000000 0.000000 0.000000 0.218114
    25 0.889192 0.000000 0.000000 0.000000 0.000000 0.270525
    26 0.000001 0.002045 -1.614274 -0.000014 1.318467 3.140783
    27 4.700062 0.000000 -0.000002 -0.362454 -1.161694 0.387606
    28 12.049679 0.000000 0.000001 0.000000 0.000000 -0.485470
    29 10.341693 0.000000 0.000000 1.238829 -0.035855 0.207007
    30 1.183587 0.034756 1.438863 -0.038313 -0.249183 0.215488
    31 0.607801 -0.000001 0.000001 0.000000 0.000000 0.095969
    32 1.063063 0.000000 0.000000 0.000000 0.000000 -0.095969
    33 2.980024 0.000245 0.949516 -0.001638 -0.034874 0.130917
    34 1.136771 0.000001 0.000000 0.000000 0.000000 0.453715
    35 0.915120 -0.000001 0.000000 0.000000 0.000000 0.375131
    36 2.949259 0.002912 0.177525 0.002868 -0.000599 0.253021
    37 1.294390 -0.000001 0.000000 0.000000 0.000000 0.078442
    38 1.183920 0.000000 0.000000 0.000000 0.000000 0.523556
    39 2.929018 0.004853 -0.564108 0.012535 0.050841 0.227177
    40 1.243111 -0.000001 0.000000 0.000000 0.000000 -0.061054
    41 1.045437 0.000000 0.000000 0.000000 0.000000 0.497360
    42 2.925027 0.005852 -1.260345 0.008847 0.130594 0.061759
    43 1.019747 0.000000 0.000000 0.000000 0.000000 0.078470
    44 0.829236 0.000000 0.000000 0.000000 0.000000 0.244320
    45 2.738953 3.890889 0.113747 3.097163 -1.570796 0.000000
    46 0.000000 -1.023687 -1.922726 0.000000 0.000000 0.000000
    47 0.000000 -0.558375 -1.804806 0.000000 0.000000 0.000000
    48 0.000000 -0.325718 -1.929488 0.000000 0.000000 0.000000
    49 0.000000 0.046531 -1.430430 0.000000 0.000000 0.000000
    50 0.000000 0.000000 -1.347565 0.000000 0.000000 0.000000
    51 0.000000 -0.046531 -2.135521 0.000000 0.000000 0.000000
    52 0.000000 -0.279187 -2.151380 0.000000 0.000000 0.000000
    53 0.000000 0.000000 -2.561731 0.000000 0.000000 0.000000
    54 -3.935008 -0.311884 3.416453 -0.000604 -3.104467 -0.047706
    55 19.302956 0.000000 0.000000 0.000000 0.000000 -0.126739
    56 15.657714 0.000000 0.000000 0.001636 -0.037125 0.097269
    57 3.741828 7.474068 0.000000 0.000000 0.000000 1.570796
    58 -3.935008 -0.311865 -3.416451 0.001327 3.111486 -0.048198
    59 19.302958 0.000000 0.000000 0.000000 0.000000 -0.127486
    60 15.657715 0.000000 0.000000 -0.002458 0.030133 0.097491
    61 3.741828 7.351521 0.000000 0.000000 0.000000 1.570796
    62 3.610322 -4.629949 0.120559 3.158944 -1.570796 0.000000
    63 0.020904 0.162877 -3.733182 0.000000 0.000000 0.000000
    64 -0.019352 0.137420 -3.405710 0.000000 0.000000 0.000000
    65 -0.129526 0.107196 -3.486161 0.000000 0.000000 0.000000
    66 0.070000 -0.152187 -3.063760 0.000000 0.000000 0.000000
    67 0.024384 -0.095503 -3.858786 0.000000 0.000000 0.000000
    68 -4.333784 -0.761639 0.000000 0.000000 0.000000 0.000000
    69 -0.099011 -0.156000 -3.733182 0.000000 0.000000 0.000000
    70 -0.261977 0.000000 -3.405710 0.000000 0.000000 0.000000
    71 -0.129526 -0.018020 -3.486161 0.000000 0.000000 0.000000
    72 0.164917 -0.024583 -3.063760 0.000000 0.000000 0.000000
    73 -2.410296 -3.621078 0.000000 0.000000 0.000000 0.000000
    74 -0.099010 -0.156000 -3.733182 0.000000 0.000000 0.000000
    75 -0.261977 0.000000 -3.405710 0.000000 0.000000 0.000000
    76 -0.129526 -0.018020 -3.486161 0.000000 0.000000 0.000000
    77 0.164917 -0.024583 -3.063760 0.000000 0.000000 0.000000
    78 -0.126291 -0.415926 -3.858785 0.000000 0.000000 0.000000
    79 1.358692 -4.612459 0.000000 0.000000 0.000000 0.000000
    80 -0.099010 -0.156000 -3.733182 0.000000 0.000000 0.000000
    81 -0.261977 0.000000 -3.405710 0.000000 0.000000 0.000000
    82 -0.129526 -0.018020 -3.486161 0.000000 0.000000 0.000000
    83 0.164917 -0.024583 -3.063760 0.000000 0.000000 0.000000
    84 -0.126291 -0.415926 -3.858785 0.000000 0.000000 0.000000
    85 4.275346 -0.770885 0.001638 0.000000 0.000000 0.000000
    86 0.085648 -0.123393 -3.713003 0.000000 0.000000 0.000000
    87 0.251454 0.000000 -3.436529 0.000000 0.000000 0.000000
    88 0.178288 -0.048473 -3.449569 0.000000 0.000000 0.000000
    89 -0.175338 -0.023416 -3.087450 0.000000 0.000000 0.000000
    90 0.107031 -0.397894 -3.844214 0.000000 0.000000 0.000000
    91 2.622022 -3.591586 0.000000 0.000000 0.000000 0.000000
    92 0.085648 -0.123393 -3.713003 0.000000 0.000000 0.000000
    93 0.251454 0.000000 -3.436529 0.000000 0.000000 0.000000
    94 0.178288 -0.048474 -3.449569 0.000000 0.000000 0.000000
    95 -0.175338 -0.023416 -3.087450 0.000000 0.000000 0.000000
    96 0.107031 -0.397894 -3.844214 0.000000 0.000000 0.000000
    97 -1.320248 -4.644201 0.000000 0.000000 0.000000 0.000000
    98 0.085648 -0.123393 -3.713003 0.000000 0.000000 0.000000
    99 0.251454 0.000000 -3.436529 0.000000 0.000000 0.000000
    100 0.178288 -0.048474 -3.449569 0.000000 0.000000 0.000000
    101 -0.175338 -0.023416 -3.087450 0.000000 0.000000 0.000000
    102 0.107031 -0.397894 -3.844214 0.000000 0.000000 0.000000
    103 2.562340 0.000000 0.000000 0.000000 0.000000 0.025287
    104 8.541129 0.000000 0.000000 0.000000 0.000000 0.000000
    105 -3.702482 3.207059 1.404841 -3.141591 -1.570796 0.000000
    106 -3.872150 3.207061 0.113746 -3.141591 -1.570796 0.000000
    107 -3.702482 3.207063 -1.237172 -3.141591 -1.570796 0.000000
    108 -4.882301 4.254779 -1.016848 1.047319 -1.487704 2.076220
    109 -4.887398 4.344111 0.122031 -3.132865 -1.570796 0.000000
    110 -4.882292 4.270530 1.216630 1.047319 -1.487704 2.076220
    111 -7.351523 1.350579 0.144448 0.000001 -3.141591 -1.570794
    112 4.991368 -0.677071 0.532282 1.237053 -2.969057 -0.819481
end
