// Created by Crowbar 0.44.0.0
version 1
nodes
  0 "Bip01" -1
  1 "Bip01 Pelvis" 0
  2 "Bip01 L Leg" 1
  3 "Bip01 L Leg1" 2
  4 "Bip01 L Foot" 3
  5 "Bip01 R Leg" 1
  6 "Bip01 R Leg1" 5
  7 "Bip01 R Foot" 6
  8 "Bip01 Spine" 1
  9 "Bip01 Spine1" 8
  10 "Bip01 Spine2" 9
  11 "Bip01 Spine3" 10
  12 "Bip01 Neck" 11
  13 "Bip01 Head" 12
  14 "Dummy08" 13
  15 "Bone02" 14
  16 "Dummy04" 13
  17 "Bone05" 16
  18 "Dummy03" 13
  19 "Bone07" 18
  20 "Dummy10" 13
  21 "Bone13" 20
  22 "Bip01 L Arm" 12
  23 "Bip01 L Arm1" 22
  24 "Bip01 L Arm2" 23
  25 "Bip01 L Hand" 24
  26 "Bip01 L Finger0" 25
  27 "Bip01 L Finger01" 26
  28 "Bip01 L Finger02" 27
  29 "Bip01 L Finger1" 25
  30 "Bip01 L Finger11" 29
  31 "Bip01 L Finger12" 30
  32 "Bip01 R Arm" 12
  33 "Bip01 R Arm1" 32
  34 "Bip01 R Arm2" 33
  35 "Bip01 R Hand" 34
  36 "Bip01 R Finger0" 35
  37 "Bip01 R Finger01" 36
  38 "Bip01 R Finger02" 37
  39 "Bip01 R Finger1" 35
  40 "Bip01 R Finger11" 39
  41 "Bip01 R Finger12" 40
end
skeleton
  time 0
    0 0.233849 0.368164 39.526119 0.000000 0.000000 -1.570795
    1 0.000000 0.000000 0.000000 0.000000 -1.570451 -1.570795
    2 -0.000004 0.000007 3.713254 -3.139539 0.026087 3.120120
    3 18.045721 0.000000 0.000000 0.000000 0.000000 -0.121501
    4 17.597595 0.000000 0.000000 -0.002613 0.026036 0.099967
    5 0.000004 -0.000003 -3.713254 3.139069 -0.017354 3.117144
    6 18.045725 0.000000 0.000000 0.000000 0.000000 -0.127551
    7 17.597597 0.000000 0.000000 0.002950 -0.017289 0.103055
    8 1.293671 0.684478 -0.000001 -0.000004 -0.000001 0.358403
    9 5.309686 -0.003834 0.000000 -0.031855 0.014202 0.418422
    10 4.826790 -0.004591 0.000000 -0.143265 0.038339 0.258912
    11 5.792768 -0.005304 0.000000 0.000000 0.000000 0.122109
    12 6.662314 -0.001453 0.000000 0.000000 -0.000001 0.471000
    13 2.046984 -0.000002 0.000000 0.174227 0.048114 -1.201304
    14 1.038628 0.548043 -0.144017 -0.000001 0.000001 -1.849906
    15 -0.064003 -0.023525 0.026161 0.000000 0.000000 0.000000
    16 3.013920 3.984632 -0.088975 -0.000001 0.000001 -1.849906
    17 -0.084188 -0.025625 -0.001098 0.000000 0.000000 0.000000
    18 4.778185 3.972485 -0.079803 -0.000001 0.000001 -1.849906
    19 -0.058556 -0.021328 0.004244 0.000000 0.000000 0.000000
    20 1.640597 -1.968779 -0.099219 -0.000001 0.000001 -1.849906
    21 0.055573 -0.028913 0.000000 0.000000 0.000000 0.000000
    22 -3.112023 1.517253 4.341910 -0.041814 -1.370644 2.710844
    23 4.827231 0.000000 0.000002 -0.635118 -0.462991 -1.341283
    24 11.139760 0.000000 0.000000 0.000000 0.000000 -1.225128
    25 10.314597 0.000000 -0.000001 -2.123665 0.144021 0.096701
    26 1.646739 0.449549 -1.702246 0.449790 0.128753 1.240175
    27 0.928312 0.000000 -0.000001 0.000000 0.000000 0.000000
    28 0.928313 -0.000001 0.000002 0.000000 0.000000 0.000000
    29 2.975833 -0.386307 -0.044143 -0.037781 -0.021799 1.029782
    30 1.438886 -0.000001 0.000000 0.000000 0.000000 0.593381
    31 1.485302 -0.000001 0.000000 0.000000 0.000000 1.666119
    32 -2.869897 1.399662 -4.140396 -0.000014 1.370795 2.669783
    33 4.972046 0.000000 0.000000 0.847485 0.099748 -1.515627
    34 11.585350 0.000000 0.000001 0.000000 0.000000 -1.291537
    35 10.127054 -0.000001 -0.000001 2.022610 0.324154 0.083986
    36 1.533672 0.109715 1.664490 -0.233255 -0.412980 0.435684
    37 0.928312 0.000001 0.000000 0.000000 0.000000 0.000000
    38 0.928313 0.000000 0.000002 0.000000 0.000000 0.000000
    39 2.683747 -0.427339 0.044205 0.001045 0.043611 0.000046
    40 1.438886 -0.000001 0.000002 0.000000 0.000000 0.767762
    41 1.485300 0.000000 0.000000 0.000000 0.000000 1.221689
  time 1
    0 0.233849 0.368164 39.526119 0.000000 0.000000 -1.570795
    1 0.000000 0.000000 0.000000 0.000000 -1.570451 -1.570795
    2 -0.000004 0.000007 3.713254 -3.139539 0.026087 3.120120
    3 18.045721 0.000000 0.000000 0.000000 0.000000 -0.121501
    4 17.597595 0.000000 0.000000 -0.002613 0.026036 0.099967
    5 0.000004 -0.000003 -3.713254 3.139069 -0.017354 3.117144
    6 18.045725 0.000000 0.000000 0.000000 0.000000 -0.127551
    7 17.597597 0.000000 0.000000 0.002950 -0.017289 0.103055
    8 1.293671 0.684478 -0.000001 -0.000004 -0.000001 0.358403
    9 5.309686 -0.003834 0.000000 -0.031855 0.014202 0.418422
    10 4.826790 -0.004591 0.000000 -0.083151 0.022303 0.260720
    11 5.792768 -0.005304 0.000000 -0.000016 -0.030009 0.122109
    12 6.662314 -0.001453 0.000000 0.000000 -0.000001 0.471000
    13 2.046984 -0.000002 0.000000 0.095644 0.049308 -1.204270
    14 1.038628 0.548043 -0.144017 -0.000001 0.000001 -1.849906
    15 -0.064003 -0.023525 0.026161 0.000000 0.000000 0.000000
    16 3.013920 3.984632 -0.088975 -0.000001 0.000001 -1.849906
    17 -0.084188 -0.025625 -0.001098 0.000000 0.000000 0.000000
    18 4.778185 3.972485 -0.079803 -0.000001 0.000001 -1.849906
    19 -0.058556 -0.021328 0.004244 0.000000 0.000000 0.000000
    20 1.640597 -1.968779 -0.099219 -0.000001 0.000001 -1.849906
    21 0.055573 -0.028913 0.000000 0.000000 0.000000 0.000000
    22 -3.112023 1.517253 4.341910 1.941130 -1.523008 0.728319
    23 4.827231 0.000000 0.000002 -0.813911 -0.504520 -1.308554
    24 11.139760 0.000000 0.000000 0.000000 0.000000 -0.980339
    25 10.314597 0.000000 -0.000001 -2.123665 0.144021 0.096701
    26 1.646739 0.449549 -1.702246 0.449790 0.128753 1.240175
    27 0.928312 0.000000 -0.000001 0.000000 0.000000 0.000000
    28 0.928313 -0.000001 0.000002 0.000000 0.000000 0.000000
    29 2.975833 -0.386307 -0.044143 -0.037781 -0.021799 1.029782
    30 1.438886 -0.000001 0.000000 0.000000 0.000000 0.593381
    31 1.485302 -0.000001 0.000000 0.000000 0.000000 1.666119
    32 -2.869897 1.399662 -4.140396 -0.000014 1.445158 2.669783
    33 4.972046 0.000000 0.000000 0.958953 0.221213 -1.554228
    34 11.585350 0.000000 0.000001 0.000000 0.000000 -1.043400
    35 10.127054 -0.000001 -0.000001 1.978273 0.342048 -0.030278
    36 1.533672 0.109715 1.664490 -0.233255 -0.412980 0.435684
    37 0.928312 0.000001 0.000000 0.000000 0.000000 0.000000
    38 0.928313 0.000000 0.000002 0.000000 0.000000 0.000000
    39 2.683747 -0.427339 0.044205 0.001045 0.043611 0.000046
    40 1.438886 -0.000001 0.000002 0.000000 0.000000 0.767762
    41 1.485300 0.000000 0.000000 0.000000 0.000000 1.221689
  time 2
    0 0.233849 0.368164 39.526119 0.000000 0.000000 -1.570795
    1 0.000000 0.000000 0.000000 0.000000 -1.570451 -1.570795
    2 -0.000004 0.000007 3.713254 -3.139539 0.026087 3.120120
    3 18.045721 0.000000 0.000000 0.000000 0.000000 -0.121501
    4 17.597595 0.000000 0.000000 -0.002613 0.026036 0.099967
    5 0.000004 -0.000003 -3.713254 3.139069 -0.017354 3.117144
    6 18.045725 0.000000 0.000000 0.000000 0.000000 -0.127551
    7 17.597597 0.000000 0.000000 0.002950 -0.017289 0.103055
    8 1.293671 0.684478 -0.000001 -0.000004 -0.000001 0.358403
    9 5.309686 -0.003834 0.000000 -0.031855 0.014202 0.418422
    10 4.826790 -0.004591 0.000000 0.008062 -0.002157 0.261646
    11 5.792768 -0.005304 0.000000 -0.000049 -0.075611 0.122109
    12 6.662314 -0.001453 0.000000 0.000000 -0.000001 0.471000
    13 2.046984 -0.000002 0.000000 -0.023653 0.050906 -1.205619
    14 1.038628 0.548043 -0.144017 -0.000001 0.000001 -1.849906
    15 -0.064003 -0.023525 0.026161 0.000000 0.000000 0.000000
    16 3.013920 3.984632 -0.088975 -0.000001 0.000001 -1.849906
    17 -0.084188 -0.025625 -0.001098 0.000000 0.000000 0.000000
    18 4.778185 3.972485 -0.079803 -0.000001 0.000001 -1.849906
    19 -0.058556 -0.021328 0.004244 0.000000 0.000000 0.000000
    20 1.640597 -1.968779 -0.099219 -0.000001 0.000001 -1.849906
    21 0.055573 -0.028913 0.000000 0.000000 0.000000 0.000000
    22 -3.112023 1.517253 4.341910 2.786827 -1.208741 -0.138305
    23 4.827231 0.000000 0.000002 -1.093672 -0.559665 -1.220693
    24 11.139760 0.000000 0.000000 0.000000 0.000000 -0.611859
    25 10.314597 0.000000 -0.000001 -2.123665 0.144021 0.096701
    26 1.646739 0.449549 -1.702246 0.449790 0.128753 1.240175
    27 0.928312 0.000000 -0.000001 0.000000 0.000000 0.000000
    28 0.928313 -0.000001 0.000002 0.000000 0.000000 0.000000
    29 2.975833 -0.386307 -0.044143 -0.037781 -0.021799 1.029782
    30 1.438886 -0.000001 0.000000 0.000000 0.000000 0.593381
    31 1.485302 -0.000001 0.000000 0.000000 0.000000 1.666119
    32 -2.869897 1.399662 -4.140396 -0.000110 1.556095 2.669687
    33 4.972046 0.000000 0.000000 1.113817 0.419983 -1.558378
    34 11.585350 0.000000 0.000001 0.000000 0.000000 -0.670390
    35 10.127054 -0.000001 -0.000001 1.908456 0.359536 -0.202988
    36 1.533672 0.109715 1.664490 -0.233255 -0.412980 0.435684
    37 0.928312 0.000001 0.000000 0.000000 0.000000 0.000000
    38 0.928313 0.000000 0.000002 0.000000 0.000000 0.000000
    39 2.683747 -0.427339 0.044205 0.001045 0.043611 0.000046
    40 1.438886 -0.000001 0.000002 0.000000 0.000000 0.767762
    41 1.485300 0.000000 0.000000 0.000000 0.000000 1.221689
  time 3
    0 0.233849 0.368164 39.526119 0.000000 0.000000 -1.570795
    1 0.000000 0.000000 0.000000 0.000000 -1.570451 -1.570795
    2 -0.000004 0.000007 3.713254 -3.139539 0.026087 3.120120
    3 18.045721 0.000000 0.000000 0.000000 0.000000 -0.121501
    4 17.597595 0.000000 0.000000 -0.002613 0.026036 0.099967
    5 0.000004 -0.000003 -3.713254 3.139069 -0.017354 3.117144
    6 18.045725 0.000000 0.000000 0.000000 0.000000 -0.127551
    7 17.597597 0.000000 0.000000 0.002950 -0.017289 0.103055
    8 1.293671 0.684478 -0.000001 -0.000004 -0.000001 0.358403
    9 5.309686 -0.003834 0.000000 -0.031855 0.014202 0.418422
    10 4.826790 -0.004591 0.000000 0.078964 -0.021189 0.260808
    11 5.792768 -0.005304 0.000000 -0.000082 -0.111049 0.122109
    12 6.662314 -0.001453 0.000000 0.000000 -0.000001 0.471000
    13 2.046984 -0.000002 0.000000 -0.116238 0.052302 -1.204045
    14 1.038628 0.548043 -0.144017 -0.000001 0.000001 -1.849906
    15 -0.064003 -0.023525 0.026161 0.000000 0.000000 0.000000
    16 3.013920 3.984632 -0.088975 -0.000001 0.000001 -1.849906
    17 -0.084188 -0.025625 -0.001098 0.000000 0.000000 0.000000
    18 4.778185 3.972485 -0.079803 -0.000001 0.000001 -1.849906
    19 -0.058556 -0.021328 0.004244 0.000000 0.000000 0.000000
    20 1.640597 -1.968779 -0.099219 -0.000001 0.000001 -1.849906
    21 0.055573 -0.028913 0.000000 0.000000 0.000000 0.000000
    22 -3.112023 1.517253 4.341910 2.820383 -0.914976 -0.213951
    23 4.827231 0.000000 0.000002 -1.363859 -0.558729 -1.086713
    24 11.139760 0.000000 0.000000 0.000000 0.000000 -0.312548
    25 10.314597 0.000000 -0.000001 -2.123665 0.144021 0.096701
    26 1.646739 0.449549 -1.702246 0.449790 0.128753 1.240175
    27 0.928312 0.000000 -0.000001 0.000000 0.000000 0.000000
    28 0.928313 -0.000001 0.000002 0.000000 0.000000 0.000000
    29 2.975833 -0.386307 -0.044143 -0.037781 -0.021799 1.029782
    30 1.438886 -0.000001 0.000000 0.000000 0.000000 0.593381
    31 1.485302 -0.000001 0.000000 0.000000 0.000000 1.666119
    32 -2.869897 1.399662 -4.140396 -3.141489 1.486424 -0.471691
    33 4.972046 0.000000 0.000000 1.240292 0.573223 -1.518328
    34 11.585350 0.000000 0.000001 0.000000 0.000000 -0.362300
    35 10.127054 -0.000001 -0.000001 1.843926 0.365384 -0.358712
    36 1.533672 0.109715 1.664490 -0.233255 -0.412980 0.435684
    37 0.928312 0.000001 0.000000 0.000000 0.000000 0.000000
    38 0.928313 0.000000 0.000002 0.000000 0.000000 0.000000
    39 2.683747 -0.427339 0.044205 0.001045 0.043611 0.000046
    40 1.438886 -0.000001 0.000002 0.000000 0.000000 0.767762
    41 1.485300 0.000000 0.000000 0.000000 0.000000 1.221689
  time 4
    0 0.233849 0.368164 39.526119 0.000000 0.000000 -1.570795
    1 0.000000 0.000000 0.000000 0.000000 -1.570451 -1.570795
    2 -0.000004 0.000007 3.713254 -3.139539 0.026087 3.120120
    3 18.045721 0.000000 0.000000 0.000000 0.000000 -0.121501
    4 17.597595 0.000000 0.000000 -0.002613 0.026036 0.099967
    5 0.000004 -0.000003 -3.713254 3.139069 -0.017354 3.117144
    6 18.045725 0.000000 0.000000 0.000000 0.000000 -0.127551
    7 17.597597 0.000000 0.000000 0.002950 -0.017289 0.103055
    8 1.293671 0.684478 -0.000001 -0.000004 -0.000001 0.358403
    9 5.309686 -0.003834 0.000000 -0.031855 0.014202 0.418422
    10 4.826790 -0.004591 0.000000 0.101098 -0.027109 0.260279
    11 5.792768 -0.005304 0.000000 -0.000098 -0.122099 0.122109
    12 6.662314 -0.001453 0.000000 0.000000 -0.000001 0.471000
    13 2.046984 -0.000002 0.000000 -0.145103 0.052798 -1.203101
    14 1.038628 0.548043 -0.144017 -0.000001 0.000001 -1.849906
    15 -0.064003 -0.023525 0.026161 0.000000 0.000000 0.000000
    16 3.013920 3.984632 -0.088975 -0.000001 0.000001 -1.849906
    17 -0.084188 -0.025625 -0.001098 0.000000 0.000000 0.000000
    18 4.778185 3.972485 -0.079803 -0.000001 0.000001 -1.849906
    19 -0.058556 -0.021328 0.004244 0.000000 0.000000 0.000000
    20 1.640597 -1.968779 -0.099219 -0.000001 0.000001 -1.849906
    21 0.055573 -0.028913 0.000000 0.000000 0.000000 0.000000
    22 -3.112023 1.517253 4.341910 2.820383 -0.776421 -0.242714
    23 4.827231 0.000000 0.000002 -1.487030 -0.489628 -1.008128
    24 11.139760 0.000000 0.000000 0.000000 0.000000 -0.237773
    25 10.314597 0.000000 -0.000001 -2.123665 0.144021 0.096701
    26 1.646739 0.449549 -1.702246 0.449790 0.128753 1.240175
    27 0.928312 0.000000 -0.000001 0.000000 0.000000 0.000000
    28 0.928313 -0.000001 0.000002 0.000000 0.000000 0.000000
    29 2.975833 -0.386307 -0.044143 -0.037781 -0.021799 1.029782
    30 1.438886 -0.000001 0.000000 0.000000 0.000000 0.593381
    31 1.485302 -0.000001 0.000000 0.000000 0.000000 1.666119
    32 -2.869897 1.399662 -4.140396 -3.141489 1.439336 -0.471691
    33 4.972046 0.000000 0.000000 1.288871 0.583520 -1.497907
    34 11.585350 0.000000 0.000001 0.000000 0.000000 -0.272755
    35 10.127054 -0.000001 -0.000001 1.813030 0.364842 -0.432849
    36 1.533672 0.109715 1.664490 -0.233255 -0.412980 0.435684
    37 0.928312 0.000001 0.000000 0.000000 0.000000 0.000000
    38 0.928313 0.000000 0.000002 0.000000 0.000000 0.000000
    39 2.683747 -0.427339 0.044205 0.001045 0.043611 0.000046
    40 1.438886 -0.000001 0.000002 0.000000 0.000000 0.767762
    41 1.485300 0.000000 0.000000 0.000000 0.000000 1.221689
  time 5
    0 0.233849 0.368164 39.526119 0.000000 0.000000 -1.570795
    1 0.000000 0.000000 0.000000 0.000000 -1.570451 -1.570795
    2 -0.000004 0.000007 3.713254 -3.139539 0.026087 3.120120
    3 18.045721 0.000000 0.000000 0.000000 0.000000 -0.121501
    4 17.597595 0.000000 0.000000 -0.002613 0.026036 0.099967
    5 0.000004 -0.000003 -3.713254 3.139069 -0.017354 3.117144
    6 18.045725 0.000000 0.000000 0.000000 0.000000 -0.127551
    7 17.597597 0.000000 0.000000 0.002950 -0.017289 0.103055
    8 1.293671 0.684478 -0.000001 -0.000004 -0.000001 0.358403
    9 5.309686 -0.003834 0.000000 -0.031855 0.014202 0.418422
    10 4.826790 -0.004591 0.000000 0.087470 -0.023466 0.260632
    11 5.792768 -0.005304 0.000000 -0.000082 -0.115304 0.122109
    12 6.662314 -0.001453 0.000000 0.000000 -0.000001 0.471000
    13 2.046984 -0.000002 0.000000 -0.127310 0.052482 -1.203686
    14 1.038628 0.548043 -0.144017 -0.000001 0.000001 -1.849906
    15 -0.064003 -0.023525 0.026161 0.000000 0.000000 0.000000
    16 3.013920 3.984632 -0.088975 -0.000001 0.000001 -1.849906
    17 -0.084188 -0.025625 -0.001098 0.000000 0.000000 0.000000
    18 4.778185 3.972485 -0.079803 -0.000001 0.000001 -1.849906
    19 -0.058556 -0.021328 0.004244 0.000000 0.000000 0.000000
    20 1.640597 -1.968779 -0.099219 -0.000001 0.000001 -1.849906
    21 0.055573 -0.028913 0.000000 0.000000 0.000000 0.000000
    22 -3.112023 1.517253 4.341910 2.820862 -0.807463 -0.236290
    23 4.827231 0.000000 0.000002 -1.440393 -0.374061 -1.016004
    24 11.139760 0.000000 0.000000 0.000000 0.000000 -0.436239
    25 10.314597 0.000000 -0.000001 -2.123665 0.144021 0.096701
    26 1.646739 0.449549 -1.702246 0.449790 0.128753 1.240175
    27 0.928312 0.000000 -0.000001 0.000000 0.000000 0.000000
    28 0.928313 -0.000001 0.000002 0.000000 0.000000 0.000000
    29 2.975833 -0.386307 -0.044143 -0.037781 -0.021799 1.029782
    30 1.438886 -0.000001 0.000000 0.000000 0.000000 0.593381
    31 1.485302 -0.000001 0.000000 0.000000 0.000000 1.666119
    32 -2.869897 1.399662 -4.140396 -3.141489 1.449935 -0.471691
    33 4.972046 0.000000 0.000000 1.262338 0.411617 -1.503638
    34 11.585350 0.000000 0.000001 0.000000 0.000000 -0.445759
    35 10.127054 -0.000001 -0.000001 1.819974 0.365140 -0.416178
    36 1.533672 0.109715 1.664490 -0.233255 -0.412980 0.435684
    37 0.928312 0.000001 0.000000 0.000000 0.000000 0.000000
    38 0.928313 0.000000 0.000002 0.000000 0.000000 0.000000
    39 2.683747 -0.427339 0.044205 0.001045 0.043611 0.000046
    40 1.438886 -0.000001 0.000002 0.000000 0.000000 0.767762
    41 1.485300 0.000000 0.000000 0.000000 0.000000 1.221689
  time 6
    0 0.233849 0.368164 39.526119 0.000000 0.000000 -1.570795
    1 0.000000 0.000000 0.000000 0.000000 -1.570451 -1.570795
    2 -0.000004 0.000007 3.713254 -3.139539 0.026087 3.120120
    3 18.045721 0.000000 0.000000 0.000000 0.000000 -0.121501
    4 17.597595 0.000000 0.000000 -0.002613 0.026036 0.099967
    5 0.000004 -0.000003 -3.713254 3.139069 -0.017354 3.117144
    6 18.045725 0.000000 0.000000 0.000000 0.000000 -0.127551
    7 17.597597 0.000000 0.000000 0.002950 -0.017289 0.103055
    8 1.293671 0.684478 -0.000001 -0.000004 -0.000001 0.358403
    9 5.309686 -0.003834 0.000000 -0.031855 0.014202 0.418422
    10 4.826790 -0.004591 0.000000 0.056846 -0.015256 0.261227
    11 5.792768 -0.005304 0.000000 -0.000065 -0.099987 0.122109
    12 6.662314 -0.001453 0.000000 0.000000 -0.000001 0.471000
    13 2.046984 -0.000002 0.000000 -0.087372 0.051829 -1.204765
    14 1.038628 0.548043 -0.144017 -0.000001 0.000001 -1.849906
    15 -0.064003 -0.023525 0.026161 0.000000 0.000000 0.000000
    16 3.013920 3.984632 -0.088975 -0.000001 0.000001 -1.849906
    17 -0.084188 -0.025625 -0.001098 0.000000 0.000000 0.000000
    18 4.778185 3.972485 -0.079803 -0.000001 0.000001 -1.849906
    19 -0.058556 -0.021328 0.004244 0.000000 0.000000 0.000000
    20 1.640597 -1.968779 -0.099219 -0.000001 0.000001 -1.849906
    21 0.055573 -0.028913 0.000000 0.000000 0.000000 0.000000
    22 -3.112023 1.517253 4.341910 2.820191 -0.922092 -0.212417
    23 4.827231 0.000000 0.000002 -1.323508 -0.229390 -1.032719
    24 11.139760 0.000000 0.000000 0.000000 0.000000 -0.779070
    25 10.314597 0.000000 -0.000001 -2.123665 0.144021 0.096701
    26 1.646739 0.449549 -1.702246 0.449790 0.128753 1.240175
    27 0.928312 0.000000 -0.000001 0.000000 0.000000 0.000000
    28 0.928313 -0.000001 0.000002 0.000000 0.000000 0.000000
    29 2.975833 -0.386307 -0.044143 -0.037781 -0.021799 1.029782
    30 1.438886 -0.000001 0.000000 0.000000 0.000000 0.593381
    31 1.485302 -0.000001 0.000000 0.000000 0.000000 1.666119
    32 -2.869897 1.399662 -4.140396 -3.141489 1.488826 -0.471691
    33 4.972046 0.000000 0.000000 1.198676 0.141657 -1.493165
    34 11.585350 0.000000 0.000001 0.000000 0.000000 -0.756297
    35 10.127054 -0.000001 -0.000001 1.845518 0.365357 -0.354908
    36 1.533672 0.109715 1.664490 -0.233255 -0.412980 0.435684
    37 0.928312 0.000001 0.000000 0.000000 0.000000 0.000000
    38 0.928313 0.000000 0.000002 0.000000 0.000000 0.000000
    39 2.683747 -0.427339 0.044205 0.001045 0.043611 0.000046
    40 1.438886 -0.000001 0.000002 0.000000 0.000000 0.767762
    41 1.485300 0.000000 0.000000 0.000000 0.000000 1.221689
  time 7
    0 0.233849 0.368164 39.526119 0.000000 0.000000 -1.570795
    1 0.000000 0.000000 0.000000 0.000000 -1.570451 -1.570795
    2 -0.000004 0.000007 3.713254 -3.139539 0.026087 3.120120
    3 18.045721 0.000000 0.000000 0.000000 0.000000 -0.121501
    4 17.597595 0.000000 0.000000 -0.002613 0.026036 0.099967
    5 0.000004 -0.000003 -3.713254 3.139069 -0.017354 3.117144
    6 18.045725 0.000000 0.000000 0.000000 0.000000 -0.127551
    7 17.597597 0.000000 0.000000 0.002950 -0.017289 0.103055
    8 1.293671 0.684478 -0.000001 -0.000004 -0.000001 0.358403
    9 5.309686 -0.003834 0.000000 -0.031855 0.014202 0.418422
    10 4.826790 -0.004591 0.000000 0.019277 -0.005177 0.261602
    11 5.792768 -0.005304 0.000000 -0.000049 -0.081208 0.122109
    12 6.662314 -0.001453 0.000000 0.000000 -0.000001 0.471000
    13 2.046984 -0.000002 0.000000 -0.038301 0.051109 -1.205529
    14 1.038628 0.548043 -0.144017 -0.000001 0.000001 -1.849906
    15 -0.064003 -0.023525 0.026161 0.000000 0.000000 0.000000
    16 3.013920 3.984632 -0.088975 -0.000001 0.000001 -1.849906
    17 -0.084188 -0.025625 -0.001098 0.000000 0.000000 0.000000
    18 4.778185 3.972485 -0.079803 -0.000001 0.000001 -1.849906
    19 -0.058556 -0.021328 0.004244 0.000000 0.000000 0.000000
    20 1.640597 -1.968779 -0.099219 -0.000001 0.000001 -1.849906
    21 0.055573 -0.028913 0.000000 0.000000 0.000000 0.000000
    22 -3.112023 1.517253 4.341910 2.809933 -1.078764 -0.177135
    23 4.827231 0.000000 0.000002 -1.178723 -0.083953 -1.020905
    24 11.139760 0.000000 0.000000 0.000000 0.000000 -1.175231
    25 10.314597 0.000000 -0.000001 -2.123665 0.144021 0.096701
    26 1.646739 0.449549 -1.702246 0.449790 0.128753 1.240175
    27 0.928312 0.000000 -0.000001 0.000000 0.000000 0.000000
    28 0.928313 -0.000001 0.000002 0.000000 0.000000 0.000000
    29 2.975833 -0.386307 -0.044143 -0.037781 -0.021799 1.029782
    30 1.438886 -0.000001 0.000000 0.000000 0.000000 0.593381
    31 1.485302 -0.000001 0.000000 0.000000 0.000000 1.666119
    32 -2.869897 1.399662 -4.140396 -3.141489 1.541736 -0.471691
    33 4.972046 0.000000 0.000000 1.103065 -0.153239 -1.433682
    34 11.585350 0.000000 0.000001 0.000000 0.000000 -1.119723
    35 10.127054 -0.000001 -0.000001 1.880109 0.363272 -0.271671
    36 1.533672 0.109715 1.664490 -0.233255 -0.412980 0.435684
    37 0.928312 0.000001 0.000000 0.000000 0.000000 0.000000
    38 0.928313 0.000000 0.000002 0.000000 0.000000 0.000000
    39 2.683747 -0.427339 0.044205 0.001045 0.043611 0.000046
    40 1.438886 -0.000001 0.000002 0.000000 0.000000 0.767762
    41 1.485300 0.000000 0.000000 0.000000 0.000000 1.221689
  time 8
    0 0.233849 0.368164 39.526119 0.000000 0.000000 -1.570795
    1 0.000000 0.000000 0.000000 0.000000 -1.570451 -1.570795
    2 -0.000004 0.000007 3.713254 -3.139539 0.026087 3.120120
    3 18.045721 0.000000 0.000000 0.000000 0.000000 -0.121501
    4 17.597595 0.000000 0.000000 -0.002613 0.026036 0.099967
    5 0.000004 -0.000003 -3.713254 3.139069 -0.017354 3.117144
    6 18.045725 0.000000 0.000000 0.000000 0.000000 -0.127551
    7 17.597597 0.000000 0.000000 0.002950 -0.017289 0.103055
    8 1.293671 0.684478 -0.000001 -0.000004 -0.000001 0.358403
    9 5.309686 -0.003834 0.000000 -0.031855 0.014202 0.418422
    10 4.826790 -0.004591 0.000000 -0.019852 0.005333 0.261602
    11 5.792768 -0.005304 0.000000 -0.000049 -0.061649 0.122109
    12 6.662314 -0.001453 0.000000 0.000000 -0.000001 0.471000
    13 2.046984 -0.000002 0.000000 0.012839 0.050411 -1.205619
    14 1.038628 0.548043 -0.144017 -0.000001 0.000001 -1.849906
    15 -0.064003 -0.023525 0.026161 0.000000 0.000000 0.000000
    16 3.013920 3.984632 -0.088975 -0.000001 0.000001 -1.849906
    17 -0.084188 -0.025625 -0.001098 0.000000 0.000000 0.000000
    18 4.778185 3.972485 -0.079803 -0.000001 0.000001 -1.849906
    19 -0.058556 -0.021328 0.004244 0.000000 0.000000 0.000000
    20 1.640597 -1.968779 -0.099219 -0.000001 0.000001 -1.849906
    21 0.055573 -0.028913 0.000000 0.000000 0.000000 0.000000
    22 -3.112023 1.517253 4.341910 2.772159 -1.255862 -0.119034
    23 4.827231 0.000000 0.000002 -1.020604 0.033572 -0.974611
    24 11.139760 0.000000 0.000000 0.000000 0.000000 -1.566697
    25 10.314597 0.000000 -0.000001 -2.123665 0.144021 0.096701
    26 1.646739 0.449549 -1.702246 0.449790 0.128753 1.240175
    27 0.928312 0.000000 -0.000001 0.000000 0.000000 0.000000
    28 0.928313 -0.000001 0.000002 0.000000 0.000000 0.000000
    29 2.975833 -0.386307 -0.044143 -0.037781 -0.021799 1.029782
    30 1.438886 -0.000001 0.000000 0.000000 0.000000 0.593381
    31 1.485302 -0.000001 0.000000 0.000000 0.000000 1.666119
    32 -2.869897 1.399662 -4.140396 -0.000014 1.540210 2.669783
    33 4.972046 0.000000 0.000000 0.963285 -0.416120 -1.306877
    34 11.585350 0.000000 0.000001 0.000000 0.000000 -1.483009
    35 10.127054 -0.000001 -0.000001 1.918648 0.357750 -0.178119
    36 1.533672 0.109715 1.664490 -0.233255 -0.412980 0.435684
    37 0.928312 0.000001 0.000000 0.000000 0.000000 0.000000
    38 0.928313 0.000000 0.000002 0.000000 0.000000 0.000000
    39 2.683747 -0.427339 0.044205 0.001045 0.043611 0.000046
    40 1.438886 -0.000001 0.000002 0.000000 0.000000 0.767762
    41 1.485300 0.000000 0.000000 0.000000 0.000000 1.221689
  time 9
    0 0.233849 0.368164 39.526119 0.000000 0.000000 -1.570795
    1 0.000000 0.000000 0.000000 0.000000 -1.570451 -1.570795
    2 -0.000004 0.000007 3.713254 -3.139539 0.026087 3.120120
    3 18.045721 0.000000 0.000000 0.000000 0.000000 -0.121501
    4 17.597595 0.000000 0.000000 -0.002613 0.026036 0.099967
    5 0.000004 -0.000003 -3.713254 3.139069 -0.017354 3.117144
    6 18.045725 0.000000 0.000000 0.000000 0.000000 -0.127551
    7 17.597597 0.000000 0.000000 0.002950 -0.017289 0.103055
    8 1.293671 0.684478 -0.000001 -0.000004 -0.000001 0.358403
    9 5.309686 -0.003834 0.000000 -0.031855 0.014202 0.418422
    10 4.826790 -0.004591 0.000000 -0.057716 0.015496 0.261205
    11 5.792768 -0.005304 0.000000 -0.000033 -0.042725 0.122109
    12 6.662314 -0.001453 0.000000 0.000000 -0.000001 0.471000
    13 2.046984 -0.000002 0.000000 0.062341 0.049758 -1.205034
    14 1.038628 0.548043 -0.144017 -0.000001 0.000001 -1.849906
    15 -0.064003 -0.023525 0.026161 0.000000 0.000000 0.000000
    16 3.013920 3.984632 -0.088975 -0.000001 0.000001 -1.849906
    17 -0.084188 -0.025625 -0.001098 0.000000 0.000000 0.000000
    18 4.778185 3.972485 -0.079803 -0.000001 0.000001 -1.849906
    19 -0.058556 -0.021328 0.004244 0.000000 0.000000 0.000000
    20 1.640597 -1.968779 -0.099219 -0.000001 0.000001 -1.849906
    21 0.055573 -0.028913 0.000000 0.000000 0.000000 0.000000
    22 -3.112023 1.517253 4.341910 2.649154 -1.413611 0.015576
    23 4.827231 0.000000 0.000002 -0.889857 0.077228 -0.925430
    24 11.139760 0.000000 0.000000 0.000000 0.000000 -1.833351
    25 10.314597 0.000000 -0.000001 -2.123665 0.144021 0.096701
    26 1.646739 0.449549 -1.702246 0.449790 0.128753 1.240175
    27 0.928312 0.000000 -0.000001 0.000000 0.000000 0.000000
    28 0.928313 -0.000001 0.000002 0.000000 0.000000 0.000000
    29 2.975833 -0.386307 -0.044143 -0.037781 -0.021799 1.029782
    30 1.438886 -0.000001 0.000000 0.000000 0.000000 0.593381
    31 1.485302 -0.000001 0.000000 0.000000 0.000000 1.666119
    32 -2.869897 1.399662 -4.140396 -0.000014 1.486763 2.669783
    33 4.972046 0.000000 0.000000 0.813759 -0.551905 -1.166964
    34 11.585350 0.000000 0.000001 0.000000 0.000000 -1.737792
    35 10.127054 -0.000001 -0.000001 1.952538 0.349926 -0.094686
    36 1.533672 0.109715 1.664490 -0.233255 -0.412980 0.435684
    37 0.928312 0.000001 0.000000 0.000000 0.000000 0.000000
    38 0.928313 0.000000 0.000002 0.000000 0.000000 0.000000
    39 2.683747 -0.427339 0.044205 0.001045 0.043611 0.000046
    40 1.438886 -0.000001 0.000002 0.000000 0.000000 0.767762
    41 1.485300 0.000000 0.000000 0.000000 0.000000 1.221689
  time 10
    0 0.233849 0.368164 39.526119 0.000000 0.000000 -1.570795
    1 0.000000 0.000000 0.000000 0.000000 -1.570451 -1.570795
    2 -0.000004 0.000007 3.713254 -3.139539 0.026087 3.120120
    3 18.045721 0.000000 0.000000 0.000000 0.000000 -0.121501
    4 17.597595 0.000000 0.000000 -0.002613 0.026036 0.099967
    5 0.000004 -0.000003 -3.713254 3.139069 -0.017354 3.117144
    6 18.045725 0.000000 0.000000 0.000000 0.000000 -0.127551
    7 17.597597 0.000000 0.000000 0.002950 -0.017289 0.103055
    8 1.293671 0.684478 -0.000001 -0.000004 -0.000001 0.358403
    9 5.309686 -0.003834 0.000000 -0.031855 0.014202 0.418422
    10 4.826790 -0.004591 0.000000 -0.092461 0.024796 0.260499
    11 5.792768 -0.005304 0.000000 -0.000016 -0.025359 0.122109
    12 6.662314 -0.001453 0.000000 0.000000 -0.000001 0.471000
    13 2.046984 -0.000002 0.000000 0.107793 0.049128 -1.203911
    14 1.038628 0.548043 -0.144017 -0.000001 0.000001 -1.849906
    15 -0.064003 -0.023525 0.026161 0.000000 0.000000 0.000000
    16 3.013920 3.984632 -0.088975 -0.000001 0.000001 -1.849906
    17 -0.084188 -0.025625 -0.001098 0.000000 0.000000 0.000000
    18 4.778185 3.972485 -0.079803 -0.000001 0.000001 -1.849906
    19 -0.058556 -0.021328 0.004244 0.000000 0.000000 0.000000
    20 1.640597 -1.968779 -0.099219 -0.000001 0.000001 -1.849906
    21 0.055573 -0.028913 0.000000 0.000000 0.000000 0.000000
    22 -3.112023 1.517253 4.341910 1.726854 -1.528316 0.942794
    23 4.827231 0.000000 0.000002 -0.813324 -0.040551 -0.973474
    24 11.139760 0.000000 0.000000 0.000000 0.000000 -1.795998
    25 10.314597 0.000000 -0.000001 -2.123665 0.144021 0.096701
    26 1.646739 0.449549 -1.702246 0.449790 0.128753 1.240175
    27 0.928312 0.000000 -0.000001 0.000000 0.000000 0.000000
    28 0.928313 -0.000001 0.000002 0.000000 0.000000 0.000000
    29 2.975833 -0.386307 -0.044143 -0.037781 -0.021799 1.029782
    30 1.438886 -0.000001 0.000000 0.000000 0.000000 0.593381
    31 1.485302 -0.000001 0.000000 0.000000 0.000000 1.666119
    32 -2.869897 1.399662 -4.140396 -0.000014 1.441512 2.669783
    33 4.972046 0.000000 0.000000 0.783358 -0.447332 -1.188636
    34 11.585350 0.000000 0.000001 0.000000 0.000000 -1.731986
    35 10.127054 -0.000001 -0.000001 1.980503 0.341290 -0.024590
    36 1.533672 0.109715 1.664490 -0.233255 -0.412980 0.435684
    37 0.928312 0.000001 0.000000 0.000000 0.000000 0.000000
    38 0.928313 0.000000 0.000002 0.000000 0.000000 0.000000
    39 2.683747 -0.427339 0.044205 0.001045 0.043611 0.000046
    40 1.438886 -0.000001 0.000002 0.000000 0.000000 0.767762
    41 1.485300 0.000000 0.000000 0.000000 0.000000 1.221689
  time 11
    0 0.233849 0.368164 39.526119 0.000000 0.000000 -1.570795
    1 0.000000 0.000000 0.000000 0.000000 -1.570451 -1.570795
    2 -0.000004 0.000007 3.713254 -3.139539 0.026087 3.120120
    3 18.045721 0.000000 0.000000 0.000000 0.000000 -0.121501
    4 17.597595 0.000000 0.000000 -0.002613 0.026036 0.099967
    5 0.000004 -0.000003 -3.713254 3.139069 -0.017354 3.117144
    6 18.045725 0.000000 0.000000 0.000000 0.000000 -0.127551
    7 17.597597 0.000000 0.000000 0.002950 -0.017289 0.103055
    8 1.293671 0.684478 -0.000001 -0.000004 -0.000001 0.358403
    9 5.309686 -0.003834 0.000000 -0.031855 0.014202 0.418422
    10 4.826790 -0.004591 0.000000 -0.122083 0.032706 0.259662
    11 5.792768 -0.005304 0.000000 0.000000 -0.010570 0.122109
    12 6.662314 -0.001453 0.000000 0.000000 -0.000001 0.471000
    13 2.046984 -0.000002 0.000000 0.146525 0.048565 -1.202517
    14 1.038628 0.548043 -0.144017 -0.000001 0.000001 -1.849906
    15 -0.064003 -0.023525 0.026161 0.000000 0.000000 0.000000
    16 3.013920 3.984632 -0.088975 -0.000001 0.000001 -1.849906
    17 -0.084188 -0.025625 -0.001098 0.000000 0.000000 0.000000
    18 4.778185 3.972485 -0.079803 -0.000001 0.000001 -1.849906
    19 -0.058556 -0.021328 0.004244 0.000000 0.000000 0.000000
    20 1.640597 -1.968779 -0.099219 -0.000001 0.000001 -1.849906
    21 0.055573 -0.028913 0.000000 0.000000 0.000000 0.000000
    22 -3.112023 1.517253 4.341910 0.099791 -1.452692 2.570673
    23 4.827231 0.000000 0.000002 -0.731328 -0.292534 -1.160223
    24 11.139760 0.000000 0.000000 0.000000 0.000000 -1.482601
    25 10.314597 0.000000 -0.000001 -2.123665 0.144021 0.096701
    26 1.646739 0.449549 -1.702246 0.449790 0.128753 1.240175
    27 0.928312 0.000000 -0.000001 0.000000 0.000000 0.000000
    28 0.928313 -0.000001 0.000002 0.000000 0.000000 0.000000
    29 2.975833 -0.386307 -0.044143 -0.037781 -0.021799 1.029782
    30 1.438886 -0.000001 0.000000 0.000000 0.000000 0.593381
    31 1.485302 -0.000001 0.000000 0.000000 0.000000 1.666119
    32 -2.869897 1.399662 -4.140396 -0.000014 1.399031 2.669783
    33 4.972046 0.000000 0.000000 0.836578 -0.139082 -1.368534
    34 11.585350 0.000000 0.000001 0.000000 0.000000 -1.492243
    35 10.127054 -0.000001 -0.000001 2.006048 0.331490 0.040798
    36 1.533672 0.109715 1.664490 -0.233255 -0.412980 0.435684
    37 0.928312 0.000001 0.000000 0.000000 0.000000 0.000000
    38 0.928313 0.000000 0.000002 0.000000 0.000000 0.000000
    39 2.683747 -0.427339 0.044205 0.001045 0.043611 0.000046
    40 1.438886 -0.000001 0.000002 0.000000 0.000000 0.767762
    41 1.485300 0.000000 0.000000 0.000000 0.000000 1.221689
  time 12
    0 0.233849 0.368164 39.526119 0.000000 0.000000 -1.570795
    1 0.000000 0.000000 0.000000 0.000000 -1.570451 -1.570795
    2 -0.000004 0.000007 3.713254 -3.139539 0.026087 3.120120
    3 18.045721 0.000000 0.000000 0.000000 0.000000 -0.121501
    4 17.597595 0.000000 0.000000 -0.002613 0.026036 0.099967
    5 0.000004 -0.000003 -3.713254 3.139069 -0.017354 3.117144
    6 18.045725 0.000000 0.000000 0.000000 0.000000 -0.127551
    7 17.597597 0.000000 0.000000 0.002950 -0.017289 0.103055
    8 1.293671 0.684478 -0.000001 -0.000004 -0.000001 0.358403
    9 5.309686 -0.003834 0.000000 -0.031855 0.014202 0.418422
    10 4.826790 -0.004591 0.000000 -0.143265 0.038339 0.258912
    11 5.792768 -0.005304 0.000000 0.000000 0.000000 0.122109
    12 6.662314 -0.001453 0.000000 0.000000 -0.000001 0.471000
    13 2.046984 -0.000002 0.000000 0.174227 0.048114 -1.201304
    14 1.038628 0.548043 -0.144017 -0.000001 0.000001 -1.849906
    15 -0.064003 -0.023525 0.026161 0.000000 0.000000 0.000000
    16 3.013920 3.984632 -0.088975 -0.000001 0.000001 -1.849906
    17 -0.084188 -0.025625 -0.001098 0.000000 0.000000 0.000000
    18 4.778185 3.972485 -0.079803 -0.000001 0.000001 -1.849906
    19 -0.058556 -0.021328 0.004244 0.000000 0.000000 0.000000
    20 1.640597 -1.968779 -0.099219 -0.000001 0.000001 -1.849906
    21 0.055573 -0.028913 0.000000 0.000000 0.000000 0.000000
    22 -3.112023 1.517253 4.341910 -0.041814 -1.370644 2.710844
    23 4.827231 0.000000 0.000002 -0.635118 -0.462991 -1.341283
    24 11.139760 0.000000 0.000000 0.000000 0.000000 -1.225128
    25 10.314597 0.000000 -0.000001 -2.123665 0.144021 0.096701
    26 1.646739 0.449549 -1.702246 0.449790 0.128753 1.240175
    27 0.928312 0.000000 -0.000001 0.000000 0.000000 0.000000
    28 0.928313 -0.000001 0.000002 0.000000 0.000000 0.000000
    29 2.975833 -0.386307 -0.044143 -0.037781 -0.021799 1.029782
    30 1.438886 -0.000001 0.000000 0.000000 0.000000 0.593381
    31 1.485302 -0.000001 0.000000 0.000000 0.000000 1.666119
    32 -2.869897 1.399662 -4.140396 -0.000014 1.370795 2.669783
    33 4.972046 0.000000 0.000000 0.847485 0.099748 -1.515627
    34 11.585350 0.000000 0.000001 0.000000 0.000000 -1.291537
    35 10.127054 -0.000001 -0.000001 2.022610 0.324154 0.083986
    36 1.533672 0.109715 1.664490 -0.233255 -0.412980 0.435684
    37 0.928312 0.000001 0.000000 0.000000 0.000000 0.000000
    38 0.928313 0.000000 0.000002 0.000000 0.000000 0.000000
    39 2.683747 -0.427339 0.044205 0.001045 0.043611 0.000046
    40 1.438886 -0.000001 0.000002 0.000000 0.000000 0.767762
    41 1.485300 0.000000 0.000000 0.000000 0.000000 1.221689
end
