// Created by Crowbar 0.44.0.0
version 1
nodes
  0 "Bip01" -1
  1 "Bip01 Pelvis" 0
  2 "Bip01 L Leg" 1
  3 "Bip01 L Leg1" 2
  4 "Bip01 L Foot" 3
  5 "Bip01 R Leg" 1
  6 "Bip01 R Leg1" 5
  7 "Bip01 R Foot" 6
  8 "Bip01 Spine" 1
  9 "Bip01 Spine1" 8
  10 "Bip01 Spine2" 9
  11 "Bip01 Spine3" 10
  12 "Bip01 Neck" 11
  13 "Bip01 Head" 12
  14 "Dummy08" 13
  15 "Bone02" 14
  16 "Dummy04" 13
  17 "Bone05" 16
  18 "Dummy03" 13
  19 "Bone07" 18
  20 "Dummy10" 13
  21 "Bone13" 20
  22 "Bip01 L Arm" 12
  23 "Bip01 L Arm1" 22
  24 "Bip01 L Arm2" 23
  25 "Bip01 L Hand" 24
  26 "Bip01 L Finger0" 25
  27 "Bip01 L Finger01" 26
  28 "Bip01 L Finger02" 27
  29 "Bip01 L Finger1" 25
  30 "Bip01 L Finger11" 29
  31 "Bip01 L Finger12" 30
  32 "Bip01 R Arm" 12
  33 "Bip01 R Arm1" 32
  34 "Bip01 R Arm2" 33
  35 "Bip01 R Hand" 34
  36 "Bip01 R Finger0" 35
  37 "Bip01 R Finger01" 36
  38 "Bip01 R Finger02" 37
  39 "Bip01 R Finger1" 35
  40 "Bip01 R Finger11" 39
  41 "Bip01 R Finger12" 40
end
skeleton
  time 0
    0 0.233849 0.368164 39.526119 0.000000 0.000000 -1.570795
    1 0.000000 0.000000 0.000000 0.000000 -1.570451 -1.570795
    2 -0.000004 0.000007 3.713254 -3.139539 0.026087 3.120120
    3 18.045721 0.000000 0.000000 0.000000 0.000000 -0.121501
    4 17.597595 0.000000 0.000000 -0.002613 0.026036 0.099967
    5 0.000004 -0.000003 -3.713254 3.139069 -0.017354 3.117144
    6 18.045725 0.000000 0.000000 0.000000 0.000000 -0.127551
    7 17.597597 0.000000 0.000000 0.002950 -0.017289 0.103055
    8 1.293671 0.684478 -0.000001 -0.000004 -0.000001 0.218799
    9 5.309686 -0.003834 0.000000 0.000000 0.000000 0.488613
    10 4.826790 -0.004591 0.000000 -0.346841 0.088854 0.239928
    11 5.792768 -0.005304 0.000000 -0.226463 0.011889 0.050768
    12 6.662314 -0.001453 0.000000 0.000000 -0.000001 -0.139840
    13 2.046984 -0.000002 0.000000 0.579422 -0.019093 -0.046103
    14 1.038628 0.548043 -0.144017 -0.000001 0.000001 -1.849906
    15 -0.064003 -0.023525 0.026161 0.000000 0.000000 0.000000
    16 3.013920 3.984632 -0.088975 -0.000001 0.000001 -1.849906
    17 -0.084188 -0.025625 -0.001098 0.000000 0.000000 0.000000
    18 4.778185 3.972485 -0.079803 -0.000001 0.000001 -1.849906
    19 -0.058556 -0.021328 0.004244 0.000000 0.000000 0.000000
    20 1.640597 -1.968779 -0.099219 -0.000001 0.000001 -1.849906
    21 0.055573 -0.028913 0.000000 0.000000 0.000000 0.000000
    22 -3.416720 -0.541403 4.341910 2.171705 -0.880702 0.983253
    23 4.827231 0.000000 0.000002 -1.039929 0.247259 -0.361508
    24 11.139760 0.000000 0.000000 0.000000 0.000000 -0.958334
    25 10.314597 0.000000 -0.000001 -3.815936 0.573910 -0.433428
    26 1.646739 0.449549 -1.702246 -0.161934 0.581206 -0.284024
    27 0.928312 0.000000 -0.000001 0.000000 0.000000 0.000000
    28 0.928313 -0.000001 0.000002 0.000000 0.000000 0.000000
    29 2.975833 -0.386307 -0.044143 -0.000797 -0.043611 0.000035
    30 1.438886 -0.000001 0.000000 0.000000 0.000000 0.872212
    31 1.485302 -0.000001 0.000000 0.000000 0.000000 0.907076
    32 -3.151155 -0.498833 -4.140396 -1.097474 1.152370 2.220809
    33 4.972046 0.000000 0.000000 0.742283 -0.275107 -1.501135
    34 11.585350 0.000000 0.000001 0.000000 0.000000 -1.606133
    35 10.127054 -0.000001 -0.000001 1.947696 0.173934 0.692921
    36 1.533672 0.109715 1.664490 -0.264755 -0.055971 0.783109
    37 0.928312 0.000001 0.000000 0.000000 0.000000 -0.453542
    38 0.928313 0.000000 0.000002 0.000000 0.000000 0.000000
    39 2.683747 -0.427339 0.044205 -0.005786 0.043239 -0.157091
    40 1.438886 -0.000001 0.000002 0.000000 0.000000 0.732659
    41 1.485300 0.000000 0.000000 0.000000 0.000000 1.168771
  time 1
    0 0.233849 0.368164 39.526119 0.000000 0.000000 -1.570795
    1 0.000000 0.000000 0.000000 0.000000 -1.570451 -1.570795
    2 -0.000004 0.000007 3.713254 -3.139539 0.026087 3.120120
    3 18.045721 0.000000 0.000000 0.000000 0.000000 -0.121501
    4 17.597595 0.000000 0.000000 -0.002613 0.026036 0.099967
    5 0.000004 -0.000003 -3.713254 3.139069 -0.017354 3.117144
    6 18.045725 0.000000 0.000000 0.000000 0.000000 -0.127551
    7 17.597597 0.000000 0.000000 0.002950 -0.017289 0.103055
    8 1.293671 0.684478 -0.000001 -0.000004 -0.000001 0.218799
    9 5.309686 -0.003834 0.000000 0.000000 0.000000 0.488613
    10 4.826790 -0.004591 0.000000 -0.346841 0.088854 0.239928
    11 5.792768 -0.005304 0.000000 -0.226431 0.012548 0.053613
    12 6.662314 -0.001453 0.000000 0.000000 -0.000001 -0.139840
    13 2.046984 -0.000002 0.000000 0.579422 -0.019093 -0.049025
    14 1.038628 0.548043 -0.144017 -0.000001 0.000001 -1.849906
    15 -0.064003 -0.023525 0.026161 0.000000 0.000000 0.000000
    16 3.013920 3.984632 -0.088975 -0.000001 0.000001 -1.849906
    17 -0.084188 -0.025625 -0.001098 0.000000 0.000000 0.000000
    18 4.778185 3.972485 -0.079803 -0.000001 0.000001 -1.849906
    19 -0.058556 -0.021328 0.004244 0.000000 0.000000 0.000000
    20 1.640597 -1.968779 -0.099219 -0.000001 0.000001 -1.849906
    21 0.055573 -0.028913 0.000000 0.000000 0.000000 0.000000
    22 -3.416720 -0.541403 4.341910 2.168637 -0.878510 0.985554
    23 4.827231 0.000000 0.000002 -1.040398 0.245472 -0.357920
    24 11.139760 0.000000 0.000000 0.000000 0.000000 -0.958334
    25 10.314597 0.000000 -0.000001 -3.815936 0.573910 -0.433428
    26 1.646739 0.449549 -1.702246 -0.161934 0.581206 -0.284024
    27 0.928312 0.000000 -0.000001 0.000000 0.000000 0.000000
    28 0.928313 -0.000001 0.000002 0.000000 0.000000 0.000000
    29 2.975833 -0.386307 -0.044143 -0.000797 -0.043611 0.000035
    30 1.438886 -0.000001 0.000000 0.000000 0.000000 0.872212
    31 1.485302 -0.000001 0.000000 0.000000 0.000000 0.907076
    32 -3.151155 -0.498833 -4.140396 -1.100925 1.149826 2.217646
    33 4.972046 0.000000 0.000000 0.741432 -0.271809 -1.498566
    34 11.585350 0.000000 0.000001 0.000000 0.000000 -1.606133
    35 10.127054 -0.000001 -0.000001 1.947696 0.173934 0.692921
    36 1.533672 0.109715 1.664490 -0.264755 -0.055971 0.783109
    37 0.928312 0.000001 0.000000 0.000000 0.000000 -0.453542
    38 0.928313 0.000000 0.000002 0.000000 0.000000 0.000000
    39 2.683747 -0.427339 0.044205 -0.005786 0.043239 -0.157091
    40 1.438886 -0.000001 0.000002 0.000000 0.000000 0.732659
    41 1.485300 0.000000 0.000000 0.000000 0.000000 1.168771
  time 2
    0 0.233849 0.368164 39.526119 0.000000 0.000000 -1.570795
    1 0.000000 0.000000 0.000000 0.000000 -1.570451 -1.570795
    2 -0.000004 0.000007 3.713254 -3.139539 0.026087 3.120120
    3 18.045721 0.000000 0.000000 0.000000 0.000000 -0.121501
    4 17.597595 0.000000 0.000000 -0.002613 0.026036 0.099967
    5 0.000004 -0.000003 -3.713254 3.139069 -0.017354 3.117144
    6 18.045725 0.000000 0.000000 0.000000 0.000000 -0.127551
    7 17.597597 0.000000 0.000000 0.002950 -0.017289 0.103055
    8 1.293671 0.684478 -0.000001 -0.000004 -0.000001 0.218799
    9 5.309686 -0.003834 0.000000 0.000000 0.000000 0.488613
    10 4.826790 -0.004591 0.000000 -0.346841 0.088854 0.239928
    11 5.792768 -0.005304 0.000000 -0.226382 0.013435 0.057475
    12 6.662314 -0.001453 0.000000 0.000000 -0.000001 -0.139840
    13 2.046984 -0.000002 0.000000 0.579422 -0.019093 -0.052980
    14 1.038628 0.548043 -0.144017 -0.000001 0.000001 -1.849906
    15 -0.064003 -0.023525 0.026161 0.000000 0.000000 0.000000
    16 3.013920 3.984632 -0.088975 -0.000001 0.000001 -1.849906
    17 -0.084188 -0.025625 -0.001098 0.000000 0.000000 0.000000
    18 4.778185 3.972485 -0.079803 -0.000001 0.000001 -1.849906
    19 -0.058556 -0.021328 0.004244 0.000000 0.000000 0.000000
    20 1.640597 -1.968779 -0.099219 -0.000001 0.000001 -1.849906
    21 0.055573 -0.028913 0.000000 0.000000 0.000000 0.000000
    22 -3.416720 -0.541403 4.341910 2.164515 -0.875548 0.988718
    23 4.827231 0.000000 0.000002 -1.040927 0.243004 -0.353107
    24 11.139760 0.000000 0.000000 0.000000 0.000000 -0.958334
    25 10.314597 0.000000 -0.000001 -3.815936 0.573910 -0.433428
    26 1.646739 0.449549 -1.702246 -0.161934 0.581206 -0.284024
    27 0.928312 0.000000 -0.000001 0.000000 0.000000 0.000000
    28 0.928313 -0.000001 0.000002 0.000000 0.000000 0.000000
    29 2.975833 -0.386307 -0.044143 -0.000797 -0.043611 0.000035
    30 1.438886 -0.000001 0.000000 0.000000 0.000000 0.872212
    31 1.485302 -0.000001 0.000000 0.000000 0.000000 0.907076
    32 -3.151155 -0.498833 -4.140396 -1.105623 1.146350 2.213331
    33 4.972046 0.000000 0.000000 0.740272 -0.267305 -1.495075
    34 11.585350 0.000000 0.000001 0.000000 0.000000 -1.606133
    35 10.127054 -0.000001 -0.000001 1.947696 0.173934 0.692921
    36 1.533672 0.109715 1.664490 -0.264755 -0.055971 0.783109
    37 0.928312 0.000001 0.000000 0.000000 0.000000 -0.453542
    38 0.928313 0.000000 0.000002 0.000000 0.000000 0.000000
    39 2.683747 -0.427339 0.044205 -0.005786 0.043239 -0.157091
    40 1.438886 -0.000001 0.000002 0.000000 0.000000 0.732659
    41 1.485300 0.000000 0.000000 0.000000 0.000000 1.168771
  time 3
    0 0.233849 0.368164 39.526119 0.000000 0.000000 -1.570795
    1 0.000000 0.000000 0.000000 0.000000 -1.570451 -1.570795
    2 -0.000004 0.000007 3.713254 -3.139539 0.026087 3.120120
    3 18.045721 0.000000 0.000000 0.000000 0.000000 -0.121501
    4 17.597595 0.000000 0.000000 -0.002613 0.026036 0.099967
    5 0.000004 -0.000003 -3.713254 3.139069 -0.017354 3.117144
    6 18.045725 0.000000 0.000000 0.000000 0.000000 -0.127551
    7 17.597597 0.000000 0.000000 0.002950 -0.017289 0.103055
    8 1.293671 0.684478 -0.000001 -0.000004 -0.000001 0.218799
    9 5.309686 -0.003834 0.000000 0.000000 0.000000 0.488613
    10 4.826790 -0.004591 0.000000 -0.346841 0.088854 0.239928
    11 5.792768 -0.005304 0.000000 -0.226316 0.014513 0.062188
    12 6.662314 -0.001453 0.000000 0.000000 -0.000001 -0.139840
    13 2.046984 -0.000002 0.000000 0.579422 -0.019093 -0.057834
    14 1.038628 0.548043 -0.144017 -0.000001 0.000001 -1.849906
    15 -0.064003 -0.023525 0.026161 0.000000 0.000000 0.000000
    16 3.013920 3.984632 -0.088975 -0.000001 0.000001 -1.849906
    17 -0.084188 -0.025625 -0.001098 0.000000 0.000000 0.000000
    18 4.778185 3.972485 -0.079803 -0.000001 0.000001 -1.849906
    19 -0.058556 -0.021328 0.004244 0.000000 0.000000 0.000000
    20 1.640597 -1.968779 -0.099219 -0.000001 0.000001 -1.849906
    21 0.055573 -0.028913 0.000000 0.000000 0.000000 0.000000
    22 -3.416720 -0.541403 4.341910 2.159625 -0.871894 0.992553
    23 4.827231 0.000000 0.000002 -1.041632 0.240026 -0.347156
    24 11.139760 0.000000 0.000000 0.000000 0.000000 -0.958334
    25 10.314597 0.000000 -0.000001 -3.815936 0.573910 -0.433428
    26 1.646739 0.449549 -1.702246 -0.161934 0.581206 -0.284024
    27 0.928312 0.000000 -0.000001 0.000000 0.000000 0.000000
    28 0.928313 -0.000001 0.000002 0.000000 0.000000 0.000000
    29 2.975833 -0.386307 -0.044143 -0.000797 -0.043611 0.000035
    30 1.438886 -0.000001 0.000000 0.000000 0.000000 0.872212
    31 1.485302 -0.000001 0.000000 0.000000 0.000000 0.907076
    32 -3.151155 -0.498833 -4.140396 -1.111184 1.142110 2.208250
    33 4.972046 0.000000 0.000000 0.738879 -0.261835 -1.490859
    34 11.585350 0.000000 0.000001 0.000000 0.000000 -1.606133
    35 10.127054 -0.000001 -0.000001 1.947696 0.173934 0.692921
    36 1.533672 0.109715 1.664490 -0.264755 -0.055971 0.783109
    37 0.928312 0.000001 0.000000 0.000000 0.000000 -0.453542
    38 0.928313 0.000000 0.000002 0.000000 0.000000 0.000000
    39 2.683747 -0.427339 0.044205 -0.005786 0.043239 -0.157091
    40 1.438886 -0.000001 0.000002 0.000000 0.000000 0.732659
    41 1.485300 0.000000 0.000000 0.000000 0.000000 1.168771
  time 4
    0 0.233849 0.368164 39.526119 0.000000 0.000000 -1.570795
    1 0.000000 0.000000 0.000000 0.000000 -1.570451 -1.570795
    2 -0.000004 0.000007 3.713254 -3.139539 0.026087 3.120120
    3 18.045721 0.000000 0.000000 0.000000 0.000000 -0.121501
    4 17.597595 0.000000 0.000000 -0.002613 0.026036 0.099967
    5 0.000004 -0.000003 -3.713254 3.139069 -0.017354 3.117144
    6 18.045725 0.000000 0.000000 0.000000 0.000000 -0.127551
    7 17.597597 0.000000 0.000000 0.002950 -0.017289 0.103055
    8 1.293671 0.684478 -0.000001 -0.000004 -0.000001 0.218799
    9 5.309686 -0.003834 0.000000 0.000000 0.000000 0.488613
    10 4.826790 -0.004591 0.000000 -0.346841 0.088854 0.239928
    11 5.792768 -0.005304 0.000000 -0.226235 0.015760 0.067565
    12 6.662314 -0.001453 0.000000 0.000000 -0.000001 -0.139840
    13 2.046984 -0.000002 0.000000 0.579422 -0.019093 -0.063363
    14 1.038628 0.548043 -0.144017 -0.000001 0.000001 -1.849906
    15 -0.064003 -0.023525 0.026161 0.000000 0.000000 0.000000
    16 3.013920 3.984632 -0.088975 -0.000001 0.000001 -1.849906
    17 -0.084188 -0.025625 -0.001098 0.000000 0.000000 0.000000
    18 4.778185 3.972485 -0.079803 -0.000001 0.000001 -1.849906
    19 -0.058556 -0.021328 0.004244 0.000000 0.000000 0.000000
    20 1.640597 -1.968779 -0.099219 -0.000001 0.000001 -1.849906
    21 0.055573 -0.028913 0.000000 0.000000 0.000000 0.000000
    22 -3.416720 -0.541403 4.341910 2.153969 -0.867739 0.996868
    23 4.827231 0.000000 0.000002 -1.042454 0.236537 -0.340330
    24 11.139760 0.000000 0.000000 0.000000 0.000000 -0.958334
    25 10.314597 0.000000 -0.000001 -3.815936 0.573910 -0.433428
    26 1.646739 0.449549 -1.702246 -0.161934 0.581206 -0.284024
    27 0.928312 0.000000 -0.000001 0.000000 0.000000 0.000000
    28 0.928313 -0.000001 0.000002 0.000000 0.000000 0.000000
    29 2.975833 -0.386307 -0.044143 -0.000797 -0.043611 0.000035
    30 1.438886 -0.000001 0.000000 0.000000 0.000000 0.872212
    31 1.485302 -0.000001 0.000000 0.000000 0.000000 0.907076
    32 -3.151155 -0.498833 -4.140396 -1.117511 1.137249 2.202498
    33 4.972046 0.000000 0.000000 0.737255 -0.255560 -1.486050
    34 11.585350 0.000000 0.000001 0.000000 0.000000 -1.606133
    35 10.127054 -0.000001 -0.000001 1.947696 0.173934 0.692921
    36 1.533672 0.109715 1.664490 -0.264755 -0.055971 0.783109
    37 0.928312 0.000001 0.000000 0.000000 0.000000 -0.453542
    38 0.928313 0.000000 0.000002 0.000000 0.000000 0.000000
    39 2.683747 -0.427339 0.044205 -0.005786 0.043239 -0.157091
    40 1.438886 -0.000001 0.000002 0.000000 0.000000 0.732659
    41 1.485300 0.000000 0.000000 0.000000 0.000000 1.168771
  time 5
    0 0.233849 0.368164 39.526119 0.000000 0.000000 -1.570795
    1 0.000000 0.000000 0.000000 0.000000 -1.570451 -1.570795
    2 -0.000004 0.000007 3.713254 -3.139539 0.026087 3.120120
    3 18.045721 0.000000 0.000000 0.000000 0.000000 -0.121501
    4 17.597595 0.000000 0.000000 -0.002613 0.026036 0.099967
    5 0.000004 -0.000003 -3.713254 3.139069 -0.017354 3.117144
    6 18.045725 0.000000 0.000000 0.000000 0.000000 -0.127551
    7 17.597597 0.000000 0.000000 0.002950 -0.017289 0.103055
    8 1.293671 0.684478 -0.000001 -0.000004 -0.000001 0.218799
    9 5.309686 -0.003834 0.000000 0.000000 0.000000 0.488613
    10 4.826790 -0.004591 0.000000 -0.346841 0.088854 0.239928
    11 5.792768 -0.005304 0.000000 -0.226137 0.017102 0.073441
    12 6.662314 -0.001453 0.000000 0.000000 -0.000001 -0.139840
    13 2.046984 -0.000002 0.000000 0.579422 -0.019093 -0.069386
    14 1.038628 0.548043 -0.144017 -0.000001 0.000001 -1.849906
    15 -0.064003 -0.023525 0.026161 0.000000 0.000000 0.000000
    16 3.013920 3.984632 -0.088975 -0.000001 0.000001 -1.849906
    17 -0.084188 -0.025625 -0.001098 0.000000 0.000000 0.000000
    18 4.778185 3.972485 -0.079803 -0.000001 0.000001 -1.849906
    19 -0.058556 -0.021328 0.004244 0.000000 0.000000 0.000000
    20 1.640597 -1.968779 -0.099219 -0.000001 0.000001 -1.849906
    21 0.055573 -0.028913 0.000000 0.000000 0.000000 0.000000
    22 -3.416720 -0.541403 4.341910 2.147929 -0.863162 1.001470
    23 4.827231 0.000000 0.000002 -1.043335 0.232792 -0.332979
    24 11.139760 0.000000 0.000000 0.000000 0.000000 -0.958334
    25 10.314597 0.000000 -0.000001 -3.815936 0.573910 -0.433428
    26 1.646739 0.449549 -1.702246 -0.161934 0.581206 -0.284024
    27 0.928312 0.000000 -0.000001 0.000000 0.000000 0.000000
    28 0.928313 -0.000001 0.000002 0.000000 0.000000 0.000000
    29 2.975833 -0.386307 -0.044143 -0.000797 -0.043611 0.000035
    30 1.438886 -0.000001 0.000000 0.000000 0.000000 0.872212
    31 1.485302 -0.000001 0.000000 0.000000 0.000000 0.907076
    32 -3.151155 -0.498833 -4.140396 -1.124222 1.131963 2.196458
    33 4.972046 0.000000 0.000000 0.735476 -0.248723 -1.480846
    34 11.585350 0.000000 0.000001 0.000000 0.000000 -1.606133
    35 10.127054 -0.000001 -0.000001 1.947696 0.173934 0.692921
    36 1.533672 0.109715 1.664490 -0.264755 -0.055971 0.783109
    37 0.928312 0.000001 0.000000 0.000000 0.000000 -0.453542
    38 0.928313 0.000000 0.000002 0.000000 0.000000 0.000000
    39 2.683747 -0.427339 0.044205 -0.005786 0.043239 -0.157091
    40 1.438886 -0.000001 0.000002 0.000000 0.000000 0.732659
    41 1.485300 0.000000 0.000000 0.000000 0.000000 1.168771
  time 6
    0 0.233849 0.368164 39.526119 0.000000 0.000000 -1.570795
    1 0.000000 0.000000 0.000000 0.000000 -1.570451 -1.570795
    2 -0.000004 0.000007 3.713254 -3.139539 0.026087 3.120120
    3 18.045721 0.000000 0.000000 0.000000 0.000000 -0.121501
    4 17.597595 0.000000 0.000000 -0.002613 0.026036 0.099967
    5 0.000004 -0.000003 -3.713254 3.139069 -0.017354 3.117144
    6 18.045725 0.000000 0.000000 0.000000 0.000000 -0.127551
    7 17.597597 0.000000 0.000000 0.002950 -0.017289 0.103055
    8 1.293671 0.684478 -0.000001 -0.000004 -0.000001 0.218799
    9 5.309686 -0.003834 0.000000 0.000000 0.000000 0.488613
    10 4.826790 -0.004591 0.000000 -0.346841 0.088854 0.239928
    11 5.792768 -0.005304 0.000000 -0.226023 0.018528 0.079608
    12 6.662314 -0.001453 0.000000 0.000000 -0.000001 -0.139840
    13 2.046984 -0.000002 0.000000 0.579422 -0.019093 -0.075724
    14 1.038628 0.548043 -0.144017 -0.000001 0.000001 -1.849906
    15 -0.064003 -0.023525 0.026161 0.000000 0.000000 0.000000
    16 3.013920 3.984632 -0.088975 -0.000001 0.000001 -1.849906
    17 -0.084188 -0.025625 -0.001098 0.000000 0.000000 0.000000
    18 4.778185 3.972485 -0.079803 -0.000001 0.000001 -1.849906
    19 -0.058556 -0.021328 0.004244 0.000000 0.000000 0.000000
    20 1.640597 -1.968779 -0.099219 -0.000001 0.000001 -1.849906
    21 0.055573 -0.028913 0.000000 0.000000 0.000000 0.000000
    22 -3.416720 -0.541403 4.341910 2.141601 -0.858354 1.006168
    23 4.827231 0.000000 0.000002 -1.044216 0.228878 -0.325191
    24 11.139760 0.000000 0.000000 0.000000 0.000000 -0.958334
    25 10.314597 0.000000 -0.000001 -3.815936 0.573910 -0.433428
    26 1.646739 0.449549 -1.702246 -0.161934 0.581206 -0.284024
    27 0.928312 0.000000 -0.000001 0.000000 0.000000 0.000000
    28 0.928313 -0.000001 0.000002 0.000000 0.000000 0.000000
    29 2.975833 -0.386307 -0.044143 -0.000797 -0.043611 0.000035
    30 1.438886 -0.000001 0.000000 0.000000 0.000000 0.872212
    31 1.485302 -0.000001 0.000000 0.000000 0.000000 0.907076
    32 -3.151155 -0.498833 -4.140396 -1.131029 1.126339 2.190226
    33 4.972046 0.000000 0.000000 0.733619 -0.241563 -1.475379
    34 11.585350 0.000000 0.000001 0.000000 0.000000 -1.606133
    35 10.127054 -0.000001 -0.000001 1.947696 0.173934 0.692921
    36 1.533672 0.109715 1.664490 -0.264755 -0.055971 0.783109
    37 0.928312 0.000001 0.000000 0.000000 0.000000 -0.453542
    38 0.928313 0.000000 0.000002 0.000000 0.000000 0.000000
    39 2.683747 -0.427339 0.044205 -0.005786 0.043239 -0.157091
    40 1.438886 -0.000001 0.000002 0.000000 0.000000 0.732659
    41 1.485300 0.000000 0.000000 0.000000 0.000000 1.168771
  time 7
    0 0.233849 0.368164 39.526119 0.000000 0.000000 -1.570795
    1 0.000000 0.000000 0.000000 0.000000 -1.570451 -1.570795
    2 -0.000004 0.000007 3.713254 -3.139539 0.026087 3.120120
    3 18.045721 0.000000 0.000000 0.000000 0.000000 -0.121501
    4 17.597595 0.000000 0.000000 -0.002613 0.026036 0.099967
    5 0.000004 -0.000003 -3.713254 3.139069 -0.017354 3.117144
    6 18.045725 0.000000 0.000000 0.000000 0.000000 -0.127551
    7 17.597597 0.000000 0.000000 0.002950 -0.017289 0.103055
    8 1.293671 0.684478 -0.000001 -0.000004 -0.000001 0.218799
    9 5.309686 -0.003834 0.000000 0.000000 0.000000 0.488613
    10 4.826790 -0.004591 0.000000 -0.346841 0.088854 0.239928
    11 5.792768 -0.005304 0.000000 -0.225909 0.019966 0.085899
    12 6.662314 -0.001453 0.000000 0.000000 -0.000001 -0.139840
    13 2.046984 -0.000002 0.000000 0.579422 -0.019093 -0.082151
    14 1.038628 0.548043 -0.144017 -0.000001 0.000001 -1.849906
    15 -0.064003 -0.023525 0.026161 0.000000 0.000000 0.000000
    16 3.013920 3.984632 -0.088975 -0.000001 0.000001 -1.849906
    17 -0.084188 -0.025625 -0.001098 0.000000 0.000000 0.000000
    18 4.778185 3.972485 -0.079803 -0.000001 0.000001 -1.849906
    19 -0.058556 -0.021328 0.004244 0.000000 0.000000 0.000000
    20 1.640597 -1.968779 -0.099219 -0.000001 0.000001 -1.849906
    21 0.055573 -0.028913 0.000000 0.000000 0.000000 0.000000
    22 -3.416720 -0.541403 4.341910 2.135274 -0.853430 1.010961
    23 4.827231 0.000000 0.000002 -1.045156 0.224793 -0.317315
    24 11.139760 0.000000 0.000000 0.000000 0.000000 -0.958334
    25 10.314597 0.000000 -0.000001 -3.815936 0.573910 -0.433428
    26 1.646739 0.449549 -1.702246 -0.161934 0.581206 -0.284024
    27 0.928312 0.000000 -0.000001 0.000000 0.000000 0.000000
    28 0.928313 -0.000001 0.000002 0.000000 0.000000 0.000000
    29 2.975833 -0.386307 -0.044143 -0.000797 -0.043611 0.000035
    30 1.438886 -0.000001 0.000000 0.000000 0.000000 0.872212
    31 1.485302 -0.000001 0.000000 0.000000 0.000000 0.907076
    32 -3.151155 -0.498833 -4.140396 -1.137932 1.120629 2.184090
    33 4.972046 0.000000 0.000000 0.731763 -0.234243 -1.469780
    34 11.585350 0.000000 0.000001 0.000000 0.000000 -1.606133
    35 10.127054 -0.000001 -0.000001 1.947696 0.173934 0.692921
    36 1.533672 0.109715 1.664490 -0.264755 -0.055971 0.783109
    37 0.928312 0.000001 0.000000 0.000000 0.000000 -0.453542
    38 0.928313 0.000000 0.000002 0.000000 0.000000 0.000000
    39 2.683747 -0.427339 0.044205 -0.005786 0.043239 -0.157091
    40 1.438886 -0.000001 0.000002 0.000000 0.000000 0.732659
    41 1.485300 0.000000 0.000000 0.000000 0.000000 1.168771
  time 8
    0 0.233849 0.368164 39.526119 0.000000 0.000000 -1.570795
    1 0.000000 0.000000 0.000000 0.000000 -1.570451 -1.570795
    2 -0.000004 0.000007 3.713254 -3.139539 0.026087 3.120120
    3 18.045721 0.000000 0.000000 0.000000 0.000000 -0.121501
    4 17.597595 0.000000 0.000000 -0.002613 0.026036 0.099967
    5 0.000004 -0.000003 -3.713254 3.139069 -0.017354 3.117144
    6 18.045725 0.000000 0.000000 0.000000 0.000000 -0.127551
    7 17.597597 0.000000 0.000000 0.002950 -0.017289 0.103055
    8 1.293671 0.684478 -0.000001 -0.000004 -0.000001 0.218799
    9 5.309686 -0.003834 0.000000 0.000000 0.000000 0.488613
    10 4.826790 -0.004591 0.000000 -0.346841 0.088854 0.239928
    11 5.792768 -0.005304 0.000000 -0.225778 0.021404 0.092107
    12 6.662314 -0.001453 0.000000 0.000000 -0.000001 -0.139840
    13 2.046984 -0.000002 0.000000 0.579422 -0.019093 -0.088534
    14 1.038628 0.548043 -0.144017 -0.000001 0.000001 -1.849906
    15 -0.064003 -0.023525 0.026161 0.000000 0.000000 0.000000
    16 3.013920 3.984632 -0.088975 -0.000001 0.000001 -1.849906
    17 -0.084188 -0.025625 -0.001098 0.000000 0.000000 0.000000
    18 4.778185 3.972485 -0.079803 -0.000001 0.000001 -1.849906
    19 -0.058556 -0.021328 0.004244 0.000000 0.000000 0.000000
    20 1.640597 -1.968779 -0.099219 -0.000001 0.000001 -1.849906
    21 0.055573 -0.028913 0.000000 0.000000 0.000000 0.000000
    22 -3.416720 -0.541403 4.341910 2.129042 -0.848545 1.015659
    23 4.827231 0.000000 0.000002 -1.046096 0.220708 -0.309439
    24 11.139760 0.000000 0.000000 0.000000 0.000000 -0.958334
    25 10.314597 0.000000 -0.000001 -3.815936 0.573910 -0.433428
    26 1.646739 0.449549 -1.702246 -0.161934 0.581206 -0.284024
    27 0.928312 0.000000 -0.000001 0.000000 0.000000 0.000000
    28 0.928313 -0.000001 0.000002 0.000000 0.000000 0.000000
    29 2.975833 -0.386307 -0.044143 -0.000797 -0.043611 0.000035
    30 1.438886 -0.000001 0.000000 0.000000 0.000000 0.872212
    31 1.485302 -0.000001 0.000000 0.000000 0.000000 0.907076
    32 -3.151155 -0.498833 -4.140396 -1.144548 1.114920 2.178050
    33 4.972046 0.000000 0.000000 0.729906 -0.227004 -1.464247
    34 11.585350 0.000000 0.000001 0.000000 0.000000 -1.606133
    35 10.127054 -0.000001 -0.000001 1.947696 0.173934 0.692921
    36 1.533672 0.109715 1.664490 -0.264755 -0.055971 0.783109
    37 0.928312 0.000001 0.000000 0.000000 0.000000 -0.453542
    38 0.928313 0.000000 0.000002 0.000000 0.000000 0.000000
    39 2.683747 -0.427339 0.044205 -0.005786 0.043239 -0.157091
    40 1.438886 -0.000001 0.000002 0.000000 0.000000 0.732659
    41 1.485300 0.000000 0.000000 0.000000 0.000000 1.168771
  time 9
    0 0.233849 0.368164 39.526119 0.000000 0.000000 -1.570795
    1 0.000000 0.000000 0.000000 0.000000 -1.570451 -1.570795
    2 -0.000004 0.000007 3.713254 -3.139539 0.026087 3.120120
    3 18.045721 0.000000 0.000000 0.000000 0.000000 -0.121501
    4 17.597595 0.000000 0.000000 -0.002613 0.026036 0.099967
    5 0.000004 -0.000003 -3.713254 3.139069 -0.017354 3.117144
    6 18.045725 0.000000 0.000000 0.000000 0.000000 -0.127551
    7 17.597597 0.000000 0.000000 0.002950 -0.017289 0.103055
    8 1.293671 0.684478 -0.000001 -0.000004 -0.000001 0.218799
    9 5.309686 -0.003834 0.000000 0.000000 0.000000 0.488613
    10 4.826790 -0.004591 0.000000 -0.346841 0.088854 0.239928
    11 5.792768 -0.005304 0.000000 -0.225648 0.022771 0.098107
    12 6.662314 -0.001453 0.000000 0.000000 -0.000001 -0.139840
    13 2.046984 -0.000002 0.000000 0.579422 -0.019093 -0.094691
    14 1.038628 0.548043 -0.144017 -0.000001 0.000001 -1.849906
    15 -0.064003 -0.023525 0.026161 0.000000 0.000000 0.000000
    16 3.013920 3.984632 -0.088975 -0.000001 0.000001 -1.849906
    17 -0.084188 -0.025625 -0.001098 0.000000 0.000000 0.000000
    18 4.778185 3.972485 -0.079803 -0.000001 0.000001 -1.849906
    19 -0.058556 -0.021328 0.004244 0.000000 0.000000 0.000000
    20 1.640597 -1.968779 -0.099219 -0.000001 0.000001 -1.849906
    21 0.055573 -0.028913 0.000000 0.000000 0.000000 0.000000
    22 -3.416720 -0.541403 4.341910 2.123194 -0.843814 1.020070
    23 4.827231 0.000000 0.000002 -1.046977 0.216878 -0.301913
    24 11.139760 0.000000 0.000000 0.000000 0.000000 -0.958334
    25 10.314597 0.000000 -0.000001 -3.815936 0.573910 -0.433428
    26 1.646739 0.449549 -1.702246 -0.161934 0.581206 -0.284024
    27 0.928312 0.000000 -0.000001 0.000000 0.000000 0.000000
    28 0.928313 -0.000001 0.000002 0.000000 0.000000 0.000000
    29 2.975833 -0.386307 -0.044143 -0.000797 -0.043611 0.000035
    30 1.438886 -0.000001 0.000000 0.000000 0.000000 0.872212
    31 1.485302 -0.000001 0.000000 0.000000 0.000000 0.907076
    32 -3.151155 -0.498833 -4.140396 -1.150779 1.109437 2.172489
    33 4.972046 0.000000 0.000000 0.728127 -0.220005 -1.458977
    34 11.585350 0.000000 0.000001 0.000000 0.000000 -1.606133
    35 10.127054 -0.000001 -0.000001 1.947696 0.173934 0.692921
    36 1.533672 0.109715 1.664490 -0.264755 -0.055971 0.783109
    37 0.928312 0.000001 0.000000 0.000000 0.000000 -0.453542
    38 0.928313 0.000000 0.000002 0.000000 0.000000 0.000000
    39 2.683747 -0.427339 0.044205 -0.005786 0.043239 -0.157091
    40 1.438886 -0.000001 0.000002 0.000000 0.000000 0.732659
    41 1.485300 0.000000 0.000000 0.000000 0.000000 1.168771
  time 10
    0 0.233849 0.368164 39.526119 0.000000 0.000000 -1.570795
    1 0.000000 0.000000 0.000000 0.000000 -1.570451 -1.570795
    2 -0.000004 0.000007 3.713254 -3.139539 0.026087 3.120120
    3 18.045721 0.000000 0.000000 0.000000 0.000000 -0.121501
    4 17.597595 0.000000 0.000000 -0.002613 0.026036 0.099967
    5 0.000004 -0.000003 -3.713254 3.139069 -0.017354 3.117144
    6 18.045725 0.000000 0.000000 0.000000 0.000000 -0.127551
    7 17.597597 0.000000 0.000000 0.002950 -0.017289 0.103055
    8 1.293671 0.684478 -0.000001 -0.000004 -0.000001 0.218799
    9 5.309686 -0.003834 0.000000 0.000000 0.000000 0.488613
    10 4.826790 -0.004591 0.000000 -0.346841 0.088854 0.239928
    11 5.792768 -0.005304 0.000000 -0.225517 0.024053 0.103672
    12 6.662314 -0.001453 0.000000 0.000000 -0.000001 -0.139840
    13 2.046984 -0.000002 0.000000 0.579422 -0.019093 -0.100400
    14 1.038628 0.548043 -0.144017 -0.000001 0.000001 -1.849906
    15 -0.064003 -0.023525 0.026161 0.000000 0.000000 0.000000
    16 3.013920 3.984632 -0.088975 -0.000001 0.000001 -1.849906
    17 -0.084188 -0.025625 -0.001098 0.000000 0.000000 0.000000
    18 4.778185 3.972485 -0.079803 -0.000001 0.000001 -1.849906
    19 -0.058556 -0.021328 0.004244 0.000000 0.000000 0.000000
    20 1.640597 -1.968779 -0.099219 -0.000001 0.000001 -1.849906
    21 0.055573 -0.028913 0.000000 0.000000 0.000000 0.000000
    22 -3.416720 -0.541403 4.341910 2.117729 -0.839390 1.024192
    23 4.827231 0.000000 0.000002 -1.047799 0.213219 -0.294912
    24 11.139760 0.000000 0.000000 0.000000 0.000000 -0.958334
    25 10.314597 0.000000 -0.000001 -3.815936 0.573910 -0.433428
    26 1.646739 0.449549 -1.702246 -0.161934 0.581206 -0.284024
    27 0.928312 0.000000 -0.000001 0.000000 0.000000 0.000000
    28 0.928313 -0.000001 0.000002 0.000000 0.000000 0.000000
    29 2.975833 -0.386307 -0.044143 -0.000797 -0.043611 0.000035
    30 1.438886 -0.000001 0.000000 0.000000 0.000000 0.872212
    31 1.485302 -0.000001 0.000000 0.000000 0.000000 0.907076
    32 -3.151155 -0.498833 -4.140396 -1.156436 1.104321 2.167408
    33 4.972046 0.000000 0.000000 0.726502 -0.213570 -1.454036
    34 11.585350 0.000000 0.000001 0.000000 0.000000 -1.606133
    35 10.127054 -0.000001 -0.000001 1.947696 0.173934 0.692921
    36 1.533672 0.109715 1.664490 -0.264755 -0.055971 0.783109
    37 0.928312 0.000001 0.000000 0.000000 0.000000 -0.453542
    38 0.928313 0.000000 0.000002 0.000000 0.000000 0.000000
    39 2.683747 -0.427339 0.044205 -0.005786 0.043239 -0.157091
    40 1.438886 -0.000001 0.000002 0.000000 0.000000 0.732659
    41 1.485300 0.000000 0.000000 0.000000 0.000000 1.168771
  time 11
    0 0.233849 0.368164 39.526119 0.000000 0.000000 -1.570795
    1 0.000000 0.000000 0.000000 0.000000 -1.570451 -1.570795
    2 -0.000004 0.000007 3.713254 -3.139539 0.026087 3.120120
    3 18.045721 0.000000 0.000000 0.000000 0.000000 -0.121501
    4 17.597595 0.000000 0.000000 -0.002613 0.026036 0.099967
    5 0.000004 -0.000003 -3.713254 3.139069 -0.017354 3.117144
    6 18.045725 0.000000 0.000000 0.000000 0.000000 -0.127551
    7 17.597597 0.000000 0.000000 0.002950 -0.017289 0.103055
    8 1.293671 0.684478 -0.000001 -0.000004 -0.000001 0.218799
    9 5.309686 -0.003834 0.000000 0.000000 0.000000 0.488613
    10 4.826790 -0.004591 0.000000 -0.346841 0.088854 0.239928
    11 5.792768 -0.005304 0.000000 -0.225387 0.025192 0.108634
    12 6.662314 -0.001453 0.000000 0.000000 -0.000001 -0.139840
    13 2.046984 -0.000002 0.000000 0.579422 -0.019093 -0.105479
    14 1.038628 0.548043 -0.144017 -0.000001 0.000001 -1.849906
    15 -0.064003 -0.023525 0.026161 0.000000 0.000000 0.000000
    16 3.013920 3.984632 -0.088975 -0.000001 0.000001 -1.849906
    17 -0.084188 -0.025625 -0.001098 0.000000 0.000000 0.000000
    18 4.778185 3.972485 -0.079803 -0.000001 0.000001 -1.849906
    19 -0.058556 -0.021328 0.004244 0.000000 0.000000 0.000000
    20 1.640597 -1.968779 -0.099219 -0.000001 0.000001 -1.849906
    21 0.055573 -0.028913 0.000000 0.000000 0.000000 0.000000
    22 -3.416720 -0.541403 4.341910 2.112935 -0.835466 1.027740
    23 4.827231 0.000000 0.000002 -1.048504 0.209985 -0.288699
    24 11.139760 0.000000 0.000000 0.000000 0.000000 -0.958334
    25 10.314597 0.000000 -0.000001 -3.815936 0.573910 -0.433428
    26 1.646739 0.449549 -1.702246 -0.161934 0.581206 -0.284024
    27 0.928312 0.000000 -0.000001 0.000000 0.000000 0.000000
    28 0.928313 -0.000001 0.000002 0.000000 0.000000 0.000000
    29 2.975833 -0.386307 -0.044143 -0.000797 -0.043611 0.000035
    30 1.438886 -0.000001 0.000000 0.000000 0.000000 0.872212
    31 1.485302 -0.000001 0.000000 0.000000 0.000000 0.907076
    32 -3.151155 -0.498833 -4.140396 -1.161421 1.099770 2.162998
    33 4.972046 0.000000 0.000000 0.725033 -0.207778 -1.449689
    34 11.585350 0.000000 0.000001 0.000000 0.000000 -1.606133
    35 10.127054 -0.000001 -0.000001 1.947696 0.173934 0.692921
    36 1.533672 0.109715 1.664490 -0.264755 -0.055971 0.783109
    37 0.928312 0.000001 0.000000 0.000000 0.000000 -0.453542
    38 0.928313 0.000000 0.000002 0.000000 0.000000 0.000000
    39 2.683747 -0.427339 0.044205 -0.005786 0.043239 -0.157091
    40 1.438886 -0.000001 0.000002 0.000000 0.000000 0.732659
    41 1.485300 0.000000 0.000000 0.000000 0.000000 1.168771
  time 12
    0 0.233849 0.368164 39.526119 0.000000 0.000000 -1.570795
    1 0.000000 0.000000 0.000000 0.000000 -1.570451 -1.570795
    2 -0.000004 0.000007 3.713254 -3.139539 0.026087 3.120120
    3 18.045721 0.000000 0.000000 0.000000 0.000000 -0.121501
    4 17.597595 0.000000 0.000000 -0.002613 0.026036 0.099967
    5 0.000004 -0.000003 -3.713254 3.139069 -0.017354 3.117144
    6 18.045725 0.000000 0.000000 0.000000 0.000000 -0.127551
    7 17.597597 0.000000 0.000000 0.002950 -0.017289 0.103055
    8 1.293671 0.684478 -0.000001 -0.000004 -0.000001 0.218799
    9 5.309686 -0.003834 0.000000 0.000000 0.000000 0.488613
    10 4.826790 -0.004591 0.000000 -0.346841 0.088854 0.239928
    11 5.792768 -0.005304 0.000000 -0.225289 0.026150 0.112787
    12 6.662314 -0.001453 0.000000 0.000000 -0.000001 -0.139840
    13 2.046984 -0.000002 0.000000 0.579422 -0.019093 -0.109749
    14 1.038628 0.548043 -0.144017 -0.000001 0.000001 -1.849906
    15 -0.064003 -0.023525 0.026161 0.000000 0.000000 0.000000
    16 3.013920 3.984632 -0.088975 -0.000001 0.000001 -1.849906
    17 -0.084188 -0.025625 -0.001098 0.000000 0.000000 0.000000
    18 4.778185 3.972485 -0.079803 -0.000001 0.000001 -1.849906
    19 -0.058556 -0.021328 0.004244 0.000000 0.000000 0.000000
    20 1.640597 -1.968779 -0.099219 -0.000001 0.000001 -1.849906
    21 0.055573 -0.028913 0.000000 0.000000 0.000000 0.000000
    22 -3.416720 -0.541403 4.341910 2.108908 -0.832120 1.030712
    23 4.827231 0.000000 0.000002 -1.049150 0.207177 -0.283535
    24 11.139760 0.000000 0.000000 0.000000 0.000000 -0.958334
    25 10.314597 0.000000 -0.000001 -3.815936 0.573910 -0.433428
    26 1.646739 0.449549 -1.702246 -0.161934 0.581206 -0.284024
    27 0.928312 0.000000 -0.000001 0.000000 0.000000 0.000000
    28 0.928313 -0.000001 0.000002 0.000000 0.000000 0.000000
    29 2.975833 -0.386307 -0.044143 -0.000797 -0.043611 0.000035
    30 1.438886 -0.000001 0.000000 0.000000 0.000000 0.872212
    31 1.485302 -0.000001 0.000000 0.000000 0.000000 0.907076
    32 -3.151155 -0.498833 -4.140396 -1.165448 1.095898 2.159355
    33 4.972046 0.000000 0.000000 0.723795 -0.202952 -1.446000
    34 11.585350 0.000000 0.000001 0.000000 0.000000 -1.606133
    35 10.127054 -0.000001 -0.000001 1.947696 0.173934 0.692921
    36 1.533672 0.109715 1.664490 -0.264755 -0.055971 0.783109
    37 0.928312 0.000001 0.000000 0.000000 0.000000 -0.453542
    38 0.928313 0.000000 0.000002 0.000000 0.000000 0.000000
    39 2.683747 -0.427339 0.044205 -0.005786 0.043239 -0.157091
    40 1.438886 -0.000001 0.000002 0.000000 0.000000 0.732659
    41 1.485300 0.000000 0.000000 0.000000 0.000000 1.168771
  time 13
    0 0.233849 0.368164 39.526119 0.000000 0.000000 -1.570795
    1 0.000000 0.000000 0.000000 0.000000 -1.570451 -1.570795
    2 -0.000004 0.000007 3.713254 -3.139539 0.026087 3.120120
    3 18.045721 0.000000 0.000000 0.000000 0.000000 -0.121501
    4 17.597595 0.000000 0.000000 -0.002613 0.026036 0.099967
    5 0.000004 -0.000003 -3.713254 3.139069 -0.017354 3.117144
    6 18.045725 0.000000 0.000000 0.000000 0.000000 -0.127551
    7 17.597597 0.000000 0.000000 0.002950 -0.017289 0.103055
    8 1.293671 0.684478 -0.000001 -0.000004 -0.000001 0.218799
    9 5.309686 -0.003834 0.000000 0.000000 0.000000 0.488613
    10 4.826790 -0.004591 0.000000 -0.346841 0.088854 0.239928
    11 5.792768 -0.005304 0.000000 -0.225191 0.026881 0.116005
    12 6.662314 -0.001453 0.000000 0.000000 -0.000001 -0.139840
    13 2.046984 -0.000002 0.000000 0.579422 -0.019093 -0.113030
    14 1.038628 0.548043 -0.144017 -0.000001 0.000001 -1.849906
    15 -0.064003 -0.023525 0.026161 0.000000 0.000000 0.000000
    16 3.013920 3.984632 -0.088975 -0.000001 0.000001 -1.849906
    17 -0.084188 -0.025625 -0.001098 0.000000 0.000000 0.000000
    18 4.778185 3.972485 -0.079803 -0.000001 0.000001 -1.849906
    19 -0.058556 -0.021328 0.004244 0.000000 0.000000 0.000000
    20 1.640597 -1.968779 -0.099219 -0.000001 0.000001 -1.849906
    21 0.055573 -0.028913 0.000000 0.000000 0.000000 0.000000
    22 -3.416720 -0.541403 4.341910 2.105841 -0.829581 1.032917
    23 4.827231 0.000000 0.000002 -1.049620 0.205049 -0.279510
    24 11.139760 0.000000 0.000000 0.000000 0.000000 -0.958334
    25 10.314597 0.000000 -0.000001 -3.815936 0.573910 -0.433428
    26 1.646739 0.449549 -1.702246 -0.161934 0.581206 -0.284024
    27 0.928312 0.000000 -0.000001 0.000000 0.000000 0.000000
    28 0.928313 -0.000001 0.000002 0.000000 0.000000 0.000000
    29 2.975833 -0.386307 -0.044143 -0.000797 -0.043611 0.000035
    30 1.438886 -0.000001 0.000000 0.000000 0.000000 0.872212
    31 1.485302 -0.000001 0.000000 0.000000 0.000000 0.907076
    32 -3.151155 -0.498833 -4.140396 -1.168612 1.092930 2.156574
    33 4.972046 0.000000 0.000000 0.722867 -0.199252 -1.443167
    34 11.585350 0.000000 0.000001 0.000000 0.000000 -1.606133
    35 10.127054 -0.000001 -0.000001 1.947696 0.173934 0.692921
    36 1.533672 0.109715 1.664490 -0.264755 -0.055971 0.783109
    37 0.928312 0.000001 0.000000 0.000000 0.000000 -0.453542
    38 0.928313 0.000000 0.000002 0.000000 0.000000 0.000000
    39 2.683747 -0.427339 0.044205 -0.005786 0.043239 -0.157091
    40 1.438886 -0.000001 0.000002 0.000000 0.000000 0.732659
    41 1.485300 0.000000 0.000000 0.000000 0.000000 1.168771
  time 14
    0 0.233849 0.368164 39.526119 0.000000 0.000000 -1.570795
    1 0.000000 0.000000 0.000000 0.000000 -1.570451 -1.570795
    2 -0.000004 0.000007 3.713254 -3.139539 0.026087 3.120120
    3 18.045721 0.000000 0.000000 0.000000 0.000000 -0.121501
    4 17.597595 0.000000 0.000000 -0.002613 0.026036 0.099967
    5 0.000004 -0.000003 -3.713254 3.139069 -0.017354 3.117144
    6 18.045725 0.000000 0.000000 0.000000 0.000000 -0.127551
    7 17.597597 0.000000 0.000000 0.002950 -0.017289 0.103055
    8 1.293671 0.684478 -0.000001 -0.000004 -0.000001 0.218799
    9 5.309686 -0.003834 0.000000 0.000000 0.000000 0.488613
    10 4.826790 -0.004591 0.000000 -0.346841 0.088854 0.239928
    11 5.792768 -0.005304 0.000000 -0.225142 0.027349 0.118060
    12 6.662314 -0.001453 0.000000 0.000000 -0.000001 -0.139840
    13 2.046984 -0.000002 0.000000 0.579422 -0.019093 -0.115143
    14 1.038628 0.548043 -0.144017 -0.000001 0.000001 -1.849906
    15 -0.064003 -0.023525 0.026161 0.000000 0.000000 0.000000
    16 3.013920 3.984632 -0.088975 -0.000001 0.000001 -1.849906
    17 -0.084188 -0.025625 -0.001098 0.000000 0.000000 0.000000
    18 4.778185 3.972485 -0.079803 -0.000001 0.000001 -1.849906
    19 -0.058556 -0.021328 0.004244 0.000000 0.000000 0.000000
    20 1.640597 -1.968779 -0.099219 -0.000001 0.000001 -1.849906
    21 0.055573 -0.028913 0.000000 0.000000 0.000000 0.000000
    22 -3.416720 -0.541403 4.341910 2.103923 -0.827927 1.034355
    23 4.827231 0.000000 0.000002 -1.049914 0.203688 -0.276884
    24 11.139760 0.000000 0.000000 0.000000 0.000000 -0.958334
    25 10.314597 0.000000 -0.000001 -3.815936 0.573910 -0.433428
    26 1.646739 0.449549 -1.702246 -0.161934 0.581206 -0.284024
    27 0.928312 0.000000 -0.000001 0.000000 0.000000 0.000000
    28 0.928313 -0.000001 0.000002 0.000000 0.000000 0.000000
    29 2.975833 -0.386307 -0.044143 -0.000797 -0.043611 0.000035
    30 1.438886 -0.000001 0.000000 0.000000 0.000000 0.872212
    31 1.485302 -0.000001 0.000000 0.000000 0.000000 0.907076
    32 -3.151155 -0.498833 -4.140396 -1.170529 1.091037 2.154849
    33 4.972046 0.000000 0.000000 0.722248 -0.196838 -1.441389
    34 11.585350 0.000000 0.000001 0.000000 0.000000 -1.606133
    35 10.127054 -0.000001 -0.000001 1.947696 0.173934 0.692921
    36 1.533672 0.109715 1.664490 -0.264755 -0.055971 0.783109
    37 0.928312 0.000001 0.000000 0.000000 0.000000 -0.453542
    38 0.928313 0.000000 0.000002 0.000000 0.000000 0.000000
    39 2.683747 -0.427339 0.044205 -0.005786 0.043239 -0.157091
    40 1.438886 -0.000001 0.000002 0.000000 0.000000 0.732659
    41 1.485300 0.000000 0.000000 0.000000 0.000000 1.168771
  time 15
    0 0.233849 0.368164 39.526119 0.000000 0.000000 -1.570795
    1 0.000000 0.000000 0.000000 0.000000 -1.570451 -1.570795
    2 -0.000004 0.000007 3.713254 -3.139539 0.026087 3.120120
    3 18.045721 0.000000 0.000000 0.000000 0.000000 -0.121501
    4 17.597595 0.000000 0.000000 -0.002613 0.026036 0.099967
    5 0.000004 -0.000003 -3.713254 3.139069 -0.017354 3.117144
    6 18.045725 0.000000 0.000000 0.000000 0.000000 -0.127551
    7 17.597597 0.000000 0.000000 0.002950 -0.017289 0.103055
    8 1.293671 0.684478 -0.000001 -0.000004 -0.000001 0.218799
    9 5.309686 -0.003834 0.000000 0.000000 0.000000 0.488613
    10 4.826790 -0.004591 0.000000 -0.346841 0.088854 0.239928
    11 5.792768 -0.005304 0.000000 -0.225126 0.027517 0.118787
    12 6.662314 -0.001453 0.000000 0.000000 -0.000001 -0.139840
    13 2.046984 -0.000002 0.000000 0.579422 -0.019093 -0.115907
    14 1.038628 0.548043 -0.144017 -0.000001 0.000001 -1.849906
    15 -0.064003 -0.023525 0.026161 0.000000 0.000000 0.000000
    16 3.013920 3.984632 -0.088975 -0.000001 0.000001 -1.849906
    17 -0.084188 -0.025625 -0.001098 0.000000 0.000000 0.000000
    18 4.778185 3.972485 -0.079803 -0.000001 0.000001 -1.849906
    19 -0.058556 -0.021328 0.004244 0.000000 0.000000 0.000000
    20 1.640597 -1.968779 -0.099219 -0.000001 0.000001 -1.849906
    21 0.055573 -0.028913 0.000000 0.000000 0.000000 0.000000
    22 -3.416720 -0.541403 4.341910 2.103252 -0.827350 1.034930
    23 4.827231 0.000000 0.000002 -1.050031 0.203262 -0.276009
    24 11.139760 0.000000 0.000000 0.000000 0.000000 -0.958334
    25 10.314597 0.000000 -0.000001 -3.815936 0.573910 -0.433428
    26 1.646739 0.449549 -1.702246 -0.161934 0.581206 -0.284024
    27 0.928312 0.000000 -0.000001 0.000000 0.000000 0.000000
    28 0.928313 -0.000001 0.000002 0.000000 0.000000 0.000000
    29 2.975833 -0.386307 -0.044143 -0.000797 -0.043611 0.000035
    30 1.438886 -0.000001 0.000000 0.000000 0.000000 0.872212
    31 1.485302 -0.000001 0.000000 0.000000 0.000000 0.907076
    32 -3.151155 -0.498833 -4.140396 -1.171296 1.090358 2.154273
    33 4.972046 0.000000 0.000000 0.722016 -0.196034 -1.440730
    34 11.585350 0.000000 0.000001 0.000000 0.000000 -1.606133
    35 10.127054 -0.000001 -0.000001 1.947696 0.173934 0.692921
    36 1.533672 0.109715 1.664490 -0.264755 -0.055971 0.783109
    37 0.928312 0.000001 0.000000 0.000000 0.000000 -0.453542
    38 0.928313 0.000000 0.000002 0.000000 0.000000 0.000000
    39 2.683747 -0.427339 0.044205 -0.005786 0.043239 -0.157091
    40 1.438886 -0.000001 0.000002 0.000000 0.000000 0.732659
    41 1.485300 0.000000 0.000000 0.000000 0.000000 1.168771
  time 16
    0 0.233849 0.368164 39.526119 0.000000 0.000000 -1.570795
    1 0.000000 0.000000 0.000000 0.000000 -1.570451 -1.570795
    2 -0.000004 0.000007 3.713254 -3.139539 0.026087 3.120120
    3 18.045721 0.000000 0.000000 0.000000 0.000000 -0.121501
    4 17.597595 0.000000 0.000000 -0.002613 0.026036 0.099967
    5 0.000004 -0.000003 -3.713254 3.139069 -0.017354 3.117144
    6 18.045725 0.000000 0.000000 0.000000 0.000000 -0.127551
    7 17.597597 0.000000 0.000000 0.002950 -0.017289 0.103055
    8 1.293671 0.684478 -0.000001 -0.000004 -0.000001 0.218799
    9 5.309686 -0.003834 0.000000 0.000000 0.000000 0.488613
    10 4.826790 -0.004591 0.000000 -0.346841 0.088854 0.239928
    11 5.792768 -0.005304 0.000000 -0.225142 0.027349 0.118060
    12 6.662314 -0.001453 0.000000 0.000000 -0.000001 -0.139840
    13 2.046984 -0.000002 0.000000 0.579422 -0.019093 -0.115143
    14 1.038628 0.548043 -0.144017 -0.000001 0.000001 -1.849906
    15 -0.064003 -0.023525 0.026161 0.000000 0.000000 0.000000
    16 3.013920 3.984632 -0.088975 -0.000001 0.000001 -1.849906
    17 -0.084188 -0.025625 -0.001098 0.000000 0.000000 0.000000
    18 4.778185 3.972485 -0.079803 -0.000001 0.000001 -1.849906
    19 -0.058556 -0.021328 0.004244 0.000000 0.000000 0.000000
    20 1.640597 -1.968779 -0.099219 -0.000001 0.000001 -1.849906
    21 0.055573 -0.028913 0.000000 0.000000 0.000000 0.000000
    22 -3.416720 -0.541403 4.341910 2.103923 -0.827927 1.034355
    23 4.827231 0.000000 0.000002 -1.049914 0.203688 -0.276884
    24 11.139760 0.000000 0.000000 0.000000 0.000000 -0.958334
    25 10.314597 0.000000 -0.000001 -3.815936 0.573910 -0.433428
    26 1.646739 0.449549 -1.702246 -0.161934 0.581206 -0.284024
    27 0.928312 0.000000 -0.000001 0.000000 0.000000 0.000000
    28 0.928313 -0.000001 0.000002 0.000000 0.000000 0.000000
    29 2.975833 -0.386307 -0.044143 -0.000797 -0.043611 0.000035
    30 1.438886 -0.000001 0.000000 0.000000 0.000000 0.872212
    31 1.485302 -0.000001 0.000000 0.000000 0.000000 0.907076
    32 -3.151155 -0.498833 -4.140396 -1.170529 1.091037 2.154849
    33 4.972046 0.000000 0.000000 0.722248 -0.196838 -1.441389
    34 11.585350 0.000000 0.000001 0.000000 0.000000 -1.606133
    35 10.127054 -0.000001 -0.000001 1.947696 0.173934 0.692921
    36 1.533672 0.109715 1.664490 -0.264755 -0.055971 0.783109
    37 0.928312 0.000001 0.000000 0.000000 0.000000 -0.453542
    38 0.928313 0.000000 0.000002 0.000000 0.000000 0.000000
    39 2.683747 -0.427339 0.044205 -0.005786 0.043239 -0.157091
    40 1.438886 -0.000001 0.000002 0.000000 0.000000 0.732659
    41 1.485300 0.000000 0.000000 0.000000 0.000000 1.168771
  time 17
    0 0.233849 0.368164 39.526119 0.000000 0.000000 -1.570795
    1 0.000000 0.000000 0.000000 0.000000 -1.570451 -1.570795
    2 -0.000004 0.000007 3.713254 -3.139539 0.026087 3.120120
    3 18.045721 0.000000 0.000000 0.000000 0.000000 -0.121501
    4 17.597595 0.000000 0.000000 -0.002613 0.026036 0.099967
    5 0.000004 -0.000003 -3.713254 3.139069 -0.017354 3.117144
    6 18.045725 0.000000 0.000000 0.000000 0.000000 -0.127551
    7 17.597597 0.000000 0.000000 0.002950 -0.017289 0.103055
    8 1.293671 0.684478 -0.000001 -0.000004 -0.000001 0.218799
    9 5.309686 -0.003834 0.000000 0.000000 0.000000 0.488613
    10 4.826790 -0.004591 0.000000 -0.346841 0.088854 0.239928
    11 5.792768 -0.005304 0.000000 -0.225191 0.026881 0.116005
    12 6.662314 -0.001453 0.000000 0.000000 -0.000001 -0.139840
    13 2.046984 -0.000002 0.000000 0.579422 -0.019093 -0.113030
    14 1.038628 0.548043 -0.144017 -0.000001 0.000001 -1.849906
    15 -0.064003 -0.023525 0.026161 0.000000 0.000000 0.000000
    16 3.013920 3.984632 -0.088975 -0.000001 0.000001 -1.849906
    17 -0.084188 -0.025625 -0.001098 0.000000 0.000000 0.000000
    18 4.778185 3.972485 -0.079803 -0.000001 0.000001 -1.849906
    19 -0.058556 -0.021328 0.004244 0.000000 0.000000 0.000000
    20 1.640597 -1.968779 -0.099219 -0.000001 0.000001 -1.849906
    21 0.055573 -0.028913 0.000000 0.000000 0.000000 0.000000
    22 -3.416720 -0.541403 4.341910 2.105841 -0.829581 1.032917
    23 4.827231 0.000000 0.000002 -1.049620 0.205049 -0.279510
    24 11.139760 0.000000 0.000000 0.000000 0.000000 -0.958334
    25 10.314597 0.000000 -0.000001 -3.815936 0.573910 -0.433428
    26 1.646739 0.449549 -1.702246 -0.161934 0.581206 -0.284024
    27 0.928312 0.000000 -0.000001 0.000000 0.000000 0.000000
    28 0.928313 -0.000001 0.000002 0.000000 0.000000 0.000000
    29 2.975833 -0.386307 -0.044143 -0.000797 -0.043611 0.000035
    30 1.438886 -0.000001 0.000000 0.000000 0.000000 0.872212
    31 1.485302 -0.000001 0.000000 0.000000 0.000000 0.907076
    32 -3.151155 -0.498833 -4.140396 -1.168612 1.092930 2.156574
    33 4.972046 0.000000 0.000000 0.722867 -0.199252 -1.443167
    34 11.585350 0.000000 0.000001 0.000000 0.000000 -1.606133
    35 10.127054 -0.000001 -0.000001 1.947696 0.173934 0.692921
    36 1.533672 0.109715 1.664490 -0.264755 -0.055971 0.783109
    37 0.928312 0.000001 0.000000 0.000000 0.000000 -0.453542
    38 0.928313 0.000000 0.000002 0.000000 0.000000 0.000000
    39 2.683747 -0.427339 0.044205 -0.005786 0.043239 -0.157091
    40 1.438886 -0.000001 0.000002 0.000000 0.000000 0.732659
    41 1.485300 0.000000 0.000000 0.000000 0.000000 1.168771
  time 18
    0 0.233849 0.368164 39.526119 0.000000 0.000000 -1.570795
    1 0.000000 0.000000 0.000000 0.000000 -1.570451 -1.570795
    2 -0.000004 0.000007 3.713254 -3.139539 0.026087 3.120120
    3 18.045721 0.000000 0.000000 0.000000 0.000000 -0.121501
    4 17.597595 0.000000 0.000000 -0.002613 0.026036 0.099967
    5 0.000004 -0.000003 -3.713254 3.139069 -0.017354 3.117144
    6 18.045725 0.000000 0.000000 0.000000 0.000000 -0.127551
    7 17.597597 0.000000 0.000000 0.002950 -0.017289 0.103055
    8 1.293671 0.684478 -0.000001 -0.000004 -0.000001 0.218799
    9 5.309686 -0.003834 0.000000 0.000000 0.000000 0.488613
    10 4.826790 -0.004591 0.000000 -0.346841 0.088854 0.239928
    11 5.792768 -0.005304 0.000000 -0.225289 0.026150 0.112787
    12 6.662314 -0.001453 0.000000 0.000000 -0.000001 -0.139840
    13 2.046984 -0.000002 0.000000 0.579422 -0.019093 -0.109749
    14 1.038628 0.548043 -0.144017 -0.000001 0.000001 -1.849906
    15 -0.064003 -0.023525 0.026161 0.000000 0.000000 0.000000
    16 3.013920 3.984632 -0.088975 -0.000001 0.000001 -1.849906
    17 -0.084188 -0.025625 -0.001098 0.000000 0.000000 0.000000
    18 4.778185 3.972485 -0.079803 -0.000001 0.000001 -1.849906
    19 -0.058556 -0.021328 0.004244 0.000000 0.000000 0.000000
    20 1.640597 -1.968779 -0.099219 -0.000001 0.000001 -1.849906
    21 0.055573 -0.028913 0.000000 0.000000 0.000000 0.000000
    22 -3.416720 -0.541403 4.341910 2.108908 -0.832120 1.030712
    23 4.827231 0.000000 0.000002 -1.049150 0.207177 -0.283535
    24 11.139760 0.000000 0.000000 0.000000 0.000000 -0.958334
    25 10.314597 0.000000 -0.000001 -3.815936 0.573910 -0.433428
    26 1.646739 0.449549 -1.702246 -0.161934 0.581206 -0.284024
    27 0.928312 0.000000 -0.000001 0.000000 0.000000 0.000000
    28 0.928313 -0.000001 0.000002 0.000000 0.000000 0.000000
    29 2.975833 -0.386307 -0.044143 -0.000797 -0.043611 0.000035
    30 1.438886 -0.000001 0.000000 0.000000 0.000000 0.872212
    31 1.485302 -0.000001 0.000000 0.000000 0.000000 0.907076
    32 -3.151155 -0.498833 -4.140396 -1.165448 1.095898 2.159355
    33 4.972046 0.000000 0.000000 0.723795 -0.202952 -1.446000
    34 11.585350 0.000000 0.000001 0.000000 0.000000 -1.606133
    35 10.127054 -0.000001 -0.000001 1.947696 0.173934 0.692921
    36 1.533672 0.109715 1.664490 -0.264755 -0.055971 0.783109
    37 0.928312 0.000001 0.000000 0.000000 0.000000 -0.453542
    38 0.928313 0.000000 0.000002 0.000000 0.000000 0.000000
    39 2.683747 -0.427339 0.044205 -0.005786 0.043239 -0.157091
    40 1.438886 -0.000001 0.000002 0.000000 0.000000 0.732659
    41 1.485300 0.000000 0.000000 0.000000 0.000000 1.168771
  time 19
    0 0.233849 0.368164 39.526119 0.000000 0.000000 -1.570795
    1 0.000000 0.000000 0.000000 0.000000 -1.570451 -1.570795
    2 -0.000004 0.000007 3.713254 -3.139539 0.026087 3.120120
    3 18.045721 0.000000 0.000000 0.000000 0.000000 -0.121501
    4 17.597595 0.000000 0.000000 -0.002613 0.026036 0.099967
    5 0.000004 -0.000003 -3.713254 3.139069 -0.017354 3.117144
    6 18.045725 0.000000 0.000000 0.000000 0.000000 -0.127551
    7 17.597597 0.000000 0.000000 0.002950 -0.017289 0.103055
    8 1.293671 0.684478 -0.000001 -0.000004 -0.000001 0.218799
    9 5.309686 -0.003834 0.000000 0.000000 0.000000 0.488613
    10 4.826790 -0.004591 0.000000 -0.346841 0.088854 0.239928
    11 5.792768 -0.005304 0.000000 -0.225387 0.025192 0.108634
    12 6.662314 -0.001453 0.000000 0.000000 -0.000001 -0.139840
    13 2.046984 -0.000002 0.000000 0.579422 -0.019093 -0.105479
    14 1.038628 0.548043 -0.144017 -0.000001 0.000001 -1.849906
    15 -0.064003 -0.023525 0.026161 0.000000 0.000000 0.000000
    16 3.013920 3.984632 -0.088975 -0.000001 0.000001 -1.849906
    17 -0.084188 -0.025625 -0.001098 0.000000 0.000000 0.000000
    18 4.778185 3.972485 -0.079803 -0.000001 0.000001 -1.849906
    19 -0.058556 -0.021328 0.004244 0.000000 0.000000 0.000000
    20 1.640597 -1.968779 -0.099219 -0.000001 0.000001 -1.849906
    21 0.055573 -0.028913 0.000000 0.000000 0.000000 0.000000
    22 -3.416720 -0.541403 4.341910 2.112935 -0.835466 1.027740
    23 4.827231 0.000000 0.000002 -1.048504 0.209985 -0.288699
    24 11.139760 0.000000 0.000000 0.000000 0.000000 -0.958334
    25 10.314597 0.000000 -0.000001 -3.815936 0.573910 -0.433428
    26 1.646739 0.449549 -1.702246 -0.161934 0.581206 -0.284024
    27 0.928312 0.000000 -0.000001 0.000000 0.000000 0.000000
    28 0.928313 -0.000001 0.000002 0.000000 0.000000 0.000000
    29 2.975833 -0.386307 -0.044143 -0.000797 -0.043611 0.000035
    30 1.438886 -0.000001 0.000000 0.000000 0.000000 0.872212
    31 1.485302 -0.000001 0.000000 0.000000 0.000000 0.907076
    32 -3.151155 -0.498833 -4.140396 -1.161421 1.099770 2.162998
    33 4.972046 0.000000 0.000000 0.725033 -0.207778 -1.449689
    34 11.585350 0.000000 0.000001 0.000000 0.000000 -1.606133
    35 10.127054 -0.000001 -0.000001 1.947696 0.173934 0.692921
    36 1.533672 0.109715 1.664490 -0.264755 -0.055971 0.783109
    37 0.928312 0.000001 0.000000 0.000000 0.000000 -0.453542
    38 0.928313 0.000000 0.000002 0.000000 0.000000 0.000000
    39 2.683747 -0.427339 0.044205 -0.005786 0.043239 -0.157091
    40 1.438886 -0.000001 0.000002 0.000000 0.000000 0.732659
    41 1.485300 0.000000 0.000000 0.000000 0.000000 1.168771
  time 20
    0 0.233849 0.368164 39.526119 0.000000 0.000000 -1.570795
    1 0.000000 0.000000 0.000000 0.000000 -1.570451 -1.570795
    2 -0.000004 0.000007 3.713254 -3.139539 0.026087 3.120120
    3 18.045721 0.000000 0.000000 0.000000 0.000000 -0.121501
    4 17.597595 0.000000 0.000000 -0.002613 0.026036 0.099967
    5 0.000004 -0.000003 -3.713254 3.139069 -0.017354 3.117144
    6 18.045725 0.000000 0.000000 0.000000 0.000000 -0.127551
    7 17.597597 0.000000 0.000000 0.002950 -0.017289 0.103055
    8 1.293671 0.684478 -0.000001 -0.000004 -0.000001 0.218799
    9 5.309686 -0.003834 0.000000 0.000000 0.000000 0.488613
    10 4.826790 -0.004591 0.000000 -0.346841 0.088854 0.239928
    11 5.792768 -0.005304 0.000000 -0.225517 0.024053 0.103672
    12 6.662314 -0.001453 0.000000 0.000000 -0.000001 -0.139840
    13 2.046984 -0.000002 0.000000 0.579422 -0.019093 -0.100400
    14 1.038628 0.548043 -0.144017 -0.000001 0.000001 -1.849906
    15 -0.064003 -0.023525 0.026161 0.000000 0.000000 0.000000
    16 3.013920 3.984632 -0.088975 -0.000001 0.000001 -1.849906
    17 -0.084188 -0.025625 -0.001098 0.000000 0.000000 0.000000
    18 4.778185 3.972485 -0.079803 -0.000001 0.000001 -1.849906
    19 -0.058556 -0.021328 0.004244 0.000000 0.000000 0.000000
    20 1.640597 -1.968779 -0.099219 -0.000001 0.000001 -1.849906
    21 0.055573 -0.028913 0.000000 0.000000 0.000000 0.000000
    22 -3.416720 -0.541403 4.341910 2.117729 -0.839390 1.024192
    23 4.827231 0.000000 0.000002 -1.047799 0.213219 -0.294912
    24 11.139760 0.000000 0.000000 0.000000 0.000000 -0.958334
    25 10.314597 0.000000 -0.000001 -3.815936 0.573910 -0.433428
    26 1.646739 0.449549 -1.702246 -0.161934 0.581206 -0.284024
    27 0.928312 0.000000 -0.000001 0.000000 0.000000 0.000000
    28 0.928313 -0.000001 0.000002 0.000000 0.000000 0.000000
    29 2.975833 -0.386307 -0.044143 -0.000797 -0.043611 0.000035
    30 1.438886 -0.000001 0.000000 0.000000 0.000000 0.872212
    31 1.485302 -0.000001 0.000000 0.000000 0.000000 0.907076
    32 -3.151155 -0.498833 -4.140396 -1.156436 1.104321 2.167408
    33 4.972046 0.000000 0.000000 0.726502 -0.213570 -1.454036
    34 11.585350 0.000000 0.000001 0.000000 0.000000 -1.606133
    35 10.127054 -0.000001 -0.000001 1.947696 0.173934 0.692921
    36 1.533672 0.109715 1.664490 -0.264755 -0.055971 0.783109
    37 0.928312 0.000001 0.000000 0.000000 0.000000 -0.453542
    38 0.928313 0.000000 0.000002 0.000000 0.000000 0.000000
    39 2.683747 -0.427339 0.044205 -0.005786 0.043239 -0.157091
    40 1.438886 -0.000001 0.000002 0.000000 0.000000 0.732659
    41 1.485300 0.000000 0.000000 0.000000 0.000000 1.168771
  time 21
    0 0.233849 0.368164 39.526119 0.000000 0.000000 -1.570795
    1 0.000000 0.000000 0.000000 0.000000 -1.570451 -1.570795
    2 -0.000004 0.000007 3.713254 -3.139539 0.026087 3.120120
    3 18.045721 0.000000 0.000000 0.000000 0.000000 -0.121501
    4 17.597595 0.000000 0.000000 -0.002613 0.026036 0.099967
    5 0.000004 -0.000003 -3.713254 3.139069 -0.017354 3.117144
    6 18.045725 0.000000 0.000000 0.000000 0.000000 -0.127551
    7 17.597597 0.000000 0.000000 0.002950 -0.017289 0.103055
    8 1.293671 0.684478 -0.000001 -0.000004 -0.000001 0.218799
    9 5.309686 -0.003834 0.000000 0.000000 0.000000 0.488613
    10 4.826790 -0.004591 0.000000 -0.346841 0.088854 0.239928
    11 5.792768 -0.005304 0.000000 -0.225648 0.022771 0.098107
    12 6.662314 -0.001453 0.000000 0.000000 -0.000001 -0.139840
    13 2.046984 -0.000002 0.000000 0.579422 -0.019093 -0.094691
    14 1.038628 0.548043 -0.144017 -0.000001 0.000001 -1.849906
    15 -0.064003 -0.023525 0.026161 0.000000 0.000000 0.000000
    16 3.013920 3.984632 -0.088975 -0.000001 0.000001 -1.849906
    17 -0.084188 -0.025625 -0.001098 0.000000 0.000000 0.000000
    18 4.778185 3.972485 -0.079803 -0.000001 0.000001 -1.849906
    19 -0.058556 -0.021328 0.004244 0.000000 0.000000 0.000000
    20 1.640597 -1.968779 -0.099219 -0.000001 0.000001 -1.849906
    21 0.055573 -0.028913 0.000000 0.000000 0.000000 0.000000
    22 -3.416720 -0.541403 4.341910 2.123194 -0.843814 1.020070
    23 4.827231 0.000000 0.000002 -1.046977 0.216878 -0.301913
    24 11.139760 0.000000 0.000000 0.000000 0.000000 -0.958334
    25 10.314597 0.000000 -0.000001 -3.815936 0.573910 -0.433428
    26 1.646739 0.449549 -1.702246 -0.161934 0.581206 -0.284024
    27 0.928312 0.000000 -0.000001 0.000000 0.000000 0.000000
    28 0.928313 -0.000001 0.000002 0.000000 0.000000 0.000000
    29 2.975833 -0.386307 -0.044143 -0.000797 -0.043611 0.000035
    30 1.438886 -0.000001 0.000000 0.000000 0.000000 0.872212
    31 1.485302 -0.000001 0.000000 0.000000 0.000000 0.907076
    32 -3.151155 -0.498833 -4.140396 -1.150779 1.109437 2.172489
    33 4.972046 0.000000 0.000000 0.728127 -0.220005 -1.458977
    34 11.585350 0.000000 0.000001 0.000000 0.000000 -1.606133
    35 10.127054 -0.000001 -0.000001 1.947696 0.173934 0.692921
    36 1.533672 0.109715 1.664490 -0.264755 -0.055971 0.783109
    37 0.928312 0.000001 0.000000 0.000000 0.000000 -0.453542
    38 0.928313 0.000000 0.000002 0.000000 0.000000 0.000000
    39 2.683747 -0.427339 0.044205 -0.005786 0.043239 -0.157091
    40 1.438886 -0.000001 0.000002 0.000000 0.000000 0.732659
    41 1.485300 0.000000 0.000000 0.000000 0.000000 1.168771
  time 22
    0 0.233849 0.368164 39.526119 0.000000 0.000000 -1.570795
    1 0.000000 0.000000 0.000000 0.000000 -1.570451 -1.570795
    2 -0.000004 0.000007 3.713254 -3.139539 0.026087 3.120120
    3 18.045721 0.000000 0.000000 0.000000 0.000000 -0.121501
    4 17.597595 0.000000 0.000000 -0.002613 0.026036 0.099967
    5 0.000004 -0.000003 -3.713254 3.139069 -0.017354 3.117144
    6 18.045725 0.000000 0.000000 0.000000 0.000000 -0.127551
    7 17.597597 0.000000 0.000000 0.002950 -0.017289 0.103055
    8 1.293671 0.684478 -0.000001 -0.000004 -0.000001 0.218799
    9 5.309686 -0.003834 0.000000 0.000000 0.000000 0.488613
    10 4.826790 -0.004591 0.000000 -0.346841 0.088854 0.239928
    11 5.792768 -0.005304 0.000000 -0.225778 0.021404 0.092107
    12 6.662314 -0.001453 0.000000 0.000000 -0.000001 -0.139840
    13 2.046984 -0.000002 0.000000 0.579422 -0.019093 -0.088534
    14 1.038628 0.548043 -0.144017 -0.000001 0.000001 -1.849906
    15 -0.064003 -0.023525 0.026161 0.000000 0.000000 0.000000
    16 3.013920 3.984632 -0.088975 -0.000001 0.000001 -1.849906
    17 -0.084188 -0.025625 -0.001098 0.000000 0.000000 0.000000
    18 4.778185 3.972485 -0.079803 -0.000001 0.000001 -1.849906
    19 -0.058556 -0.021328 0.004244 0.000000 0.000000 0.000000
    20 1.640597 -1.968779 -0.099219 -0.000001 0.000001 -1.849906
    21 0.055573 -0.028913 0.000000 0.000000 0.000000 0.000000
    22 -3.416720 -0.541403 4.341910 2.129042 -0.848545 1.015659
    23 4.827231 0.000000 0.000002 -1.046096 0.220708 -0.309439
    24 11.139760 0.000000 0.000000 0.000000 0.000000 -0.958334
    25 10.314597 0.000000 -0.000001 -3.815936 0.573910 -0.433428
    26 1.646739 0.449549 -1.702246 -0.161934 0.581206 -0.284024
    27 0.928312 0.000000 -0.000001 0.000000 0.000000 0.000000
    28 0.928313 -0.000001 0.000002 0.000000 0.000000 0.000000
    29 2.975833 -0.386307 -0.044143 -0.000797 -0.043611 0.000035
    30 1.438886 -0.000001 0.000000 0.000000 0.000000 0.872212
    31 1.485302 -0.000001 0.000000 0.000000 0.000000 0.907076
    32 -3.151155 -0.498833 -4.140396 -1.144548 1.114920 2.178050
    33 4.972046 0.000000 0.000000 0.729906 -0.227004 -1.464247
    34 11.585350 0.000000 0.000001 0.000000 0.000000 -1.606133
    35 10.127054 -0.000001 -0.000001 1.947696 0.173934 0.692921
    36 1.533672 0.109715 1.664490 -0.264755 -0.055971 0.783109
    37 0.928312 0.000001 0.000000 0.000000 0.000000 -0.453542
    38 0.928313 0.000000 0.000002 0.000000 0.000000 0.000000
    39 2.683747 -0.427339 0.044205 -0.005786 0.043239 -0.157091
    40 1.438886 -0.000001 0.000002 0.000000 0.000000 0.732659
    41 1.485300 0.000000 0.000000 0.000000 0.000000 1.168771
  time 23
    0 0.233849 0.368164 39.526119 0.000000 0.000000 -1.570795
    1 0.000000 0.000000 0.000000 0.000000 -1.570451 -1.570795
    2 -0.000004 0.000007 3.713254 -3.139539 0.026087 3.120120
    3 18.045721 0.000000 0.000000 0.000000 0.000000 -0.121501
    4 17.597595 0.000000 0.000000 -0.002613 0.026036 0.099967
    5 0.000004 -0.000003 -3.713254 3.139069 -0.017354 3.117144
    6 18.045725 0.000000 0.000000 0.000000 0.000000 -0.127551
    7 17.597597 0.000000 0.000000 0.002950 -0.017289 0.103055
    8 1.293671 0.684478 -0.000001 -0.000004 -0.000001 0.218799
    9 5.309686 -0.003834 0.000000 0.000000 0.000000 0.488613
    10 4.826790 -0.004591 0.000000 -0.346841 0.088854 0.239928
    11 5.792768 -0.005304 0.000000 -0.225909 0.019966 0.085899
    12 6.662314 -0.001453 0.000000 0.000000 -0.000001 -0.139840
    13 2.046984 -0.000002 0.000000 0.579422 -0.019093 -0.082151
    14 1.038628 0.548043 -0.144017 -0.000001 0.000001 -1.849906
    15 -0.064003 -0.023525 0.026161 0.000000 0.000000 0.000000
    16 3.013920 3.984632 -0.088975 -0.000001 0.000001 -1.849906
    17 -0.084188 -0.025625 -0.001098 0.000000 0.000000 0.000000
    18 4.778185 3.972485 -0.079803 -0.000001 0.000001 -1.849906
    19 -0.058556 -0.021328 0.004244 0.000000 0.000000 0.000000
    20 1.640597 -1.968779 -0.099219 -0.000001 0.000001 -1.849906
    21 0.055573 -0.028913 0.000000 0.000000 0.000000 0.000000
    22 -3.416720 -0.541403 4.341910 2.135274 -0.853430 1.010961
    23 4.827231 0.000000 0.000002 -1.045156 0.224793 -0.317315
    24 11.139760 0.000000 0.000000 0.000000 0.000000 -0.958334
    25 10.314597 0.000000 -0.000001 -3.815936 0.573910 -0.433428
    26 1.646739 0.449549 -1.702246 -0.161934 0.581206 -0.284024
    27 0.928312 0.000000 -0.000001 0.000000 0.000000 0.000000
    28 0.928313 -0.000001 0.000002 0.000000 0.000000 0.000000
    29 2.975833 -0.386307 -0.044143 -0.000797 -0.043611 0.000035
    30 1.438886 -0.000001 0.000000 0.000000 0.000000 0.872212
    31 1.485302 -0.000001 0.000000 0.000000 0.000000 0.907076
    32 -3.151155 -0.498833 -4.140396 -1.137932 1.120629 2.184090
    33 4.972046 0.000000 0.000000 0.731763 -0.234243 -1.469780
    34 11.585350 0.000000 0.000001 0.000000 0.000000 -1.606133
    35 10.127054 -0.000001 -0.000001 1.947696 0.173934 0.692921
    36 1.533672 0.109715 1.664490 -0.264755 -0.055971 0.783109
    37 0.928312 0.000001 0.000000 0.000000 0.000000 -0.453542
    38 0.928313 0.000000 0.000002 0.000000 0.000000 0.000000
    39 2.683747 -0.427339 0.044205 -0.005786 0.043239 -0.157091
    40 1.438886 -0.000001 0.000002 0.000000 0.000000 0.732659
    41 1.485300 0.000000 0.000000 0.000000 0.000000 1.168771
  time 24
    0 0.233849 0.368164 39.526119 0.000000 0.000000 -1.570795
    1 0.000000 0.000000 0.000000 0.000000 -1.570451 -1.570795
    2 -0.000004 0.000007 3.713254 -3.139539 0.026087 3.120120
    3 18.045721 0.000000 0.000000 0.000000 0.000000 -0.121501
    4 17.597595 0.000000 0.000000 -0.002613 0.026036 0.099967
    5 0.000004 -0.000003 -3.713254 3.139069 -0.017354 3.117144
    6 18.045725 0.000000 0.000000 0.000000 0.000000 -0.127551
    7 17.597597 0.000000 0.000000 0.002950 -0.017289 0.103055
    8 1.293671 0.684478 -0.000001 -0.000004 -0.000001 0.218799
    9 5.309686 -0.003834 0.000000 0.000000 0.000000 0.488613
    10 4.826790 -0.004591 0.000000 -0.346841 0.088854 0.239928
    11 5.792768 -0.005304 0.000000 -0.226023 0.018528 0.079608
    12 6.662314 -0.001453 0.000000 0.000000 -0.000001 -0.139840
    13 2.046984 -0.000002 0.000000 0.579422 -0.019093 -0.075724
    14 1.038628 0.548043 -0.144017 -0.000001 0.000001 -1.849906
    15 -0.064003 -0.023525 0.026161 0.000000 0.000000 0.000000
    16 3.013920 3.984632 -0.088975 -0.000001 0.000001 -1.849906
    17 -0.084188 -0.025625 -0.001098 0.000000 0.000000 0.000000
    18 4.778185 3.972485 -0.079803 -0.000001 0.000001 -1.849906
    19 -0.058556 -0.021328 0.004244 0.000000 0.000000 0.000000
    20 1.640597 -1.968779 -0.099219 -0.000001 0.000001 -1.849906
    21 0.055573 -0.028913 0.000000 0.000000 0.000000 0.000000
    22 -3.416720 -0.541403 4.341910 2.141601 -0.858354 1.006168
    23 4.827231 0.000000 0.000002 -1.044216 0.228878 -0.325191
    24 11.139760 0.000000 0.000000 0.000000 0.000000 -0.958334
    25 10.314597 0.000000 -0.000001 -3.815936 0.573910 -0.433428
    26 1.646739 0.449549 -1.702246 -0.161934 0.581206 -0.284024
    27 0.928312 0.000000 -0.000001 0.000000 0.000000 0.000000
    28 0.928313 -0.000001 0.000002 0.000000 0.000000 0.000000
    29 2.975833 -0.386307 -0.044143 -0.000797 -0.043611 0.000035
    30 1.438886 -0.000001 0.000000 0.000000 0.000000 0.872212
    31 1.485302 -0.000001 0.000000 0.000000 0.000000 0.907076
    32 -3.151155 -0.498833 -4.140396 -1.131029 1.126339 2.190226
    33 4.972046 0.000000 0.000000 0.733619 -0.241563 -1.475379
    34 11.585350 0.000000 0.000001 0.000000 0.000000 -1.606133
    35 10.127054 -0.000001 -0.000001 1.947696 0.173934 0.692921
    36 1.533672 0.109715 1.664490 -0.264755 -0.055971 0.783109
    37 0.928312 0.000001 0.000000 0.000000 0.000000 -0.453542
    38 0.928313 0.000000 0.000002 0.000000 0.000000 0.000000
    39 2.683747 -0.427339 0.044205 -0.005786 0.043239 -0.157091
    40 1.438886 -0.000001 0.000002 0.000000 0.000000 0.732659
    41 1.485300 0.000000 0.000000 0.000000 0.000000 1.168771
  time 25
    0 0.233849 0.368164 39.526119 0.000000 0.000000 -1.570795
    1 0.000000 0.000000 0.000000 0.000000 -1.570451 -1.570795
    2 -0.000004 0.000007 3.713254 -3.139539 0.026087 3.120120
    3 18.045721 0.000000 0.000000 0.000000 0.000000 -0.121501
    4 17.597595 0.000000 0.000000 -0.002613 0.026036 0.099967
    5 0.000004 -0.000003 -3.713254 3.139069 -0.017354 3.117144
    6 18.045725 0.000000 0.000000 0.000000 0.000000 -0.127551
    7 17.597597 0.000000 0.000000 0.002950 -0.017289 0.103055
    8 1.293671 0.684478 -0.000001 -0.000004 -0.000001 0.218799
    9 5.309686 -0.003834 0.000000 0.000000 0.000000 0.488613
    10 4.826790 -0.004591 0.000000 -0.346841 0.088854 0.239928
    11 5.792768 -0.005304 0.000000 -0.226137 0.017102 0.073441
    12 6.662314 -0.001453 0.000000 0.000000 -0.000001 -0.139840
    13 2.046984 -0.000002 0.000000 0.579422 -0.019093 -0.069386
    14 1.038628 0.548043 -0.144017 -0.000001 0.000001 -1.849906
    15 -0.064003 -0.023525 0.026161 0.000000 0.000000 0.000000
    16 3.013920 3.984632 -0.088975 -0.000001 0.000001 -1.849906
    17 -0.084188 -0.025625 -0.001098 0.000000 0.000000 0.000000
    18 4.778185 3.972485 -0.079803 -0.000001 0.000001 -1.849906
    19 -0.058556 -0.021328 0.004244 0.000000 0.000000 0.000000
    20 1.640597 -1.968779 -0.099219 -0.000001 0.000001 -1.849906
    21 0.055573 -0.028913 0.000000 0.000000 0.000000 0.000000
    22 -3.416720 -0.541403 4.341910 2.147929 -0.863162 1.001470
    23 4.827231 0.000000 0.000002 -1.043335 0.232792 -0.332979
    24 11.139760 0.000000 0.000000 0.000000 0.000000 -0.958334
    25 10.314597 0.000000 -0.000001 -3.815936 0.573910 -0.433428
    26 1.646739 0.449549 -1.702246 -0.161934 0.581206 -0.284024
    27 0.928312 0.000000 -0.000001 0.000000 0.000000 0.000000
    28 0.928313 -0.000001 0.000002 0.000000 0.000000 0.000000
    29 2.975833 -0.386307 -0.044143 -0.000797 -0.043611 0.000035
    30 1.438886 -0.000001 0.000000 0.000000 0.000000 0.872212
    31 1.485302 -0.000001 0.000000 0.000000 0.000000 0.907076
    32 -3.151155 -0.498833 -4.140396 -1.124222 1.131963 2.196458
    33 4.972046 0.000000 0.000000 0.735476 -0.248723 -1.480846
    34 11.585350 0.000000 0.000001 0.000000 0.000000 -1.606133
    35 10.127054 -0.000001 -0.000001 1.947696 0.173934 0.692921
    36 1.533672 0.109715 1.664490 -0.264755 -0.055971 0.783109
    37 0.928312 0.000001 0.000000 0.000000 0.000000 -0.453542
    38 0.928313 0.000000 0.000002 0.000000 0.000000 0.000000
    39 2.683747 -0.427339 0.044205 -0.005786 0.043239 -0.157091
    40 1.438886 -0.000001 0.000002 0.000000 0.000000 0.732659
    41 1.485300 0.000000 0.000000 0.000000 0.000000 1.168771
  time 26
    0 0.233849 0.368164 39.526119 0.000000 0.000000 -1.570795
    1 0.000000 0.000000 0.000000 0.000000 -1.570451 -1.570795
    2 -0.000004 0.000007 3.713254 -3.139539 0.026087 3.120120
    3 18.045721 0.000000 0.000000 0.000000 0.000000 -0.121501
    4 17.597595 0.000000 0.000000 -0.002613 0.026036 0.099967
    5 0.000004 -0.000003 -3.713254 3.139069 -0.017354 3.117144
    6 18.045725 0.000000 0.000000 0.000000 0.000000 -0.127551
    7 17.597597 0.000000 0.000000 0.002950 -0.017289 0.103055
    8 1.293671 0.684478 -0.000001 -0.000004 -0.000001 0.218799
    9 5.309686 -0.003834 0.000000 0.000000 0.000000 0.488613
    10 4.826790 -0.004591 0.000000 -0.346841 0.088854 0.239928
    11 5.792768 -0.005304 0.000000 -0.226235 0.015760 0.067565
    12 6.662314 -0.001453 0.000000 0.000000 -0.000001 -0.139840
    13 2.046984 -0.000002 0.000000 0.579422 -0.019093 -0.063363
    14 1.038628 0.548043 -0.144017 -0.000001 0.000001 -1.849906
    15 -0.064003 -0.023525 0.026161 0.000000 0.000000 0.000000
    16 3.013920 3.984632 -0.088975 -0.000001 0.000001 -1.849906
    17 -0.084188 -0.025625 -0.001098 0.000000 0.000000 0.000000
    18 4.778185 3.972485 -0.079803 -0.000001 0.000001 -1.849906
    19 -0.058556 -0.021328 0.004244 0.000000 0.000000 0.000000
    20 1.640597 -1.968779 -0.099219 -0.000001 0.000001 -1.849906
    21 0.055573 -0.028913 0.000000 0.000000 0.000000 0.000000
    22 -3.416720 -0.541403 4.341910 2.153969 -0.867739 0.996868
    23 4.827231 0.000000 0.000002 -1.042454 0.236537 -0.340330
    24 11.139760 0.000000 0.000000 0.000000 0.000000 -0.958334
    25 10.314597 0.000000 -0.000001 -3.815936 0.573910 -0.433428
    26 1.646739 0.449549 -1.702246 -0.161934 0.581206 -0.284024
    27 0.928312 0.000000 -0.000001 0.000000 0.000000 0.000000
    28 0.928313 -0.000001 0.000002 0.000000 0.000000 0.000000
    29 2.975833 -0.386307 -0.044143 -0.000797 -0.043611 0.000035
    30 1.438886 -0.000001 0.000000 0.000000 0.000000 0.872212
    31 1.485302 -0.000001 0.000000 0.000000 0.000000 0.907076
    32 -3.151155 -0.498833 -4.140396 -1.117511 1.137249 2.202498
    33 4.972046 0.000000 0.000000 0.737255 -0.255560 -1.486050
    34 11.585350 0.000000 0.000001 0.000000 0.000000 -1.606133
    35 10.127054 -0.000001 -0.000001 1.947696 0.173934 0.692921
    36 1.533672 0.109715 1.664490 -0.264755 -0.055971 0.783109
    37 0.928312 0.000001 0.000000 0.000000 0.000000 -0.453542
    38 0.928313 0.000000 0.000002 0.000000 0.000000 0.000000
    39 2.683747 -0.427339 0.044205 -0.005786 0.043239 -0.157091
    40 1.438886 -0.000001 0.000002 0.000000 0.000000 0.732659
    41 1.485300 0.000000 0.000000 0.000000 0.000000 1.168771
  time 27
    0 0.233849 0.368164 39.526119 0.000000 0.000000 -1.570795
    1 0.000000 0.000000 0.000000 0.000000 -1.570451 -1.570795
    2 -0.000004 0.000007 3.713254 -3.139539 0.026087 3.120120
    3 18.045721 0.000000 0.000000 0.000000 0.000000 -0.121501
    4 17.597595 0.000000 0.000000 -0.002613 0.026036 0.099967
    5 0.000004 -0.000003 -3.713254 3.139069 -0.017354 3.117144
    6 18.045725 0.000000 0.000000 0.000000 0.000000 -0.127551
    7 17.597597 0.000000 0.000000 0.002950 -0.017289 0.103055
    8 1.293671 0.684478 -0.000001 -0.000004 -0.000001 0.218799
    9 5.309686 -0.003834 0.000000 0.000000 0.000000 0.488613
    10 4.826790 -0.004591 0.000000 -0.346841 0.088854 0.239928
    11 5.792768 -0.005304 0.000000 -0.226316 0.014513 0.062188
    12 6.662314 -0.001453 0.000000 0.000000 -0.000001 -0.139840
    13 2.046984 -0.000002 0.000000 0.579422 -0.019093 -0.057834
    14 1.038628 0.548043 -0.144017 -0.000001 0.000001 -1.849906
    15 -0.064003 -0.023525 0.026161 0.000000 0.000000 0.000000
    16 3.013920 3.984632 -0.088975 -0.000001 0.000001 -1.849906
    17 -0.084188 -0.025625 -0.001098 0.000000 0.000000 0.000000
    18 4.778185 3.972485 -0.079803 -0.000001 0.000001 -1.849906
    19 -0.058556 -0.021328 0.004244 0.000000 0.000000 0.000000
    20 1.640597 -1.968779 -0.099219 -0.000001 0.000001 -1.849906
    21 0.055573 -0.028913 0.000000 0.000000 0.000000 0.000000
    22 -3.416720 -0.541403 4.341910 2.159625 -0.871894 0.992553
    23 4.827231 0.000000 0.000002 -1.041632 0.240026 -0.347156
    24 11.139760 0.000000 0.000000 0.000000 0.000000 -0.958334
    25 10.314597 0.000000 -0.000001 -3.815936 0.573910 -0.433428
    26 1.646739 0.449549 -1.702246 -0.161934 0.581206 -0.284024
    27 0.928312 0.000000 -0.000001 0.000000 0.000000 0.000000
    28 0.928313 -0.000001 0.000002 0.000000 0.000000 0.000000
    29 2.975833 -0.386307 -0.044143 -0.000797 -0.043611 0.000035
    30 1.438886 -0.000001 0.000000 0.000000 0.000000 0.872212
    31 1.485302 -0.000001 0.000000 0.000000 0.000000 0.907076
    32 -3.151155 -0.498833 -4.140396 -1.111184 1.142110 2.208250
    33 4.972046 0.000000 0.000000 0.738879 -0.261835 -1.490859
    34 11.585350 0.000000 0.000001 0.000000 0.000000 -1.606133
    35 10.127054 -0.000001 -0.000001 1.947696 0.173934 0.692921
    36 1.533672 0.109715 1.664490 -0.264755 -0.055971 0.783109
    37 0.928312 0.000001 0.000000 0.000000 0.000000 -0.453542
    38 0.928313 0.000000 0.000002 0.000000 0.000000 0.000000
    39 2.683747 -0.427339 0.044205 -0.005786 0.043239 -0.157091
    40 1.438886 -0.000001 0.000002 0.000000 0.000000 0.732659
    41 1.485300 0.000000 0.000000 0.000000 0.000000 1.168771
  time 28
    0 0.233849 0.368164 39.526119 0.000000 0.000000 -1.570795
    1 0.000000 0.000000 0.000000 0.000000 -1.570451 -1.570795
    2 -0.000004 0.000007 3.713254 -3.139539 0.026087 3.120120
    3 18.045721 0.000000 0.000000 0.000000 0.000000 -0.121501
    4 17.597595 0.000000 0.000000 -0.002613 0.026036 0.099967
    5 0.000004 -0.000003 -3.713254 3.139069 -0.017354 3.117144
    6 18.045725 0.000000 0.000000 0.000000 0.000000 -0.127551
    7 17.597597 0.000000 0.000000 0.002950 -0.017289 0.103055
    8 1.293671 0.684478 -0.000001 -0.000004 -0.000001 0.218799
    9 5.309686 -0.003834 0.000000 0.000000 0.000000 0.488613
    10 4.826790 -0.004591 0.000000 -0.346841 0.088854 0.239928
    11 5.792768 -0.005304 0.000000 -0.226382 0.013435 0.057475
    12 6.662314 -0.001453 0.000000 0.000000 -0.000001 -0.139840
    13 2.046984 -0.000002 0.000000 0.579422 -0.019093 -0.052980
    14 1.038628 0.548043 -0.144017 -0.000001 0.000001 -1.849906
    15 -0.064003 -0.023525 0.026161 0.000000 0.000000 0.000000
    16 3.013920 3.984632 -0.088975 -0.000001 0.000001 -1.849906
    17 -0.084188 -0.025625 -0.001098 0.000000 0.000000 0.000000
    18 4.778185 3.972485 -0.079803 -0.000001 0.000001 -1.849906
    19 -0.058556 -0.021328 0.004244 0.000000 0.000000 0.000000
    20 1.640597 -1.968779 -0.099219 -0.000001 0.000001 -1.849906
    21 0.055573 -0.028913 0.000000 0.000000 0.000000 0.000000
    22 -3.416720 -0.541403 4.341910 2.164515 -0.875548 0.988718
    23 4.827231 0.000000 0.000002 -1.040927 0.243004 -0.353107
    24 11.139760 0.000000 0.000000 0.000000 0.000000 -0.958334
    25 10.314597 0.000000 -0.000001 -3.815936 0.573910 -0.433428
    26 1.646739 0.449549 -1.702246 -0.161934 0.581206 -0.284024
    27 0.928312 0.000000 -0.000001 0.000000 0.000000 0.000000
    28 0.928313 -0.000001 0.000002 0.000000 0.000000 0.000000
    29 2.975833 -0.386307 -0.044143 -0.000797 -0.043611 0.000035
    30 1.438886 -0.000001 0.000000 0.000000 0.000000 0.872212
    31 1.485302 -0.000001 0.000000 0.000000 0.000000 0.907076
    32 -3.151155 -0.498833 -4.140396 -1.105623 1.146350 2.213331
    33 4.972046 0.000000 0.000000 0.740272 -0.267305 -1.495075
    34 11.585350 0.000000 0.000001 0.000000 0.000000 -1.606133
    35 10.127054 -0.000001 -0.000001 1.947696 0.173934 0.692921
    36 1.533672 0.109715 1.664490 -0.264755 -0.055971 0.783109
    37 0.928312 0.000001 0.000000 0.000000 0.000000 -0.453542
    38 0.928313 0.000000 0.000002 0.000000 0.000000 0.000000
    39 2.683747 -0.427339 0.044205 -0.005786 0.043239 -0.157091
    40 1.438886 -0.000001 0.000002 0.000000 0.000000 0.732659
    41 1.485300 0.000000 0.000000 0.000000 0.000000 1.168771
  time 29
    0 0.233849 0.368164 39.526119 0.000000 0.000000 -1.570795
    1 0.000000 0.000000 0.000000 0.000000 -1.570451 -1.570795
    2 -0.000004 0.000007 3.713254 -3.139539 0.026087 3.120120
    3 18.045721 0.000000 0.000000 0.000000 0.000000 -0.121501
    4 17.597595 0.000000 0.000000 -0.002613 0.026036 0.099967
    5 0.000004 -0.000003 -3.713254 3.139069 -0.017354 3.117144
    6 18.045725 0.000000 0.000000 0.000000 0.000000 -0.127551
    7 17.597597 0.000000 0.000000 0.002950 -0.017289 0.103055
    8 1.293671 0.684478 -0.000001 -0.000004 -0.000001 0.218799
    9 5.309686 -0.003834 0.000000 0.000000 0.000000 0.488613
    10 4.826790 -0.004591 0.000000 -0.346841 0.088854 0.239928
    11 5.792768 -0.005304 0.000000 -0.226431 0.012548 0.053613
    12 6.662314 -0.001453 0.000000 0.000000 -0.000001 -0.139840
    13 2.046984 -0.000002 0.000000 0.579422 -0.019093 -0.049025
    14 1.038628 0.548043 -0.144017 -0.000001 0.000001 -1.849906
    15 -0.064003 -0.023525 0.026161 0.000000 0.000000 0.000000
    16 3.013920 3.984632 -0.088975 -0.000001 0.000001 -1.849906
    17 -0.084188 -0.025625 -0.001098 0.000000 0.000000 0.000000
    18 4.778185 3.972485 -0.079803 -0.000001 0.000001 -1.849906
    19 -0.058556 -0.021328 0.004244 0.000000 0.000000 0.000000
    20 1.640597 -1.968779 -0.099219 -0.000001 0.000001 -1.849906
    21 0.055573 -0.028913 0.000000 0.000000 0.000000 0.000000
    22 -3.416720 -0.541403 4.341910 2.168637 -0.878510 0.985554
    23 4.827231 0.000000 0.000002 -1.040398 0.245472 -0.357920
    24 11.139760 0.000000 0.000000 0.000000 0.000000 -0.958334
    25 10.314597 0.000000 -0.000001 -3.815936 0.573910 -0.433428
    26 1.646739 0.449549 -1.702246 -0.161934 0.581206 -0.284024
    27 0.928312 0.000000 -0.000001 0.000000 0.000000 0.000000
    28 0.928313 -0.000001 0.000002 0.000000 0.000000 0.000000
    29 2.975833 -0.386307 -0.044143 -0.000797 -0.043611 0.000035
    30 1.438886 -0.000001 0.000000 0.000000 0.000000 0.872212
    31 1.485302 -0.000001 0.000000 0.000000 0.000000 0.907076
    32 -3.151155 -0.498833 -4.140396 -1.100925 1.149826 2.217646
    33 4.972046 0.000000 0.000000 0.741432 -0.271809 -1.498566
    34 11.585350 0.000000 0.000001 0.000000 0.000000 -1.606133
    35 10.127054 -0.000001 -0.000001 1.947696 0.173934 0.692921
    36 1.533672 0.109715 1.664490 -0.264755 -0.055971 0.783109
    37 0.928312 0.000001 0.000000 0.000000 0.000000 -0.453542
    38 0.928313 0.000000 0.000002 0.000000 0.000000 0.000000
    39 2.683747 -0.427339 0.044205 -0.005786 0.043239 -0.157091
    40 1.438886 -0.000001 0.000002 0.000000 0.000000 0.732659
    41 1.485300 0.000000 0.000000 0.000000 0.000000 1.168771
  time 30
    0 0.233849 0.368164 39.526119 0.000000 0.000000 -1.570795
    1 0.000000 0.000000 0.000000 0.000000 -1.570451 -1.570795
    2 -0.000004 0.000007 3.713254 -3.139539 0.026087 3.120120
    3 18.045721 0.000000 0.000000 0.000000 0.000000 -0.121501
    4 17.597595 0.000000 0.000000 -0.002613 0.026036 0.099967
    5 0.000004 -0.000003 -3.713254 3.139069 -0.017354 3.117144
    6 18.045725 0.000000 0.000000 0.000000 0.000000 -0.127551
    7 17.597597 0.000000 0.000000 0.002950 -0.017289 0.103055
    8 1.293671 0.684478 -0.000001 -0.000004 -0.000001 0.218799
    9 5.309686 -0.003834 0.000000 0.000000 0.000000 0.488613
    10 4.826790 -0.004591 0.000000 -0.346841 0.088854 0.239928
    11 5.792768 -0.005304 0.000000 -0.226463 0.011889 0.050768
    12 6.662314 -0.001453 0.000000 0.000000 -0.000001 -0.139840
    13 2.046984 -0.000002 0.000000 0.579422 -0.019093 -0.046103
    14 1.038628 0.548043 -0.144017 -0.000001 0.000001 -1.849906
    15 -0.064003 -0.023525 0.026161 0.000000 0.000000 0.000000
    16 3.013920 3.984632 -0.088975 -0.000001 0.000001 -1.849906
    17 -0.084188 -0.025625 -0.001098 0.000000 0.000000 0.000000
    18 4.778185 3.972485 -0.079803 -0.000001 0.000001 -1.849906
    19 -0.058556 -0.021328 0.004244 0.000000 0.000000 0.000000
    20 1.640597 -1.968779 -0.099219 -0.000001 0.000001 -1.849906
    21 0.055573 -0.028913 0.000000 0.000000 0.000000 0.000000
    22 -3.416720 -0.541403 4.341910 2.171705 -0.880702 0.983253
    23 4.827231 0.000000 0.000002 -1.039929 0.247259 -0.361508
    24 11.139760 0.000000 0.000000 0.000000 0.000000 -0.958334
    25 10.314597 0.000000 -0.000001 -3.815936 0.573910 -0.433428
    26 1.646739 0.449549 -1.702246 -0.161934 0.581206 -0.284024
    27 0.928312 0.000000 -0.000001 0.000000 0.000000 0.000000
    28 0.928313 -0.000001 0.000002 0.000000 0.000000 0.000000
    29 2.975833 -0.386307 -0.044143 -0.000797 -0.043611 0.000035
    30 1.438886 -0.000001 0.000000 0.000000 0.000000 0.872212
    31 1.485302 -0.000001 0.000000 0.000000 0.000000 0.907076
    32 -3.151155 -0.498833 -4.140396 -1.097474 1.152370 2.220809
    33 4.972046 0.000000 0.000000 0.742283 -0.275107 -1.501135
    34 11.585350 0.000000 0.000001 0.000000 0.000000 -1.606133
    35 10.127054 -0.000001 -0.000001 1.947696 0.173934 0.692921
    36 1.533672 0.109715 1.664490 -0.264755 -0.055971 0.783109
    37 0.928312 0.000001 0.000000 0.000000 0.000000 -0.453542
    38 0.928313 0.000000 0.000002 0.000000 0.000000 0.000000
    39 2.683747 -0.427339 0.044205 -0.005786 0.043239 -0.157091
    40 1.438886 -0.000001 0.000002 0.000000 0.000000 0.732659
    41 1.485300 0.000000 0.000000 0.000000 0.000000 1.168771
end
