// Created by Crowbar 0.44.0.0
version 1
nodes
  0 "Bip01" -1
  1 "Bip01 Pelvis" 0
  2 "Bip01 L Leg" 1
  3 "Bip01 L Leg1" 2
  4 "Bip01 L Foot" 3
  5 "Bip01 R Leg" 1
  6 "Bip01 R Leg1" 5
  7 "Bip01 R Foot" 6
  8 "Bip01 Spine" 1
  9 "Bip01 Spine1" 8
  10 "Bip01 Spine2" 9
  11 "Bip01 Spine3" 10
  12 "Bip01 Neck" 11
  13 "Bip01 Head" 12
  14 "Dummy08" 13
  15 "Bone02" 14
  16 "Dummy04" 13
  17 "Bone05" 16
  18 "Dummy03" 13
  19 "Bone07" 18
  20 "Dummy10" 13
  21 "Bone13" 20
  22 "Bip01 L Arm" 12
  23 "Bip01 L Arm1" 22
  24 "Bip01 L Arm2" 23
  25 "Bip01 L Hand" 24
  26 "Bip01 L Finger0" 25
  27 "Bip01 L Finger01" 26
  28 "Bip01 L Finger02" 27
  29 "Bip01 L Finger1" 25
  30 "Bip01 L Finger11" 29
  31 "Bip01 L Finger12" 30
  32 "Bip01 R Arm" 12
  33 "Bip01 R Arm1" 32
  34 "Bip01 R Arm2" 33
  35 "Bip01 R Hand" 34
  36 "Bip01 R Finger0" 35
  37 "Bip01 R Finger01" 36
  38 "Bip01 R Finger02" 37
  39 "Bip01 R Finger1" 35
  40 "Bip01 R Finger11" 39
  41 "Bip01 R Finger12" 40
end
skeleton
  time 0
    0 0.233849 0.368164 39.526119 0.000000 0.000000 -1.570795
    1 0.000000 0.000000 0.000000 0.000000 -1.570451 -1.570795
    2 -0.000004 0.000007 3.713254 -3.139539 0.026087 3.120120
    3 18.045721 0.000000 0.000000 0.000000 0.000000 -0.121501
    4 17.597595 0.000000 0.000000 -0.002613 0.026036 0.099967
    5 0.000004 -0.000003 -3.713254 3.139069 -0.017354 3.117144
    6 18.045725 0.000000 0.000000 0.000000 0.000000 -0.127551
    7 17.597597 0.000000 0.000000 0.002950 -0.017289 0.103055
    8 1.293671 0.684478 -0.000001 -0.000004 -0.000001 0.201406
    9 5.309686 -0.003834 0.000000 -0.258378 0.080560 0.294792
    10 4.826790 -0.004591 0.000000 -0.265167 0.053451 0.193471
    11 5.792768 -0.005304 0.000000 -0.138777 0.014633 0.103630
    12 6.662314 -0.001453 0.000000 0.000000 -0.000001 0.471000
    13 2.046984 -0.000002 0.000000 0.375468 0.330700 -0.836868
    14 1.038628 0.548043 -0.144017 -0.000001 0.000001 -1.849906
    15 -0.064003 -0.023525 0.026161 0.000000 0.000000 0.000000
    16 3.013920 3.984632 -0.088975 -0.000001 0.000001 -1.849906
    17 -0.084188 -0.025625 -0.001098 0.000000 0.000000 0.000000
    18 4.778185 3.972485 -0.079803 -0.000001 0.000001 -1.849906
    19 -0.058556 -0.021328 0.004244 0.000000 0.000000 0.000000
    20 1.640597 -1.968779 -0.099219 -0.000001 0.000001 -1.849906
    21 0.055573 -0.028913 0.000000 0.000000 0.000000 0.000000
    22 -3.112023 1.517253 4.341910 2.426344 -0.917553 0.132066
    23 4.827231 0.000000 0.000002 -1.586294 0.312872 -0.932168
    24 11.139760 0.000000 0.000000 0.000000 0.000000 -1.565155
    25 10.314597 0.000000 -0.000001 -1.119069 0.303066 0.092734
    26 1.646739 0.449549 -1.702246 -0.391601 1.092980 -0.290137
    27 0.928312 0.000000 -0.000001 0.000000 0.000000 0.000000
    28 0.928313 -0.000001 0.000002 0.000000 0.000000 0.000000
    29 2.975833 -0.386307 -0.044143 -0.000797 -0.043611 0.000035
    30 1.438886 -0.000001 0.000000 0.000000 0.000000 0.784982
    31 1.485302 -0.000001 0.000000 0.000000 0.000000 0.532034
    32 -2.869897 1.399662 -4.140396 -0.000014 1.370795 2.669783
    33 4.972046 0.000000 0.000000 0.922829 -0.422636 -1.749738
    34 11.585350 0.000000 0.000001 0.000000 0.000000 -1.958506
    35 10.127054 -0.000001 -0.000001 1.892530 -0.027532 1.149858
    36 1.533672 0.109715 1.664490 -0.264755 -0.055959 0.783109
    37 0.928312 0.000001 0.000000 0.000000 0.000000 -0.453542
    38 0.928313 0.000000 0.000002 0.000000 0.000000 0.000000
    39 2.683747 -0.427339 0.044205 -0.005786 0.043239 -0.157091
    40 1.438886 -0.000001 0.000002 0.000000 0.000000 0.732659
    41 1.485300 0.000000 0.000000 0.000000 0.000000 1.168771
  time 1
    0 0.233849 0.368164 39.526119 0.000000 0.000000 -1.570795
    1 0.000000 0.000000 0.000000 0.000000 -1.570451 -1.570795
    2 -0.000004 0.000007 3.713254 -3.139539 0.026087 3.120120
    3 18.045721 0.000000 0.000000 0.000000 0.000000 -0.121501
    4 17.597595 0.000000 0.000000 -0.002613 0.026036 0.099967
    5 0.000004 -0.000003 -3.713254 3.139069 -0.017354 3.117144
    6 18.045725 0.000000 0.000000 0.000000 0.000000 -0.127551
    7 17.597597 0.000000 0.000000 0.002950 -0.017289 0.103055
    8 1.293671 0.684478 -0.000001 -0.000004 -0.000001 0.201406
    9 5.309686 -0.003834 0.000000 -0.258329 0.080752 0.295498
    10 4.826790 -0.004591 0.000000 -0.265167 0.053451 0.193471
    11 5.792768 -0.005304 0.000000 -0.138712 0.015244 0.107970
    12 6.662314 -0.001453 0.000000 0.000000 -0.000001 0.471000
    13 2.046984 -0.000002 0.000000 0.377406 0.326805 -0.841767
    14 1.038628 0.548043 -0.144017 -0.000001 0.000001 -1.849906
    15 -0.064003 -0.023525 0.026161 0.000000 0.000000 0.000000
    16 3.013920 3.984632 -0.088975 -0.000001 0.000001 -1.849906
    17 -0.084188 -0.025625 -0.001098 0.000000 0.000000 0.000000
    18 4.778185 3.972485 -0.079803 -0.000001 0.000001 -1.849906
    19 -0.058556 -0.021328 0.004244 0.000000 0.000000 0.000000
    20 1.640597 -1.968779 -0.099219 -0.000001 0.000001 -1.849906
    21 0.055573 -0.028913 0.000000 0.000000 0.000000 0.000000
    22 -3.112023 1.517253 4.341910 2.422893 -0.920592 0.136380
    23 4.827231 0.000000 0.000002 -1.583416 0.305979 -0.929018
    24 11.139760 0.000000 0.000000 0.000000 0.000000 -1.565155
    25 10.314597 0.000000 -0.000001 -1.119069 0.303066 0.092734
    26 1.646739 0.449549 -1.702246 -0.391601 1.092980 -0.290137
    27 0.928312 0.000000 -0.000001 0.000000 0.000000 0.000000
    28 0.928313 -0.000001 0.000002 0.000000 0.000000 0.000000
    29 2.975833 -0.386307 -0.044143 -0.000797 -0.043611 0.000035
    30 1.438886 -0.000001 0.000000 0.000000 0.000000 0.784982
    31 1.485302 -0.000001 0.000000 0.000000 0.000000 0.532034
    32 -2.869897 1.399662 -4.140396 -0.000014 1.364238 2.669783
    33 4.972046 0.000000 0.000000 0.915171 -0.418936 -1.747630
    34 11.585350 0.000000 0.000001 0.000000 0.000000 -1.958506
    35 10.127054 -0.000001 -0.000001 1.892530 -0.027532 1.149858
    36 1.533672 0.109715 1.664490 -0.264755 -0.055959 0.783109
    37 0.928312 0.000001 0.000000 0.000000 0.000000 -0.453542
    38 0.928313 0.000000 0.000002 0.000000 0.000000 0.000000
    39 2.683747 -0.427339 0.044205 -0.005786 0.043239 -0.157091
    40 1.438886 -0.000001 0.000002 0.000000 0.000000 0.732659
    41 1.485300 0.000000 0.000000 0.000000 0.000000 1.168771
  time 2
    0 0.233849 0.368164 39.526119 0.000000 0.000000 -1.570795
    1 0.000000 0.000000 0.000000 0.000000 -1.570451 -1.570795
    2 -0.000004 0.000007 3.713254 -3.139539 0.026087 3.120120
    3 18.045721 0.000000 0.000000 0.000000 0.000000 -0.121501
    4 17.597595 0.000000 0.000000 -0.002613 0.026036 0.099967
    5 0.000004 -0.000003 -3.713254 3.139069 -0.017354 3.117144
    6 18.045725 0.000000 0.000000 0.000000 0.000000 -0.127551
    7 17.597597 0.000000 0.000000 0.002950 -0.017289 0.103055
    8 1.293671 0.684478 -0.000001 -0.000004 -0.000001 0.201406
    9 5.309686 -0.003834 0.000000 -0.258243 0.081004 0.296458
    10 4.826790 -0.004591 0.000000 -0.265167 0.053451 0.193471
    11 5.792768 -0.005304 0.000000 -0.138631 0.016059 0.113866
    12 6.662314 -0.001453 0.000000 0.000000 -0.000001 0.471000
    13 2.046984 -0.000002 0.000000 0.380034 0.321491 -0.848464
    14 1.038628 0.548043 -0.144017 -0.000001 0.000001 -1.849906
    15 -0.064003 -0.023525 0.026161 0.000000 0.000000 0.000000
    16 3.013920 3.984632 -0.088975 -0.000001 0.000001 -1.849906
    17 -0.084188 -0.025625 -0.001098 0.000000 0.000000 0.000000
    18 4.778185 3.972485 -0.079803 -0.000001 0.000001 -1.849906
    19 -0.058556 -0.021328 0.004244 0.000000 0.000000 0.000000
    20 1.640597 -1.968779 -0.099219 -0.000001 0.000001 -1.849906
    21 0.055573 -0.028913 0.000000 0.000000 0.000000 0.000000
    22 -3.112023 1.517253 4.341910 2.418099 -0.924669 0.142420
    23 4.827231 0.000000 0.000002 -1.579598 0.296618 -0.924730
    24 11.139760 0.000000 0.000000 0.000000 0.000000 -1.565155
    25 10.314597 0.000000 -0.000001 -1.119069 0.303066 0.092734
    26 1.646739 0.449549 -1.702246 -0.391601 1.092980 -0.290137
    27 0.928312 0.000000 -0.000001 0.000000 0.000000 0.000000
    28 0.928313 -0.000001 0.000002 0.000000 0.000000 0.000000
    29 2.975833 -0.386307 -0.044143 -0.000797 -0.043611 0.000035
    30 1.438886 -0.000001 0.000000 0.000000 0.000000 0.784982
    31 1.485302 -0.000001 0.000000 0.000000 0.000000 0.532034
    32 -2.869897 1.399662 -4.140396 -0.000014 1.355306 2.669783
    33 4.972046 0.000000 0.000000 0.904650 -0.413868 -1.744929
    34 11.585350 0.000000 0.000001 0.000000 0.000000 -1.958506
    35 10.127054 -0.000001 -0.000001 1.892530 -0.027532 1.149858
    36 1.533672 0.109715 1.664490 -0.264755 -0.055959 0.783109
    37 0.928312 0.000001 0.000000 0.000000 0.000000 -0.453542
    38 0.928313 0.000000 0.000002 0.000000 0.000000 0.000000
    39 2.683747 -0.427339 0.044205 -0.005786 0.043239 -0.157091
    40 1.438886 -0.000001 0.000002 0.000000 0.000000 0.732659
    41 1.485300 0.000000 0.000000 0.000000 0.000000 1.168771
  time 3
    0 0.233849 0.368164 39.526119 0.000000 0.000000 -1.570795
    1 0.000000 0.000000 0.000000 0.000000 -1.570451 -1.570795
    2 -0.000004 0.000007 3.713254 -3.139539 0.026087 3.120120
    3 18.045721 0.000000 0.000000 0.000000 0.000000 -0.121501
    4 17.597595 0.000000 0.000000 -0.002613 0.026036 0.099967
    5 0.000004 -0.000003 -3.713254 3.139069 -0.017354 3.117144
    6 18.045725 0.000000 0.000000 0.000000 0.000000 -0.127551
    7 17.597597 0.000000 0.000000 0.002950 -0.017289 0.103055
    8 1.293671 0.684478 -0.000001 -0.000004 -0.000001 0.201406
    9 5.309686 -0.003834 0.000000 -0.258145 0.081315 0.297635
    10 4.826790 -0.004591 0.000000 -0.265167 0.053451 0.193471
    11 5.792768 -0.005304 0.000000 -0.138500 0.017066 0.121050
    12 6.662314 -0.001453 0.000000 0.000000 -0.000001 0.471000
    13 2.046984 -0.000002 0.000000 0.383266 0.315007 -0.856645
    14 1.038628 0.548043 -0.144017 -0.000001 0.000001 -1.849906
    15 -0.064003 -0.023525 0.026161 0.000000 0.000000 0.000000
    16 3.013920 3.984632 -0.088975 -0.000001 0.000001 -1.849906
    17 -0.084188 -0.025625 -0.001098 0.000000 0.000000 0.000000
    18 4.778185 3.972485 -0.079803 -0.000001 0.000001 -1.849906
    19 -0.058556 -0.021328 0.004244 0.000000 0.000000 0.000000
    20 1.640597 -1.968779 -0.099219 -0.000001 0.000001 -1.849906
    21 0.055573 -0.028913 0.000000 0.000000 0.000000 0.000000
    22 -3.112023 1.517253 4.341910 2.412251 -0.929670 0.149707
    23 4.827231 0.000000 0.000002 -1.575017 0.285214 -0.919654
    24 11.139760 0.000000 0.000000 0.000000 0.000000 -1.565155
    25 10.314597 0.000000 -0.000001 -1.119069 0.303066 0.092734
    26 1.646739 0.449549 -1.702246 -0.391601 1.092980 -0.290137
    27 0.928312 0.000000 -0.000001 0.000000 0.000000 0.000000
    28 0.928313 -0.000001 0.000002 0.000000 0.000000 0.000000
    29 2.975833 -0.386307 -0.044143 -0.000797 -0.043611 0.000035
    30 1.438886 -0.000001 0.000000 0.000000 0.000000 0.784982
    31 1.485302 -0.000001 0.000000 0.000000 0.000000 0.532034
    32 -2.869897 1.399662 -4.140396 -0.000014 1.344425 2.669783
    33 4.972046 0.000000 0.000000 0.891964 -0.407594 -1.741833
    34 11.585350 0.000000 0.000001 0.000000 0.000000 -1.958506
    35 10.127054 -0.000001 -0.000001 1.892530 -0.027532 1.149858
    36 1.533672 0.109715 1.664490 -0.264755 -0.055959 0.783109
    37 0.928312 0.000001 0.000000 0.000000 0.000000 -0.453542
    38 0.928313 0.000000 0.000002 0.000000 0.000000 0.000000
    39 2.683747 -0.427339 0.044205 -0.005786 0.043239 -0.157091
    40 1.438886 -0.000001 0.000002 0.000000 0.000000 0.732659
    41 1.485300 0.000000 0.000000 0.000000 0.000000 1.168771
  time 4
    0 0.233849 0.368164 39.526119 0.000000 0.000000 -1.570795
    1 0.000000 0.000000 0.000000 0.000000 -1.570451 -1.570795
    2 -0.000004 0.000007 3.713254 -3.139539 0.026087 3.120120
    3 18.045721 0.000000 0.000000 0.000000 0.000000 -0.121501
    4 17.597595 0.000000 0.000000 -0.002613 0.026036 0.099967
    5 0.000004 -0.000003 -3.713254 3.139069 -0.017354 3.117144
    6 18.045725 0.000000 0.000000 0.000000 0.000000 -0.127551
    7 17.597597 0.000000 0.000000 0.002950 -0.017289 0.103055
    8 1.293671 0.684478 -0.000001 -0.000004 -0.000001 0.201406
    9 5.309686 -0.003834 0.000000 -0.258047 0.081663 0.298975
    10 4.826790 -0.004591 0.000000 -0.265167 0.053451 0.193471
    11 5.792768 -0.005304 0.000000 -0.138353 0.018205 0.129252
    12 6.662314 -0.001453 0.000000 0.000000 -0.000001 0.471000
    13 2.046984 -0.000002 0.000000 0.386928 0.307600 -0.865994
    14 1.038628 0.548043 -0.144017 -0.000001 0.000001 -1.849906
    15 -0.064003 -0.023525 0.026161 0.000000 0.000000 0.000000
    16 3.013920 3.984632 -0.088975 -0.000001 0.000001 -1.849906
    17 -0.084188 -0.025625 -0.001098 0.000000 0.000000 0.000000
    18 4.778185 3.972485 -0.079803 -0.000001 0.000001 -1.849906
    19 -0.058556 -0.021328 0.004244 0.000000 0.000000 0.000000
    20 1.640597 -1.968779 -0.099219 -0.000001 0.000001 -1.849906
    21 0.055573 -0.028913 0.000000 0.000000 0.000000 0.000000
    22 -3.112023 1.517253 4.341910 2.405444 -0.935286 0.158240
    23 4.827231 0.000000 0.000002 -1.569906 0.272109 -0.913966
    24 11.139760 0.000000 0.000000 0.000000 0.000000 -1.565155
    25 10.314597 0.000000 -0.000001 -1.119069 0.303066 0.092734
    26 1.646739 0.449549 -1.702246 -0.391601 1.092980 -0.290137
    27 0.928312 0.000000 -0.000001 0.000000 0.000000 0.000000
    28 0.928313 -0.000001 0.000002 0.000000 0.000000 0.000000
    29 2.975833 -0.386307 -0.044143 -0.000797 -0.043611 0.000035
    30 1.438886 -0.000001 0.000000 0.000000 0.000000 0.784982
    31 1.485302 -0.000001 0.000000 0.000000 0.000000 0.532034
    32 -2.869897 1.399662 -4.140396 -0.000014 1.332017 2.669783
    33 4.972046 0.000000 0.000000 0.877499 -0.400515 -1.738474
    34 11.585350 0.000000 0.000001 0.000000 0.000000 -1.958506
    35 10.127054 -0.000001 -0.000001 1.892530 -0.027532 1.149858
    36 1.533672 0.109715 1.664490 -0.264755 -0.055959 0.783109
    37 0.928312 0.000001 0.000000 0.000000 0.000000 -0.453542
    38 0.928313 0.000000 0.000002 0.000000 0.000000 0.000000
    39 2.683747 -0.427339 0.044205 -0.005786 0.043239 -0.157091
    40 1.438886 -0.000001 0.000002 0.000000 0.000000 0.732659
    41 1.485300 0.000000 0.000000 0.000000 0.000000 1.168771
  time 5
    0 0.233849 0.368164 39.526119 0.000000 0.000000 -1.570795
    1 0.000000 0.000000 0.000000 0.000000 -1.570451 -1.570795
    2 -0.000004 0.000007 3.713254 -3.139539 0.026087 3.120120
    3 18.045721 0.000000 0.000000 0.000000 0.000000 -0.121501
    4 17.597595 0.000000 0.000000 -0.002613 0.026036 0.099967
    5 0.000004 -0.000003 -3.713254 3.139069 -0.017354 3.117144
    6 18.045725 0.000000 0.000000 0.000000 0.000000 -0.127551
    7 17.597597 0.000000 0.000000 0.002950 -0.017289 0.103055
    8 1.293671 0.684478 -0.000001 -0.000004 -0.000001 0.201406
    9 5.309686 -0.003834 0.000000 -0.257925 0.082047 0.300442
    10 4.826790 -0.004591 0.000000 -0.265167 0.053451 0.193471
    11 5.792768 -0.005304 0.000000 -0.138190 0.019451 0.138200
    12 6.662314 -0.001453 0.000000 0.000000 -0.000001 0.471000
    13 2.046984 -0.000002 0.000000 0.390891 0.299539 -0.876242
    14 1.038628 0.548043 -0.144017 -0.000001 0.000001 -1.849906
    15 -0.064003 -0.023525 0.026161 0.000000 0.000000 0.000000
    16 3.013920 3.984632 -0.088975 -0.000001 0.000001 -1.849906
    17 -0.084188 -0.025625 -0.001098 0.000000 0.000000 0.000000
    18 4.778185 3.972485 -0.079803 -0.000001 0.000001 -1.849906
    19 -0.058556 -0.021328 0.004244 0.000000 0.000000 0.000000
    20 1.640597 -1.968779 -0.099219 -0.000001 0.000001 -1.849906
    21 0.055573 -0.028913 0.000000 0.000000 0.000000 0.000000
    22 -3.112023 1.517253 4.341910 2.397774 -0.941402 0.167731
    23 4.827231 0.000000 0.000002 -1.564444 0.257727 -0.908015
    24 11.139760 0.000000 0.000000 0.000000 0.000000 -1.565155
    25 10.314597 0.000000 -0.000001 -1.119069 0.303066 0.092734
    26 1.646739 0.449549 -1.702246 -0.391601 1.092980 -0.290137
    27 0.928312 0.000000 -0.000001 0.000000 0.000000 0.000000
    28 0.928313 -0.000001 0.000002 0.000000 0.000000 0.000000
    29 2.975833 -0.386307 -0.044143 -0.000797 -0.043611 0.000035
    30 1.438886 -0.000001 0.000000 0.000000 0.000000 0.784982
    31 1.485302 -0.000001 0.000000 0.000000 0.000000 0.532034
    32 -2.869897 1.399662 -4.140396 -0.000014 1.318478 2.669783
    33 4.972046 0.000000 0.000000 0.861796 -0.392712 -1.735114
    34 11.585350 0.000000 0.000001 0.000000 0.000000 -1.958506
    35 10.127054 -0.000001 -0.000001 1.892530 -0.027532 1.149858
    36 1.533672 0.109715 1.664490 -0.264755 -0.055959 0.783109
    37 0.928312 0.000001 0.000000 0.000000 0.000000 -0.453542
    38 0.928313 0.000000 0.000002 0.000000 0.000000 0.000000
    39 2.683747 -0.427339 0.044205 -0.005786 0.043239 -0.157091
    40 1.438886 -0.000001 0.000002 0.000000 0.000000 0.732659
    41 1.485300 0.000000 0.000000 0.000000 0.000000 1.168771
  time 6
    0 0.233849 0.368164 39.526119 0.000000 0.000000 -1.570795
    1 0.000000 0.000000 0.000000 0.000000 -1.570451 -1.570795
    2 -0.000004 0.000007 3.713254 -3.139539 0.026087 3.120120
    3 18.045721 0.000000 0.000000 0.000000 0.000000 -0.121501
    4 17.597595 0.000000 0.000000 -0.002613 0.026036 0.099967
    5 0.000004 -0.000003 -3.713254 3.139069 -0.017354 3.117144
    6 18.045725 0.000000 0.000000 0.000000 0.000000 -0.127551
    7 17.597597 0.000000 0.000000 0.002950 -0.017289 0.103055
    8 1.293671 0.684478 -0.000001 -0.000004 -0.000001 0.201406
    9 5.309686 -0.003834 0.000000 -0.257802 0.082454 0.301963
    10 4.826790 -0.004591 0.000000 -0.265167 0.053451 0.193471
    11 5.792768 -0.005304 0.000000 -0.138011 0.020757 0.147606
    12 6.662314 -0.001453 0.000000 0.000000 -0.000001 0.471000
    13 2.046984 -0.000002 0.000000 0.395070 0.291051 -0.887074
    14 1.038628 0.548043 -0.144017 -0.000001 0.000001 -1.849906
    15 -0.064003 -0.023525 0.026161 0.000000 0.000000 0.000000
    16 3.013920 3.984632 -0.088975 -0.000001 0.000001 -1.849906
    17 -0.084188 -0.025625 -0.001098 0.000000 0.000000 0.000000
    18 4.778185 3.972485 -0.079803 -0.000001 0.000001 -1.849906
    19 -0.058556 -0.021328 0.004244 0.000000 0.000000 0.000000
    20 1.640597 -1.968779 -0.099219 -0.000001 0.000001 -1.849906
    21 0.055573 -0.028913 0.000000 0.000000 0.000000 0.000000
    22 -3.112023 1.517253 4.341910 2.389625 -0.947787 0.177798
    23 4.827231 0.000000 0.000002 -1.558864 0.242579 -0.901889
    24 11.139760 0.000000 0.000000 0.000000 0.000000 -1.565155
    25 10.314597 0.000000 -0.000001 -1.119069 0.303066 0.092734
    26 1.646739 0.449549 -1.702246 -0.391601 1.092980 -0.290137
    27 0.928312 0.000000 -0.000001 0.000000 0.000000 0.000000
    28 0.928313 -0.000001 0.000002 0.000000 0.000000 0.000000
    29 2.975833 -0.386307 -0.044143 -0.000797 -0.043611 0.000035
    30 1.438886 -0.000001 0.000000 0.000000 0.000000 0.784982
    31 1.485302 -0.000001 0.000000 0.000000 0.000000 0.532034
    32 -2.869897 1.399662 -4.140396 -0.000014 1.304233 2.669783
    33 4.972046 0.000000 0.000000 0.845474 -0.384507 -1.731886
    34 11.585350 0.000000 0.000001 0.000000 0.000000 -1.958506
    35 10.127054 -0.000001 -0.000001 1.892530 -0.027532 1.149858
    36 1.533672 0.109715 1.664490 -0.264755 -0.055959 0.783109
    37 0.928312 0.000001 0.000000 0.000000 0.000000 -0.453542
    38 0.928313 0.000000 0.000002 0.000000 0.000000 0.000000
    39 2.683747 -0.427339 0.044205 -0.005786 0.043239 -0.157091
    40 1.438886 -0.000001 0.000002 0.000000 0.000000 0.732659
    41 1.485300 0.000000 0.000000 0.000000 0.000000 1.168771
  time 7
    0 0.233849 0.368164 39.526119 0.000000 0.000000 -1.570795
    1 0.000000 0.000000 0.000000 0.000000 -1.570451 -1.570795
    2 -0.000004 0.000007 3.713254 -3.139539 0.026087 3.120120
    3 18.045721 0.000000 0.000000 0.000000 0.000000 -0.121501
    4 17.597595 0.000000 0.000000 -0.002613 0.026036 0.099967
    5 0.000004 -0.000003 -3.713254 3.139069 -0.017354 3.117144
    6 18.045725 0.000000 0.000000 0.000000 0.000000 -0.127551
    7 17.597597 0.000000 0.000000 0.002950 -0.017289 0.103055
    8 1.293671 0.684478 -0.000001 -0.000004 -0.000001 0.201406
    9 5.309686 -0.003834 0.000000 -0.257668 0.082861 0.303539
    10 4.826790 -0.004591 0.000000 -0.265167 0.053451 0.193471
    11 5.792768 -0.005304 0.000000 -0.137799 0.022088 0.157178
    12 6.662314 -0.001453 0.000000 0.000000 -0.000001 0.471000
    13 2.046984 -0.000002 0.000000 0.399292 0.282405 -0.898131
    14 1.038628 0.548043 -0.144017 -0.000001 0.000001 -1.849906
    15 -0.064003 -0.023525 0.026161 0.000000 0.000000 0.000000
    16 3.013920 3.984632 -0.088975 -0.000001 0.000001 -1.849906
    17 -0.084188 -0.025625 -0.001098 0.000000 0.000000 0.000000
    18 4.778185 3.972485 -0.079803 -0.000001 0.000001 -1.849906
    19 -0.058556 -0.021328 0.004244 0.000000 0.000000 0.000000
    20 1.640597 -1.968779 -0.099219 -0.000001 0.000001 -1.849906
    21 0.055573 -0.028913 0.000000 0.000000 0.000000 0.000000
    22 -3.112023 1.517253 4.341910 2.381092 -0.954250 0.188249
    23 4.827231 0.000000 0.000002 -1.553343 0.227091 -0.895851
    24 11.139760 0.000000 0.000000 0.000000 0.000000 -1.565155
    25 10.314597 0.000000 -0.000001 -1.119069 0.303066 0.092734
    26 1.646739 0.449549 -1.702246 -0.391601 1.092980 -0.290137
    27 0.928312 0.000000 -0.000001 0.000000 0.000000 0.000000
    28 0.928313 -0.000001 0.000002 0.000000 0.000000 0.000000
    29 2.975833 -0.386307 -0.044143 -0.000797 -0.043611 0.000035
    30 1.438886 -0.000001 0.000000 0.000000 0.000000 0.784982
    31 1.485302 -0.000001 0.000000 0.000000 0.000000 0.532034
    32 -2.869897 1.399662 -4.140396 -0.000014 1.289733 2.669783
    33 4.972046 0.000000 0.000000 0.828843 -0.376222 -1.728922
    34 11.585350 0.000000 0.000001 0.000000 0.000000 -1.958506
    35 10.127054 -0.000001 -0.000001 1.892530 -0.027532 1.149858
    36 1.533672 0.109715 1.664490 -0.264755 -0.055959 0.783109
    37 0.928312 0.000001 0.000000 0.000000 0.000000 -0.453542
    38 0.928313 0.000000 0.000002 0.000000 0.000000 0.000000
    39 2.683747 -0.427339 0.044205 -0.005786 0.043239 -0.157091
    40 1.438886 -0.000001 0.000002 0.000000 0.000000 0.732659
    41 1.485300 0.000000 0.000000 0.000000 0.000000 1.168771
  time 8
    0 0.233849 0.368164 39.526119 0.000000 0.000000 -1.570795
    1 0.000000 0.000000 0.000000 0.000000 -1.570451 -1.570795
    2 -0.000004 0.000007 3.713254 -3.139539 0.026087 3.120120
    3 18.045721 0.000000 0.000000 0.000000 0.000000 -0.121501
    4 17.597595 0.000000 0.000000 -0.002613 0.026036 0.099967
    5 0.000004 -0.000003 -3.713254 3.139069 -0.017354 3.117144
    6 18.045725 0.000000 0.000000 0.000000 0.000000 -0.127551
    7 17.597597 0.000000 0.000000 0.002950 -0.017289 0.103055
    8 1.293671 0.684478 -0.000001 -0.000004 -0.000001 0.201406
    9 5.309686 -0.003834 0.000000 -0.257533 0.083269 0.305078
    10 4.826790 -0.004591 0.000000 -0.265167 0.053451 0.193471
    11 5.792768 -0.005304 0.000000 -0.137587 0.023406 0.166687
    12 6.662314 -0.001453 0.000000 0.000000 -0.000001 0.471000
    13 2.046984 -0.000002 0.000000 0.403471 0.273827 -0.909099
    14 1.038628 0.548043 -0.144017 -0.000001 0.000001 -1.849906
    15 -0.064003 -0.023525 0.026161 0.000000 0.000000 0.000000
    16 3.013920 3.984632 -0.088975 -0.000001 0.000001 -1.849906
    17 -0.084188 -0.025625 -0.001098 0.000000 0.000000 0.000000
    18 4.778185 3.972485 -0.079803 -0.000001 0.000001 -1.849906
    19 -0.058556 -0.021328 0.004244 0.000000 0.000000 0.000000
    20 1.640597 -1.968779 -0.099219 -0.000001 0.000001 -1.849906
    21 0.055573 -0.028913 0.000000 0.000000 0.000000 0.000000
    22 -3.112023 1.517253 4.341910 2.372464 -0.960596 0.198795
    23 4.827231 0.000000 0.000002 -1.547998 0.211602 -0.889988
    24 11.139760 0.000000 0.000000 0.000000 0.000000 -1.565155
    25 10.314597 0.000000 -0.000001 -1.119069 0.303066 0.092734
    26 1.646739 0.449549 -1.702246 -0.391601 1.092980 -0.290137
    27 0.928312 0.000000 -0.000001 0.000000 0.000000 0.000000
    28 0.928313 -0.000001 0.000002 0.000000 0.000000 0.000000
    29 2.975833 -0.386307 -0.044143 -0.000797 -0.043611 0.000035
    30 1.438886 -0.000001 0.000000 0.000000 0.000000 0.784982
    31 1.485302 -0.000001 0.000000 0.000000 0.000000 0.532034
    32 -2.869897 1.399662 -4.140396 -0.000014 1.275347 2.669783
    33 4.972046 0.000000 0.000000 0.812443 -0.367936 -1.726287
    34 11.585350 0.000000 0.000001 0.000000 0.000000 -1.958506
    35 10.127054 -0.000001 -0.000001 1.892530 -0.027532 1.149858
    36 1.533672 0.109715 1.664490 -0.264755 -0.055959 0.783109
    37 0.928312 0.000001 0.000000 0.000000 0.000000 -0.453542
    38 0.928313 0.000000 0.000002 0.000000 0.000000 0.000000
    39 2.683747 -0.427339 0.044205 -0.005786 0.043239 -0.157091
    40 1.438886 -0.000001 0.000002 0.000000 0.000000 0.732659
    41 1.485300 0.000000 0.000000 0.000000 0.000000 1.168771
  time 9
    0 0.233849 0.368164 39.526119 0.000000 0.000000 -1.570795
    1 0.000000 0.000000 0.000000 0.000000 -1.570451 -1.570795
    2 -0.000004 0.000007 3.713254 -3.139539 0.026087 3.120120
    3 18.045721 0.000000 0.000000 0.000000 0.000000 -0.121501
    4 17.597595 0.000000 0.000000 -0.002613 0.026036 0.099967
    5 0.000004 -0.000003 -3.713254 3.139069 -0.017354 3.117144
    6 18.045725 0.000000 0.000000 0.000000 0.000000 -0.127551
    7 17.597597 0.000000 0.000000 0.002950 -0.017289 0.103055
    8 1.293671 0.684478 -0.000001 -0.000004 -0.000001 0.201406
    9 5.309686 -0.003834 0.000000 -0.257411 0.083664 0.306581
    10 4.826790 -0.004591 0.000000 -0.265167 0.053451 0.193471
    11 5.792768 -0.005304 0.000000 -0.137359 0.024664 0.175802
    12 6.662314 -0.001453 0.000000 0.000000 -0.000001 0.471000
    13 2.046984 -0.000002 0.000000 0.407478 0.265609 -0.919706
    14 1.038628 0.548043 -0.144017 -0.000001 0.000001 -1.849906
    15 -0.064003 -0.023525 0.026161 0.000000 0.000000 0.000000
    16 3.013920 3.984632 -0.088975 -0.000001 0.000001 -1.849906
    17 -0.084188 -0.025625 -0.001098 0.000000 0.000000 0.000000
    18 4.778185 3.972485 -0.079803 -0.000001 0.000001 -1.849906
    19 -0.058556 -0.021328 0.004244 0.000000 0.000000 0.000000
    20 1.640597 -1.968779 -0.099219 -0.000001 0.000001 -1.849906
    21 0.055573 -0.028913 0.000000 0.000000 0.000000 0.000000
    22 -3.112023 1.517253 4.341910 2.363931 -0.966636 0.209150
    23 4.827231 0.000000 0.000002 -1.542947 0.196795 -0.884562
    24 11.139760 0.000000 0.000000 0.000000 0.000000 -1.565155
    25 10.314597 0.000000 -0.000001 -1.119069 0.303066 0.092734
    26 1.646739 0.449549 -1.702246 -0.391601 1.092980 -0.290137
    27 0.928312 0.000000 -0.000001 0.000000 0.000000 0.000000
    28 0.928313 -0.000001 0.000002 0.000000 0.000000 0.000000
    29 2.975833 -0.386307 -0.044143 -0.000797 -0.043611 0.000035
    30 1.438886 -0.000001 0.000000 0.000000 0.000000 0.784982
    31 1.485302 -0.000001 0.000000 0.000000 0.000000 0.532034
    32 -2.869897 1.399662 -4.140396 -0.000014 1.261526 2.669783
    33 4.972046 0.000000 0.000000 0.796818 -0.359973 -1.724048
    34 11.585350 0.000000 0.000001 0.000000 0.000000 -1.958506
    35 10.127054 -0.000001 -0.000001 1.892530 -0.027532 1.149858
    36 1.533672 0.109715 1.664490 -0.264755 -0.055959 0.783109
    37 0.928312 0.000001 0.000000 0.000000 0.000000 -0.453542
    38 0.928313 0.000000 0.000002 0.000000 0.000000 0.000000
    39 2.683747 -0.427339 0.044205 -0.005786 0.043239 -0.157091
    40 1.438886 -0.000001 0.000002 0.000000 0.000000 0.732659
    41 1.485300 0.000000 0.000000 0.000000 0.000000 1.168771
  time 10
    0 0.233849 0.368164 39.526119 0.000000 0.000000 -1.570795
    1 0.000000 0.000000 0.000000 0.000000 -1.570451 -1.570795
    2 -0.000004 0.000007 3.713254 -3.139539 0.026087 3.120120
    3 18.045721 0.000000 0.000000 0.000000 0.000000 -0.121501
    4 17.597595 0.000000 0.000000 -0.002613 0.026036 0.099967
    5 0.000004 -0.000003 -3.713254 3.139069 -0.017354 3.117144
    6 18.045725 0.000000 0.000000 0.000000 0.000000 -0.127551
    7 17.597597 0.000000 0.000000 0.002950 -0.017289 0.103055
    8 1.293671 0.684478 -0.000001 -0.000004 -0.000001 0.201406
    9 5.309686 -0.003834 0.000000 -0.257300 0.084024 0.307957
    10 4.826790 -0.004591 0.000000 -0.265167 0.053451 0.193471
    11 5.792768 -0.005304 0.000000 -0.137147 0.025839 0.184294
    12 6.662314 -0.001453 0.000000 0.000000 -0.000001 0.471000
    13 2.046984 -0.000002 0.000000 0.411226 0.257954 -0.929595
    14 1.038628 0.548043 -0.144017 -0.000001 0.000001 -1.849906
    15 -0.064003 -0.023525 0.026161 0.000000 0.000000 0.000000
    16 3.013920 3.984632 -0.088975 -0.000001 0.000001 -1.849906
    17 -0.084188 -0.025625 -0.001098 0.000000 0.000000 0.000000
    18 4.778185 3.972485 -0.079803 -0.000001 0.000001 -1.849906
    19 -0.058556 -0.021328 0.004244 0.000000 0.000000 0.000000
    20 1.640597 -1.968779 -0.099219 -0.000001 0.000001 -1.849906
    21 0.055573 -0.028913 0.000000 0.000000 0.000000 0.000000
    22 -3.112023 1.517253 4.341910 2.355878 -0.972175 0.218929
    23 4.827231 0.000000 0.000002 -1.538424 0.182923 -0.879662
    24 11.139760 0.000000 0.000000 0.000000 0.000000 -1.565155
    25 10.314597 0.000000 -0.000001 -1.119069 0.303066 0.092734
    26 1.646739 0.449549 -1.702246 -0.391601 1.092980 -0.290137
    27 0.928312 0.000000 -0.000001 0.000000 0.000000 0.000000
    28 0.928313 -0.000001 0.000002 0.000000 0.000000 0.000000
    29 2.975833 -0.386307 -0.044143 -0.000797 -0.043611 0.000035
    30 1.438886 -0.000001 0.000000 0.000000 0.000000 0.784982
    31 1.485302 -0.000001 0.000000 0.000000 0.000000 0.532034
    32 -2.869897 1.399662 -4.140396 -0.000014 1.248694 2.669783
    33 4.972046 0.000000 0.000000 0.782353 -0.352652 -1.722203
    34 11.585350 0.000000 0.000001 0.000000 0.000000 -1.958506
    35 10.127054 -0.000001 -0.000001 1.892530 -0.027532 1.149858
    36 1.533672 0.109715 1.664490 -0.264755 -0.055959 0.783109
    37 0.928312 0.000001 0.000000 0.000000 0.000000 -0.453542
    38 0.928313 0.000000 0.000002 0.000000 0.000000 0.000000
    39 2.683747 -0.427339 0.044205 -0.005786 0.043239 -0.157091
    40 1.438886 -0.000001 0.000002 0.000000 0.000000 0.732659
    41 1.485300 0.000000 0.000000 0.000000 0.000000 1.168771
  time 11
    0 0.233849 0.368164 39.526119 0.000000 0.000000 -1.570795
    1 0.000000 0.000000 0.000000 0.000000 -1.570451 -1.570795
    2 -0.000004 0.000007 3.713254 -3.139539 0.026087 3.120120
    3 18.045721 0.000000 0.000000 0.000000 0.000000 -0.121501
    4 17.597595 0.000000 0.000000 -0.002613 0.026036 0.099967
    5 0.000004 -0.000003 -3.713254 3.139069 -0.017354 3.117144
    6 18.045725 0.000000 0.000000 0.000000 0.000000 -0.127551
    7 17.597597 0.000000 0.000000 0.002950 -0.017289 0.103055
    8 1.293671 0.684478 -0.000001 -0.000004 -0.000001 0.201406
    9 5.309686 -0.003834 0.000000 -0.257190 0.084348 0.309189
    10 4.826790 -0.004591 0.000000 -0.265167 0.053451 0.193471
    11 5.792768 -0.005304 0.000000 -0.136951 0.026881 0.191851
    12 6.662314 -0.001453 0.000000 0.000000 -0.000001 0.471000
    13 2.046984 -0.000002 0.000000 0.414501 0.251132 -0.938449
    14 1.038628 0.548043 -0.144017 -0.000001 0.000001 -1.849906
    15 -0.064003 -0.023525 0.026161 0.000000 0.000000 0.000000
    16 3.013920 3.984632 -0.088975 -0.000001 0.000001 -1.849906
    17 -0.084188 -0.025625 -0.001098 0.000000 0.000000 0.000000
    18 4.778185 3.972485 -0.079803 -0.000001 0.000001 -1.849906
    19 -0.058556 -0.021328 0.004244 0.000000 0.000000 0.000000
    20 1.640597 -1.968779 -0.099219 -0.000001 0.000001 -1.849906
    21 0.055573 -0.028913 0.000000 0.000000 0.000000 0.000000
    22 -3.112023 1.517253 4.341910 2.348591 -0.977098 0.227750
    23 4.827231 0.000000 0.000002 -1.534430 0.170499 -0.875461
    24 11.139760 0.000000 0.000000 0.000000 0.000000 -1.565155
    25 10.314597 0.000000 -0.000001 -1.119069 0.303066 0.092734
    26 1.646739 0.449549 -1.702246 -0.391601 1.092980 -0.290137
    27 0.928312 0.000000 -0.000001 0.000000 0.000000 0.000000
    28 0.928313 -0.000001 0.000002 0.000000 0.000000 0.000000
    29 2.975833 -0.386307 -0.044143 -0.000797 -0.043611 0.000035
    30 1.438886 -0.000001 0.000000 0.000000 0.000000 0.784982
    31 1.485302 -0.000001 0.000000 0.000000 0.000000 0.532034
    32 -2.869897 1.399662 -4.140396 -0.000014 1.237247 2.669783
    33 4.972046 0.000000 0.000000 0.769512 -0.346137 -1.720820
    34 11.585350 0.000000 0.000001 0.000000 0.000000 -1.958506
    35 10.127054 -0.000001 -0.000001 1.892530 -0.027532 1.149858
    36 1.533672 0.109715 1.664490 -0.264755 -0.055959 0.783109
    37 0.928312 0.000001 0.000000 0.000000 0.000000 -0.453542
    38 0.928313 0.000000 0.000002 0.000000 0.000000 0.000000
    39 2.683747 -0.427339 0.044205 -0.005786 0.043239 -0.157091
    40 1.438886 -0.000001 0.000002 0.000000 0.000000 0.732659
    41 1.485300 0.000000 0.000000 0.000000 0.000000 1.168771
  time 12
    0 0.233849 0.368164 39.526119 0.000000 0.000000 -1.570795
    1 0.000000 0.000000 0.000000 0.000000 -1.570451 -1.570795
    2 -0.000004 0.000007 3.713254 -3.139539 0.026087 3.120120
    3 18.045721 0.000000 0.000000 0.000000 0.000000 -0.121501
    4 17.597595 0.000000 0.000000 -0.002613 0.026036 0.099967
    5 0.000004 -0.000003 -3.713254 3.139069 -0.017354 3.117144
    6 18.045725 0.000000 0.000000 0.000000 0.000000 -0.127551
    7 17.597597 0.000000 0.000000 0.002950 -0.017289 0.103055
    8 1.293671 0.684478 -0.000001 -0.000004 -0.000001 0.201406
    9 5.309686 -0.003834 0.000000 -0.257105 0.084623 0.310239
    10 4.826790 -0.004591 0.000000 -0.265167 0.053451 0.193471
    11 5.792768 -0.005304 0.000000 -0.136772 0.027756 0.198205
    12 6.662314 -0.001453 0.000000 0.000000 -0.000001 0.471000
    13 2.046984 -0.000002 0.000000 0.417301 0.245391 -0.945911
    14 1.038628 0.548043 -0.144017 -0.000001 0.000001 -1.849906
    15 -0.064003 -0.023525 0.026161 0.000000 0.000000 0.000000
    16 3.013920 3.984632 -0.088975 -0.000001 0.000001 -1.849906
    17 -0.084188 -0.025625 -0.001098 0.000000 0.000000 0.000000
    18 4.778185 3.972485 -0.079803 -0.000001 0.000001 -1.849906
    19 -0.058556 -0.021328 0.004244 0.000000 0.000000 0.000000
    20 1.640597 -1.968779 -0.099219 -0.000001 0.000001 -1.849906
    21 0.055573 -0.028913 0.000000 0.000000 0.000000 0.000000
    22 -3.112023 1.517253 4.341910 2.342360 -0.981214 0.235324
    23 4.827231 0.000000 0.000002 -1.531141 0.160031 -0.871961
    24 11.139760 0.000000 0.000000 0.000000 0.000000 -1.565155
    25 10.314597 0.000000 -0.000001 -1.119069 0.303066 0.092734
    26 1.646739 0.449549 -1.702246 -0.391601 1.092980 -0.290137
    27 0.928312 0.000000 -0.000001 0.000000 0.000000 0.000000
    28 0.928313 -0.000001 0.000002 0.000000 0.000000 0.000000
    29 2.975833 -0.386307 -0.044143 -0.000797 -0.043611 0.000035
    30 1.438886 -0.000001 0.000000 0.000000 0.000000 0.784982
    31 1.485302 -0.000001 0.000000 0.000000 0.000000 0.532034
    32 -2.869897 1.399662 -4.140396 -0.000014 1.227637 2.669783
    33 4.972046 0.000000 0.000000 0.758682 -0.340667 -1.719766
    34 11.585350 0.000000 0.000001 0.000000 0.000000 -1.958506
    35 10.127054 -0.000001 -0.000001 1.892530 -0.027532 1.149858
    36 1.533672 0.109715 1.664490 -0.264755 -0.055959 0.783109
    37 0.928312 0.000001 0.000000 0.000000 0.000000 -0.453542
    38 0.928313 0.000000 0.000002 0.000000 0.000000 0.000000
    39 2.683747 -0.427339 0.044205 -0.005786 0.043239 -0.157091
    40 1.438886 -0.000001 0.000002 0.000000 0.000000 0.732659
    41 1.485300 0.000000 0.000000 0.000000 0.000000 1.168771
  time 13
    0 0.233849 0.368164 39.526119 0.000000 0.000000 -1.570795
    1 0.000000 0.000000 0.000000 0.000000 -1.570451 -1.570795
    2 -0.000004 0.000007 3.713254 -3.139539 0.026087 3.120120
    3 18.045721 0.000000 0.000000 0.000000 0.000000 -0.121501
    4 17.597595 0.000000 0.000000 -0.002613 0.026036 0.099967
    5 0.000004 -0.000003 -3.713254 3.139069 -0.017354 3.117144
    6 18.045725 0.000000 0.000000 0.000000 0.000000 -0.127551
    7 17.597597 0.000000 0.000000 0.002950 -0.017289 0.103055
    8 1.293671 0.684478 -0.000001 -0.000004 -0.000001 0.201406
    9 5.309686 -0.003834 0.000000 -0.257043 0.084827 0.311036
    10 4.826790 -0.004591 0.000000 -0.265167 0.053451 0.193471
    11 5.792768 -0.005304 0.000000 -0.136641 0.028427 0.203105
    12 6.662314 -0.001453 0.000000 0.000000 -0.000001 0.471000
    13 2.046984 -0.000002 0.000000 0.419412 0.240978 -0.951619
    14 1.038628 0.548043 -0.144017 -0.000001 0.000001 -1.849906
    15 -0.064003 -0.023525 0.026161 0.000000 0.000000 0.000000
    16 3.013920 3.984632 -0.088975 -0.000001 0.000001 -1.849906
    17 -0.084188 -0.025625 -0.001098 0.000000 0.000000 0.000000
    18 4.778185 3.972485 -0.079803 -0.000001 0.000001 -1.849906
    19 -0.058556 -0.021328 0.004244 0.000000 0.000000 0.000000
    20 1.640597 -1.968779 -0.099219 -0.000001 0.000001 -1.849906
    21 0.055573 -0.028913 0.000000 0.000000 0.000000 0.000000
    22 -3.112023 1.517253 4.341910 2.337470 -0.984368 0.241173
    23 4.827231 0.000000 0.000002 -1.528615 0.151947 -0.869335
    24 11.139760 0.000000 0.000000 0.000000 0.000000 -1.565155
    25 10.314597 0.000000 -0.000001 -1.119069 0.303066 0.092734
    26 1.646739 0.449549 -1.702246 -0.391601 1.092980 -0.290137
    27 0.928312 0.000000 -0.000001 0.000000 0.000000 0.000000
    28 0.928313 -0.000001 0.000002 0.000000 0.000000 0.000000
    29 2.975833 -0.386307 -0.044143 -0.000797 -0.043611 0.000035
    30 1.438886 -0.000001 0.000000 0.000000 0.000000 0.784982
    31 1.485302 -0.000001 0.000000 0.000000 0.000000 0.532034
    32 -2.869897 1.399662 -4.140396 -0.000014 1.220232 2.669783
    33 4.972046 0.000000 0.000000 0.750405 -0.336403 -1.719041
    34 11.585350 0.000000 0.000001 0.000000 0.000000 -1.958506
    35 10.127054 -0.000001 -0.000001 1.892530 -0.027532 1.149858
    36 1.533672 0.109715 1.664490 -0.264755 -0.055959 0.783109
    37 0.928312 0.000001 0.000000 0.000000 0.000000 -0.453542
    38 0.928313 0.000000 0.000002 0.000000 0.000000 0.000000
    39 2.683747 -0.427339 0.044205 -0.005786 0.043239 -0.157091
    40 1.438886 -0.000001 0.000002 0.000000 0.000000 0.732659
    41 1.485300 0.000000 0.000000 0.000000 0.000000 1.168771
  time 14
    0 0.233849 0.368164 39.526119 0.000000 0.000000 -1.570795
    1 0.000000 0.000000 0.000000 0.000000 -1.570451 -1.570795
    2 -0.000004 0.000007 3.713254 -3.139539 0.026087 3.120120
    3 18.045721 0.000000 0.000000 0.000000 0.000000 -0.121501
    4 17.597595 0.000000 0.000000 -0.002613 0.026036 0.099967
    5 0.000004 -0.000003 -3.713254 3.139069 -0.017354 3.117144
    6 18.045725 0.000000 0.000000 0.000000 0.000000 -0.127551
    7 17.597597 0.000000 0.000000 0.002950 -0.017289 0.103055
    8 1.293671 0.684478 -0.000001 -0.000004 -0.000001 0.201406
    9 5.309686 -0.003834 0.000000 -0.256994 0.084959 0.311543
    10 4.826790 -0.004591 0.000000 -0.265167 0.053451 0.193471
    11 5.792768 -0.005304 0.000000 -0.136543 0.028859 0.206240
    12 6.662314 -0.001453 0.000000 0.000000 -0.000001 0.471000
    13 2.046984 -0.000002 0.000000 0.420791 0.238141 -0.955305
    14 1.038628 0.548043 -0.144017 -0.000001 0.000001 -1.849906
    15 -0.064003 -0.023525 0.026161 0.000000 0.000000 0.000000
    16 3.013920 3.984632 -0.088975 -0.000001 0.000001 -1.849906
    17 -0.084188 -0.025625 -0.001098 0.000000 0.000000 0.000000
    18 4.778185 3.972485 -0.079803 -0.000001 0.000001 -1.849906
    19 -0.058556 -0.021328 0.004244 0.000000 0.000000 0.000000
    20 1.640597 -1.968779 -0.099219 -0.000001 0.000001 -1.849906
    21 0.055573 -0.028913 0.000000 0.000000 0.000000 0.000000
    22 -3.112023 1.517253 4.341910 2.334306 -0.986369 0.245008
    23 4.827231 0.000000 0.000002 -1.527088 0.146841 -0.867673
    24 11.139760 0.000000 0.000000 0.000000 0.000000 -1.565155
    25 10.314597 0.000000 -0.000001 -1.119069 0.303066 0.092734
    26 1.646739 0.449549 -1.702246 -0.391601 1.092980 -0.290137
    27 0.928312 0.000000 -0.000001 0.000000 0.000000 0.000000
    28 0.928313 -0.000001 0.000002 0.000000 0.000000 0.000000
    29 2.975833 -0.386307 -0.044143 -0.000797 -0.043611 0.000035
    30 1.438886 -0.000001 0.000000 0.000000 0.000000 0.784982
    31 1.485302 -0.000001 0.000000 0.000000 0.000000 0.532034
    32 -2.869897 1.399662 -4.140396 -0.000014 1.215484 2.669783
    33 4.972046 0.000000 0.000000 0.745145 -0.333749 -1.718646
    34 11.585350 0.000000 0.000001 0.000000 0.000000 -1.958506
    35 10.127054 -0.000001 -0.000001 1.892530 -0.027532 1.149858
    36 1.533672 0.109715 1.664490 -0.264755 -0.055971 0.783109
    37 0.928312 0.000001 0.000000 0.000000 0.000000 -0.453542
    38 0.928313 0.000000 0.000002 0.000000 0.000000 0.000000
    39 2.683747 -0.427339 0.044205 -0.005786 0.043239 -0.157091
    40 1.438886 -0.000001 0.000002 0.000000 0.000000 0.732659
    41 1.485300 0.000000 0.000000 0.000000 0.000000 1.168771
  time 15
    0 0.233849 0.368164 39.526119 0.000000 0.000000 -1.570795
    1 0.000000 0.000000 0.000000 0.000000 -1.570451 -1.570795
    2 -0.000004 0.000007 3.713254 -3.139539 0.026087 3.120120
    3 18.045721 0.000000 0.000000 0.000000 0.000000 -0.121501
    4 17.597595 0.000000 0.000000 -0.002613 0.026036 0.099967
    5 0.000004 -0.000003 -3.713254 3.139069 -0.017354 3.117144
    6 18.045725 0.000000 0.000000 0.000000 0.000000 -0.127551
    7 17.597597 0.000000 0.000000 0.002950 -0.017289 0.103055
    8 1.293671 0.684478 -0.000001 -0.000004 -0.000001 0.201406
    9 5.309686 -0.003834 0.000000 -0.256982 0.085007 0.311724
    10 4.826790 -0.004591 0.000000 -0.265167 0.053451 0.193471
    11 5.792768 -0.005304 0.000000 -0.136511 0.029015 0.207340
    12 6.662314 -0.001453 0.000000 0.000000 -0.000001 0.471000
    13 2.046984 -0.000002 0.000000 0.421265 0.237150 -0.956608
    14 1.038628 0.548043 -0.144017 -0.000001 0.000001 -1.849906
    15 -0.064003 -0.023525 0.026161 0.000000 0.000000 0.000000
    16 3.013920 3.984632 -0.088975 -0.000001 0.000001 -1.849906
    17 -0.084188 -0.025625 -0.001098 0.000000 0.000000 0.000000
    18 4.778185 3.972485 -0.079803 -0.000001 0.000001 -1.849906
    19 -0.058556 -0.021328 0.004244 0.000000 0.000000 0.000000
    20 1.640597 -1.968779 -0.099219 -0.000001 0.000001 -1.849906
    21 0.055573 -0.028913 0.000000 0.000000 0.000000 0.000000
    22 -3.112023 1.517253 4.341910 2.333156 -0.987099 0.246350
    23 4.827231 0.000000 0.000002 -1.526500 0.144968 -0.867148
    24 11.139760 0.000000 0.000000 0.000000 0.000000 -1.565155
    25 10.314597 0.000000 -0.000001 -1.119069 0.303066 0.092734
    26 1.646739 0.449549 -1.702246 -0.391601 1.092980 -0.290137
    27 0.928312 0.000000 -0.000001 0.000000 0.000000 0.000000
    28 0.928313 -0.000001 0.000002 0.000000 0.000000 0.000000
    29 2.975833 -0.386307 -0.044143 -0.000797 -0.043611 0.000035
    30 1.438886 -0.000001 0.000000 0.000000 0.000000 0.784982
    31 1.485302 -0.000001 0.000000 0.000000 0.000000 0.532034
    32 -2.869897 1.399662 -4.140396 -0.000014 1.213816 2.669783
    33 4.972046 0.000000 0.000000 0.743288 -0.332784 -1.718514
    34 11.585350 0.000000 0.000001 0.000000 0.000000 -1.958506
    35 10.127054 -0.000001 -0.000001 1.892530 -0.027532 1.149858
    36 1.533672 0.109715 1.664490 -0.264755 -0.055959 0.783109
    37 0.928312 0.000001 0.000000 0.000000 0.000000 -0.453542
    38 0.928313 0.000000 0.000002 0.000000 0.000000 0.000000
    39 2.683747 -0.427339 0.044205 -0.005786 0.043239 -0.157091
    40 1.438886 -0.000001 0.000002 0.000000 0.000000 0.732659
    41 1.485300 0.000000 0.000000 0.000000 0.000000 1.168771
  time 16
    0 0.233849 0.368164 39.526119 0.000000 0.000000 -1.570795
    1 0.000000 0.000000 0.000000 0.000000 -1.570451 -1.570795
    2 -0.000004 0.000007 3.713254 -3.139539 0.026087 3.120120
    3 18.045721 0.000000 0.000000 0.000000 0.000000 -0.121501
    4 17.597595 0.000000 0.000000 -0.002613 0.026036 0.099967
    5 0.000004 -0.000003 -3.713254 3.139069 -0.017354 3.117144
    6 18.045725 0.000000 0.000000 0.000000 0.000000 -0.127551
    7 17.597597 0.000000 0.000000 0.002950 -0.017289 0.103055
    8 1.293671 0.684478 -0.000001 -0.000004 -0.000001 0.201406
    9 5.309686 -0.003834 0.000000 -0.256994 0.084959 0.311543
    10 4.826790 -0.004591 0.000000 -0.265167 0.053451 0.193471
    11 5.792768 -0.005304 0.000000 -0.136543 0.028859 0.206240
    12 6.662314 -0.001453 0.000000 0.000000 -0.000001 0.471000
    13 2.046984 -0.000002 0.000000 0.420791 0.238141 -0.955305
    14 1.038628 0.548043 -0.144017 -0.000001 0.000001 -1.849906
    15 -0.064003 -0.023525 0.026161 0.000000 0.000000 0.000000
    16 3.013920 3.984632 -0.088975 -0.000001 0.000001 -1.849906
    17 -0.084188 -0.025625 -0.001098 0.000000 0.000000 0.000000
    18 4.778185 3.972485 -0.079803 -0.000001 0.000001 -1.849906
    19 -0.058556 -0.021328 0.004244 0.000000 0.000000 0.000000
    20 1.640597 -1.968779 -0.099219 -0.000001 0.000001 -1.849906
    21 0.055573 -0.028913 0.000000 0.000000 0.000000 0.000000
    22 -3.112023 1.517253 4.341910 2.334306 -0.986369 0.245008
    23 4.827231 0.000000 0.000002 -1.527088 0.146841 -0.867673
    24 11.139760 0.000000 0.000000 0.000000 0.000000 -1.565155
    25 10.314597 0.000000 -0.000001 -1.119069 0.303066 0.092734
    26 1.646739 0.449549 -1.702246 -0.391601 1.092980 -0.290137
    27 0.928312 0.000000 -0.000001 0.000000 0.000000 0.000000
    28 0.928313 -0.000001 0.000002 0.000000 0.000000 0.000000
    29 2.975833 -0.386307 -0.044143 -0.000797 -0.043611 0.000035
    30 1.438886 -0.000001 0.000000 0.000000 0.000000 0.784982
    31 1.485302 -0.000001 0.000000 0.000000 0.000000 0.532034
    32 -2.869897 1.399662 -4.140396 -0.000014 1.215484 2.669783
    33 4.972046 0.000000 0.000000 0.745145 -0.333749 -1.718646
    34 11.585350 0.000000 0.000001 0.000000 0.000000 -1.958506
    35 10.127054 -0.000001 -0.000001 1.892530 -0.027532 1.149858
    36 1.533672 0.109715 1.664490 -0.264755 -0.055959 0.783109
    37 0.928312 0.000001 0.000000 0.000000 0.000000 -0.453542
    38 0.928313 0.000000 0.000002 0.000000 0.000000 0.000000
    39 2.683747 -0.427339 0.044205 -0.005786 0.043239 -0.157091
    40 1.438886 -0.000001 0.000002 0.000000 0.000000 0.732659
    41 1.485300 0.000000 0.000000 0.000000 0.000000 1.168771
  time 17
    0 0.233849 0.368164 39.526119 0.000000 0.000000 -1.570795
    1 0.000000 0.000000 0.000000 0.000000 -1.570451 -1.570795
    2 -0.000004 0.000007 3.713254 -3.139539 0.026087 3.120120
    3 18.045721 0.000000 0.000000 0.000000 0.000000 -0.121501
    4 17.597595 0.000000 0.000000 -0.002613 0.026036 0.099967
    5 0.000004 -0.000003 -3.713254 3.139069 -0.017354 3.117144
    6 18.045725 0.000000 0.000000 0.000000 0.000000 -0.127551
    7 17.597597 0.000000 0.000000 0.002950 -0.017289 0.103055
    8 1.293671 0.684478 -0.000001 -0.000004 -0.000001 0.201406
    9 5.309686 -0.003834 0.000000 -0.257043 0.084827 0.311036
    10 4.826790 -0.004591 0.000000 -0.265167 0.053451 0.193471
    11 5.792768 -0.005304 0.000000 -0.136641 0.028427 0.203105
    12 6.662314 -0.001453 0.000000 0.000000 -0.000001 0.471000
    13 2.046984 -0.000002 0.000000 0.419412 0.240978 -0.951619
    14 1.038628 0.548043 -0.144017 -0.000001 0.000001 -1.849906
    15 -0.064003 -0.023525 0.026161 0.000000 0.000000 0.000000
    16 3.013920 3.984632 -0.088975 -0.000001 0.000001 -1.849906
    17 -0.084188 -0.025625 -0.001098 0.000000 0.000000 0.000000
    18 4.778185 3.972485 -0.079803 -0.000001 0.000001 -1.849906
    19 -0.058556 -0.021328 0.004244 0.000000 0.000000 0.000000
    20 1.640597 -1.968779 -0.099219 -0.000001 0.000001 -1.849906
    21 0.055573 -0.028913 0.000000 0.000000 0.000000 0.000000
    22 -3.112023 1.517253 4.341910 2.337470 -0.984368 0.241173
    23 4.827231 0.000000 0.000002 -1.528615 0.151947 -0.869335
    24 11.139760 0.000000 0.000000 0.000000 0.000000 -1.565155
    25 10.314597 0.000000 -0.000001 -1.119069 0.303066 0.092734
    26 1.646739 0.449549 -1.702246 -0.391601 1.092980 -0.290137
    27 0.928312 0.000000 -0.000001 0.000000 0.000000 0.000000
    28 0.928313 -0.000001 0.000002 0.000000 0.000000 0.000000
    29 2.975833 -0.386307 -0.044143 -0.000797 -0.043611 0.000035
    30 1.438886 -0.000001 0.000000 0.000000 0.000000 0.784982
    31 1.485302 -0.000001 0.000000 0.000000 0.000000 0.532034
    32 -2.869897 1.399662 -4.140396 -0.000014 1.220232 2.669783
    33 4.972046 0.000000 0.000000 0.750405 -0.336403 -1.719041
    34 11.585350 0.000000 0.000001 0.000000 0.000000 -1.958506
    35 10.127054 -0.000001 -0.000001 1.892530 -0.027532 1.149858
    36 1.533672 0.109715 1.664490 -0.264755 -0.055959 0.783109
    37 0.928312 0.000001 0.000000 0.000000 0.000000 -0.453542
    38 0.928313 0.000000 0.000002 0.000000 0.000000 0.000000
    39 2.683747 -0.427339 0.044205 -0.005786 0.043239 -0.157091
    40 1.438886 -0.000001 0.000002 0.000000 0.000000 0.732659
    41 1.485300 0.000000 0.000000 0.000000 0.000000 1.168771
  time 18
    0 0.233849 0.368164 39.526119 0.000000 0.000000 -1.570795
    1 0.000000 0.000000 0.000000 0.000000 -1.570451 -1.570795
    2 -0.000004 0.000007 3.713254 -3.139539 0.026087 3.120120
    3 18.045721 0.000000 0.000000 0.000000 0.000000 -0.121501
    4 17.597595 0.000000 0.000000 -0.002613 0.026036 0.099967
    5 0.000004 -0.000003 -3.713254 3.139069 -0.017354 3.117144
    6 18.045725 0.000000 0.000000 0.000000 0.000000 -0.127551
    7 17.597597 0.000000 0.000000 0.002950 -0.017289 0.103055
    8 1.293671 0.684478 -0.000001 -0.000004 -0.000001 0.201406
    9 5.309686 -0.003834 0.000000 -0.257105 0.084623 0.310239
    10 4.826790 -0.004591 0.000000 -0.265167 0.053451 0.193471
    11 5.792768 -0.005304 0.000000 -0.136772 0.027756 0.198205
    12 6.662314 -0.001453 0.000000 0.000000 -0.000001 0.471000
    13 2.046984 -0.000002 0.000000 0.417301 0.245391 -0.945911
    14 1.038628 0.548043 -0.144017 -0.000001 0.000001 -1.849906
    15 -0.064003 -0.023525 0.026161 0.000000 0.000000 0.000000
    16 3.013920 3.984632 -0.088975 -0.000001 0.000001 -1.849906
    17 -0.084188 -0.025625 -0.001098 0.000000 0.000000 0.000000
    18 4.778185 3.972485 -0.079803 -0.000001 0.000001 -1.849906
    19 -0.058556 -0.021328 0.004244 0.000000 0.000000 0.000000
    20 1.640597 -1.968779 -0.099219 -0.000001 0.000001 -1.849906
    21 0.055573 -0.028913 0.000000 0.000000 0.000000 0.000000
    22 -3.112023 1.517253 4.341910 2.342360 -0.981214 0.235324
    23 4.827231 0.000000 0.000002 -1.531141 0.160031 -0.871961
    24 11.139760 0.000000 0.000000 0.000000 0.000000 -1.565155
    25 10.314597 0.000000 -0.000001 -1.119069 0.303066 0.092734
    26 1.646739 0.449549 -1.702246 -0.391601 1.092980 -0.290137
    27 0.928312 0.000000 -0.000001 0.000000 0.000000 0.000000
    28 0.928313 -0.000001 0.000002 0.000000 0.000000 0.000000
    29 2.975833 -0.386307 -0.044143 -0.000797 -0.043611 0.000035
    30 1.438886 -0.000001 0.000000 0.000000 0.000000 0.784982
    31 1.485302 -0.000001 0.000000 0.000000 0.000000 0.532034
    32 -2.869897 1.399662 -4.140396 -0.000014 1.227637 2.669783
    33 4.972046 0.000000 0.000000 0.758682 -0.340667 -1.719766
    34 11.585350 0.000000 0.000001 0.000000 0.000000 -1.958506
    35 10.127054 -0.000001 -0.000001 1.892530 -0.027532 1.149858
    36 1.533672 0.109715 1.664490 -0.264755 -0.055959 0.783109
    37 0.928312 0.000001 0.000000 0.000000 0.000000 -0.453542
    38 0.928313 0.000000 0.000002 0.000000 0.000000 0.000000
    39 2.683747 -0.427339 0.044205 -0.005786 0.043239 -0.157091
    40 1.438886 -0.000001 0.000002 0.000000 0.000000 0.732659
    41 1.485300 0.000000 0.000000 0.000000 0.000000 1.168771
  time 19
    0 0.233849 0.368164 39.526119 0.000000 0.000000 -1.570795
    1 0.000000 0.000000 0.000000 0.000000 -1.570451 -1.570795
    2 -0.000004 0.000007 3.713254 -3.139539 0.026087 3.120120
    3 18.045721 0.000000 0.000000 0.000000 0.000000 -0.121501
    4 17.597595 0.000000 0.000000 -0.002613 0.026036 0.099967
    5 0.000004 -0.000003 -3.713254 3.139069 -0.017354 3.117144
    6 18.045725 0.000000 0.000000 0.000000 0.000000 -0.127551
    7 17.597597 0.000000 0.000000 0.002950 -0.017289 0.103055
    8 1.293671 0.684478 -0.000001 -0.000004 -0.000001 0.201406
    9 5.309686 -0.003834 0.000000 -0.257190 0.084348 0.309189
    10 4.826790 -0.004591 0.000000 -0.265167 0.053451 0.193471
    11 5.792768 -0.005304 0.000000 -0.136951 0.026881 0.191851
    12 6.662314 -0.001453 0.000000 0.000000 -0.000001 0.471000
    13 2.046984 -0.000002 0.000000 0.414501 0.251132 -0.938449
    14 1.038628 0.548043 -0.144017 -0.000001 0.000001 -1.849906
    15 -0.064003 -0.023525 0.026161 0.000000 0.000000 0.000000
    16 3.013920 3.984632 -0.088975 -0.000001 0.000001 -1.849906
    17 -0.084188 -0.025625 -0.001098 0.000000 0.000000 0.000000
    18 4.778185 3.972485 -0.079803 -0.000001 0.000001 -1.849906
    19 -0.058556 -0.021328 0.004244 0.000000 0.000000 0.000000
    20 1.640597 -1.968779 -0.099219 -0.000001 0.000001 -1.849906
    21 0.055573 -0.028913 0.000000 0.000000 0.000000 0.000000
    22 -3.112023 1.517253 4.341910 2.348591 -0.977098 0.227750
    23 4.827231 0.000000 0.000002 -1.534430 0.170499 -0.875461
    24 11.139760 0.000000 0.000000 0.000000 0.000000 -1.565155
    25 10.314597 0.000000 -0.000001 -1.119069 0.303066 0.092734
    26 1.646739 0.449549 -1.702246 -0.391601 1.092980 -0.290137
    27 0.928312 0.000000 -0.000001 0.000000 0.000000 0.000000
    28 0.928313 -0.000001 0.000002 0.000000 0.000000 0.000000
    29 2.975833 -0.386307 -0.044143 -0.000797 -0.043611 0.000035
    30 1.438886 -0.000001 0.000000 0.000000 0.000000 0.784982
    31 1.485302 -0.000001 0.000000 0.000000 0.000000 0.532034
    32 -2.869897 1.399662 -4.140396 -0.000014 1.237247 2.669783
    33 4.972046 0.000000 0.000000 0.769512 -0.346137 -1.720820
    34 11.585350 0.000000 0.000001 0.000000 0.000000 -1.958506
    35 10.127054 -0.000001 -0.000001 1.892530 -0.027532 1.149858
    36 1.533672 0.109715 1.664490 -0.264755 -0.055959 0.783109
    37 0.928312 0.000001 0.000000 0.000000 0.000000 -0.453542
    38 0.928313 0.000000 0.000002 0.000000 0.000000 0.000000
    39 2.683747 -0.427339 0.044205 -0.005786 0.043239 -0.157091
    40 1.438886 -0.000001 0.000002 0.000000 0.000000 0.732659
    41 1.485300 0.000000 0.000000 0.000000 0.000000 1.168771
  time 20
    0 0.233849 0.368164 39.526119 0.000000 0.000000 -1.570795
    1 0.000000 0.000000 0.000000 0.000000 -1.570451 -1.570795
    2 -0.000004 0.000007 3.713254 -3.139539 0.026087 3.120120
    3 18.045721 0.000000 0.000000 0.000000 0.000000 -0.121501
    4 17.597595 0.000000 0.000000 -0.002613 0.026036 0.099967
    5 0.000004 -0.000003 -3.713254 3.139069 -0.017354 3.117144
    6 18.045725 0.000000 0.000000 0.000000 0.000000 -0.127551
    7 17.597597 0.000000 0.000000 0.002950 -0.017289 0.103055
    8 1.293671 0.684478 -0.000001 -0.000004 -0.000001 0.201406
    9 5.309686 -0.003834 0.000000 -0.257300 0.084024 0.307957
    10 4.826790 -0.004591 0.000000 -0.265167 0.053451 0.193471
    11 5.792768 -0.005304 0.000000 -0.137147 0.025839 0.184294
    12 6.662314 -0.001453 0.000000 0.000000 -0.000001 0.471000
    13 2.046984 -0.000002 0.000000 0.411226 0.257954 -0.929595
    14 1.038628 0.548043 -0.144017 -0.000001 0.000001 -1.849906
    15 -0.064003 -0.023525 0.026161 0.000000 0.000000 0.000000
    16 3.013920 3.984632 -0.088975 -0.000001 0.000001 -1.849906
    17 -0.084188 -0.025625 -0.001098 0.000000 0.000000 0.000000
    18 4.778185 3.972485 -0.079803 -0.000001 0.000001 -1.849906
    19 -0.058556 -0.021328 0.004244 0.000000 0.000000 0.000000
    20 1.640597 -1.968779 -0.099219 -0.000001 0.000001 -1.849906
    21 0.055573 -0.028913 0.000000 0.000000 0.000000 0.000000
    22 -3.112023 1.517253 4.341910 2.355878 -0.972175 0.218929
    23 4.827231 0.000000 0.000002 -1.538424 0.182923 -0.879662
    24 11.139760 0.000000 0.000000 0.000000 0.000000 -1.565155
    25 10.314597 0.000000 -0.000001 -1.119069 0.303066 0.092734
    26 1.646739 0.449549 -1.702246 -0.391601 1.092980 -0.290137
    27 0.928312 0.000000 -0.000001 0.000000 0.000000 0.000000
    28 0.928313 -0.000001 0.000002 0.000000 0.000000 0.000000
    29 2.975833 -0.386307 -0.044143 -0.000797 -0.043611 0.000035
    30 1.438886 -0.000001 0.000000 0.000000 0.000000 0.784982
    31 1.485302 -0.000001 0.000000 0.000000 0.000000 0.532034
    32 -2.869897 1.399662 -4.140396 -0.000014 1.248694 2.669783
    33 4.972046 0.000000 0.000000 0.782353 -0.352652 -1.722203
    34 11.585350 0.000000 0.000001 0.000000 0.000000 -1.958506
    35 10.127054 -0.000001 -0.000001 1.892530 -0.027532 1.149858
    36 1.533672 0.109715 1.664490 -0.264755 -0.055959 0.783109
    37 0.928312 0.000001 0.000000 0.000000 0.000000 -0.453542
    38 0.928313 0.000000 0.000002 0.000000 0.000000 0.000000
    39 2.683747 -0.427339 0.044205 -0.005786 0.043239 -0.157091
    40 1.438886 -0.000001 0.000002 0.000000 0.000000 0.732659
    41 1.485300 0.000000 0.000000 0.000000 0.000000 1.168771
  time 21
    0 0.233849 0.368164 39.526119 0.000000 0.000000 -1.570795
    1 0.000000 0.000000 0.000000 0.000000 -1.570451 -1.570795
    2 -0.000004 0.000007 3.713254 -3.139539 0.026087 3.120120
    3 18.045721 0.000000 0.000000 0.000000 0.000000 -0.121501
    4 17.597595 0.000000 0.000000 -0.002613 0.026036 0.099967
    5 0.000004 -0.000003 -3.713254 3.139069 -0.017354 3.117144
    6 18.045725 0.000000 0.000000 0.000000 0.000000 -0.127551
    7 17.597597 0.000000 0.000000 0.002950 -0.017289 0.103055
    8 1.293671 0.684478 -0.000001 -0.000004 -0.000001 0.201406
    9 5.309686 -0.003834 0.000000 -0.257411 0.083664 0.306581
    10 4.826790 -0.004591 0.000000 -0.265167 0.053451 0.193471
    11 5.792768 -0.005304 0.000000 -0.137359 0.024664 0.175802
    12 6.662314 -0.001453 0.000000 0.000000 -0.000001 0.471000
    13 2.046984 -0.000002 0.000000 0.407478 0.265609 -0.919706
    14 1.038628 0.548043 -0.144017 -0.000001 0.000001 -1.849906
    15 -0.064003 -0.023525 0.026161 0.000000 0.000000 0.000000
    16 3.013920 3.984632 -0.088975 -0.000001 0.000001 -1.849906
    17 -0.084188 -0.025625 -0.001098 0.000000 0.000000 0.000000
    18 4.778185 3.972485 -0.079803 -0.000001 0.000001 -1.849906
    19 -0.058556 -0.021328 0.004244 0.000000 0.000000 0.000000
    20 1.640597 -1.968779 -0.099219 -0.000001 0.000001 -1.849906
    21 0.055573 -0.028913 0.000000 0.000000 0.000000 0.000000
    22 -3.112023 1.517253 4.341910 2.363931 -0.966636 0.209150
    23 4.827231 0.000000 0.000002 -1.542947 0.196795 -0.884562
    24 11.139760 0.000000 0.000000 0.000000 0.000000 -1.565155
    25 10.314597 0.000000 -0.000001 -1.119069 0.303066 0.092734
    26 1.646739 0.449549 -1.702246 -0.391601 1.092980 -0.290137
    27 0.928312 0.000000 -0.000001 0.000000 0.000000 0.000000
    28 0.928313 -0.000001 0.000002 0.000000 0.000000 0.000000
    29 2.975833 -0.386307 -0.044143 -0.000797 -0.043611 0.000035
    30 1.438886 -0.000001 0.000000 0.000000 0.000000 0.784982
    31 1.485302 -0.000001 0.000000 0.000000 0.000000 0.532034
    32 -2.869897 1.399662 -4.140396 -0.000014 1.261526 2.669783
    33 4.972046 0.000000 0.000000 0.796818 -0.359973 -1.724048
    34 11.585350 0.000000 0.000001 0.000000 0.000000 -1.958506
    35 10.127054 -0.000001 -0.000001 1.892530 -0.027532 1.149858
    36 1.533672 0.109715 1.664490 -0.264755 -0.055959 0.783109
    37 0.928312 0.000001 0.000000 0.000000 0.000000 -0.453542
    38 0.928313 0.000000 0.000002 0.000000 0.000000 0.000000
    39 2.683747 -0.427339 0.044205 -0.005786 0.043239 -0.157091
    40 1.438886 -0.000001 0.000002 0.000000 0.000000 0.732659
    41 1.485300 0.000000 0.000000 0.000000 0.000000 1.168771
  time 22
    0 0.233849 0.368164 39.526119 0.000000 0.000000 -1.570795
    1 0.000000 0.000000 0.000000 0.000000 -1.570451 -1.570795
    2 -0.000004 0.000007 3.713254 -3.139539 0.026087 3.120120
    3 18.045721 0.000000 0.000000 0.000000 0.000000 -0.121501
    4 17.597595 0.000000 0.000000 -0.002613 0.026036 0.099967
    5 0.000004 -0.000003 -3.713254 3.139069 -0.017354 3.117144
    6 18.045725 0.000000 0.000000 0.000000 0.000000 -0.127551
    7 17.597597 0.000000 0.000000 0.002950 -0.017289 0.103055
    8 1.293671 0.684478 -0.000001 -0.000004 -0.000001 0.201406
    9 5.309686 -0.003834 0.000000 -0.257533 0.083269 0.305078
    10 4.826790 -0.004591 0.000000 -0.265167 0.053451 0.193471
    11 5.792768 -0.005304 0.000000 -0.137587 0.023406 0.166687
    12 6.662314 -0.001453 0.000000 0.000000 -0.000001 0.471000
    13 2.046984 -0.000002 0.000000 0.403471 0.273827 -0.909099
    14 1.038628 0.548043 -0.144017 -0.000001 0.000001 -1.849906
    15 -0.064003 -0.023525 0.026161 0.000000 0.000000 0.000000
    16 3.013920 3.984632 -0.088975 -0.000001 0.000001 -1.849906
    17 -0.084188 -0.025625 -0.001098 0.000000 0.000000 0.000000
    18 4.778185 3.972485 -0.079803 -0.000001 0.000001 -1.849906
    19 -0.058556 -0.021328 0.004244 0.000000 0.000000 0.000000
    20 1.640597 -1.968779 -0.099219 -0.000001 0.000001 -1.849906
    21 0.055573 -0.028913 0.000000 0.000000 0.000000 0.000000
    22 -3.112023 1.517253 4.341910 2.372464 -0.960596 0.198795
    23 4.827231 0.000000 0.000002 -1.547998 0.211602 -0.889988
    24 11.139760 0.000000 0.000000 0.000000 0.000000 -1.565155
    25 10.314597 0.000000 -0.000001 -1.119069 0.303066 0.092734
    26 1.646739 0.449549 -1.702246 -0.391601 1.092980 -0.290137
    27 0.928312 0.000000 -0.000001 0.000000 0.000000 0.000000
    28 0.928313 -0.000001 0.000002 0.000000 0.000000 0.000000
    29 2.975833 -0.386307 -0.044143 -0.000797 -0.043611 0.000035
    30 1.438886 -0.000001 0.000000 0.000000 0.000000 0.784982
    31 1.485302 -0.000001 0.000000 0.000000 0.000000 0.532034
    32 -2.869897 1.399662 -4.140396 -0.000014 1.275347 2.669783
    33 4.972046 0.000000 0.000000 0.812443 -0.367936 -1.726287
    34 11.585350 0.000000 0.000001 0.000000 0.000000 -1.958506
    35 10.127054 -0.000001 -0.000001 1.892530 -0.027532 1.149858
    36 1.533672 0.109715 1.664490 -0.264755 -0.055959 0.783109
    37 0.928312 0.000001 0.000000 0.000000 0.000000 -0.453542
    38 0.928313 0.000000 0.000002 0.000000 0.000000 0.000000
    39 2.683747 -0.427339 0.044205 -0.005786 0.043239 -0.157091
    40 1.438886 -0.000001 0.000002 0.000000 0.000000 0.732659
    41 1.485300 0.000000 0.000000 0.000000 0.000000 1.168771
  time 23
    0 0.233849 0.368164 39.526119 0.000000 0.000000 -1.570795
    1 0.000000 0.000000 0.000000 0.000000 -1.570451 -1.570795
    2 -0.000004 0.000007 3.713254 -3.139539 0.026087 3.120120
    3 18.045721 0.000000 0.000000 0.000000 0.000000 -0.121501
    4 17.597595 0.000000 0.000000 -0.002613 0.026036 0.099967
    5 0.000004 -0.000003 -3.713254 3.139069 -0.017354 3.117144
    6 18.045725 0.000000 0.000000 0.000000 0.000000 -0.127551
    7 17.597597 0.000000 0.000000 0.002950 -0.017289 0.103055
    8 1.293671 0.684478 -0.000001 -0.000004 -0.000001 0.201406
    9 5.309686 -0.003834 0.000000 -0.257668 0.082861 0.303539
    10 4.826790 -0.004591 0.000000 -0.265167 0.053451 0.193471
    11 5.792768 -0.005304 0.000000 -0.137799 0.022088 0.157178
    12 6.662314 -0.001453 0.000000 0.000000 -0.000001 0.471000
    13 2.046984 -0.000002 0.000000 0.399292 0.282405 -0.898131
    14 1.038628 0.548043 -0.144017 -0.000001 0.000001 -1.849906
    15 -0.064003 -0.023525 0.026161 0.000000 0.000000 0.000000
    16 3.013920 3.984632 -0.088975 -0.000001 0.000001 -1.849906
    17 -0.084188 -0.025625 -0.001098 0.000000 0.000000 0.000000
    18 4.778185 3.972485 -0.079803 -0.000001 0.000001 -1.849906
    19 -0.058556 -0.021328 0.004244 0.000000 0.000000 0.000000
    20 1.640597 -1.968779 -0.099219 -0.000001 0.000001 -1.849906
    21 0.055573 -0.028913 0.000000 0.000000 0.000000 0.000000
    22 -3.112023 1.517253 4.341910 2.381092 -0.954250 0.188249
    23 4.827231 0.000000 0.000002 -1.553343 0.227091 -0.895851
    24 11.139760 0.000000 0.000000 0.000000 0.000000 -1.565155
    25 10.314597 0.000000 -0.000001 -1.119069 0.303066 0.092734
    26 1.646739 0.449549 -1.702246 -0.391601 1.092980 -0.290137
    27 0.928312 0.000000 -0.000001 0.000000 0.000000 0.000000
    28 0.928313 -0.000001 0.000002 0.000000 0.000000 0.000000
    29 2.975833 -0.386307 -0.044143 -0.000797 -0.043611 0.000035
    30 1.438886 -0.000001 0.000000 0.000000 0.000000 0.784982
    31 1.485302 -0.000001 0.000000 0.000000 0.000000 0.532034
    32 -2.869897 1.399662 -4.140396 -0.000014 1.289733 2.669783
    33 4.972046 0.000000 0.000000 0.828843 -0.376222 -1.728922
    34 11.585350 0.000000 0.000001 0.000000 0.000000 -1.958506
    35 10.127054 -0.000001 -0.000001 1.892530 -0.027532 1.149858
    36 1.533672 0.109715 1.664490 -0.264755 -0.055959 0.783109
    37 0.928312 0.000001 0.000000 0.000000 0.000000 -0.453542
    38 0.928313 0.000000 0.000002 0.000000 0.000000 0.000000
    39 2.683747 -0.427339 0.044205 -0.005786 0.043239 -0.157091
    40 1.438886 -0.000001 0.000002 0.000000 0.000000 0.732659
    41 1.485300 0.000000 0.000000 0.000000 0.000000 1.168771
  time 24
    0 0.233849 0.368164 39.526119 0.000000 0.000000 -1.570795
    1 0.000000 0.000000 0.000000 0.000000 -1.570451 -1.570795
    2 -0.000004 0.000007 3.713254 -3.139539 0.026087 3.120120
    3 18.045721 0.000000 0.000000 0.000000 0.000000 -0.121501
    4 17.597595 0.000000 0.000000 -0.002613 0.026036 0.099967
    5 0.000004 -0.000003 -3.713254 3.139069 -0.017354 3.117144
    6 18.045725 0.000000 0.000000 0.000000 0.000000 -0.127551
    7 17.597597 0.000000 0.000000 0.002950 -0.017289 0.103055
    8 1.293671 0.684478 -0.000001 -0.000004 -0.000001 0.201406
    9 5.309686 -0.003834 0.000000 -0.257802 0.082454 0.301963
    10 4.826790 -0.004591 0.000000 -0.265167 0.053451 0.193471
    11 5.792768 -0.005304 0.000000 -0.138011 0.020757 0.147606
    12 6.662314 -0.001453 0.000000 0.000000 -0.000001 0.471000
    13 2.046984 -0.000002 0.000000 0.395070 0.291051 -0.887074
    14 1.038628 0.548043 -0.144017 -0.000001 0.000001 -1.849906
    15 -0.064003 -0.023525 0.026161 0.000000 0.000000 0.000000
    16 3.013920 3.984632 -0.088975 -0.000001 0.000001 -1.849906
    17 -0.084188 -0.025625 -0.001098 0.000000 0.000000 0.000000
    18 4.778185 3.972485 -0.079803 -0.000001 0.000001 -1.849906
    19 -0.058556 -0.021328 0.004244 0.000000 0.000000 0.000000
    20 1.640597 -1.968779 -0.099219 -0.000001 0.000001 -1.849906
    21 0.055573 -0.028913 0.000000 0.000000 0.000000 0.000000
    22 -3.112023 1.517253 4.341910 2.389625 -0.947787 0.177798
    23 4.827231 0.000000 0.000002 -1.558864 0.242579 -0.901889
    24 11.139760 0.000000 0.000000 0.000000 0.000000 -1.565155
    25 10.314597 0.000000 -0.000001 -1.119069 0.303066 0.092734
    26 1.646739 0.449549 -1.702246 -0.391601 1.092980 -0.290137
    27 0.928312 0.000000 -0.000001 0.000000 0.000000 0.000000
    28 0.928313 -0.000001 0.000002 0.000000 0.000000 0.000000
    29 2.975833 -0.386307 -0.044143 -0.000797 -0.043611 0.000035
    30 1.438886 -0.000001 0.000000 0.000000 0.000000 0.784982
    31 1.485302 -0.000001 0.000000 0.000000 0.000000 0.532034
    32 -2.869897 1.399662 -4.140396 -0.000014 1.304233 2.669783
    33 4.972046 0.000000 0.000000 0.845474 -0.384507 -1.731886
    34 11.585350 0.000000 0.000001 0.000000 0.000000 -1.958506
    35 10.127054 -0.000001 -0.000001 1.892530 -0.027532 1.149858
    36 1.533672 0.109715 1.664490 -0.264755 -0.055959 0.783109
    37 0.928312 0.000001 0.000000 0.000000 0.000000 -0.453542
    38 0.928313 0.000000 0.000002 0.000000 0.000000 0.000000
    39 2.683747 -0.427339 0.044205 -0.005786 0.043239 -0.157091
    40 1.438886 -0.000001 0.000002 0.000000 0.000000 0.732659
    41 1.485300 0.000000 0.000000 0.000000 0.000000 1.168771
  time 25
    0 0.233849 0.368164 39.526119 0.000000 0.000000 -1.570795
    1 0.000000 0.000000 0.000000 0.000000 -1.570451 -1.570795
    2 -0.000004 0.000007 3.713254 -3.139539 0.026087 3.120120
    3 18.045721 0.000000 0.000000 0.000000 0.000000 -0.121501
    4 17.597595 0.000000 0.000000 -0.002613 0.026036 0.099967
    5 0.000004 -0.000003 -3.713254 3.139069 -0.017354 3.117144
    6 18.045725 0.000000 0.000000 0.000000 0.000000 -0.127551
    7 17.597597 0.000000 0.000000 0.002950 -0.017289 0.103055
    8 1.293671 0.684478 -0.000001 -0.000004 -0.000001 0.201406
    9 5.309686 -0.003834 0.000000 -0.257925 0.082047 0.300442
    10 4.826790 -0.004591 0.000000 -0.265167 0.053451 0.193471
    11 5.792768 -0.005304 0.000000 -0.138190 0.019451 0.138200
    12 6.662314 -0.001453 0.000000 0.000000 -0.000001 0.471000
    13 2.046984 -0.000002 0.000000 0.390891 0.299539 -0.876242
    14 1.038628 0.548043 -0.144017 -0.000001 0.000001 -1.849906
    15 -0.064003 -0.023525 0.026161 0.000000 0.000000 0.000000
    16 3.013920 3.984632 -0.088975 -0.000001 0.000001 -1.849906
    17 -0.084188 -0.025625 -0.001098 0.000000 0.000000 0.000000
    18 4.778185 3.972485 -0.079803 -0.000001 0.000001 -1.849906
    19 -0.058556 -0.021328 0.004244 0.000000 0.000000 0.000000
    20 1.640597 -1.968779 -0.099219 -0.000001 0.000001 -1.849906
    21 0.055573 -0.028913 0.000000 0.000000 0.000000 0.000000
    22 -3.112023 1.517253 4.341910 2.397774 -0.941402 0.167731
    23 4.827231 0.000000 0.000002 -1.564444 0.257727 -0.908015
    24 11.139760 0.000000 0.000000 0.000000 0.000000 -1.565155
    25 10.314597 0.000000 -0.000001 -1.119069 0.303066 0.092734
    26 1.646739 0.449549 -1.702246 -0.391601 1.092980 -0.290137
    27 0.928312 0.000000 -0.000001 0.000000 0.000000 0.000000
    28 0.928313 -0.000001 0.000002 0.000000 0.000000 0.000000
    29 2.975833 -0.386307 -0.044143 -0.000797 -0.043611 0.000035
    30 1.438886 -0.000001 0.000000 0.000000 0.000000 0.784982
    31 1.485302 -0.000001 0.000000 0.000000 0.000000 0.532034
    32 -2.869897 1.399662 -4.140396 -0.000014 1.318478 2.669783
    33 4.972046 0.000000 0.000000 0.861796 -0.392712 -1.735114
    34 11.585350 0.000000 0.000001 0.000000 0.000000 -1.958506
    35 10.127054 -0.000001 -0.000001 1.892530 -0.027532 1.149858
    36 1.533672 0.109715 1.664490 -0.264755 -0.055959 0.783109
    37 0.928312 0.000001 0.000000 0.000000 0.000000 -0.453542
    38 0.928313 0.000000 0.000002 0.000000 0.000000 0.000000
    39 2.683747 -0.427339 0.044205 -0.005786 0.043239 -0.157091
    40 1.438886 -0.000001 0.000002 0.000000 0.000000 0.732659
    41 1.485300 0.000000 0.000000 0.000000 0.000000 1.168771
  time 26
    0 0.233849 0.368164 39.526119 0.000000 0.000000 -1.570795
    1 0.000000 0.000000 0.000000 0.000000 -1.570451 -1.570795
    2 -0.000004 0.000007 3.713254 -3.139539 0.026087 3.120120
    3 18.045721 0.000000 0.000000 0.000000 0.000000 -0.121501
    4 17.597595 0.000000 0.000000 -0.002613 0.026036 0.099967
    5 0.000004 -0.000003 -3.713254 3.139069 -0.017354 3.117144
    6 18.045725 0.000000 0.000000 0.000000 0.000000 -0.127551
    7 17.597597 0.000000 0.000000 0.002950 -0.017289 0.103055
    8 1.293671 0.684478 -0.000001 -0.000004 -0.000001 0.201406
    9 5.309686 -0.003834 0.000000 -0.258047 0.081663 0.298975
    10 4.826790 -0.004591 0.000000 -0.265167 0.053451 0.193471
    11 5.792768 -0.005304 0.000000 -0.138353 0.018205 0.129252
    12 6.662314 -0.001453 0.000000 0.000000 -0.000001 0.471000
    13 2.046984 -0.000002 0.000000 0.386928 0.307600 -0.865994
    14 1.038628 0.548043 -0.144017 -0.000001 0.000001 -1.849906
    15 -0.064003 -0.023525 0.026161 0.000000 0.000000 0.000000
    16 3.013920 3.984632 -0.088975 -0.000001 0.000001 -1.849906
    17 -0.084188 -0.025625 -0.001098 0.000000 0.000000 0.000000
    18 4.778185 3.972485 -0.079803 -0.000001 0.000001 -1.849906
    19 -0.058556 -0.021328 0.004244 0.000000 0.000000 0.000000
    20 1.640597 -1.968779 -0.099219 -0.000001 0.000001 -1.849906
    21 0.055573 -0.028913 0.000000 0.000000 0.000000 0.000000
    22 -3.112023 1.517253 4.341910 2.405444 -0.935286 0.158240
    23 4.827231 0.000000 0.000002 -1.569906 0.272109 -0.913966
    24 11.139760 0.000000 0.000000 0.000000 0.000000 -1.565155
    25 10.314597 0.000000 -0.000001 -1.119069 0.303066 0.092734
    26 1.646739 0.449549 -1.702246 -0.391601 1.092980 -0.290137
    27 0.928312 0.000000 -0.000001 0.000000 0.000000 0.000000
    28 0.928313 -0.000001 0.000002 0.000000 0.000000 0.000000
    29 2.975833 -0.386307 -0.044143 -0.000797 -0.043611 0.000035
    30 1.438886 -0.000001 0.000000 0.000000 0.000000 0.784982
    31 1.485302 -0.000001 0.000000 0.000000 0.000000 0.532034
    32 -2.869897 1.399662 -4.140396 -0.000014 1.332017 2.669783
    33 4.972046 0.000000 0.000000 0.877499 -0.400515 -1.738474
    34 11.585350 0.000000 0.000001 0.000000 0.000000 -1.958506
    35 10.127054 -0.000001 -0.000001 1.892530 -0.027532 1.149858
    36 1.533672 0.109715 1.664490 -0.264755 -0.055959 0.783109
    37 0.928312 0.000001 0.000000 0.000000 0.000000 -0.453542
    38 0.928313 0.000000 0.000002 0.000000 0.000000 0.000000
    39 2.683747 -0.427339 0.044205 -0.005786 0.043239 -0.157091
    40 1.438886 -0.000001 0.000002 0.000000 0.000000 0.732659
    41 1.485300 0.000000 0.000000 0.000000 0.000000 1.168771
  time 27
    0 0.233849 0.368164 39.526119 0.000000 0.000000 -1.570795
    1 0.000000 0.000000 0.000000 0.000000 -1.570451 -1.570795
    2 -0.000004 0.000007 3.713254 -3.139539 0.026087 3.120120
    3 18.045721 0.000000 0.000000 0.000000 0.000000 -0.121501
    4 17.597595 0.000000 0.000000 -0.002613 0.026036 0.099967
    5 0.000004 -0.000003 -3.713254 3.139069 -0.017354 3.117144
    6 18.045725 0.000000 0.000000 0.000000 0.000000 -0.127551
    7 17.597597 0.000000 0.000000 0.002950 -0.017289 0.103055
    8 1.293671 0.684478 -0.000001 -0.000004 -0.000001 0.201406
    9 5.309686 -0.003834 0.000000 -0.258145 0.081315 0.297635
    10 4.826790 -0.004591 0.000000 -0.265167 0.053451 0.193471
    11 5.792768 -0.005304 0.000000 -0.138500 0.017066 0.121050
    12 6.662314 -0.001453 0.000000 0.000000 -0.000001 0.471000
    13 2.046984 -0.000002 0.000000 0.383266 0.315007 -0.856645
    14 1.038628 0.548043 -0.144017 -0.000001 0.000001 -1.849906
    15 -0.064003 -0.023525 0.026161 0.000000 0.000000 0.000000
    16 3.013920 3.984632 -0.088975 -0.000001 0.000001 -1.849906
    17 -0.084188 -0.025625 -0.001098 0.000000 0.000000 0.000000
    18 4.778185 3.972485 -0.079803 -0.000001 0.000001 -1.849906
    19 -0.058556 -0.021328 0.004244 0.000000 0.000000 0.000000
    20 1.640597 -1.968779 -0.099219 -0.000001 0.000001 -1.849906
    21 0.055573 -0.028913 0.000000 0.000000 0.000000 0.000000
    22 -3.112023 1.517253 4.341910 2.412251 -0.929670 0.149707
    23 4.827231 0.000000 0.000002 -1.575017 0.285214 -0.919654
    24 11.139760 0.000000 0.000000 0.000000 0.000000 -1.565155
    25 10.314597 0.000000 -0.000001 -1.119069 0.303066 0.092734
    26 1.646739 0.449549 -1.702246 -0.391601 1.092980 -0.290137
    27 0.928312 0.000000 -0.000001 0.000000 0.000000 0.000000
    28 0.928313 -0.000001 0.000002 0.000000 0.000000 0.000000
    29 2.975833 -0.386307 -0.044143 -0.000797 -0.043611 0.000035
    30 1.438886 -0.000001 0.000000 0.000000 0.000000 0.784982
    31 1.485302 -0.000001 0.000000 0.000000 0.000000 0.532034
    32 -2.869897 1.399662 -4.140396 -0.000014 1.344425 2.669783
    33 4.972046 0.000000 0.000000 0.891964 -0.407594 -1.741833
    34 11.585350 0.000000 0.000001 0.000000 0.000000 -1.958506
    35 10.127054 -0.000001 -0.000001 1.892530 -0.027532 1.149858
    36 1.533672 0.109715 1.664490 -0.264755 -0.055959 0.783109
    37 0.928312 0.000001 0.000000 0.000000 0.000000 -0.453542
    38 0.928313 0.000000 0.000002 0.000000 0.000000 0.000000
    39 2.683747 -0.427339 0.044205 -0.005786 0.043239 -0.157091
    40 1.438886 -0.000001 0.000002 0.000000 0.000000 0.732659
    41 1.485300 0.000000 0.000000 0.000000 0.000000 1.168771
  time 28
    0 0.233849 0.368164 39.526119 0.000000 0.000000 -1.570795
    1 0.000000 0.000000 0.000000 0.000000 -1.570451 -1.570795
    2 -0.000004 0.000007 3.713254 -3.139539 0.026087 3.120120
    3 18.045721 0.000000 0.000000 0.000000 0.000000 -0.121501
    4 17.597595 0.000000 0.000000 -0.002613 0.026036 0.099967
    5 0.000004 -0.000003 -3.713254 3.139069 -0.017354 3.117144
    6 18.045725 0.000000 0.000000 0.000000 0.000000 -0.127551
    7 17.597597 0.000000 0.000000 0.002950 -0.017289 0.103055
    8 1.293671 0.684478 -0.000001 -0.000004 -0.000001 0.201406
    9 5.309686 -0.003834 0.000000 -0.258243 0.081004 0.296458
    10 4.826790 -0.004591 0.000000 -0.265167 0.053451 0.193471
    11 5.792768 -0.005304 0.000000 -0.138631 0.016059 0.113866
    12 6.662314 -0.001453 0.000000 0.000000 -0.000001 0.471000
    13 2.046984 -0.000002 0.000000 0.380034 0.321491 -0.848464
    14 1.038628 0.548043 -0.144017 -0.000001 0.000001 -1.849906
    15 -0.064003 -0.023525 0.026161 0.000000 0.000000 0.000000
    16 3.013920 3.984632 -0.088975 -0.000001 0.000001 -1.849906
    17 -0.084188 -0.025625 -0.001098 0.000000 0.000000 0.000000
    18 4.778185 3.972485 -0.079803 -0.000001 0.000001 -1.849906
    19 -0.058556 -0.021328 0.004244 0.000000 0.000000 0.000000
    20 1.640597 -1.968779 -0.099219 -0.000001 0.000001 -1.849906
    21 0.055573 -0.028913 0.000000 0.000000 0.000000 0.000000
    22 -3.112023 1.517253 4.341910 2.418099 -0.924669 0.142420
    23 4.827231 0.000000 0.000002 -1.579598 0.296618 -0.924730
    24 11.139760 0.000000 0.000000 0.000000 0.000000 -1.565155
    25 10.314597 0.000000 -0.000001 -1.119069 0.303066 0.092734
    26 1.646739 0.449549 -1.702246 -0.391601 1.092980 -0.290137
    27 0.928312 0.000000 -0.000001 0.000000 0.000000 0.000000
    28 0.928313 -0.000001 0.000002 0.000000 0.000000 0.000000
    29 2.975833 -0.386307 -0.044143 -0.000797 -0.043611 0.000035
    30 1.438886 -0.000001 0.000000 0.000000 0.000000 0.784982
    31 1.485302 -0.000001 0.000000 0.000000 0.000000 0.532034
    32 -2.869897 1.399662 -4.140396 -0.000014 1.355306 2.669783
    33 4.972046 0.000000 0.000000 0.904650 -0.413868 -1.744929
    34 11.585350 0.000000 0.000001 0.000000 0.000000 -1.958506
    35 10.127054 -0.000001 -0.000001 1.892530 -0.027532 1.149858
    36 1.533672 0.109715 1.664490 -0.264755 -0.055959 0.783109
    37 0.928312 0.000001 0.000000 0.000000 0.000000 -0.453542
    38 0.928313 0.000000 0.000002 0.000000 0.000000 0.000000
    39 2.683747 -0.427339 0.044205 -0.005786 0.043239 -0.157091
    40 1.438886 -0.000001 0.000002 0.000000 0.000000 0.732659
    41 1.485300 0.000000 0.000000 0.000000 0.000000 1.168771
  time 29
    0 0.233849 0.368164 39.526119 0.000000 0.000000 -1.570795
    1 0.000000 0.000000 0.000000 0.000000 -1.570451 -1.570795
    2 -0.000004 0.000007 3.713254 -3.139539 0.026087 3.120120
    3 18.045721 0.000000 0.000000 0.000000 0.000000 -0.121501
    4 17.597595 0.000000 0.000000 -0.002613 0.026036 0.099967
    5 0.000004 -0.000003 -3.713254 3.139069 -0.017354 3.117144
    6 18.045725 0.000000 0.000000 0.000000 0.000000 -0.127551
    7 17.597597 0.000000 0.000000 0.002950 -0.017289 0.103055
    8 1.293671 0.684478 -0.000001 -0.000004 -0.000001 0.201406
    9 5.309686 -0.003834 0.000000 -0.258329 0.080752 0.295498
    10 4.826790 -0.004591 0.000000 -0.265167 0.053451 0.193471
    11 5.792768 -0.005304 0.000000 -0.138712 0.015244 0.107970
    12 6.662314 -0.001453 0.000000 0.000000 -0.000001 0.471000
    13 2.046984 -0.000002 0.000000 0.377406 0.326805 -0.841767
    14 1.038628 0.548043 -0.144017 -0.000001 0.000001 -1.849906
    15 -0.064003 -0.023525 0.026161 0.000000 0.000000 0.000000
    16 3.013920 3.984632 -0.088975 -0.000001 0.000001 -1.849906
    17 -0.084188 -0.025625 -0.001098 0.000000 0.000000 0.000000
    18 4.778185 3.972485 -0.079803 -0.000001 0.000001 -1.849906
    19 -0.058556 -0.021328 0.004244 0.000000 0.000000 0.000000
    20 1.640597 -1.968779 -0.099219 -0.000001 0.000001 -1.849906
    21 0.055573 -0.028913 0.000000 0.000000 0.000000 0.000000
    22 -3.112023 1.517253 4.341910 2.422893 -0.920592 0.136380
    23 4.827231 0.000000 0.000002 -1.583416 0.305979 -0.929018
    24 11.139760 0.000000 0.000000 0.000000 0.000000 -1.565155
    25 10.314597 0.000000 -0.000001 -1.119069 0.303066 0.092734
    26 1.646739 0.449549 -1.702246 -0.391601 1.092980 -0.290137
    27 0.928312 0.000000 -0.000001 0.000000 0.000000 0.000000
    28 0.928313 -0.000001 0.000002 0.000000 0.000000 0.000000
    29 2.975833 -0.386307 -0.044143 -0.000797 -0.043611 0.000035
    30 1.438886 -0.000001 0.000000 0.000000 0.000000 0.784982
    31 1.485302 -0.000001 0.000000 0.000000 0.000000 0.532034
    32 -2.869897 1.399662 -4.140396 -0.000014 1.364238 2.669783
    33 4.972046 0.000000 0.000000 0.915171 -0.418936 -1.747630
    34 11.585350 0.000000 0.000001 0.000000 0.000000 -1.958506
    35 10.127054 -0.000001 -0.000001 1.892530 -0.027532 1.149858
    36 1.533672 0.109715 1.664490 -0.264755 -0.055959 0.783109
    37 0.928312 0.000001 0.000000 0.000000 0.000000 -0.453542
    38 0.928313 0.000000 0.000002 0.000000 0.000000 0.000000
    39 2.683747 -0.427339 0.044205 -0.005786 0.043239 -0.157091
    40 1.438886 -0.000001 0.000002 0.000000 0.000000 0.732659
    41 1.485300 0.000000 0.000000 0.000000 0.000000 1.168771
  time 30
    0 0.233849 0.368164 39.526119 0.000000 0.000000 -1.570795
    1 0.000000 0.000000 0.000000 0.000000 -1.570451 -1.570795
    2 -0.000004 0.000007 3.713254 -3.139539 0.026087 3.120120
    3 18.045721 0.000000 0.000000 0.000000 0.000000 -0.121501
    4 17.597595 0.000000 0.000000 -0.002613 0.026036 0.099967
    5 0.000004 -0.000003 -3.713254 3.139069 -0.017354 3.117144
    6 18.045725 0.000000 0.000000 0.000000 0.000000 -0.127551
    7 17.597597 0.000000 0.000000 0.002950 -0.017289 0.103055
    8 1.293671 0.684478 -0.000001 -0.000004 -0.000001 0.201406
    9 5.309686 -0.003834 0.000000 -0.258378 0.080560 0.294792
    10 4.826790 -0.004591 0.000000 -0.265167 0.053451 0.193471
    11 5.792768 -0.005304 0.000000 -0.138777 0.014633 0.103630
    12 6.662314 -0.001453 0.000000 0.000000 -0.000001 0.471000
    13 2.046984 -0.000002 0.000000 0.375468 0.330700 -0.836868
    14 1.038628 0.548043 -0.144017 -0.000001 0.000001 -1.849906
    15 -0.064003 -0.023525 0.026161 0.000000 0.000000 0.000000
    16 3.013920 3.984632 -0.088975 -0.000001 0.000001 -1.849906
    17 -0.084188 -0.025625 -0.001098 0.000000 0.000000 0.000000
    18 4.778185 3.972485 -0.079803 -0.000001 0.000001 -1.849906
    19 -0.058556 -0.021328 0.004244 0.000000 0.000000 0.000000
    20 1.640597 -1.968779 -0.099219 -0.000001 0.000001 -1.849906
    21 0.055573 -0.028913 0.000000 0.000000 0.000000 0.000000
    22 -3.112023 1.517253 4.341910 2.426344 -0.917553 0.132066
    23 4.827231 0.000000 0.000002 -1.586294 0.312872 -0.932168
    24 11.139760 0.000000 0.000000 0.000000 0.000000 -1.565155
    25 10.314597 0.000000 -0.000001 -1.119069 0.303066 0.092734
    26 1.646739 0.449549 -1.702246 -0.391601 1.092980 -0.290137
    27 0.928312 0.000000 -0.000001 0.000000 0.000000 0.000000
    28 0.928313 -0.000001 0.000002 0.000000 0.000000 0.000000
    29 2.975833 -0.386307 -0.044143 -0.000797 -0.043611 0.000035
    30 1.438886 -0.000001 0.000000 0.000000 0.000000 0.784982
    31 1.485302 -0.000001 0.000000 0.000000 0.000000 0.532034
    32 -2.869897 1.399662 -4.140396 -0.000014 1.370795 2.669783
    33 4.972046 0.000000 0.000000 0.922829 -0.422636 -1.749738
    34 11.585350 0.000000 0.000001 0.000000 0.000000 -1.958506
    35 10.127054 -0.000001 -0.000001 1.892530 -0.027532 1.149858
    36 1.533672 0.109715 1.664490 -0.264755 -0.055959 0.783109
    37 0.928312 0.000001 0.000000 0.000000 0.000000 -0.453542
    38 0.928313 0.000000 0.000002 0.000000 0.000000 0.000000
    39 2.683747 -0.427339 0.044205 -0.005786 0.043239 -0.157091
    40 1.438886 -0.000001 0.000002 0.000000 0.000000 0.732659
    41 1.485300 0.000000 0.000000 0.000000 0.000000 1.168771
end
