// Created by Crowbar 0.44.0.0
version 1
nodes
  0 "Bip01" -1
  1 "Bip01 Pelvis" 0
  2 "Bip01 L Leg" 1
  3 "Bip01 L Leg1" 2
  4 "Bip01 L Foot" 3
  5 "Bip01 R Leg" 1
  6 "Bip01 R Leg1" 5
  7 "Bip01 R Foot" 6
  8 "Bip01 Spine" 1
  9 "Bip01 Spine1" 8
  10 "Bip01 Spine2" 9
  11 "Bip01 Spine3" 10
  12 "Bip01 Neck" 11
  13 "Bip01 Head" 12
  14 "Dummy08" 13
  15 "Bone02" 14
  16 "Dummy04" 13
  17 "Bone05" 16
  18 "Dummy03" 13
  19 "Bone07" 18
  20 "Dummy10" 13
  21 "Bone13" 20
  22 "Bip01 L Arm" 12
  23 "Bip01 L Arm1" 22
  24 "Bip01 L Arm2" 23
  25 "Bip01 L Hand" 24
  26 "Bip01 L Finger0" 25
  27 "Bip01 L Finger01" 26
  28 "Bip01 L Finger02" 27
  29 "Bip01 L Finger1" 25
  30 "Bip01 L Finger11" 29
  31 "Bip01 L Finger12" 30
  32 "Bip01 R Arm" 12
  33 "Bip01 R Arm1" 32
  34 "Bip01 R Arm2" 33
  35 "Bip01 R Hand" 34
  36 "Bip01 R Finger0" 35
  37 "Bip01 R Finger01" 36
  38 "Bip01 R Finger02" 37
  39 "Bip01 R Finger1" 35
  40 "Bip01 R Finger11" 39
  41 "Bip01 R Finger12" 40
end
skeleton
  time 0
    0 0.233849 0.368164 39.526119 0.000000 0.000000 -1.570795
    1 0.000000 0.000000 0.000000 0.000000 -1.570451 -1.570795
    2 -0.000004 0.000007 3.713254 -3.139539 0.026087 3.120120
    3 18.045721 0.000000 0.000000 0.000000 0.000000 -0.121501
    4 17.597595 0.000000 0.000000 -0.002613 0.026036 0.099967
    5 0.000004 -0.000003 -3.713254 3.139069 -0.017354 3.117144
    6 18.045725 0.000000 0.000000 0.000000 0.000000 -0.127551
    7 17.597597 0.000000 0.000000 0.002950 -0.017289 0.103055
    8 1.293671 0.684478 -0.000001 -0.000004 -0.000001 0.279904
    9 5.309686 -0.003834 0.000000 -0.206298 0.036241 0.170673
    10 4.826790 -0.004591 0.000000 -0.293196 0.045949 0.150211
    11 5.792768 -0.005304 0.000000 0.000000 0.000000 0.279097
    12 6.662314 -0.001453 0.000000 0.000000 -0.000001 0.078526
    13 2.046984 -0.000002 0.000000 0.485588 -0.141372 -0.329228
    14 1.038628 0.548043 -0.144017 -0.000001 0.000001 -1.849906
    15 -0.064003 -0.023525 0.026161 0.000000 0.000000 0.000000
    16 3.013920 3.984632 -0.088975 -0.000001 0.000001 -1.849906
    17 -0.084188 -0.025625 -0.001098 0.000000 0.000000 0.000000
    18 4.778185 3.972485 -0.079803 -0.000001 0.000001 -1.849906
    19 -0.058556 -0.021328 0.004244 0.000000 0.000000 0.000000
    20 1.640597 -1.968779 -0.099219 -0.000001 0.000001 -1.849906
    21 0.055573 -0.028913 0.000000 0.000000 0.000000 0.000000
    22 -3.451877 0.212526 4.341910 1.735866 -0.581898 1.197153
    23 4.827231 0.000000 0.000002 -0.299616 0.266237 0.208628
    24 11.139760 0.000000 0.000000 0.000000 0.000000 -1.304388
    25 10.314597 0.000000 -0.000001 -4.515118 0.031526 -0.094279
    26 1.646739 0.449549 -1.702246 0.195746 0.777407 0.349090
    27 0.928312 0.000000 -0.000001 0.000000 0.000000 0.000000
    28 0.928313 -0.000001 0.000002 0.000000 0.000000 0.000000
    29 2.975833 -0.386307 -0.044143 -0.012063 -0.041921 0.262037
    30 1.438886 -0.000001 0.000000 0.000000 0.000000 0.924864
    31 1.485302 -0.000001 0.000000 0.000000 0.000000 0.540993
    32 -3.186313 0.196500 -4.140396 -0.683014 1.249598 2.404790
    33 4.972046 0.000000 0.000000 0.277845 -0.425452 -1.388559
    34 11.585350 0.000000 0.000001 0.000000 0.000000 -1.485248
    35 10.127054 -0.000001 -0.000001 2.082617 0.482955 0.607684
    36 1.533672 0.109715 1.664490 -0.233255 -0.412980 0.435684
    37 0.928312 0.000001 0.000000 0.000000 0.000000 0.000000
    38 0.928313 0.000000 0.000002 0.000000 0.000000 0.000000
    39 2.683747 -0.427339 0.044205 0.001045 0.043611 0.000046
    40 1.438886 -0.000001 0.000002 0.000000 0.000000 0.767762
    41 1.485300 0.000000 0.000000 0.000000 0.000000 1.221689
  time 1
    0 0.233849 0.368164 39.526119 0.000000 0.000000 -1.570795
    1 0.000000 0.000000 0.000000 0.000000 -1.570451 -1.570795
    2 -0.000004 0.000007 3.713254 -3.139539 0.026087 3.120120
    3 18.045721 0.000000 0.000000 0.000000 0.000000 -0.121501
    4 17.597595 0.000000 0.000000 -0.002613 0.026036 0.099967
    5 0.000004 -0.000003 -3.713254 3.139069 -0.017354 3.117144
    6 18.045725 0.000000 0.000000 0.000000 0.000000 -0.127551
    7 17.597597 0.000000 0.000000 0.002950 -0.017289 0.103055
    8 1.293671 0.684478 -0.000001 -0.000004 -0.000001 0.279904
    9 5.309686 -0.003834 0.000000 -0.262944 0.029734 0.109211
    10 4.826790 -0.004591 0.000000 -0.293196 0.045949 0.150211
    11 5.792768 -0.005304 0.000000 -0.072177 0.014166 0.192765
    12 6.662314 -0.001453 0.000000 0.000000 -0.000001 0.078526
    13 2.046984 -0.000002 0.000000 0.608891 -0.182934 -0.208229
    14 1.038628 0.548043 -0.144017 -0.000001 0.000001 -1.849906
    15 -0.064003 -0.023525 0.026161 0.000000 0.000000 0.000000
    16 3.013920 3.984632 -0.088975 -0.000001 0.000001 -1.849906
    17 -0.084188 -0.025625 -0.001098 0.000000 0.000000 0.000000
    18 4.778185 3.972485 -0.079803 -0.000001 0.000001 -1.849906
    19 -0.058556 -0.021328 0.004244 0.000000 0.000000 0.000000
    20 1.640597 -1.968779 -0.099219 -0.000001 0.000001 -1.849906
    21 0.055573 -0.028913 0.000000 0.000000 0.000000 0.000000
    22 -3.451877 0.212526 4.341910 1.598480 -0.110421 1.245187
    23 4.827231 0.000000 0.000002 -0.193949 0.195178 1.244060
    24 11.139760 0.000000 0.000000 0.000000 0.000000 -2.187744
    25 10.314597 0.000000 -0.000001 -4.515118 0.031526 -0.094279
    26 1.646739 0.449549 -1.702246 0.195746 0.777407 0.349090
    27 0.928312 0.000000 -0.000001 0.000000 0.000000 0.000000
    28 0.928313 -0.000001 0.000002 0.000000 0.000000 0.000000
    29 2.975833 -0.386307 -0.044143 -0.012063 -0.041921 0.262037
    30 1.438886 -0.000001 0.000000 0.000000 0.000000 0.924864
    31 1.485302 -0.000001 0.000000 0.000000 0.000000 0.540993
    32 -3.186313 0.196500 -4.140396 0.783941 1.221306 3.815083
    33 4.972046 0.000000 0.000000 -0.546369 -0.840125 -0.932655
    34 11.585350 0.000000 0.000001 0.000000 0.000000 -2.333335
    35 10.127054 -0.000001 -0.000001 1.651227 0.753508 0.291920
    36 1.533672 0.109715 1.664490 -0.233255 -0.412980 0.435684
    37 0.928312 0.000001 0.000000 0.000000 0.000000 0.000000
    38 0.928313 0.000000 0.000002 0.000000 0.000000 0.000000
    39 2.683747 -0.427339 0.044205 0.001045 0.043611 0.000046
    40 1.438886 -0.000001 0.000002 0.000000 0.000000 0.767762
    41 1.485300 0.000000 0.000000 0.000000 0.000000 1.221689
  time 2
    0 0.233849 0.368164 39.526119 0.000000 0.000000 -1.570795
    1 0.000000 0.000000 0.000000 0.000000 -1.570451 -1.570795
    2 -0.000004 0.000007 3.713254 -3.139539 0.026087 3.120120
    3 18.045721 0.000000 0.000000 0.000000 0.000000 -0.121501
    4 17.597595 0.000000 0.000000 -0.002613 0.026036 0.099967
    5 0.000004 -0.000003 -3.713254 3.139069 -0.017354 3.117144
    6 18.045725 0.000000 0.000000 0.000000 0.000000 -0.127551
    7 17.597597 0.000000 0.000000 0.002950 -0.017289 0.103055
    8 1.293671 0.684478 -0.000001 -0.000004 -0.000001 0.279904
    9 5.309686 -0.003834 0.000000 -0.264915 0.029386 0.107092
    10 4.826790 -0.004591 0.000000 -0.263394 0.041395 0.151511
    11 5.792768 -0.005304 0.000000 -0.074738 0.014441 0.189754
    12 6.662314 -0.001453 0.000000 0.000000 -0.000001 0.078526
    13 2.046984 -0.000002 0.000000 0.583343 -0.177756 -0.198386
    14 1.038628 0.548043 -0.144017 -0.000001 0.000001 -1.849906
    15 -0.064003 -0.023525 0.026161 0.000000 0.000000 0.000000
    16 3.013920 3.984632 -0.088975 -0.000001 0.000001 -1.849906
    17 -0.084188 -0.025625 -0.001098 0.000000 0.000000 0.000000
    18 4.778185 3.972485 -0.079803 -0.000001 0.000001 -1.849906
    19 -0.058556 -0.021328 0.004244 0.000000 0.000000 0.000000
    20 1.640597 -1.968779 -0.099219 -0.000001 0.000001 -1.849906
    21 0.055573 -0.028913 0.000000 0.000000 0.000000 0.000000
    22 -3.451877 0.212526 4.341910 1.609793 -0.155041 1.243653
    23 4.827231 0.000000 0.000002 -0.312597 0.213730 1.133621
    24 11.139760 0.000000 0.000000 0.000000 0.000000 -2.104490
    25 10.314597 0.000000 -0.000001 -4.515118 0.031526 -0.094279
    26 1.646739 0.449549 -1.702246 0.195746 0.777407 0.349090
    27 0.928312 0.000000 -0.000001 0.000000 0.000000 0.000000
    28 0.928313 -0.000001 0.000002 0.000000 0.000000 0.000000
    29 2.975833 -0.386307 -0.044143 -0.012063 -0.041921 0.262037
    30 1.438886 -0.000001 0.000000 0.000000 0.000000 0.924864
    31 1.485302 -0.000001 0.000000 0.000000 0.000000 0.540993
    32 -3.186313 0.196500 -4.140396 0.696888 1.246178 3.732920
    33 4.972046 0.000000 0.000000 -0.459577 -0.845273 -0.967370
    34 11.585350 0.000000 0.000001 0.000000 0.000000 -2.260860
    35 10.127054 -0.000001 -0.000001 1.604215 0.751883 0.185226
    36 1.533672 0.109715 1.664490 -0.233255 -0.412980 0.435684
    37 0.928312 0.000001 0.000000 0.000000 0.000000 0.000000
    38 0.928313 0.000000 0.000002 0.000000 0.000000 0.000000
    39 2.683747 -0.427339 0.044205 0.001045 0.043611 0.000046
    40 1.438886 -0.000001 0.000002 0.000000 0.000000 0.767762
    41 1.485300 0.000000 0.000000 0.000000 0.000000 1.221689
  time 3
    0 0.233849 0.368164 39.526119 0.000000 0.000000 -1.570795
    1 0.000000 0.000000 0.000000 0.000000 -1.570451 -1.570795
    2 -0.000004 0.000007 3.713254 -3.139539 0.026087 3.120120
    3 18.045721 0.000000 0.000000 0.000000 0.000000 -0.121501
    4 17.597595 0.000000 0.000000 -0.002613 0.026036 0.099967
    5 0.000004 -0.000003 -3.713254 3.139069 -0.017354 3.117144
    6 18.045725 0.000000 0.000000 0.000000 0.000000 -0.127551
    7 17.597597 0.000000 0.000000 0.002950 -0.017289 0.103055
    8 1.293671 0.684478 -0.000001 -0.000004 -0.000001 0.279904
    9 5.309686 -0.003834 0.000000 -0.261916 0.029914 0.110316
    10 4.826790 -0.004591 0.000000 -0.235496 0.037104 0.152592
    11 5.792768 -0.005304 0.000000 -0.070840 0.014022 0.194343
    12 6.662314 -0.001453 0.000000 0.000000 -0.000001 0.078526
    13 2.046984 -0.000002 0.000000 0.548876 -0.169065 -0.199599
    14 1.038628 0.548043 -0.144017 -0.000001 0.000001 -1.849906
    15 -0.064003 -0.023525 0.026161 0.000000 0.000000 0.000000
    16 3.013920 3.984632 -0.088975 -0.000001 0.000001 -1.849906
    17 -0.084188 -0.025625 -0.001098 0.000000 0.000000 0.000000
    18 4.778185 3.972485 -0.079803 -0.000001 0.000001 -1.849906
    19 -0.058556 -0.021328 0.004244 0.000000 0.000000 0.000000
    20 1.640597 -1.968779 -0.099219 -0.000001 0.000001 -1.849906
    21 0.055573 -0.028913 0.000000 0.000000 0.000000 0.000000
    22 -3.451877 0.212526 4.341910 1.635391 -0.253091 1.238475
    23 4.827231 0.000000 0.000002 -0.426663 0.240536 0.909767
    24 11.139760 0.000000 0.000000 0.000000 0.000000 -1.921511
    25 10.314597 0.000000 -0.000001 -4.515118 0.031526 -0.094279
    26 1.646739 0.449549 -1.702246 0.195746 0.777407 0.349090
    27 0.928312 0.000000 -0.000001 0.000000 0.000000 0.000000
    28 0.928313 -0.000001 0.000002 0.000000 0.000000 0.000000
    29 2.975833 -0.386307 -0.044143 -0.012063 -0.041921 0.262070
    30 1.438886 -0.000001 0.000000 0.000000 0.000000 0.924864
    31 1.485302 -0.000001 0.000000 0.000000 0.000000 0.540993
    32 -3.186313 0.196500 -4.140396 0.466888 1.289479 3.513275
    33 4.972046 0.000000 0.000000 -0.266113 -0.825002 -1.071844
    34 11.585350 0.000000 0.000001 0.000000 0.000000 -2.106675
    35 10.127054 -0.000001 -0.000001 1.617146 0.730713 0.130468
    36 1.533672 0.109715 1.664490 -0.233255 -0.412980 0.435684
    37 0.928312 0.000001 0.000000 0.000000 0.000000 0.000000
    38 0.928313 0.000000 0.000002 0.000000 0.000000 0.000000
    39 2.683747 -0.427339 0.044205 0.001045 0.043611 0.000046
    40 1.438886 -0.000001 0.000002 0.000000 0.000000 0.767762
    41 1.485300 0.000000 0.000000 0.000000 0.000000 1.221689
  time 4
    0 0.233849 0.368164 39.526119 0.000000 0.000000 -1.570795
    1 0.000000 0.000000 0.000000 0.000000 -1.570451 -1.570795
    2 -0.000004 0.000007 3.713254 -3.139539 0.026087 3.120120
    3 18.045721 0.000000 0.000000 0.000000 0.000000 -0.121501
    4 17.597595 0.000000 0.000000 -0.002613 0.026036 0.099967
    5 0.000004 -0.000003 -3.713254 3.139069 -0.017354 3.117144
    6 18.045725 0.000000 0.000000 0.000000 0.000000 -0.127551
    7 17.597597 0.000000 0.000000 0.002950 -0.017289 0.103055
    8 1.293671 0.684478 -0.000001 -0.000004 -0.000001 0.279904
    9 5.309686 -0.003834 0.000000 -0.257239 0.030693 0.115350
    10 4.826790 -0.004591 0.000000 -0.212672 0.033569 0.153408
    11 5.792768 -0.005304 0.000000 -0.064774 0.013303 0.201506
    12 6.662314 -0.001453 0.000000 0.000000 -0.000001 0.078526
    13 2.046984 -0.000002 0.000000 0.515918 -0.160329 -0.205712
    14 1.038628 0.548043 -0.144017 -0.000001 0.000001 -1.849906
    15 -0.064003 -0.023525 0.026161 0.000000 0.000000 0.000000
    16 3.013920 3.984632 -0.088975 -0.000001 0.000001 -1.849906
    17 -0.084188 -0.025625 -0.001098 0.000000 0.000000 0.000000
    18 4.778185 3.972485 -0.079803 -0.000001 0.000001 -1.849906
    19 -0.058556 -0.021328 0.004244 0.000000 0.000000 0.000000
    20 1.640597 -1.968779 -0.099219 -0.000001 0.000001 -1.849906
    21 0.055573 -0.028913 0.000000 0.000000 0.000000 0.000000
    22 -3.451877 0.212526 4.341910 1.660510 -0.344525 1.231093
    23 4.827231 0.000000 0.000002 -0.489569 0.254918 0.697903
    24 11.139760 0.000000 0.000000 0.000000 0.000000 -1.750516
    25 10.314597 0.000000 -0.000001 -4.515118 0.031526 -0.094279
    26 1.646739 0.449549 -1.702246 0.195746 0.777407 0.349090
    27 0.928312 0.000000 -0.000001 0.000000 0.000000 0.000000
    28 0.928313 -0.000001 0.000002 0.000000 0.000000 0.000000
    29 2.975833 -0.386307 -0.044143 -0.012063 -0.041921 0.262037
    30 1.438886 -0.000001 0.000000 0.000000 0.000000 0.924864
    31 1.485302 -0.000001 0.000000 0.000000 0.000000 0.540993
    32 -3.186313 0.196500 -4.140396 0.095859 1.317150 3.155093
    33 4.972046 0.000000 0.000000 -0.050758 -0.761373 -1.190019
    34 11.585350 0.000000 0.000001 0.000000 0.000000 -1.913524
    35 10.127054 -0.000001 -0.000001 1.652565 0.703019 0.089909
    36 1.533672 0.109715 1.664490 -0.233255 -0.412980 0.435684
    37 0.928312 0.000001 0.000000 0.000000 0.000000 0.000000
    38 0.928313 0.000000 0.000002 0.000000 0.000000 0.000000
    39 2.683747 -0.427339 0.044205 0.001045 0.043611 0.000046
    40 1.438886 -0.000001 0.000002 0.000000 0.000000 0.767762
    41 1.485300 0.000000 0.000000 0.000000 0.000000 1.221689
  time 5
    0 0.233849 0.368164 39.526119 0.000000 0.000000 -1.570795
    1 0.000000 0.000000 0.000000 0.000000 -1.570451 -1.570795
    2 -0.000004 0.000007 3.713254 -3.139539 0.026087 3.120120
    3 18.045721 0.000000 0.000000 0.000000 0.000000 -0.121501
    4 17.597595 0.000000 0.000000 -0.002613 0.026036 0.099967
    5 0.000004 -0.000003 -3.713254 3.139069 -0.017354 3.117144
    6 18.045725 0.000000 0.000000 0.000000 0.000000 -0.127551
    7 17.597597 0.000000 0.000000 0.002950 -0.017289 0.103055
    8 1.293671 0.684478 -0.000001 -0.000004 -0.000001 0.279904
    9 5.309686 -0.003834 0.000000 -0.249649 0.031867 0.123517
    10 4.826790 -0.004591 0.000000 -0.198305 0.031328 0.153871
    11 5.792768 -0.005304 0.000000 -0.055005 0.011961 0.213092
    12 6.662314 -0.001453 0.000000 0.000000 -0.000001 0.078526
    13 2.046984 -0.000002 0.000000 0.485071 -0.151616 -0.219826
    14 1.038628 0.548043 -0.144017 -0.000001 0.000001 -1.849906
    15 -0.064003 -0.023525 0.026161 0.000000 0.000000 0.000000
    16 3.013920 3.984632 -0.088975 -0.000001 0.000001 -1.849906
    17 -0.084188 -0.025625 -0.001098 0.000000 0.000000 0.000000
    18 4.778185 3.972485 -0.079803 -0.000001 0.000001 -1.849906
    19 -0.058556 -0.021328 0.004244 0.000000 0.000000 0.000000
    20 1.640597 -1.968779 -0.099219 -0.000001 0.000001 -1.849906
    21 0.055573 -0.028913 0.000000 0.000000 0.000000 0.000000
    22 -3.451877 0.212526 4.341910 1.686300 -0.432343 1.221314
    23 4.827231 0.000000 0.000002 -0.442521 0.270152 0.496102
    24 11.139760 0.000000 0.000000 0.000000 0.000000 -1.585899
    25 10.314597 0.000000 -0.000001 -4.515207 0.031526 -0.094279
    26 1.646739 0.449549 -1.702246 0.195746 0.777407 0.349090
    27 0.928312 0.000000 -0.000001 0.000000 0.000000 0.000000
    28 0.928313 -0.000001 0.000002 0.000000 0.000000 0.000000
    29 2.975833 -0.386307 -0.044143 -0.012063 -0.041921 0.262037
    30 1.438886 -0.000001 0.000000 0.000000 0.000000 0.924864
    31 1.485302 -0.000001 0.000000 0.000000 0.000000 0.540993
    32 -3.186313 0.196500 -4.140396 -0.287538 1.307936 2.784064
    33 4.972046 0.000000 0.000000 0.122826 -0.661546 -1.275588
    34 11.585350 0.000000 0.000001 0.000000 0.000000 -1.727089
    35 10.127054 -0.000001 -0.000001 1.781689 0.658920 0.200681
    36 1.533672 0.109715 1.664490 -0.233255 -0.412980 0.435684
    37 0.928312 0.000001 0.000000 0.000000 0.000000 0.000000
    38 0.928313 0.000000 0.000002 0.000000 0.000000 0.000000
    39 2.683747 -0.427339 0.044205 0.001045 0.043611 0.000046
    40 1.438886 -0.000001 0.000002 0.000000 0.000000 0.767762
    41 1.485300 0.000000 0.000000 0.000000 0.000000 1.221689
  time 6
    0 0.233849 0.368164 39.526119 0.000000 0.000000 -1.570795
    1 0.000000 0.000000 0.000000 0.000000 -1.570451 -1.570795
    2 -0.000004 0.000007 3.713254 -3.139539 0.026087 3.120120
    3 18.045721 0.000000 0.000000 0.000000 0.000000 -0.121501
    4 17.597595 0.000000 0.000000 -0.002613 0.026036 0.099967
    5 0.000004 -0.000003 -3.713254 3.139069 -0.017354 3.117144
    6 18.045725 0.000000 0.000000 0.000000 0.000000 -0.127551
    7 17.597597 0.000000 0.000000 0.002950 -0.017289 0.103055
    8 1.293671 0.684478 -0.000001 -0.000004 -0.000001 0.279904
    9 5.309686 -0.003834 0.000000 -0.229326 0.034408 0.145538
    10 4.826790 -0.004591 0.000000 -0.234429 0.036937 0.152636
    11 5.792768 -0.005304 0.000000 -0.029011 0.007251 0.244091
    12 6.662314 -0.001453 0.000000 0.000000 -0.000001 0.078526
    13 2.046984 -0.000002 0.000000 0.476885 -0.145492 -0.270032
    14 1.038628 0.548043 -0.144017 -0.000001 0.000001 -1.849906
    15 -0.064003 -0.023525 0.026161 0.000000 0.000000 0.000000
    16 3.013920 3.984632 -0.088975 -0.000001 0.000001 -1.849906
    17 -0.084188 -0.025625 -0.001098 0.000000 0.000000 0.000000
    18 4.778185 3.972485 -0.079803 -0.000001 0.000001 -1.849906
    19 -0.058556 -0.021328 0.004244 0.000000 0.000000 0.000000
    20 1.640597 -1.968779 -0.099219 -0.000001 0.000001 -1.849906
    21 0.055573 -0.028913 0.000000 0.000000 0.000000 0.000000
    22 -3.451877 0.212526 4.341910 1.714390 -0.520430 1.208370
    23 4.827231 0.000000 0.000002 -0.354534 0.275343 0.317229
    24 11.139760 0.000000 0.000000 0.000000 0.000000 -1.420370
    25 10.314597 0.000000 -0.000001 -4.515118 0.031526 -0.094279
    26 1.646739 0.449549 -1.702246 0.195746 0.777407 0.349090
    27 0.928312 0.000000 -0.000001 0.000000 0.000000 0.000000
    28 0.928313 -0.000001 0.000002 0.000000 0.000000 0.000000
    29 2.975833 -0.386307 -0.044143 -0.012063 -0.041921 0.262037
    30 1.438886 -0.000001 0.000000 0.000000 0.000000 0.924864
    31 1.485302 -0.000001 0.000000 0.000000 0.000000 0.540993
    32 -3.186313 0.196500 -4.140396 -0.584840 1.270627 2.498266
    33 4.972046 0.000000 0.000000 0.242958 -0.519970 -1.348047
    34 11.585350 0.000000 0.000001 0.000000 0.000000 -1.555065
    35 10.127054 -0.000001 -0.000001 1.951582 0.582362 0.395945
    36 1.533672 0.109715 1.664490 -0.233255 -0.412980 0.435684
    37 0.928312 0.000001 0.000000 0.000000 0.000000 0.000000
    38 0.928313 0.000000 0.000002 0.000000 0.000000 0.000000
    39 2.683747 -0.427339 0.044205 0.001045 0.043611 0.000046
    40 1.438886 -0.000001 0.000002 0.000000 0.000000 0.767762
    41 1.485300 0.000000 0.000000 0.000000 0.000000 1.221689
  time 7
    0 0.233849 0.368164 39.526119 0.000000 0.000000 -1.570795
    1 0.000000 0.000000 0.000000 0.000000 -1.570451 -1.570795
    2 -0.000004 0.000007 3.713254 -3.139539 0.026087 3.120120
    3 18.045721 0.000000 0.000000 0.000000 0.000000 -0.121501
    4 17.597595 0.000000 0.000000 -0.002613 0.026036 0.099967
    5 0.000004 -0.000003 -3.713254 3.139069 -0.017354 3.117144
    6 18.045725 0.000000 0.000000 0.000000 0.000000 -0.127551
    7 17.597597 0.000000 0.000000 0.002950 -0.017289 0.103055
    8 1.293671 0.684478 -0.000001 -0.000004 -0.000001 0.279904
    9 5.309686 -0.003834 0.000000 -0.206298 0.036241 0.170673
    10 4.826790 -0.004591 0.000000 -0.293196 0.045949 0.150211
    11 5.792768 -0.005304 0.000000 0.000000 0.000000 0.279097
    12 6.662314 -0.001453 0.000000 0.000000 -0.000001 0.078526
    13 2.046984 -0.000002 0.000000 0.485588 -0.141372 -0.329228
    14 1.038628 0.548043 -0.144017 -0.000001 0.000001 -1.849906
    15 -0.064003 -0.023525 0.026161 0.000000 0.000000 0.000000
    16 3.013920 3.984632 -0.088975 -0.000001 0.000001 -1.849906
    17 -0.084188 -0.025625 -0.001098 0.000000 0.000000 0.000000
    18 4.778185 3.972485 -0.079803 -0.000001 0.000001 -1.849906
    19 -0.058556 -0.021328 0.004244 0.000000 0.000000 0.000000
    20 1.640597 -1.968779 -0.099219 -0.000001 0.000001 -1.849906
    21 0.055573 -0.028913 0.000000 0.000000 0.000000 0.000000
    22 -3.451877 0.212526 4.341910 1.735866 -0.581898 1.197153
    23 4.827231 0.000000 0.000002 -0.299616 0.266237 0.208628
    24 11.139760 0.000000 0.000000 0.000000 0.000000 -1.304388
    25 10.314597 0.000000 -0.000001 -4.515118 0.031526 -0.094279
    26 1.646739 0.449549 -1.702246 0.195746 0.777407 0.349090
    27 0.928312 0.000000 -0.000001 0.000000 0.000000 0.000000
    28 0.928313 -0.000001 0.000002 0.000000 0.000000 0.000000
    29 2.975833 -0.386307 -0.044143 -0.012063 -0.041921 0.262037
    30 1.438886 -0.000001 0.000000 0.000000 0.000000 0.924864
    31 1.485302 -0.000001 0.000000 0.000000 0.000000 0.540993
    32 -3.186313 0.196500 -4.140396 -0.683014 1.249598 2.404790
    33 4.972046 0.000000 0.000000 0.277845 -0.425452 -1.388559
    34 11.585350 0.000000 0.000001 0.000000 0.000000 -1.485248
    35 10.127054 -0.000001 -0.000001 2.082617 0.482955 0.607684
    36 1.533672 0.109715 1.664490 -0.233255 -0.412980 0.435684
    37 0.928312 0.000001 0.000000 0.000000 0.000000 0.000000
    38 0.928313 0.000000 0.000002 0.000000 0.000000 0.000000
    39 2.683747 -0.427339 0.044205 0.001045 0.043611 0.000046
    40 1.438886 -0.000001 0.000002 0.000000 0.000000 0.767762
    41 1.485300 0.000000 0.000000 0.000000 0.000000 1.221689
end
