// Created by Crowbar 0.44.0.0
version 1
nodes
  0 "Bip01" -1
  1 "Bip01 Pelvis" 0
  2 "Bip01 L Leg" 1
  3 "Bip01 L Leg1" 2
  4 "Bip01 L Foot" 3
  5 "Bip01 R Leg" 1
  6 "Bip01 R Leg1" 5
  7 "Bip01 R Foot" 6
  8 "Bip01 Spine" 1
  9 "Bip01 Spine1" 8
  10 "Bip01 Spine2" 9
  11 "Bip01 Spine3" 10
  12 "Bip01 Neck" 11
  13 "Bip01 Head" 12
  14 "Dummy08" 13
  15 "Bone02" 14
  16 "Dummy04" 13
  17 "Bone05" 16
  18 "Dummy03" 13
  19 "Bone07" 18
  20 "Dummy10" 13
  21 "Bone13" 20
  22 "Bip01 L Arm" 12
  23 "Bip01 L Arm1" 22
  24 "Bip01 L Arm2" 23
  25 "Bip01 L Hand" 24
  26 "Bip01 L Finger0" 25
  27 "Bip01 L Finger01" 26
  28 "Bip01 L Finger02" 27
  29 "Bip01 L Finger1" 25
  30 "Bip01 L Finger11" 29
  31 "Bip01 L Finger12" 30
  32 "Bip01 R Arm" 12
  33 "Bip01 R Arm1" 32
  34 "Bip01 R Arm2" 33
  35 "Bip01 R Hand" 34
  36 "Bip01 R Finger0" 35
  37 "Bip01 R Finger01" 36
  38 "Bip01 R Finger02" 37
  39 "Bip01 R Finger1" 35
  40 "Bip01 R Finger11" 39
  41 "Bip01 R Finger12" 40
end
skeleton
  time 0
    0 0.235347 0.367732 38.885475 0.000000 0.000000 -1.570874
    1 -4.214972 0.148442 0.000000 0.000000 -1.570787 -1.570795
    2 -0.000004 0.000007 3.713254 -3.228464 0.073873 3.063568
    3 18.045721 0.000000 0.000000 0.000000 0.000000 -0.234821
    4 17.597595 0.000000 0.000000 -0.075849 0.080174 0.163289
    5 0.000004 -0.000003 -3.713254 3.336883 -0.038041 3.864108
    6 18.045725 0.000000 0.000000 0.000000 0.000000 -1.470748
    7 17.597597 0.000000 0.000000 -0.111918 -0.040011 -0.289691
    8 1.293671 0.684478 -0.000001 -0.065355 0.024448 0.357599
    9 5.309686 -0.003834 0.000000 -0.000024 -0.034887 0.191879
    10 4.826790 -0.004591 0.000000 -0.078192 0.006891 0.086952
    11 5.792768 -0.005304 0.000000 0.000000 0.000000 0.087207
    12 6.662314 -0.001453 0.000000 0.000000 -0.000001 0.471000
    13 2.046984 -0.000002 0.000000 0.148808 0.043161 -0.967126
    14 1.038628 0.548043 -0.144017 -0.000001 0.000001 -1.849906
    15 -0.064003 -0.023525 0.026161 0.000000 0.000000 0.000000
    16 3.013920 3.984632 -0.088975 -0.000001 0.000001 -1.849906
    17 -0.084188 -0.025625 -0.001098 0.000000 0.000000 0.000000
    18 4.778185 3.972485 -0.079803 -0.000001 0.000001 -1.849906
    19 -0.058556 -0.021328 0.004244 0.000000 0.000000 0.000000
    20 1.640597 -1.968779 -0.099219 -0.000001 0.000001 -1.849906
    21 0.055573 -0.028913 0.000000 0.000000 0.000000 0.000000
    22 -3.112023 1.517253 4.341910 -0.000013 -1.370798 2.669809
    23 4.827231 0.000000 0.000002 -1.206975 -0.873176 -1.541159
    24 11.139760 0.000000 0.000000 0.000000 0.000000 -0.287179
    25 10.314597 0.000000 -0.000001 -1.570000 0.000000 -0.069778
    26 1.646739 0.449549 -1.702246 0.154002 0.442277 0.277235
    27 0.928312 0.000000 -0.000001 0.000000 0.000000 0.000000
    28 0.928313 -0.000001 0.000002 0.000000 0.000000 0.000000
    29 2.975833 -0.386307 -0.044143 -0.000797 -0.043611 0.000035
    30 1.438886 -0.000001 0.000000 0.000000 0.000000 0.793701
    31 1.485302 -0.000001 0.000000 0.000000 0.000000 1.465302
    32 -2.869897 1.399662 -4.140396 -0.000014 1.370795 2.669783
    33 4.972046 0.000000 0.000000 1.158528 0.580543 -1.574188
    34 11.585350 0.000000 0.000001 0.000000 0.000000 -1.290208
    35 10.127054 -0.000001 -0.000001 1.569752 0.000000 -0.069778
    36 1.533672 0.109715 1.664490 -0.233255 -0.412980 0.435684
    37 0.928312 0.000001 0.000000 0.000000 0.000000 0.000000
    38 0.928313 0.000000 0.000002 0.000000 0.000000 0.000000
    39 2.683747 -0.427339 0.044205 -0.007668 0.042952 -0.200744
    40 1.438886 -0.000001 0.000002 0.000000 0.000000 1.046662
    41 1.485300 0.000000 0.000000 0.000000 0.000000 0.994317
  time 1
    0 0.235347 8.160938 41.315236 0.000000 0.006613 -1.570874
    1 -3.660268 0.105472 0.000000 0.000000 -1.570787 -1.570795
    2 -0.000004 0.000007 3.713254 -3.222886 0.079996 3.136266
    3 18.045721 0.000000 0.000000 0.000000 0.000000 -0.172855
    4 17.597595 0.000000 0.000000 -0.096433 0.053641 -0.131268
    5 0.000004 -0.000003 -3.713254 3.339534 0.019584 3.576703
    6 18.045725 0.000000 0.000000 0.000000 0.000000 -1.522329
    7 17.597597 0.000000 0.000000 -0.116321 -0.024390 -0.394875
    8 1.293671 0.684478 -0.000001 -0.066105 0.022350 0.325574
    9 5.309686 -0.003834 0.000000 -0.000024 -0.034887 0.145628
    10 4.826790 -0.004591 0.000000 -0.078307 0.005357 0.067395
    11 5.792768 -0.005304 0.000000 0.000000 0.000000 0.068292
    12 6.662314 -0.001453 0.000000 0.000000 -0.000001 0.471000
    13 2.046984 -0.000002 0.000000 0.148722 0.052820 -0.947664
    14 1.038628 0.548043 -0.144017 -0.000001 0.000001 -1.822941
    15 -0.064003 -0.023525 0.026161 0.000000 0.000000 0.000000
    16 3.052984 3.965101 -0.088975 -0.000001 0.000001 -1.849906
    17 -0.084188 -0.025625 -0.001098 0.000000 0.000000 0.000000
    18 4.743028 3.972485 -0.079803 -0.000001 0.000001 -1.849906
    19 -0.058556 -0.021328 0.004244 0.000000 0.000000 0.000000
    20 1.640597 -1.968779 -0.099219 -0.000001 0.000001 -1.849906
    21 0.055573 -0.028913 0.000000 0.000000 0.000000 0.000000
    22 -3.112023 1.517253 4.341910 -0.000013 -1.370798 2.669809
    23 4.827231 0.000000 0.000002 -1.299896 -0.652851 -1.383989
    24 11.139760 0.000000 0.000000 0.000000 0.000000 -0.294538
    25 10.314597 0.000000 -0.000001 -1.570000 0.000000 -0.069778
    26 1.646739 0.449549 -1.702246 0.154002 0.442277 0.277235
    27 0.928312 0.000000 -0.000001 0.000000 0.000000 0.000000
    28 0.928313 -0.000001 0.000002 0.000000 0.000000 0.000000
    29 2.975833 -0.386307 -0.044143 -0.000797 -0.043611 0.000035
    30 1.438886 -0.000001 0.000000 0.000000 0.000000 0.793701
    31 1.485302 -0.000001 0.000000 0.000000 0.000000 1.465302
    32 -2.869897 1.399662 -4.140396 -0.000014 1.370795 2.669783
    33 4.972046 0.000000 0.000000 1.237740 0.343645 -1.451928
    34 11.585350 0.000000 0.000001 0.000000 0.000000 -1.248024
    35 10.127054 -0.000001 -0.000001 1.569752 0.000000 -0.069778
    36 1.533672 0.109715 1.664490 -0.233255 -0.412980 0.435684
    37 0.928312 0.000001 0.000000 0.000000 0.000000 0.000000
    38 0.928313 0.000000 0.000002 0.000000 0.000000 0.000000
    39 2.683747 -0.427339 0.044205 -0.007668 0.042952 -0.200744
    40 1.438886 -0.000001 0.000002 0.000000 0.000000 1.046662
    41 1.485300 0.000000 0.000000 0.000000 0.000000 0.994317
  time 2
    0 0.235347 12.821237 44.901283 0.000000 0.013797 -1.570874
    1 -2.789148 0.031251 0.000000 0.000000 -1.570787 -1.570795
    2 -0.000004 0.000007 3.713254 -3.205189 0.094679 3.338444
    3 18.045721 0.000000 0.000000 0.000000 0.000000 -0.066734
    4 17.597595 0.000000 0.000000 -0.110299 0.002083 -0.523094
    5 0.000004 -0.000003 -3.713254 3.317476 0.093321 3.191052
    6 18.045725 0.000000 0.000000 0.000000 0.000000 -1.590934
    7 17.597597 0.000000 0.000000 -0.118745 -0.004468 -0.549713
    8 1.293671 0.684478 -0.000001 -0.067046 0.019306 0.280072
    9 5.309686 -0.003834 0.000000 -0.000024 -0.034887 0.075529
    10 4.826790 -0.004591 0.000000 -0.078439 0.002912 0.036350
    11 5.792768 -0.005304 0.000000 0.000000 0.000000 0.038871
    12 6.662314 -0.001453 0.000000 0.000000 -0.000001 0.471000
    13 2.046984 -0.000002 0.000000 0.147085 0.067005 -0.914402
    14 1.038628 0.548043 -0.144017 -0.000001 0.000001 -1.793483
    15 -0.064003 -0.023525 0.026161 0.000000 0.000000 0.000000
    16 3.092047 3.945569 -0.088975 -0.000001 0.000001 -1.849906
    17 -0.084188 -0.025625 -0.001098 0.000000 0.000000 0.000000
    18 4.703964 3.972485 -0.079803 -0.000001 0.000001 -1.849906
    19 -0.058556 -0.021328 0.004244 0.000000 0.000000 0.000000
    20 1.640597 -1.968779 -0.099219 -0.000001 0.000001 -1.849906
    21 0.055573 -0.028913 0.000000 0.000000 0.000000 0.000000
    22 -3.112023 1.517253 4.341910 -0.000013 -1.370798 2.669809
    23 4.827231 0.000000 0.000002 -1.331026 -0.334064 -1.237582
    24 11.139760 0.000000 0.000000 0.000000 0.000000 -0.304069
    25 10.314597 0.000000 -0.000001 -1.570000 0.000000 -0.069778
    26 1.646739 0.449549 -1.702246 0.154002 0.442277 0.277235
    27 0.928312 0.000000 -0.000001 0.000000 0.000000 0.000000
    28 0.928313 -0.000001 0.000002 0.000000 0.000000 0.000000
    29 2.975833 -0.386307 -0.044143 -0.000797 -0.043611 0.000035
    30 1.438886 -0.000001 0.000000 0.000000 0.000000 0.793701
    31 1.485302 -0.000001 0.000000 0.000000 0.000000 1.465302
    32 -2.869897 1.399662 -4.140396 -0.000014 1.370795 2.669783
    33 4.972046 0.000000 0.000000 1.274096 0.003299 -1.323938
    34 11.585350 0.000000 0.000001 0.000000 0.000000 -1.194157
    35 10.127054 -0.000001 -0.000001 1.569752 0.000000 -0.069778
    36 1.533672 0.109715 1.664490 -0.233255 -0.412980 0.435684
    37 0.928312 0.000001 0.000000 0.000000 0.000000 0.000000
    38 0.928313 0.000000 0.000002 0.000000 0.000000 0.000000
    39 2.683747 -0.427339 0.044205 -0.007668 0.042952 -0.200744
    40 1.438886 -0.000001 0.000002 0.000000 0.000000 1.046662
    41 1.485300 0.000000 0.000000 0.000000 0.000000 0.994317
  time 3
    0 0.235347 15.153339 49.073286 0.000000 0.021599 -1.570874
    1 -1.664113 -0.054689 0.000000 0.000000 -1.570787 -1.570795
    2 -0.000004 0.000007 3.713254 -3.186650 0.104737 3.523939
    3 18.045721 0.000000 0.000000 0.000000 0.000000 -0.012857
    4 17.597595 0.000000 0.000000 -0.100286 -0.045994 -0.839475
    5 0.000004 -0.000003 -3.713254 3.257123 0.162276 2.726281
    6 18.045725 0.000000 0.000000 0.000000 0.000000 -1.672869
    7 17.597597 0.000000 0.000000 -0.117030 0.020660 -0.722512
    8 1.293671 0.684478 -0.000001 -0.068020 0.015579 0.224876
    9 5.309686 -0.003834 0.000000 -0.000024 -0.034887 -0.010381
    10 4.826790 -0.004591 0.000000 -0.078488 -0.000084 -0.001971
    11 5.792768 -0.005304 0.000000 0.000000 0.000000 0.002723
    12 6.662314 -0.001453 0.000000 0.000000 -0.000001 0.471000
    13 2.046984 -0.000002 0.000000 0.142777 0.083823 -0.871567
    14 1.038628 0.548043 -0.144017 -0.000001 0.000001 -1.762311
    15 -0.064003 -0.023525 0.026161 0.000000 0.000000 0.000000
    16 3.127205 3.926037 -0.088975 -0.000001 0.000001 -1.849906
    17 -0.084188 -0.025625 -0.001098 0.000000 0.000000 0.000000
    18 4.672713 3.968578 -0.079803 -0.000001 0.000001 -1.849906
    19 -0.058556 -0.021328 0.004244 0.000000 0.000000 0.000000
    20 1.640597 -1.968779 -0.099219 -0.000001 0.000001 -1.849906
    21 0.055573 -0.028913 0.000000 0.000000 0.000000 0.000000
    22 -3.112023 1.517253 4.341910 -0.000013 -1.370798 2.669809
    23 4.827231 0.000000 0.000002 -1.287150 0.035954 -1.071749
    24 11.139760 0.000000 0.000000 0.000000 0.000000 -0.315001
    25 10.314597 0.000000 -0.000001 -1.570000 0.000000 -0.069778
    26 1.646739 0.449549 -1.702246 0.154002 0.442277 0.277235
    27 0.928312 0.000000 -0.000001 0.000000 0.000000 0.000000
    28 0.928313 -0.000001 0.000002 0.000000 0.000000 0.000000
    29 2.975833 -0.386307 -0.044143 -0.000797 -0.043611 0.000035
    30 1.438886 -0.000001 0.000000 0.000000 0.000000 0.793701
    31 1.485302 -0.000001 0.000000 0.000000 0.000000 1.465302
    32 -2.869897 1.399662 -4.140396 -0.000014 1.370795 2.669783
    33 4.972046 0.000000 0.000000 1.238745 -0.392551 -1.153131
    34 11.585350 0.000000 0.000001 0.000000 0.000000 -1.132525
    35 10.127054 -0.000001 -0.000001 1.569752 0.000000 -0.069778
    36 1.533672 0.109715 1.664490 -0.233255 -0.412980 0.435684
    37 0.928312 0.000001 0.000000 0.000000 0.000000 0.000000
    38 0.928313 0.000000 0.000002 0.000000 0.000000 0.000000
    39 2.683747 -0.427339 0.044205 -0.007668 0.042952 -0.200744
    40 1.438886 -0.000001 0.000002 0.000000 0.000000 1.046662
    41 1.485300 0.000000 0.000000 0.000000 0.000000 0.994317
  time 4
    0 0.235347 15.954145 53.249194 0.000000 0.029877 -1.570874
    1 -0.398450 -0.156255 0.000000 0.000000 -1.570787 -1.570795
    2 -0.000004 0.000007 3.713254 -3.173969 0.109312 3.642476
    3 18.045721 0.000000 0.000000 0.000000 0.000000 -0.088774
    4 17.597595 0.000000 0.000000 -0.079956 -0.076057 -0.975727
    5 0.000004 -0.000003 -3.713254 3.159044 0.198140 2.191785
    6 18.045725 0.000000 0.000000 0.000000 0.000000 -1.766830
    7 17.597597 0.000000 0.000000 -0.106724 0.052357 -0.874982
    8 1.293671 0.684478 -0.000001 -0.068833 0.011420 0.164207
    9 5.309686 -0.003834 0.000000 -0.000024 -0.034887 -0.103316
    10 4.826790 -0.004591 0.000000 -0.078422 -0.003308 -0.042982
    11 5.792768 -0.005304 0.000000 0.000000 0.000000 -0.036207
    12 6.662314 -0.001453 0.000000 0.000000 -0.000001 0.471000
    13 2.046984 -0.000002 0.000000 0.135108 0.101340 -0.826440
    14 1.038628 0.548043 -0.144017 -0.000001 0.000001 -1.730156
    15 -0.064003 -0.023525 0.026161 0.000000 0.000000 0.000000
    16 3.162362 3.906505 -0.088975 -0.000001 0.000001 -1.849906
    17 -0.084188 -0.025625 -0.001098 0.000000 0.000000 0.000000
    18 4.641462 3.968578 -0.079803 -0.000001 0.000001 -1.849906
    19 -0.058556 -0.021328 0.004244 0.000000 0.000000 0.000000
    20 1.640597 -1.968779 -0.099219 -0.000001 0.000001 -1.849906
    21 0.055573 -0.028913 0.000000 0.000000 0.000000 0.000000
    22 -3.112023 1.517253 4.341910 -0.000013 -1.370798 2.669809
    23 4.827231 0.000000 0.000002 -1.138077 0.404526 -0.826105
    24 11.139760 0.000000 0.000000 0.000000 0.000000 -0.327055
    25 10.314597 0.000000 -0.000001 -1.570000 0.000000 -0.069778
    26 1.646739 0.449549 -1.702246 0.154002 0.442277 0.277235
    27 0.928312 0.000000 -0.000001 0.000000 0.000000 0.000000
    28 0.928313 -0.000001 0.000002 0.000000 0.000000 0.000000
    29 2.975833 -0.386307 -0.044143 -0.000797 -0.043611 0.000035
    30 1.438886 -0.000001 0.000000 0.000000 0.000000 0.793701
    31 1.485302 -0.000001 0.000000 0.000000 0.000000 1.465302
    32 -2.869897 1.399662 -4.140396 -0.000014 1.370795 2.669783
    33 4.972046 0.000000 0.000000 1.049149 -0.784701 -0.836745
    34 11.585350 0.000000 0.000001 0.000000 0.000000 -1.064317
    35 10.127054 -0.000001 -0.000001 1.569752 0.000000 -0.069778
    36 1.533672 0.109715 1.664490 -0.233255 -0.412980 0.435684
    37 0.928312 0.000001 0.000000 0.000000 0.000000 0.000000
    38 0.928313 0.000000 0.000002 0.000000 0.000000 0.000000
    39 2.683747 -0.427339 0.044205 -0.007668 0.042952 -0.200744
    40 1.438886 -0.000001 0.000002 0.000000 0.000000 1.046662
    41 1.485300 0.000000 0.000000 0.000000 0.000000 0.994317
  time 5
    0 0.235347 16.020553 56.862586 0.000000 0.038726 -1.570874
    1 0.859401 -0.257820 0.000000 0.000000 -1.570787 -1.570795
    2 -0.000004 0.000007 3.713254 -3.161048 0.112337 3.759175
    3 18.045721 0.000000 0.000000 0.000000 0.000000 -0.293818
    4 17.597595 0.000000 0.000000 -0.054935 -0.095702 -0.944432
    5 0.000004 -0.000003 -3.713254 3.062528 0.182686 1.691980
    6 18.045725 0.000000 0.000000 0.000000 0.000000 -1.858400
    7 17.597597 0.000000 0.000000 -0.079285 0.088590 -0.889542
    8 1.293671 0.684478 -0.000001 -0.069408 0.007142 0.102500
    9 5.309686 -0.003834 0.000000 -0.000024 -0.034887 -0.194295
    10 4.826790 -0.004591 0.000000 -0.078225 -0.006376 -0.082009
    11 5.792768 -0.005304 0.000000 0.000000 0.000000 -0.073725
    12 6.662314 -0.001453 0.000000 0.000000 -0.000001 0.471000
    13 2.046984 -0.000002 0.000000 0.124337 0.117686 -0.787021
    14 1.038628 0.548043 -0.144017 -0.000001 0.000001 -1.697738
    15 -0.064003 -0.023525 0.026161 0.000000 0.000000 0.000000
    16 3.193613 3.890880 -0.088975 -0.000001 0.000001 -1.849906
    17 -0.084188 -0.025625 -0.001098 0.000000 0.000000 0.000000
    18 4.610211 3.968578 -0.079803 -0.000001 0.000001 -1.849906
    19 -0.058556 -0.021328 0.004244 0.000000 0.000000 0.000000
    20 1.640597 -1.968779 -0.099219 -0.000001 0.000001 -1.849906
    21 0.055573 -0.028913 0.000000 0.000000 0.000000 0.000000
    22 -3.112023 1.517253 4.341910 -0.000013 -1.370798 2.669809
    23 4.827231 0.000000 0.000002 -0.811033 0.687485 -0.407451
    24 11.139760 0.000000 0.000000 0.000000 0.000000 -0.340300
    25 10.314597 0.000000 -0.000001 -1.570000 0.000000 -0.069778
    26 1.646739 0.449549 -1.702246 0.154002 0.442277 0.277235
    27 0.928312 0.000000 -0.000001 0.000000 0.000000 0.000000
    28 0.928313 -0.000001 0.000002 0.000000 0.000000 0.000000
    29 2.975833 -0.386307 -0.044143 -0.000797 -0.043611 0.000035
    30 1.438886 -0.000001 0.000000 0.000000 0.000000 0.793701
    31 1.485302 -0.000001 0.000000 0.000000 0.000000 1.465302
    32 -2.869897 1.399662 -4.140396 -0.000014 1.370795 2.669783
    33 4.972046 0.000000 0.000000 0.478813 -1.029322 -0.129670
    34 11.585350 0.000000 0.000001 0.000000 0.000000 -0.989533
    35 10.127054 -0.000001 -0.000001 1.569752 0.000000 -0.069778
    36 1.533672 0.109715 1.664490 -0.233255 -0.412980 0.435684
    37 0.928312 0.000001 0.000000 0.000000 0.000000 0.000000
    38 0.928313 0.000000 0.000002 0.000000 0.000000 0.000000
    39 2.683747 -0.427339 0.044205 -0.007668 0.042952 -0.200744
    40 1.438886 -0.000001 0.000002 0.000000 0.000000 1.046662
    41 1.485300 0.000000 0.000000 0.000000 0.000000 0.994317
  time 6
    0 0.235347 16.153370 59.327505 0.000000 0.048194 -1.570874
    1 1.976623 -0.347667 0.000000 0.000000 -1.570787 -1.570795
    2 -0.000004 0.000007 3.713254 -3.147404 0.113862 3.880007
    3 18.045721 0.000000 0.000000 0.000000 0.000000 -0.550290
    4 17.597595 0.000000 0.000000 -0.027608 -0.106802 -0.836501
    5 0.000004 -0.000003 -3.713254 2.992045 0.131610 1.249081
    6 18.045725 0.000000 0.000000 0.000000 0.000000 -2.035600
    7 17.597597 0.000000 0.000000 0.031131 0.114705 -0.155285
    8 1.293671 0.684478 -0.000001 -0.069711 0.003055 0.043923
    9 5.309686 -0.003834 0.000000 -0.000024 -0.034887 -0.274699
    10 4.826790 -0.004591 0.000000 -0.077979 -0.008929 -0.114597
    11 5.792768 -0.005304 0.000000 0.000000 0.000000 -0.105928
    12 6.662314 -0.001453 0.000000 0.000000 -0.000001 0.471000
    13 2.046984 -0.000002 0.000000 0.111757 0.131262 -0.759872
    14 1.038628 0.548043 -0.144017 -0.000001 0.000001 -1.665823
    15 -0.064003 -0.023525 0.026161 0.000000 0.000000 0.000000
    16 3.224864 3.875254 -0.088975 -0.000001 0.000001 -1.849906
    17 -0.084188 -0.025625 -0.001098 0.000000 0.000000 0.000000
    18 4.582866 3.964672 -0.079803 -0.000001 0.000001 -1.849906
    19 -0.058556 -0.021328 0.004244 0.000000 0.000000 0.000000
    20 1.640597 -1.968779 -0.099219 -0.000001 0.000001 -1.849906
    21 0.055573 -0.028913 0.000000 0.000000 0.000000 0.000000
    22 -3.112023 1.517253 4.341910 -0.000013 -1.370798 2.669809
    23 4.827231 0.000000 0.000002 -0.314065 0.754204 0.190250
    24 11.139760 0.000000 0.000000 0.000000 0.000000 -0.354456
    25 10.314597 0.000000 -0.000001 -1.570000 0.000000 -0.069778
    26 1.646739 0.449549 -1.702246 0.154002 0.442277 0.277235
    27 0.928312 0.000000 -0.000001 0.000000 0.000000 0.000000
    28 0.928313 -0.000001 0.000002 0.000000 0.000000 0.000000
    29 2.975833 -0.386307 -0.044143 -0.000797 -0.043611 0.000035
    30 1.438886 -0.000001 0.000000 0.000000 0.000000 0.793701
    31 1.485302 -0.000001 0.000000 0.000000 0.000000 1.465302
    32 -2.869897 1.399662 -4.140396 -0.000014 1.370795 2.669783
    33 4.972046 0.000000 0.000000 -0.206008 -0.903191 0.719427
    34 11.585350 0.000000 0.000001 0.000000 0.000000 -0.908453
    35 10.127054 -0.000001 -0.000001 1.569752 0.000000 -0.069778
    36 1.533672 0.109715 1.664490 -0.233255 -0.412980 0.435684
    37 0.928312 0.000001 0.000000 0.000000 0.000000 0.000000
    38 0.928313 0.000000 0.000002 0.000000 0.000000 0.000000
    39 2.683747 -0.427339 0.044205 -0.007668 0.042952 -0.200744
    40 1.438886 -0.000001 0.000002 0.000000 0.000000 1.046662
    41 1.485300 0.000000 0.000000 0.000000 0.000000 0.994317
  time 7
    0 0.235347 15.911175 60.784580 0.000000 0.058423 -1.570874
    1 2.855556 -0.414075 0.000000 0.000000 -1.570787 -1.570795
    2 -0.000004 0.000007 3.713254 -3.138455 0.113960 3.959134
    3 18.045721 0.000000 0.000000 0.000000 0.000000 -0.822495
    4 17.597595 0.000000 0.000000 -0.003804 -0.110234 -0.704504
    5 0.000004 -0.000003 -3.713254 2.978318 0.114077 1.137190
    6 18.045725 0.000000 0.000000 0.000000 0.000000 -2.011548
    7 17.597597 0.000000 0.000000 0.111849 0.040207 0.669733
    8 1.293671 0.684478 -0.000001 -0.069775 -0.000528 -0.007606
    9 5.309686 -0.003834 0.000000 -0.000024 -0.034887 -0.336867
    10 4.826790 -0.004591 0.000000 -0.077765 -0.010666 -0.136889
    11 5.792768 -0.005304 0.000000 0.000000 0.000000 -0.129328
    12 6.662314 -0.001453 0.000000 0.000000 -0.000001 0.471000
    13 2.046984 -0.000002 0.000000 0.099565 0.141146 -0.747871
    14 1.038628 0.548043 -0.144017 -0.000001 0.000001 -1.635142
    15 -0.064003 -0.023525 0.026161 0.000000 0.000000 0.000000
    16 3.252209 3.859629 -0.085069 -0.000001 0.000001 -1.849906
    17 -0.084188 -0.025625 -0.001098 0.000000 0.000000 0.000000
    18 4.559428 3.964672 -0.079803 -0.000001 0.000001 -1.849906
    19 -0.058556 -0.021328 0.004244 0.000000 0.000000 0.000000
    20 1.640597 -1.968779 -0.099219 -0.000001 0.000001 -1.849906
    21 0.055573 -0.028913 0.000000 0.000000 0.000000 0.000000
    22 -3.112023 1.517253 4.341910 -0.000013 -1.370798 2.669809
    23 4.827231 0.000000 0.000002 0.065489 0.582471 0.690377
    24 11.139760 0.000000 0.000000 0.000000 0.000000 -0.369033
    25 10.314597 0.000000 -0.000001 -1.570000 0.000000 -0.069778
    26 1.646739 0.449549 -1.702246 0.154002 0.442277 0.277235
    27 0.928312 0.000000 -0.000001 0.000000 0.000000 0.000000
    28 0.928313 -0.000001 0.000002 0.000000 0.000000 0.000000
    29 2.975833 -0.386307 -0.044143 -0.000797 -0.043611 0.000035
    30 1.438886 -0.000001 0.000000 0.000000 0.000000 0.793701
    31 1.485302 -0.000001 0.000000 0.000000 0.000000 1.465302
    32 -2.869897 1.399662 -4.140396 -0.000014 1.370795 2.669783
    33 4.972046 0.000000 0.000000 -0.428403 -0.570648 1.150892
    34 11.585350 0.000000 0.000001 0.000000 0.000000 -0.823456
    35 10.127054 -0.000001 -0.000001 1.569752 0.000000 -0.069778
    36 1.533672 0.109715 1.664490 -0.233255 -0.412980 0.435684
    37 0.928312 0.000001 0.000000 0.000000 0.000000 0.000000
    38 0.928313 0.000000 0.000002 0.000000 0.000000 0.000000
    39 2.683747 -0.427339 0.044205 -0.007668 0.042952 -0.200744
    40 1.438886 -0.000001 0.000002 0.000000 0.000000 1.046662
    41 1.485300 0.000000 0.000000 0.000000 0.000000 0.994317
  time 8
    0 0.235347 14.559571 61.710390 0.000000 0.069555 -1.570874
    1 3.437605 -0.457045 0.000000 0.000000 -1.570787 -1.570795
    2 -0.000004 0.000007 3.713254 -3.138214 0.113960 3.961200
    3 18.045721 0.000000 0.000000 0.000000 0.000000 -1.103753
    4 17.597595 0.000000 0.000000 0.012648 -0.109577 -0.570998
    5 0.000004 -0.000003 -3.713254 2.996258 0.136288 1.280755
    6 18.045725 0.000000 0.000000 0.000000 0.000000 -1.508999
    7 17.597597 0.000000 0.000000 0.117010 0.020759 0.480177
    8 1.293671 0.684478 -0.000001 -0.069695 -0.003417 -0.048872
    9 5.309686 -0.003834 0.000000 -0.000024 -0.034887 -0.374661
    10 4.826790 -0.004591 0.000000 -0.077667 -0.011361 -0.145753
    11 5.792768 -0.005304 0.000000 0.000000 0.000000 -0.141163
    12 6.662314 -0.001453 0.000000 0.000000 -0.000001 0.471000
    13 2.046984 -0.000002 0.000000 0.090776 0.146843 -0.748321
    14 1.038628 0.548043 -0.144017 -0.000001 0.000001 -1.606439
    15 -0.064003 -0.023525 0.026161 0.000000 0.000000 0.000000
    16 3.279553 3.844003 -0.085069 -0.000001 0.000001 -1.849906
    17 -0.084188 -0.025625 -0.001098 0.000000 0.000000 0.000000
    18 4.535990 3.964672 -0.079803 -0.000001 0.000001 -1.849906
    19 -0.058556 -0.021328 0.004244 0.000000 0.000000 0.000000
    20 1.640597 -1.968779 -0.099219 -0.000001 0.000001 -1.849906
    21 0.055573 -0.028913 0.000000 0.000000 0.000000 0.000000
    22 -3.112023 1.517253 4.341910 -0.000013 -1.370798 2.669809
    23 4.827231 0.000000 0.000002 0.209511 0.324616 0.976276
    24 11.139760 0.000000 0.000000 0.000000 0.000000 -0.382628
    25 10.314597 0.000000 -0.000001 -1.570000 0.000000 -0.069778
    26 1.646739 0.449549 -1.702246 0.154002 0.442277 0.277235
    27 0.928312 0.000000 -0.000001 0.000000 0.000000 0.000000
    28 0.928313 -0.000001 0.000002 0.000000 0.000000 0.000000
    29 2.975833 -0.386307 -0.044143 -0.000797 -0.043611 0.000035
    30 1.438886 -0.000001 0.000000 0.000000 0.000000 0.793701
    31 1.485302 -0.000001 0.000000 0.000000 0.000000 1.465302
    32 -2.869897 1.399662 -4.140396 -0.000014 1.370795 2.669783
    33 4.972046 0.000000 0.000000 -0.398158 -0.248160 1.379535
    34 11.585350 0.000000 0.000001 0.000000 0.000000 -0.741816
    35 10.127054 -0.000001 -0.000001 1.569752 0.000000 -0.069778
    36 1.533672 0.109715 1.664490 -0.233255 -0.412980 0.435684
    37 0.928312 0.000001 0.000000 0.000000 0.000000 0.000000
    38 0.928313 0.000000 0.000002 0.000000 0.000000 0.000000
    39 2.683747 -0.427339 0.044205 -0.007668 0.042952 -0.200744
    40 1.438886 -0.000001 0.000002 0.000000 0.000000 1.046662
    41 1.485300 0.000000 0.000000 0.000000 0.000000 0.994317
  time 9
    0 0.235347 12.477476 62.046338 0.000000 0.081687 -1.570874
    1 3.711051 -0.476577 0.000000 0.000000 -1.570787 -1.570795
    2 -0.000004 0.000007 3.713254 -3.154667 0.113247 3.816110
    3 18.045721 0.000000 0.000000 0.000000 0.000000 -1.386199
    4 17.597595 0.000000 0.000000 0.015892 -0.109163 -0.462518
    5 0.000004 -0.000003 -3.713254 3.037061 0.169518 1.546975
    6 18.045725 0.000000 0.000000 0.000000 0.000000 -0.924008
    7 17.597597 0.000000 0.000000 0.114866 0.030522 0.076476
    8 1.293671 0.684478 -0.000001 -0.069567 -0.005406 -0.077499
    9 5.309686 -0.003834 0.000000 -0.000024 -0.034887 -0.383770
    10 4.826790 -0.004591 0.000000 -0.077749 -0.010834 -0.139116
    11 5.792768 -0.005304 0.000000 0.000000 0.000000 -0.139543
    12 6.662314 -0.001453 0.000000 0.000000 -0.000001 0.471000
    13 2.046984 -0.000002 0.000000 0.088708 0.147946 -0.751108
    14 1.038628 0.548043 -0.144017 -0.000001 0.000001 -1.580444
    15 -0.064003 -0.023525 0.026161 0.000000 0.000000 0.000000
    16 3.302991 3.832284 -0.085069 -0.000001 0.000001 -1.849906
    17 -0.084188 -0.025625 -0.001098 0.000000 0.000000 0.000000
    18 4.516458 3.960766 -0.079803 -0.000001 0.000001 -1.849906
    19 -0.058556 -0.021328 0.004244 0.000000 0.000000 0.000000
    20 1.640597 -1.968779 -0.099219 -0.000001 0.000001 -1.849906
    21 0.055573 -0.028913 0.000000 0.000000 0.000000 0.000000
    22 -3.112023 1.517253 4.341910 -0.000013 -1.370798 2.669809
    23 4.827231 0.000000 0.000002 0.197587 0.120034 1.098704
    24 11.139760 0.000000 0.000000 0.000000 0.000000 -0.391879
    25 10.314597 0.000000 -0.000001 -1.570000 0.000000 -0.069778
    26 1.646739 0.449549 -1.702246 0.154002 0.442277 0.277235
    27 0.928312 0.000000 -0.000001 0.000000 0.000000 0.000000
    28 0.928313 -0.000001 0.000002 0.000000 0.000000 0.000000
    29 2.975833 -0.386307 -0.044143 -0.000797 -0.043611 0.000035
    30 1.438886 -0.000001 0.000000 0.000000 0.000000 0.793701
    31 1.485302 -0.000001 0.000000 0.000000 0.000000 1.465302
    32 -2.869897 1.399662 -4.140396 -0.000014 1.370795 2.669783
    33 4.972046 0.000000 0.000000 -0.261936 -0.036198 1.499950
    34 11.585350 0.000000 0.000001 0.000000 0.000000 -0.679694
    35 10.127054 -0.000001 -0.000001 1.569752 0.000000 -0.069778
    36 1.533672 0.109715 1.664490 -0.233255 -0.412980 0.435684
    37 0.928312 0.000001 0.000000 0.000000 0.000000 0.000000
    38 0.928313 0.000000 0.000002 0.000000 0.000000 0.000000
    39 2.683747 -0.427339 0.044205 -0.007668 0.042952 -0.200744
    40 1.438886 -0.000001 0.000002 0.000000 0.000000 1.046662
    41 1.485300 0.000000 0.000000 0.000000 0.000000 0.994317
  time 10
    0 0.235347 10.035996 61.698671 0.000000 0.095103 -1.570874
    1 3.550890 -0.457045 0.000000 0.000000 -1.570787 -1.570795
    2 -0.000004 0.000007 3.713254 -3.207156 0.093326 3.317476
    3 18.045721 0.000000 0.000000 0.000000 0.000000 -1.764302
    4 17.597595 0.000000 0.000000 -0.004894 -0.110210 -0.391281
    5 0.000004 -0.000003 -3.713254 3.089603 0.192076 1.837122
    6 18.045725 0.000000 0.000000 0.000000 0.000000 -0.640025
    7 17.597597 0.000000 0.000000 0.106275 0.053264 -0.125477
    8 1.293671 0.684478 -0.000001 -0.069567 -0.005406 -0.077499
    9 5.309686 -0.003834 0.000000 -0.000024 -0.034887 -0.365136
    10 4.826790 -0.004591 0.000000 -0.077962 -0.009144 -0.117420
    11 5.792768 -0.005304 0.000000 0.000000 0.000000 -0.124864
    12 6.662314 -0.001453 0.000000 0.000000 -0.000001 0.471000
    13 2.046984 -0.000002 0.000000 0.094782 0.144231 -0.755557
    14 1.038628 0.548043 -0.144017 -0.000001 0.000001 -1.557913
    15 -0.064003 -0.023525 0.026161 0.000000 0.000000 0.000000
    16 3.322523 3.820565 -0.085069 -0.000001 0.000001 -1.849906
    17 -0.084188 -0.025625 -0.001098 0.000000 0.000000 0.000000
    18 4.496926 3.960766 -0.079803 -0.000001 0.000001 -1.849906
    19 -0.058556 -0.021328 0.004244 0.000000 0.000000 0.000000
    20 1.640597 -1.968779 -0.099219 -0.000001 0.000001 -1.849906
    21 0.055573 -0.028913 0.000000 0.000000 0.000000 0.000000
    22 -3.112023 1.517253 4.341910 -0.000013 -1.481965 2.669809
    23 4.827231 0.000000 0.000002 0.095092 -0.006341 1.033158
    24 11.139760 0.000000 0.000000 0.000000 0.000000 -0.392299
    25 10.314597 0.000000 -0.000001 -1.570000 0.000000 -0.069778
    26 1.646739 0.449549 -1.702246 0.154002 0.442277 0.277235
    27 0.928312 0.000000 -0.000001 0.000000 0.000000 0.000000
    28 0.928313 -0.000001 0.000002 0.000000 0.000000 0.000000
    29 2.975833 -0.386307 -0.044143 -0.000797 -0.043611 0.000035
    30 1.438886 -0.000001 0.000000 0.000000 0.000000 0.793701
    31 1.485302 -0.000001 0.000000 0.000000 0.000000 1.465302
    32 -2.869897 1.399662 -4.140396 -0.000014 1.478142 2.669783
    33 4.972046 0.000000 0.000000 -0.060427 0.107148 1.463457
    34 11.585350 0.000000 0.000001 0.000000 0.000000 -0.651222
    35 10.127054 -0.000001 -0.000001 1.569752 0.000000 -0.069778
    36 1.533672 0.109715 1.664490 -0.233255 -0.412980 0.435684
    37 0.928312 0.000001 0.000000 0.000000 0.000000 0.000000
    38 0.928313 0.000000 0.000002 0.000000 0.000000 0.000000
    39 2.683747 -0.427339 0.044205 -0.007668 0.042952 -0.200744
    40 1.438886 -0.000001 0.000002 0.000000 0.000000 1.046662
    41 1.485300 0.000000 0.000000 0.000000 0.000000 0.994317
  time 11
    0 0.235347 7.614047 60.632232 0.000000 0.109899 -1.570874
    1 3.281350 -0.429701 0.000000 0.000000 -1.570787 -1.570795
    2 -0.000004 0.000007 3.713254 -3.254628 0.014873 2.490782
    3 18.045721 0.000000 0.000000 0.000000 0.000000 -2.228490
    4 17.597595 0.000000 0.000000 -0.048902 -0.098915 -0.340358
    5 0.000004 -0.000003 -3.713254 3.150098 0.198729 2.146535
    6 18.045725 0.000000 0.000000 0.000000 0.000000 -0.751300
    7 17.597597 0.000000 0.000000 0.086009 0.082101 -0.008069
    8 1.293671 0.684478 -0.000001 -0.069567 -0.005406 -0.077499
    9 5.309686 -0.003834 0.000000 -0.000024 -0.034887 -0.330584
    10 4.826790 -0.004591 0.000000 -0.078192 -0.006795 -0.087345
    11 5.792768 -0.005304 0.000000 0.000000 0.000000 -0.102835
    12 6.662314 -0.001453 0.000000 0.000000 -0.000001 0.471000
    13 2.046984 -0.000002 0.000000 0.108655 0.134257 -0.725712
    14 1.038628 0.548043 -0.144017 -0.000001 0.000001 -1.539577
    15 -0.064003 -0.023525 0.026161 0.000000 0.000000 0.000000
    16 3.342055 3.808846 -0.085069 -0.000001 0.000001 -1.849906
    17 -0.084188 -0.025625 -0.001098 0.000000 0.000000 0.000000
    18 4.481301 3.960766 -0.079803 -0.000001 0.000001 -1.849906
    19 -0.058556 -0.021328 0.004244 0.000000 0.000000 0.000000
    20 1.640597 -1.968779 -0.099219 -0.000001 0.000001 -1.849906
    21 0.055573 -0.028913 0.000000 0.000000 0.000000 0.000000
    22 -3.112023 1.517253 4.341910 -3.141488 -1.418688 5.811284
    23 4.827231 0.000000 0.000002 -0.165227 -0.085399 0.673050
    24 11.139760 0.000000 0.000000 0.000000 0.000000 -0.375200
    25 10.314597 0.000000 -0.000001 -1.570000 0.000000 -0.069778
    26 1.646739 0.449549 -1.702246 0.154002 0.442277 0.277235
    27 0.928312 0.000000 -0.000001 0.000000 0.000000 0.000000
    28 0.928313 -0.000001 0.000002 0.000000 0.000000 0.000000
    29 2.975833 -0.386307 -0.044143 -0.000797 -0.043611 0.000035
    30 1.438886 -0.000001 0.000000 0.000000 0.000000 0.793701
    31 1.485302 -0.000001 0.000000 0.000000 0.000000 1.465302
    32 -2.869897 1.399662 -4.140396 -3.141489 1.430828 -0.471691
    33 4.972046 0.000000 0.000000 0.263225 0.224190 1.110380
    34 11.585350 0.000000 0.000001 0.000000 0.000000 -0.694945
    35 10.127054 -0.000001 -0.000001 1.569752 0.000000 -0.069778
    36 1.533672 0.109715 1.664490 -0.233255 -0.412980 0.435684
    37 0.928312 0.000001 0.000000 0.000000 0.000000 0.000000
    38 0.928313 0.000000 0.000002 0.000000 0.000000 0.000000
    39 2.683747 -0.427339 0.044205 -0.007668 0.042952 -0.200744
    40 1.438886 -0.000001 0.000002 0.000000 0.000000 1.046662
    41 1.485300 0.000000 0.000000 0.000000 0.000000 0.994317
  time 12
    0 0.235347 5.582735 58.784519 0.000000 0.126408 -1.570874
    1 2.941496 -0.398450 0.000000 0.000000 -1.570787 -1.570795
    2 -0.000004 0.000007 3.713254 -3.232878 -0.068352 1.719569
    3 18.045721 0.000000 0.000000 0.000000 0.000000 -2.535500
    4 17.597595 0.000000 0.000000 -0.090704 -0.062863 -0.302612
    5 0.000004 -0.000003 -3.713254 3.213054 0.185770 2.473157
    6 18.045725 0.000000 0.000000 0.000000 0.000000 -1.035500
    7 17.597597 0.000000 0.000000 0.050705 0.107506 0.228259
    8 1.293671 0.684478 -0.000001 -0.069567 -0.005406 -0.077499
    9 5.309686 -0.003834 0.000000 -0.000024 -0.034887 -0.287901
    10 4.826790 -0.004591 0.000000 -0.078389 -0.004123 -0.053257
    11 5.792768 -0.005304 0.000000 0.000000 0.000000 -0.077172
    12 6.662314 -0.001453 0.000000 0.000000 -0.000001 0.471000
    13 2.046984 -0.000002 0.000000 0.126793 0.117371 -0.663145
    14 1.038628 0.548043 -0.144017 -0.000001 0.000001 -1.526178
    15 -0.064003 -0.023525 0.026161 0.000000 0.000000 0.000000
    16 3.361587 3.801033 -0.085069 -0.000001 0.000001 -1.849906
    17 -0.084188 -0.025625 -0.001098 0.000000 0.000000 0.000000
    18 4.469582 3.960766 -0.079803 -0.000001 0.000001 -1.849906
    19 -0.058556 -0.021328 0.004244 0.000000 0.000000 0.000000
    20 1.640597 -1.968779 -0.099219 -0.000001 0.000001 -1.849906
    21 0.055573 -0.028913 0.000000 0.000000 0.000000 0.000000
    22 -3.112023 1.517253 4.341910 -3.141584 -1.264940 5.811380
    23 4.827231 0.000000 0.000002 -0.553651 -0.131354 0.254834
    24 11.139760 0.000000 0.000000 0.000000 0.000000 -0.351443
    25 10.314597 0.000000 -0.000001 -1.570000 0.000000 -0.069778
    26 1.646739 0.449549 -1.702246 0.154002 0.442277 0.277235
    27 0.928312 0.000000 -0.000001 0.000000 0.000000 0.000000
    28 0.928313 -0.000001 0.000002 0.000000 0.000000 0.000000
    29 2.975833 -0.386307 -0.044143 -0.000797 -0.043611 0.000035
    30 1.438886 -0.000001 0.000000 0.000000 0.000000 0.793701
    31 1.485302 -0.000001 0.000000 0.000000 0.000000 1.465302
    32 -2.869897 1.399662 -4.140396 -3.141489 1.282357 -0.471787
    33 4.972046 0.000000 0.000000 0.664851 0.236739 0.637218
    34 11.585350 0.000000 0.000001 0.000000 0.000000 -0.768540
    35 10.127054 -0.000001 -0.000001 1.569752 0.000000 -0.069778
    36 1.533672 0.109715 1.664490 -0.233255 -0.412980 0.435684
    37 0.928312 0.000001 0.000000 0.000000 0.000000 0.000000
    38 0.928313 0.000000 0.000002 0.000000 0.000000 0.000000
    39 2.683747 -0.427339 0.044205 -0.007668 0.042952 -0.200744
    40 1.438886 -0.000001 0.000002 0.000000 0.000000 1.046662
    41 1.485300 0.000000 0.000000 0.000000 0.000000 0.994317
  time 13
    0 0.235347 3.863932 55.831304 0.000000 0.144820 -1.570874
    1 2.546953 -0.359386 0.000000 0.000000 -1.570787 -1.570795
    2 -0.000004 0.000007 3.713254 -3.198247 -0.098971 1.311005
    3 18.045721 0.000000 0.000000 0.000000 0.000000 -2.553162
    4 17.597595 0.000000 0.000000 -0.108550 -0.019704 -0.267519
    5 0.000004 -0.000003 -3.713254 3.268294 0.153718 2.797241
    6 18.045725 0.000000 0.000000 0.000000 0.000000 -1.357879
    7 17.597597 0.000000 0.000000 0.002554 0.118808 0.451297
    8 1.293671 0.684478 -0.000001 -0.069567 -0.005406 -0.077499
    9 5.309686 -0.003834 0.000000 -0.000024 -0.034887 -0.239677
    10 4.826790 -0.004591 0.000000 -0.078488 -0.001210 -0.016325
    11 5.792768 -0.005304 0.000000 0.000000 0.000000 -0.048997
    12 6.662314 -0.001453 0.000000 0.000000 -0.000001 0.471000
    13 2.046984 -0.000002 0.000000 0.145491 0.093009 -0.574553
    14 1.038628 0.548043 -0.144017 -0.000001 0.000001 -1.518472
    15 -0.064003 -0.023525 0.026161 0.000000 0.000000 0.000000
    16 3.373306 3.789314 -0.085069 -0.000001 0.000001 -1.849906
    17 -0.084188 -0.025625 -0.001098 0.000000 0.000000 0.000000
    18 4.457863 3.960766 -0.079803 -0.000001 0.000001 -1.849906
    19 -0.058556 -0.021328 0.004244 0.000000 0.000000 0.000000
    20 1.640597 -1.968779 -0.099219 -0.000001 0.000001 -1.849906
    21 0.055573 -0.028913 0.000000 0.000000 0.000000 0.000000
    22 -3.112023 1.517253 4.341910 -3.141488 -1.512430 5.811284
    23 4.827231 0.000000 0.000002 -0.952353 -0.362232 -0.511852
    24 11.139760 0.000000 0.000000 0.000000 0.000000 -0.330348
    25 10.314597 0.000000 -0.000001 -1.570000 0.000000 -0.069778
    26 1.646739 0.449549 -1.702246 0.154002 0.442277 0.277235
    27 0.928312 0.000000 -0.000001 0.000000 0.000000 0.000000
    28 0.928313 -0.000001 0.000002 0.000000 0.000000 0.000000
    29 2.975833 -0.386307 -0.044143 -0.000797 -0.043611 0.000035
    30 1.438886 -0.000001 0.000000 0.000000 0.000000 0.793701
    31 1.485302 -0.000001 0.000000 0.000000 0.000000 1.465302
    32 -2.869897 1.399662 -4.140396 -3.141489 1.521358 -0.471691
    33 4.972046 0.000000 0.000000 1.217550 0.494713 -0.220574
    34 11.585350 0.000000 0.000001 0.000000 0.000000 -0.831851
    35 10.127054 -0.000001 -0.000001 1.569752 0.000000 -0.069778
    36 1.533672 0.109715 1.664490 -0.233255 -0.412980 0.435684
    37 0.928312 0.000001 0.000000 0.000000 0.000000 0.000000
    38 0.928313 0.000000 0.000002 0.000000 0.000000 0.000000
    39 2.683747 -0.427339 0.044205 -0.007668 0.042952 -0.200744
    40 1.438886 -0.000001 0.000002 0.000000 0.000000 1.046662
    41 1.485300 0.000000 0.000000 0.000000 0.000000 0.994317
  time 14
    0 0.235347 2.137317 51.831182 0.000000 0.165420 -1.570874
    1 2.093814 -0.312510 0.000000 0.000000 -1.570787 -1.570795
    2 -0.000004 0.000007 3.713254 -3.187492 -0.104381 1.205095
    3 18.045721 0.000000 0.000000 0.000000 0.000000 -2.348340
    4 17.597595 0.000000 0.000000 -0.110756 0.018782 -0.229636
    5 0.000004 -0.000003 -3.713254 3.308340 0.108914 3.100621
    6 18.045725 0.000000 0.000000 0.000000 0.000000 -1.601511
    7 17.597597 0.000000 0.000000 -0.051862 0.106973 0.524990
    8 1.293671 0.684478 -0.000001 -0.069567 -0.005406 -0.077499
    9 5.309686 -0.003834 0.000000 -0.000024 -0.034887 -0.185440
    10 4.826790 -0.004591 0.000000 -0.078471 0.001953 0.024135
    11 5.792768 -0.005304 0.000000 0.000000 0.000000 -0.017873
    12 6.662314 -0.001453 0.000000 0.000000 -0.000001 0.471000
    13 2.046984 -0.000002 0.000000 0.161001 0.061736 -0.471803
    14 1.038628 0.548043 -0.144017 -0.000001 0.000001 -1.515943
    15 -0.064003 -0.023525 0.026161 0.000000 0.000000 0.000000
    16 3.388932 3.781501 -0.085069 -0.000001 0.000001 -1.849906
    17 -0.084188 -0.025625 -0.001098 0.000000 0.000000 0.000000
    18 4.450050 3.960766 -0.083709 -0.000001 0.000001 -1.849906
    19 -0.058556 -0.021328 0.004244 0.000000 0.000000 0.000000
    20 1.640597 -1.968779 -0.099219 -0.000001 0.000001 -1.849906
    21 0.055573 -0.028913 0.000000 0.000000 0.000000 0.000000
    22 -3.112023 1.517253 4.341910 -0.000013 -1.370798 2.669809
    23 4.827231 0.000000 0.000002 -0.878521 -0.387507 -1.187614
    24 11.139760 0.000000 0.000000 0.000000 0.000000 -0.302457
    25 10.314597 0.000000 -0.000001 -1.570000 0.000000 -0.069778
    26 1.646739 0.449549 -1.702246 0.154002 0.442277 0.277235
    27 0.928312 0.000000 -0.000001 0.000000 0.000000 0.000000
    28 0.928313 -0.000001 0.000002 0.000000 0.000000 0.000000
    29 2.975833 -0.386307 -0.044143 -0.000797 -0.043611 0.000035
    30 1.438886 -0.000001 0.000000 0.000000 0.000000 0.793701
    31 1.485302 -0.000001 0.000000 0.000000 0.000000 1.465302
    32 -2.869897 1.399662 -4.140396 -0.000014 1.370795 2.669783
    33 4.972046 0.000000 0.000000 1.061835 0.540082 -1.120656
    34 11.585350 0.000000 0.000001 0.000000 0.000000 -0.920206
    35 10.127054 -0.000001 -0.000001 1.569752 0.000000 -0.069778
    36 1.533672 0.109715 1.664490 -0.233255 -0.412980 0.435684
    37 0.928312 0.000001 0.000000 0.000000 0.000000 0.000000
    38 0.928313 0.000000 0.000002 0.000000 0.000000 0.000000
    39 2.683747 -0.427339 0.044205 -0.007668 0.042952 -0.200744
    40 1.438886 -0.000001 0.000002 0.000000 0.000000 1.046662
    41 1.485300 0.000000 0.000000 0.000000 0.000000 0.994317
  time 15
    0 0.235347 0.430234 47.131820 0.000000 0.188399 -1.570874
    1 1.566454 -0.261727 0.000000 0.000000 -1.570787 -1.570795
    2 -0.000004 0.000007 3.713254 -3.187452 -0.104406 1.204865
    3 18.045721 0.000000 0.000000 0.000000 0.000000 -2.064930
    4 17.597595 0.000000 0.000000 -0.102517 0.053275 -0.192531
    5 0.000004 -0.000003 -3.713254 3.334517 0.048586 3.430327
    6 18.045725 0.000000 0.000000 0.000000 0.000000 -1.649107
    7 17.597597 0.000000 0.000000 -0.108224 0.049162 0.213321
    8 1.293671 0.684478 -0.000001 -0.069567 -0.005406 -0.077499
    9 5.309686 -0.003834 0.000000 -0.000024 -0.034887 -0.123091
    10 4.826790 -0.004591 0.000000 -0.078291 0.005549 0.069798
    11 5.792768 -0.005304 0.000000 0.000000 0.000000 0.017486
    12 6.662314 -0.001453 0.000000 0.000000 -0.000001 0.471000
    13 2.046984 -0.000002 0.000000 0.169962 0.026433 -0.374176
    14 1.038628 0.548043 -0.144017 -0.000001 0.000001 -1.517358
    15 -0.064003 -0.023525 0.026161 0.000000 0.000000 0.000000
    16 3.396744 3.777595 -0.085069 -0.000001 0.000001 -1.849906
    17 -0.084188 -0.025625 -0.001098 0.000000 0.000000 0.000000
    18 4.442237 3.960766 -0.083709 -0.000001 0.000001 -1.849906
    19 -0.058556 -0.021328 0.004244 0.000000 0.000000 0.000000
    20 1.640597 -1.968779 -0.099219 -0.000001 0.000001 -1.849906
    21 0.055573 -0.028913 0.000000 0.000000 0.000000 0.000000
    22 -3.112023 1.517253 4.341910 -0.000013 -1.370798 2.669809
    23 4.827231 0.000000 0.000002 -0.912588 -0.320447 -1.214042
    24 11.139760 0.000000 0.000000 0.000000 0.000000 -0.280101
    25 10.314597 0.000000 -0.000001 -1.570000 0.000000 -0.069778
    26 1.646739 0.449549 -1.702246 0.154002 0.442277 0.277235
    27 0.928312 0.000000 -0.000001 0.000000 0.000000 0.000000
    28 0.928313 -0.000001 0.000002 0.000000 0.000000 0.000000
    29 2.975833 -0.386307 -0.044143 -0.000797 -0.043611 0.000035
    30 1.438886 -0.000001 0.000000 0.000000 0.000000 0.793701
    31 1.485302 -0.000001 0.000000 0.000000 0.000000 1.465302
    32 -2.869897 1.399662 -4.140396 -0.000014 1.370795 2.669783
    33 4.972046 0.000000 0.000000 1.066708 0.384509 -1.217488
    34 11.585350 0.000000 0.000001 0.000000 0.000000 -0.989254
    35 10.127054 -0.000001 -0.000001 1.569752 0.000000 -0.069778
    36 1.533672 0.109715 1.664490 -0.233255 -0.412980 0.435684
    37 0.928312 0.000001 0.000000 0.000000 0.000000 0.000000
    38 0.928313 0.000000 0.000002 0.000000 0.000000 0.000000
    39 2.683747 -0.427339 0.044205 -0.007668 0.042952 -0.200744
    40 1.438886 -0.000001 0.000002 0.000000 0.000000 1.046662
    41 1.485300 0.000000 0.000000 0.000000 0.000000 0.994317
  time 16
    0 0.235347 -1.233880 41.994945 0.000000 0.216468 -1.570874
    1 0.937529 -0.199225 0.000000 0.000000 -1.570787 -1.570795
    2 -0.000004 0.000007 3.713254 -3.191666 -0.102463 1.246112
    3 18.045721 0.000000 0.000000 0.000000 0.000000 -1.764377
    4 17.597595 0.000000 0.000000 -0.085862 0.081099 -0.158033
    5 0.000004 -0.000003 -3.713254 3.340102 -0.012642 3.736655
    6 18.045725 0.000000 0.000000 0.000000 0.000000 -1.586515
    7 17.597597 0.000000 0.000000 -0.109956 -0.045139 -0.349820
    8 1.293671 0.684478 -0.000001 -0.069567 -0.005406 -0.077499
    9 5.309686 -0.003834 0.000000 -0.000024 -0.034887 -0.049985
    10 4.826790 -0.004591 0.000000 -0.077897 0.009684 0.122627
    11 5.792768 -0.005304 0.000000 0.000000 0.000000 0.058575
    12 6.662314 -0.001453 0.000000 0.000000 -0.000001 0.471000
    13 2.046984 -0.000002 0.000000 0.171255 -0.006822 -0.312778
    14 1.038628 0.548043 -0.144017 -0.000001 0.000001 -1.522295
    15 -0.064003 -0.023525 0.026161 0.000000 0.000000 0.000000
    16 3.404557 3.769782 -0.085069 -0.000001 0.000001 -1.849906
    17 -0.084188 -0.025625 -0.001098 0.000000 0.000000 0.000000
    18 4.438331 3.960766 -0.083709 -0.000001 0.000001 -1.849906
    19 -0.058556 -0.021328 0.004244 0.000000 0.000000 0.000000
    20 1.640597 -1.968779 -0.099219 -0.000001 0.000001 -1.849906
    21 0.055573 -0.028913 0.000000 0.000000 0.000000 0.000000
    22 -3.112023 1.517253 4.341910 -0.000013 -1.370798 2.669809
    23 4.827231 0.000000 0.000002 -0.951472 -0.279599 -1.163723
    24 11.139760 0.000000 0.000000 0.000000 0.000000 -0.260339
    25 10.314597 0.000000 -0.000001 -1.570000 0.000000 -0.069778
    26 1.646739 0.449549 -1.702246 0.154002 0.442277 0.277235
    27 0.928312 0.000000 -0.000001 0.000000 0.000000 0.000000
    28 0.928313 -0.000001 0.000002 0.000000 0.000000 0.000000
    29 2.975833 -0.386307 -0.044143 -0.000797 -0.043611 0.000035
    30 1.438886 -0.000001 0.000000 0.000000 0.000000 0.793701
    31 1.485302 -0.000001 0.000000 0.000000 0.000000 1.465302
    32 -2.869897 1.399662 -4.140396 -0.000014 1.370795 2.669783
    33 4.972046 0.000000 0.000000 1.085892 0.250977 -1.217818
    34 11.585350 0.000000 0.000001 0.000000 0.000000 -1.050256
    35 10.127054 -0.000001 -0.000001 1.569752 0.000000 -0.069778
    36 1.533672 0.109715 1.664490 -0.233255 -0.412980 0.435684
    37 0.928312 0.000001 0.000000 0.000000 0.000000 0.000000
    38 0.928313 0.000000 0.000002 0.000000 0.000000 0.000000
    39 2.683747 -0.427339 0.044205 -0.007668 0.042952 -0.200744
    40 1.438886 -0.000001 0.000002 0.000000 0.000000 1.046662
    41 1.485300 0.000000 0.000000 0.000000 0.000000 0.994317
  time 17
    0 0.235347 -2.835491 36.729159 0.000000 0.253958 -1.570874
    1 0.203131 -0.128910 0.000000 0.000000 -1.570787 -1.570795
    2 -0.000004 0.000007 3.713254 -3.198367 -0.098897 1.312994
    3 18.045721 0.000000 0.000000 0.000000 0.000000 -1.433768
    4 17.597595 0.000000 0.000000 -0.061070 0.102886 -0.123352
    5 0.000004 -0.000003 -3.713254 3.339155 -0.023280 3.789858
    6 18.045725 0.000000 0.000000 0.000000 0.000000 -1.594918
    7 17.597597 0.000000 0.000000 -0.084496 -0.083641 -0.677733
    8 1.293671 0.684478 -0.000001 -0.069567 -0.005406 -0.077499
    9 5.309686 -0.003834 0.000000 -0.000024 -0.034887 0.035743
    10 4.826790 -0.004591 0.000000 -0.077158 0.014441 0.183945
    11 5.792768 -0.005304 0.000000 0.000000 0.000000 0.106454
    12 6.662314 -0.001453 0.000000 0.000000 -0.000001 0.471000
    13 2.046984 -0.000002 0.000000 0.167980 -0.028504 -0.338263
    14 1.038628 0.548043 -0.144017 -0.000001 0.000001 -1.530325
    15 -0.064003 -0.023525 0.026161 0.000000 0.000000 0.000000
    16 3.412370 3.765876 -0.081162 -0.000001 0.000001 -1.849906
    17 -0.084188 -0.025625 -0.001098 0.000000 0.000000 0.000000
    18 4.434424 3.956859 -0.083709 -0.000001 0.000001 -1.849906
    19 -0.058556 -0.021328 0.004244 0.000000 0.000000 0.000000
    20 1.640597 -1.968779 -0.099219 -0.000001 0.000001 -1.849906
    21 0.055573 -0.028913 0.000000 0.000000 0.000000 0.000000
    22 -3.112023 1.517253 4.341910 -0.000013 -1.370798 2.669809
    23 4.827231 0.000000 0.000002 -1.009562 -0.278918 -1.103078
    24 11.139760 0.000000 0.000000 0.000000 0.000000 -0.243309
    25 10.314597 0.000000 -0.000001 -1.570000 0.000000 -0.069778
    26 1.646739 0.449549 -1.702246 0.154002 0.442277 0.277235
    27 0.928312 0.000000 -0.000001 0.000000 0.000000 0.000000
    28 0.928313 -0.000001 0.000002 0.000000 0.000000 0.000000
    29 2.975833 -0.386307 -0.044143 -0.000797 -0.043611 0.000035
    30 1.438886 -0.000001 0.000000 0.000000 0.000000 0.793701
    31 1.485302 -0.000001 0.000000 0.000000 0.000000 1.465302
    32 -2.869897 1.399662 -4.140396 -0.000014 1.370795 2.669783
    33 4.972046 0.000000 0.000000 1.119774 0.170294 -1.201152
    34 11.585350 0.000000 0.000001 0.000000 0.000000 -1.102794
    35 10.127054 -0.000001 -0.000001 1.569752 0.000000 -0.069778
    36 1.533672 0.109715 1.664490 -0.233255 -0.412980 0.435684
    37 0.928312 0.000001 0.000000 0.000000 0.000000 0.000000
    38 0.928313 0.000000 0.000002 0.000000 0.000000 0.000000
    39 2.683747 -0.427339 0.044205 -0.007668 0.042952 -0.200744
    40 1.438886 -0.000001 0.000002 0.000000 0.000000 1.046662
    41 1.485300 0.000000 0.000000 0.000000 0.000000 0.994317
  time 18
    0 0.235347 -4.347256 31.896980 0.000000 0.303817 -1.570874
    1 -0.605487 -0.046876 0.000000 0.000000 -1.570787 -1.570795
    2 -0.000004 0.000007 3.713254 -3.207356 -0.093166 1.406813
    3 18.045721 0.000000 0.000000 0.000000 0.000000 -1.042010
    4 17.597595 0.000000 0.000000 -0.026163 0.116615 -0.086842
    5 0.000004 -0.000003 -3.713254 3.327700 0.042176 3.460562
    6 18.045725 0.000000 0.000000 0.000000 0.000000 -1.758281
    7 17.597597 0.000000 0.000000 -0.111753 -0.045771 -0.525195
    8 1.293671 0.684478 -0.000001 -0.069567 -0.005406 -0.077499
    9 5.309686 -0.003834 0.000000 -0.000024 -0.034887 0.132843
    10 4.826790 -0.004591 0.000000 -0.075976 0.019739 0.252959
    11 5.792768 -0.005304 0.000000 0.000000 0.000000 0.160458
    12 6.662314 -0.001453 0.000000 0.000000 -0.000001 0.471000
    13 2.046984 -0.000002 0.000000 0.167636 -0.020196 -0.558192
    14 1.038628 0.548043 -0.144017 -0.000001 0.000001 -1.541039
    15 -0.064003 -0.023525 0.026161 0.000000 0.000000 0.000000
    16 3.416276 3.761969 -0.081162 -0.000001 0.000001 -1.849906
    17 -0.084188 -0.025625 -0.001098 0.000000 0.000000 0.000000
    18 4.434424 3.956859 -0.083709 -0.000001 0.000001 -1.849906
    19 -0.058556 -0.021328 0.004244 0.000000 0.000000 0.000000
    20 1.640597 -1.968779 -0.099219 -0.000001 0.000001 -1.849906
    21 0.055573 -0.028913 0.000000 0.000000 0.000000 0.000000
    22 -3.112023 1.517253 4.341910 -0.000013 -1.370798 2.669809
    23 4.827231 0.000000 0.000002 -1.088445 -0.278748 -1.032894
    24 11.139760 0.000000 0.000000 0.000000 0.000000 -0.225579
    25 10.314597 0.000000 -0.000001 -1.570000 0.000000 -0.069778
    26 1.646739 0.449549 -1.702246 0.154002 0.442277 0.277235
    27 0.928312 0.000000 -0.000001 0.000000 0.000000 0.000000
    28 0.928313 -0.000001 0.000002 0.000000 0.000000 0.000000
    29 2.975833 -0.386307 -0.044143 -0.000797 -0.043611 0.000035
    30 1.438886 -0.000001 0.000000 0.000000 0.000000 0.793701
    31 1.485302 -0.000001 0.000000 0.000000 0.000000 1.465302
    32 -2.869897 1.399662 -4.140396 -0.000014 1.370795 2.669783
    33 4.972046 0.000000 0.000000 1.161081 0.091945 -1.181588
    34 11.585350 0.000000 0.000001 0.000000 0.000000 -1.157500
    35 10.127054 -0.000001 -0.000001 1.569752 0.000000 -0.069778
    36 1.533672 0.109715 1.664490 -0.233255 -0.412980 0.435684
    37 0.928312 0.000001 0.000000 0.000000 0.000000 0.000000
    38 0.928313 0.000000 0.000002 0.000000 0.000000 0.000000
    39 2.683747 -0.427339 0.044205 -0.007668 0.042952 -0.200744
    40 1.438886 -0.000001 0.000002 0.000000 0.000000 1.046662
    41 1.485300 0.000000 0.000000 0.000000 0.000000 0.994317
  time 19
    0 0.235347 -4.937118 27.693727 0.000000 0.367425 -1.570874
    1 -1.394574 0.031251 0.000000 0.000000 -1.570787 -1.570795
    2 -0.000004 0.000007 3.713254 -3.217509 -0.085124 1.520452
    3 18.045721 0.000000 0.000000 0.000000 0.000000 -0.590512
    4 17.597595 0.000000 0.000000 0.017185 0.115301 -0.054998
    5 0.000004 -0.000003 -3.713254 3.266306 0.134278 2.897819
    6 18.045725 0.000000 0.000000 0.000000 0.000000 -1.991481
    7 17.597597 0.000000 0.000000 -0.119289 0.046676 -0.157276
    8 1.293671 0.684478 -0.000001 -0.069567 -0.005406 -0.077499
    9 5.309686 -0.003834 0.000000 -0.000024 -0.034887 0.233059
    10 4.826790 -0.004591 0.000000 -0.074383 0.025108 0.324155
    11 5.792768 -0.005304 0.000000 0.000000 0.000000 0.216144
    12 6.662314 -0.001453 0.000000 0.000000 -0.000001 0.471000
    13 2.046984 -0.000002 0.000000 0.166386 -0.011685 -0.785133
    14 1.038628 0.548043 -0.144017 -0.000001 0.000001 -1.554006
    15 -0.064003 -0.023525 0.026161 0.000000 0.000000 0.000000
    16 3.420182 3.758063 -0.081162 -0.000001 0.000001 -1.849906
    17 -0.084188 -0.025625 -0.001098 0.000000 0.000000 0.000000
    18 4.438331 3.956859 -0.083709 -0.000001 0.000001 -1.849906
    19 -0.058556 -0.021328 0.004244 0.000000 0.000000 0.000000
    20 1.640597 -1.968779 -0.099219 -0.000001 0.000001 -1.849906
    21 0.055573 -0.028913 0.000000 0.000000 0.000000 0.000000
    22 -3.112023 1.517253 4.341910 -0.000013 -1.370798 2.669809
    23 4.827231 0.000000 0.000002 -1.175316 -0.226666 -0.952296
    24 11.139760 0.000000 0.000000 0.000000 0.000000 -0.204275
    25 10.314597 0.000000 -0.000001 -1.570000 0.000000 -0.069778
    26 1.646739 0.449549 -1.702246 0.154002 0.442277 0.277235
    27 0.928312 0.000000 -0.000001 0.000000 0.000000 0.000000
    28 0.928313 -0.000001 0.000002 0.000000 0.000000 0.000000
    29 2.975833 -0.386307 -0.044143 -0.000797 -0.043611 0.000035
    30 1.438886 -0.000001 0.000000 0.000000 0.000000 0.793701
    31 1.485302 -0.000001 0.000000 0.000000 0.000000 1.465302
    32 -2.869897 1.399662 -4.140396 -0.000014 1.370795 2.669783
    33 4.972046 0.000000 0.000000 1.194189 -0.044564 -1.159652
    34 11.585350 0.000000 0.000001 0.000000 0.000000 -1.223119
    35 10.127054 -0.000001 -0.000001 1.569752 0.000000 -0.069778
    36 1.533672 0.109715 1.664490 -0.233255 -0.412980 0.435684
    37 0.928312 0.000001 0.000000 0.000000 0.000000 0.000000
    38 0.928313 0.000000 0.000002 0.000000 0.000000 0.000000
    39 2.683747 -0.427339 0.044205 -0.007668 0.042952 -0.200744
    40 1.438886 -0.000001 0.000002 0.000000 0.000000 1.046662
    41 1.485300 0.000000 0.000000 0.000000 0.000000 0.994317
  time 20
    0 0.235347 -4.464447 23.685792 0.000000 0.441263 -1.570874
    1 -1.984436 0.089846 0.000000 0.000000 -1.570787 -1.570795
    2 -0.000004 0.000007 3.713254 -3.223087 -0.079812 1.587258
    3 18.045721 0.000000 0.000000 0.000000 0.000000 -0.217381
    4 17.597595 0.000000 0.000000 0.054703 0.095826 -0.057789
    5 0.000004 -0.000003 -3.713254 3.172440 0.196511 2.260140
    6 18.045725 0.000000 0.000000 0.000000 0.000000 -2.240401
    7 17.597597 0.000000 0.000000 -0.059382 0.102989 0.257654
    8 1.293671 0.684478 -0.000001 -0.069567 -0.005406 -0.077499
    9 5.309686 -0.003834 0.000000 -0.000024 -0.034887 0.313988
    10 4.826790 -0.004591 0.000000 -0.072774 0.029422 0.382695
    11 5.792768 -0.005304 0.000000 0.000000 0.000000 0.261656
    12 6.662314 -0.001453 0.000000 0.000000 -0.000001 0.471000
    13 2.046984 -0.000002 0.000000 0.164835 -0.004931 -0.969913
    14 1.038628 0.548043 -0.144017 -0.000001 0.000001 -1.568819
    15 -0.064003 -0.023525 0.026161 0.000000 0.000000 0.000000
    16 3.420182 3.758063 -0.081162 -0.000001 0.000001 -1.849906
    17 -0.084188 -0.025625 -0.001098 0.000000 0.000000 0.000000
    18 4.442237 3.960766 -0.083709 -0.000001 0.000001 -1.849906
    19 -0.058556 -0.021328 0.004244 0.000000 0.000000 0.000000
    20 1.640597 -1.968779 -0.099219 -0.000001 0.000001 -1.849906
    21 0.055573 -0.028913 0.000000 0.000000 0.000000 0.000000
    22 -3.112023 1.517253 4.341910 -0.000013 -1.370798 2.669809
    23 4.827231 0.000000 0.000002 -1.235697 -0.126503 -0.902152
    24 11.139760 0.000000 0.000000 0.000000 0.000000 -0.182620
    25 10.314597 0.000000 -0.000001 -1.570000 0.000000 -0.069778
    26 1.646739 0.449549 -1.702246 0.154002 0.442277 0.277235
    27 0.928312 0.000000 -0.000001 0.000000 0.000000 0.000000
    28 0.928313 -0.000001 0.000002 0.000000 0.000000 0.000000
    29 2.975833 -0.386307 -0.044143 -0.000797 -0.043611 0.000035
    30 1.438886 -0.000001 0.000000 0.000000 0.000000 0.793701
    31 1.485302 -0.000001 0.000000 0.000000 0.000000 1.465302
    32 -2.869897 1.399662 -4.140396 -0.000014 1.370795 2.669783
    33 4.972046 0.000000 0.000000 1.200145 -0.221051 -1.159323
    34 11.585350 0.000000 0.000001 0.000000 0.000000 -1.290208
    35 10.127054 -0.000001 -0.000001 1.569752 0.000000 -0.069778
    36 1.533672 0.109715 1.664490 -0.233255 -0.412980 0.435684
    37 0.928312 0.000001 0.000000 0.000000 0.000000 0.000000
    38 0.928313 0.000000 0.000002 0.000000 0.000000 0.000000
    39 2.683747 -0.427339 0.044205 -0.007668 0.042952 -0.200744
    40 1.438886 -0.000001 0.000002 0.000000 0.000000 1.046662
    41 1.485300 0.000000 0.000000 0.000000 0.000000 0.994317
  time 21
    0 0.235347 -3.956619 20.146622 0.000000 0.509676 -1.570874
    1 -1.984436 0.089846 0.000000 0.000000 -1.570787 -1.570795
    2 -0.000004 0.000007 3.713254 -3.187854 -0.104037 1.197060
    3 18.045721 0.000000 0.000000 0.000000 0.000000 -0.855741
    4 17.597595 0.000000 0.000000 0.068443 0.035968 -0.599136
    5 0.000004 -0.000003 -3.713254 3.319795 0.332586 2.188905
    6 18.045725 0.000000 0.000000 0.000000 0.000000 -2.240401
    7 17.597597 0.000000 0.000000 -0.101975 -0.102123 0.174619
    8 1.293671 0.684478 -0.000001 -0.069567 -0.005406 -0.077499
    9 5.309686 -0.003834 0.000000 -0.000024 -0.034887 0.313988
    10 4.826790 -0.004591 0.000000 -0.072774 0.029422 0.382695
    11 5.792768 -0.005304 0.000000 0.000000 0.000000 0.261656
    12 6.662314 -0.001453 0.000000 0.000000 -0.000001 0.471000
    13 2.046984 -0.000002 0.000000 0.164835 -0.004931 -0.969913
    14 1.038628 0.548043 -0.144017 -0.000001 0.000001 -1.585047
    15 -0.064003 -0.023525 0.026161 0.000000 0.000000 0.000000
    16 3.416276 3.758063 -0.081162 -0.000001 0.000001 -1.849906
    17 -0.084188 -0.025625 -0.001098 0.000000 0.000000 0.000000
    18 4.450050 3.960766 -0.083709 -0.000001 0.000001 -1.849906
    19 -0.058556 -0.021328 0.004244 0.000000 0.000000 0.000000
    20 1.640597 -1.968779 -0.099219 -0.000001 0.000001 -1.849906
    21 0.055573 -0.028913 0.000000 0.000000 0.000000 0.000000
    22 -3.112023 1.517253 4.341910 -0.811579 -1.284403 3.460595
    23 4.827231 0.000000 0.000002 -1.213612 -0.091952 -1.106841
    24 11.139760 0.000000 0.000000 0.000000 0.000000 -0.182620
    25 10.314597 0.000000 -0.000001 -1.570000 0.000000 -0.069778
    26 1.646739 0.449549 -1.702246 0.154002 0.442277 0.277235
    27 0.928312 0.000000 -0.000001 0.000000 0.000000 0.000000
    28 0.928313 -0.000001 0.000002 0.000000 0.000000 0.000000
    29 2.975833 -0.386307 -0.044143 -0.000797 -0.043611 0.000035
    30 1.438886 -0.000001 0.000000 0.000000 0.000000 0.793701
    31 1.485302 -0.000001 0.000000 0.000000 0.000000 1.465302
    32 -2.869897 1.399662 -4.140396 0.867734 1.266981 3.514233
    33 4.972046 0.000000 0.000000 1.186221 -0.264650 -1.381642
    34 11.585350 0.000000 0.000001 0.000000 0.000000 -1.290208
    35 10.127054 -0.000001 -0.000001 1.569752 0.000000 -0.069778
    36 1.533672 0.109715 1.664490 -0.233255 -0.412980 0.435684
    37 0.928312 0.000001 0.000000 0.000000 0.000000 0.000000
    38 0.928313 0.000000 0.000002 0.000000 0.000000 0.000000
    39 2.683747 -0.427339 0.044205 -0.007668 0.042952 -0.200744
    40 1.438886 -0.000001 0.000002 0.000000 0.000000 1.046662
    41 1.485300 0.000000 0.000000 0.000000 0.000000 0.994317
  time 22
    0 0.235347 -2.519075 17.052777 0.000000 0.575663 -1.570874
    1 -1.984436 0.089846 0.000000 0.000000 -1.570787 -1.570795
    2 -0.000004 0.000007 3.713254 -3.152580 -0.113481 0.886830
    3 18.045721 0.000000 0.000000 0.000000 0.000000 -1.264048
    4 17.597595 0.000000 0.000000 0.070902 0.027424 -0.433739
    5 0.000004 -0.000003 -3.713254 3.626954 0.494337 2.415566
    6 18.045725 0.000000 0.000000 0.000000 0.000000 -2.240401
    7 17.597597 0.000000 0.000000 -0.222384 -0.386229 0.349410
    8 1.293671 0.684478 -0.000001 -0.069567 -0.005406 -0.077499
    9 5.309686 -0.003834 0.000000 -0.000024 -0.034887 0.313988
    10 4.826790 -0.004591 0.000000 -0.072774 0.029422 0.382695
    11 5.792768 -0.005304 0.000000 0.000000 0.000000 0.261656
    12 6.662314 -0.001453 0.000000 0.000000 -0.000001 0.471000
    13 2.046984 -0.000002 0.000000 0.164835 -0.004931 -0.969913
    14 1.038628 0.548043 -0.144017 -0.000001 0.000001 -1.602280
    15 -0.064003 -0.023525 0.026161 0.000000 0.000000 0.000000
    16 3.412370 3.758063 -0.081162 -0.000001 0.000001 -1.849906
    17 -0.084188 -0.025625 -0.001098 0.000000 0.000000 0.000000
    18 4.461769 3.960766 -0.083709 -0.000001 0.000001 -1.849906
    19 -0.058556 -0.021328 0.004244 0.000000 0.000000 0.000000
    20 1.640597 -1.968779 -0.099219 -0.000001 0.000001 -1.849906
    21 0.055573 -0.028913 0.000000 0.000000 0.000000 0.000000
    22 -3.112023 1.517253 4.341910 -1.226422 -1.030028 3.844387
    23 4.827231 0.000000 0.000002 -1.195110 -0.035615 -1.401666
    24 11.139760 0.000000 0.000000 0.000000 0.000000 -0.182620
    25 10.314597 0.000000 -0.000001 -1.570000 0.000000 -0.069778
    26 1.646739 0.449549 -1.702246 0.154002 0.442277 0.277235
    27 0.928312 0.000000 -0.000001 0.000000 0.000000 0.000000
    28 0.928313 -0.000001 0.000002 0.000000 0.000000 0.000000
    29 2.975833 -0.386307 -0.044143 -0.000797 -0.043611 0.000035
    30 1.438886 -0.000001 0.000000 0.000000 0.000000 0.793701
    31 1.485302 -0.000001 0.000000 0.000000 0.000000 1.465302
    32 -2.869897 1.399662 -4.140396 1.150847 1.109380 3.777980
    33 4.972046 0.000000 0.000000 1.182431 -0.301814 -1.565295
    34 11.585350 0.000000 0.000001 0.000000 0.000000 -1.290208
    35 10.127054 -0.000001 -0.000001 1.569752 0.000000 -0.069778
    36 1.533672 0.109715 1.664490 -0.233255 -0.412980 0.435684
    37 0.928312 0.000001 0.000000 0.000000 0.000000 0.000000
    38 0.928313 0.000000 0.000002 0.000000 0.000000 0.000000
    39 2.683747 -0.427339 0.044205 -0.007668 0.042952 -0.200744
    40 1.438886 -0.000001 0.000002 0.000000 0.000000 1.046662
    41 1.485300 0.000000 0.000000 0.000000 0.000000 0.994317
  time 23
    0 0.235347 -6.312159 13.615172 0.000000 0.575663 -1.570874
    1 -2.257881 0.144536 0.000000 0.000000 -1.570787 -1.570795
    2 -0.000004 0.000007 3.713254 -3.090702 -0.124499 0.612566
    3 18.045721 0.000000 0.000000 0.000000 0.000000 -1.885637
    4 17.597595 0.000000 0.000000 0.094198 0.003762 -0.083868
    5 0.000004 -0.000003 -3.713254 3.708324 0.638312 2.520189
    6 18.045725 0.000000 0.000000 0.000000 0.000000 -2.240401
    7 17.597597 0.000000 0.000000 -0.392344 -0.457552 0.423378
    8 1.293671 0.684478 -0.000001 -0.069567 -0.005406 -0.077499
    9 5.309686 -0.003834 0.000000 -0.000024 -0.034887 0.313988
    10 4.826790 -0.004591 0.000000 -0.068669 0.038051 0.504559
    11 5.792768 -0.005304 0.000000 0.000000 0.000000 0.261656
    12 6.662314 -0.001453 0.000000 0.000000 -0.000001 0.471000
    13 2.046984 -0.000002 0.000000 0.160742 -0.036880 -0.898131
    14 1.038628 0.548043 -0.144017 -0.000001 0.000001 -1.620089
    15 -0.064003 -0.023525 0.026161 0.000000 0.000000 0.000000
    16 3.404557 3.758063 -0.081162 -0.000001 0.000001 -1.849906
    17 -0.084188 -0.025625 -0.001098 0.000000 0.000000 0.000000
    18 4.473488 3.960766 -0.083709 -0.000001 0.000001 -1.849906
    19 -0.058556 -0.021328 0.004244 0.000000 0.000000 0.000000
    20 1.640597 -1.968779 -0.099219 -0.000001 0.000001 -1.849906
    21 0.055573 -0.028913 0.000000 0.000000 0.000000 0.000000
    22 -3.112023 1.517253 4.341910 -0.507853 -1.342872 3.166543
    23 4.827231 0.000000 0.000002 -1.268883 -0.155778 -1.185601
    24 11.139760 0.000000 0.000000 0.000000 0.000000 -0.365669
    25 10.314597 0.000000 -0.000001 -1.570000 0.000000 -0.069778
    26 1.646739 0.449549 -1.702246 0.154002 0.442277 0.277235
    27 0.928312 0.000000 -0.000001 0.000000 0.000000 0.000000
    28 0.928313 -0.000001 0.000002 0.000000 0.000000 0.000000
    29 2.975833 -0.386307 -0.044143 -0.000797 -0.043611 0.000035
    30 1.438886 -0.000001 0.000000 0.000000 0.000000 0.793701
    31 1.485302 -0.000001 0.000000 0.000000 0.000000 1.465302
    32 -2.869897 1.399662 -4.140396 -0.523290 1.329953 2.159067
    33 4.972046 0.000000 0.000000 1.250890 -0.093633 -1.102014
    34 11.585350 0.000000 0.000001 0.000000 0.000000 -1.290208
    35 10.127054 -0.000001 -0.000001 1.569752 0.000000 -0.069778
    36 1.533672 0.109715 1.664490 -0.233255 -0.412980 0.435684
    37 0.928312 0.000001 0.000000 0.000000 0.000000 0.000000
    38 0.928313 0.000000 0.000002 0.000000 0.000000 0.000000
    39 2.683747 -0.427339 0.044205 -0.007668 0.042952 -0.200744
    40 1.438886 -0.000001 0.000002 0.000000 0.000000 1.046662
    41 1.485300 0.000000 0.000000 0.000000 0.000000 0.994317
  time 24
    0 0.235347 -8.620824 14.861304 0.000000 0.575663 -1.570874
    1 -2.496170 0.191412 0.000000 0.000000 -1.570787 -1.570795
    2 -0.000004 0.000007 3.713254 -3.073085 -0.150592 0.732633
    3 18.045721 0.000000 0.000000 0.000000 0.000000 -2.114799
    4 17.597595 0.000000 0.000000 0.123351 -0.022041 0.265226
    5 0.000004 -0.000003 -3.713254 3.737246 0.749472 2.602941
    6 18.045725 0.000000 0.000000 0.000000 0.000000 -2.240401
    7 17.597597 0.000000 0.000000 -0.537372 -0.461674 0.479970
    8 1.293671 0.684478 -0.000001 -0.069567 -0.005406 -0.077499
    9 5.309686 -0.003834 0.000000 -0.000024 -0.034887 0.313988
    10 4.826790 -0.004591 0.000000 -0.063529 0.046129 0.626534
    11 5.792768 -0.005304 0.000000 0.000000 0.000000 0.261656
    12 6.662314 -0.001453 0.000000 0.000000 -0.000001 0.471000
    13 2.046984 -0.000002 0.000000 0.146266 -0.076393 -0.765760
    14 1.038628 0.548043 -0.144017 -0.000001 0.000001 -1.638054
    15 -0.064003 -0.023525 0.026161 0.000000 0.000000 0.000000
    16 3.396744 3.761969 -0.081162 -0.000001 0.000001 -1.849906
    17 -0.084188 -0.025625 -0.001098 0.000000 0.000000 0.000000
    18 4.485207 3.960766 -0.083709 -0.000001 0.000001 -1.849906
    19 -0.058556 -0.021328 0.004244 0.000000 0.000000 0.000000
    20 1.640597 -1.968779 -0.099219 -0.000001 0.000001 -1.849906
    21 0.055573 -0.028913 0.000000 0.000000 0.000000 0.000000
    22 -3.112023 1.517253 4.341910 1.070890 -1.170698 1.634252
    23 4.827231 0.000000 0.000002 -1.327149 -0.299938 -0.902065
    24 11.139760 0.000000 0.000000 0.000000 0.000000 -0.548857
    25 10.314597 0.000000 -0.000001 -1.570000 0.000000 -0.069778
    26 1.646739 0.449549 -1.702246 0.154002 0.442277 0.277235
    27 0.928312 0.000000 -0.000001 0.000000 0.000000 0.000000
    28 0.928313 -0.000001 0.000002 0.000000 0.000000 0.000000
    29 2.975833 -0.386307 -0.044143 -0.000797 -0.043611 0.000035
    30 1.438886 -0.000001 0.000000 0.000000 0.000000 0.793701
    31 1.485302 -0.000001 0.000000 0.000000 0.000000 1.465302
    32 -2.869897 1.399662 -4.140396 -1.249816 0.959806 1.484600
    33 4.972046 0.000000 0.000000 1.341163 0.094036 -0.702299
    34 11.585350 0.000000 0.000001 0.000000 0.000000 -1.290208
    35 10.127054 -0.000001 -0.000001 1.569752 0.000000 -0.069778
    36 1.533672 0.109715 1.664490 -0.233255 -0.412980 0.435684
    37 0.928312 0.000001 0.000000 0.000000 0.000000 0.000000
    38 0.928313 0.000000 0.000002 0.000000 0.000000 0.000000
    39 2.683747 -0.427339 0.044205 -0.007668 0.042952 -0.200744
    40 1.438886 -0.000001 0.000002 0.000000 0.000000 1.046662
    41 1.485300 0.000000 0.000000 0.000000 0.000000 0.994317
  time 25
    0 0.235347 -7.144216 16.947305 0.000000 0.513197 -1.570874
    1 -2.250069 0.156255 0.000000 0.000000 -1.570787 -1.570795
    2 -0.000004 0.000007 3.713254 -3.084201 -0.168005 0.945524
    3 18.045721 0.000000 0.000000 0.000000 0.000000 -2.098473
    4 17.597595 0.000000 0.000000 0.133744 -0.032946 0.398001
    5 0.000004 -0.000003 -3.713254 3.646267 0.704460 2.520463
    6 18.045725 0.000000 0.000000 0.000000 0.000000 -2.192297
    7 17.597597 0.000000 0.000000 -0.533794 -0.317865 0.543877
    8 1.293671 0.684478 -0.000001 -0.069567 -0.005406 -0.077499
    9 5.309686 -0.003834 0.000000 -0.000024 -0.034887 0.288617
    10 4.826790 -0.004591 0.000000 -0.065828 0.042785 0.574763
    11 5.792768 -0.005304 0.000000 0.000000 0.000000 0.205056
    12 6.662314 -0.001453 0.000000 0.000000 -0.000001 0.471000
    13 2.046984 -0.000002 0.000000 0.149412 -0.071463 -0.679731
    14 1.038628 0.548043 -0.144017 -0.000001 0.000001 -1.655768
    15 -0.064003 -0.023525 0.026161 0.000000 0.000000 0.000000
    16 3.385025 3.765876 -0.081162 -0.000001 0.000001 -1.849906
    17 -0.084188 -0.025625 -0.001098 0.000000 0.000000 0.000000
    18 4.500833 3.960766 -0.083709 -0.000001 0.000001 -1.849906
    19 -0.058556 -0.021328 0.004244 0.000000 0.000000 0.000000
    20 1.640597 -1.968779 -0.099219 -0.000001 0.000001 -1.849906
    21 0.055573 -0.028913 0.000000 0.000000 0.000000 0.000000
    22 -3.112023 1.517253 4.341910 1.070890 -1.170698 1.634252
    23 4.827231 0.000000 0.000002 -1.288736 -0.064294 -0.868110
    24 11.139760 0.000000 0.000000 0.000000 0.000000 -0.548857
    25 10.314597 0.000000 -0.000001 -1.570000 0.000000 -0.069778
    26 1.646739 0.449549 -1.702246 0.154002 0.442277 0.277235
    27 0.928312 0.000000 -0.000001 0.000000 0.000000 0.000000
    28 0.928313 -0.000001 0.000002 0.000000 0.000000 0.000000
    29 2.975833 -0.386307 -0.044143 -0.000797 -0.043611 0.000035
    30 1.438886 -0.000001 0.000000 0.000000 0.000000 0.793701
    31 1.485302 -0.000001 0.000000 0.000000 0.000000 1.465302
    32 -2.869897 1.399662 -4.140396 -1.249816 0.959806 1.484600
    33 4.972046 0.000000 0.000000 1.299933 -0.110525 -0.657967
    34 11.585350 0.000000 0.000001 0.000000 0.000000 -1.290208
    35 10.127054 -0.000001 -0.000001 1.569752 0.000000 -0.069778
    36 1.533672 0.109715 1.664490 -0.233255 -0.412980 0.435684
    37 0.928312 0.000001 0.000000 0.000000 0.000000 0.000000
    38 0.928313 0.000000 0.000002 0.000000 0.000000 0.000000
    39 2.683747 -0.427339 0.044205 -0.007668 0.042952 -0.200744
    40 1.438886 -0.000001 0.000002 0.000000 0.000000 1.046662
    41 1.485300 0.000000 0.000000 0.000000 0.000000 0.994317
  time 26
    0 0.235347 -5.808238 19.533322 0.000000 0.448399 -1.570874
    1 -1.949278 0.113285 0.000000 0.000000 -1.570787 -1.570795
    2 -0.000004 0.000007 3.713254 -3.104546 -0.182884 1.190708
    3 18.045721 0.000000 0.000000 0.000000 0.000000 -2.029531
    4 17.597595 0.000000 0.000000 0.140639 -0.043827 0.506892
    5 0.000004 -0.000003 -3.713254 3.561774 0.642227 2.439493
    6 18.045725 0.000000 0.000000 0.000000 0.000000 -2.144194
    7 17.597597 0.000000 0.000000 -0.491860 -0.186009 0.609947
    8 1.293671 0.684478 -0.000001 -0.069567 -0.005406 -0.077499
    9 5.309686 -0.003834 0.000000 -0.000024 -0.034887 0.262305
    10 4.826790 -0.004591 0.000000 -0.068373 0.038566 0.511946
    11 5.792768 -0.005304 0.000000 0.000000 0.000000 0.146360
    12 6.662314 -0.001453 0.000000 0.000000 -0.000001 0.471000
    13 2.046984 -0.000002 0.000000 0.153720 -0.063245 -0.600398
    14 1.038628 0.548043 -0.144017 -0.000001 0.000001 -1.672810
    15 -0.064003 -0.023525 0.026161 0.000000 0.000000 0.000000
    16 3.369400 3.769782 -0.081162 -0.000001 0.000001 -1.849906
    17 -0.084188 -0.025625 -0.001098 0.000000 0.000000 0.000000
    18 4.520365 3.960766 -0.083709 -0.000001 0.000001 -1.849906
    19 -0.058556 -0.021328 0.004244 0.000000 0.000000 0.000000
    20 1.640597 -1.968779 -0.099219 -0.000001 0.000001 -1.849906
    21 0.055573 -0.028913 0.000000 0.000000 0.000000 0.000000
    22 -3.112023 1.517253 4.341910 1.070890 -1.170698 1.634252
    23 4.827231 0.000000 0.000002 -1.235286 0.181562 -0.802914
    24 11.139760 0.000000 0.000000 0.000000 0.000000 -0.548857
    25 10.314597 0.000000 -0.000001 -1.570000 0.000000 -0.069778
    26 1.646739 0.449549 -1.702246 0.154002 0.442277 0.277235
    27 0.928312 0.000000 -0.000001 0.000000 0.000000 0.000000
    28 0.928313 -0.000001 0.000002 0.000000 0.000000 0.000000
    29 2.975833 -0.386307 -0.044143 -0.000797 -0.043611 0.000035
    30 1.438886 -0.000001 0.000000 0.000000 0.000000 0.793701
    31 1.485302 -0.000001 0.000000 0.000000 0.000000 1.465302
    32 -2.869897 1.399662 -4.140396 -1.249816 0.959806 1.484600
    33 4.972046 0.000000 0.000000 1.240138 -0.326992 -0.592556
    34 11.585350 0.000000 0.000001 0.000000 0.000000 -1.290278
    35 10.127054 -0.000001 -0.000001 1.569752 0.000000 -0.069778
    36 1.533672 0.109715 1.664490 -0.233255 -0.412980 0.435684
    37 0.928312 0.000001 0.000000 0.000000 0.000000 0.000000
    38 0.928313 0.000000 0.000002 0.000000 0.000000 0.000000
    39 2.683747 -0.427339 0.044205 -0.007668 0.042952 -0.200744
    40 1.438886 -0.000001 0.000002 0.000000 0.000000 1.046662
    41 1.485300 0.000000 0.000000 0.000000 0.000000 0.994317
  time 27
    0 0.235347 -4.608983 22.170121 0.000000 0.386694 -1.570874
    1 -1.632862 0.070315 0.000000 0.000000 -1.570787 -1.570795
    2 -0.000004 0.000007 3.713254 -3.128222 -0.191639 1.429312
    3 18.045721 0.000000 0.000000 0.000000 0.000000 -1.927418
    4 17.597595 0.000000 0.000000 0.143681 -0.053638 0.578587
    5 0.000004 -0.000003 -3.713254 3.494841 0.581311 2.375321
    6 18.045725 0.000000 0.000000 0.000000 0.000000 -2.098989
    7 17.597597 0.000000 0.000000 -0.434987 -0.084489 0.675914
    8 1.293671 0.684478 -0.000001 -0.069567 -0.005406 -0.077499
    9 5.309686 -0.003834 0.000000 -0.000024 -0.034887 0.237224
    10 4.826790 -0.004591 0.000000 -0.070590 0.034348 0.451355
    11 5.792768 -0.005304 0.000000 0.000000 0.000000 0.090404
    12 6.662314 -0.001453 0.000000 0.000000 -0.000001 0.471000
    13 2.046984 -0.000002 0.000000 0.157468 -0.054937 -0.525515
    14 1.038628 0.548043 -0.144017 -0.000001 0.000001 -1.688749
    15 -0.064003 -0.023525 0.026161 0.000000 0.000000 0.000000
    16 3.357681 3.777595 -0.081162 -0.000001 0.000001 -1.849906
    17 -0.084188 -0.025625 -0.001098 0.000000 0.000000 0.000000
    18 4.539896 3.960766 -0.083709 -0.000001 0.000001 -1.849906
    19 -0.058556 -0.021328 0.004244 0.000000 0.000000 0.000000
    20 1.640597 -1.968779 -0.099219 -0.000001 0.000001 -1.849906
    21 0.055573 -0.028913 0.000000 0.000000 0.000000 0.000000
    22 -3.112023 1.517253 4.341910 1.070890 -1.170698 1.634252
    23 4.827231 0.000000 0.000002 -1.161395 0.409717 -0.715928
    24 11.139760 0.000000 0.000000 0.000000 0.000000 -0.548857
    25 10.314597 0.000000 -0.000001 -1.570000 0.000000 -0.069778
    26 1.646739 0.449549 -1.702246 0.154002 0.442277 0.277235
    27 0.928312 0.000000 -0.000001 0.000000 0.000000 0.000000
    28 0.928313 -0.000001 0.000002 0.000000 0.000000 0.000000
    29 2.975833 -0.386307 -0.044143 -0.000797 -0.043611 0.000035
    30 1.438886 -0.000001 0.000000 0.000000 0.000000 0.793701
    31 1.485302 -0.000001 0.000000 0.000000 0.000000 1.465302
    32 -2.869897 1.399662 -4.140396 -1.249816 0.959806 1.484600
    33 4.972046 0.000000 0.000000 1.160308 -0.528014 -0.506197
    34 11.585350 0.000000 0.000001 0.000000 0.000000 -1.290208
    35 10.127054 -0.000001 -0.000001 1.569752 0.000000 -0.069778
    36 1.533672 0.109715 1.664490 -0.233255 -0.412980 0.435684
    37 0.928312 0.000001 0.000000 0.000000 0.000000 0.000000
    38 0.928313 0.000000 0.000002 0.000000 0.000000 0.000000
    39 2.683747 -0.427339 0.044205 -0.007668 0.042952 -0.200744
    40 1.438886 -0.000001 0.000002 0.000000 0.000000 1.046662
    41 1.485300 0.000000 0.000000 0.000000 0.000000 0.994317
  time 28
    0 0.235347 -3.546450 24.654572 0.000000 0.329175 -1.570874
    1 -1.320353 0.027345 0.000000 0.000000 -1.570787 -1.570795
    2 -0.000004 0.000007 3.713254 -3.151136 -0.194369 1.647483
    3 18.045721 0.000000 0.000000 0.000000 0.000000 -1.807938
    4 17.597595 0.000000 0.000000 0.143656 -0.061890 0.616699
    5 0.000004 -0.000003 -3.713254 3.434394 0.515093 2.319924
    6 18.045725 0.000000 0.000000 0.000000 0.000000 -1.997349
    7 17.597597 0.000000 0.000000 -0.361327 -0.000287 0.700021
    8 1.293671 0.684478 -0.000001 -0.069567 -0.005406 -0.077499
    9 5.309686 -0.003834 0.000000 -0.000024 -0.034887 0.213863
    10 4.826790 -0.004591 0.000000 -0.072412 0.030297 0.394844
    11 5.792768 -0.005304 0.000000 0.000000 0.000000 0.038269
    12 6.662314 -0.001453 0.000000 0.000000 -0.000001 0.471000
    13 2.046984 -0.000002 0.000000 0.160570 -0.046966 -0.455756
    14 1.038628 0.548043 -0.144017 -0.000001 0.000001 -1.703167
    15 -0.064003 -0.023525 0.026161 0.000000 0.000000 0.000000
    16 3.338149 3.785408 -0.085069 -0.000001 0.000001 -1.849906
    17 -0.084188 -0.025625 -0.001098 0.000000 0.000000 0.000000
    18 4.563335 3.964672 -0.083709 -0.000001 0.000001 -1.849906
    19 -0.058556 -0.021328 0.004244 0.000000 0.000000 0.000000
    20 1.640597 -1.968779 -0.099219 -0.000001 0.000001 -1.849906
    21 0.055573 -0.028913 0.000000 0.000000 0.000000 0.000000
    22 -3.112023 1.517253 4.341910 1.070890 -1.170698 1.634252
    23 4.827231 0.000000 0.000002 -1.059253 0.612512 -0.600501
    24 11.139760 0.000000 0.000000 0.000000 0.000000 -0.548857
    25 10.314597 0.000000 -0.000001 -1.570000 0.000000 -0.069778
    26 1.646739 0.449549 -1.702246 0.154002 0.442277 0.277235
    27 0.928312 0.000000 -0.000001 0.000000 0.000000 0.000000
    28 0.928313 -0.000001 0.000002 0.000000 0.000000 0.000000
    29 2.975833 -0.386307 -0.044143 -0.000797 -0.043611 0.000035
    30 1.438886 -0.000001 0.000000 0.000000 0.000000 0.793701
    31 1.485302 -0.000001 0.000000 0.000000 0.000000 1.465302
    32 -2.869897 1.399662 -4.140396 -1.249816 0.959806 1.484600
    33 4.972046 0.000000 0.000000 1.052939 -0.706352 -0.391908
    34 11.585350 0.000000 0.000001 0.000000 0.000000 -1.290208
    35 10.127054 -0.000001 -0.000001 1.569752 0.000000 -0.069778
    36 1.533672 0.109715 1.664490 -0.233255 -0.412980 0.435684
    37 0.928312 0.000001 0.000000 0.000000 0.000000 0.000000
    38 0.928313 0.000000 0.000002 0.000000 0.000000 0.000000
    39 2.683747 -0.427339 0.044205 -0.007668 0.042952 -0.200744
    40 1.438886 -0.000001 0.000002 0.000000 0.000000 1.046662
    41 1.485300 0.000000 0.000000 0.000000 0.000000 0.994317
  time 29
    0 0.235347 -2.612828 26.904640 0.000000 0.276604 -1.570874
    1 -1.015656 -0.011719 0.000000 0.000000 -1.570787 -1.570795
    2 -0.000004 0.000007 3.713254 -3.171642 -0.192500 1.842391
    3 18.045721 0.000000 0.000000 0.000000 0.000000 -1.680815
    4 17.597595 0.000000 0.000000 0.141450 -0.068511 0.629464
    5 0.000004 -0.000003 -3.713254 3.369592 0.432485 2.259180
    6 18.045725 0.000000 0.000000 0.000000 0.000000 -1.785593
    7 17.597597 0.000000 0.000000 -0.256781 0.069438 0.652735
    8 1.293671 0.684478 -0.000001 -0.069567 -0.005406 -0.077499
    9 5.309686 -0.003834 0.000000 -0.000024 -0.034887 0.192494
    10 4.826790 -0.004591 0.000000 -0.073890 0.026522 0.343227
    11 5.792768 -0.005304 0.000000 0.000000 0.000000 -0.009340
    12 6.662314 -0.001453 0.000000 0.000000 -0.000001 0.471000
    13 2.046984 -0.000002 0.000000 0.162983 -0.039514 -0.392020
    14 1.038628 0.548043 -0.144017 -0.000001 0.000001 -1.715655
    15 -0.064003 -0.023525 0.026161 0.000000 0.000000 0.000000
    16 3.318617 3.793220 -0.085069 -0.000001 0.000001 -1.849906
    17 -0.084188 -0.025625 -0.001098 0.000000 0.000000 0.000000
    18 4.590679 3.964672 -0.083709 -0.000001 0.000001 -1.849906
    19 -0.058556 -0.021328 0.004244 0.000000 0.000000 0.000000
    20 1.640597 -1.968779 -0.099219 -0.000001 0.000001 -1.849906
    21 0.055573 -0.028913 0.000000 0.000000 0.000000 0.000000
    22 -3.112023 1.517253 4.341910 1.070890 -1.170698 1.634252
    23 4.827231 0.000000 0.000002 -0.919108 0.783139 -0.447444
    24 11.139760 0.000000 0.000000 0.000000 0.000000 -0.548857
    25 10.314597 0.000000 -0.000001 -1.570000 0.000000 -0.069778
    26 1.646739 0.449549 -1.702246 0.154002 0.442277 0.277235
    27 0.928312 0.000000 -0.000001 0.000000 0.000000 0.000000
    28 0.928313 -0.000001 0.000002 0.000000 0.000000 0.000000
    29 2.975833 -0.386307 -0.044143 -0.000797 -0.043611 0.000035
    30 1.438886 -0.000001 0.000000 0.000000 0.000000 0.793701
    31 1.485302 -0.000001 0.000000 0.000000 0.000000 1.465302
    32 -2.869897 1.399662 -4.140396 -1.249816 0.959806 1.484600
    33 4.972046 0.000000 0.000000 0.909292 -0.856052 -0.241192
    34 11.585350 0.000000 0.000001 0.000000 0.000000 -1.290208
    35 10.127054 -0.000001 -0.000001 1.569752 0.000000 -0.069778
    36 1.533672 0.109715 1.664490 -0.233255 -0.412980 0.435684
    37 0.928312 0.000001 0.000000 0.000000 0.000000 0.000000
    38 0.928313 0.000000 0.000002 0.000000 0.000000 0.000000
    39 2.683747 -0.427339 0.044205 -0.007668 0.042952 -0.200744
    40 1.438886 -0.000001 0.000002 0.000000 0.000000 1.046662
    41 1.485300 0.000000 0.000000 0.000000 0.000000 0.994317
  time 30
    0 0.235347 -1.808116 28.916420 0.000000 0.228505 -1.570874
    1 -0.726585 -0.046876 0.000000 0.000000 -1.570787 -1.570795
    2 -0.000004 0.000007 3.713254 -3.189218 -0.187384 2.016713
    3 18.045721 0.000000 0.000000 0.000000 0.000000 -1.550650
    4 17.597595 0.000000 0.000000 0.137775 -0.073574 0.623653
    5 0.000004 -0.000003 -3.713254 3.315488 0.351679 2.209062
    6 18.045725 0.000000 0.000000 0.000000 0.000000 -1.577822
    7 17.597597 0.000000 0.000000 -0.149334 0.099853 0.611046
    8 1.293671 0.684478 -0.000001 -0.069567 -0.005406 -0.077499
    9 5.309686 -0.003834 0.000000 -0.000024 -0.034887 0.172955
    10 4.826790 -0.004591 0.000000 -0.075056 0.022998 0.295976
    11 5.792768 -0.005304 0.000000 0.000000 0.000000 -0.052942
    12 6.662314 -0.001453 0.000000 0.000000 -0.000001 0.471000
    13 2.046984 -0.000002 0.000000 0.164921 -0.032579 -0.333588
    14 1.038628 0.548043 -0.144017 -0.000001 0.000001 -1.726453
    15 -0.064003 -0.023525 0.026161 0.000000 0.000000 0.000000
    16 3.295179 3.801033 -0.085069 -0.000001 0.000001 -1.849906
    17 -0.084188 -0.025625 -0.001098 0.000000 0.000000 0.000000
    18 4.618024 3.964672 -0.083709 -0.000001 0.000001 -1.849906
    19 -0.058556 -0.021328 0.004244 0.000000 0.000000 0.000000
    20 1.640597 -1.968779 -0.099219 -0.000001 0.000001 -1.849906
    21 0.055573 -0.028913 0.000000 0.000000 0.000000 0.000000
    22 -3.112023 1.517253 4.341910 1.070890 -1.170698 1.634252
    23 4.827231 0.000000 0.000002 -0.728332 0.917342 -0.243893
    24 11.139760 0.000000 0.000000 0.000000 0.000000 -0.548857
    25 10.314597 0.000000 -0.000001 -1.570000 0.000000 -0.069778
    26 1.646739 0.449549 -1.702246 0.154002 0.442277 0.277235
    27 0.928312 0.000000 -0.000001 0.000000 0.000000 0.000000
    28 0.928313 -0.000001 0.000002 0.000000 0.000000 0.000000
    29 2.975833 -0.386307 -0.044143 -0.000797 -0.043611 0.000035
    30 1.438886 -0.000001 0.000000 0.000000 0.000000 0.793701
    31 1.485302 -0.000001 0.000000 0.000000 0.000000 1.465302
    32 -2.869897 1.399662 -4.140396 -1.249816 0.959806 1.484600
    33 4.972046 0.000000 0.000000 0.717916 -0.973416 -0.042850
    34 11.585350 0.000000 0.000001 0.000000 0.000000 -1.290278
    35 10.127054 -0.000001 -0.000001 1.569752 0.000000 -0.069778
    36 1.533672 0.109715 1.664490 -0.233255 -0.412980 0.435684
    37 0.928312 0.000001 0.000000 0.000000 0.000000 0.000000
    38 0.928313 0.000000 0.000002 0.000000 0.000000 0.000000
    39 2.683747 -0.427339 0.044205 -0.007668 0.042952 -0.200744
    40 1.438886 -0.000001 0.000002 0.000000 0.000000 1.046662
    41 1.485300 0.000000 0.000000 0.000000 0.000000 0.994317
  time 31
    0 0.235347 -1.136220 30.717257 0.000000 0.181263 -1.570874
    1 -0.433607 -0.085940 0.000000 0.000000 -1.570787 -1.570795
    2 -0.000004 0.000007 3.713254 -3.204828 -0.180744 2.177874
    3 18.045721 0.000000 0.000000 0.000000 0.000000 -1.418778
    4 17.597595 0.000000 0.000000 0.134074 -0.077323 0.604208
    5 0.000004 -0.000003 -3.713254 3.273170 0.275516 2.189317
    6 18.045725 0.000000 0.000000 0.000000 0.000000 -1.379468
    7 17.597597 0.000000 0.000000 -0.052126 0.097999 0.574337
    8 1.293671 0.684478 -0.000001 -0.069567 -0.005406 -0.077499
    9 5.309686 -0.003834 0.000000 -0.000024 -0.034887 0.153777
    10 4.826790 -0.004591 0.000000 -0.076041 0.019487 0.249695
    11 5.792768 -0.005304 0.000000 0.000000 0.000000 -0.095713
    12 6.662314 -0.001453 0.000000 0.000000 -0.000001 0.471000
    13 2.046984 -0.000002 0.000000 0.166472 -0.025712 -0.276235
    14 1.038628 0.548043 -0.144017 -0.000001 0.000001 -1.736280
    15 -0.064003 -0.023525 0.026161 0.000000 0.000000 0.000000
    16 3.271740 3.808846 -0.085069 -0.000001 0.000001 -1.849906
    17 -0.084188 -0.025625 -0.001098 0.000000 0.000000 0.000000
    18 4.645368 3.968578 -0.083709 -0.000001 0.000001 -1.849906
    19 -0.058556 -0.021328 0.004244 0.000000 0.000000 0.000000
    20 1.640597 -1.968779 -0.099219 -0.000001 0.000001 -1.849906
    21 0.055573 -0.028913 0.000000 0.000000 0.000000 0.000000
    22 -3.112023 1.517253 4.341910 1.070890 -1.170698 1.634252
    23 4.827231 0.000000 0.000002 -0.460495 1.013166 0.037456
    24 11.139760 0.000000 0.000000 0.000000 0.000000 -0.548857
    25 10.314597 0.000000 -0.000001 -1.570000 0.000000 -0.069778
    26 1.646739 0.449549 -1.702246 0.154002 0.442277 0.277235
    27 0.928312 0.000000 -0.000001 0.000000 0.000000 0.000000
    28 0.928313 -0.000001 0.000002 0.000000 0.000000 0.000000
    29 2.975833 -0.386307 -0.044143 -0.000797 -0.043611 0.000035
    30 1.438886 -0.000001 0.000000 0.000000 0.000000 0.793701
    31 1.485302 -0.000001 0.000000 0.000000 0.000000 1.465302
    32 -2.869897 1.399662 -4.140396 -1.249816 0.959806 1.484600
    33 4.972046 0.000000 0.000000 0.454601 -1.057476 0.227886
    34 11.585350 0.000000 0.000001 0.000000 0.000000 -1.290208
    35 10.127054 -0.000001 -0.000001 1.569752 0.000000 -0.069778
    36 1.533672 0.109715 1.664490 -0.233255 -0.412980 0.435684
    37 0.928312 0.000001 0.000000 0.000000 0.000000 0.000000
    38 0.928313 0.000000 0.000002 0.000000 0.000000 0.000000
    39 2.683747 -0.427339 0.044205 -0.007668 0.042952 -0.200744
    40 1.438886 -0.000001 0.000002 0.000000 0.000000 1.046662
    41 1.485300 0.000000 0.000000 0.000000 0.000000 0.994317
  time 32
    0 0.235347 -0.589329 32.342306 0.000000 0.135971 -1.570874
    1 -0.148442 -0.121097 0.000000 0.000000 -1.570787 -1.570795
    2 -0.000004 0.000007 3.713254 -3.225214 -0.177448 2.328244
    3 18.045721 0.000000 0.000000 0.000000 0.000000 -1.283714
    4 17.597595 0.000000 0.000000 0.138231 -0.079295 0.572227
    5 0.000004 -0.000003 -3.713254 3.270188 0.241766 2.339258
    6 18.045725 0.000000 0.000000 0.000000 0.000000 -1.243127
    7 17.597597 0.000000 0.000000 -0.016343 0.103482 0.546315
    8 1.293671 0.684478 -0.000001 -0.069567 -0.005406 -0.077499
    9 5.309686 -0.003834 0.000000 -0.000024 -0.034887 0.135379
    10 4.826790 -0.004591 0.000000 -0.076829 0.016107 0.205597
    11 5.792768 -0.005304 0.000000 0.000000 0.000000 -0.136782
    12 6.662314 -0.001453 0.000000 0.000000 -0.000001 0.471000
    13 2.046984 -0.000002 0.000000 0.167679 -0.019160 -0.220770
    14 1.038628 0.548043 -0.144017 -0.000001 0.000001 -1.745412
    15 -0.064003 -0.023525 0.026161 0.000000 0.000000 0.000000
    16 3.244396 3.820565 -0.085069 -0.000001 0.000001 -1.849906
    17 -0.084188 -0.025625 -0.001098 0.000000 0.000000 0.000000
    18 4.680526 3.968578 -0.083709 -0.000001 0.000001 -1.849906
    19 -0.058556 -0.021328 0.004244 0.000000 0.000000 0.000000
    20 1.640597 -1.968779 -0.099219 -0.000001 0.000001 -1.849906
    21 0.055573 -0.028913 0.000000 0.000000 0.000000 0.000000
    22 -3.112023 1.517253 4.341910 1.070890 -1.170698 1.634252
    23 4.827231 0.000000 0.000002 -0.133568 1.053504 0.378224
    24 11.139760 0.000000 0.000000 0.000000 0.000000 -0.548857
    25 10.314597 0.000000 -0.000001 -1.570000 0.000000 -0.069778
    26 1.646739 0.449549 -1.702246 0.154002 0.442277 0.277235
    27 0.928312 0.000000 -0.000001 0.000000 0.000000 0.000000
    28 0.928313 -0.000001 0.000002 0.000000 0.000000 0.000000
    29 2.975833 -0.386307 -0.044143 -0.000797 -0.043611 0.000035
    30 1.438886 -0.000001 0.000000 0.000000 0.000000 0.793701
    31 1.485302 -0.000001 0.000000 0.000000 0.000000 1.465302
    32 -2.869897 1.399662 -4.140396 -1.249816 0.959806 1.484600
    33 4.972046 0.000000 0.000000 0.136905 -1.093514 0.553230
    34 11.585350 0.000000 0.000001 0.000000 0.000000 -1.290208
    35 10.127054 -0.000001 -0.000001 1.569752 0.000000 -0.069778
    36 1.533672 0.109715 1.664490 -0.233255 -0.412980 0.435684
    37 0.928312 0.000001 0.000000 0.000000 0.000000 0.000000
    38 0.928313 0.000000 0.000002 0.000000 0.000000 0.000000
    39 2.683747 -0.427339 0.044205 -0.007668 0.042952 -0.200744
    40 1.438886 -0.000001 0.000002 0.000000 0.000000 1.046662
    41 1.485300 0.000000 0.000000 0.000000 0.000000 0.994317
  time 33
    0 0.235347 -0.171347 33.826727 0.000000 0.097339 -1.570874
    1 0.097659 -0.152348 0.000000 0.000000 -1.570787 -1.570795
    2 -0.000004 0.000007 3.713254 -3.244154 -0.171448 2.464841
    3 18.045721 0.000000 0.000000 0.000000 0.000000 -1.143233
    4 17.597595 0.000000 0.000000 0.141628 -0.080463 0.528076
    5 0.000004 -0.000003 -3.713254 3.262614 0.209921 2.475693
    6 18.045725 0.000000 0.000000 0.000000 0.000000 -1.100194
    7 17.597597 0.000000 0.000000 0.019209 0.105494 0.505657
    8 1.293671 0.684478 -0.000001 -0.069567 -0.005406 -0.077499
    9 5.309686 -0.003834 0.000000 -0.000024 -0.034887 0.119678
    10 4.826790 -0.004591 0.000000 -0.077388 0.013135 0.167034
    11 5.792768 -0.005304 0.000000 0.000000 0.000000 -0.171788
    12 6.662314 -0.001453 0.000000 0.000000 -0.000001 0.471000
    13 2.046984 -0.000002 0.000000 0.168540 -0.013194 -0.174519
    14 1.038628 0.548043 -0.144017 -0.000001 0.000001 -1.754089
    15 -0.064003 -0.023525 0.026161 0.000000 0.000000 0.000000
    16 3.217051 3.832284 -0.085069 -0.000001 0.000001 -1.849906
    17 -0.084188 -0.025625 -0.001098 0.000000 0.000000 0.000000
    18 4.711777 3.968578 -0.083709 -0.000001 0.000001 -1.849906
    19 -0.058556 -0.021328 0.004244 0.000000 0.000000 0.000000
    20 1.640597 -1.968779 -0.099219 -0.000001 0.000001 -1.849906
    21 0.055573 -0.028913 0.000000 0.000000 0.000000 0.000000
    22 -3.112023 1.517253 4.341910 1.070890 -1.170698 1.634252
    23 4.827231 0.000000 0.000002 0.157646 1.036824 0.682763
    24 11.139760 0.000000 0.000000 0.000000 0.000000 -0.548857
    25 10.314597 0.000000 -0.000001 -1.570000 0.000000 -0.069778
    26 1.646739 0.449549 -1.702246 0.154002 0.442277 0.277235
    27 0.928312 0.000000 -0.000001 0.000000 0.000000 0.000000
    28 0.928313 -0.000001 0.000002 0.000000 0.000000 0.000000
    29 2.975833 -0.386307 -0.044143 -0.000797 -0.043611 0.000035
    30 1.438886 -0.000001 0.000000 0.000000 0.000000 0.793701
    31 1.485302 -0.000001 0.000000 0.000000 0.000000 1.465302
    32 -2.869897 1.399662 -4.140396 -1.249816 0.959806 1.484600
    33 4.972046 0.000000 0.000000 -0.148225 -1.081689 0.845441
    34 11.585350 0.000000 0.000001 0.000000 0.000000 -1.290208
    35 10.127054 -0.000001 -0.000001 1.569752 0.000000 -0.069778
    36 1.533672 0.109715 1.664490 -0.233255 -0.412980 0.435684
    37 0.928312 0.000001 0.000000 0.000000 0.000000 0.000000
    38 0.928313 0.000000 0.000002 0.000000 0.000000 0.000000
    39 2.683747 -0.427339 0.044205 -0.007668 0.042952 -0.200744
    40 1.438886 -0.000001 0.000002 0.000000 0.000000 1.046662
    41 1.485300 0.000000 0.000000 0.000000 0.000000 0.994317
  time 34
    0 0.235347 0.129443 35.190049 0.000000 0.063799 -1.570874
    1 0.312510 -0.179693 0.000000 0.000000 -1.570787 -1.570795
    2 -0.000004 0.000007 3.713254 -3.261891 -0.162987 2.591795
    3 18.045721 0.000000 0.000000 0.000000 0.000000 -0.995109
    4 17.597595 0.000000 0.000000 0.144442 -0.080853 0.472212
    5 0.000004 -0.000003 -3.713254 3.253052 0.181404 2.603627
    6 18.045725 0.000000 0.000000 0.000000 0.000000 -0.947842
    7 17.597597 0.000000 0.000000 0.052354 0.104942 0.452052
    8 1.293671 0.684478 -0.000001 -0.069567 -0.005406 -0.077499
    9 5.309686 -0.003834 0.000000 -0.000024 -0.034887 0.106060
    10 4.826790 -0.004591 0.000000 -0.077782 0.010522 0.133431
    11 5.792768 -0.005304 0.000000 0.000000 0.000000 -0.202185
    12 6.662314 -0.001453 0.000000 0.000000 -0.000001 0.471000
    13 2.046984 -0.000002 0.000000 0.169100 -0.007925 -0.134515
    14 1.038628 0.548043 -0.144017 -0.000001 0.000001 -1.762586
    15 -0.064003 -0.023525 0.026161 0.000000 0.000000 0.000000
    16 3.185800 3.847910 -0.085069 -0.000001 0.000001 -1.849906
    17 -0.084188 -0.025625 -0.001098 0.000000 0.000000 0.000000
    18 4.750840 3.972485 -0.083709 -0.000001 0.000001 -1.849906
    19 -0.058556 -0.021328 0.004244 0.000000 0.000000 0.000000
    20 1.640597 -1.968779 -0.099219 -0.000001 0.000001 -1.849906
    21 0.055573 -0.028913 0.000000 0.000000 0.000000 0.000000
    22 -3.112023 1.517253 4.341910 1.070890 -1.170698 1.634252
    23 4.827231 0.000000 0.000002 0.379435 0.987380 0.916856
    24 11.139760 0.000000 0.000000 0.000000 0.000000 -0.548857
    25 10.314597 0.000000 -0.000001 -1.570000 0.000000 -0.069778
    26 1.646739 0.449549 -1.702246 0.154002 0.442277 0.277235
    27 0.928312 0.000000 -0.000001 0.000000 0.000000 0.000000
    28 0.928313 -0.000001 0.000002 0.000000 0.000000 0.000000
    29 2.975833 -0.386307 -0.044143 -0.000797 -0.043611 0.000035
    30 1.438886 -0.000001 0.000000 0.000000 0.000000 0.793701
    31 1.485302 -0.000001 0.000000 0.000000 0.000000 1.465302
    32 -2.869897 1.399662 -4.140396 -1.249816 0.959806 1.484600
    33 4.972046 0.000000 0.000000 -0.369768 -1.041066 1.073491
    34 11.585350 0.000000 0.000001 0.000000 0.000000 -1.290208
    35 10.127054 -0.000001 -0.000001 1.569752 0.000000 -0.069778
    36 1.533672 0.109715 1.664490 -0.233255 -0.412980 0.435684
    37 0.928312 0.000001 0.000000 0.000000 0.000000 0.000000
    38 0.928313 0.000000 0.000002 0.000000 0.000000 0.000000
    39 2.683747 -0.427339 0.044205 -0.007668 0.042952 -0.200744
    40 1.438886 -0.000001 0.000002 0.000000 0.000000 1.046662
    41 1.485300 0.000000 0.000000 0.000000 0.000000 0.994317
  time 35
    0 0.235347 0.309136 36.416649 0.000000 0.036300 -1.570874
    1 0.492203 -0.199225 0.000000 0.000000 -1.570787 -1.570795
    2 -0.000004 0.000007 3.713254 -3.278184 -0.152240 2.708877
    3 18.045721 0.000000 0.000000 0.000000 0.000000 -0.839415
    4 17.597595 0.000000 0.000000 0.146723 -0.080439 0.405458
    5 0.000004 -0.000003 -3.713254 3.241077 0.156178 2.723539
    6 18.045725 0.000000 0.000000 0.000000 0.000000 -0.785059
    7 17.597597 0.000000 0.000000 0.083965 0.102890 0.385776
    8 1.293671 0.684478 -0.000001 -0.069567 -0.005406 -0.077499
    9 5.309686 -0.003834 0.000000 -0.000024 -0.034887 0.094887
    10 4.826790 -0.004591 0.000000 -0.078044 0.008365 0.105848
    11 5.792768 -0.005304 0.000000 0.000000 0.000000 -0.227100
    12 6.662314 -0.001453 0.000000 0.000000 -0.000001 0.471000
    13 2.046984 -0.000002 0.000000 0.169445 -0.003602 -0.101703
    14 1.038628 0.548043 -0.144017 -0.000001 0.000001 -1.771179
    15 -0.064003 -0.023525 0.026161 0.000000 0.000000 0.000000
    16 3.154549 3.859629 -0.085069 -0.000001 0.000001 -1.849906
    17 -0.084188 -0.025625 -0.001098 0.000000 0.000000 0.000000
    18 4.785998 3.972485 -0.083709 -0.000001 0.000001 -1.849906
    19 -0.058556 -0.021328 0.004244 0.000000 0.000000 0.000000
    20 1.640597 -1.968779 -0.099219 -0.000001 0.000001 -1.849906
    21 0.055573 -0.028913 0.000000 0.000000 0.000000 0.000000
    22 -3.112023 1.517253 4.341910 1.070890 -1.170698 1.634252
    23 4.827231 0.000000 0.000002 0.528625 0.927810 1.076826
    24 11.139760 0.000000 0.000000 0.000000 0.000000 -0.548857
    25 10.314597 0.000000 -0.000001 -1.570000 0.000000 -0.069778
    26 1.646739 0.449549 -1.702246 0.154002 0.442277 0.277235
    27 0.928312 0.000000 -0.000001 0.000000 0.000000 0.000000
    28 0.928313 -0.000001 0.000002 0.000000 0.000000 0.000000
    29 2.975833 -0.386307 -0.044143 -0.000797 -0.043611 0.000035
    30 1.438886 -0.000001 0.000000 0.000000 0.000000 0.793701
    31 1.485302 -0.000001 0.000000 0.000000 0.000000 1.465302
    32 -2.869897 1.399662 -4.140396 -1.249816 0.959806 1.484600
    33 4.972046 0.000000 0.000000 -0.521925 -0.990791 1.231190
    34 11.585350 0.000000 0.000001 0.000000 0.000000 -1.290208
    35 10.127054 -0.000001 -0.000001 1.569752 0.000000 -0.069778
    36 1.533672 0.109715 1.664490 -0.233255 -0.412980 0.435684
    37 0.928312 0.000001 0.000000 0.000000 0.000000 0.000000
    38 0.928313 0.000000 0.000002 0.000000 0.000000 0.000000
    39 2.683747 -0.427339 0.044205 -0.007668 0.042952 -0.200744
    40 1.438886 -0.000001 0.000002 0.000000 0.000000 1.046662
    41 1.485300 0.000000 0.000000 0.000000 0.000000 0.994317
  time 36
    0 0.235347 0.367732 37.436212 0.000000 0.017413 -1.570874
    1 0.617206 -0.214850 0.000000 0.000000 -1.570787 -1.570795
    2 -0.000004 0.000007 3.713254 -3.292028 -0.139993 2.810042
    3 18.045721 0.000000 0.000000 0.000000 0.000000 -0.684018
    4 17.597595 0.000000 0.000000 0.148270 -0.079295 0.332254
    5 0.000004 -0.000003 -3.713254 3.237574 0.138644 2.830493
    6 18.045725 0.000000 0.000000 0.000000 0.000000 -0.618002
    7 17.597597 0.000000 0.000000 0.102598 0.100188 0.309095
    8 1.293671 0.684478 -0.000001 -0.069567 -0.005406 -0.077499
    9 5.309686 -0.003834 0.000000 -0.000024 -0.034887 0.087209
    10 4.826790 -0.004591 0.000000 -0.078192 0.006891 0.086952
    11 5.792768 -0.005304 0.000000 0.000000 0.000000 -0.244209
    12 6.662314 -0.001453 0.000000 0.000000 -0.000001 0.471000
    13 2.046984 -0.000002 0.000000 0.169574 -0.000630 -0.079184
    14 1.038628 0.548043 -0.144017 -0.000001 0.000001 -1.780132
    15 -0.064003 -0.023525 0.026161 0.000000 0.000000 0.000000
    16 3.119392 3.875254 -0.085069 -0.000001 0.000001 -1.849906
    17 -0.084188 -0.025625 -0.001098 0.000000 0.000000 0.000000
    18 4.825061 3.972485 -0.079803 -0.000001 0.000001 -1.849906
    19 -0.058556 -0.021328 0.004244 0.000000 0.000000 0.000000
    20 1.640597 -1.968779 -0.099219 -0.000001 0.000001 -1.849906
    21 0.055573 -0.028913 0.000000 0.000000 0.000000 0.000000
    22 -3.112023 1.517253 4.341910 1.070890 -1.170698 1.634252
    23 4.827231 0.000000 0.000002 0.613969 0.879473 1.169938
    24 11.139760 0.000000 0.000000 0.000000 0.000000 -0.548857
    25 10.314597 0.000000 -0.000001 -1.570000 0.000000 -0.069778
    26 1.646739 0.449549 -1.702246 0.154002 0.442277 0.277235
    27 0.928312 0.000000 -0.000001 0.000000 0.000000 0.000000
    28 0.928313 -0.000001 0.000002 0.000000 0.000000 0.000000
    29 2.975833 -0.386307 -0.044143 -0.000797 -0.043611 0.000035
    30 1.438886 -0.000001 0.000000 0.000000 0.000000 0.793701
    31 1.485302 -0.000001 0.000000 0.000000 0.000000 1.465302
    32 -2.869897 1.399662 -4.140396 -1.249816 0.959806 1.484600
    33 4.972046 0.000000 0.000000 -0.610342 -0.949444 1.323609
    34 11.585350 0.000000 0.000001 0.000000 0.000000 -1.290208
    35 10.127054 -0.000001 -0.000001 1.569752 0.000000 -0.069778
    36 1.533672 0.109715 1.664490 -0.233255 -0.412980 0.435684
    37 0.928312 0.000001 0.000000 0.000000 0.000000 0.000000
    38 0.928313 0.000000 0.000002 0.000000 0.000000 0.000000
    39 2.683747 -0.427339 0.044205 -0.007668 0.042952 -0.200744
    40 1.438886 -0.000001 0.000002 0.000000 0.000000 1.046662
    41 1.485300 0.000000 0.000000 0.000000 0.000000 0.994317
end
