// Created by Crowbar 0.44.0.0
version 1
nodes
  0 "Bip01" -1
  1 "Bip01 Pelvis" 0
  2 "Bip01 L Leg" 1
  3 "Bip01 L Leg1" 2
  4 "Bip01 L Foot" 3
  5 "Bip01 R Leg" 1
  6 "Bip01 R Leg1" 5
  7 "Bip01 R Foot" 6
  8 "Bip01 Spine" 1
  9 "Bip01 Spine1" 8
  10 "Bip01 Spine2" 9
  11 "Bip01 Spine3" 10
  12 "Bip01 Neck" 11
  13 "Bip01 Head" 12
  14 "Dummy08" 13
  15 "Bone02" 14
  16 "Dummy04" 13
  17 "Bone05" 16
  18 "Dummy03" 13
  19 "Bone07" 18
  20 "Dummy10" 13
  21 "Bone13" 20
  22 "Bip01 L Arm" 12
  23 "Bip01 L Arm1" 22
  24 "Bip01 L Arm2" 23
  25 "Bip01 L Hand" 24
  26 "Bip01 L Finger0" 25
  27 "Bip01 L Finger01" 26
  28 "Bip01 L Finger02" 27
  29 "Bip01 L Finger1" 25
  30 "Bip01 L Finger11" 29
  31 "Bip01 L Finger12" 30
  32 "Bip01 R Arm" 12
  33 "Bip01 R Arm1" 32
  34 "Bip01 R Arm2" 33
  35 "Bip01 R Hand" 34
  36 "Bip01 R Finger0" 35
  37 "Bip01 R Finger01" 36
  38 "Bip01 R Finger02" 37
  39 "Bip01 R Finger1" 35
  40 "Bip01 R Finger11" 39
  41 "Bip01 R Finger12" 40
end
skeleton
  time 0
    0 0.233849 0.368164 39.526119 0.000000 0.000000 -1.570795
    1 0.000000 0.000000 0.000000 0.000000 -1.570451 -1.570795
    2 -0.000004 0.000007 3.713254 -3.139539 0.026087 3.120120
    3 18.045721 0.000000 0.000000 0.000000 0.000000 -0.121501
    4 17.597595 0.000000 0.000000 -0.002613 0.026036 0.099967
    5 0.000004 -0.000003 -3.713254 3.139069 -0.017354 3.117144
    6 18.045725 0.000000 0.000000 0.000000 0.000000 -0.127551
    7 17.597597 0.000000 0.000000 0.002950 -0.017289 0.103055
    8 1.293671 0.684478 -0.000001 -0.000004 -0.000001 0.061735
    9 5.309686 -0.003834 0.000000 -0.258329 0.042905 0.160134
    10 4.826790 -0.004591 0.000000 0.000000 0.000000 0.183152
    11 5.792768 -0.005304 0.000000 0.000000 0.000000 0.287817
    12 6.662314 -0.001453 0.000000 0.000000 -0.000001 0.209228
    13 2.046984 -0.000002 0.000000 0.150747 -0.214838 0.104966
    14 1.038628 0.548043 -0.144017 -0.000001 0.000001 -1.849906
    15 -0.064003 -0.023525 0.026161 0.000000 0.000000 0.000000
    16 3.013920 3.984632 -0.088975 -0.000001 0.000001 -1.849906
    17 -0.084188 -0.025625 -0.001098 0.000000 0.000000 0.000000
    18 4.778185 3.972485 -0.079803 -0.000001 0.000001 -1.849906
    19 -0.058556 -0.021328 0.004244 0.000000 0.000000 0.000000
    20 1.640597 -1.968779 -0.099219 -0.000001 0.000001 -1.849906
    21 0.055573 -0.028913 0.000000 0.000000 0.000000 0.000000
    22 -3.397188 0.661759 4.341910 1.008285 -1.207587 1.954190
    23 4.827231 0.000000 0.000002 -0.377911 0.911300 -0.791713
    24 11.139760 0.000000 0.000000 0.000000 0.000000 -1.914924
    25 10.314597 0.000000 -0.000001 -1.174256 -0.598196 -0.222490
    26 1.646739 0.449549 -1.702246 0.369699 -0.012752 0.801965
    27 0.928312 0.000000 -0.000001 0.000000 0.000000 0.000000
    28 0.928313 -0.000001 0.000002 0.000000 0.000000 0.000000
    29 2.975833 -0.386307 -0.044143 0.001097 -0.043611 -0.043588
    30 1.438886 -0.000001 0.000000 0.000000 0.000000 1.334476
    31 1.485302 -0.000001 0.000000 0.000000 0.000000 0.793705
    32 -3.131623 0.610575 -4.140396 -1.213001 1.046068 1.768576
    33 4.972046 0.000000 0.000000 0.156089 -0.753329 -0.225448
    34 11.585350 0.000000 0.000001 0.000000 0.000000 -1.961934
    35 10.127054 -0.000001 -0.000001 1.667216 0.765311 -0.200791
    36 1.533672 0.109715 1.664490 -0.264755 -0.055971 0.783109
    37 0.928312 0.000001 0.000000 0.000000 0.000000 -0.453542
    38 0.928313 0.000000 0.000002 0.000000 0.000000 0.000000
    39 2.683747 -0.427339 0.044205 -0.005786 0.043239 -0.157091
    40 1.438886 -0.000001 0.000002 0.000000 0.000000 0.732659
    41 1.485300 0.000000 0.000000 0.000000 0.000000 1.168771
  time 1
    0 0.233849 0.368164 39.526119 0.000000 0.000000 -1.570795
    1 0.000000 0.000000 0.000000 0.000000 -1.570451 -1.570795
    2 -0.000004 0.000007 3.713254 -3.139539 0.026087 3.120120
    3 18.045721 0.000000 0.000000 0.000000 0.000000 -0.121501
    4 17.597595 0.000000 0.000000 -0.002613 0.026036 0.099967
    5 0.000004 -0.000003 -3.713254 3.139069 -0.017354 3.117144
    6 18.045725 0.000000 0.000000 0.000000 0.000000 -0.127551
    7 17.597597 0.000000 0.000000 0.002950 -0.017289 0.103055
    8 1.293671 0.684478 -0.000001 -0.000004 -0.000001 0.061735
    9 5.309686 -0.003834 0.000000 -0.258329 0.042905 0.160134
    10 4.826790 -0.004591 0.000000 0.000000 0.000000 0.183152
    11 5.792768 -0.005304 0.000000 0.000000 0.000000 0.289644
    12 6.662314 -0.001453 0.000000 0.000000 -0.000001 0.209228
    13 2.046984 -0.000002 0.000000 0.150747 -0.214838 0.103123
    14 1.038628 0.548043 -0.144017 -0.000001 0.000001 -1.849906
    15 -0.064003 -0.023525 0.026161 0.000000 0.000000 0.000000
    16 3.013920 3.984632 -0.088975 -0.000001 0.000001 -1.849906
    17 -0.084188 -0.025625 -0.001098 0.000000 0.000000 0.000000
    18 4.778185 3.972485 -0.079803 -0.000001 0.000001 -1.849906
    19 -0.058556 -0.021328 0.004244 0.000000 0.000000 0.000000
    20 1.640597 -1.968779 -0.099219 -0.000001 0.000001 -1.849906
    21 0.055573 -0.028913 0.000000 0.000000 0.000000 0.000000
    22 -3.397188 0.661759 4.341910 1.001765 -1.206010 1.961093
    23 4.827231 0.000000 0.000002 -0.375797 0.907641 -0.790400
    24 11.139760 0.000000 0.000000 0.000000 0.000000 -1.914924
    25 10.314597 0.000000 -0.000001 -1.174256 -0.598196 -0.222490
    26 1.646739 0.449549 -1.702246 0.369699 -0.012752 0.801965
    27 0.928312 0.000000 -0.000001 0.000000 0.000000 0.000000
    28 0.928313 -0.000001 0.000002 0.000000 0.000000 0.000000
    29 2.975833 -0.386307 -0.044143 0.001097 -0.043611 -0.043588
    30 1.438886 -0.000001 0.000000 0.000000 0.000000 1.334476
    31 1.485302 -0.000001 0.000000 0.000000 0.000000 0.793705
    32 -3.131623 0.610575 -4.140396 -1.207632 1.044938 1.774712
    33 4.972046 0.000000 0.000000 0.156940 -0.748985 -0.226371
    34 11.585350 0.000000 0.000001 0.000000 0.000000 -1.961934
    35 10.127054 -0.000001 -0.000001 1.667216 0.765311 -0.200791
    36 1.533672 0.109715 1.664490 -0.264755 -0.055971 0.783109
    37 0.928312 0.000001 0.000000 0.000000 0.000000 -0.453542
    38 0.928313 0.000000 0.000002 0.000000 0.000000 0.000000
    39 2.683747 -0.427339 0.044205 -0.005786 0.043239 -0.157091
    40 1.438886 -0.000001 0.000002 0.000000 0.000000 0.732659
    41 1.485300 0.000000 0.000000 0.000000 0.000000 1.168771
  time 2
    0 0.233849 0.368164 39.526119 0.000000 0.000000 -1.570795
    1 0.000000 0.000000 0.000000 0.000000 -1.570451 -1.570795
    2 -0.000004 0.000007 3.713254 -3.139539 0.026087 3.120120
    3 18.045721 0.000000 0.000000 0.000000 0.000000 -0.121501
    4 17.597595 0.000000 0.000000 -0.002613 0.026036 0.099967
    5 0.000004 -0.000003 -3.713254 3.139069 -0.017354 3.117144
    6 18.045725 0.000000 0.000000 0.000000 0.000000 -0.127551
    7 17.597597 0.000000 0.000000 0.002950 -0.017289 0.103055
    8 1.293671 0.684478 -0.000001 -0.000004 -0.000001 0.061735
    9 5.309686 -0.003834 0.000000 -0.258329 0.042905 0.160134
    10 4.826790 -0.004591 0.000000 0.000000 0.000000 0.183152
    11 5.792768 -0.005304 0.000000 0.000000 0.000000 0.292136
    12 6.662314 -0.001453 0.000000 0.000000 -0.000001 0.209228
    13 2.046984 -0.000002 0.000000 0.150747 -0.214838 0.100651
    14 1.038628 0.548043 -0.144017 -0.000001 0.000001 -1.849906
    15 -0.064003 -0.023525 0.026161 0.000000 0.000000 0.000000
    16 3.013920 3.984632 -0.088975 -0.000001 0.000001 -1.849906
    17 -0.084188 -0.025625 -0.001098 0.000000 0.000000 0.000000
    18 4.778185 3.972485 -0.079803 -0.000001 0.000001 -1.849906
    19 -0.058556 -0.021328 0.004244 0.000000 0.000000 0.000000
    20 1.640597 -1.968779 -0.099219 -0.000001 0.000001 -1.849906
    21 0.055573 -0.028913 0.000000 0.000000 0.000000 0.000000
    22 -3.397188 0.661759 4.341910 0.993041 -1.203855 1.970489
    23 4.827231 0.000000 0.000002 -0.373036 0.902705 -0.788738
    24 11.139760 0.000000 0.000000 0.000000 0.000000 -1.914924
    25 10.314597 0.000000 -0.000001 -1.174256 -0.598196 -0.222490
    26 1.646739 0.449549 -1.702246 0.369699 -0.012752 0.801965
    27 0.928312 0.000000 -0.000001 0.000000 0.000000 0.000000
    28 0.928313 -0.000001 0.000002 0.000000 0.000000 0.000000
    29 2.975833 -0.386307 -0.044143 0.001097 -0.043611 -0.043588
    30 1.438886 -0.000001 0.000000 0.000000 0.000000 1.334476
    31 1.485302 -0.000001 0.000000 0.000000 0.000000 0.793705
    32 -3.131623 0.610575 -4.140396 -1.200537 1.043327 1.783053
    33 4.972046 0.000000 0.000000 0.158023 -0.743033 -0.227556
    34 11.585350 0.000000 0.000001 0.000000 0.000000 -1.961934
    35 10.127054 -0.000001 -0.000001 1.667216 0.765311 -0.200791
    36 1.533672 0.109715 1.664490 -0.264755 -0.055959 0.783109
    37 0.928312 0.000001 0.000000 0.000000 0.000000 -0.453542
    38 0.928313 0.000000 0.000002 0.000000 0.000000 0.000000
    39 2.683747 -0.427339 0.044205 -0.005786 0.043239 -0.157091
    40 1.438886 -0.000001 0.000002 0.000000 0.000000 0.732659
    41 1.485300 0.000000 0.000000 0.000000 0.000000 1.168771
  time 3
    0 0.233849 0.368164 39.526119 0.000000 0.000000 -1.570795
    1 0.000000 0.000000 0.000000 0.000000 -1.570451 -1.570795
    2 -0.000004 0.000007 3.713254 -3.139539 0.026087 3.120120
    3 18.045721 0.000000 0.000000 0.000000 0.000000 -0.121501
    4 17.597595 0.000000 0.000000 -0.002613 0.026036 0.099967
    5 0.000004 -0.000003 -3.713254 3.139069 -0.017354 3.117144
    6 18.045725 0.000000 0.000000 0.000000 0.000000 -0.127551
    7 17.597597 0.000000 0.000000 0.002950 -0.017289 0.103055
    8 1.293671 0.684478 -0.000001 -0.000004 -0.000001 0.061735
    9 5.309686 -0.003834 0.000000 -0.258329 0.042905 0.160134
    10 4.826790 -0.004591 0.000000 0.000000 0.000000 0.183152
    11 5.792768 -0.005304 0.000000 0.000000 0.000000 0.295146
    12 6.662314 -0.001453 0.000000 0.000000 -0.000001 0.209228
    13 2.046984 -0.000002 0.000000 0.150747 -0.214838 0.097640
    14 1.038628 0.548043 -0.144017 -0.000001 0.000001 -1.849906
    15 -0.064003 -0.023525 0.026161 0.000000 0.000000 0.000000
    16 3.013920 3.984632 -0.088975 -0.000001 0.000001 -1.849906
    17 -0.084188 -0.025625 -0.001098 0.000000 0.000000 0.000000
    18 4.778185 3.972485 -0.079803 -0.000001 0.000001 -1.849906
    19 -0.058556 -0.021328 0.004244 0.000000 0.000000 0.000000
    20 1.640597 -1.968779 -0.099219 -0.000001 0.000001 -1.849906
    21 0.055573 -0.028913 0.000000 0.000000 0.000000 0.000000
    22 -3.397188 0.661759 4.341910 0.982591 -1.201201 1.981707
    23 4.827231 0.000000 0.000002 -0.369688 0.896663 -0.786725
    24 11.139760 0.000000 0.000000 0.000000 0.000000 -1.914924
    25 10.314597 0.000000 -0.000001 -1.174256 -0.598196 -0.222490
    26 1.646739 0.449549 -1.702246 0.369699 -0.012752 0.801965
    27 0.928312 0.000000 -0.000001 0.000000 0.000000 0.000000
    28 0.928313 -0.000001 0.000002 0.000000 0.000000 0.000000
    29 2.975833 -0.386307 -0.044143 0.001097 -0.043611 -0.043588
    30 1.438886 -0.000001 0.000000 0.000000 0.000000 1.334476
    31 1.485302 -0.000001 0.000000 0.000000 0.000000 0.793705
    32 -3.131623 0.610575 -4.140396 -1.191813 1.041320 1.793119
    33 4.972046 0.000000 0.000000 0.159415 -0.735712 -0.229005
    34 11.585350 0.000000 0.000001 0.000000 0.000000 -1.961934
    35 10.127054 -0.000001 -0.000001 1.667216 0.765311 -0.200791
    36 1.533672 0.109715 1.664490 -0.264755 -0.055959 0.783109
    37 0.928312 0.000001 0.000000 0.000000 0.000000 -0.453542
    38 0.928313 0.000000 0.000002 0.000000 0.000000 0.000000
    39 2.683747 -0.427339 0.044205 -0.005786 0.043239 -0.157091
    40 1.438886 -0.000001 0.000002 0.000000 0.000000 0.732659
    41 1.485300 0.000000 0.000000 0.000000 0.000000 1.168771
  time 4
    0 0.233849 0.368164 39.526119 0.000000 0.000000 -1.570795
    1 0.000000 0.000000 0.000000 0.000000 -1.570451 -1.570795
    2 -0.000004 0.000007 3.713254 -3.139539 0.026087 3.120120
    3 18.045721 0.000000 0.000000 0.000000 0.000000 -0.121501
    4 17.597595 0.000000 0.000000 -0.002613 0.026036 0.099967
    5 0.000004 -0.000003 -3.713254 3.139069 -0.017354 3.117144
    6 18.045725 0.000000 0.000000 0.000000 0.000000 -0.127551
    7 17.597597 0.000000 0.000000 0.002950 -0.017289 0.103055
    8 1.293671 0.684478 -0.000001 -0.000004 -0.000001 0.061735
    9 5.309686 -0.003834 0.000000 -0.258329 0.042905 0.160134
    10 4.826790 -0.004591 0.000000 0.000000 0.000000 0.183152
    11 5.792768 -0.005304 0.000000 0.000000 0.000000 0.298593
    12 6.662314 -0.001453 0.000000 0.000000 -0.000001 0.209228
    13 2.046984 -0.000002 0.000000 0.150747 -0.214838 0.094179
    14 1.038628 0.548043 -0.144017 -0.000001 0.000001 -1.849906
    15 -0.064003 -0.023525 0.026161 0.000000 0.000000 0.000000
    16 3.013920 3.984632 -0.088975 -0.000001 0.000001 -1.849906
    17 -0.084188 -0.025625 -0.001098 0.000000 0.000000 0.000000
    18 4.778185 3.972485 -0.079803 -0.000001 0.000001 -1.849906
    19 -0.058556 -0.021328 0.004244 0.000000 0.000000 0.000000
    20 1.640597 -1.968779 -0.099219 -0.000001 0.000001 -1.849906
    21 0.055573 -0.028913 0.000000 0.000000 0.000000 0.000000
    22 -3.397188 0.661759 4.341910 0.970894 -1.198124 1.994266
    23 4.827231 0.000000 0.000002 -0.365929 0.889685 -0.784449
    24 11.139760 0.000000 0.000000 0.000000 0.000000 -1.914924
    25 10.314597 0.000000 -0.000001 -1.174256 -0.598196 -0.222490
    26 1.646739 0.449549 -1.702246 0.369699 -0.012752 0.801965
    27 0.928312 0.000000 -0.000001 0.000000 0.000000 0.000000
    28 0.928313 -0.000001 0.000002 0.000000 0.000000 0.000000
    29 2.975833 -0.386307 -0.044143 0.001097 -0.043611 -0.043588
    30 1.438886 -0.000001 0.000000 0.000000 0.000000 1.334476
    31 1.485302 -0.000001 0.000000 0.000000 0.000000 0.793705
    32 -3.131623 0.610575 -4.140396 -1.182034 1.039002 1.804432
    33 4.972046 0.000000 0.000000 0.160885 -0.727427 -0.230652
    34 11.585350 0.000000 0.000001 0.000000 0.000000 -1.961934
    35 10.127054 -0.000001 -0.000001 1.667216 0.765311 -0.200791
    36 1.533672 0.109715 1.664490 -0.264755 -0.055971 0.783109
    37 0.928312 0.000001 0.000000 0.000000 0.000000 -0.453542
    38 0.928313 0.000000 0.000002 0.000000 0.000000 0.000000
    39 2.683747 -0.427339 0.044205 -0.005786 0.043239 -0.157091
    40 1.438886 -0.000001 0.000002 0.000000 0.000000 0.732659
    41 1.485300 0.000000 0.000000 0.000000 0.000000 1.168771
  time 5
    0 0.233849 0.368164 39.526119 0.000000 0.000000 -1.570795
    1 0.000000 0.000000 0.000000 0.000000 -1.570451 -1.570795
    2 -0.000004 0.000007 3.713254 -3.139539 0.026087 3.120120
    3 18.045721 0.000000 0.000000 0.000000 0.000000 -0.121501
    4 17.597595 0.000000 0.000000 -0.002613 0.026036 0.099967
    5 0.000004 -0.000003 -3.713254 3.139069 -0.017354 3.117144
    6 18.045725 0.000000 0.000000 0.000000 0.000000 -0.127551
    7 17.597597 0.000000 0.000000 0.002950 -0.017289 0.103055
    8 1.293671 0.684478 -0.000001 -0.000004 -0.000001 0.061735
    9 5.309686 -0.003834 0.000000 -0.258329 0.042905 0.160134
    10 4.826790 -0.004591 0.000000 0.000000 0.000000 0.183152
    11 5.792768 -0.005304 0.000000 0.000000 0.000000 0.302351
    12 6.662314 -0.001453 0.000000 0.000000 -0.000001 0.209228
    13 2.046984 -0.000002 0.000000 0.150747 -0.214838 0.090403
    14 1.038628 0.548043 -0.144017 -0.000001 0.000001 -1.849906
    15 -0.064003 -0.023525 0.026161 0.000000 0.000000 0.000000
    16 3.013920 3.984632 -0.088975 -0.000001 0.000001 -1.849906
    17 -0.084188 -0.025625 -0.001098 0.000000 0.000000 0.000000
    18 4.778185 3.972485 -0.079803 -0.000001 0.000001 -1.849906
    19 -0.058556 -0.021328 0.004244 0.000000 0.000000 0.000000
    20 1.640597 -1.968779 -0.099219 -0.000001 0.000001 -1.849906
    21 0.055573 -0.028913 0.000000 0.000000 0.000000 0.000000
    22 -3.397188 0.661759 4.341910 0.958239 -1.194701 2.007785
    23 4.827231 0.000000 0.000002 -0.361876 0.882196 -0.782087
    24 11.139760 0.000000 0.000000 0.000000 0.000000 -1.914924
    25 10.314597 0.000000 -0.000001 -1.174256 -0.598196 -0.222490
    26 1.646739 0.449549 -1.702246 0.369699 -0.012752 0.801965
    27 0.928312 0.000000 -0.000001 0.000000 0.000000 0.000000
    28 0.928313 -0.000001 0.000002 0.000000 0.000000 0.000000
    29 2.975833 -0.386307 -0.044143 0.001097 -0.043611 -0.043588
    30 1.438886 -0.000001 0.000000 0.000000 0.000000 1.334476
    31 1.485302 -0.000001 0.000000 0.000000 0.000000 0.793705
    32 -3.131623 0.610575 -4.140396 -1.171392 1.036402 1.816800
    33 4.972046 0.000000 0.000000 0.162509 -0.718337 -0.232497
    34 11.585350 0.000000 0.000001 0.000000 0.000000 -1.961934
    35 10.127054 -0.000001 -0.000001 1.667216 0.765311 -0.200791
    36 1.533672 0.109715 1.664490 -0.264755 -0.055971 0.783109
    37 0.928312 0.000001 0.000000 0.000000 0.000000 -0.453542
    38 0.928313 0.000000 0.000002 0.000000 0.000000 0.000000
    39 2.683747 -0.427339 0.044205 -0.005786 0.043239 -0.157091
    40 1.438886 -0.000001 0.000002 0.000000 0.000000 0.732659
    41 1.485300 0.000000 0.000000 0.000000 0.000000 1.168771
  time 6
    0 0.233849 0.368164 39.526119 0.000000 0.000000 -1.570795
    1 0.000000 0.000000 0.000000 0.000000 -1.570451 -1.570795
    2 -0.000004 0.000007 3.713254 -3.139539 0.026087 3.120120
    3 18.045721 0.000000 0.000000 0.000000 0.000000 -0.121501
    4 17.597595 0.000000 0.000000 -0.002613 0.026036 0.099967
    5 0.000004 -0.000003 -3.713254 3.139069 -0.017354 3.117144
    6 18.045725 0.000000 0.000000 0.000000 0.000000 -0.127551
    7 17.597597 0.000000 0.000000 0.002950 -0.017289 0.103055
    8 1.293671 0.684478 -0.000001 -0.000004 -0.000001 0.061735
    9 5.309686 -0.003834 0.000000 -0.258329 0.042905 0.160134
    10 4.826790 -0.004591 0.000000 0.000000 0.000000 0.183152
    11 5.792768 -0.005304 0.000000 0.000000 0.000000 0.306317
    12 6.662314 -0.001453 0.000000 0.000000 -0.000001 0.209228
    13 2.046984 -0.000002 0.000000 0.150747 -0.214838 0.086448
    14 1.038628 0.548043 -0.144017 -0.000001 0.000001 -1.849906
    15 -0.064003 -0.023525 0.026161 0.000000 0.000000 0.000000
    16 3.013920 3.984632 -0.088975 -0.000001 0.000001 -1.849906
    17 -0.084188 -0.025625 -0.001098 0.000000 0.000000 0.000000
    18 4.778185 3.972485 -0.079803 -0.000001 0.000001 -1.849906
    19 -0.058556 -0.021328 0.004244 0.000000 0.000000 0.000000
    20 1.640597 -1.968779 -0.099219 -0.000001 0.000001 -1.849906
    21 0.055573 -0.028913 0.000000 0.000000 0.000000 0.000000
    22 -3.397188 0.661759 4.341910 0.945296 -1.191008 2.021783
    23 4.827231 0.000000 0.000002 -0.357647 0.874281 -0.779724
    24 11.139760 0.000000 0.000000 0.000000 0.000000 -1.914924
    25 10.314597 0.000000 -0.000001 -1.174256 -0.598196 -0.222490
    26 1.646739 0.449549 -1.702246 0.369699 -0.012752 0.801965
    27 0.928312 0.000000 -0.000001 0.000000 0.000000 0.000000
    28 0.928313 -0.000001 0.000002 0.000000 0.000000 0.000000
    29 2.975833 -0.386307 -0.044143 0.001097 -0.043611 -0.043588
    30 1.438886 -0.000001 0.000000 0.000000 0.000000 1.334476
    31 1.485302 -0.000001 0.000000 0.000000 0.000000 0.793705
    32 -3.131623 0.610575 -4.140396 -1.160367 1.033604 1.829551
    33 4.972046 0.000000 0.000000 0.164134 -0.708845 -0.234341
    34 11.585350 0.000000 0.000001 0.000000 0.000000 -1.961934
    35 10.127054 -0.000001 -0.000001 1.667216 0.765311 -0.200791
    36 1.533672 0.109715 1.664490 -0.264755 -0.055971 0.783109
    37 0.928312 0.000001 0.000000 0.000000 0.000000 -0.453542
    38 0.928313 0.000000 0.000002 0.000000 0.000000 0.000000
    39 2.683747 -0.427339 0.044205 -0.005786 0.043239 -0.157091
    40 1.438886 -0.000001 0.000002 0.000000 0.000000 0.732659
    41 1.485300 0.000000 0.000000 0.000000 0.000000 1.168771
  time 7
    0 0.233849 0.368164 39.526119 0.000000 0.000000 -1.570795
    1 0.000000 0.000000 0.000000 0.000000 -1.570451 -1.570795
    2 -0.000004 0.000007 3.713254 -3.139539 0.026087 3.120120
    3 18.045721 0.000000 0.000000 0.000000 0.000000 -0.121501
    4 17.597595 0.000000 0.000000 -0.002613 0.026036 0.099967
    5 0.000004 -0.000003 -3.713254 3.139069 -0.017354 3.117144
    6 18.045725 0.000000 0.000000 0.000000 0.000000 -0.127551
    7 17.597597 0.000000 0.000000 0.002950 -0.017289 0.103055
    8 1.293671 0.684478 -0.000001 -0.000004 -0.000001 0.061735
    9 5.309686 -0.003834 0.000000 -0.258329 0.042905 0.160134
    10 4.826790 -0.004591 0.000000 0.000000 0.000000 0.183152
    11 5.792768 -0.005304 0.000000 0.000000 0.000000 0.310345
    12 6.662314 -0.001453 0.000000 0.000000 -0.000001 0.209228
    13 2.046984 -0.000002 0.000000 0.150747 -0.214838 0.082447
    14 1.038628 0.548043 -0.144017 -0.000001 0.000001 -1.849906
    15 -0.064003 -0.023525 0.026161 0.000000 0.000000 0.000000
    16 3.013920 3.984632 -0.088975 -0.000001 0.000001 -1.849906
    17 -0.084188 -0.025625 -0.001098 0.000000 0.000000 0.000000
    18 4.778185 3.972485 -0.079803 -0.000001 0.000001 -1.849906
    19 -0.058556 -0.021328 0.004244 0.000000 0.000000 0.000000
    20 1.640597 -1.968779 -0.099219 -0.000001 0.000001 -1.849906
    21 0.055573 -0.028913 0.000000 0.000000 0.000000 0.000000
    22 -3.397188 0.661759 4.341910 0.932353 -1.187200 2.035781
    23 4.827231 0.000000 0.000002 -0.353477 0.866197 -0.777361
    24 11.139760 0.000000 0.000000 0.000000 0.000000 -1.914924
    25 10.314597 0.000000 -0.000001 -1.174256 -0.598196 -0.222490
    26 1.646739 0.449549 -1.702246 0.369699 -0.012752 0.801965
    27 0.928312 0.000000 -0.000001 0.000000 0.000000 0.000000
    28 0.928313 -0.000001 0.000002 0.000000 0.000000 0.000000
    29 2.975833 -0.386307 -0.044143 0.001097 -0.043611 -0.043588
    30 1.438886 -0.000001 0.000000 0.000000 0.000000 1.334476
    31 1.485302 -0.000001 0.000000 0.000000 0.000000 0.793705
    32 -3.131623 0.610575 -4.140396 -1.149341 1.030665 1.842494
    33 4.972046 0.000000 0.000000 0.165758 -0.699112 -0.236186
    34 11.585350 0.000000 0.000001 0.000000 0.000000 -1.961934
    35 10.127054 -0.000001 -0.000001 1.667216 0.765311 -0.200791
    36 1.533672 0.109715 1.664490 -0.264755 -0.055971 0.783109
    37 0.928312 0.000001 0.000000 0.000000 0.000000 -0.453542
    38 0.928313 0.000000 0.000002 0.000000 0.000000 0.000000
    39 2.683747 -0.427339 0.044205 -0.005786 0.043239 -0.157091
    40 1.438886 -0.000001 0.000002 0.000000 0.000000 0.732659
    41 1.485300 0.000000 0.000000 0.000000 0.000000 1.168771
  time 8
    0 0.233849 0.368164 39.526119 0.000000 0.000000 -1.570795
    1 0.000000 0.000000 0.000000 0.000000 -1.570451 -1.570795
    2 -0.000004 0.000007 3.713254 -3.139539 0.026087 3.120120
    3 18.045721 0.000000 0.000000 0.000000 0.000000 -0.121501
    4 17.597595 0.000000 0.000000 -0.002613 0.026036 0.099967
    5 0.000004 -0.000003 -3.713254 3.139069 -0.017354 3.117144
    6 18.045725 0.000000 0.000000 0.000000 0.000000 -0.127551
    7 17.597597 0.000000 0.000000 0.002950 -0.017289 0.103055
    8 1.293671 0.684478 -0.000001 -0.000004 -0.000001 0.061735
    9 5.309686 -0.003834 0.000000 -0.258329 0.042905 0.160134
    10 4.826790 -0.004591 0.000000 0.000000 0.000000 0.183152
    11 5.792768 -0.005304 0.000000 0.000000 0.000000 0.314331
    12 6.662314 -0.001453 0.000000 0.000000 -0.000001 0.209228
    13 2.046984 -0.000002 0.000000 0.150747 -0.214838 0.078447
    14 1.038628 0.548043 -0.144017 -0.000001 0.000001 -1.849906
    15 -0.064003 -0.023525 0.026161 0.000000 0.000000 0.000000
    16 3.013920 3.984632 -0.088975 -0.000001 0.000001 -1.849906
    17 -0.084188 -0.025625 -0.001098 0.000000 0.000000 0.000000
    18 4.778185 3.972485 -0.079803 -0.000001 0.000001 -1.849906
    19 -0.058556 -0.021328 0.004244 0.000000 0.000000 0.000000
    20 1.640597 -1.968779 -0.099219 -0.000001 0.000001 -1.849906
    21 0.055573 -0.028913 0.000000 0.000000 0.000000 0.000000
    22 -3.397188 0.661759 4.341910 0.919794 -1.183353 2.049299
    23 4.827231 0.000000 0.000002 -0.349366 0.858197 -0.775173
    24 11.139760 0.000000 0.000000 0.000000 0.000000 -1.914924
    25 10.314597 0.000000 -0.000001 -1.174256 -0.598196 -0.222490
    26 1.646739 0.449549 -1.702246 0.369699 -0.012752 0.801965
    27 0.928312 0.000000 -0.000001 0.000000 0.000000 0.000000
    28 0.928313 -0.000001 0.000002 0.000000 0.000000 0.000000
    29 2.975833 -0.386307 -0.044143 0.001097 -0.043611 -0.043588
    30 1.438886 -0.000001 0.000000 0.000000 0.000000 1.334476
    31 1.485302 -0.000001 0.000000 0.000000 0.000000 0.793705
    32 -3.131623 0.610575 -4.140396 -1.138412 1.027697 1.855245
    33 4.972046 0.000000 0.000000 0.167305 -0.689539 -0.238030
    34 11.585350 0.000000 0.000001 0.000000 0.000000 -1.961934
    35 10.127054 -0.000001 -0.000001 1.667216 0.765311 -0.200791
    36 1.533672 0.109715 1.664490 -0.264755 -0.055971 0.783109
    37 0.928312 0.000001 0.000000 0.000000 0.000000 -0.453542
    38 0.928313 0.000000 0.000002 0.000000 0.000000 0.000000
    39 2.683747 -0.427339 0.044205 -0.005786 0.043239 -0.157091
    40 1.438886 -0.000001 0.000002 0.000000 0.000000 0.732659
    41 1.485300 0.000000 0.000000 0.000000 0.000000 1.168771
  time 9
    0 0.233849 0.368164 39.526119 0.000000 0.000000 -1.570795
    1 0.000000 0.000000 0.000000 0.000000 -1.570451 -1.570795
    2 -0.000004 0.000007 3.713254 -3.139539 0.026087 3.120120
    3 18.045721 0.000000 0.000000 0.000000 0.000000 -0.121501
    4 17.597595 0.000000 0.000000 -0.002613 0.026036 0.099967
    5 0.000004 -0.000003 -3.713254 3.139069 -0.017354 3.117144
    6 18.045725 0.000000 0.000000 0.000000 0.000000 -0.127551
    7 17.597597 0.000000 0.000000 0.002950 -0.017289 0.103055
    8 1.293671 0.684478 -0.000001 -0.000004 -0.000001 0.061735
    9 5.309686 -0.003834 0.000000 -0.258329 0.042905 0.160134
    10 4.826790 -0.004591 0.000000 0.000000 0.000000 0.183152
    11 5.792768 -0.005304 0.000000 0.000000 0.000000 0.318172
    12 6.662314 -0.001453 0.000000 0.000000 -0.000001 0.209228
    13 2.046984 -0.000002 0.000000 0.150747 -0.214838 0.074582
    14 1.038628 0.548043 -0.144017 -0.000001 0.000001 -1.849906
    15 -0.064003 -0.023525 0.026161 0.000000 0.000000 0.000000
    16 3.013920 3.984632 -0.088975 -0.000001 0.000001 -1.849906
    17 -0.084188 -0.025625 -0.001098 0.000000 0.000000 0.000000
    18 4.778185 3.972485 -0.079803 -0.000001 0.000001 -1.849906
    19 -0.058556 -0.021328 0.004244 0.000000 0.000000 0.000000
    20 1.640597 -1.968779 -0.099219 -0.000001 0.000001 -1.849906
    21 0.055573 -0.028913 0.000000 0.000000 0.000000 0.000000
    22 -3.397188 0.661759 4.341910 0.907906 -1.179622 2.062147
    23 4.827231 0.000000 0.000002 -0.345430 0.850453 -0.773073
    24 11.139760 0.000000 0.000000 0.000000 0.000000 -1.914924
    25 10.314597 0.000000 -0.000001 -1.174256 -0.598196 -0.222490
    26 1.646739 0.449549 -1.702246 0.369699 -0.012752 0.801965
    27 0.928312 0.000000 -0.000001 0.000000 0.000000 0.000000
    28 0.928313 -0.000001 0.000002 0.000000 0.000000 0.000000
    29 2.975833 -0.386307 -0.044143 0.001097 -0.043611 -0.043588
    30 1.438886 -0.000001 0.000000 0.000000 0.000000 1.334476
    31 1.485302 -0.000001 0.000000 0.000000 0.000000 0.793705
    32 -3.131623 0.610575 -4.140396 -1.128057 1.024757 1.867229
    33 4.972046 0.000000 0.000000 0.168775 -0.680289 -0.239809
    34 11.585350 0.000000 0.000001 0.000000 0.000000 -1.961934
    35 10.127054 -0.000001 -0.000001 1.667216 0.765311 -0.200791
    36 1.533672 0.109715 1.664490 -0.264755 -0.055971 0.783109
    37 0.928312 0.000001 0.000000 0.000000 0.000000 -0.453542
    38 0.928313 0.000000 0.000002 0.000000 0.000000 0.000000
    39 2.683747 -0.427339 0.044205 -0.005786 0.043239 -0.157091
    40 1.438886 -0.000001 0.000002 0.000000 0.000000 0.732659
    41 1.485300 0.000000 0.000000 0.000000 0.000000 1.168771
  time 10
    0 0.233849 0.368164 39.526119 0.000000 0.000000 -1.570795
    1 0.000000 0.000000 0.000000 0.000000 -1.570451 -1.570795
    2 -0.000004 0.000007 3.713254 -3.139539 0.026087 3.120120
    3 18.045721 0.000000 0.000000 0.000000 0.000000 -0.121501
    4 17.597595 0.000000 0.000000 -0.002613 0.026036 0.099967
    5 0.000004 -0.000003 -3.713254 3.139069 -0.017354 3.117144
    6 18.045725 0.000000 0.000000 0.000000 0.000000 -0.127551
    7 17.597597 0.000000 0.000000 0.002950 -0.017289 0.103055
    8 1.293671 0.684478 -0.000001 -0.000004 -0.000001 0.061735
    9 5.309686 -0.003834 0.000000 -0.258329 0.042905 0.160134
    10 4.826790 -0.004591 0.000000 0.000000 0.000000 0.183152
    11 5.792768 -0.005304 0.000000 0.000000 0.000000 0.321743
    12 6.662314 -0.001453 0.000000 0.000000 -0.000001 0.209228
    13 2.046984 -0.000002 0.000000 0.150747 -0.214838 0.071031
    14 1.038628 0.548043 -0.144017 -0.000001 0.000001 -1.849906
    15 -0.064003 -0.023525 0.026161 0.000000 0.000000 0.000000
    16 3.013920 3.984632 -0.088975 -0.000001 0.000001 -1.849906
    17 -0.084188 -0.025625 -0.001098 0.000000 0.000000 0.000000
    18 4.778185 3.972485 -0.079803 -0.000001 0.000001 -1.849906
    19 -0.058556 -0.021328 0.004244 0.000000 0.000000 0.000000
    20 1.640597 -1.968779 -0.099219 -0.000001 0.000001 -1.849906
    21 0.055573 -0.028913 0.000000 0.000000 0.000000 0.000000
    22 -3.397188 0.661759 4.341910 0.897072 -1.176083 2.073843
    23 4.827231 0.000000 0.000002 -0.341847 0.843305 -0.771235
    24 11.139760 0.000000 0.000000 0.000000 0.000000 -1.914924
    25 10.314597 0.000000 -0.000001 -1.174256 -0.598196 -0.222490
    26 1.646739 0.449549 -1.702246 0.369699 -0.012752 0.801965
    27 0.928312 0.000000 -0.000001 0.000000 0.000000 0.000000
    28 0.928313 -0.000001 0.000002 0.000000 0.000000 0.000000
    29 2.975833 -0.386307 -0.044143 0.001097 -0.043611 -0.043588
    30 1.438886 -0.000001 0.000000 0.000000 0.000000 1.334476
    31 1.485302 -0.000001 0.000000 0.000000 0.000000 0.793705
    32 -3.131623 0.610575 -4.140396 -1.118566 1.021987 1.878351
    33 4.972046 0.000000 0.000000 0.170090 -0.671681 -0.241455
    34 11.585350 0.000000 0.000001 0.000000 0.000000 -1.961934
    35 10.127054 -0.000001 -0.000001 1.667216 0.765311 -0.200791
    36 1.533672 0.109715 1.664490 -0.264755 -0.055971 0.783109
    37 0.928312 0.000001 0.000000 0.000000 0.000000 -0.453542
    38 0.928313 0.000000 0.000002 0.000000 0.000000 0.000000
    39 2.683747 -0.427339 0.044205 -0.005786 0.043239 -0.157091
    40 1.438886 -0.000001 0.000002 0.000000 0.000000 0.732659
    41 1.485300 0.000000 0.000000 0.000000 0.000000 1.168771
  time 11
    0 0.233849 0.368164 39.526119 0.000000 0.000000 -1.570795
    1 0.000000 0.000000 0.000000 0.000000 -1.570451 -1.570795
    2 -0.000004 0.000007 3.713254 -3.139539 0.026087 3.120120
    3 18.045721 0.000000 0.000000 0.000000 0.000000 -0.121501
    4 17.597595 0.000000 0.000000 -0.002613 0.026036 0.099967
    5 0.000004 -0.000003 -3.713254 3.139069 -0.017354 3.117144
    6 18.045725 0.000000 0.000000 0.000000 0.000000 -0.127551
    7 17.597597 0.000000 0.000000 0.002950 -0.017289 0.103055
    8 1.293671 0.684478 -0.000001 -0.000004 -0.000001 0.061735
    9 5.309686 -0.003834 0.000000 -0.258329 0.042905 0.160134
    10 4.826790 -0.004591 0.000000 0.000000 0.000000 0.183152
    11 5.792768 -0.005304 0.000000 0.000000 0.000000 0.324920
    12 6.662314 -0.001453 0.000000 0.000000 -0.000001 0.209228
    13 2.046984 -0.000002 0.000000 0.150747 -0.214838 0.067839
    14 1.038628 0.548043 -0.144017 -0.000001 0.000001 -1.849906
    15 -0.064003 -0.023525 0.026161 0.000000 0.000000 0.000000
    16 3.013920 3.984632 -0.088975 -0.000001 0.000001 -1.849906
    17 -0.084188 -0.025625 -0.001098 0.000000 0.000000 0.000000
    18 4.778185 3.972485 -0.079803 -0.000001 0.000001 -1.849906
    19 -0.058556 -0.021328 0.004244 0.000000 0.000000 0.000000
    20 1.640597 -1.968779 -0.099219 -0.000001 0.000001 -1.849906
    21 0.055573 -0.028913 0.000000 0.000000 0.000000 0.000000
    22 -3.397188 0.661759 4.341910 0.887676 -1.172890 2.084102
    23 4.827231 0.000000 0.000002 -0.338734 0.836922 -0.769660
    24 11.139760 0.000000 0.000000 0.000000 0.000000 -1.914924
    25 10.314597 0.000000 -0.000001 -1.174256 -0.598196 -0.222490
    26 1.646739 0.449549 -1.702246 0.369699 -0.012752 0.801965
    27 0.928312 0.000000 -0.000001 0.000000 0.000000 0.000000
    28 0.928313 -0.000001 0.000002 0.000000 0.000000 0.000000
    29 2.975833 -0.386307 -0.044143 0.001097 -0.043611 -0.043588
    30 1.438886 -0.000001 0.000000 0.000000 0.000000 1.334476
    31 1.485302 -0.000001 0.000000 0.000000 0.000000 0.793705
    32 -3.131623 0.610575 -4.140396 -1.110225 1.019472 1.888226
    33 4.972046 0.000000 0.000000 0.171173 -0.664040 -0.242905
    34 11.585350 0.000000 0.000001 0.000000 0.000000 -1.961934
    35 10.127054 -0.000001 -0.000001 1.667216 0.765311 -0.200791
    36 1.533672 0.109715 1.664490 -0.264755 -0.055971 0.783109
    37 0.928312 0.000001 0.000000 0.000000 0.000000 -0.453542
    38 0.928313 0.000000 0.000002 0.000000 0.000000 0.000000
    39 2.683747 -0.427339 0.044205 -0.005786 0.043239 -0.157091
    40 1.438886 -0.000001 0.000002 0.000000 0.000000 0.732659
    41 1.485300 0.000000 0.000000 0.000000 0.000000 1.168771
  time 12
    0 0.233849 0.368164 39.526119 0.000000 0.000000 -1.570795
    1 0.000000 0.000000 0.000000 0.000000 -1.570451 -1.570795
    2 -0.000004 0.000007 3.713254 -3.139539 0.026087 3.120120
    3 18.045721 0.000000 0.000000 0.000000 0.000000 -0.121501
    4 17.597595 0.000000 0.000000 -0.002613 0.026036 0.099967
    5 0.000004 -0.000003 -3.713254 3.139069 -0.017354 3.117144
    6 18.045725 0.000000 0.000000 0.000000 0.000000 -0.127551
    7 17.597597 0.000000 0.000000 0.002950 -0.017289 0.103055
    8 1.293671 0.684478 -0.000001 -0.000004 -0.000001 0.061735
    9 5.309686 -0.003834 0.000000 -0.258329 0.042905 0.160134
    10 4.826790 -0.004591 0.000000 0.000000 0.000000 0.183152
    11 5.792768 -0.005304 0.000000 0.000000 0.000000 0.327598
    12 6.662314 -0.001453 0.000000 0.000000 -0.000001 0.209228
    13 2.046984 -0.000002 0.000000 0.150747 -0.214838 0.065187
    14 1.038628 0.548043 -0.144017 -0.000001 0.000001 -1.849906
    15 -0.064003 -0.023525 0.026161 0.000000 0.000000 0.000000
    16 3.013920 3.984632 -0.088975 -0.000001 0.000001 -1.849906
    17 -0.084188 -0.025625 -0.001098 0.000000 0.000000 0.000000
    18 4.778185 3.972485 -0.079803 -0.000001 0.000001 -1.849906
    19 -0.058556 -0.021328 0.004244 0.000000 0.000000 0.000000
    20 1.640597 -1.968779 -0.099219 -0.000001 0.000001 -1.849906
    21 0.055573 -0.028913 0.000000 0.000000 0.000000 0.000000
    22 -3.397188 0.661759 4.341910 0.879815 -1.170159 2.092635
    23 4.827231 0.000000 0.000002 -0.336091 0.831561 -0.768435
    24 11.139760 0.000000 0.000000 0.000000 0.000000 -1.914924
    25 10.314597 0.000000 -0.000001 -1.174256 -0.598196 -0.222490
    26 1.646739 0.449549 -1.702246 0.369699 -0.012752 0.801965
    27 0.928312 0.000000 -0.000001 0.000000 0.000000 0.000000
    28 0.928313 -0.000001 0.000002 0.000000 0.000000 0.000000
    29 2.975833 -0.386307 -0.044143 0.001097 -0.043611 -0.043588
    30 1.438886 -0.000001 0.000000 0.000000 0.000000 1.334476
    31 1.485302 -0.000001 0.000000 0.000000 0.000000 0.793705
    32 -3.131623 0.610575 -4.140396 -1.103226 1.017324 1.896471
    33 4.972046 0.000000 0.000000 0.172179 -0.657604 -0.244090
    34 11.585350 0.000000 0.000001 0.000000 0.000000 -1.961934
    35 10.127054 -0.000001 -0.000001 1.667216 0.765311 -0.200791
    36 1.533672 0.109715 1.664490 -0.264755 -0.055971 0.783109
    37 0.928312 0.000001 0.000000 0.000000 0.000000 -0.453542
    38 0.928313 0.000000 0.000002 0.000000 0.000000 0.000000
    39 2.683747 -0.427339 0.044205 -0.005786 0.043239 -0.157091
    40 1.438886 -0.000001 0.000002 0.000000 0.000000 0.732659
    41 1.485300 0.000000 0.000000 0.000000 0.000000 1.168771
  time 13
    0 0.233849 0.368164 39.526119 0.000000 0.000000 -1.570795
    1 0.000000 0.000000 0.000000 0.000000 -1.570451 -1.570795
    2 -0.000004 0.000007 3.713254 -3.139539 0.026087 3.120120
    3 18.045721 0.000000 0.000000 0.000000 0.000000 -0.121501
    4 17.597595 0.000000 0.000000 -0.002613 0.026036 0.099967
    5 0.000004 -0.000003 -3.713254 3.139069 -0.017354 3.117144
    6 18.045725 0.000000 0.000000 0.000000 0.000000 -0.127551
    7 17.597597 0.000000 0.000000 0.002950 -0.017289 0.103055
    8 1.293671 0.684478 -0.000001 -0.000004 -0.000001 0.061735
    9 5.309686 -0.003834 0.000000 -0.258329 0.042905 0.160134
    10 4.826790 -0.004591 0.000000 0.000000 0.000000 0.183152
    11 5.792768 -0.005304 0.000000 0.000000 0.000000 0.329654
    12 6.662314 -0.001453 0.000000 0.000000 -0.000001 0.209228
    13 2.046984 -0.000002 0.000000 0.150747 -0.214838 0.063120
    14 1.038628 0.548043 -0.144017 -0.000001 0.000001 -1.849906
    15 -0.064003 -0.023525 0.026161 0.000000 0.000000 0.000000
    16 3.013920 3.984632 -0.088975 -0.000001 0.000001 -1.849906
    17 -0.084188 -0.025625 -0.001098 0.000000 0.000000 0.000000
    18 4.778185 3.972485 -0.079803 -0.000001 0.000001 -1.849906
    19 -0.058556 -0.021328 0.004244 0.000000 0.000000 0.000000
    20 1.640597 -1.968779 -0.099219 -0.000001 0.000001 -1.849906
    21 0.055573 -0.028913 0.000000 0.000000 0.000000 0.000000
    22 -3.397188 0.661759 4.341910 0.873871 -1.168082 2.099059
    23 4.827231 0.000000 0.000002 -0.334094 0.827476 -0.767472
    24 11.139760 0.000000 0.000000 0.000000 0.000000 -1.914924
    25 10.314597 0.000000 -0.000001 -1.174256 -0.598196 -0.222490
    26 1.646739 0.449549 -1.702246 0.369699 -0.012752 0.801965
    27 0.928312 0.000000 -0.000001 0.000000 0.000000 0.000000
    28 0.928313 -0.000001 0.000002 0.000000 0.000000 0.000000
    29 2.975833 -0.386307 -0.044143 0.001097 -0.043611 -0.043588
    30 1.438886 -0.000001 0.000000 0.000000 0.000000 1.334476
    31 1.485302 -0.000001 0.000000 0.000000 0.000000 0.793705
    32 -3.131623 0.610575 -4.140396 -1.097953 1.015628 1.902702
    33 4.972046 0.000000 0.000000 0.172875 -0.652697 -0.245012
    34 11.585350 0.000000 0.000001 0.000000 0.000000 -1.961934
    35 10.127054 -0.000001 -0.000001 1.667216 0.765311 -0.200791
    36 1.533672 0.109715 1.664490 -0.264755 -0.055971 0.783109
    37 0.928312 0.000001 0.000000 0.000000 0.000000 -0.453542
    38 0.928313 0.000000 0.000002 0.000000 0.000000 0.000000
    39 2.683747 -0.427339 0.044205 -0.005786 0.043239 -0.157091
    40 1.438886 -0.000001 0.000002 0.000000 0.000000 0.732659
    41 1.485300 0.000000 0.000000 0.000000 0.000000 1.168771
  time 14
    0 0.233849 0.368164 39.526119 0.000000 0.000000 -1.570795
    1 0.000000 0.000000 0.000000 0.000000 -1.570451 -1.570795
    2 -0.000004 0.000007 3.713254 -3.139539 0.026087 3.120120
    3 18.045721 0.000000 0.000000 0.000000 0.000000 -0.121501
    4 17.597595 0.000000 0.000000 -0.002613 0.026036 0.099967
    5 0.000004 -0.000003 -3.713254 3.139069 -0.017354 3.117144
    6 18.045725 0.000000 0.000000 0.000000 0.000000 -0.127551
    7 17.597597 0.000000 0.000000 0.002950 -0.017289 0.103055
    8 1.293671 0.684478 -0.000001 -0.000004 -0.000001 0.061735
    9 5.309686 -0.003834 0.000000 -0.258329 0.042905 0.160134
    10 4.826790 -0.004591 0.000000 0.000000 0.000000 0.183152
    11 5.792768 -0.005304 0.000000 0.000000 0.000000 0.330962
    12 6.662314 -0.001453 0.000000 0.000000 -0.000001 0.209228
    13 2.046984 -0.000002 0.000000 0.150747 -0.214838 0.061816
    14 1.038628 0.548043 -0.144017 -0.000001 0.000001 -1.849906
    15 -0.064003 -0.023525 0.026161 0.000000 0.000000 0.000000
    16 3.013920 3.984632 -0.088975 -0.000001 0.000001 -1.849906
    17 -0.084188 -0.025625 -0.001098 0.000000 0.000000 0.000000
    18 4.778185 3.972485 -0.079803 -0.000001 0.000001 -1.849906
    19 -0.058556 -0.021328 0.004244 0.000000 0.000000 0.000000
    20 1.640597 -1.968779 -0.099219 -0.000001 0.000001 -1.849906
    21 0.055573 -0.028913 0.000000 0.000000 0.000000 0.000000
    22 -3.397188 0.661759 4.341910 0.870036 -1.166697 2.103182
    23 4.827231 0.000000 0.000002 -0.332802 0.824838 -0.766860
    24 11.139760 0.000000 0.000000 0.000000 0.000000 -1.914924
    25 10.314597 0.000000 -0.000001 -1.174256 -0.598196 -0.222490
    26 1.646739 0.449549 -1.702246 0.369699 -0.012752 0.801965
    27 0.928312 0.000000 -0.000001 0.000000 0.000000 0.000000
    28 0.928313 -0.000001 0.000002 0.000000 0.000000 0.000000
    29 2.975833 -0.386307 -0.044143 0.001097 -0.043611 -0.043588
    30 1.438886 -0.000001 0.000000 0.000000 0.000000 1.334476
    31 1.485302 -0.000001 0.000000 0.000000 0.000000 0.793705
    32 -3.131623 0.610575 -4.140396 -1.094502 1.014554 1.906729
    33 4.972046 0.000000 0.000000 0.173339 -0.649480 -0.245605
    34 11.585350 0.000000 0.000001 0.000000 0.000000 -1.961934
    35 10.127054 -0.000001 -0.000001 1.667216 0.765311 -0.200791
    36 1.533672 0.109715 1.664490 -0.264755 -0.055971 0.783109
    37 0.928312 0.000001 0.000000 0.000000 0.000000 -0.453542
    38 0.928313 0.000000 0.000002 0.000000 0.000000 0.000000
    39 2.683747 -0.427339 0.044205 -0.005786 0.043239 -0.157091
    40 1.438886 -0.000001 0.000002 0.000000 0.000000 0.732659
    41 1.485300 0.000000 0.000000 0.000000 0.000000 1.168771
  time 15
    0 0.233849 0.368164 39.526119 0.000000 0.000000 -1.570795
    1 0.000000 0.000000 0.000000 0.000000 -1.570451 -1.570795
    2 -0.000004 0.000007 3.713254 -3.139539 0.026087 3.120120
    3 18.045721 0.000000 0.000000 0.000000 0.000000 -0.121501
    4 17.597595 0.000000 0.000000 -0.002613 0.026036 0.099967
    5 0.000004 -0.000003 -3.713254 3.139069 -0.017354 3.117144
    6 18.045725 0.000000 0.000000 0.000000 0.000000 -0.127551
    7 17.597597 0.000000 0.000000 0.002950 -0.017289 0.103055
    8 1.293671 0.684478 -0.000001 -0.000004 -0.000001 0.061735
    9 5.309686 -0.003834 0.000000 -0.258329 0.042905 0.160134
    10 4.826790 -0.004591 0.000000 0.000000 0.000000 0.183152
    11 5.792768 -0.005304 0.000000 0.000000 0.000000 0.331440
    12 6.662314 -0.001453 0.000000 0.000000 -0.000001 0.209228
    13 2.046984 -0.000002 0.000000 0.150747 -0.214838 0.061367
    14 1.038628 0.548043 -0.144017 -0.000001 0.000001 -1.849906
    15 -0.064003 -0.023525 0.026161 0.000000 0.000000 0.000000
    16 3.013920 3.984632 -0.088975 -0.000001 0.000001 -1.849906
    17 -0.084188 -0.025625 -0.001098 0.000000 0.000000 0.000000
    18 4.778185 3.972485 -0.079803 -0.000001 0.000001 -1.849906
    19 -0.058556 -0.021328 0.004244 0.000000 0.000000 0.000000
    20 1.640597 -1.968779 -0.099219 -0.000001 0.000001 -1.849906
    21 0.055573 -0.028913 0.000000 0.000000 0.000000 0.000000
    22 -3.397188 0.661759 4.341910 0.868694 -1.166236 2.104620
    23 4.827231 0.000000 0.000002 -0.332391 0.823902 -0.766597
    24 11.139760 0.000000 0.000000 0.000000 0.000000 -1.914924
    25 10.314597 0.000000 -0.000001 -1.174256 -0.598196 -0.222490
    26 1.646739 0.449549 -1.702246 0.369699 -0.012752 0.801965
    27 0.928312 0.000000 -0.000001 0.000000 0.000000 0.000000
    28 0.928313 -0.000001 0.000002 0.000000 0.000000 0.000000
    29 2.975833 -0.386307 -0.044143 0.001097 -0.043611 -0.043588
    30 1.438886 -0.000001 0.000000 0.000000 0.000000 1.334476
    31 1.485302 -0.000001 0.000000 0.000000 0.000000 0.793705
    32 -3.131623 0.610575 -4.140396 -1.093351 1.014187 1.908071
    33 4.972046 0.000000 0.000000 0.173494 -0.648354 -0.245803
    34 11.585350 0.000000 0.000001 0.000000 0.000000 -1.961934
    35 10.127054 -0.000001 -0.000001 1.667216 0.765311 -0.200791
    36 1.533672 0.109715 1.664490 -0.264755 -0.055971 0.783109
    37 0.928312 0.000001 0.000000 0.000000 0.000000 -0.453542
    38 0.928313 0.000000 0.000002 0.000000 0.000000 0.000000
    39 2.683747 -0.427339 0.044205 -0.005786 0.043239 -0.157091
    40 1.438886 -0.000001 0.000002 0.000000 0.000000 0.732659
    41 1.485300 0.000000 0.000000 0.000000 0.000000 1.168771
  time 16
    0 0.233849 0.368164 39.526119 0.000000 0.000000 -1.570795
    1 0.000000 0.000000 0.000000 0.000000 -1.570451 -1.570795
    2 -0.000004 0.000007 3.713254 -3.139539 0.026087 3.120120
    3 18.045721 0.000000 0.000000 0.000000 0.000000 -0.121501
    4 17.597595 0.000000 0.000000 -0.002613 0.026036 0.099967
    5 0.000004 -0.000003 -3.713254 3.139069 -0.017354 3.117144
    6 18.045725 0.000000 0.000000 0.000000 0.000000 -0.127551
    7 17.597597 0.000000 0.000000 0.002950 -0.017289 0.103055
    8 1.293671 0.684478 -0.000001 -0.000004 -0.000001 0.061735
    9 5.309686 -0.003834 0.000000 -0.258329 0.042905 0.160134
    10 4.826790 -0.004591 0.000000 0.000000 0.000000 0.183152
    11 5.792768 -0.005304 0.000000 0.000000 0.000000 0.330962
    12 6.662314 -0.001453 0.000000 0.000000 -0.000001 0.209228
    13 2.046984 -0.000002 0.000000 0.150747 -0.214838 0.061816
    14 1.038628 0.548043 -0.144017 -0.000001 0.000001 -1.849906
    15 -0.064003 -0.023525 0.026161 0.000000 0.000000 0.000000
    16 3.013920 3.984632 -0.088975 -0.000001 0.000001 -1.849906
    17 -0.084188 -0.025625 -0.001098 0.000000 0.000000 0.000000
    18 4.778185 3.972485 -0.079803 -0.000001 0.000001 -1.849906
    19 -0.058556 -0.021328 0.004244 0.000000 0.000000 0.000000
    20 1.640597 -1.968779 -0.099219 -0.000001 0.000001 -1.849906
    21 0.055573 -0.028913 0.000000 0.000000 0.000000 0.000000
    22 -3.397188 0.661759 4.341910 0.870036 -1.166697 2.103182
    23 4.827231 0.000000 0.000002 -0.332802 0.824838 -0.766860
    24 11.139760 0.000000 0.000000 0.000000 0.000000 -1.914924
    25 10.314597 0.000000 -0.000001 -1.174256 -0.598196 -0.222490
    26 1.646739 0.449549 -1.702246 0.369699 -0.012752 0.801965
    27 0.928312 0.000000 -0.000001 0.000000 0.000000 0.000000
    28 0.928313 -0.000001 0.000002 0.000000 0.000000 0.000000
    29 2.975833 -0.386307 -0.044143 0.001097 -0.043611 -0.043588
    30 1.438886 -0.000001 0.000000 0.000000 0.000000 1.334476
    31 1.485302 -0.000001 0.000000 0.000000 0.000000 0.793705
    32 -3.131623 0.610575 -4.140396 -1.094502 1.014554 1.906729
    33 4.972046 0.000000 0.000000 0.173339 -0.649480 -0.245605
    34 11.585350 0.000000 0.000001 0.000000 0.000000 -1.961934
    35 10.127054 -0.000001 -0.000001 1.667216 0.765311 -0.200791
    36 1.533672 0.109715 1.664490 -0.264755 -0.055971 0.783109
    37 0.928312 0.000001 0.000000 0.000000 0.000000 -0.453542
    38 0.928313 0.000000 0.000002 0.000000 0.000000 0.000000
    39 2.683747 -0.427339 0.044205 -0.005786 0.043239 -0.157091
    40 1.438886 -0.000001 0.000002 0.000000 0.000000 0.732659
    41 1.485300 0.000000 0.000000 0.000000 0.000000 1.168771
  time 17
    0 0.233849 0.368164 39.526119 0.000000 0.000000 -1.570795
    1 0.000000 0.000000 0.000000 0.000000 -1.570451 -1.570795
    2 -0.000004 0.000007 3.713254 -3.139539 0.026087 3.120120
    3 18.045721 0.000000 0.000000 0.000000 0.000000 -0.121501
    4 17.597595 0.000000 0.000000 -0.002613 0.026036 0.099967
    5 0.000004 -0.000003 -3.713254 3.139069 -0.017354 3.117144
    6 18.045725 0.000000 0.000000 0.000000 0.000000 -0.127551
    7 17.597597 0.000000 0.000000 0.002950 -0.017289 0.103055
    8 1.293671 0.684478 -0.000001 -0.000004 -0.000001 0.061735
    9 5.309686 -0.003834 0.000000 -0.258329 0.042905 0.160134
    10 4.826790 -0.004591 0.000000 0.000000 0.000000 0.183152
    11 5.792768 -0.005304 0.000000 0.000000 0.000000 0.329654
    12 6.662314 -0.001453 0.000000 0.000000 -0.000001 0.209228
    13 2.046984 -0.000002 0.000000 0.150747 -0.214838 0.063120
    14 1.038628 0.548043 -0.144017 -0.000001 0.000001 -1.849906
    15 -0.064003 -0.023525 0.026161 0.000000 0.000000 0.000000
    16 3.013920 3.984632 -0.088975 -0.000001 0.000001 -1.849906
    17 -0.084188 -0.025625 -0.001098 0.000000 0.000000 0.000000
    18 4.778185 3.972485 -0.079803 -0.000001 0.000001 -1.849906
    19 -0.058556 -0.021328 0.004244 0.000000 0.000000 0.000000
    20 1.640597 -1.968779 -0.099219 -0.000001 0.000001 -1.849906
    21 0.055573 -0.028913 0.000000 0.000000 0.000000 0.000000
    22 -3.397188 0.661759 4.341910 0.873871 -1.168082 2.099059
    23 4.827231 0.000000 0.000002 -0.334094 0.827476 -0.767472
    24 11.139760 0.000000 0.000000 0.000000 0.000000 -1.914924
    25 10.314597 0.000000 -0.000001 -1.174256 -0.598196 -0.222490
    26 1.646739 0.449549 -1.702246 0.369699 -0.012752 0.801965
    27 0.928312 0.000000 -0.000001 0.000000 0.000000 0.000000
    28 0.928313 -0.000001 0.000002 0.000000 0.000000 0.000000
    29 2.975833 -0.386307 -0.044143 0.001097 -0.043611 -0.043588
    30 1.438886 -0.000001 0.000000 0.000000 0.000000 1.334476
    31 1.485302 -0.000001 0.000000 0.000000 0.000000 0.793705
    32 -3.131623 0.610575 -4.140396 -1.097953 1.015628 1.902702
    33 4.972046 0.000000 0.000000 0.172875 -0.652697 -0.245012
    34 11.585350 0.000000 0.000001 0.000000 0.000000 -1.961934
    35 10.127054 -0.000001 -0.000001 1.667216 0.765311 -0.200791
    36 1.533672 0.109715 1.664490 -0.264755 -0.055971 0.783109
    37 0.928312 0.000001 0.000000 0.000000 0.000000 -0.453542
    38 0.928313 0.000000 0.000002 0.000000 0.000000 0.000000
    39 2.683747 -0.427339 0.044205 -0.005786 0.043239 -0.157091
    40 1.438886 -0.000001 0.000002 0.000000 0.000000 0.732659
    41 1.485300 0.000000 0.000000 0.000000 0.000000 1.168771
  time 18
    0 0.233849 0.368164 39.526119 0.000000 0.000000 -1.570795
    1 0.000000 0.000000 0.000000 0.000000 -1.570451 -1.570795
    2 -0.000004 0.000007 3.713254 -3.139539 0.026087 3.120120
    3 18.045721 0.000000 0.000000 0.000000 0.000000 -0.121501
    4 17.597595 0.000000 0.000000 -0.002613 0.026036 0.099967
    5 0.000004 -0.000003 -3.713254 3.139069 -0.017354 3.117144
    6 18.045725 0.000000 0.000000 0.000000 0.000000 -0.127551
    7 17.597597 0.000000 0.000000 0.002950 -0.017289 0.103055
    8 1.293671 0.684478 -0.000001 -0.000004 -0.000001 0.061735
    9 5.309686 -0.003834 0.000000 -0.258329 0.042905 0.160134
    10 4.826790 -0.004591 0.000000 0.000000 0.000000 0.183152
    11 5.792768 -0.005304 0.000000 0.000000 0.000000 0.327598
    12 6.662314 -0.001453 0.000000 0.000000 -0.000001 0.209228
    13 2.046984 -0.000002 0.000000 0.150747 -0.214838 0.065187
    14 1.038628 0.548043 -0.144017 -0.000001 0.000001 -1.849906
    15 -0.064003 -0.023525 0.026161 0.000000 0.000000 0.000000
    16 3.013920 3.984632 -0.088975 -0.000001 0.000001 -1.849906
    17 -0.084188 -0.025625 -0.001098 0.000000 0.000000 0.000000
    18 4.778185 3.972485 -0.079803 -0.000001 0.000001 -1.849906
    19 -0.058556 -0.021328 0.004244 0.000000 0.000000 0.000000
    20 1.640597 -1.968779 -0.099219 -0.000001 0.000001 -1.849906
    21 0.055573 -0.028913 0.000000 0.000000 0.000000 0.000000
    22 -3.397188 0.661759 4.341910 0.879815 -1.170159 2.092635
    23 4.827231 0.000000 0.000002 -0.336091 0.831561 -0.768435
    24 11.139760 0.000000 0.000000 0.000000 0.000000 -1.914924
    25 10.314597 0.000000 -0.000001 -1.174256 -0.598196 -0.222490
    26 1.646739 0.449549 -1.702246 0.369699 -0.012752 0.801965
    27 0.928312 0.000000 -0.000001 0.000000 0.000000 0.000000
    28 0.928313 -0.000001 0.000002 0.000000 0.000000 0.000000
    29 2.975833 -0.386307 -0.044143 0.001097 -0.043611 -0.043588
    30 1.438886 -0.000001 0.000000 0.000000 0.000000 1.334476
    31 1.485302 -0.000001 0.000000 0.000000 0.000000 0.793705
    32 -3.131623 0.610575 -4.140396 -1.103226 1.017324 1.896471
    33 4.972046 0.000000 0.000000 0.172179 -0.657604 -0.244090
    34 11.585350 0.000000 0.000001 0.000000 0.000000 -1.961934
    35 10.127054 -0.000001 -0.000001 1.667216 0.765311 -0.200791
    36 1.533672 0.109715 1.664490 -0.264755 -0.055971 0.783109
    37 0.928312 0.000001 0.000000 0.000000 0.000000 -0.453542
    38 0.928313 0.000000 0.000002 0.000000 0.000000 0.000000
    39 2.683747 -0.427339 0.044205 -0.005786 0.043239 -0.157091
    40 1.438886 -0.000001 0.000002 0.000000 0.000000 0.732659
    41 1.485300 0.000000 0.000000 0.000000 0.000000 1.168771
  time 19
    0 0.233849 0.368164 39.526119 0.000000 0.000000 -1.570795
    1 0.000000 0.000000 0.000000 0.000000 -1.570451 -1.570795
    2 -0.000004 0.000007 3.713254 -3.139539 0.026087 3.120120
    3 18.045721 0.000000 0.000000 0.000000 0.000000 -0.121501
    4 17.597595 0.000000 0.000000 -0.002613 0.026036 0.099967
    5 0.000004 -0.000003 -3.713254 3.139069 -0.017354 3.117144
    6 18.045725 0.000000 0.000000 0.000000 0.000000 -0.127551
    7 17.597597 0.000000 0.000000 0.002950 -0.017289 0.103055
    8 1.293671 0.684478 -0.000001 -0.000004 -0.000001 0.061735
    9 5.309686 -0.003834 0.000000 -0.258329 0.042905 0.160134
    10 4.826790 -0.004591 0.000000 0.000000 0.000000 0.183152
    11 5.792768 -0.005304 0.000000 0.000000 0.000000 0.324920
    12 6.662314 -0.001453 0.000000 0.000000 -0.000001 0.209228
    13 2.046984 -0.000002 0.000000 0.150747 -0.214838 0.067839
    14 1.038628 0.548043 -0.144017 -0.000001 0.000001 -1.849906
    15 -0.064003 -0.023525 0.026161 0.000000 0.000000 0.000000
    16 3.013920 3.984632 -0.088975 -0.000001 0.000001 -1.849906
    17 -0.084188 -0.025625 -0.001098 0.000000 0.000000 0.000000
    18 4.778185 3.972485 -0.079803 -0.000001 0.000001 -1.849906
    19 -0.058556 -0.021328 0.004244 0.000000 0.000000 0.000000
    20 1.640597 -1.968779 -0.099219 -0.000001 0.000001 -1.849906
    21 0.055573 -0.028913 0.000000 0.000000 0.000000 0.000000
    22 -3.397188 0.661759 4.341910 0.887676 -1.172890 2.084102
    23 4.827231 0.000000 0.000002 -0.338734 0.836922 -0.769660
    24 11.139760 0.000000 0.000000 0.000000 0.000000 -1.914924
    25 10.314597 0.000000 -0.000001 -1.174256 -0.598196 -0.222490
    26 1.646739 0.449549 -1.702246 0.369699 -0.012752 0.801965
    27 0.928312 0.000000 -0.000001 0.000000 0.000000 0.000000
    28 0.928313 -0.000001 0.000002 0.000000 0.000000 0.000000
    29 2.975833 -0.386307 -0.044143 0.001097 -0.043611 -0.043588
    30 1.438886 -0.000001 0.000000 0.000000 0.000000 1.334476
    31 1.485302 -0.000001 0.000000 0.000000 0.000000 0.793705
    32 -3.131623 0.610575 -4.140396 -1.110225 1.019472 1.888226
    33 4.972046 0.000000 0.000000 0.171173 -0.664040 -0.242905
    34 11.585350 0.000000 0.000001 0.000000 0.000000 -1.961934
    35 10.127054 -0.000001 -0.000001 1.667216 0.765311 -0.200791
    36 1.533672 0.109715 1.664490 -0.264755 -0.055971 0.783109
    37 0.928312 0.000001 0.000000 0.000000 0.000000 -0.453542
    38 0.928313 0.000000 0.000002 0.000000 0.000000 0.000000
    39 2.683747 -0.427339 0.044205 -0.005786 0.043239 -0.157091
    40 1.438886 -0.000001 0.000002 0.000000 0.000000 0.732659
    41 1.485300 0.000000 0.000000 0.000000 0.000000 1.168771
  time 20
    0 0.233849 0.368164 39.526119 0.000000 0.000000 -1.570795
    1 0.000000 0.000000 0.000000 0.000000 -1.570451 -1.570795
    2 -0.000004 0.000007 3.713254 -3.139539 0.026087 3.120120
    3 18.045721 0.000000 0.000000 0.000000 0.000000 -0.121501
    4 17.597595 0.000000 0.000000 -0.002613 0.026036 0.099967
    5 0.000004 -0.000003 -3.713254 3.139069 -0.017354 3.117144
    6 18.045725 0.000000 0.000000 0.000000 0.000000 -0.127551
    7 17.597597 0.000000 0.000000 0.002950 -0.017289 0.103055
    8 1.293671 0.684478 -0.000001 -0.000004 -0.000001 0.061735
    9 5.309686 -0.003834 0.000000 -0.258329 0.042905 0.160134
    10 4.826790 -0.004591 0.000000 0.000000 0.000000 0.183152
    11 5.792768 -0.005304 0.000000 0.000000 0.000000 0.321743
    12 6.662314 -0.001453 0.000000 0.000000 -0.000001 0.209228
    13 2.046984 -0.000002 0.000000 0.150747 -0.214838 0.071031
    14 1.038628 0.548043 -0.144017 -0.000001 0.000001 -1.849906
    15 -0.064003 -0.023525 0.026161 0.000000 0.000000 0.000000
    16 3.013920 3.984632 -0.088975 -0.000001 0.000001 -1.849906
    17 -0.084188 -0.025625 -0.001098 0.000000 0.000000 0.000000
    18 4.778185 3.972485 -0.079803 -0.000001 0.000001 -1.849906
    19 -0.058556 -0.021328 0.004244 0.000000 0.000000 0.000000
    20 1.640597 -1.968779 -0.099219 -0.000001 0.000001 -1.849906
    21 0.055573 -0.028913 0.000000 0.000000 0.000000 0.000000
    22 -3.397188 0.661759 4.341910 0.897072 -1.176083 2.073843
    23 4.827231 0.000000 0.000002 -0.341847 0.843305 -0.771235
    24 11.139760 0.000000 0.000000 0.000000 0.000000 -1.914924
    25 10.314597 0.000000 -0.000001 -1.174256 -0.598196 -0.222490
    26 1.646739 0.449549 -1.702246 0.369699 -0.012752 0.801965
    27 0.928312 0.000000 -0.000001 0.000000 0.000000 0.000000
    28 0.928313 -0.000001 0.000002 0.000000 0.000000 0.000000
    29 2.975833 -0.386307 -0.044143 0.001097 -0.043611 -0.043588
    30 1.438886 -0.000001 0.000000 0.000000 0.000000 1.334476
    31 1.485302 -0.000001 0.000000 0.000000 0.000000 0.793705
    32 -3.131623 0.610575 -4.140396 -1.118566 1.021987 1.878351
    33 4.972046 0.000000 0.000000 0.170090 -0.671681 -0.241455
    34 11.585350 0.000000 0.000001 0.000000 0.000000 -1.961934
    35 10.127054 -0.000001 -0.000001 1.667216 0.765311 -0.200791
    36 1.533672 0.109715 1.664490 -0.264755 -0.055971 0.783109
    37 0.928312 0.000001 0.000000 0.000000 0.000000 -0.453542
    38 0.928313 0.000000 0.000002 0.000000 0.000000 0.000000
    39 2.683747 -0.427339 0.044205 -0.005786 0.043239 -0.157091
    40 1.438886 -0.000001 0.000002 0.000000 0.000000 0.732659
    41 1.485300 0.000000 0.000000 0.000000 0.000000 1.168771
  time 21
    0 0.233849 0.368164 39.526119 0.000000 0.000000 -1.570795
    1 0.000000 0.000000 0.000000 0.000000 -1.570451 -1.570795
    2 -0.000004 0.000007 3.713254 -3.139539 0.026087 3.120120
    3 18.045721 0.000000 0.000000 0.000000 0.000000 -0.121501
    4 17.597595 0.000000 0.000000 -0.002613 0.026036 0.099967
    5 0.000004 -0.000003 -3.713254 3.139069 -0.017354 3.117144
    6 18.045725 0.000000 0.000000 0.000000 0.000000 -0.127551
    7 17.597597 0.000000 0.000000 0.002950 -0.017289 0.103055
    8 1.293671 0.684478 -0.000001 -0.000004 -0.000001 0.061735
    9 5.309686 -0.003834 0.000000 -0.258329 0.042905 0.160134
    10 4.826790 -0.004591 0.000000 0.000000 0.000000 0.183152
    11 5.792768 -0.005304 0.000000 0.000000 0.000000 0.318172
    12 6.662314 -0.001453 0.000000 0.000000 -0.000001 0.209228
    13 2.046984 -0.000002 0.000000 0.150747 -0.214838 0.074582
    14 1.038628 0.548043 -0.144017 -0.000001 0.000001 -1.849906
    15 -0.064003 -0.023525 0.026161 0.000000 0.000000 0.000000
    16 3.013920 3.984632 -0.088975 -0.000001 0.000001 -1.849906
    17 -0.084188 -0.025625 -0.001098 0.000000 0.000000 0.000000
    18 4.778185 3.972485 -0.079803 -0.000001 0.000001 -1.849906
    19 -0.058556 -0.021328 0.004244 0.000000 0.000000 0.000000
    20 1.640597 -1.968779 -0.099219 -0.000001 0.000001 -1.849906
    21 0.055573 -0.028913 0.000000 0.000000 0.000000 0.000000
    22 -3.397188 0.661759 4.341910 0.907906 -1.179622 2.062147
    23 4.827231 0.000000 0.000002 -0.345430 0.850453 -0.773073
    24 11.139760 0.000000 0.000000 0.000000 0.000000 -1.914924
    25 10.314597 0.000000 -0.000001 -1.174256 -0.598196 -0.222490
    26 1.646739 0.449549 -1.702246 0.369699 -0.012752 0.801965
    27 0.928312 0.000000 -0.000001 0.000000 0.000000 0.000000
    28 0.928313 -0.000001 0.000002 0.000000 0.000000 0.000000
    29 2.975833 -0.386307 -0.044143 0.001097 -0.043611 -0.043588
    30 1.438886 -0.000001 0.000000 0.000000 0.000000 1.334476
    31 1.485302 -0.000001 0.000000 0.000000 0.000000 0.793705
    32 -3.131623 0.610575 -4.140396 -1.128057 1.024757 1.867229
    33 4.972046 0.000000 0.000000 0.168775 -0.680289 -0.239809
    34 11.585350 0.000000 0.000001 0.000000 0.000000 -1.961934
    35 10.127054 -0.000001 -0.000001 1.667216 0.765311 -0.200791
    36 1.533672 0.109715 1.664490 -0.264755 -0.055971 0.783109
    37 0.928312 0.000001 0.000000 0.000000 0.000000 -0.453542
    38 0.928313 0.000000 0.000002 0.000000 0.000000 0.000000
    39 2.683747 -0.427339 0.044205 -0.005786 0.043239 -0.157091
    40 1.438886 -0.000001 0.000002 0.000000 0.000000 0.732659
    41 1.485300 0.000000 0.000000 0.000000 0.000000 1.168771
  time 22
    0 0.233849 0.368164 39.526119 0.000000 0.000000 -1.570795
    1 0.000000 0.000000 0.000000 0.000000 -1.570451 -1.570795
    2 -0.000004 0.000007 3.713254 -3.139539 0.026087 3.120120
    3 18.045721 0.000000 0.000000 0.000000 0.000000 -0.121501
    4 17.597595 0.000000 0.000000 -0.002613 0.026036 0.099967
    5 0.000004 -0.000003 -3.713254 3.139069 -0.017354 3.117144
    6 18.045725 0.000000 0.000000 0.000000 0.000000 -0.127551
    7 17.597597 0.000000 0.000000 0.002950 -0.017289 0.103055
    8 1.293671 0.684478 -0.000001 -0.000004 -0.000001 0.061735
    9 5.309686 -0.003834 0.000000 -0.258329 0.042905 0.160134
    10 4.826790 -0.004591 0.000000 0.000000 0.000000 0.183152
    11 5.792768 -0.005304 0.000000 0.000000 0.000000 0.314331
    12 6.662314 -0.001453 0.000000 0.000000 -0.000001 0.209228
    13 2.046984 -0.000002 0.000000 0.150747 -0.214838 0.078447
    14 1.038628 0.548043 -0.144017 -0.000001 0.000001 -1.849906
    15 -0.064003 -0.023525 0.026161 0.000000 0.000000 0.000000
    16 3.013920 3.984632 -0.088975 -0.000001 0.000001 -1.849906
    17 -0.084188 -0.025625 -0.001098 0.000000 0.000000 0.000000
    18 4.778185 3.972485 -0.079803 -0.000001 0.000001 -1.849906
    19 -0.058556 -0.021328 0.004244 0.000000 0.000000 0.000000
    20 1.640597 -1.968779 -0.099219 -0.000001 0.000001 -1.849906
    21 0.055573 -0.028913 0.000000 0.000000 0.000000 0.000000
    22 -3.397188 0.661759 4.341910 0.919794 -1.183353 2.049299
    23 4.827231 0.000000 0.000002 -0.349366 0.858197 -0.775173
    24 11.139760 0.000000 0.000000 0.000000 0.000000 -1.914924
    25 10.314597 0.000000 -0.000001 -1.174256 -0.598196 -0.222490
    26 1.646739 0.449549 -1.702246 0.369699 -0.012752 0.801965
    27 0.928312 0.000000 -0.000001 0.000000 0.000000 0.000000
    28 0.928313 -0.000001 0.000002 0.000000 0.000000 0.000000
    29 2.975833 -0.386307 -0.044143 0.001097 -0.043611 -0.043588
    30 1.438886 -0.000001 0.000000 0.000000 0.000000 1.334476
    31 1.485302 -0.000001 0.000000 0.000000 0.000000 0.793705
    32 -3.131623 0.610575 -4.140396 -1.138412 1.027697 1.855245
    33 4.972046 0.000000 0.000000 0.167305 -0.689539 -0.238030
    34 11.585350 0.000000 0.000001 0.000000 0.000000 -1.961934
    35 10.127054 -0.000001 -0.000001 1.667216 0.765311 -0.200791
    36 1.533672 0.109715 1.664490 -0.264755 -0.055971 0.783109
    37 0.928312 0.000001 0.000000 0.000000 0.000000 -0.453542
    38 0.928313 0.000000 0.000002 0.000000 0.000000 0.000000
    39 2.683747 -0.427339 0.044205 -0.005786 0.043239 -0.157091
    40 1.438886 -0.000001 0.000002 0.000000 0.000000 0.732659
    41 1.485300 0.000000 0.000000 0.000000 0.000000 1.168771
  time 23
    0 0.233849 0.368164 39.526119 0.000000 0.000000 -1.570795
    1 0.000000 0.000000 0.000000 0.000000 -1.570451 -1.570795
    2 -0.000004 0.000007 3.713254 -3.139539 0.026087 3.120120
    3 18.045721 0.000000 0.000000 0.000000 0.000000 -0.121501
    4 17.597595 0.000000 0.000000 -0.002613 0.026036 0.099967
    5 0.000004 -0.000003 -3.713254 3.139069 -0.017354 3.117144
    6 18.045725 0.000000 0.000000 0.000000 0.000000 -0.127551
    7 17.597597 0.000000 0.000000 0.002950 -0.017289 0.103055
    8 1.293671 0.684478 -0.000001 -0.000004 -0.000001 0.061735
    9 5.309686 -0.003834 0.000000 -0.258329 0.042905 0.160134
    10 4.826790 -0.004591 0.000000 0.000000 0.000000 0.183152
    11 5.792768 -0.005304 0.000000 0.000000 0.000000 0.310345
    12 6.662314 -0.001453 0.000000 0.000000 -0.000001 0.209228
    13 2.046984 -0.000002 0.000000 0.150747 -0.214838 0.082447
    14 1.038628 0.548043 -0.144017 -0.000001 0.000001 -1.849906
    15 -0.064003 -0.023525 0.026161 0.000000 0.000000 0.000000
    16 3.013920 3.984632 -0.088975 -0.000001 0.000001 -1.849906
    17 -0.084188 -0.025625 -0.001098 0.000000 0.000000 0.000000
    18 4.778185 3.972485 -0.079803 -0.000001 0.000001 -1.849906
    19 -0.058556 -0.021328 0.004244 0.000000 0.000000 0.000000
    20 1.640597 -1.968779 -0.099219 -0.000001 0.000001 -1.849906
    21 0.055573 -0.028913 0.000000 0.000000 0.000000 0.000000
    22 -3.397188 0.661759 4.341910 0.932353 -1.187200 2.035781
    23 4.827231 0.000000 0.000002 -0.353477 0.866197 -0.777361
    24 11.139760 0.000000 0.000000 0.000000 0.000000 -1.914924
    25 10.314597 0.000000 -0.000001 -1.174256 -0.598196 -0.222490
    26 1.646739 0.449549 -1.702246 0.369699 -0.012752 0.801965
    27 0.928312 0.000000 -0.000001 0.000000 0.000000 0.000000
    28 0.928313 -0.000001 0.000002 0.000000 0.000000 0.000000
    29 2.975833 -0.386307 -0.044143 0.001097 -0.043611 -0.043588
    30 1.438886 -0.000001 0.000000 0.000000 0.000000 1.334476
    31 1.485302 -0.000001 0.000000 0.000000 0.000000 0.793705
    32 -3.131623 0.610575 -4.140396 -1.149341 1.030665 1.842494
    33 4.972046 0.000000 0.000000 0.165758 -0.699112 -0.236186
    34 11.585350 0.000000 0.000001 0.000000 0.000000 -1.961934
    35 10.127054 -0.000001 -0.000001 1.667216 0.765311 -0.200791
    36 1.533672 0.109715 1.664490 -0.264755 -0.055971 0.783109
    37 0.928312 0.000001 0.000000 0.000000 0.000000 -0.453542
    38 0.928313 0.000000 0.000002 0.000000 0.000000 0.000000
    39 2.683747 -0.427339 0.044205 -0.005786 0.043239 -0.157091
    40 1.438886 -0.000001 0.000002 0.000000 0.000000 0.732659
    41 1.485300 0.000000 0.000000 0.000000 0.000000 1.168771
  time 24
    0 0.233849 0.368164 39.526119 0.000000 0.000000 -1.570795
    1 0.000000 0.000000 0.000000 0.000000 -1.570451 -1.570795
    2 -0.000004 0.000007 3.713254 -3.139539 0.026087 3.120120
    3 18.045721 0.000000 0.000000 0.000000 0.000000 -0.121501
    4 17.597595 0.000000 0.000000 -0.002613 0.026036 0.099967
    5 0.000004 -0.000003 -3.713254 3.139069 -0.017354 3.117144
    6 18.045725 0.000000 0.000000 0.000000 0.000000 -0.127551
    7 17.597597 0.000000 0.000000 0.002950 -0.017289 0.103055
    8 1.293671 0.684478 -0.000001 -0.000004 -0.000001 0.061735
    9 5.309686 -0.003834 0.000000 -0.258329 0.042905 0.160134
    10 4.826790 -0.004591 0.000000 0.000000 0.000000 0.183152
    11 5.792768 -0.005304 0.000000 0.000000 0.000000 0.306317
    12 6.662314 -0.001453 0.000000 0.000000 -0.000001 0.209228
    13 2.046984 -0.000002 0.000000 0.150747 -0.214838 0.086448
    14 1.038628 0.548043 -0.144017 -0.000001 0.000001 -1.849906
    15 -0.064003 -0.023525 0.026161 0.000000 0.000000 0.000000
    16 3.013920 3.984632 -0.088975 -0.000001 0.000001 -1.849906
    17 -0.084188 -0.025625 -0.001098 0.000000 0.000000 0.000000
    18 4.778185 3.972485 -0.079803 -0.000001 0.000001 -1.849906
    19 -0.058556 -0.021328 0.004244 0.000000 0.000000 0.000000
    20 1.640597 -1.968779 -0.099219 -0.000001 0.000001 -1.849906
    21 0.055573 -0.028913 0.000000 0.000000 0.000000 0.000000
    22 -3.397188 0.661759 4.341910 0.945296 -1.191008 2.021783
    23 4.827231 0.000000 0.000002 -0.357647 0.874281 -0.779724
    24 11.139760 0.000000 0.000000 0.000000 0.000000 -1.914924
    25 10.314597 0.000000 -0.000001 -1.174256 -0.598196 -0.222490
    26 1.646739 0.449549 -1.702246 0.369699 -0.012752 0.801965
    27 0.928312 0.000000 -0.000001 0.000000 0.000000 0.000000
    28 0.928313 -0.000001 0.000002 0.000000 0.000000 0.000000
    29 2.975833 -0.386307 -0.044143 0.001097 -0.043611 -0.043588
    30 1.438886 -0.000001 0.000000 0.000000 0.000000 1.334476
    31 1.485302 -0.000001 0.000000 0.000000 0.000000 0.793705
    32 -3.131623 0.610575 -4.140396 -1.160367 1.033604 1.829551
    33 4.972046 0.000000 0.000000 0.164134 -0.708845 -0.234341
    34 11.585350 0.000000 0.000001 0.000000 0.000000 -1.961934
    35 10.127054 -0.000001 -0.000001 1.667216 0.765311 -0.200791
    36 1.533672 0.109715 1.664490 -0.264755 -0.055971 0.783109
    37 0.928312 0.000001 0.000000 0.000000 0.000000 -0.453542
    38 0.928313 0.000000 0.000002 0.000000 0.000000 0.000000
    39 2.683747 -0.427339 0.044205 -0.005786 0.043239 -0.157091
    40 1.438886 -0.000001 0.000002 0.000000 0.000000 0.732659
    41 1.485300 0.000000 0.000000 0.000000 0.000000 1.168771
  time 25
    0 0.233849 0.368164 39.526119 0.000000 0.000000 -1.570795
    1 0.000000 0.000000 0.000000 0.000000 -1.570451 -1.570795
    2 -0.000004 0.000007 3.713254 -3.139539 0.026087 3.120120
    3 18.045721 0.000000 0.000000 0.000000 0.000000 -0.121501
    4 17.597595 0.000000 0.000000 -0.002613 0.026036 0.099967
    5 0.000004 -0.000003 -3.713254 3.139069 -0.017354 3.117144
    6 18.045725 0.000000 0.000000 0.000000 0.000000 -0.127551
    7 17.597597 0.000000 0.000000 0.002950 -0.017289 0.103055
    8 1.293671 0.684478 -0.000001 -0.000004 -0.000001 0.061735
    9 5.309686 -0.003834 0.000000 -0.258329 0.042905 0.160134
    10 4.826790 -0.004591 0.000000 0.000000 0.000000 0.183152
    11 5.792768 -0.005304 0.000000 0.000000 0.000000 0.302351
    12 6.662314 -0.001453 0.000000 0.000000 -0.000001 0.209228
    13 2.046984 -0.000002 0.000000 0.150747 -0.214838 0.090403
    14 1.038628 0.548043 -0.144017 -0.000001 0.000001 -1.849906
    15 -0.064003 -0.023525 0.026161 0.000000 0.000000 0.000000
    16 3.013920 3.984632 -0.088975 -0.000001 0.000001 -1.849906
    17 -0.084188 -0.025625 -0.001098 0.000000 0.000000 0.000000
    18 4.778185 3.972485 -0.079803 -0.000001 0.000001 -1.849906
    19 -0.058556 -0.021328 0.004244 0.000000 0.000000 0.000000
    20 1.640597 -1.968779 -0.099219 -0.000001 0.000001 -1.849906
    21 0.055573 -0.028913 0.000000 0.000000 0.000000 0.000000
    22 -3.397188 0.661759 4.341910 0.958239 -1.194701 2.007785
    23 4.827231 0.000000 0.000002 -0.361876 0.882196 -0.782087
    24 11.139760 0.000000 0.000000 0.000000 0.000000 -1.914924
    25 10.314597 0.000000 -0.000001 -1.174256 -0.598196 -0.222490
    26 1.646739 0.449549 -1.702246 0.369699 -0.012752 0.801965
    27 0.928312 0.000000 -0.000001 0.000000 0.000000 0.000000
    28 0.928313 -0.000001 0.000002 0.000000 0.000000 0.000000
    29 2.975833 -0.386307 -0.044143 0.001097 -0.043611 -0.043588
    30 1.438886 -0.000001 0.000000 0.000000 0.000000 1.334476
    31 1.485302 -0.000001 0.000000 0.000000 0.000000 0.793705
    32 -3.131623 0.610575 -4.140396 -1.171392 1.036402 1.816800
    33 4.972046 0.000000 0.000000 0.162509 -0.718337 -0.232497
    34 11.585350 0.000000 0.000001 0.000000 0.000000 -1.961934
    35 10.127054 -0.000001 -0.000001 1.667216 0.765311 -0.200791
    36 1.533672 0.109715 1.664490 -0.264755 -0.055971 0.783109
    37 0.928312 0.000001 0.000000 0.000000 0.000000 -0.453542
    38 0.928313 0.000000 0.000002 0.000000 0.000000 0.000000
    39 2.683747 -0.427339 0.044205 -0.005786 0.043239 -0.157091
    40 1.438886 -0.000001 0.000002 0.000000 0.000000 0.732659
    41 1.485300 0.000000 0.000000 0.000000 0.000000 1.168771
  time 26
    0 0.233849 0.368164 39.526119 0.000000 0.000000 -1.570795
    1 0.000000 0.000000 0.000000 0.000000 -1.570451 -1.570795
    2 -0.000004 0.000007 3.713254 -3.139539 0.026087 3.120120
    3 18.045721 0.000000 0.000000 0.000000 0.000000 -0.121501
    4 17.597595 0.000000 0.000000 -0.002613 0.026036 0.099967
    5 0.000004 -0.000003 -3.713254 3.139069 -0.017354 3.117144
    6 18.045725 0.000000 0.000000 0.000000 0.000000 -0.127551
    7 17.597597 0.000000 0.000000 0.002950 -0.017289 0.103055
    8 1.293671 0.684478 -0.000001 -0.000004 -0.000001 0.061735
    9 5.309686 -0.003834 0.000000 -0.258329 0.042905 0.160134
    10 4.826790 -0.004591 0.000000 0.000000 0.000000 0.183152
    11 5.792768 -0.005304 0.000000 0.000000 0.000000 0.298593
    12 6.662314 -0.001453 0.000000 0.000000 -0.000001 0.209228
    13 2.046984 -0.000002 0.000000 0.150747 -0.214838 0.094179
    14 1.038628 0.548043 -0.144017 -0.000001 0.000001 -1.849906
    15 -0.064003 -0.023525 0.026161 0.000000 0.000000 0.000000
    16 3.013920 3.984632 -0.088975 -0.000001 0.000001 -1.849906
    17 -0.084188 -0.025625 -0.001098 0.000000 0.000000 0.000000
    18 4.778185 3.972485 -0.079803 -0.000001 0.000001 -1.849906
    19 -0.058556 -0.021328 0.004244 0.000000 0.000000 0.000000
    20 1.640597 -1.968779 -0.099219 -0.000001 0.000001 -1.849906
    21 0.055573 -0.028913 0.000000 0.000000 0.000000 0.000000
    22 -3.397188 0.661759 4.341910 0.970894 -1.198124 1.994266
    23 4.827231 0.000000 0.000002 -0.365929 0.889685 -0.784449
    24 11.139760 0.000000 0.000000 0.000000 0.000000 -1.914924
    25 10.314597 0.000000 -0.000001 -1.174256 -0.598196 -0.222490
    26 1.646739 0.449549 -1.702246 0.369699 -0.012752 0.801965
    27 0.928312 0.000000 -0.000001 0.000000 0.000000 0.000000
    28 0.928313 -0.000001 0.000002 0.000000 0.000000 0.000000
    29 2.975833 -0.386307 -0.044143 0.001097 -0.043611 -0.043588
    30 1.438886 -0.000001 0.000000 0.000000 0.000000 1.334476
    31 1.485302 -0.000001 0.000000 0.000000 0.000000 0.793705
    32 -3.131623 0.610575 -4.140396 -1.182034 1.039002 1.804432
    33 4.972046 0.000000 0.000000 0.160885 -0.727427 -0.230652
    34 11.585350 0.000000 0.000001 0.000000 0.000000 -1.961934
    35 10.127054 -0.000001 -0.000001 1.667216 0.765311 -0.200791
    36 1.533672 0.109715 1.664490 -0.264755 -0.055971 0.783109
    37 0.928312 0.000001 0.000000 0.000000 0.000000 -0.453542
    38 0.928313 0.000000 0.000002 0.000000 0.000000 0.000000
    39 2.683747 -0.427339 0.044205 -0.005786 0.043239 -0.157091
    40 1.438886 -0.000001 0.000002 0.000000 0.000000 0.732659
    41 1.485300 0.000000 0.000000 0.000000 0.000000 1.168771
  time 27
    0 0.233849 0.368164 39.526119 0.000000 0.000000 -1.570795
    1 0.000000 0.000000 0.000000 0.000000 -1.570451 -1.570795
    2 -0.000004 0.000007 3.713254 -3.139539 0.026087 3.120120
    3 18.045721 0.000000 0.000000 0.000000 0.000000 -0.121501
    4 17.597595 0.000000 0.000000 -0.002613 0.026036 0.099967
    5 0.000004 -0.000003 -3.713254 3.139069 -0.017354 3.117144
    6 18.045725 0.000000 0.000000 0.000000 0.000000 -0.127551
    7 17.597597 0.000000 0.000000 0.002950 -0.017289 0.103055
    8 1.293671 0.684478 -0.000001 -0.000004 -0.000001 0.061735
    9 5.309686 -0.003834 0.000000 -0.258329 0.042905 0.160134
    10 4.826790 -0.004591 0.000000 0.000000 0.000000 0.183152
    11 5.792768 -0.005304 0.000000 0.000000 0.000000 0.295146
    12 6.662314 -0.001453 0.000000 0.000000 -0.000001 0.209228
    13 2.046984 -0.000002 0.000000 0.150747 -0.214838 0.097640
    14 1.038628 0.548043 -0.144017 -0.000001 0.000001 -1.849906
    15 -0.064003 -0.023525 0.026161 0.000000 0.000000 0.000000
    16 3.013920 3.984632 -0.088975 -0.000001 0.000001 -1.849906
    17 -0.084188 -0.025625 -0.001098 0.000000 0.000000 0.000000
    18 4.778185 3.972485 -0.079803 -0.000001 0.000001 -1.849906
    19 -0.058556 -0.021328 0.004244 0.000000 0.000000 0.000000
    20 1.640597 -1.968779 -0.099219 -0.000001 0.000001 -1.849906
    21 0.055573 -0.028913 0.000000 0.000000 0.000000 0.000000
    22 -3.397188 0.661759 4.341910 0.982591 -1.201201 1.981707
    23 4.827231 0.000000 0.000002 -0.369688 0.896663 -0.786725
    24 11.139760 0.000000 0.000000 0.000000 0.000000 -1.914924
    25 10.314597 0.000000 -0.000001 -1.174256 -0.598196 -0.222490
    26 1.646739 0.449549 -1.702246 0.369699 -0.012752 0.801965
    27 0.928312 0.000000 -0.000001 0.000000 0.000000 0.000000
    28 0.928313 -0.000001 0.000002 0.000000 0.000000 0.000000
    29 2.975833 -0.386307 -0.044143 0.001097 -0.043611 -0.043588
    30 1.438886 -0.000001 0.000000 0.000000 0.000000 1.334476
    31 1.485302 -0.000001 0.000000 0.000000 0.000000 0.793705
    32 -3.131623 0.610575 -4.140396 -1.191813 1.041320 1.793119
    33 4.972046 0.000000 0.000000 0.159415 -0.735712 -0.229005
    34 11.585350 0.000000 0.000001 0.000000 0.000000 -1.961934
    35 10.127054 -0.000001 -0.000001 1.667216 0.765311 -0.200791
    36 1.533672 0.109715 1.664490 -0.264755 -0.055959 0.783109
    37 0.928312 0.000001 0.000000 0.000000 0.000000 -0.453542
    38 0.928313 0.000000 0.000002 0.000000 0.000000 0.000000
    39 2.683747 -0.427339 0.044205 -0.005786 0.043239 -0.157091
    40 1.438886 -0.000001 0.000002 0.000000 0.000000 0.732659
    41 1.485300 0.000000 0.000000 0.000000 0.000000 1.168771
  time 28
    0 0.233849 0.368164 39.526119 0.000000 0.000000 -1.570795
    1 0.000000 0.000000 0.000000 0.000000 -1.570451 -1.570795
    2 -0.000004 0.000007 3.713254 -3.139539 0.026087 3.120120
    3 18.045721 0.000000 0.000000 0.000000 0.000000 -0.121501
    4 17.597595 0.000000 0.000000 -0.002613 0.026036 0.099967
    5 0.000004 -0.000003 -3.713254 3.139069 -0.017354 3.117144
    6 18.045725 0.000000 0.000000 0.000000 0.000000 -0.127551
    7 17.597597 0.000000 0.000000 0.002950 -0.017289 0.103055
    8 1.293671 0.684478 -0.000001 -0.000004 -0.000001 0.061735
    9 5.309686 -0.003834 0.000000 -0.258329 0.042905 0.160134
    10 4.826790 -0.004591 0.000000 0.000000 0.000000 0.183152
    11 5.792768 -0.005304 0.000000 0.000000 0.000000 0.292136
    12 6.662314 -0.001453 0.000000 0.000000 -0.000001 0.209228
    13 2.046984 -0.000002 0.000000 0.150747 -0.214838 0.100651
    14 1.038628 0.548043 -0.144017 -0.000001 0.000001 -1.849906
    15 -0.064003 -0.023525 0.026161 0.000000 0.000000 0.000000
    16 3.013920 3.984632 -0.088975 -0.000001 0.000001 -1.849906
    17 -0.084188 -0.025625 -0.001098 0.000000 0.000000 0.000000
    18 4.778185 3.972485 -0.079803 -0.000001 0.000001 -1.849906
    19 -0.058556 -0.021328 0.004244 0.000000 0.000000 0.000000
    20 1.640597 -1.968779 -0.099219 -0.000001 0.000001 -1.849906
    21 0.055573 -0.028913 0.000000 0.000000 0.000000 0.000000
    22 -3.397188 0.661759 4.341910 0.993041 -1.203855 1.970489
    23 4.827231 0.000000 0.000002 -0.373036 0.902705 -0.788738
    24 11.139760 0.000000 0.000000 0.000000 0.000000 -1.914924
    25 10.314597 0.000000 -0.000001 -1.174256 -0.598196 -0.222490
    26 1.646739 0.449549 -1.702246 0.369699 -0.012752 0.801965
    27 0.928312 0.000000 -0.000001 0.000000 0.000000 0.000000
    28 0.928313 -0.000001 0.000002 0.000000 0.000000 0.000000
    29 2.975833 -0.386307 -0.044143 0.001097 -0.043611 -0.043588
    30 1.438886 -0.000001 0.000000 0.000000 0.000000 1.334476
    31 1.485302 -0.000001 0.000000 0.000000 0.000000 0.793705
    32 -3.131623 0.610575 -4.140396 -1.200537 1.043327 1.783053
    33 4.972046 0.000000 0.000000 0.158023 -0.743033 -0.227556
    34 11.585350 0.000000 0.000001 0.000000 0.000000 -1.961934
    35 10.127054 -0.000001 -0.000001 1.667216 0.765311 -0.200791
    36 1.533672 0.109715 1.664490 -0.264755 -0.055959 0.783109
    37 0.928312 0.000001 0.000000 0.000000 0.000000 -0.453542
    38 0.928313 0.000000 0.000002 0.000000 0.000000 0.000000
    39 2.683747 -0.427339 0.044205 -0.005786 0.043239 -0.157091
    40 1.438886 -0.000001 0.000002 0.000000 0.000000 0.732659
    41 1.485300 0.000000 0.000000 0.000000 0.000000 1.168771
  time 29
    0 0.233849 0.368164 39.526119 0.000000 0.000000 -1.570795
    1 0.000000 0.000000 0.000000 0.000000 -1.570451 -1.570795
    2 -0.000004 0.000007 3.713254 -3.139539 0.026087 3.120120
    3 18.045721 0.000000 0.000000 0.000000 0.000000 -0.121501
    4 17.597595 0.000000 0.000000 -0.002613 0.026036 0.099967
    5 0.000004 -0.000003 -3.713254 3.139069 -0.017354 3.117144
    6 18.045725 0.000000 0.000000 0.000000 0.000000 -0.127551
    7 17.597597 0.000000 0.000000 0.002950 -0.017289 0.103055
    8 1.293671 0.684478 -0.000001 -0.000004 -0.000001 0.061735
    9 5.309686 -0.003834 0.000000 -0.258329 0.042905 0.160134
    10 4.826790 -0.004591 0.000000 0.000000 0.000000 0.183152
    11 5.792768 -0.005304 0.000000 0.000000 0.000000 0.289644
    12 6.662314 -0.001453 0.000000 0.000000 -0.000001 0.209228
    13 2.046984 -0.000002 0.000000 0.150747 -0.214838 0.103123
    14 1.038628 0.548043 -0.144017 -0.000001 0.000001 -1.849906
    15 -0.064003 -0.023525 0.026161 0.000000 0.000000 0.000000
    16 3.013920 3.984632 -0.088975 -0.000001 0.000001 -1.849906
    17 -0.084188 -0.025625 -0.001098 0.000000 0.000000 0.000000
    18 4.778185 3.972485 -0.079803 -0.000001 0.000001 -1.849906
    19 -0.058556 -0.021328 0.004244 0.000000 0.000000 0.000000
    20 1.640597 -1.968779 -0.099219 -0.000001 0.000001 -1.849906
    21 0.055573 -0.028913 0.000000 0.000000 0.000000 0.000000
    22 -3.397188 0.661759 4.341910 1.001765 -1.206010 1.961093
    23 4.827231 0.000000 0.000002 -0.375797 0.907641 -0.790400
    24 11.139760 0.000000 0.000000 0.000000 0.000000 -1.914924
    25 10.314597 0.000000 -0.000001 -1.174256 -0.598196 -0.222490
    26 1.646739 0.449549 -1.702246 0.369699 -0.012752 0.801965
    27 0.928312 0.000000 -0.000001 0.000000 0.000000 0.000000
    28 0.928313 -0.000001 0.000002 0.000000 0.000000 0.000000
    29 2.975833 -0.386307 -0.044143 0.001097 -0.043611 -0.043588
    30 1.438886 -0.000001 0.000000 0.000000 0.000000 1.334476
    31 1.485302 -0.000001 0.000000 0.000000 0.000000 0.793705
    32 -3.131623 0.610575 -4.140396 -1.207632 1.044938 1.774712
    33 4.972046 0.000000 0.000000 0.156940 -0.748985 -0.226371
    34 11.585350 0.000000 0.000001 0.000000 0.000000 -1.961934
    35 10.127054 -0.000001 -0.000001 1.667216 0.765311 -0.200791
    36 1.533672 0.109715 1.664490 -0.264755 -0.055971 0.783109
    37 0.928312 0.000001 0.000000 0.000000 0.000000 -0.453542
    38 0.928313 0.000000 0.000002 0.000000 0.000000 0.000000
    39 2.683747 -0.427339 0.044205 -0.005786 0.043239 -0.157091
    40 1.438886 -0.000001 0.000002 0.000000 0.000000 0.732659
    41 1.485300 0.000000 0.000000 0.000000 0.000000 1.168771
  time 30
    0 0.233849 0.368164 39.526119 0.000000 0.000000 -1.570795
    1 0.000000 0.000000 0.000000 0.000000 -1.570451 -1.570795
    2 -0.000004 0.000007 3.713254 -3.139539 0.026087 3.120120
    3 18.045721 0.000000 0.000000 0.000000 0.000000 -0.121501
    4 17.597595 0.000000 0.000000 -0.002613 0.026036 0.099967
    5 0.000004 -0.000003 -3.713254 3.139069 -0.017354 3.117144
    6 18.045725 0.000000 0.000000 0.000000 0.000000 -0.127551
    7 17.597597 0.000000 0.000000 0.002950 -0.017289 0.103055
    8 1.293671 0.684478 -0.000001 -0.000004 -0.000001 0.061735
    9 5.309686 -0.003834 0.000000 -0.258329 0.042905 0.160134
    10 4.826790 -0.004591 0.000000 0.000000 0.000000 0.183152
    11 5.792768 -0.005304 0.000000 0.000000 0.000000 0.287817
    12 6.662314 -0.001453 0.000000 0.000000 -0.000001 0.209228
    13 2.046984 -0.000002 0.000000 0.150747 -0.214838 0.104966
    14 1.038628 0.548043 -0.144017 -0.000001 0.000001 -1.849906
    15 -0.064003 -0.023525 0.026161 0.000000 0.000000 0.000000
    16 3.013920 3.984632 -0.088975 -0.000001 0.000001 -1.849906
    17 -0.084188 -0.025625 -0.001098 0.000000 0.000000 0.000000
    18 4.778185 3.972485 -0.079803 -0.000001 0.000001 -1.849906
    19 -0.058556 -0.021328 0.004244 0.000000 0.000000 0.000000
    20 1.640597 -1.968779 -0.099219 -0.000001 0.000001 -1.849906
    21 0.055573 -0.028913 0.000000 0.000000 0.000000 0.000000
    22 -3.397188 0.661759 4.341910 1.008285 -1.207587 1.954190
    23 4.827231 0.000000 0.000002 -0.377911 0.911300 -0.791713
    24 11.139760 0.000000 0.000000 0.000000 0.000000 -1.914924
    25 10.314597 0.000000 -0.000001 -1.174256 -0.598196 -0.222490
    26 1.646739 0.449549 -1.702246 0.369699 -0.012752 0.801965
    27 0.928312 0.000000 -0.000001 0.000000 0.000000 0.000000
    28 0.928313 -0.000001 0.000002 0.000000 0.000000 0.000000
    29 2.975833 -0.386307 -0.044143 0.001097 -0.043611 -0.043588
    30 1.438886 -0.000001 0.000000 0.000000 0.000000 1.334476
    31 1.485302 -0.000001 0.000000 0.000000 0.000000 0.793705
    32 -3.131623 0.610575 -4.140396 -1.213001 1.046068 1.768576
    33 4.972046 0.000000 0.000000 0.156089 -0.753329 -0.225448
    34 11.585350 0.000000 0.000001 0.000000 0.000000 -1.961934
    35 10.127054 -0.000001 -0.000001 1.667216 0.765311 -0.200791
    36 1.533672 0.109715 1.664490 -0.264755 -0.055971 0.783109
    37 0.928312 0.000001 0.000000 0.000000 0.000000 -0.453542
    38 0.928313 0.000000 0.000002 0.000000 0.000000 0.000000
    39 2.683747 -0.427339 0.044205 -0.005786 0.043239 -0.157091
    40 1.438886 -0.000001 0.000002 0.000000 0.000000 0.732659
    41 1.485300 0.000000 0.000000 0.000000 0.000000 1.168771
end
