// Created by Crowbar 0.44.0.0
version 1
nodes
  0 "Bip01" -1
  1 "Bip01 Pelvis" 0
  2 "Bip01 L Leg" 1
  3 "Bip01 L Leg1" 2
  4 "Bip01 L Foot" 3
  5 "Bip01 R Leg" 1
  6 "Bip01 R Leg1" 5
  7 "Bip01 R Foot" 6
  8 "Bip01 Spine" 1
  9 "Bip01 Spine1" 8
  10 "Bip01 Spine2" 9
  11 "Bip01 Spine3" 10
  12 "Bip01 Neck" 11
  13 "Bip01 Head" 12
  14 "Dummy08" 13
  15 "Bone02" 14
  16 "Dummy04" 13
  17 "Bone05" 16
  18 "Dummy03" 13
  19 "Bone07" 18
  20 "Dummy10" 13
  21 "Bone13" 20
  22 "Bip01 L Arm" 12
  23 "Bip01 L Arm1" 22
  24 "Bip01 L Arm2" 23
  25 "Bip01 L Hand" 24
  26 "Bip01 L Finger0" 25
  27 "Bip01 L Finger01" 26
  28 "Bip01 L Finger02" 27
  29 "Bip01 L Finger1" 25
  30 "Bip01 L Finger11" 29
  31 "Bip01 L Finger12" 30
  32 "Bip01 R Arm" 12
  33 "Bip01 R Arm1" 32
  34 "Bip01 R Arm2" 33
  35 "Bip01 R Hand" 34
  36 "Bip01 R Finger0" 35
  37 "Bip01 R Finger01" 36
  38 "Bip01 R Finger02" 37
  39 "Bip01 R Finger1" 35
  40 "Bip01 R Finger11" 39
  41 "Bip01 R Finger12" 40
end
skeleton
  time 0
    0 0.233849 0.368164 39.526119 0.000000 0.000000 -1.570795
    1 0.000000 0.000000 0.000000 0.000000 -1.570451 -1.570795
    2 -0.000004 0.000007 3.713254 -3.139539 0.026087 3.120120
    3 18.045721 0.000000 0.000000 0.000000 0.000000 -0.121501
    4 17.597595 0.000000 0.000000 -0.002613 0.026036 0.099967
    5 0.000004 -0.000003 -3.713254 3.139069 -0.017354 3.117144
    6 18.045725 0.000000 0.000000 0.000000 0.000000 -0.127551
    7 17.597597 0.000000 0.000000 0.002950 -0.017289 0.103055
    8 1.293671 0.684478 -0.000001 -0.000004 -0.000001 0.061853
    9 5.309686 -0.003834 0.000000 -0.153876 0.031280 0.198199
    10 4.826790 -0.004591 0.000000 -0.285774 0.034803 0.117093
    11 5.792768 -0.005304 0.000000 -0.155281 0.023214 0.146464
    12 6.662314 -0.001453 0.000000 -0.000144 -0.183162 0.296580
    13 2.046984 -0.000002 0.000000 0.482141 -0.189283 0.016869
    14 1.038628 0.548043 -0.144017 -0.000001 0.000001 -1.849906
    15 -0.064003 -0.023525 0.026161 0.000000 0.000000 0.000000
    16 3.013920 3.984632 -0.088975 -0.000001 0.000001 -1.849906
    17 -0.084188 -0.025625 -0.001098 0.000000 0.000000 0.000000
    18 4.778185 3.972485 -0.079803 -0.000001 0.000001 -1.849906
    19 -0.058556 -0.021328 0.004244 0.000000 0.000000 0.000000
    20 1.640597 -1.968779 -0.099219 -0.000001 0.000001 -1.849906
    21 0.055573 -0.028913 0.000000 0.000000 0.000000 0.000000
    22 -2.483098 0.954736 4.873176 1.539901 -1.199855 1.370688
    23 4.827231 0.000000 0.000002 -0.140617 0.758800 -0.889463
    24 11.139760 0.000000 0.000000 0.000000 0.000000 -1.805809
    25 10.314597 0.000000 -0.000001 -1.657094 -0.276301 -0.099925
    26 1.646739 0.449549 -1.702246 0.441914 0.155087 1.184543
    27 0.928312 0.000000 -0.000001 0.000000 0.000000 0.000000
    28 0.928313 -0.000001 0.000002 0.000000 0.000000 0.000000
    29 2.975833 -0.386307 -0.044143 -0.021506 -0.037954 0.497588
    30 1.438886 -0.000001 0.000000 0.000000 0.000000 0.889650
    31 1.485302 -0.000001 0.000000 0.000000 0.000000 1.116422
    32 -3.768362 0.884021 -3.515377 0.144371 1.191883 2.983096
    33 4.972046 0.000000 0.000000 -0.166790 -1.014923 -0.244090
    34 11.585350 0.000000 0.000001 0.000000 0.000000 -1.968440
    35 10.127054 -0.000001 -0.000001 1.569752 0.000000 -0.069778
    36 1.533672 0.109715 1.664490 -0.264755 -0.055971 0.783109
    37 0.928312 0.000001 0.000000 0.000000 0.000000 -0.453542
    38 0.928313 0.000000 0.000002 0.000000 0.000000 0.000000
    39 2.683747 -0.427339 0.044205 -0.005786 0.043239 -0.157091
    40 1.438886 -0.000001 0.000002 0.000000 0.000000 0.732659
    41 1.485300 0.000000 0.000000 0.000000 0.000000 1.168771
  time 1
    0 0.233849 0.368164 39.526119 0.000000 0.000000 -1.570795
    1 0.000000 0.000000 0.000000 0.000000 -1.570451 -1.570795
    2 -0.000004 0.000007 3.713254 -3.139539 0.026087 3.120120
    3 18.045721 0.000000 0.000000 0.000000 0.000000 -0.121501
    4 17.597595 0.000000 0.000000 -0.002613 0.026036 0.099967
    5 0.000004 -0.000003 -3.713254 3.139069 -0.017354 3.117144
    6 18.045725 0.000000 0.000000 0.000000 0.000000 -0.127551
    7 17.597597 0.000000 0.000000 0.002950 -0.017289 0.103055
    8 1.293671 0.684478 -0.000001 -0.000004 -0.000001 0.061853
    9 5.309686 -0.003834 0.000000 -0.153876 0.031280 0.198199
    10 4.826790 -0.004591 0.000000 -0.285742 0.035115 0.118151
    11 5.792768 -0.005304 0.000000 -0.155281 0.023214 0.146464
    12 6.662314 -0.001453 0.000000 -0.000144 -0.183162 0.296580
    13 2.046984 -0.000002 0.000000 0.482012 -0.189126 0.015835
    14 1.038628 0.548043 -0.144017 -0.000001 0.000001 -1.849906
    15 -0.064003 -0.023525 0.026161 0.000000 0.000000 0.000000
    16 3.013920 3.984632 -0.088975 -0.000001 0.000001 -1.849906
    17 -0.084188 -0.025625 -0.001098 0.000000 0.000000 0.000000
    18 4.778185 3.972485 -0.079803 -0.000001 0.000001 -1.849906
    19 -0.058556 -0.021328 0.004244 0.000000 0.000000 0.000000
    20 1.640597 -1.968779 -0.099219 -0.000001 0.000001 -1.849906
    21 0.055573 -0.028913 0.000000 0.000000 0.000000 0.000000
    22 -2.483098 0.954736 4.873176 1.532423 -1.199778 1.378646
    23 4.827231 0.000000 0.000002 -0.137797 0.755906 -0.887713
    24 11.139760 0.000000 0.000000 0.000000 0.000000 -1.805809
    25 10.314597 0.000000 -0.000001 -1.658982 -0.343528 -0.093703
    26 1.646739 0.449549 -1.702246 0.441914 0.155087 1.184543
    27 0.928312 0.000000 -0.000001 0.000000 0.000000 0.000000
    28 0.928313 -0.000001 0.000002 0.000000 0.000000 0.000000
    29 2.975833 -0.386307 -0.044143 -0.021506 -0.037954 0.497588
    30 1.438886 -0.000001 0.000000 0.000000 0.000000 0.717306
    31 1.485302 -0.000001 0.000000 0.000000 0.000000 0.869190
    32 -3.768362 0.884021 -3.515377 0.142262 1.186117 2.980891
    33 4.972046 0.000000 0.000000 -0.167408 -1.009212 -0.243761
    34 11.585350 0.000000 0.000001 0.000000 0.000000 -1.968370
    35 10.127054 -0.000001 -0.000001 1.569752 0.000000 -0.069778
    36 1.533672 0.109715 1.664490 -0.264755 -0.055959 0.783109
    37 0.928312 0.000001 0.000000 0.000000 0.000000 -0.453542
    38 0.928313 0.000000 0.000002 0.000000 0.000000 0.000000
    39 2.683747 -0.427339 0.044205 -0.005786 0.043239 -0.157091
    40 1.438886 -0.000001 0.000002 0.000000 0.000000 0.732659
    41 1.485300 0.000000 0.000000 0.000000 0.000000 1.168771
  time 2
    0 0.233849 0.368164 39.526119 0.000000 0.000000 -1.570795
    1 0.000000 0.000000 0.000000 0.000000 -1.570451 -1.570795
    2 -0.000004 0.000007 3.713254 -3.139539 0.026087 3.120120
    3 18.045721 0.000000 0.000000 0.000000 0.000000 -0.121501
    4 17.597595 0.000000 0.000000 -0.002613 0.026036 0.099967
    5 0.000004 -0.000003 -3.713254 3.139069 -0.017354 3.117144
    6 18.045725 0.000000 0.000000 0.000000 0.000000 -0.127551
    7 17.597597 0.000000 0.000000 0.002950 -0.017289 0.103055
    8 1.293671 0.684478 -0.000001 -0.000004 -0.000001 0.061853
    9 5.309686 -0.003834 0.000000 -0.153876 0.031280 0.198199
    10 4.826790 -0.004591 0.000000 -0.285676 0.035534 0.119562
    11 5.792768 -0.005304 0.000000 -0.155281 0.023214 0.146464
    12 6.662314 -0.001453 0.000000 -0.000144 -0.183162 0.296580
    13 2.046984 -0.000002 0.000000 0.481839 -0.188923 0.014397
    14 1.038628 0.548043 -0.144017 -0.000001 0.000001 -1.849906
    15 -0.064003 -0.023525 0.026161 0.000000 0.000000 0.000000
    16 3.013920 3.984632 -0.088975 -0.000001 0.000001 -1.849906
    17 -0.084188 -0.025625 -0.001098 0.000000 0.000000 0.000000
    18 4.778185 3.972485 -0.079803 -0.000001 0.000001 -1.849906
    19 -0.058556 -0.021328 0.004244 0.000000 0.000000 0.000000
    20 1.640597 -1.968779 -0.099219 -0.000001 0.000001 -1.849906
    21 0.055573 -0.028913 0.000000 0.000000 0.000000 0.000000
    22 -2.483098 0.954736 4.873176 1.520056 -1.199547 1.391877
    23 4.827231 0.000000 0.000002 -0.133098 0.751396 -0.884737
    24 11.139760 0.000000 0.000000 0.000000 0.000000 -1.805809
    25 10.314597 0.000000 -0.000001 -1.662307 -0.432085 -0.085007
    26 1.646739 0.449549 -1.702246 0.441914 0.155087 1.184543
    27 0.928312 0.000000 -0.000001 0.000000 0.000000 0.000000
    28 0.928313 -0.000001 0.000002 0.000000 0.000000 0.000000
    29 2.975833 -0.386307 -0.044143 -0.021506 -0.037954 0.497588
    30 1.438886 -0.000001 0.000000 0.000000 0.000000 0.501284
    31 1.485302 -0.000001 0.000000 0.000000 0.000000 0.553812
    32 -3.768362 0.884021 -3.515377 0.139577 1.178260 2.977919
    33 4.972046 0.000000 0.000000 -0.168337 -1.001409 -0.243366
    34 11.585350 0.000000 0.000001 0.000000 0.000000 -1.968370
    35 10.127054 -0.000001 -0.000001 1.569752 0.000000 -0.069778
    36 1.533672 0.109715 1.664490 -0.264755 -0.055971 0.783109
    37 0.928312 0.000001 0.000000 0.000000 0.000000 -0.453542
    38 0.928313 0.000000 0.000002 0.000000 0.000000 0.000000
    39 2.683747 -0.427339 0.044205 -0.005786 0.043239 -0.157091
    40 1.438886 -0.000001 0.000002 0.000000 0.000000 0.732659
    41 1.485300 0.000000 0.000000 0.000000 0.000000 1.168771
  time 3
    0 0.233849 0.368164 39.526119 0.000000 0.000000 -1.570795
    1 0.000000 0.000000 0.000000 0.000000 -1.570451 -1.570795
    2 -0.000004 0.000007 3.713254 -3.139539 0.026087 3.120120
    3 18.045721 0.000000 0.000000 0.000000 0.000000 -0.121501
    4 17.597595 0.000000 0.000000 -0.002613 0.026036 0.099967
    5 0.000004 -0.000003 -3.713254 3.139069 -0.017354 3.117144
    6 18.045725 0.000000 0.000000 0.000000 0.000000 -0.127551
    7 17.597597 0.000000 0.000000 0.002950 -0.017289 0.103055
    8 1.293671 0.684478 -0.000001 -0.000004 -0.000001 0.061853
    9 5.309686 -0.003834 0.000000 -0.153876 0.031280 0.198199
    10 4.826790 -0.004591 0.000000 -0.285627 0.036038 0.121304
    11 5.792768 -0.005304 0.000000 -0.155281 0.023214 0.146464
    12 6.662314 -0.001453 0.000000 -0.000144 -0.183162 0.296580
    13 2.046984 -0.000002 0.000000 0.481667 -0.188653 0.012644
    14 1.038628 0.548043 -0.144017 -0.000001 0.000001 -1.849906
    15 -0.064003 -0.023525 0.026161 0.000000 0.000000 0.000000
    16 3.013920 3.984632 -0.088975 -0.000001 0.000001 -1.849906
    17 -0.084188 -0.025625 -0.001098 0.000000 0.000000 0.000000
    18 4.778185 3.972485 -0.079803 -0.000001 0.000001 -1.849906
    19 -0.058556 -0.021328 0.004244 0.000000 0.000000 0.000000
    20 1.640597 -1.968779 -0.099219 -0.000001 0.000001 -1.849906
    21 0.055573 -0.028913 0.000000 0.000000 0.000000 0.000000
    22 -2.483098 0.954736 4.873176 1.502319 -1.199163 1.411052
    23 4.827231 0.000000 0.000002 -0.126285 0.745269 -0.880362
    24 11.139760 0.000000 0.000000 0.000000 0.000000 -1.805809
    25 10.314597 0.000000 -0.000001 -1.664285 -0.476091 -0.080418
    26 1.646739 0.449549 -1.702246 0.441914 0.155087 1.184543
    27 0.928312 0.000000 -0.000001 0.000000 0.000000 0.000000
    28 0.928313 -0.000001 0.000002 0.000000 0.000000 0.000000
    29 2.975833 -0.386307 -0.044143 -0.021506 -0.037954 0.497588
    30 1.438886 -0.000001 0.000000 0.000000 0.000000 0.444824
    31 1.485302 -0.000001 0.000000 0.000000 0.000000 0.444826
    32 -3.768362 0.884021 -3.515377 0.136413 1.168678 2.974564
    33 4.972046 0.000000 0.000000 -0.169342 -0.991837 -0.242905
    34 11.585350 0.000000 0.000001 0.000000 0.000000 -1.968440
    35 10.127054 -0.000001 -0.000001 1.569752 0.000000 -0.069778
    36 1.533672 0.109715 1.664490 -0.264755 -0.055971 0.783109
    37 0.928312 0.000001 0.000000 0.000000 0.000000 -0.453542
    38 0.928313 0.000000 0.000002 0.000000 0.000000 0.000000
    39 2.683747 -0.427339 0.044205 -0.005786 0.043239 -0.157091
    40 1.438886 -0.000001 0.000002 0.000000 0.000000 0.732659
    41 1.485300 0.000000 0.000000 0.000000 0.000000 1.168771
  time 4
    0 0.233849 0.368164 39.526119 0.000000 0.000000 -1.570795
    1 0.000000 0.000000 0.000000 0.000000 -1.570451 -1.570795
    2 -0.000004 0.000007 3.713254 -3.139539 0.026087 3.120120
    3 18.045721 0.000000 0.000000 0.000000 0.000000 -0.121501
    4 17.597595 0.000000 0.000000 -0.002613 0.026036 0.099967
    5 0.000004 -0.000003 -3.713254 3.139069 -0.017354 3.117144
    6 18.045725 0.000000 0.000000 0.000000 0.000000 -0.127551
    7 17.597597 0.000000 0.000000 0.002950 -0.017289 0.103055
    8 1.293671 0.684478 -0.000001 -0.000004 -0.000001 0.061853
    9 5.309686 -0.003834 0.000000 -0.153876 0.031280 0.198199
    10 4.826790 -0.004591 0.000000 -0.285545 0.036625 0.123311
    11 5.792768 -0.005304 0.000000 -0.155281 0.023214 0.146464
    12 6.662314 -0.001453 0.000000 -0.000144 -0.183162 0.296580
    13 2.046984 -0.000002 0.000000 0.481408 -0.188360 0.010666
    14 1.038628 0.548043 -0.144017 -0.000001 0.000001 -1.849906
    15 -0.064003 -0.023525 0.026161 0.000000 0.000000 0.000000
    16 3.013920 3.984632 -0.088975 -0.000001 0.000001 -1.849906
    17 -0.084188 -0.025625 -0.001098 0.000000 0.000000 0.000000
    18 4.778185 3.972485 -0.079803 -0.000001 0.000001 -1.849906
    19 -0.058556 -0.021328 0.004244 0.000000 0.000000 0.000000
    20 1.640597 -1.968779 -0.099219 -0.000001 0.000001 -1.849906
    21 0.055573 -0.028913 0.000000 0.000000 0.000000 0.000000
    22 -2.483098 0.954736 4.873176 1.480652 -1.198470 1.434254
    23 4.827231 0.000000 0.000002 -0.118003 0.737865 -0.875199
    24 11.139760 0.000000 0.000000 0.000000 0.000000 -1.805809
    25 10.314597 0.000000 -0.000001 -1.664195 -0.474895 -0.080543
    26 1.646739 0.449549 -1.702246 0.441914 0.155087 1.184543
    27 0.928312 0.000000 -0.000001 0.000000 0.000000 0.000000
    28 0.928313 -0.000001 0.000002 0.000000 0.000000 0.000000
    29 2.975833 -0.386307 -0.044143 -0.024622 -0.036013 0.581961
    30 1.438886 -0.000001 0.000000 0.000000 0.000000 0.561384
    31 1.485302 -0.000001 0.000000 0.000000 0.000000 0.570682
    32 -3.768362 0.884021 -3.515377 0.132962 1.157740 2.970825
    33 4.972046 0.000000 0.000000 -0.170580 -0.980977 -0.242443
    34 11.585350 0.000000 0.000001 0.000000 0.000000 -1.968370
    35 10.127054 -0.000001 -0.000001 1.569752 0.000000 -0.069778
    36 1.533672 0.109715 1.664490 -0.264755 -0.055959 0.783109
    37 0.928312 0.000001 0.000000 0.000000 0.000000 -0.453542
    38 0.928313 0.000000 0.000002 0.000000 0.000000 0.000000
    39 2.683747 -0.427339 0.044205 -0.005786 0.043239 -0.157091
    40 1.438886 -0.000001 0.000002 0.000000 0.000000 0.732659
    41 1.485300 0.000000 0.000000 0.000000 0.000000 1.168771
  time 5
    0 0.233849 0.368164 39.526119 0.000000 0.000000 -1.570795
    1 0.000000 0.000000 0.000000 0.000000 -1.570451 -1.570795
    2 -0.000004 0.000007 3.713254 -3.139539 0.026087 3.120120
    3 18.045721 0.000000 0.000000 0.000000 0.000000 -0.121501
    4 17.597595 0.000000 0.000000 -0.002613 0.026036 0.099967
    5 0.000004 -0.000003 -3.713254 3.139069 -0.017354 3.117144
    6 18.045725 0.000000 0.000000 0.000000 0.000000 -0.127551
    7 17.597597 0.000000 0.000000 0.002950 -0.017289 0.103055
    8 1.293671 0.684478 -0.000001 -0.000004 -0.000001 0.061853
    9 5.309686 -0.003834 0.000000 -0.153876 0.031280 0.198199
    10 4.826790 -0.004591 0.000000 -0.285462 0.037260 0.125472
    11 5.792768 -0.005304 0.000000 -0.155281 0.023214 0.146464
    12 6.662314 -0.001453 0.000000 -0.000144 -0.183162 0.296580
    13 2.046984 -0.000002 0.000000 0.481150 -0.188045 0.008463
    14 1.038628 0.548043 -0.144017 -0.000001 0.000001 -1.849906
    15 -0.064003 -0.023525 0.026161 0.000000 0.000000 0.000000
    16 3.013920 3.984632 -0.088975 -0.000001 0.000001 -1.849906
    17 -0.084188 -0.025625 -0.001098 0.000000 0.000000 0.000000
    18 4.778185 3.972485 -0.079803 -0.000001 0.000001 -1.849906
    19 -0.058556 -0.021328 0.004244 0.000000 0.000000 0.000000
    20 1.640597 -1.968779 -0.099219 -0.000001 0.000001 -1.849906
    21 0.055573 -0.028913 0.000000 0.000000 0.000000 0.000000
    22 -2.483098 0.954736 4.873176 1.456779 -1.197509 1.459853
    23 4.827231 0.000000 0.000002 -0.108958 0.729610 -0.869510
    24 11.139760 0.000000 0.000000 0.000000 0.000000 -1.805809
    25 10.314597 0.000000 -0.000001 -1.663386 -0.456632 -0.082472
    26 1.646739 0.449549 -1.702246 0.441914 0.155087 1.184543
    27 0.928312 0.000000 -0.000001 0.000000 0.000000 0.000000
    28 0.928313 -0.000001 0.000002 0.000000 0.000000 0.000000
    29 2.975833 -0.386307 -0.044143 -0.028517 -0.033005 0.694833
    30 1.438886 -0.000001 0.000000 0.000000 0.000000 0.750912
    31 1.485302 -0.000001 0.000000 0.000000 0.000000 0.795659
    32 -3.768362 0.884021 -3.515377 0.129415 1.145813 2.966894
    33 4.972046 0.000000 0.000000 -0.171818 -0.969072 -0.241982
    34 11.585350 0.000000 0.000001 0.000000 0.000000 -1.968440
    35 10.127054 -0.000001 -0.000001 1.569752 0.000000 -0.069778
    36 1.533672 0.109715 1.664490 -0.264755 -0.055971 0.783109
    37 0.928312 0.000001 0.000000 0.000000 0.000000 -0.453542
    38 0.928313 0.000000 0.000002 0.000000 0.000000 0.000000
    39 2.683747 -0.427339 0.044205 -0.005786 0.043239 -0.157091
    40 1.438886 -0.000001 0.000002 0.000000 0.000000 0.732659
    41 1.485300 0.000000 0.000000 0.000000 0.000000 1.168771
  time 6
    0 0.233849 0.368164 39.526119 0.000000 0.000000 -1.570795
    1 0.000000 0.000000 0.000000 0.000000 -1.570451 -1.570795
    2 -0.000004 0.000007 3.713254 -3.139539 0.026087 3.120120
    3 18.045721 0.000000 0.000000 0.000000 0.000000 -0.121501
    4 17.597595 0.000000 0.000000 -0.002613 0.026036 0.099967
    5 0.000004 -0.000003 -3.713254 3.139069 -0.017354 3.117144
    6 18.045725 0.000000 0.000000 0.000000 0.000000 -0.127551
    7 17.597597 0.000000 0.000000 0.002950 -0.017289 0.103055
    8 1.293671 0.684478 -0.000001 -0.000004 -0.000001 0.061853
    9 5.309686 -0.003834 0.000000 -0.153876 0.031280 0.198199
    10 4.826790 -0.004591 0.000000 -0.285380 0.037931 0.127743
    11 5.792768 -0.005304 0.000000 -0.155281 0.023214 0.146464
    12 6.662314 -0.001453 0.000000 -0.000144 -0.183162 0.296580
    13 2.046984 -0.000002 0.000000 0.480891 -0.187707 0.006171
    14 1.038628 0.548043 -0.144017 -0.000001 0.000001 -1.849906
    15 -0.064003 -0.023525 0.026161 0.000000 0.000000 0.000000
    16 3.013920 3.984632 -0.088975 -0.000001 0.000001 -1.849906
    17 -0.084188 -0.025625 -0.001098 0.000000 0.000000 0.000000
    18 4.778185 3.972485 -0.079803 -0.000001 0.000001 -1.849906
    19 -0.058556 -0.021328 0.004244 0.000000 0.000000 0.000000
    20 1.640597 -1.968779 -0.099219 -0.000001 0.000001 -1.849906
    21 0.055573 -0.028913 0.000000 0.000000 0.000000 0.000000
    22 -2.483098 0.954736 4.873176 1.433386 -1.196355 1.485069
    23 4.827231 0.000000 0.000002 -0.100206 0.721355 -0.864085
    24 11.139760 0.000000 0.000000 0.000000 0.000000 -1.805809
    25 10.314597 0.000000 -0.000001 -1.662307 -0.432194 -0.084992
    26 1.646739 0.449549 -1.702246 0.441914 0.155087 1.184543
    27 0.928312 0.000000 -0.000001 0.000000 0.000000 0.000000
    28 0.928313 -0.000001 0.000002 0.000000 0.000000 0.000000
    29 2.975833 -0.386307 -0.044143 -0.031729 -0.029937 0.796642
    30 1.438886 -0.000001 0.000000 0.000000 0.000000 0.946279
    31 1.485302 -0.000001 0.000000 0.000000 0.000000 1.024258
    32 -3.768362 0.884021 -3.515377 0.125867 1.133263 2.963059
    33 4.972046 0.000000 0.000000 -0.173133 -0.956603 -0.241521
    34 11.585350 0.000000 0.000001 0.000000 0.000000 -1.968370
    35 10.127054 -0.000001 -0.000001 1.569752 0.000000 -0.069778
    36 1.533672 0.109715 1.664490 -0.264755 -0.055971 0.783109
    37 0.928312 0.000001 0.000000 0.000000 0.000000 -0.453542
    38 0.928313 0.000000 0.000002 0.000000 0.000000 0.000000
    39 2.683747 -0.427339 0.044205 -0.005786 0.043239 -0.157091
    40 1.438886 -0.000001 0.000002 0.000000 0.000000 0.732659
    41 1.485300 0.000000 0.000000 0.000000 0.000000 1.168771
  time 7
    0 0.233849 0.368164 39.526119 0.000000 0.000000 -1.570795
    1 0.000000 0.000000 0.000000 0.000000 -1.570451 -1.570795
    2 -0.000004 0.000007 3.713254 -3.139539 0.026087 3.120120
    3 18.045721 0.000000 0.000000 0.000000 0.000000 -0.121501
    4 17.597595 0.000000 0.000000 -0.002613 0.026036 0.099967
    5 0.000004 -0.000003 -3.713254 3.139069 -0.017354 3.117144
    6 18.045725 0.000000 0.000000 0.000000 0.000000 -0.127551
    7 17.597597 0.000000 0.000000 0.002950 -0.017289 0.103055
    8 1.293671 0.684478 -0.000001 -0.000004 -0.000001 0.061853
    9 5.309686 -0.003834 0.000000 -0.153876 0.031280 0.198199
    10 4.826790 -0.004591 0.000000 -0.285298 0.038614 0.130058
    11 5.792768 -0.005304 0.000000 -0.155281 0.023214 0.146464
    12 6.662314 -0.001453 0.000000 -0.000144 -0.183162 0.296580
    13 2.046984 -0.000002 0.000000 0.480590 -0.187370 0.003879
    14 1.038628 0.548043 -0.144017 -0.000001 0.000001 -1.849906
    15 -0.064003 -0.023525 0.026161 0.000000 0.000000 0.000000
    16 3.013920 3.984632 -0.088975 -0.000001 0.000001 -1.849906
    17 -0.084188 -0.025625 -0.001098 0.000000 0.000000 0.000000
    18 4.778185 3.972485 -0.079803 -0.000001 0.000001 -1.849906
    19 -0.058556 -0.021328 0.004244 0.000000 0.000000 0.000000
    20 1.640597 -1.968779 -0.099219 -0.000001 0.000001 -1.849906
    21 0.055573 -0.028913 0.000000 0.000000 0.000000 0.000000
    22 -2.483098 0.954736 4.873176 1.411240 -1.195047 1.508846
    23 4.827231 0.000000 0.000002 -0.091983 0.713356 -0.859184
    24 11.139760 0.000000 0.000000 0.000000 0.000000 -1.805809
    25 10.314597 0.000000 -0.000001 -1.661229 -0.406972 -0.087543
    26 1.646739 0.449549 -1.702246 0.441914 0.155087 1.184543
    27 0.928312 0.000000 -0.000001 0.000000 0.000000 0.000000
    28 0.928313 -0.000001 0.000002 0.000000 0.000000 0.000000
    29 2.975833 -0.386307 -0.044143 -0.033695 -0.027707 0.864867
    30 1.438886 -0.000001 0.000000 0.000000 0.000000 1.112571
    31 1.485302 -0.000001 0.000000 0.000000 0.000000 1.204822
    32 -3.768362 0.884021 -3.515377 0.122512 1.120460 2.959320
    33 4.972046 0.000000 0.000000 -0.174448 -0.943894 -0.241126
    34 11.585350 0.000000 0.000001 0.000000 0.000000 -1.968370
    35 10.127054 -0.000001 -0.000001 1.569752 0.000000 -0.069778
    36 1.533672 0.109715 1.664490 -0.264755 -0.055959 0.783109
    37 0.928312 0.000001 0.000000 0.000000 0.000000 -0.453542
    38 0.928313 0.000000 0.000002 0.000000 0.000000 0.000000
    39 2.683747 -0.427339 0.044205 -0.005786 0.043239 -0.157091
    40 1.438886 -0.000001 0.000002 0.000000 0.000000 0.732659
    41 1.485300 0.000000 0.000000 0.000000 0.000000 1.168771
  time 8
    0 0.233849 0.368164 39.526119 0.000000 0.000000 -1.570795
    1 0.000000 0.000000 0.000000 0.000000 -1.570451 -1.570795
    2 -0.000004 0.000007 3.713254 -3.139539 0.026087 3.120120
    3 18.045721 0.000000 0.000000 0.000000 0.000000 -0.121501
    4 17.597595 0.000000 0.000000 -0.002613 0.026036 0.099967
    5 0.000004 -0.000003 -3.713254 3.139069 -0.017354 3.117144
    6 18.045725 0.000000 0.000000 0.000000 0.000000 -0.127551
    7 17.597597 0.000000 0.000000 0.002950 -0.017289 0.103055
    8 1.293671 0.684478 -0.000001 -0.000004 -0.000001 0.061853
    9 5.309686 -0.003834 0.000000 -0.153876 0.031280 0.198199
    10 4.826790 -0.004591 0.000000 -0.285200 0.039285 0.132373
    11 5.792768 -0.005304 0.000000 -0.155281 0.023214 0.146464
    12 6.662314 -0.001453 0.000000 -0.000144 -0.183162 0.296580
    13 2.046984 -0.000002 0.000000 0.480331 -0.187032 0.001542
    14 1.038628 0.548043 -0.144017 -0.000001 0.000001 -1.849906
    15 -0.064003 -0.023525 0.026161 0.000000 0.000000 0.000000
    16 3.013920 3.984632 -0.088975 -0.000001 0.000001 -1.849906
    17 -0.084188 -0.025625 -0.001098 0.000000 0.000000 0.000000
    18 4.778185 3.972485 -0.079803 -0.000001 0.000001 -1.849906
    19 -0.058556 -0.021328 0.004244 0.000000 0.000000 0.000000
    20 1.640597 -1.968779 -0.099219 -0.000001 0.000001 -1.849906
    21 0.055573 -0.028913 0.000000 0.000000 0.000000 0.000000
    22 -2.483098 0.954736 4.873176 1.391202 -1.193700 1.530322
    23 4.827231 0.000000 0.000002 -0.084700 0.705782 -0.854983
    24 11.139760 0.000000 0.000000 0.000000 0.000000 -1.805809
    25 10.314597 0.000000 -0.000001 -1.660420 -0.385121 -0.089690
    26 1.646739 0.449549 -1.702246 0.441914 0.155087 1.184543
    27 0.928312 0.000000 -0.000001 0.000000 0.000000 0.000000
    28 0.928313 -0.000001 0.000002 0.000000 0.000000 0.000000
    29 2.975833 -0.386307 -0.044143 -0.033910 -0.027444 0.872693
    30 1.438886 -0.000001 0.000000 0.000000 0.000000 1.214318
    31 1.485302 -0.000001 0.000000 0.000000 0.000000 1.282737
    32 -3.768362 0.884021 -3.515377 0.119348 1.107769 2.955868
    33 4.972046 0.000000 0.000000 -0.175763 -0.931345 -0.240797
    34 11.585350 0.000000 0.000001 0.000000 0.000000 -1.968440
    35 10.127054 -0.000001 -0.000001 1.569752 0.000000 -0.069778
    36 1.533672 0.109715 1.664490 -0.264755 -0.055959 0.783109
    37 0.928312 0.000001 0.000000 0.000000 0.000000 -0.453542
    38 0.928313 0.000000 0.000002 0.000000 0.000000 0.000000
    39 2.683747 -0.427339 0.044205 -0.005786 0.043239 -0.157091
    40 1.438886 -0.000001 0.000002 0.000000 0.000000 0.732659
    41 1.485300 0.000000 0.000000 0.000000 0.000000 1.168771
  time 9
    0 0.233849 0.368164 39.526119 0.000000 0.000000 -1.570795
    1 0.000000 0.000000 0.000000 0.000000 -1.570451 -1.570795
    2 -0.000004 0.000007 3.713254 -3.139539 0.026087 3.120120
    3 18.045721 0.000000 0.000000 0.000000 0.000000 -0.121501
    4 17.597595 0.000000 0.000000 -0.002613 0.026036 0.099967
    5 0.000004 -0.000003 -3.713254 3.139069 -0.017354 3.117144
    6 18.045725 0.000000 0.000000 0.000000 0.000000 -0.127551
    7 17.597597 0.000000 0.000000 0.002950 -0.017289 0.103055
    8 1.293671 0.684478 -0.000001 -0.000004 -0.000001 0.061853
    9 5.309686 -0.003834 0.000000 -0.153876 0.031280 0.198199
    10 4.826790 -0.004591 0.000000 -0.285118 0.039933 0.134578
    11 5.792768 -0.005304 0.000000 -0.155281 0.023214 0.146464
    12 6.662314 -0.001453 0.000000 -0.000144 -0.183162 0.296580
    13 2.046984 -0.000002 0.000000 0.480073 -0.186694 -0.000661
    14 1.038628 0.548043 -0.144017 -0.000001 0.000001 -1.849906
    15 -0.064003 -0.023525 0.026161 0.000000 0.000000 0.000000
    16 3.013920 3.984632 -0.088975 -0.000001 0.000001 -1.849906
    17 -0.084188 -0.025625 -0.001098 0.000000 0.000000 0.000000
    18 4.778185 3.972485 -0.079803 -0.000001 0.000001 -1.849906
    19 -0.058556 -0.021328 0.004244 0.000000 0.000000 0.000000
    20 1.640597 -1.968779 -0.099219 -0.000001 0.000001 -1.849906
    21 0.055573 -0.028913 0.000000 0.000000 0.000000 0.000000
    22 -2.483098 0.954736 4.873176 1.370685 -1.192123 1.552469
    23 4.827231 0.000000 0.000002 -0.077181 0.698123 -0.850520
    24 11.139760 0.000000 0.000000 0.000000 0.000000 -1.805809
    25 10.314597 0.000000 -0.000001 -1.659701 -0.366249 -0.091525
    26 1.646739 0.449549 -1.702246 0.441914 0.155087 1.184543
    27 0.928312 0.000000 -0.000001 0.000000 0.000000 0.000000
    28 0.928313 -0.000001 0.000002 0.000000 0.000000 0.000000
    29 2.975833 -0.386307 -0.044143 -0.031082 -0.030608 0.775375
    30 1.438886 -0.000001 0.000000 0.000000 0.000000 1.216519
    31 1.485302 -0.000001 0.000000 0.000000 0.000000 1.193385
    32 -3.768362 0.884021 -3.515377 0.116568 1.095587 2.952609
    33 4.972046 0.000000 0.000000 -0.177000 -0.919279 -0.240467
    34 11.585350 0.000000 0.000001 0.000000 0.000000 -1.968440
    35 10.127054 -0.000001 -0.000001 1.569752 0.000000 -0.069778
    36 1.533672 0.109715 1.664490 -0.264755 -0.055971 0.783109
    37 0.928312 0.000001 0.000000 0.000000 0.000000 -0.453542
    38 0.928313 0.000000 0.000002 0.000000 0.000000 0.000000
    39 2.683747 -0.427339 0.044205 -0.005786 0.043239 -0.157091
    40 1.438886 -0.000001 0.000002 0.000000 0.000000 0.732659
    41 1.485300 0.000000 0.000000 0.000000 0.000000 1.168771
  time 10
    0 0.233849 0.368164 39.526119 0.000000 0.000000 -1.570795
    1 0.000000 0.000000 0.000000 0.000000 -1.570451 -1.570795
    2 -0.000004 0.000007 3.713254 -3.139539 0.026087 3.120120
    3 18.045721 0.000000 0.000000 0.000000 0.000000 -0.121501
    4 17.597595 0.000000 0.000000 -0.002613 0.026036 0.099967
    5 0.000004 -0.000003 -3.713254 3.139069 -0.017354 3.117144
    6 18.045725 0.000000 0.000000 0.000000 0.000000 -0.127551
    7 17.597597 0.000000 0.000000 0.002950 -0.017289 0.103055
    8 1.293671 0.684478 -0.000001 -0.000004 -0.000001 0.061853
    9 5.309686 -0.003834 0.000000 -0.153876 0.031280 0.198199
    10 4.826790 -0.004591 0.000000 -0.285036 0.040532 0.136628
    11 5.792768 -0.005304 0.000000 -0.155281 0.023214 0.146464
    12 6.662314 -0.001453 0.000000 -0.000144 -0.183162 0.296580
    13 2.046984 -0.000002 0.000000 0.479814 -0.186401 -0.002728
    14 1.038628 0.548043 -0.144017 -0.000001 0.000001 -1.849906
    15 -0.064003 -0.023525 0.026161 0.000000 0.000000 0.000000
    16 3.013920 3.984632 -0.088975 -0.000001 0.000001 -1.849906
    17 -0.084188 -0.025625 -0.001098 0.000000 0.000000 0.000000
    18 4.778185 3.972485 -0.079803 -0.000001 0.000001 -1.849906
    19 -0.058556 -0.021328 0.004244 0.000000 0.000000 0.000000
    20 1.640597 -1.968779 -0.099219 -0.000001 0.000001 -1.849906
    21 0.055573 -0.028913 0.000000 0.000000 0.000000 0.000000
    22 -2.483098 0.954736 4.873176 1.348826 -1.190277 1.575959
    23 4.827231 0.000000 0.000002 -0.069135 0.690209 -0.845882
    24 11.139760 0.000000 0.000000 0.000000 0.000000 -1.805809
    25 10.314597 0.000000 -0.000001 -1.659072 -0.346703 -0.093392
    26 1.646739 0.449549 -1.702246 0.441914 0.155087 1.184543
    27 0.928312 0.000000 -0.000001 0.000000 0.000000 0.000000
    28 0.928313 -0.000001 0.000002 0.000000 0.000000 0.000000
    29 2.975833 -0.386307 -0.044143 -0.024934 -0.035797 0.590514
    30 1.438886 -0.000001 0.000000 0.000000 0.000000 1.144949
    31 1.485302 -0.000001 0.000000 0.000000 0.000000 0.975412
    32 -3.768362 0.884021 -3.515377 0.113979 1.084225 2.949828
    33 4.972046 0.000000 0.000000 -0.178161 -0.908017 -0.240270
    34 11.585350 0.000000 0.000001 0.000000 0.000000 -1.968440
    35 10.127054 -0.000001 -0.000001 1.569752 0.000000 -0.069778
    36 1.533672 0.109715 1.664490 -0.264755 -0.055971 0.783109
    37 0.928312 0.000001 0.000000 0.000000 0.000000 -0.453542
    38 0.928313 0.000000 0.000002 0.000000 0.000000 0.000000
    39 2.683747 -0.427339 0.044205 -0.005786 0.043239 -0.157091
    40 1.438886 -0.000001 0.000002 0.000000 0.000000 0.732659
    41 1.485300 0.000000 0.000000 0.000000 0.000000 1.168771
  time 11
    0 0.233849 0.368164 39.526119 0.000000 0.000000 -1.570795
    1 0.000000 0.000000 0.000000 0.000000 -1.570451 -1.570795
    2 -0.000004 0.000007 3.713254 -3.139539 0.026087 3.120120
    3 18.045721 0.000000 0.000000 0.000000 0.000000 -0.121501
    4 17.597595 0.000000 0.000000 -0.002613 0.026036 0.099967
    5 0.000004 -0.000003 -3.713254 3.139069 -0.017354 3.117144
    6 18.045725 0.000000 0.000000 0.000000 0.000000 -0.127551
    7 17.597597 0.000000 0.000000 0.002950 -0.017289 0.103055
    8 1.293671 0.684478 -0.000001 -0.000004 -0.000001 0.061853
    9 5.309686 -0.003834 0.000000 -0.153876 0.031280 0.198199
    10 4.826790 -0.004591 0.000000 -0.284953 0.041071 0.138458
    11 5.792768 -0.005304 0.000000 -0.155281 0.023214 0.146464
    12 6.662314 -0.001453 0.000000 -0.000144 -0.183162 0.296580
    13 2.046984 -0.000002 0.000000 0.479599 -0.186131 -0.004526
    14 1.038628 0.548043 -0.144017 -0.000001 0.000001 -1.849906
    15 -0.064003 -0.023525 0.026161 0.000000 0.000000 0.000000
    16 3.013920 3.984632 -0.088975 -0.000001 0.000001 -1.849906
    17 -0.084188 -0.025625 -0.001098 0.000000 0.000000 0.000000
    18 4.778185 3.972485 -0.079803 -0.000001 0.000001 -1.849906
    19 -0.058556 -0.021328 0.004244 0.000000 0.000000 0.000000
    20 1.640597 -1.968779 -0.099219 -0.000001 0.000001 -1.849906
    21 0.055573 -0.028913 0.000000 0.000000 0.000000 0.000000
    22 -2.483098 0.954736 4.873176 1.330514 -1.188546 1.595710
    23 4.827231 0.000000 0.000002 -0.062380 0.683401 -0.842032
    24 11.139760 0.000000 0.000000 0.000000 0.000000 -1.805809
    25 10.314597 0.000000 -0.000001 -1.658532 -0.327461 -0.095212
    26 1.646739 0.449549 -1.702246 0.441914 0.155087 1.184543
    27 0.928312 0.000000 -0.000001 0.000000 0.000000 0.000000
    28 0.928313 -0.000001 0.000002 0.000000 0.000000 0.000000
    29 2.975833 -0.386307 -0.044143 -0.017012 -0.040171 0.382768
    30 1.438886 -0.000001 0.000000 0.000000 0.000000 1.048450
    31 1.485302 -0.000001 0.000000 0.000000 0.000000 0.720794
    32 -3.768362 0.884021 -3.515377 0.111870 1.074135 2.947336
    33 4.972046 0.000000 0.000000 -0.179166 -0.897962 -0.240138
    34 11.585350 0.000000 0.000001 0.000000 0.000000 -1.968370
    35 10.127054 -0.000001 -0.000001 1.569752 0.000000 -0.069778
    36 1.533672 0.109715 1.664490 -0.264755 -0.055959 0.783109
    37 0.928312 0.000001 0.000000 0.000000 0.000000 -0.453542
    38 0.928313 0.000000 0.000002 0.000000 0.000000 0.000000
    39 2.683747 -0.427339 0.044205 -0.005786 0.043239 -0.157091
    40 1.438886 -0.000001 0.000002 0.000000 0.000000 0.732659
    41 1.485300 0.000000 0.000000 0.000000 0.000000 1.168771
  time 12
    0 0.233849 0.368164 39.526119 0.000000 0.000000 -1.570795
    1 0.000000 0.000000 0.000000 0.000000 -1.570451 -1.570795
    2 -0.000004 0.000007 3.713254 -3.139539 0.026087 3.120120
    3 18.045721 0.000000 0.000000 0.000000 0.000000 -0.121501
    4 17.597595 0.000000 0.000000 -0.002613 0.026036 0.099967
    5 0.000004 -0.000003 -3.713254 3.139069 -0.017354 3.117144
    6 18.045725 0.000000 0.000000 0.000000 0.000000 -0.127551
    7 17.597597 0.000000 0.000000 0.002950 -0.017289 0.103055
    8 1.293671 0.684478 -0.000001 -0.000004 -0.000001 0.061853
    9 5.309686 -0.003834 0.000000 -0.153876 0.031280 0.198199
    10 4.826790 -0.004591 0.000000 -0.284888 0.041527 0.140002
    11 5.792768 -0.005304 0.000000 -0.155281 0.023214 0.146464
    12 6.662314 -0.001453 0.000000 -0.000144 -0.183162 0.296580
    13 2.046984 -0.000002 0.000000 0.479427 -0.185906 -0.006100
    14 1.038628 0.548043 -0.144017 -0.000001 0.000001 -1.849906
    15 -0.064003 -0.023525 0.026161 0.000000 0.000000 0.000000
    16 3.013920 3.984632 -0.088975 -0.000001 0.000001 -1.849906
    17 -0.084188 -0.025625 -0.001098 0.000000 0.000000 0.000000
    18 4.778185 3.972485 -0.079803 -0.000001 0.000001 -1.849906
    19 -0.058556 -0.021328 0.004244 0.000000 0.000000 0.000000
    20 1.640597 -1.968779 -0.099219 -0.000001 0.000001 -1.849906
    21 0.055573 -0.028913 0.000000 0.000000 0.000000 0.000000
    22 -2.483098 0.954736 4.873176 1.319297 -1.187392 1.607790
    23 4.827231 0.000000 0.000002 -0.058386 0.678720 -0.839844
    24 11.139760 0.000000 0.000000 0.000000 0.000000 -1.805809
    25 10.314597 0.000000 -0.000001 -1.657993 -0.309480 -0.096892
    26 1.646739 0.449549 -1.702246 0.441914 0.155087 1.184543
    27 0.928312 0.000000 -0.000001 0.000000 0.000000 0.000000
    28 0.928313 -0.000001 0.000002 0.000000 0.000000 0.000000
    29 2.975833 -0.386307 -0.044143 -0.010133 -0.042436 0.216235
    30 1.438886 -0.000001 0.000000 0.000000 0.000000 0.976245
    31 1.485302 -0.000001 0.000000 0.000000 0.000000 0.521121
    32 -3.768362 0.884021 -3.515377 0.110144 1.065627 2.945418
    33 4.972046 0.000000 0.000000 -0.180017 -0.889596 -0.240006
    34 11.585350 0.000000 0.000001 0.000000 0.000000 -1.968440
    35 10.127054 -0.000001 -0.000001 1.569752 0.000000 -0.069778
    36 1.533672 0.109715 1.664490 -0.264755 -0.055959 0.783109
    37 0.928312 0.000001 0.000000 0.000000 0.000000 -0.453542
    38 0.928313 0.000000 0.000002 0.000000 0.000000 0.000000
    39 2.683747 -0.427339 0.044205 -0.005786 0.043239 -0.157091
    40 1.438886 -0.000001 0.000002 0.000000 0.000000 0.732659
    41 1.485300 0.000000 0.000000 0.000000 0.000000 1.168771
  time 13
    0 0.233849 0.368164 39.526119 0.000000 0.000000 -1.570795
    1 0.000000 0.000000 0.000000 0.000000 -1.570451 -1.570795
    2 -0.000004 0.000007 3.713254 -3.139539 0.026087 3.120120
    3 18.045721 0.000000 0.000000 0.000000 0.000000 -0.121501
    4 17.597595 0.000000 0.000000 -0.002613 0.026036 0.099967
    5 0.000004 -0.000003 -3.713254 3.139069 -0.017354 3.117144
    6 18.045725 0.000000 0.000000 0.000000 0.000000 -0.127551
    7 17.597597 0.000000 0.000000 0.002950 -0.017289 0.103055
    8 1.293671 0.684478 -0.000001 -0.000004 -0.000001 0.061853
    9 5.309686 -0.003834 0.000000 -0.153876 0.031280 0.198199
    10 4.826790 -0.004591 0.000000 -0.284855 0.041862 0.141192
    11 5.792768 -0.005304 0.000000 -0.155281 0.023214 0.146464
    12 6.662314 -0.001453 0.000000 -0.000144 -0.183162 0.296580
    13 2.046984 -0.000002 0.000000 0.479254 -0.185726 -0.007268
    14 1.038628 0.548043 -0.144017 -0.000001 0.000001 -1.849906
    15 -0.064003 -0.023525 0.026161 0.000000 0.000000 0.000000
    16 3.013920 3.984632 -0.088975 -0.000001 0.000001 -1.849906
    17 -0.084188 -0.025625 -0.001098 0.000000 0.000000 0.000000
    18 4.778185 3.972485 -0.079803 -0.000001 0.000001 -1.849906
    19 -0.058556 -0.021328 0.004244 0.000000 0.000000 0.000000
    20 1.640597 -1.968779 -0.099219 -0.000001 0.000001 -1.849906
    21 0.055573 -0.028913 0.000000 0.000000 0.000000 0.000000
    22 -2.483098 0.954736 4.873176 1.317092 -1.187161 1.610091
    23 4.827231 0.000000 0.000002 -0.057857 0.677018 -0.839844
    24 11.139760 0.000000 0.000000 0.000000 0.000000 -1.805809
    25 10.314597 0.000000 -0.000001 -1.657544 -0.293586 -0.098354
    26 1.646739 0.449549 -1.702246 0.441914 0.155087 1.184543
    27 0.928312 0.000000 -0.000001 0.000000 0.000000 0.000000
    28 0.928313 -0.000001 0.000002 0.000000 0.000000 0.000000
    29 2.975833 -0.386307 -0.044143 -0.006610 -0.043120 0.134074
    30 1.438886 -0.000001 0.000000 0.000000 0.000000 0.961347
    31 1.485302 -0.000001 0.000000 0.000000 0.000000 0.437773
    32 -3.768362 0.884021 -3.515377 0.108898 1.059098 2.943884
    33 4.972046 0.000000 0.000000 -0.180636 -0.883080 -0.239940
    34 11.585350 0.000000 0.000001 0.000000 0.000000 -1.968440
    35 10.127054 -0.000001 -0.000001 1.569752 0.000000 -0.069778
    36 1.533672 0.109715 1.664490 -0.264755 -0.055971 0.783109
    37 0.928312 0.000001 0.000000 0.000000 0.000000 -0.453542
    38 0.928313 0.000000 0.000002 0.000000 0.000000 0.000000
    39 2.683747 -0.427339 0.044205 -0.005786 0.043239 -0.157091
    40 1.438886 -0.000001 0.000002 0.000000 0.000000 0.732659
    41 1.485300 0.000000 0.000000 0.000000 0.000000 1.168771
  time 14
    0 0.233849 0.368164 39.526119 0.000000 0.000000 -1.570795
    1 0.000000 0.000000 0.000000 0.000000 -1.570451 -1.570795
    2 -0.000004 0.000007 3.713254 -3.139539 0.026087 3.120120
    3 18.045721 0.000000 0.000000 0.000000 0.000000 -0.121501
    4 17.597595 0.000000 0.000000 -0.002613 0.026036 0.099967
    5 0.000004 -0.000003 -3.713254 3.139069 -0.017354 3.117144
    6 18.045725 0.000000 0.000000 0.000000 0.000000 -0.127551
    7 17.597597 0.000000 0.000000 0.002950 -0.017289 0.103055
    8 1.293671 0.684478 -0.000001 -0.000004 -0.000001 0.061853
    9 5.309686 -0.003834 0.000000 -0.153876 0.031280 0.198199
    10 4.826790 -0.004591 0.000000 -0.284822 0.042090 0.141942
    11 5.792768 -0.005304 0.000000 -0.155281 0.023214 0.146464
    12 6.662314 -0.001453 0.000000 -0.000144 -0.183162 0.296580
    13 2.046984 -0.000002 0.000000 0.479168 -0.185613 -0.008032
    14 1.038628 0.548043 -0.144017 -0.000001 0.000001 -1.849906
    15 -0.064003 -0.023525 0.026161 0.000000 0.000000 0.000000
    16 3.013920 3.984632 -0.088975 -0.000001 0.000001 -1.849906
    17 -0.084188 -0.025625 -0.001098 0.000000 0.000000 0.000000
    18 4.778185 3.972485 -0.079803 -0.000001 0.000001 -1.849906
    19 -0.058556 -0.021328 0.004244 0.000000 0.000000 0.000000
    20 1.640597 -1.968779 -0.099219 -0.000001 0.000001 -1.849906
    21 0.055573 -0.028913 0.000000 0.000000 0.000000 0.000000
    22 -2.483098 0.954736 4.873176 1.323516 -1.187854 1.603284
    23 4.827231 0.000000 0.000002 -0.060618 0.678039 -0.841769
    24 11.139760 0.000000 0.000000 0.000000 0.000000 -1.805809
    25 10.314597 0.000000 -0.000001 -1.657184 -0.280063 -0.099599
    26 1.646739 0.449549 -1.702246 0.441914 0.155087 1.184543
    27 0.928312 0.000000 -0.000001 0.000000 0.000000 0.000000
    28 0.928313 -0.000001 0.000002 0.000000 0.000000 0.000000
    29 2.975833 -0.386307 -0.044143 -0.006622 -0.043120 0.134338
    30 1.438886 -0.000001 0.000000 0.000000 0.000000 1.007268
    31 1.485302 -0.000001 0.000000 0.000000 0.000000 0.468320
    32 -3.768362 0.884021 -3.515377 0.108035 1.054887 2.943021
    33 4.972046 0.000000 0.000000 -0.181023 -0.878897 -0.239874
    34 11.585350 0.000000 0.000001 0.000000 0.000000 -1.968440
    35 10.127054 -0.000001 -0.000001 1.569752 0.000000 -0.069778
    36 1.533672 0.109715 1.664490 -0.264755 -0.055971 0.783109
    37 0.928312 0.000001 0.000000 0.000000 0.000000 -0.453542
    38 0.928313 0.000000 0.000002 0.000000 0.000000 0.000000
    39 2.683747 -0.427339 0.044205 -0.005786 0.043239 -0.157091
    40 1.438886 -0.000001 0.000002 0.000000 0.000000 0.732659
    41 1.485300 0.000000 0.000000 0.000000 0.000000 1.168771
  time 15
    0 0.233849 0.368164 39.526119 0.000000 0.000000 -1.570795
    1 0.000000 0.000000 0.000000 0.000000 -1.570451 -1.570795
    2 -0.000004 0.000007 3.713254 -3.139539 0.026087 3.120120
    3 18.045721 0.000000 0.000000 0.000000 0.000000 -0.121501
    4 17.597595 0.000000 0.000000 -0.002613 0.026036 0.099967
    5 0.000004 -0.000003 -3.713254 3.139069 -0.017354 3.117144
    6 18.045725 0.000000 0.000000 0.000000 0.000000 -0.127551
    7 17.597597 0.000000 0.000000 0.002950 -0.017289 0.103055
    8 1.293671 0.684478 -0.000001 -0.000004 -0.000001 0.061853
    9 5.309686 -0.003834 0.000000 -0.153876 0.031280 0.198199
    10 4.826790 -0.004591 0.000000 -0.284806 0.042174 0.142229
    11 5.792768 -0.005304 0.000000 -0.155281 0.023214 0.146464
    12 6.662314 -0.001453 0.000000 -0.000144 -0.183162 0.296580
    13 2.046984 -0.000002 0.000000 0.479125 -0.185591 -0.008302
    14 1.038628 0.548043 -0.144017 -0.000001 0.000001 -1.849906
    15 -0.064003 -0.023525 0.026161 0.000000 0.000000 0.000000
    16 3.013920 3.984632 -0.088975 -0.000001 0.000001 -1.849906
    17 -0.084188 -0.025625 -0.001098 0.000000 0.000000 0.000000
    18 4.778185 3.972485 -0.079803 -0.000001 0.000001 -1.849906
    19 -0.058556 -0.021328 0.004244 0.000000 0.000000 0.000000
    20 1.640597 -1.968779 -0.099219 -0.000001 0.000001 -1.849906
    21 0.055573 -0.028913 0.000000 0.000000 0.000000 0.000000
    22 -2.483098 0.954736 4.873176 1.335404 -1.189008 1.590436
    23 4.827231 0.000000 0.000002 -0.065434 0.681018 -0.844832
    24 11.139760 0.000000 0.000000 0.000000 0.000000 -1.805809
    25 10.314597 0.000000 -0.000001 -1.656915 -0.268104 -0.100672
    26 1.646739 0.449549 -1.702246 0.441914 0.155087 1.184543
    27 0.928312 0.000000 -0.000001 0.000000 0.000000 0.000000
    28 0.928313 -0.000001 0.000002 0.000000 0.000000 0.000000
    29 2.975833 -0.386307 -0.044143 -0.008539 -0.042784 0.178886
    30 1.438886 -0.000001 0.000000 0.000000 0.000000 1.086372
    31 1.485302 -0.000001 0.000000 0.000000 0.000000 0.559149
    32 -3.768362 0.884021 -3.515377 0.107747 1.053417 2.942638
    33 4.972046 0.000000 0.000000 -0.181178 -0.877449 -0.239874
    34 11.585350 0.000000 0.000001 0.000000 0.000000 -1.968370
    35 10.127054 -0.000001 -0.000001 1.569752 0.000000 -0.069778
    36 1.533672 0.109715 1.664490 -0.264755 -0.055971 0.783109
    37 0.928312 0.000001 0.000000 0.000000 0.000000 -0.453542
    38 0.928313 0.000000 0.000002 0.000000 0.000000 0.000000
    39 2.683747 -0.427339 0.044205 -0.005786 0.043239 -0.157091
    40 1.438886 -0.000001 0.000002 0.000000 0.000000 0.732659
    41 1.485300 0.000000 0.000000 0.000000 0.000000 1.168771
  time 16
    0 0.233849 0.368164 39.526119 0.000000 0.000000 -1.570795
    1 0.000000 0.000000 0.000000 0.000000 -1.570451 -1.570795
    2 -0.000004 0.000007 3.713254 -3.139539 0.026087 3.120120
    3 18.045721 0.000000 0.000000 0.000000 0.000000 -0.121501
    4 17.597595 0.000000 0.000000 -0.002613 0.026036 0.099967
    5 0.000004 -0.000003 -3.713254 3.139069 -0.017354 3.117144
    6 18.045725 0.000000 0.000000 0.000000 0.000000 -0.127551
    7 17.597597 0.000000 0.000000 0.002950 -0.017289 0.103055
    8 1.293671 0.684478 -0.000001 -0.000004 -0.000001 0.061853
    9 5.309686 -0.003834 0.000000 -0.153876 0.031280 0.198199
    10 4.826790 -0.004591 0.000000 -0.284822 0.042090 0.141942
    11 5.792768 -0.005304 0.000000 -0.155281 0.023214 0.146464
    12 6.662314 -0.001453 0.000000 -0.000144 -0.183162 0.296580
    13 2.046984 -0.000002 0.000000 0.479168 -0.185613 -0.008032
    14 1.038628 0.548043 -0.144017 -0.000001 0.000001 -1.849906
    15 -0.064003 -0.023525 0.026161 0.000000 0.000000 0.000000
    16 3.013920 3.984632 -0.088975 -0.000001 0.000001 -1.849906
    17 -0.084188 -0.025625 -0.001098 0.000000 0.000000 0.000000
    18 4.778185 3.972485 -0.079803 -0.000001 0.000001 -1.849906
    19 -0.058556 -0.021328 0.004244 0.000000 0.000000 0.000000
    20 1.640597 -1.968779 -0.099219 -0.000001 0.000001 -1.849906
    21 0.055573 -0.028913 0.000000 0.000000 0.000000 0.000000
    22 -2.483098 0.954736 4.873176 1.350360 -1.190392 1.574329
    23 4.827231 0.000000 0.000002 -0.071308 0.685358 -0.848508
    24 11.139760 0.000000 0.000000 0.000000 0.000000 -1.805809
    25 10.314597 0.000000 -0.000001 -1.656645 -0.257081 -0.101668
    26 1.646739 0.449549 -1.702246 0.441914 0.155087 1.184543
    27 0.928312 0.000000 -0.000001 0.000000 0.000000 0.000000
    28 0.928313 -0.000001 0.000002 0.000000 0.000000 0.000000
    29 2.975833 -0.386307 -0.044143 -0.011307 -0.042137 0.244205
    30 1.438886 -0.000001 0.000000 0.000000 0.000000 1.177919
    31 1.485302 -0.000001 0.000000 0.000000 0.000000 0.677476
    32 -3.768362 0.884021 -3.515377 0.108035 1.054887 2.943021
    33 4.972046 0.000000 0.000000 -0.181023 -0.878897 -0.239874
    34 11.585350 0.000000 0.000001 0.000000 0.000000 -1.968440
    35 10.127054 -0.000001 -0.000001 1.569752 0.000000 -0.069778
    36 1.533672 0.109715 1.664490 -0.264755 -0.055971 0.783109
    37 0.928312 0.000001 0.000000 0.000000 0.000000 -0.453542
    38 0.928313 0.000000 0.000002 0.000000 0.000000 0.000000
    39 2.683747 -0.427339 0.044205 -0.005786 0.043239 -0.157091
    40 1.438886 -0.000001 0.000002 0.000000 0.000000 0.732659
    41 1.485300 0.000000 0.000000 0.000000 0.000000 1.168771
  time 17
    0 0.233849 0.368164 39.526119 0.000000 0.000000 -1.570795
    1 0.000000 0.000000 0.000000 0.000000 -1.570451 -1.570795
    2 -0.000004 0.000007 3.713254 -3.139539 0.026087 3.120120
    3 18.045721 0.000000 0.000000 0.000000 0.000000 -0.121501
    4 17.597595 0.000000 0.000000 -0.002613 0.026036 0.099967
    5 0.000004 -0.000003 -3.713254 3.139069 -0.017354 3.117144
    6 18.045725 0.000000 0.000000 0.000000 0.000000 -0.127551
    7 17.597597 0.000000 0.000000 0.002950 -0.017289 0.103055
    8 1.293671 0.684478 -0.000001 -0.000004 -0.000001 0.061853
    9 5.309686 -0.003834 0.000000 -0.153876 0.031280 0.198199
    10 4.826790 -0.004591 0.000000 -0.284855 0.041862 0.141192
    11 5.792768 -0.005304 0.000000 -0.155281 0.023214 0.146464
    12 6.662314 -0.001453 0.000000 -0.000144 -0.183162 0.296580
    13 2.046984 -0.000002 0.000000 0.479254 -0.185726 -0.007268
    14 1.038628 0.548043 -0.144017 -0.000001 0.000001 -1.849906
    15 -0.064003 -0.023525 0.026161 0.000000 0.000000 0.000000
    16 3.013920 3.984632 -0.088975 -0.000001 0.000001 -1.849906
    17 -0.084188 -0.025625 -0.001098 0.000000 0.000000 0.000000
    18 4.778185 3.972485 -0.079803 -0.000001 0.000001 -1.849906
    19 -0.058556 -0.021328 0.004244 0.000000 0.000000 0.000000
    20 1.640597 -1.968779 -0.099219 -0.000001 0.000001 -1.849906
    21 0.055573 -0.028913 0.000000 0.000000 0.000000 0.000000
    22 -2.483098 0.954736 4.873176 1.366946 -1.191816 1.556400
    23 4.827231 0.000000 0.000002 -0.077710 0.690549 -0.852358
    24 11.139760 0.000000 0.000000 0.000000 0.000000 -1.805809
    25 10.314597 0.000000 -0.000001 -1.656375 -0.246340 -0.102632
    26 1.646739 0.449549 -1.702246 0.441914 0.155087 1.184543
    27 0.928312 0.000000 -0.000001 0.000000 0.000000 0.000000
    28 0.928313 -0.000001 0.000002 0.000000 0.000000 0.000000
    29 2.975833 -0.386307 -0.044143 -0.014352 -0.041190 0.317152
    30 1.438886 -0.000001 0.000000 0.000000 0.000000 1.270228
    31 1.485302 -0.000001 0.000000 0.000000 0.000000 0.805047
    32 -3.768362 0.884021 -3.515377 0.108898 1.059098 2.943884
    33 4.972046 0.000000 0.000000 -0.180636 -0.883080 -0.239940
    34 11.585350 0.000000 0.000001 0.000000 0.000000 -1.968440
    35 10.127054 -0.000001 -0.000001 1.569752 0.000000 -0.069778
    36 1.533672 0.109715 1.664490 -0.264755 -0.055971 0.783109
    37 0.928312 0.000001 0.000000 0.000000 0.000000 -0.453542
    38 0.928313 0.000000 0.000002 0.000000 0.000000 0.000000
    39 2.683747 -0.427339 0.044205 -0.005786 0.043239 -0.157091
    40 1.438886 -0.000001 0.000002 0.000000 0.000000 0.732659
    41 1.485300 0.000000 0.000000 0.000000 0.000000 1.168771
  time 18
    0 0.233849 0.368164 39.526119 0.000000 0.000000 -1.570795
    1 0.000000 0.000000 0.000000 0.000000 -1.570451 -1.570795
    2 -0.000004 0.000007 3.713254 -3.139539 0.026087 3.120120
    3 18.045721 0.000000 0.000000 0.000000 0.000000 -0.121501
    4 17.597595 0.000000 0.000000 -0.002613 0.026036 0.099967
    5 0.000004 -0.000003 -3.713254 3.139069 -0.017354 3.117144
    6 18.045725 0.000000 0.000000 0.000000 0.000000 -0.127551
    7 17.597597 0.000000 0.000000 0.002950 -0.017289 0.103055
    8 1.293671 0.684478 -0.000001 -0.000004 -0.000001 0.061853
    9 5.309686 -0.003834 0.000000 -0.153876 0.031280 0.198199
    10 4.826790 -0.004591 0.000000 -0.284888 0.041527 0.140002
    11 5.792768 -0.005304 0.000000 -0.155281 0.023214 0.146464
    12 6.662314 -0.001453 0.000000 -0.000144 -0.183162 0.296580
    13 2.046984 -0.000002 0.000000 0.479427 -0.185906 -0.006100
    14 1.038628 0.548043 -0.144017 -0.000001 0.000001 -1.849906
    15 -0.064003 -0.023525 0.026161 0.000000 0.000000 0.000000
    16 3.013920 3.984632 -0.088975 -0.000001 0.000001 -1.849906
    17 -0.084188 -0.025625 -0.001098 0.000000 0.000000 0.000000
    18 4.778185 3.972485 -0.079803 -0.000001 0.000001 -1.849906
    19 -0.058556 -0.021328 0.004244 0.000000 0.000000 0.000000
    20 1.640597 -1.968779 -0.099219 -0.000001 0.000001 -1.849906
    21 0.055573 -0.028913 0.000000 0.000000 0.000000 0.000000
    22 -2.483098 0.954736 4.873176 1.384683 -1.193239 1.537417
    23 4.827231 0.000000 0.000002 -0.084347 0.696506 -0.856384
    24 11.139760 0.000000 0.000000 0.000000 0.000000 -1.805809
    25 10.314597 0.000000 -0.000001 -1.656196 -0.235317 -0.103612
    26 1.646739 0.449549 -1.702246 0.441914 0.155087 1.184543
    27 0.928312 0.000000 -0.000001 0.000000 0.000000 0.000000
    28 0.928313 -0.000001 0.000002 0.000000 0.000000 0.000000
    29 2.975833 -0.386307 -0.044143 -0.017228 -0.040076 0.387920
    30 1.438886 -0.000001 0.000000 0.000000 0.000000 1.354072
    31 1.485302 -0.000001 0.000000 0.000000 0.000000 0.928568
    32 -3.768362 0.884021 -3.515377 0.110144 1.065627 2.945418
    33 4.972046 0.000000 0.000000 -0.180017 -0.889596 -0.240006
    34 11.585350 0.000000 0.000001 0.000000 0.000000 -1.968440
    35 10.127054 -0.000001 -0.000001 1.569752 0.000000 -0.069778
    36 1.533672 0.109715 1.664490 -0.264755 -0.055959 0.783109
    37 0.928312 0.000001 0.000000 0.000000 0.000000 -0.453542
    38 0.928313 0.000000 0.000002 0.000000 0.000000 0.000000
    39 2.683747 -0.427339 0.044205 -0.005786 0.043239 -0.157091
    40 1.438886 -0.000001 0.000002 0.000000 0.000000 0.732659
    41 1.485300 0.000000 0.000000 0.000000 0.000000 1.168771
  time 19
    0 0.233849 0.368164 39.526119 0.000000 0.000000 -1.570795
    1 0.000000 0.000000 0.000000 0.000000 -1.570451 -1.570795
    2 -0.000004 0.000007 3.713254 -3.139539 0.026087 3.120120
    3 18.045721 0.000000 0.000000 0.000000 0.000000 -0.121501
    4 17.597595 0.000000 0.000000 -0.002613 0.026036 0.099967
    5 0.000004 -0.000003 -3.713254 3.139069 -0.017354 3.117144
    6 18.045725 0.000000 0.000000 0.000000 0.000000 -0.127551
    7 17.597597 0.000000 0.000000 0.002950 -0.017289 0.103055
    8 1.293671 0.684478 -0.000001 -0.000004 -0.000001 0.061853
    9 5.309686 -0.003834 0.000000 -0.153876 0.031280 0.198199
    10 4.826790 -0.004591 0.000000 -0.284953 0.041071 0.138458
    11 5.792768 -0.005304 0.000000 -0.155281 0.023214 0.146464
    12 6.662314 -0.001453 0.000000 -0.000144 -0.183162 0.296580
    13 2.046984 -0.000002 0.000000 0.479599 -0.186131 -0.004526
    14 1.038628 0.548043 -0.144017 -0.000001 0.000001 -1.849906
    15 -0.064003 -0.023525 0.026161 0.000000 0.000000 0.000000
    16 3.013920 3.984632 -0.088975 -0.000001 0.000001 -1.849906
    17 -0.084188 -0.025625 -0.001098 0.000000 0.000000 0.000000
    18 4.778185 3.972485 -0.079803 -0.000001 0.000001 -1.849906
    19 -0.058556 -0.021328 0.004244 0.000000 0.000000 0.000000
    20 1.640597 -1.968779 -0.099219 -0.000001 0.000001 -1.849906
    21 0.055573 -0.028913 0.000000 0.000000 0.000000 0.000000
    22 -2.483098 0.954736 4.873176 1.402515 -1.194470 1.518146
    23 4.827231 0.000000 0.000002 -0.091043 0.702718 -0.860322
    24 11.139760 0.000000 0.000000 0.000000 0.000000 -1.805809
    25 10.314597 0.000000 -0.000001 -1.655926 -0.223359 -0.104670
    26 1.646739 0.449549 -1.702246 0.441914 0.155087 1.184543
    27 0.928312 0.000000 -0.000001 0.000000 0.000000 0.000000
    28 0.928313 -0.000001 0.000002 0.000000 0.000000 0.000000
    29 2.975833 -0.386307 -0.044143 -0.019445 -0.039045 0.444224
    30 1.438886 -0.000001 0.000000 0.000000 0.000000 1.416415
    31 1.485302 -0.000001 0.000000 0.000000 0.000000 1.030692
    32 -3.768362 0.884021 -3.515377 0.111870 1.074135 2.947336
    33 4.972046 0.000000 0.000000 -0.179166 -0.897962 -0.240138
    34 11.585350 0.000000 0.000001 0.000000 0.000000 -1.968370
    35 10.127054 -0.000001 -0.000001 1.569752 0.000000 -0.069778
    36 1.533672 0.109715 1.664490 -0.264755 -0.055959 0.783109
    37 0.928312 0.000001 0.000000 0.000000 0.000000 -0.453542
    38 0.928313 0.000000 0.000002 0.000000 0.000000 0.000000
    39 2.683747 -0.427339 0.044205 -0.005786 0.043239 -0.157091
    40 1.438886 -0.000001 0.000002 0.000000 0.000000 0.732659
    41 1.485300 0.000000 0.000000 0.000000 0.000000 1.168771
  time 20
    0 0.233849 0.368164 39.526119 0.000000 0.000000 -1.570795
    1 0.000000 0.000000 0.000000 0.000000 -1.570451 -1.570795
    2 -0.000004 0.000007 3.713254 -3.139539 0.026087 3.120120
    3 18.045721 0.000000 0.000000 0.000000 0.000000 -0.121501
    4 17.597595 0.000000 0.000000 -0.002613 0.026036 0.099967
    5 0.000004 -0.000003 -3.713254 3.139069 -0.017354 3.117144
    6 18.045725 0.000000 0.000000 0.000000 0.000000 -0.127551
    7 17.597597 0.000000 0.000000 0.002950 -0.017289 0.103055
    8 1.293671 0.684478 -0.000001 -0.000004 -0.000001 0.061853
    9 5.309686 -0.003834 0.000000 -0.153876 0.031280 0.198199
    10 4.826790 -0.004591 0.000000 -0.285036 0.040532 0.136628
    11 5.792768 -0.005304 0.000000 -0.155281 0.023214 0.146464
    12 6.662314 -0.001453 0.000000 -0.000144 -0.183162 0.296580
    13 2.046984 -0.000002 0.000000 0.479814 -0.186401 -0.002728
    14 1.038628 0.548043 -0.144017 -0.000001 0.000001 -1.849906
    15 -0.064003 -0.023525 0.026161 0.000000 0.000000 0.000000
    16 3.013920 3.984632 -0.088975 -0.000001 0.000001 -1.849906
    17 -0.084188 -0.025625 -0.001098 0.000000 0.000000 0.000000
    18 4.778185 3.972485 -0.079803 -0.000001 0.000001 -1.849906
    19 -0.058556 -0.021328 0.004244 0.000000 0.000000 0.000000
    20 1.640597 -1.968779 -0.099219 -0.000001 0.000001 -1.849906
    21 0.055573 -0.028913 0.000000 0.000000 0.000000 0.000000
    22 -2.483098 0.954736 4.873176 1.418814 -1.195508 1.500696
    23 4.827231 0.000000 0.000002 -0.096976 0.708761 -0.863822
    24 11.139760 0.000000 0.000000 0.000000 0.000000 -1.805809
    25 10.314597 0.000000 -0.000001 -1.655656 -0.209813 -0.105868
    26 1.646739 0.449549 -1.702246 0.441914 0.155087 1.184543
    27 0.928312 0.000000 -0.000001 0.000000 0.000000 0.000000
    28 0.928313 -0.000001 0.000002 0.000000 0.000000 0.000000
    29 2.975833 -0.386307 -0.044143 -0.020248 -0.038637 0.464698
    30 1.438886 -0.000001 0.000000 0.000000 0.000000 1.433641
    31 1.485302 -0.000001 0.000000 0.000000 0.000000 1.080586
    32 -3.768362 0.884021 -3.515377 0.113979 1.084225 2.949828
    33 4.972046 0.000000 0.000000 -0.178161 -0.908017 -0.240270
    34 11.585350 0.000000 0.000001 0.000000 0.000000 -1.968440
    35 10.127054 -0.000001 -0.000001 1.569752 0.000000 -0.069778
    36 1.533672 0.109715 1.664490 -0.264755 -0.055971 0.783109
    37 0.928312 0.000001 0.000000 0.000000 0.000000 -0.453542
    38 0.928313 0.000000 0.000002 0.000000 0.000000 0.000000
    39 2.683747 -0.427339 0.044205 -0.005786 0.043239 -0.157091
    40 1.438886 -0.000001 0.000002 0.000000 0.000000 0.732659
    41 1.485300 0.000000 0.000000 0.000000 0.000000 1.168771
  time 21
    0 0.233849 0.368164 39.526119 0.000000 0.000000 -1.570795
    1 0.000000 0.000000 0.000000 0.000000 -1.570451 -1.570795
    2 -0.000004 0.000007 3.713254 -3.139539 0.026087 3.120120
    3 18.045721 0.000000 0.000000 0.000000 0.000000 -0.121501
    4 17.597595 0.000000 0.000000 -0.002613 0.026036 0.099967
    5 0.000004 -0.000003 -3.713254 3.139069 -0.017354 3.117144
    6 18.045725 0.000000 0.000000 0.000000 0.000000 -0.127551
    7 17.597597 0.000000 0.000000 0.002950 -0.017289 0.103055
    8 1.293671 0.684478 -0.000001 -0.000004 -0.000001 0.061853
    9 5.309686 -0.003834 0.000000 -0.153876 0.031280 0.198199
    10 4.826790 -0.004591 0.000000 -0.285118 0.039933 0.134578
    11 5.792768 -0.005304 0.000000 -0.155281 0.023214 0.146464
    12 6.662314 -0.001453 0.000000 -0.000144 -0.183162 0.296580
    13 2.046984 -0.000002 0.000000 0.480073 -0.186694 -0.000661
    14 1.038628 0.548043 -0.144017 -0.000001 0.000001 -1.849906
    15 -0.064003 -0.023525 0.026161 0.000000 0.000000 0.000000
    16 3.013920 3.984632 -0.088975 -0.000001 0.000001 -1.849906
    17 -0.084188 -0.025625 -0.001098 0.000000 0.000000 0.000000
    18 4.778185 3.972485 -0.079803 -0.000001 0.000001 -1.849906
    19 -0.058556 -0.021328 0.004244 0.000000 0.000000 0.000000
    20 1.640597 -1.968779 -0.099219 -0.000001 0.000001 -1.849906
    21 0.055573 -0.028913 0.000000 0.000000 0.000000 0.000000
    22 -2.483098 0.954736 4.873176 1.433482 -1.196355 1.484877
    23 4.827231 0.000000 0.000002 -0.102262 0.714547 -0.866798
    24 11.139760 0.000000 0.000000 0.000000 0.000000 -1.805809
    25 10.314597 0.000000 -0.000001 -1.655297 -0.190658 -0.107548
    26 1.646739 0.449549 -1.702246 0.441914 0.155087 1.184543
    27 0.928312 0.000000 -0.000001 0.000000 0.000000 0.000000
    28 0.928313 -0.000001 0.000002 0.000000 0.000000 0.000000
    29 2.975833 -0.386307 -0.044143 -0.018558 -0.039476 0.421372
    30 1.438886 -0.000001 0.000000 0.000000 0.000000 1.369986
    31 1.485302 -0.000001 0.000000 0.000000 0.000000 1.038841
    32 -3.768362 0.884021 -3.515377 0.116568 1.095587 2.952609
    33 4.972046 0.000000 0.000000 -0.177000 -0.919279 -0.240467
    34 11.585350 0.000000 0.000001 0.000000 0.000000 -1.968440
    35 10.127054 -0.000001 -0.000001 1.569752 0.000000 -0.069778
    36 1.533672 0.109715 1.664490 -0.264755 -0.055971 0.783109
    37 0.928312 0.000001 0.000000 0.000000 0.000000 -0.453542
    38 0.928313 0.000000 0.000002 0.000000 0.000000 0.000000
    39 2.683747 -0.427339 0.044205 -0.005786 0.043239 -0.157091
    40 1.438886 -0.000001 0.000002 0.000000 0.000000 0.732659
    41 1.485300 0.000000 0.000000 0.000000 0.000000 1.168771
  time 22
    0 0.233849 0.368164 39.526119 0.000000 0.000000 -1.570795
    1 0.000000 0.000000 0.000000 0.000000 -1.570451 -1.570795
    2 -0.000004 0.000007 3.713254 -3.139539 0.026087 3.120120
    3 18.045721 0.000000 0.000000 0.000000 0.000000 -0.121501
    4 17.597595 0.000000 0.000000 -0.002613 0.026036 0.099967
    5 0.000004 -0.000003 -3.713254 3.139069 -0.017354 3.117144
    6 18.045725 0.000000 0.000000 0.000000 0.000000 -0.127551
    7 17.597597 0.000000 0.000000 0.002950 -0.017289 0.103055
    8 1.293671 0.684478 -0.000001 -0.000004 -0.000001 0.061853
    9 5.309686 -0.003834 0.000000 -0.153876 0.031280 0.198199
    10 4.826790 -0.004591 0.000000 -0.285200 0.039285 0.132373
    11 5.792768 -0.005304 0.000000 -0.155281 0.023214 0.146464
    12 6.662314 -0.001453 0.000000 -0.000144 -0.183162 0.296580
    13 2.046984 -0.000002 0.000000 0.480331 -0.187032 0.001542
    14 1.038628 0.548043 -0.144017 -0.000001 0.000001 -1.849906
    15 -0.064003 -0.023525 0.026161 0.000000 0.000000 0.000000
    16 3.013920 3.984632 -0.088975 -0.000001 0.000001 -1.849906
    17 -0.084188 -0.025625 -0.001098 0.000000 0.000000 0.000000
    18 4.778185 3.972485 -0.079803 -0.000001 0.000001 -1.849906
    19 -0.058556 -0.021328 0.004244 0.000000 0.000000 0.000000
    20 1.640597 -1.968779 -0.099219 -0.000001 0.000001 -1.849906
    21 0.055573 -0.028913 0.000000 0.000000 0.000000 0.000000
    22 -2.483098 0.954736 4.873176 1.448247 -1.197124 1.469057
    23 4.827231 0.000000 0.000002 -0.107548 0.720590 -0.869860
    24 11.139760 0.000000 0.000000 0.000000 0.000000 -1.805809
    25 10.314597 0.000000 -0.000001 -1.654937 -0.164937 -0.109772
    26 1.646739 0.449549 -1.702246 0.441914 0.155087 1.184543
    27 0.928312 0.000000 -0.000001 0.000000 0.000000 0.000000
    28 0.928313 -0.000001 0.000002 0.000000 0.000000 0.000000
    29 2.975833 -0.386307 -0.044143 -0.014364 -0.041190 0.317647
    30 1.438886 -0.000001 0.000000 0.000000 0.000000 1.223883
    31 1.485302 -0.000001 0.000000 0.000000 0.000000 0.909744
    32 -3.768362 0.884021 -3.515377 0.119348 1.107769 2.955868
    33 4.972046 0.000000 0.000000 -0.175763 -0.931345 -0.240797
    34 11.585350 0.000000 0.000001 0.000000 0.000000 -1.968440
    35 10.127054 -0.000001 -0.000001 1.569752 0.000000 -0.069778
    36 1.533672 0.109715 1.664490 -0.264755 -0.055959 0.783109
    37 0.928312 0.000001 0.000000 0.000000 0.000000 -0.453542
    38 0.928313 0.000000 0.000002 0.000000 0.000000 0.000000
    39 2.683747 -0.427339 0.044205 -0.005786 0.043239 -0.157091
    40 1.438886 -0.000001 0.000002 0.000000 0.000000 0.732659
    41 1.485300 0.000000 0.000000 0.000000 0.000000 1.168771
  time 23
    0 0.233849 0.368164 39.526119 0.000000 0.000000 -1.570795
    1 0.000000 0.000000 0.000000 0.000000 -1.570451 -1.570795
    2 -0.000004 0.000007 3.713254 -3.139539 0.026087 3.120120
    3 18.045721 0.000000 0.000000 0.000000 0.000000 -0.121501
    4 17.597595 0.000000 0.000000 -0.002613 0.026036 0.099967
    5 0.000004 -0.000003 -3.713254 3.139069 -0.017354 3.117144
    6 18.045725 0.000000 0.000000 0.000000 0.000000 -0.127551
    7 17.597597 0.000000 0.000000 0.002950 -0.017289 0.103055
    8 1.293671 0.684478 -0.000001 -0.000004 -0.000001 0.061853
    9 5.309686 -0.003834 0.000000 -0.153876 0.031280 0.198199
    10 4.826790 -0.004591 0.000000 -0.285298 0.038614 0.130058
    11 5.792768 -0.005304 0.000000 -0.155281 0.023214 0.146464
    12 6.662314 -0.001453 0.000000 -0.000144 -0.183162 0.296580
    13 2.046984 -0.000002 0.000000 0.480590 -0.187370 0.003879
    14 1.038628 0.548043 -0.144017 -0.000001 0.000001 -1.849906
    15 -0.064003 -0.023525 0.026161 0.000000 0.000000 0.000000
    16 3.013920 3.984632 -0.088975 -0.000001 0.000001 -1.849906
    17 -0.084188 -0.025625 -0.001098 0.000000 0.000000 0.000000
    18 4.778185 3.972485 -0.079803 -0.000001 0.000001 -1.849906
    19 -0.058556 -0.021328 0.004244 0.000000 0.000000 0.000000
    20 1.640597 -1.968779 -0.099219 -0.000001 0.000001 -1.849906
    21 0.055573 -0.028913 0.000000 0.000000 0.000000 0.000000
    22 -2.483098 0.954736 4.873176 1.462532 -1.197778 1.453717
    23 4.827231 0.000000 0.000002 -0.112599 0.726461 -0.872836
    24 11.139760 0.000000 0.000000 0.000000 0.000000 -1.805809
    25 10.314597 0.000000 -0.000001 -1.654578 -0.139020 -0.111997
    26 1.646739 0.449549 -1.702246 0.441914 0.155087 1.184543
    27 0.928312 0.000000 -0.000001 0.000000 0.000000 0.000000
    28 0.928313 -0.000001 0.000002 0.000000 0.000000 0.000000
    29 2.975833 -0.386307 -0.044143 -0.008827 -0.042724 0.185755
    30 1.438886 -0.000001 0.000000 0.000000 0.000000 1.032663
    31 1.485302 -0.000001 0.000000 0.000000 0.000000 0.736853
    32 -3.768362 0.884021 -3.515377 0.122512 1.120460 2.959320
    33 4.972046 0.000000 0.000000 -0.174448 -0.943894 -0.241126
    34 11.585350 0.000000 0.000001 0.000000 0.000000 -1.968370
    35 10.127054 -0.000001 -0.000001 1.569752 0.000000 -0.069778
    36 1.533672 0.109715 1.664490 -0.264755 -0.055959 0.783109
    37 0.928312 0.000001 0.000000 0.000000 0.000000 -0.453542
    38 0.928313 0.000000 0.000002 0.000000 0.000000 0.000000
    39 2.683747 -0.427339 0.044205 -0.005786 0.043239 -0.157091
    40 1.438886 -0.000001 0.000002 0.000000 0.000000 0.732659
    41 1.485300 0.000000 0.000000 0.000000 0.000000 1.168771
  time 24
    0 0.233849 0.368164 39.526119 0.000000 0.000000 -1.570795
    1 0.000000 0.000000 0.000000 0.000000 -1.570451 -1.570795
    2 -0.000004 0.000007 3.713254 -3.139539 0.026087 3.120120
    3 18.045721 0.000000 0.000000 0.000000 0.000000 -0.121501
    4 17.597595 0.000000 0.000000 -0.002613 0.026036 0.099967
    5 0.000004 -0.000003 -3.713254 3.139069 -0.017354 3.117144
    6 18.045725 0.000000 0.000000 0.000000 0.000000 -0.127551
    7 17.597597 0.000000 0.000000 0.002950 -0.017289 0.103055
    8 1.293671 0.684478 -0.000001 -0.000004 -0.000001 0.061853
    9 5.309686 -0.003834 0.000000 -0.153876 0.031280 0.198199
    10 4.826790 -0.004591 0.000000 -0.285380 0.037931 0.127743
    11 5.792768 -0.005304 0.000000 -0.155281 0.023214 0.146464
    12 6.662314 -0.001453 0.000000 -0.000144 -0.183162 0.296580
    13 2.046984 -0.000002 0.000000 0.480891 -0.187707 0.006171
    14 1.038628 0.548043 -0.144017 -0.000001 0.000001 -1.849906
    15 -0.064003 -0.023525 0.026161 0.000000 0.000000 0.000000
    16 3.013920 3.984632 -0.088975 -0.000001 0.000001 -1.849906
    17 -0.084188 -0.025625 -0.001098 0.000000 0.000000 0.000000
    18 4.778185 3.972485 -0.079803 -0.000001 0.000001 -1.849906
    19 -0.058556 -0.021328 0.004244 0.000000 0.000000 0.000000
    20 1.640597 -1.968779 -0.099219 -0.000001 0.000001 -1.849906
    21 0.055573 -0.028913 0.000000 0.000000 0.000000 0.000000
    22 -2.483098 0.954736 4.873176 1.476050 -1.198316 1.439240
    23 4.827231 0.000000 0.000002 -0.117416 0.732248 -0.875549
    24 11.139760 0.000000 0.000000 0.000000 0.000000 -1.805809
    25 10.314597 0.000000 -0.000001 -1.654398 -0.120974 -0.113537
    26 1.646739 0.449549 -1.702246 0.441914 0.155087 1.184543
    27 0.928312 0.000000 -0.000001 0.000000 0.000000 0.000000
    28 0.928313 -0.000001 0.000002 0.000000 0.000000 0.000000
    29 2.975833 -0.386307 -0.044143 -0.004009 -0.043443 0.073940
    30 1.438886 -0.000001 0.000000 0.000000 0.000000 0.854013
    31 1.485302 -0.000001 0.000000 0.000000 0.000000 0.586837
    32 -3.768362 0.884021 -3.515377 0.125867 1.133263 2.963059
    33 4.972046 0.000000 0.000000 -0.173133 -0.956603 -0.241521
    34 11.585350 0.000000 0.000001 0.000000 0.000000 -1.968370
    35 10.127054 -0.000001 -0.000001 1.569752 0.000000 -0.069778
    36 1.533672 0.109715 1.664490 -0.264755 -0.055971 0.783109
    37 0.928312 0.000001 0.000000 0.000000 0.000000 -0.453542
    38 0.928313 0.000000 0.000002 0.000000 0.000000 0.000000
    39 2.683747 -0.427339 0.044205 -0.005786 0.043239 -0.157091
    40 1.438886 -0.000001 0.000002 0.000000 0.000000 0.732659
    41 1.485300 0.000000 0.000000 0.000000 0.000000 1.168771
  time 25
    0 0.233849 0.368164 39.526119 0.000000 0.000000 -1.570795
    1 0.000000 0.000000 0.000000 0.000000 -1.570451 -1.570795
    2 -0.000004 0.000007 3.713254 -3.139539 0.026087 3.120120
    3 18.045721 0.000000 0.000000 0.000000 0.000000 -0.121501
    4 17.597595 0.000000 0.000000 -0.002613 0.026036 0.099967
    5 0.000004 -0.000003 -3.713254 3.139069 -0.017354 3.117144
    6 18.045725 0.000000 0.000000 0.000000 0.000000 -0.127551
    7 17.597597 0.000000 0.000000 0.002950 -0.017289 0.103055
    8 1.293671 0.684478 -0.000001 -0.000004 -0.000001 0.061853
    9 5.309686 -0.003834 0.000000 -0.153876 0.031280 0.198199
    10 4.826790 -0.004591 0.000000 -0.285462 0.037260 0.125472
    11 5.792768 -0.005304 0.000000 -0.155281 0.023214 0.146464
    12 6.662314 -0.001453 0.000000 -0.000144 -0.183162 0.296580
    13 2.046984 -0.000002 0.000000 0.481150 -0.188045 0.008463
    14 1.038628 0.548043 -0.144017 -0.000001 0.000001 -1.849906
    15 -0.064003 -0.023525 0.026161 0.000000 0.000000 0.000000
    16 3.013920 3.984632 -0.088975 -0.000001 0.000001 -1.849906
    17 -0.084188 -0.025625 -0.001098 0.000000 0.000000 0.000000
    18 4.778185 3.972485 -0.079803 -0.000001 0.000001 -1.849906
    19 -0.058556 -0.021328 0.004244 0.000000 0.000000 0.000000
    20 1.640597 -1.968779 -0.099219 -0.000001 0.000001 -1.849906
    21 0.055573 -0.028913 0.000000 0.000000 0.000000 0.000000
    22 -2.483098 0.954736 4.873176 1.488609 -1.198740 1.425721
    23 4.827231 0.000000 0.000002 -0.121880 0.737695 -0.878174
    24 11.139760 0.000000 0.000000 0.000000 0.000000 -1.805809
    25 10.314597 0.000000 -0.000001 -1.654398 -0.118235 -0.113786
    26 1.646739 0.449549 -1.702246 0.441914 0.155087 1.184543
    27 0.928312 0.000000 -0.000001 0.000000 0.000000 0.000000
    28 0.928313 -0.000001 0.000002 0.000000 0.000000 0.000000
    29 2.975833 -0.386307 -0.044143 -0.002115 -0.043575 0.030383
    30 1.438886 -0.000001 0.000000 0.000000 0.000000 0.747399
    31 1.485302 -0.000001 0.000000 0.000000 0.000000 0.527268
    32 -3.768362 0.884021 -3.515377 0.129415 1.145813 2.966894
    33 4.972046 0.000000 0.000000 -0.171818 -0.969072 -0.241982
    34 11.585350 0.000000 0.000001 0.000000 0.000000 -1.968440
    35 10.127054 -0.000001 -0.000001 1.569752 0.000000 -0.069778
    36 1.533672 0.109715 1.664490 -0.264755 -0.055971 0.783109
    37 0.928312 0.000001 0.000000 0.000000 0.000000 -0.453542
    38 0.928313 0.000000 0.000002 0.000000 0.000000 0.000000
    39 2.683747 -0.427339 0.044205 -0.005786 0.043239 -0.157091
    40 1.438886 -0.000001 0.000002 0.000000 0.000000 0.732659
    41 1.485300 0.000000 0.000000 0.000000 0.000000 1.168771
  time 26
    0 0.233849 0.368164 39.526119 0.000000 0.000000 -1.570795
    1 0.000000 0.000000 0.000000 0.000000 -1.570451 -1.570795
    2 -0.000004 0.000007 3.713254 -3.139539 0.026087 3.120120
    3 18.045721 0.000000 0.000000 0.000000 0.000000 -0.121501
    4 17.597595 0.000000 0.000000 -0.002613 0.026036 0.099967
    5 0.000004 -0.000003 -3.713254 3.139069 -0.017354 3.117144
    6 18.045725 0.000000 0.000000 0.000000 0.000000 -0.127551
    7 17.597597 0.000000 0.000000 0.002950 -0.017289 0.103055
    8 1.293671 0.684478 -0.000001 -0.000004 -0.000001 0.061853
    9 5.309686 -0.003834 0.000000 -0.153876 0.031280 0.198199
    10 4.826790 -0.004591 0.000000 -0.285545 0.036625 0.123311
    11 5.792768 -0.005304 0.000000 -0.155281 0.023214 0.146464
    12 6.662314 -0.001453 0.000000 -0.000144 -0.183162 0.296580
    13 2.046984 -0.000002 0.000000 0.481408 -0.188360 0.010666
    14 1.038628 0.548043 -0.144017 -0.000001 0.000001 -1.849906
    15 -0.064003 -0.023525 0.026161 0.000000 0.000000 0.000000
    16 3.013920 3.984632 -0.088975 -0.000001 0.000001 -1.849906
    17 -0.084188 -0.025625 -0.001098 0.000000 0.000000 0.000000
    18 4.778185 3.972485 -0.079803 -0.000001 0.000001 -1.849906
    19 -0.058556 -0.021328 0.004244 0.000000 0.000000 0.000000
    20 1.640597 -1.968779 -0.099219 -0.000001 0.000001 -1.849906
    21 0.055573 -0.028913 0.000000 0.000000 0.000000 0.000000
    22 -2.483098 0.954736 4.873176 1.500881 -1.199124 1.412490
    23 4.827231 0.000000 0.000002 -0.126285 0.742886 -0.880712
    24 11.139760 0.000000 0.000000 0.000000 0.000000 -1.805809
    25 10.314597 0.000000 -0.000001 -1.654578 -0.136411 -0.112230
    26 1.646739 0.449549 -1.702246 0.441914 0.155087 1.184543
    27 0.928312 0.000000 -0.000001 0.000000 0.000000 0.000000
    28 0.928313 -0.000001 0.000002 0.000000 0.000000 0.000000
    29 2.975833 -0.386307 -0.044143 -0.003997 -0.043443 0.073610
    30 1.438886 -0.000001 0.000000 0.000000 0.000000 0.725136
    31 1.485302 -0.000001 0.000000 0.000000 0.000000 0.581404
    32 -3.768362 0.884021 -3.515377 0.132962 1.157740 2.970825
    33 4.972046 0.000000 0.000000 -0.170580 -0.980977 -0.242443
    34 11.585350 0.000000 0.000001 0.000000 0.000000 -1.968370
    35 10.127054 -0.000001 -0.000001 1.569752 0.000000 -0.069778
    36 1.533672 0.109715 1.664490 -0.264755 -0.055959 0.783109
    37 0.928312 0.000001 0.000000 0.000000 0.000000 -0.453542
    38 0.928313 0.000000 0.000002 0.000000 0.000000 0.000000
    39 2.683747 -0.427339 0.044205 -0.005786 0.043239 -0.157091
    40 1.438886 -0.000001 0.000002 0.000000 0.000000 0.732659
    41 1.485300 0.000000 0.000000 0.000000 0.000000 1.168771
  time 27
    0 0.233849 0.368164 39.526119 0.000000 0.000000 -1.570795
    1 0.000000 0.000000 0.000000 0.000000 -1.570451 -1.570795
    2 -0.000004 0.000007 3.713254 -3.139539 0.026087 3.120120
    3 18.045721 0.000000 0.000000 0.000000 0.000000 -0.121501
    4 17.597595 0.000000 0.000000 -0.002613 0.026036 0.099967
    5 0.000004 -0.000003 -3.713254 3.139069 -0.017354 3.117144
    6 18.045725 0.000000 0.000000 0.000000 0.000000 -0.127551
    7 17.597597 0.000000 0.000000 0.002950 -0.017289 0.103055
    8 1.293671 0.684478 -0.000001 -0.000004 -0.000001 0.061853
    9 5.309686 -0.003834 0.000000 -0.153876 0.031280 0.198199
    10 4.826790 -0.004591 0.000000 -0.285627 0.036038 0.121304
    11 5.792768 -0.005304 0.000000 -0.155281 0.023214 0.146464
    12 6.662314 -0.001453 0.000000 -0.000144 -0.183162 0.296580
    13 2.046984 -0.000002 0.000000 0.481667 -0.188653 0.012644
    14 1.038628 0.548043 -0.144017 -0.000001 0.000001 -1.849906
    15 -0.064003 -0.023525 0.026161 0.000000 0.000000 0.000000
    16 3.013920 3.984632 -0.088975 -0.000001 0.000001 -1.849906
    17 -0.084188 -0.025625 -0.001098 0.000000 0.000000 0.000000
    18 4.778185 3.972485 -0.079803 -0.000001 0.000001 -1.849906
    19 -0.058556 -0.021328 0.004244 0.000000 0.000000 0.000000
    20 1.640597 -1.968779 -0.099219 -0.000001 0.000001 -1.849906
    21 0.055573 -0.028913 0.000000 0.000000 0.000000 0.000000
    22 -2.483098 0.954736 4.873176 1.512961 -1.199393 1.399643
    23 4.827231 0.000000 0.000002 -0.130632 0.747907 -0.883337
    24 11.139760 0.000000 0.000000 0.000000 0.000000 -1.805809
    25 10.314597 0.000000 -0.000001 -1.655027 -0.171090 -0.109243
    26 1.646739 0.449549 -1.702246 0.441914 0.155087 1.184543
    27 0.928312 0.000000 -0.000001 0.000000 0.000000 0.000000
    28 0.928313 -0.000001 0.000002 0.000000 0.000000 0.000000
    29 2.975833 -0.386307 -0.044143 -0.008359 -0.042820 0.174791
    30 1.438886 -0.000001 0.000000 0.000000 0.000000 0.751504
    31 1.485302 -0.000001 0.000000 0.000000 0.000000 0.708975
    32 -3.768362 0.884021 -3.515377 0.136413 1.168678 2.974564
    33 4.972046 0.000000 0.000000 -0.169342 -0.991837 -0.242905
    34 11.585350 0.000000 0.000001 0.000000 0.000000 -1.968440
    35 10.127054 -0.000001 -0.000001 1.569752 0.000000 -0.069778
    36 1.533672 0.109715 1.664490 -0.264755 -0.055971 0.783109
    37 0.928312 0.000001 0.000000 0.000000 0.000000 -0.453542
    38 0.928313 0.000000 0.000002 0.000000 0.000000 0.000000
    39 2.683747 -0.427339 0.044205 -0.005786 0.043239 -0.157091
    40 1.438886 -0.000001 0.000002 0.000000 0.000000 0.732659
    41 1.485300 0.000000 0.000000 0.000000 0.000000 1.168771
  time 28
    0 0.233849 0.368164 39.526119 0.000000 0.000000 -1.570795
    1 0.000000 0.000000 0.000000 0.000000 -1.570451 -1.570795
    2 -0.000004 0.000007 3.713254 -3.139539 0.026087 3.120120
    3 18.045721 0.000000 0.000000 0.000000 0.000000 -0.121501
    4 17.597595 0.000000 0.000000 -0.002613 0.026036 0.099967
    5 0.000004 -0.000003 -3.713254 3.139069 -0.017354 3.117144
    6 18.045725 0.000000 0.000000 0.000000 0.000000 -0.127551
    7 17.597597 0.000000 0.000000 0.002950 -0.017289 0.103055
    8 1.293671 0.684478 -0.000001 -0.000004 -0.000001 0.061853
    9 5.309686 -0.003834 0.000000 -0.153876 0.031280 0.198199
    10 4.826790 -0.004591 0.000000 -0.285676 0.035534 0.119562
    11 5.792768 -0.005304 0.000000 -0.155281 0.023214 0.146464
    12 6.662314 -0.001453 0.000000 -0.000144 -0.183162 0.296580
    13 2.046984 -0.000002 0.000000 0.481839 -0.188923 0.014397
    14 1.038628 0.548043 -0.144017 -0.000001 0.000001 -1.849906
    15 -0.064003 -0.023525 0.026161 0.000000 0.000000 0.000000
    16 3.013920 3.984632 -0.088975 -0.000001 0.000001 -1.849906
    17 -0.084188 -0.025625 -0.001098 0.000000 0.000000 0.000000
    18 4.778185 3.972485 -0.079803 -0.000001 0.000001 -1.849906
    19 -0.058556 -0.021328 0.004244 0.000000 0.000000 0.000000
    20 1.640597 -1.968779 -0.099219 -0.000001 0.000001 -1.849906
    21 0.055573 -0.028913 0.000000 0.000000 0.000000 0.000000
    22 -2.483098 0.954736 4.873176 1.523986 -1.199624 1.387754
    23 4.827231 0.000000 0.000002 -0.134684 0.752417 -0.885875
    24 11.139760 0.000000 0.000000 0.000000 0.000000 -1.805809
    25 10.314597 0.000000 -0.000001 -1.655746 -0.212488 -0.105634
    26 1.646739 0.449549 -1.702246 0.441914 0.155087 1.184543
    27 0.928312 0.000000 -0.000001 0.000000 0.000000 0.000000
    28 0.928313 -0.000001 0.000002 0.000000 0.000000 0.000000
    29 2.975833 -0.386307 -0.044143 -0.013680 -0.041418 0.301103
    30 1.438886 -0.000001 0.000000 0.000000 0.000000 0.803224
    31 1.485302 -0.000001 0.000000 0.000000 0.000000 0.868332
    32 -3.768362 0.884021 -3.515377 0.139577 1.178260 2.977919
    33 4.972046 0.000000 0.000000 -0.168337 -1.001409 -0.243366
    34 11.585350 0.000000 0.000001 0.000000 0.000000 -1.968370
    35 10.127054 -0.000001 -0.000001 1.569752 0.000000 -0.069778
    36 1.533672 0.109715 1.664490 -0.264755 -0.055971 0.783109
    37 0.928312 0.000001 0.000000 0.000000 0.000000 -0.453542
    38 0.928313 0.000000 0.000002 0.000000 0.000000 0.000000
    39 2.683747 -0.427339 0.044205 -0.005786 0.043239 -0.157091
    40 1.438886 -0.000001 0.000002 0.000000 0.000000 0.732659
    41 1.485300 0.000000 0.000000 0.000000 0.000000 1.168771
  time 29
    0 0.233849 0.368164 39.526119 0.000000 0.000000 -1.570795
    1 0.000000 0.000000 0.000000 0.000000 -1.570451 -1.570795
    2 -0.000004 0.000007 3.713254 -3.139539 0.026087 3.120120
    3 18.045721 0.000000 0.000000 0.000000 0.000000 -0.121501
    4 17.597595 0.000000 0.000000 -0.002613 0.026036 0.099967
    5 0.000004 -0.000003 -3.713254 3.139069 -0.017354 3.117144
    6 18.045725 0.000000 0.000000 0.000000 0.000000 -0.127551
    7 17.597597 0.000000 0.000000 0.002950 -0.017289 0.103055
    8 1.293671 0.684478 -0.000001 -0.000004 -0.000001 0.061853
    9 5.309686 -0.003834 0.000000 -0.153876 0.031280 0.198199
    10 4.826790 -0.004591 0.000000 -0.285742 0.035115 0.118151
    11 5.792768 -0.005304 0.000000 -0.155281 0.023214 0.146464
    12 6.662314 -0.001453 0.000000 -0.000144 -0.183162 0.296580
    13 2.046984 -0.000002 0.000000 0.482012 -0.189126 0.015835
    14 1.038628 0.548043 -0.144017 -0.000001 0.000001 -1.849906
    15 -0.064003 -0.023525 0.026161 0.000000 0.000000 0.000000
    16 3.013920 3.984632 -0.088975 -0.000001 0.000001 -1.849906
    17 -0.084188 -0.025625 -0.001098 0.000000 0.000000 0.000000
    18 4.778185 3.972485 -0.079803 -0.000001 0.000001 -1.849906
    19 -0.058556 -0.021328 0.004244 0.000000 0.000000 0.000000
    20 1.640597 -1.968779 -0.099219 -0.000001 0.000001 -1.849906
    21 0.055573 -0.028913 0.000000 0.000000 0.000000 0.000000
    22 -2.483098 0.954736 4.873176 1.533190 -1.199778 1.377879
    23 4.827231 0.000000 0.000002 -0.138150 0.756077 -0.887975
    24 11.139760 0.000000 0.000000 0.000000 0.000000 -1.805809
    25 10.314597 0.000000 -0.000001 -1.656465 -0.250819 -0.102228
    26 1.646739 0.449549 -1.702246 0.441914 0.155087 1.184543
    27 0.928312 0.000000 -0.000001 0.000000 0.000000 0.000000
    28 0.928313 -0.000001 0.000002 0.000000 0.000000 0.000000
    29 2.975833 -0.386307 -0.044143 -0.018486 -0.039512 0.419622
    30 1.438886 -0.000001 0.000000 0.000000 0.000000 0.857060
    31 1.485302 -0.000001 0.000000 0.000000 0.000000 1.018016
    32 -3.768362 0.884021 -3.515377 0.142262 1.186117 2.980891
    33 4.972046 0.000000 0.000000 -0.167408 -1.009212 -0.243761
    34 11.585350 0.000000 0.000001 0.000000 0.000000 -1.968440
    35 10.127054 -0.000001 -0.000001 1.569752 0.000000 -0.069778
    36 1.533672 0.109715 1.664490 -0.264755 -0.055971 0.783109
    37 0.928312 0.000001 0.000000 0.000000 0.000000 -0.453542
    38 0.928313 0.000000 0.000002 0.000000 0.000000 0.000000
    39 2.683747 -0.427339 0.044205 -0.005786 0.043239 -0.157091
    40 1.438886 -0.000001 0.000002 0.000000 0.000000 0.732659
    41 1.485300 0.000000 0.000000 0.000000 0.000000 1.168771
  time 30
    0 0.233849 0.368164 39.526119 0.000000 0.000000 -1.570795
    1 0.000000 0.000000 0.000000 0.000000 -1.570451 -1.570795
    2 -0.000004 0.000007 3.713254 -3.139539 0.026087 3.120120
    3 18.045721 0.000000 0.000000 0.000000 0.000000 -0.121501
    4 17.597595 0.000000 0.000000 -0.002613 0.026036 0.099967
    5 0.000004 -0.000003 -3.713254 3.139069 -0.017354 3.117144
    6 18.045725 0.000000 0.000000 0.000000 0.000000 -0.127551
    7 17.597597 0.000000 0.000000 0.002950 -0.017289 0.103055
    8 1.293671 0.684478 -0.000001 -0.000004 -0.000001 0.061853
    9 5.309686 -0.003834 0.000000 -0.153876 0.031280 0.198199
    10 4.826790 -0.004591 0.000000 -0.285774 0.034803 0.117093
    11 5.792768 -0.005304 0.000000 -0.155281 0.023214 0.146464
    12 6.662314 -0.001453 0.000000 -0.000144 -0.183162 0.296580
    13 2.046984 -0.000002 0.000000 0.482141 -0.189283 0.016869
    14 1.038628 0.548043 -0.144017 -0.000001 0.000001 -1.849906
    15 -0.064003 -0.023525 0.026161 0.000000 0.000000 0.000000
    16 3.013920 3.984632 -0.088975 -0.000001 0.000001 -1.849906
    17 -0.084188 -0.025625 -0.001098 0.000000 0.000000 0.000000
    18 4.778185 3.972485 -0.079803 -0.000001 0.000001 -1.849906
    19 -0.058556 -0.021328 0.004244 0.000000 0.000000 0.000000
    20 1.640597 -1.968779 -0.099219 -0.000001 0.000001 -1.849906
    21 0.055573 -0.028913 0.000000 0.000000 0.000000 0.000000
    22 -2.483098 0.954736 4.873176 1.539901 -1.199855 1.370688
    23 4.827231 0.000000 0.000002 -0.140617 0.758800 -0.889463
    24 11.139760 0.000000 0.000000 0.000000 0.000000 -1.805809
    25 10.314597 0.000000 -0.000001 -1.657094 -0.276301 -0.099925
    26 1.646739 0.449549 -1.702246 0.441914 0.155087 1.184543
    27 0.928312 0.000000 -0.000001 0.000000 0.000000 0.000000
    28 0.928313 -0.000001 0.000002 0.000000 0.000000 0.000000
    29 2.975833 -0.386307 -0.044143 -0.021506 -0.037954 0.497588
    30 1.438886 -0.000001 0.000000 0.000000 0.000000 0.889650
    31 1.485302 -0.000001 0.000000 0.000000 0.000000 1.116422
    32 -3.768362 0.884021 -3.515377 0.144371 1.191883 2.983096
    33 4.972046 0.000000 0.000000 -0.166790 -1.014923 -0.244090
    34 11.585350 0.000000 0.000001 0.000000 0.000000 -1.968440
    35 10.127054 -0.000001 -0.000001 1.569752 0.000000 -0.069778
    36 1.533672 0.109715 1.664490 -0.264755 -0.055971 0.783109
    37 0.928312 0.000001 0.000000 0.000000 0.000000 -0.453542
    38 0.928313 0.000000 0.000002 0.000000 0.000000 0.000000
    39 2.683747 -0.427339 0.044205 -0.005786 0.043239 -0.157091
    40 1.438886 -0.000001 0.000002 0.000000 0.000000 0.732659
    41 1.485300 0.000000 0.000000 0.000000 0.000000 1.168771
end
