// Created by Crowbar 0.44.0.0
version 1
nodes
  0 "Bip01" -1
  1 "Bip01 Pelvis" 0
  2 "Bip01 L Leg" 1
  3 "Bip01 L Leg1" 2
  4 "Bip01 L Foot" 3
  5 "Bip01 R Leg" 1
  6 "Bip01 R Leg1" 5
  7 "Bip01 R Foot" 6
  8 "Bip01 Spine" 1
  9 "Bip01 Spine1" 8
  10 "Bip01 Spine2" 9
  11 "Bip01 Spine3" 10
  12 "Bip01 Neck" 11
  13 "Bip01 Head" 12
  14 "Dummy08" 13
  15 "Bone02" 14
  16 "Dummy04" 13
  17 "Bone05" 16
  18 "Dummy03" 13
  19 "Bone07" 18
  20 "Dummy10" 13
  21 "Bone13" 20
  22 "Bip01 L Arm" 12
  23 "Bip01 L Arm1" 22
  24 "Bip01 L Arm2" 23
  25 "Bip01 L Hand" 24
  26 "Bip01 L Finger0" 25
  27 "Bip01 L Finger01" 26
  28 "Bip01 L Finger02" 27
  29 "Bip01 L Finger1" 25
  30 "Bip01 L Finger11" 29
  31 "Bip01 L Finger12" 30
  32 "Bip01 R Arm" 12
  33 "Bip01 R Arm1" 32
  34 "Bip01 R Arm2" 33
  35 "Bip01 R Hand" 34
  36 "Bip01 R Finger0" 35
  37 "Bip01 R Finger01" 36
  38 "Bip01 R Finger02" 37
  39 "Bip01 R Finger1" 35
  40 "Bip01 R Finger11" 39
  41 "Bip01 R Finger12" 40
end
skeleton
  time 0
    0 0.233849 0.368164 39.526119 0.000000 0.000000 -1.570795
    1 0.000000 0.000000 0.000000 0.000000 -1.570451 -1.570795
    2 -0.000004 0.000007 3.713254 -3.139539 0.026087 3.120120
    3 18.045721 0.000000 0.000000 0.000000 0.000000 -0.121501
    4 17.597595 0.000000 0.000000 -0.002613 0.026036 0.099967
    5 0.000004 -0.000003 -3.713254 3.139069 -0.017354 3.117144
    6 18.045725 0.000000 0.000000 0.000000 0.000000 -0.127551
    7 17.597597 0.000000 0.000000 0.002950 -0.017289 0.103055
    8 1.293671 0.684478 -0.000001 -0.000004 -0.000001 0.061735
    9 5.309686 -0.003834 0.000000 -0.258329 0.042905 0.160134
    10 4.826790 -0.004591 0.000000 0.000000 0.000000 0.183152
    11 5.792768 -0.005304 0.000000 0.000000 0.000000 0.287817
    12 6.662314 -0.001453 0.000000 0.000000 -0.000001 0.209228
    13 2.046984 -0.000002 0.000000 0.150747 -0.214838 0.104966
    14 1.038628 0.548043 -0.144017 -0.000001 0.000001 -1.849906
    15 -0.064003 -0.023525 0.026161 0.000000 0.000000 0.000000
    16 3.013920 3.984632 -0.088975 -0.000001 0.000001 -1.849906
    17 -0.084188 -0.025625 -0.001098 0.000000 0.000000 0.000000
    18 4.778185 3.972485 -0.079803 -0.000001 0.000001 -1.849906
    19 -0.058556 -0.021328 0.004244 0.000000 0.000000 0.000000
    20 1.640597 -1.968779 -0.099219 -0.000001 0.000001 -1.849906
    21 0.055573 -0.028913 0.000000 0.000000 0.000000 0.000000
    22 -3.397188 0.661759 4.341910 1.008285 -1.207587 1.954190
    23 4.827231 0.000000 0.000002 -0.377911 0.911300 -0.791713
    24 11.139760 0.000000 0.000000 0.000000 0.000000 -1.914924
    25 10.314597 0.000000 -0.000001 -1.174256 -0.598196 -0.222490
    26 1.646739 0.449549 -1.702246 0.369699 -0.012752 0.801965
    27 0.928312 0.000000 -0.000001 0.000000 0.000000 0.000000
    28 0.928313 -0.000001 0.000002 0.000000 0.000000 0.000000
    29 2.975833 -0.386307 -0.044143 0.001097 -0.043611 -0.043588
    30 1.438886 -0.000001 0.000000 0.000000 0.000000 1.334476
    31 1.485302 -0.000001 0.000000 0.000000 0.000000 0.793705
    32 -3.131623 0.610575 -4.140396 -1.213001 1.046068 1.768576
    33 4.972046 0.000000 0.000000 0.156089 -0.753329 -0.225448
    34 11.585350 0.000000 0.000001 0.000000 0.000000 -1.961934
    35 10.127054 -0.000001 -0.000001 1.667216 0.765311 -0.200791
    36 1.533672 0.109715 1.664490 -0.264755 -0.055971 0.783109
    37 0.928312 0.000001 0.000000 0.000000 0.000000 -0.453542
    38 0.928313 0.000000 0.000002 0.000000 0.000000 0.000000
    39 2.683747 -0.427339 0.044205 -0.005786 0.043239 -0.157091
    40 1.438886 -0.000001 0.000002 0.000000 0.000000 0.732659
    41 1.485300 0.000000 0.000000 0.000000 0.000000 1.168771
  time 1
    0 0.233849 0.368164 39.526119 0.000000 0.000000 -1.570795
    1 0.000000 0.000000 0.000000 0.000000 -1.570451 -1.570795
    2 -0.000004 0.000007 3.713254 -3.139539 0.026087 3.120120
    3 18.045721 0.000000 0.000000 0.000000 0.000000 -0.121501
    4 17.597595 0.000000 0.000000 -0.002613 0.026036 0.099967
    5 0.000004 -0.000003 -3.713254 3.139069 -0.017354 3.117144
    6 18.045725 0.000000 0.000000 0.000000 0.000000 -0.127551
    7 17.597597 0.000000 0.000000 0.002950 -0.017289 0.103055
    8 1.293671 0.684478 -0.000001 -0.000004 -0.000001 0.061735
    9 5.309686 -0.003834 0.000000 -0.257288 0.048921 0.182969
    10 4.826790 -0.004591 0.000000 0.037930 -0.007047 0.183019
    11 5.792768 -0.005304 0.000000 0.000000 0.000000 0.287817
    12 6.662314 -0.001453 0.000000 0.000000 -0.000001 0.209228
    13 2.046984 -0.000002 0.000000 0.122355 -0.188113 0.087077
    14 1.038628 0.548043 -0.144017 -0.000001 0.000001 -1.849906
    15 -0.064003 -0.023525 0.026161 0.000000 0.000000 0.000000
    16 3.013920 3.984632 -0.088975 -0.000001 0.000001 -1.849906
    17 -0.084188 -0.025625 -0.001098 0.000000 0.000000 0.000000
    18 4.778185 3.972485 -0.079803 -0.000001 0.000001 -1.849906
    19 -0.058556 -0.021328 0.004244 0.000000 0.000000 0.000000
    20 1.640597 -1.968779 -0.099219 -0.000001 0.000001 -1.849906
    21 0.055573 -0.028913 0.000000 0.000000 0.000000 0.000000
    22 -3.397188 0.661759 4.341910 1.008285 -1.207587 1.954190
    23 4.827231 0.000000 0.000002 -0.535442 0.724419 -0.948708
    24 11.139760 0.000000 0.000000 0.000000 0.000000 -1.598793
    25 10.314597 0.000000 -0.000001 -1.344939 -0.598196 -0.222490
    26 1.646739 0.449549 -1.702246 0.369699 -0.012752 0.801965
    27 0.928312 0.000000 -0.000001 0.000000 0.000000 0.000000
    28 0.928313 -0.000001 0.000002 0.000000 0.000000 0.000000
    29 2.975833 -0.386307 -0.044143 0.001097 -0.043611 -0.043588
    30 1.438886 -0.000001 0.000000 0.000000 0.000000 1.334476
    31 1.485302 -0.000001 0.000000 0.000000 0.000000 0.793705
    32 -3.131623 0.610575 -4.140396 -1.213001 1.046068 1.768576
    33 4.972046 0.000000 0.000000 0.390706 -0.671440 -0.538672
    34 11.585350 0.000000 0.000001 0.000000 0.000000 -1.659790
    35 10.127054 -0.000001 -0.000001 1.741365 0.715120 -0.135402
    36 1.533672 0.109715 1.664490 -0.264755 -0.055971 0.783109
    37 0.928312 0.000001 0.000000 0.000000 0.000000 -0.453542
    38 0.928313 0.000000 0.000002 0.000000 0.000000 0.000000
    39 2.683747 -0.427339 0.044205 -0.005786 0.043239 -0.157091
    40 1.438886 -0.000001 0.000002 0.000000 0.000000 0.732659
    41 1.485300 0.000000 0.000000 0.000000 0.000000 1.168771
  time 2
    0 0.233849 0.368164 39.526119 0.000000 0.000000 -1.570795
    1 0.000000 0.000000 0.000000 0.000000 -1.570451 -1.570795
    2 -0.000004 0.000007 3.713254 -3.139539 0.026087 3.120120
    3 18.045721 0.000000 0.000000 0.000000 0.000000 -0.121501
    4 17.597595 0.000000 0.000000 -0.002613 0.026036 0.099967
    5 0.000004 -0.000003 -3.713254 3.139069 -0.017354 3.117144
    6 18.045725 0.000000 0.000000 0.000000 0.000000 -0.127551
    7 17.597597 0.000000 0.000000 0.002950 -0.017289 0.103055
    8 1.293671 0.684478 -0.000001 -0.000004 -0.000001 0.061735
    9 5.309686 -0.003834 0.000000 -0.255427 0.058005 0.217666
    10 4.826790 -0.004591 0.000000 0.095581 -0.017749 0.182314
    11 5.792768 -0.005304 0.000000 0.000000 0.000000 0.287817
    12 6.662314 -0.001453 0.000000 0.000000 -0.000001 0.209228
    13 2.046984 -0.000002 0.000000 0.077291 -0.149747 0.058850
    14 1.038628 0.548043 -0.144017 -0.000001 0.000001 -1.849906
    15 -0.064003 -0.023525 0.026161 0.000000 0.000000 0.000000
    16 3.013920 3.984632 -0.088975 -0.000001 0.000001 -1.849906
    17 -0.084188 -0.025625 -0.001098 0.000000 0.000000 0.000000
    18 4.778185 3.972485 -0.079803 -0.000001 0.000001 -1.849906
    19 -0.058556 -0.021328 0.004244 0.000000 0.000000 0.000000
    20 1.640597 -1.968779 -0.099219 -0.000001 0.000001 -1.849906
    21 0.055573 -0.028913 0.000000 0.000000 0.000000 0.000000
    22 -3.397188 0.661759 4.341910 1.008285 -1.207587 1.954190
    23 4.827231 0.000000 0.000002 -0.690389 0.428098 -1.107803
    24 11.139760 0.000000 0.000000 0.000000 0.000000 -1.123442
    25 10.314597 0.000000 -0.000001 -1.601368 -0.598196 -0.222490
    26 1.646739 0.449549 -1.702246 0.369699 -0.012752 0.801965
    27 0.928312 0.000000 -0.000001 0.000000 0.000000 0.000000
    28 0.928313 -0.000001 0.000002 0.000000 0.000000 0.000000
    29 2.975833 -0.386307 -0.044143 0.001097 -0.043611 -0.043588
    30 1.438886 -0.000001 0.000000 0.000000 0.000000 1.334476
    31 1.485302 -0.000001 0.000000 0.000000 0.000000 0.793705
    32 -3.131623 0.610575 -4.140396 -1.213001 1.046068 1.768576
    33 4.972046 0.000000 0.000000 0.621687 -0.450227 -0.899983
    34 11.585350 0.000000 0.000001 0.000000 0.000000 -1.206540
    35 10.127054 -0.000001 -0.000001 1.839339 0.633689 -0.051107
    36 1.533672 0.109715 1.664490 -0.264755 -0.055971 0.783109
    37 0.928312 0.000001 0.000000 0.000000 0.000000 -0.453542
    38 0.928313 0.000000 0.000002 0.000000 0.000000 0.000000
    39 2.683747 -0.427339 0.044205 -0.005786 0.043239 -0.157091
    40 1.438886 -0.000001 0.000002 0.000000 0.000000 0.732659
    41 1.485300 0.000000 0.000000 0.000000 0.000000 1.168771
  time 3
    0 0.233849 0.368164 39.526119 0.000000 0.000000 -1.570795
    1 0.000000 0.000000 0.000000 0.000000 -1.570451 -1.570795
    2 -0.000004 0.000007 3.713254 -3.139539 0.026087 3.120120
    3 18.045721 0.000000 0.000000 0.000000 0.000000 -0.121501
    4 17.597595 0.000000 0.000000 -0.002613 0.026036 0.099967
    5 0.000004 -0.000003 -3.713254 3.139069 -0.017354 3.117144
    6 18.045725 0.000000 0.000000 0.000000 0.000000 -0.127551
    7 17.597597 0.000000 0.000000 0.002950 -0.017289 0.103055
    8 1.293671 0.684478 -0.000001 -0.000004 -0.000001 0.061735
    9 5.309686 -0.003834 0.000000 -0.253775 0.065016 0.244666
    10 4.826790 -0.004591 0.000000 0.140391 -0.026031 0.181322
    11 5.792768 -0.005304 0.000000 0.000000 0.000000 0.287817
    12 6.662314 -0.001453 0.000000 0.000000 -0.000001 0.209228
    13 2.046984 -0.000002 0.000000 0.040756 -0.121896 0.036151
    14 1.038628 0.548043 -0.144017 -0.000001 0.000001 -1.849906
    15 -0.064003 -0.023525 0.026161 0.000000 0.000000 0.000000
    16 3.013920 3.984632 -0.088975 -0.000001 0.000001 -1.849906
    17 -0.084188 -0.025625 -0.001098 0.000000 0.000000 0.000000
    18 4.778185 3.972485 -0.079803 -0.000001 0.000001 -1.849906
    19 -0.058556 -0.021328 0.004244 0.000000 0.000000 0.000000
    20 1.640597 -1.968779 -0.099219 -0.000001 0.000001 -1.849906
    21 0.055573 -0.028913 0.000000 0.000000 0.000000 0.000000
    22 -3.397188 0.661759 4.341910 1.008285 -1.207587 1.954190
    23 4.827231 0.000000 0.000002 -0.786364 0.183008 -1.185776
    24 11.139760 0.000000 0.000000 0.000000 0.000000 -0.721324
    25 10.314597 0.000000 -0.000001 -1.818430 -0.598196 -0.222490
    26 1.646739 0.449549 -1.702246 0.369699 -0.012752 0.801965
    27 0.928312 0.000000 -0.000001 0.000000 0.000000 0.000000
    28 0.928313 -0.000001 0.000002 0.000000 0.000000 0.000000
    29 2.975833 -0.386307 -0.044143 0.001097 -0.043611 -0.043588
    30 1.438886 -0.000001 0.000000 0.000000 0.000000 1.334476
    31 1.485302 -0.000001 0.000000 0.000000 0.000000 0.793705
    32 -3.131623 0.610575 -4.140396 -1.213001 1.046068 1.768576
    33 4.972046 0.000000 0.000000 0.717065 -0.215179 -1.127506
    34 11.585350 0.000000 0.000001 0.000000 0.000000 -0.811143
    35 10.127054 -0.000001 -0.000001 1.911323 0.560325 0.008947
    36 1.533672 0.109715 1.664490 -0.264755 -0.055971 0.783109
    37 0.928312 0.000001 0.000000 0.000000 0.000000 -0.453542
    38 0.928313 0.000000 0.000002 0.000000 0.000000 0.000000
    39 2.683747 -0.427339 0.044205 -0.005786 0.043239 -0.157091
    40 1.438886 -0.000001 0.000002 0.000000 0.000000 0.732659
    41 1.485300 0.000000 0.000000 0.000000 0.000000 1.168771
  time 4
    0 0.233849 0.368164 39.526119 0.000000 0.000000 -1.570795
    1 0.000000 0.000000 0.000000 0.000000 -1.570451 -1.570795
    2 -0.000004 0.000007 3.713254 -3.139539 0.026087 3.120120
    3 18.045721 0.000000 0.000000 0.000000 0.000000 -0.121501
    4 17.597595 0.000000 0.000000 -0.002613 0.026036 0.099967
    5 0.000004 -0.000003 -3.713254 3.139069 -0.017354 3.117144
    6 18.045725 0.000000 0.000000 0.000000 0.000000 -0.127551
    7 17.597597 0.000000 0.000000 0.002950 -0.017289 0.103055
    8 1.293671 0.684478 -0.000001 -0.000004 -0.000001 0.061735
    9 5.309686 -0.003834 0.000000 -0.253211 0.067198 0.253105
    10 4.826790 -0.004591 0.000000 0.154381 -0.028595 0.180947
    11 5.792768 -0.005304 0.000000 0.000000 0.000000 0.287817
    12 6.662314 -0.001453 0.000000 0.000000 -0.000001 0.209228
    13 2.046984 -0.000002 0.000000 0.029081 -0.113566 0.028960
    14 1.038628 0.548043 -0.144017 -0.000001 0.000001 -1.849906
    15 -0.064003 -0.023525 0.026161 0.000000 0.000000 0.000000
    16 3.013920 3.984632 -0.088975 -0.000001 0.000001 -1.849906
    17 -0.084188 -0.025625 -0.001098 0.000000 0.000000 0.000000
    18 4.778185 3.972485 -0.079803 -0.000001 0.000001 -1.849906
    19 -0.058556 -0.021328 0.004244 0.000000 0.000000 0.000000
    20 1.640597 -1.968779 -0.099219 -0.000001 0.000001 -1.849906
    21 0.055573 -0.028913 0.000000 0.000000 0.000000 0.000000
    22 -3.397188 0.661759 4.341910 1.008285 -1.207587 1.954190
    23 4.827231 0.000000 0.000002 -0.824014 0.104460 -1.174049
    24 11.139760 0.000000 0.000000 0.000000 0.000000 -0.557617
    25 10.314597 0.000000 -0.000001 -1.906873 -0.598196 -0.222490
    26 1.646739 0.449549 -1.702246 0.369699 -0.012752 0.801965
    27 0.928312 0.000000 -0.000001 0.000000 0.000000 0.000000
    28 0.928313 -0.000001 0.000002 0.000000 0.000000 0.000000
    29 2.975833 -0.386307 -0.044143 0.001097 -0.043611 -0.043588
    30 1.438886 -0.000001 0.000000 0.000000 0.000000 1.334476
    31 1.485302 -0.000001 0.000000 0.000000 0.000000 0.793705
    32 -3.131623 0.610575 -4.140396 -1.213001 1.046068 1.768576
    33 4.972046 0.000000 0.000000 0.744371 -0.112858 -1.208332
    34 11.585350 0.000000 0.000001 0.000000 0.000000 -0.625268
    35 10.127054 -0.000001 -0.000001 1.938269 0.529518 0.030835
    36 1.533672 0.109715 1.664490 -0.264755 -0.055971 0.783109
    37 0.928312 0.000001 0.000000 0.000000 0.000000 -0.453542
    38 0.928313 0.000000 0.000002 0.000000 0.000000 0.000000
    39 2.683747 -0.427339 0.044205 -0.005786 0.043239 -0.157091
    40 1.438886 -0.000001 0.000002 0.000000 0.000000 0.732659
    41 1.485300 0.000000 0.000000 0.000000 0.000000 1.168771
  time 5
    0 0.233849 0.368164 39.526119 0.000000 0.000000 -1.570795
    1 0.000000 0.000000 0.000000 0.000000 -1.570451 -1.570795
    2 -0.000004 0.000007 3.713254 -3.139539 0.026087 3.120120
    3 18.045721 0.000000 0.000000 0.000000 0.000000 -0.121501
    4 17.597595 0.000000 0.000000 -0.002613 0.026036 0.099967
    5 0.000004 -0.000003 -3.713254 3.139069 -0.017354 3.117144
    6 18.045725 0.000000 0.000000 0.000000 0.000000 -0.127551
    7 17.597597 0.000000 0.000000 0.002950 -0.017289 0.103055
    8 1.293671 0.684478 -0.000001 -0.000004 -0.000001 0.061735
    9 5.309686 -0.003834 0.000000 -0.253554 0.065855 0.247908
    10 4.826790 -0.004591 0.000000 0.145777 -0.027013 0.181189
    11 5.792768 -0.005304 0.000000 0.000000 0.000000 0.287817
    12 6.662314 -0.001453 0.000000 0.000000 -0.000001 0.209228
    13 2.046984 -0.000002 0.000000 0.036276 -0.118676 0.033409
    14 1.038628 0.548043 -0.144017 -0.000001 0.000001 -1.849906
    15 -0.064003 -0.023525 0.026161 0.000000 0.000000 0.000000
    16 3.013920 3.984632 -0.088975 -0.000001 0.000001 -1.849906
    17 -0.084188 -0.025625 -0.001098 0.000000 0.000000 0.000000
    18 4.778185 3.972485 -0.079803 -0.000001 0.000001 -1.849906
    19 -0.058556 -0.021328 0.004244 0.000000 0.000000 0.000000
    20 1.640597 -1.968779 -0.099219 -0.000001 0.000001 -1.849906
    21 0.055573 -0.028913 0.000000 0.000000 0.000000 0.000000
    22 -3.397188 0.661759 4.341910 1.008285 -1.207587 1.954190
    23 4.827231 0.000000 0.000002 -0.809917 0.179945 -1.089514
    24 11.139760 0.000000 0.000000 0.000000 0.000000 -0.613261
    25 10.314597 0.000000 -0.000001 -1.876852 -0.598196 -0.222490
    26 1.646739 0.449549 -1.702246 0.369699 -0.012752 0.801965
    27 0.928312 0.000000 -0.000001 0.000000 0.000000 0.000000
    28 0.928313 -0.000001 0.000002 0.000000 0.000000 0.000000
    29 2.975833 -0.386307 -0.044143 0.001097 -0.043611 -0.043588
    30 1.438886 -0.000001 0.000000 0.000000 0.000000 1.334476
    31 1.485302 -0.000001 0.000000 0.000000 0.000000 0.793705
    32 -3.131623 0.610575 -4.140396 -1.213001 1.046068 1.768576
    33 4.972046 0.000000 0.000000 0.763323 -0.141656 -1.175857
    34 11.585350 0.000000 0.000001 0.000000 0.000000 -0.627227
    35 10.127054 -0.000001 -0.000001 1.929287 0.540049 0.023539
    36 1.533672 0.109715 1.664490 -0.264755 -0.055971 0.783109
    37 0.928312 0.000001 0.000000 0.000000 0.000000 -0.453542
    38 0.928313 0.000000 0.000002 0.000000 0.000000 0.000000
    39 2.683747 -0.427339 0.044205 -0.005786 0.043239 -0.157091
    40 1.438886 -0.000001 0.000002 0.000000 0.000000 0.732659
    41 1.485300 0.000000 0.000000 0.000000 0.000000 1.168771
  time 6
    0 0.233849 0.368164 39.526119 0.000000 0.000000 -1.570795
    1 0.000000 0.000000 0.000000 0.000000 -1.570451 -1.570795
    2 -0.000004 0.000007 3.713254 -3.139539 0.026087 3.120120
    3 18.045721 0.000000 0.000000 0.000000 0.000000 -0.121501
    4 17.597595 0.000000 0.000000 -0.002613 0.026036 0.099967
    5 0.000004 -0.000003 -3.713254 3.139069 -0.017354 3.117144
    6 18.045725 0.000000 0.000000 0.000000 0.000000 -0.127551
    7 17.597597 0.000000 0.000000 0.002950 -0.017289 0.103055
    8 1.293671 0.684478 -0.000001 -0.000004 -0.000001 0.061735
    9 5.309686 -0.003834 0.000000 -0.254313 0.062835 0.236246
    10 4.826790 -0.004591 0.000000 0.126418 -0.023454 0.181674
    11 5.792768 -0.005304 0.000000 0.000000 0.000000 0.287817
    12 6.662314 -0.001453 0.000000 0.000000 -0.000001 0.209228
    13 2.046984 -0.000002 0.000000 0.052303 -0.130384 0.043343
    14 1.038628 0.548043 -0.144017 -0.000001 0.000001 -1.849906
    15 -0.064003 -0.023525 0.026161 0.000000 0.000000 0.000000
    16 3.013920 3.984632 -0.088975 -0.000001 0.000001 -1.849906
    17 -0.084188 -0.025625 -0.001098 0.000000 0.000000 0.000000
    18 4.778185 3.972485 -0.079803 -0.000001 0.000001 -1.849906
    19 -0.058556 -0.021328 0.004244 0.000000 0.000000 0.000000
    20 1.640597 -1.968779 -0.099219 -0.000001 0.000001 -1.849906
    21 0.055573 -0.028913 0.000000 0.000000 0.000000 0.000000
    22 -3.397188 0.661759 4.341910 1.008285 -1.207587 1.954190
    23 4.827231 0.000000 0.000002 -0.761518 0.315936 -0.966035
    24 11.139760 0.000000 0.000000 0.000000 0.000000 -0.756364
    25 10.314597 0.000000 -0.000001 -1.799555 -0.598196 -0.222490
    26 1.646739 0.449549 -1.702246 0.369699 -0.012752 0.801965
    27 0.928312 0.000000 -0.000001 0.000000 0.000000 0.000000
    28 0.928313 -0.000001 0.000002 0.000000 0.000000 0.000000
    29 2.975833 -0.386307 -0.044143 0.001097 -0.043611 -0.043588
    30 1.438886 -0.000001 0.000000 0.000000 0.000000 1.334476
    31 1.485302 -0.000001 0.000000 0.000000 0.000000 0.793705
    32 -3.131623 0.610575 -4.140396 -1.213001 1.046068 1.768576
    33 4.972046 0.000000 0.000000 0.774462 -0.225314 -1.099379
    34 11.585350 0.000000 0.000001 0.000000 0.000000 -0.702500
    35 10.127054 -0.000001 -0.000001 1.905398 0.566850 0.004083
    36 1.533672 0.109715 1.664490 -0.264755 -0.055971 0.783109
    37 0.928312 0.000001 0.000000 0.000000 0.000000 -0.453542
    38 0.928313 0.000000 0.000002 0.000000 0.000000 0.000000
    39 2.683747 -0.427339 0.044205 -0.005786 0.043239 -0.157091
    40 1.438886 -0.000001 0.000002 0.000000 0.000000 0.732659
    41 1.485300 0.000000 0.000000 0.000000 0.000000 1.168771
  time 7
    0 0.233849 0.368164 39.526119 0.000000 0.000000 -1.570795
    1 0.000000 0.000000 0.000000 0.000000 -1.570451 -1.570795
    2 -0.000004 0.000007 3.713254 -3.139539 0.026087 3.120120
    3 18.045721 0.000000 0.000000 0.000000 0.000000 -0.121501
    4 17.597595 0.000000 0.000000 -0.002613 0.026036 0.099967
    5 0.000004 -0.000003 -3.713254 3.139069 -0.017354 3.117144
    6 18.045725 0.000000 0.000000 0.000000 0.000000 -0.127551
    7 17.597597 0.000000 0.000000 0.002950 -0.017289 0.103055
    8 1.293671 0.684478 -0.000001 -0.000004 -0.000001 0.061735
    9 5.309686 -0.003834 0.000000 -0.255182 0.059120 0.221940
    10 4.826790 -0.004591 0.000000 0.102675 -0.019067 0.182182
    11 5.792768 -0.005304 0.000000 0.000000 0.000000 0.287817
    12 6.662314 -0.001453 0.000000 0.000000 -0.000001 0.209228
    13 2.046984 -0.000002 0.000000 0.071604 -0.145222 0.055344
    14 1.038628 0.548043 -0.144017 -0.000001 0.000001 -1.849906
    15 -0.064003 -0.023525 0.026161 0.000000 0.000000 0.000000
    16 3.013920 3.984632 -0.088975 -0.000001 0.000001 -1.849906
    17 -0.084188 -0.025625 -0.001098 0.000000 0.000000 0.000000
    18 4.778185 3.972485 -0.079803 -0.000001 0.000001 -1.849906
    19 -0.058556 -0.021328 0.004244 0.000000 0.000000 0.000000
    20 1.640597 -1.968779 -0.099219 -0.000001 0.000001 -1.849906
    21 0.055573 -0.028913 0.000000 0.000000 0.000000 0.000000
    22 -3.397188 0.661759 4.341910 1.008285 -1.207587 1.954190
    23 4.827231 0.000000 0.000002 -0.678348 0.470819 -0.816479
    24 11.139760 0.000000 0.000000 0.000000 0.000000 -0.938011
    25 10.314597 0.000000 -0.000001 -1.701495 -0.598196 -0.222490
    26 1.646739 0.449549 -1.702246 0.369699 -0.012752 0.801965
    27 0.928312 0.000000 -0.000001 0.000000 0.000000 0.000000
    28 0.928313 -0.000001 0.000002 0.000000 0.000000 0.000000
    29 2.975833 -0.386307 -0.044143 0.001097 -0.043611 -0.043588
    30 1.438886 -0.000001 0.000000 0.000000 0.000000 1.334476
    31 1.485302 -0.000001 0.000000 0.000000 0.000000 0.793705
    32 -3.131623 0.610575 -4.140396 -1.213001 1.046068 1.768576
    33 4.972046 0.000000 0.000000 0.768274 -0.332140 -0.999450
    34 11.585350 0.000000 0.000001 0.000000 0.000000 -0.812822
    35 10.127054 -0.000001 -0.000001 1.873675 0.600310 -0.022276
    36 1.533672 0.109715 1.664490 -0.264755 -0.055971 0.783109
    37 0.928312 0.000001 0.000000 0.000000 0.000000 -0.453542
    38 0.928313 0.000000 0.000002 0.000000 0.000000 0.000000
    39 2.683747 -0.427339 0.044205 -0.005786 0.043239 -0.157091
    40 1.438886 -0.000001 0.000002 0.000000 0.000000 0.732659
    41 1.485300 0.000000 0.000000 0.000000 0.000000 1.168771
  time 8
    0 0.233849 0.368164 39.526119 0.000000 0.000000 -1.570795
    1 0.000000 0.000000 0.000000 0.000000 -1.570451 -1.570795
    2 -0.000004 0.000007 3.713254 -3.139539 0.026087 3.120120
    3 18.045721 0.000000 0.000000 0.000000 0.000000 -0.121501
    4 17.597595 0.000000 0.000000 -0.002613 0.026036 0.099967
    5 0.000004 -0.000003 -3.713254 3.139069 -0.017354 3.117144
    6 18.045725 0.000000 0.000000 0.000000 0.000000 -0.127551
    7 17.597597 0.000000 0.000000 0.002950 -0.017289 0.103055
    8 1.293671 0.684478 -0.000001 -0.000004 -0.000001 0.061735
    9 5.309686 -0.003834 0.000000 -0.256027 0.055225 0.207036
    10 4.826790 -0.004591 0.000000 0.077930 -0.014477 0.182600
    11 5.792768 -0.005304 0.000000 0.000000 0.000000 0.287817
    12 6.662314 -0.001453 0.000000 0.000000 -0.000001 0.209228
    13 2.046984 -0.000002 0.000000 0.091336 -0.161185 0.067615
    14 1.038628 0.548043 -0.144017 -0.000001 0.000001 -1.849906
    15 -0.064003 -0.023525 0.026161 0.000000 0.000000 0.000000
    16 3.013920 3.984632 -0.088975 -0.000001 0.000001 -1.849906
    17 -0.084188 -0.025625 -0.001098 0.000000 0.000000 0.000000
    18 4.778185 3.972485 -0.079803 -0.000001 0.000001 -1.849906
    19 -0.058556 -0.021328 0.004244 0.000000 0.000000 0.000000
    20 1.640597 -1.968779 -0.099219 -0.000001 0.000001 -1.849906
    21 0.055573 -0.028913 0.000000 0.000000 0.000000 0.000000
    22 -3.397188 0.661759 4.341910 1.008285 -1.207587 1.954190
    23 4.827231 0.000000 0.000002 -0.542961 0.632851 -0.626317
    24 11.139760 0.000000 0.000000 0.000000 0.000000 -1.154347
    25 10.314597 0.000000 -0.000001 -1.584740 -0.598196 -0.222490
    26 1.646739 0.449549 -1.702246 0.369699 -0.012752 0.801965
    27 0.928312 0.000000 -0.000001 0.000000 0.000000 0.000000
    28 0.928313 -0.000001 0.000002 0.000000 0.000000 0.000000
    29 2.975833 -0.386307 -0.044143 0.001097 -0.043611 -0.043588
    30 1.438886 -0.000001 0.000000 0.000000 0.000000 1.334476
    31 1.485302 -0.000001 0.000000 0.000000 0.000000 0.793705
    32 -3.131623 0.610575 -4.140396 -1.213001 1.046068 1.768576
    33 4.972046 0.000000 0.000000 0.736868 -0.454008 -0.868693
    34 11.585350 0.000000 0.000001 0.000000 0.000000 -0.954555
    35 10.127054 -0.000001 -0.000001 1.833415 0.639158 -0.056128
    36 1.533672 0.109715 1.664490 -0.264755 -0.055971 0.783109
    37 0.928312 0.000001 0.000000 0.000000 0.000000 -0.453542
    38 0.928313 0.000000 0.000002 0.000000 0.000000 0.000000
    39 2.683747 -0.427339 0.044205 -0.005786 0.043239 -0.157091
    40 1.438886 -0.000001 0.000002 0.000000 0.000000 0.732659
    41 1.485300 0.000000 0.000000 0.000000 0.000000 1.168771
  time 9
    0 0.233849 0.368164 39.526119 0.000000 0.000000 -1.570795
    1 0.000000 0.000000 0.000000 0.000000 -1.570451 -1.570795
    2 -0.000004 0.000007 3.713254 -3.139539 0.026087 3.120120
    3 18.045721 0.000000 0.000000 0.000000 0.000000 -0.121501
    4 17.597595 0.000000 0.000000 -0.002613 0.026036 0.099967
    5 0.000004 -0.000003 -3.713254 3.139069 -0.017354 3.117144
    6 18.045725 0.000000 0.000000 0.000000 0.000000 -0.127551
    7 17.597597 0.000000 0.000000 0.002950 -0.017289 0.103055
    8 1.293671 0.684478 -0.000001 -0.000004 -0.000001 0.061735
    9 5.309686 -0.003834 0.000000 -0.256799 0.051462 0.192639
    10 4.826790 -0.004591 0.000000 0.054006 -0.010043 0.182887
    11 5.792768 -0.005304 0.000000 0.000000 0.000000 0.287817
    12 6.662314 -0.001453 0.000000 0.000000 -0.000001 0.209228
    13 2.046984 -0.000002 0.000000 0.109991 -0.177125 0.079301
    14 1.038628 0.548043 -0.144017 -0.000001 0.000001 -1.849906
    15 -0.064003 -0.023525 0.026161 0.000000 0.000000 0.000000
    16 3.013920 3.984632 -0.088975 -0.000001 0.000001 -1.849906
    17 -0.084188 -0.025625 -0.001098 0.000000 0.000000 0.000000
    18 4.778185 3.972485 -0.079803 -0.000001 0.000001 -1.849906
    19 -0.058556 -0.021328 0.004244 0.000000 0.000000 0.000000
    20 1.640597 -1.968779 -0.099219 -0.000001 0.000001 -1.849906
    21 0.055573 -0.028913 0.000000 0.000000 0.000000 0.000000
    22 -3.397188 0.661759 4.341910 1.008285 -1.207587 1.954190
    23 4.827231 0.000000 0.000002 -0.331157 0.782798 -0.376560
    24 11.139760 0.000000 0.000000 0.000000 0.000000 -1.403691
    25 10.314597 0.000000 -0.000001 -1.450279 -0.598196 -0.222490
    26 1.646739 0.449549 -1.702246 0.369699 -0.012752 0.801965
    27 0.928312 0.000000 -0.000001 0.000000 0.000000 0.000000
    28 0.928313 -0.000001 0.000002 0.000000 0.000000 0.000000
    29 2.975833 -0.386307 -0.044143 0.001097 -0.043611 -0.043588
    30 1.438886 -0.000001 0.000000 0.000000 0.000000 1.334476
    31 1.485302 -0.000001 0.000000 0.000000 0.000000 0.793705
    32 -3.131623 0.610575 -4.140396 -1.213001 1.046068 1.768576
    33 4.972046 0.000000 0.000000 0.666088 -0.582070 -0.695185
    34 11.585350 0.000000 0.000001 0.000000 0.000000 -1.130566
    35 10.127054 -0.000001 -0.000001 1.783472 0.682472 -0.098883
    36 1.533672 0.109715 1.664490 -0.264755 -0.055971 0.783109
    37 0.928312 0.000001 0.000000 0.000000 0.000000 -0.453542
    38 0.928313 0.000000 0.000002 0.000000 0.000000 0.000000
    39 2.683747 -0.427339 0.044205 -0.005786 0.043239 -0.157091
    40 1.438886 -0.000001 0.000002 0.000000 0.000000 0.732659
    41 1.485300 0.000000 0.000000 0.000000 0.000000 1.168771
  time 10
    0 0.233849 0.368164 39.526119 0.000000 0.000000 -1.570795
    1 0.000000 0.000000 0.000000 0.000000 -1.570451 -1.570795
    2 -0.000004 0.000007 3.713254 -3.139539 0.026087 3.120120
    3 18.045721 0.000000 0.000000 0.000000 0.000000 -0.121501
    4 17.597595 0.000000 0.000000 -0.002613 0.026036 0.099967
    5 0.000004 -0.000003 -3.713254 3.139069 -0.017354 3.117144
    6 18.045725 0.000000 0.000000 0.000000 0.000000 -0.127551
    7 17.597597 0.000000 0.000000 0.002950 -0.017289 0.103055
    8 1.293671 0.684478 -0.000001 -0.000004 -0.000001 0.061735
    9 5.309686 -0.003834 0.000000 -0.257460 0.047986 0.179438
    10 4.826790 -0.004591 0.000000 0.032052 -0.005956 0.183063
    11 5.792768 -0.005304 0.000000 0.000000 0.000000 0.287817
    12 6.662314 -0.001453 0.000000 0.000000 -0.000001 0.209228
    13 2.046984 -0.000002 0.000000 0.126793 -0.192165 0.089864
    14 1.038628 0.548043 -0.144017 -0.000001 0.000001 -1.849906
    15 -0.064003 -0.023525 0.026161 0.000000 0.000000 0.000000
    16 3.013920 3.984632 -0.088975 -0.000001 0.000001 -1.849906
    17 -0.084188 -0.025625 -0.001098 0.000000 0.000000 0.000000
    18 4.778185 3.972485 -0.079803 -0.000001 0.000001 -1.849906
    19 -0.058556 -0.021328 0.004244 0.000000 0.000000 0.000000
    20 1.640597 -1.968779 -0.099219 -0.000001 0.000001 -1.849906
    21 0.055573 -0.028913 0.000000 0.000000 0.000000 0.000000
    22 -3.397188 0.661759 4.341910 1.008285 -1.207587 1.954190
    23 4.827231 0.000000 0.000002 -0.099560 0.879643 -0.138092
    24 11.139760 0.000000 0.000000 0.000000 0.000000 -1.632922
    25 10.314597 0.000000 -0.000001 -1.326514 -0.598196 -0.222490
    26 1.646739 0.449549 -1.702246 0.369699 -0.012752 0.801965
    27 0.928312 0.000000 -0.000001 0.000000 0.000000 0.000000
    28 0.928313 -0.000001 0.000002 0.000000 0.000000 0.000000
    29 2.975833 -0.386307 -0.044143 0.001097 -0.043611 -0.043588
    30 1.438886 -0.000001 0.000000 0.000000 0.000000 1.334476
    31 1.485302 -0.000001 0.000000 0.000000 0.000000 0.793705
    32 -3.131623 0.610575 -4.140396 -1.213001 1.046068 1.768576
    33 4.972046 0.000000 0.000000 0.554311 -0.683908 -0.507778
    34 11.585350 0.000000 0.000001 0.000000 0.000000 -1.317911
    35 10.127054 -0.000001 -0.000001 1.733785 0.720724 -0.142071
    36 1.533672 0.109715 1.664490 -0.264755 -0.055971 0.783109
    37 0.928312 0.000001 0.000000 0.000000 0.000000 -0.453542
    38 0.928313 0.000000 0.000002 0.000000 0.000000 0.000000
    39 2.683747 -0.427339 0.044205 -0.005786 0.043239 -0.157091
    40 1.438886 -0.000001 0.000002 0.000000 0.000000 0.732659
    41 1.485300 0.000000 0.000000 0.000000 0.000000 1.168771
  time 11
    0 0.233849 0.368164 39.526119 0.000000 0.000000 -1.570795
    1 0.000000 0.000000 0.000000 0.000000 -1.570451 -1.570795
    2 -0.000004 0.000007 3.713254 -3.139539 0.026087 3.120120
    3 18.045721 0.000000 0.000000 0.000000 0.000000 -0.121501
    4 17.597595 0.000000 0.000000 -0.002613 0.026036 0.099967
    5 0.000004 -0.000003 -3.713254 3.139069 -0.017354 3.117144
    6 18.045725 0.000000 0.000000 0.000000 0.000000 -0.127551
    7 17.597597 0.000000 0.000000 0.002950 -0.017289 0.103055
    8 1.293671 0.684478 -0.000001 -0.000004 -0.000001 0.061735
    9 5.309686 -0.003834 0.000000 -0.257974 0.045026 0.168174
    10 4.826790 -0.004591 0.000000 0.013366 -0.002481 0.183130
    11 5.792768 -0.005304 0.000000 0.000000 0.000000 0.287817
    12 6.662314 -0.001453 0.000000 0.000000 -0.000001 0.209228
    13 2.046984 -0.000002 0.000000 0.140838 -0.205292 0.098718
    14 1.038628 0.548043 -0.144017 -0.000001 0.000001 -1.849906
    15 -0.064003 -0.023525 0.026161 0.000000 0.000000 0.000000
    16 3.013920 3.984632 -0.088975 -0.000001 0.000001 -1.849906
    17 -0.084188 -0.025625 -0.001098 0.000000 0.000000 0.000000
    18 4.778185 3.972485 -0.079803 -0.000001 0.000001 -1.849906
    19 -0.058556 -0.021328 0.004244 0.000000 0.000000 0.000000
    20 1.640597 -1.968779 -0.099219 -0.000001 0.000001 -1.849906
    21 0.055573 -0.028913 0.000000 0.000000 0.000000 0.000000
    22 -3.397188 0.661759 4.341910 1.008285 -1.207587 1.954190
    23 4.827231 0.000000 0.000002 -0.106373 0.941766 -0.291674
    24 11.139760 0.000000 0.000000 0.000000 0.000000 -1.826413
    25 10.314597 0.000000 -0.000001 -1.222072 -0.598196 -0.222490
    26 1.646739 0.449549 -1.702246 0.369699 -0.012752 0.801965
    27 0.928312 0.000000 -0.000001 0.000000 0.000000 0.000000
    28 0.928313 -0.000001 0.000002 0.000000 0.000000 0.000000
    29 2.975833 -0.386307 -0.044143 0.001097 -0.043611 -0.043588
    30 1.438886 -0.000001 0.000000 0.000000 0.000000 1.334476
    31 1.485302 -0.000001 0.000000 0.000000 0.000000 0.793705
    32 -3.131623 0.610575 -4.140396 -1.213001 1.046068 1.768576
    33 4.972046 0.000000 0.000000 0.351409 -0.745446 -0.321425
    34 11.585350 0.000000 0.000001 0.000000 0.000000 -1.637684
    35 10.127054 -0.000001 -0.000001 1.688747 0.751640 -0.181649
    36 1.533672 0.109715 1.664490 -0.264755 -0.055971 0.783109
    37 0.928312 0.000001 0.000000 0.000000 0.000000 -0.453542
    38 0.928313 0.000000 0.000002 0.000000 0.000000 0.000000
    39 2.683747 -0.427339 0.044205 -0.005786 0.043239 -0.157091
    40 1.438886 -0.000001 0.000002 0.000000 0.000000 0.732659
    41 1.485300 0.000000 0.000000 0.000000 0.000000 1.168771
  time 12
    0 0.233849 0.368164 39.526119 0.000000 0.000000 -1.570795
    1 0.000000 0.000000 0.000000 0.000000 -1.570451 -1.570795
    2 -0.000004 0.000007 3.713254 -3.139539 0.026087 3.120120
    3 18.045721 0.000000 0.000000 0.000000 0.000000 -0.121501
    4 17.597595 0.000000 0.000000 -0.002613 0.026036 0.099967
    5 0.000004 -0.000003 -3.713254 3.139069 -0.017354 3.117144
    6 18.045725 0.000000 0.000000 0.000000 0.000000 -0.127551
    7 17.597597 0.000000 0.000000 0.002950 -0.017289 0.103055
    8 1.293671 0.684478 -0.000001 -0.000004 -0.000001 0.061735
    9 5.309686 -0.003834 0.000000 -0.258329 0.042905 0.160134
    10 4.826790 -0.004591 0.000000 0.000000 0.000000 0.183152
    11 5.792768 -0.005304 0.000000 0.000000 0.000000 0.287817
    12 6.662314 -0.001453 0.000000 0.000000 -0.000001 0.209228
    13 2.046984 -0.000002 0.000000 0.150747 -0.214838 0.104966
    14 1.038628 0.548043 -0.144017 -0.000001 0.000001 -1.849906
    15 -0.064003 -0.023525 0.026161 0.000000 0.000000 0.000000
    16 3.013920 3.984632 -0.088975 -0.000001 0.000001 -1.849906
    17 -0.084188 -0.025625 -0.001098 0.000000 0.000000 0.000000
    18 4.778185 3.972485 -0.079803 -0.000001 0.000001 -1.849906
    19 -0.058556 -0.021328 0.004244 0.000000 0.000000 0.000000
    20 1.640597 -1.968779 -0.099219 -0.000001 0.000001 -1.849906
    21 0.055573 -0.028913 0.000000 0.000000 0.000000 0.000000
    22 -3.397188 0.661759 4.341910 1.008285 -1.207587 1.954190
    23 4.827231 0.000000 0.000002 -0.377911 0.911300 -0.791713
    24 11.139760 0.000000 0.000000 0.000000 0.000000 -1.914924
    25 10.314597 0.000000 -0.000001 -1.174256 -0.598196 -0.222490
    26 1.646739 0.449549 -1.702246 0.369699 -0.012752 0.801965
    27 0.928312 0.000000 -0.000001 0.000000 0.000000 0.000000
    28 0.928313 -0.000001 0.000002 0.000000 0.000000 0.000000
    29 2.975833 -0.386307 -0.044143 0.001097 -0.043611 -0.043588
    30 1.438886 -0.000001 0.000000 0.000000 0.000000 1.334476
    31 1.485302 -0.000001 0.000000 0.000000 0.000000 0.793705
    32 -3.131623 0.610575 -4.140396 -1.213001 1.046068 1.768576
    33 4.972046 0.000000 0.000000 0.156089 -0.753329 -0.225448
    34 11.585350 0.000000 0.000001 0.000000 0.000000 -1.961934
    35 10.127054 -0.000001 -0.000001 1.667216 0.765311 -0.200791
    36 1.533672 0.109715 1.664490 -0.264755 -0.055971 0.783109
    37 0.928312 0.000001 0.000000 0.000000 0.000000 -0.453542
    38 0.928313 0.000000 0.000002 0.000000 0.000000 0.000000
    39 2.683747 -0.427339 0.044205 -0.005786 0.043239 -0.157091
    40 1.438886 -0.000001 0.000002 0.000000 0.000000 0.732659
    41 1.485300 0.000000 0.000000 0.000000 0.000000 1.168771
end
