// Created by Crowbar 0.44.0.0
version 1
nodes
  0 "Bip01" -1
  1 "Bip01 Pelvis" 0
  2 "Bip01 L Leg" 1
  3 "Bip01 L Leg1" 2
  4 "Bip01 L Foot" 3
  5 "Bip01 R Leg" 1
  6 "Bip01 R Leg1" 5
  7 "Bip01 R Foot" 6
  8 "Bip01 Spine" 1
  9 "Bip01 Spine1" 8
  10 "Bip01 Spine2" 9
  11 "Bip01 Spine3" 10
  12 "Bip01 Neck" 11
  13 "Bip01 Head" 12
  14 "Dummy08" 13
  15 "Bone02" 14
  16 "Dummy04" 13
  17 "Bone05" 16
  18 "Dummy03" 13
  19 "Bone07" 18
  20 "Dummy10" 13
  21 "Bone13" 20
  22 "Bip01 L Arm" 12
  23 "Bip01 L Arm1" 22
  24 "Bip01 L Arm2" 23
  25 "Bip01 L Hand" 24
  26 "Bip01 L Finger0" 25
  27 "Bip01 L Finger01" 26
  28 "Bip01 L Finger02" 27
  29 "Bip01 L Finger1" 25
  30 "Bip01 L Finger11" 29
  31 "Bip01 L Finger12" 30
  32 "Bip01 R Arm" 12
  33 "Bip01 R Arm1" 32
  34 "Bip01 R Arm2" 33
  35 "Bip01 R Hand" 34
  36 "Bip01 R Finger0" 35
  37 "Bip01 R Finger01" 36
  38 "Bip01 R Finger02" 37
  39 "Bip01 R Finger1" 35
  40 "Bip01 R Finger11" 39
  41 "Bip01 R Finger12" 40
end
skeleton
  time 0
    0 0.235347 0.367732 38.811254 0.000000 0.000000 -1.658094
    1 0.316416 0.054689 0.000000 0.000000 -1.570787 -1.570795
    2 -0.000004 0.000007 3.713254 -3.303746 -0.008786 2.846621
    3 18.045721 0.000000 0.000000 0.000000 0.000000 -0.121501
    4 17.597595 0.000000 0.000000 0.070547 0.038646 -0.171164
    5 0.000004 -0.000003 -3.713254 3.134951 -0.016246 3.361356
    6 18.045725 0.000000 0.000000 0.000000 0.000000 -0.389149
    7 17.597597 0.000000 0.000000 -0.007966 -0.014764 0.207655
    8 1.293671 0.684478 -0.000001 -0.000004 -0.000001 0.044409
    9 5.309686 -0.003834 0.000000 0.165335 0.011361 -0.068836
    10 4.826790 -0.004591 0.000000 0.061050 -0.000575 0.008700
    11 5.792768 -0.005304 0.000000 -0.139528 0.002529 0.017278
    12 6.662314 -0.001453 0.000000 0.000000 -0.000001 0.471000
    13 2.046984 -0.000002 0.000000 -0.008660 0.015580 -0.272190
    14 1.038628 0.548043 -0.144017 -0.000001 0.000001 -1.849906
    15 -0.064003 -0.023525 0.026161 0.000000 0.000000 0.000000
    16 3.013920 3.984632 -0.088975 -0.000001 0.000001 -1.849906
    17 -0.084188 -0.025625 -0.001098 0.000000 0.000000 0.000000
    18 4.778185 3.972485 -0.079803 -0.000001 0.000001 -1.849906
    19 -0.058556 -0.021328 0.004244 0.000000 0.000000 0.000000
    20 1.640597 -1.968779 -0.099219 -0.000001 0.000001 -1.849906
    21 0.055573 -0.028913 0.000000 0.000000 0.000000 0.000000
    22 -3.112023 1.517253 4.341910 -1.213000 -1.046106 3.832786
    23 4.827231 0.000000 0.000002 0.858547 1.152050 0.431431
    24 11.139760 0.000000 0.000000 0.000000 0.000000 -0.165170
    25 10.314597 0.000000 -0.000001 -1.570000 0.000000 0.296547
    26 1.646739 0.449549 -1.702246 0.154002 0.442277 0.277235
    27 0.928312 0.000000 -0.000001 0.000000 0.000000 0.000000
    28 0.928313 -0.000001 0.000002 0.000000 0.000000 0.000000
    29 2.975833 -0.386307 -0.044143 -0.000797 -0.043611 0.000035
    30 1.438886 -0.000001 0.000000 0.000000 0.000000 0.314000
    31 1.485302 -0.000001 0.000000 0.000000 0.000000 0.104667
    32 -2.869897 1.399662 -4.140396 -0.948870 1.235947 1.748251
    33 4.972046 0.000000 0.000000 0.677382 -1.263968 -0.221891
    34 11.585350 0.000000 0.000001 0.000000 0.000000 -1.482100
    35 10.127054 -0.000001 -0.000001 1.569752 0.000000 -0.069778
    36 1.533672 0.109715 1.664490 -0.233255 -0.412980 0.435684
    37 0.928312 0.000001 0.000000 0.000000 0.000000 0.000000
    38 0.928313 0.000000 0.000002 0.000000 0.000000 0.000000
    39 2.683747 -0.427339 0.044205 0.001045 0.043611 0.000046
    40 1.438886 -0.000001 0.000002 0.000000 0.000000 1.064097
    41 1.485300 0.000000 0.000000 0.000000 0.000000 1.229794
  time 1
    0 0.235347 0.773994 38.967508 0.000000 0.000000 -1.648497
    1 0.316416 0.054689 0.000000 0.000000 -1.570787 -1.570795
    2 -0.000004 0.000007 3.713254 -3.279548 -0.010532 2.830015
    3 18.045721 0.000000 0.000000 0.000000 0.000000 -0.267251
    4 17.597595 0.000000 0.000000 0.056883 0.032219 -0.042873
    5 0.000004 -0.000003 -3.713254 3.135755 -0.016557 3.313775
    6 18.045725 0.000000 0.000000 0.000000 0.000000 -0.481878
    7 17.597597 0.000000 0.000000 -0.004157 -0.014547 0.164558
    8 1.293671 0.684478 -0.000001 -0.000004 -0.000001 0.044409
    9 5.309686 -0.003834 0.000000 0.155810 0.010714 -0.068945
    10 4.826790 -0.004591 0.000000 0.054367 -0.000515 0.008700
    11 5.792768 -0.005304 0.000000 -0.145251 0.002637 0.017257
    12 6.662314 -0.001453 0.000000 0.000000 -0.000001 0.471000
    13 2.046984 -0.000002 0.000000 0.005945 0.011370 -0.272055
    14 1.038628 0.548043 -0.144017 -0.000001 0.000001 -1.849906
    15 -0.064003 -0.023525 0.026161 0.000000 0.000000 0.000000
    16 3.013920 3.984632 -0.088975 -0.000001 0.000001 -1.849906
    17 -0.084188 -0.025625 -0.001098 0.000000 0.000000 0.000000
    18 4.778185 3.972485 -0.079803 -0.000001 0.000001 -1.849906
    19 -0.058556 -0.021328 0.004244 0.000000 0.000000 0.000000
    20 1.640597 -1.968779 -0.099219 -0.000001 0.000001 -1.849906
    21 0.055573 -0.028913 0.000000 0.000000 0.000000 0.000000
    22 -3.112023 1.517253 4.341910 -1.199769 -1.060954 3.821281
    23 4.827231 0.000000 0.000002 0.804098 1.178687 0.399052
    24 11.139760 0.000000 0.000000 0.000000 0.000000 -0.165170
    25 10.314597 0.000000 -0.000001 -1.570000 0.000000 0.275080
    26 1.646739 0.449549 -1.702246 0.154002 0.442277 0.277235
    27 0.928312 0.000000 -0.000001 0.000000 0.000000 0.000000
    28 0.928313 -0.000001 0.000002 0.000000 0.000000 0.000000
    29 2.975833 -0.386307 -0.044143 -0.000797 -0.043611 0.000035
    30 1.438886 -0.000001 0.000000 0.000000 0.000000 0.314000
    31 1.485302 -0.000001 0.000000 0.000000 0.000000 0.104667
    32 -2.869897 1.399662 -4.140396 -0.948870 1.235947 1.748251
    33 4.972046 0.000000 0.000000 0.637854 -1.271128 -0.203315
    34 11.585350 0.000000 0.000001 0.000000 0.000000 -1.487836
    35 10.127054 -0.000001 -0.000001 1.569752 0.000000 -0.069778
    36 1.533672 0.109715 1.664490 -0.233255 -0.412980 0.435684
    37 0.928312 0.000001 0.000000 0.000000 0.000000 0.000000
    38 0.928313 0.000000 0.000002 0.000000 0.000000 0.000000
    39 2.683747 -0.427339 0.044205 0.001045 0.043611 0.000046
    40 1.438886 -0.000001 0.000002 0.000000 0.000000 1.064097
    41 1.485300 0.000000 0.000000 0.000000 0.000000 1.229794
  time 2
    0 0.235347 0.750556 39.209703 0.000000 0.000000 -1.635006
    1 0.320322 0.050783 0.000000 0.000000 -1.570787 -1.570795
    2 -0.000004 0.000007 3.713254 -3.237252 0.000190 2.879297
    3 18.045721 0.000000 0.000000 0.000000 0.000000 -0.319866
    4 17.597595 0.000000 0.000000 0.028162 0.024941 0.058789
    5 0.000004 -0.000003 -3.713254 3.137128 -0.016973 3.231776
    6 18.045725 0.000000 0.000000 0.000000 0.000000 -0.647052
    7 17.597597 0.000000 0.000000 0.002538 -0.013265 0.087121
    8 1.293671 0.684478 -0.000001 -0.000004 -0.000001 0.044409
    9 5.309686 -0.003834 0.000000 0.142368 0.009791 -0.069090
    10 4.826790 -0.004591 0.000000 0.044925 -0.000419 0.008700
    11 5.792768 -0.005304 0.000000 -0.153324 0.002780 0.017236
    12 6.662314 -0.001453 0.000000 0.000000 -0.000001 0.471000
    13 2.046984 -0.000002 0.000000 0.027013 0.005449 -0.272235
    14 1.038628 0.548043 -0.144017 -0.000001 0.000001 -1.849906
    15 -0.064003 -0.023525 0.026161 0.000000 0.000000 0.000000
    16 3.013920 3.984632 -0.088975 -0.000001 0.000001 -1.849906
    17 -0.084188 -0.025625 -0.001098 0.000000 0.000000 0.000000
    18 4.778185 3.972485 -0.079803 -0.000001 0.000001 -1.849906
    19 -0.058556 -0.021328 0.004244 0.000000 0.000000 0.000000
    20 1.640597 -1.968779 -0.099219 -0.000001 0.000001 -1.849906
    21 0.055573 -0.028913 0.000000 0.000000 0.000000 0.000000
    22 -3.112023 1.517253 4.341910 -1.179924 -1.081803 3.803927
    23 4.827231 0.000000 0.000002 0.712352 1.213493 0.338582
    24 11.139760 0.000000 0.000000 0.000000 0.000000 -0.165170
    25 10.314597 0.000000 -0.000001 -1.570000 0.000000 0.244762
    26 1.646739 0.449549 -1.702246 0.154002 0.442277 0.277235
    27 0.928312 0.000000 -0.000001 0.000000 0.000000 0.000000
    28 0.928313 -0.000001 0.000002 0.000000 0.000000 0.000000
    29 2.975833 -0.386307 -0.044143 -0.000797 -0.043611 0.000035
    30 1.438886 -0.000001 0.000000 0.000000 0.000000 0.314000
    31 1.485302 -0.000001 0.000000 0.000000 0.000000 0.104667
    32 -2.869897 1.399662 -4.140396 -0.948870 1.235947 1.748251
    33 4.972046 0.000000 0.000000 0.578987 -1.280539 -0.173936
    34 11.585350 0.000000 0.000001 0.000000 0.000000 -1.495951
    35 10.127054 -0.000001 -0.000001 1.569752 0.000000 -0.069778
    36 1.533672 0.109715 1.664490 -0.233255 -0.412980 0.435684
    37 0.928312 0.000001 0.000000 0.000000 0.000000 0.000000
    38 0.928313 0.000000 0.000002 0.000000 0.000000 0.000000
    39 2.683747 -0.427339 0.044205 0.001045 0.043611 0.000046
    40 1.438886 -0.000001 0.000002 0.000000 0.000000 1.064097
    41 1.485300 0.000000 0.000000 0.000000 0.000000 1.229794
  time 3
    0 0.235347 0.711492 39.459711 0.000000 0.000000 -1.618569
    1 0.320322 0.042970 0.000000 0.000000 -1.570787 -1.570795
    2 -0.000004 0.000007 3.713254 -3.196160 0.013053 2.968907
    3 18.045721 0.000000 0.000000 0.000000 0.000000 -0.292928
    4 17.597595 0.000000 0.000000 0.003826 0.022214 0.121105
    5 0.000004 -0.000003 -3.713254 3.138453 -0.017250 3.154098
    6 18.045725 0.000000 0.000000 0.000000 0.000000 -0.804909
    7 17.597597 0.000000 0.000000 0.008688 -0.011056 0.013016
    8 1.293671 0.684478 -0.000001 -0.000004 -0.000001 0.044409
    9 5.309686 -0.003834 0.000000 0.125902 0.008665 -0.069235
    10 4.826790 -0.004591 0.000000 0.033382 -0.000312 0.008700
    11 5.792768 -0.005304 0.000000 -0.163239 0.002960 0.017216
    12 6.662314 -0.001453 0.000000 0.000000 -0.000001 0.471000
    13 2.046984 -0.000002 0.000000 0.052949 -0.001711 -0.272774
    14 1.038628 0.548043 -0.144017 -0.000001 0.000001 -1.849906
    15 -0.064003 -0.023525 0.026161 0.000000 0.000000 0.000000
    16 3.013920 3.984632 -0.088975 -0.000001 0.000001 -1.849906
    17 -0.084188 -0.025625 -0.001098 0.000000 0.000000 0.000000
    18 4.778185 3.972485 -0.079803 -0.000001 0.000001 -1.849906
    19 -0.058556 -0.021328 0.004244 0.000000 0.000000 0.000000
    20 1.640597 -1.968779 -0.099219 -0.000001 0.000001 -1.849906
    21 0.055573 -0.028913 0.000000 0.000000 0.000000 0.000000
    22 -3.112023 1.517253 4.341910 -1.153463 -1.107075 3.780342
    23 4.827231 0.000000 0.000002 0.572207 1.250341 0.236631
    24 11.139760 0.000000 0.000000 0.000000 0.000000 -0.165170
    25 10.314597 0.000000 -0.000001 -1.570000 0.000000 0.207630
    26 1.646739 0.449549 -1.702246 0.154002 0.442277 0.277235
    27 0.928312 0.000000 -0.000001 0.000000 0.000000 0.000000
    28 0.928313 -0.000001 0.000002 0.000000 0.000000 0.000000
    29 2.975833 -0.386307 -0.044143 -0.000797 -0.043611 0.000035
    30 1.438886 -0.000001 0.000000 0.000000 0.000000 0.314000
    31 1.485302 -0.000001 0.000000 0.000000 0.000000 0.104667
    32 -2.869897 1.399662 -4.140396 -0.948870 1.235947 1.748251
    33 4.972046 0.000000 0.000000 0.501787 -1.290916 -0.132832
    34 11.585350 0.000000 0.000001 0.000000 0.000000 -1.505815
    35 10.127054 -0.000001 -0.000001 1.569752 0.000000 -0.069778
    36 1.533672 0.109715 1.664490 -0.233255 -0.412980 0.435684
    37 0.928312 0.000001 0.000000 0.000000 0.000000 0.000000
    38 0.928313 0.000000 0.000002 0.000000 0.000000 0.000000
    39 2.683747 -0.427339 0.044205 0.001045 0.043611 0.000046
    40 1.438886 -0.000001 0.000002 0.000000 0.000000 1.064097
    41 1.485300 0.000000 0.000000 0.000000 0.000000 1.229794
  time 4
    0 0.235347 0.660710 39.635498 0.000000 0.000000 -1.599947
    1 0.320322 0.039064 0.000000 0.000000 -1.570787 -1.570795
    2 -0.000004 0.000007 3.713254 -3.159362 0.022005 3.092265
    3 18.045721 0.000000 0.000000 0.000000 0.000000 -0.196825
    4 17.597595 0.000000 0.000000 -0.012373 0.022847 0.147824
    5 0.000004 -0.000003 -3.713254 3.139590 -0.017424 3.085469
    6 18.045725 0.000000 0.000000 0.000000 0.000000 -0.939004
    7 17.597597 0.000000 0.000000 0.013569 -0.008512 -0.049311
    8 1.293671 0.684478 -0.000001 -0.000004 -0.000001 0.044409
    9 5.309686 -0.003834 0.000000 0.107318 0.007394 -0.069398
    10 4.826790 -0.004591 0.000000 0.020344 -0.000192 0.008700
    11 5.792768 -0.005304 0.000000 -0.174409 0.003164 0.017174
    12 6.662314 -0.001453 0.000000 0.000000 -0.000001 0.471000
    13 2.046984 -0.000002 0.000000 0.082331 -0.009794 -0.273718
    14 1.038628 0.548043 -0.144017 -0.000001 0.000001 -1.849906
    15 -0.064003 -0.023525 0.026161 0.000000 0.000000 0.000000
    16 3.013920 3.984632 -0.088975 -0.000001 0.000001 -1.849906
    17 -0.084188 -0.025625 -0.001098 0.000000 0.000000 0.000000
    18 4.778185 3.972485 -0.079803 -0.000001 0.000001 -1.849906
    19 -0.058556 -0.021328 0.004244 0.000000 0.000000 0.000000
    20 1.640597 -1.968779 -0.099219 -0.000001 0.000001 -1.849906
    21 0.055573 -0.028913 0.000000 0.000000 0.000000 0.000000
    22 -3.112023 1.517253 4.341910 -1.120099 -1.135232 3.750332
    23 4.827231 0.000000 0.000002 0.373502 1.281318 0.080861
    24 11.139760 0.000000 0.000000 0.000000 0.000000 -0.165170
    25 10.314597 0.000000 -0.000001 -1.570000 0.000000 0.165707
    26 1.646739 0.449549 -1.702246 0.154002 0.442277 0.277235
    27 0.928312 0.000000 -0.000001 0.000000 0.000000 0.000000
    28 0.928313 -0.000001 0.000002 0.000000 0.000000 0.000000
    29 2.975833 -0.386307 -0.044143 -0.000797 -0.043611 0.000035
    30 1.438886 -0.000001 0.000000 0.000000 0.000000 0.314000
    31 1.485302 -0.000001 0.000000 0.000000 0.000000 0.104667
    32 -2.869897 1.399662 -4.140396 -0.948870 1.235947 1.748251
    33 4.972046 0.000000 0.000000 0.408188 -1.300650 -0.080002
    34 11.585350 0.000000 0.000001 0.000000 0.000000 -1.517008
    35 10.127054 -0.000001 -0.000001 1.569752 0.000000 -0.069778
    36 1.533672 0.109715 1.664490 -0.233255 -0.412980 0.435684
    37 0.928312 0.000001 0.000000 0.000000 0.000000 0.000000
    38 0.928313 0.000000 0.000002 0.000000 0.000000 0.000000
    39 2.683747 -0.427339 0.044205 0.001045 0.043611 0.000046
    40 1.438886 -0.000001 0.000002 0.000000 0.000000 1.064097
    41 1.485300 0.000000 0.000000 0.000000 0.000000 1.229794
  time 5
    0 0.235347 0.598208 39.701906 0.000000 0.000000 -1.580090
    1 0.320322 0.031251 0.000000 0.000000 -1.570787 -1.570795
    2 -0.000004 0.000007 3.713254 -3.135847 0.023407 3.263756
    3 18.045721 0.000000 0.000000 0.000000 0.000000 -0.001799
    4 17.597595 0.000000 0.000000 -0.012094 0.023918 0.123758
    5 0.000004 -0.000003 -3.713254 3.141152 -0.017528 2.996066
    6 18.045725 0.000000 0.000000 0.000000 0.000000 -1.008551
    7 17.597597 0.000000 0.000000 0.015647 -0.007920 -0.070293
    8 1.293671 0.684478 -0.000001 -0.000004 -0.000001 0.044409
    9 5.309686 -0.003834 0.000000 0.087522 0.006028 -0.069524
    10 4.826790 -0.004591 0.000000 0.006453 -0.000060 0.008700
    11 5.792768 -0.005304 0.000000 -0.186314 0.003368 0.017133
    12 6.662314 -0.001453 0.000000 0.000000 -0.000001 0.471000
    13 2.046984 -0.000002 0.000000 0.113523 -0.018327 -0.274977
    14 1.038628 0.548043 -0.144017 -0.000001 0.000001 -1.849906
    15 -0.064003 -0.023525 0.026161 0.000000 0.000000 0.000000
    16 3.013920 3.984632 -0.088975 -0.000001 0.000001 -1.849906
    17 -0.084188 -0.025625 -0.001098 0.000000 0.000000 0.000000
    18 4.778185 3.972485 -0.079803 -0.000001 0.000001 -1.849906
    19 -0.058556 -0.021328 0.004244 0.000000 0.000000 0.000000
    20 1.640597 -1.968779 -0.099219 -0.000001 0.000001 -1.849906
    21 0.055573 -0.028913 0.000000 0.000000 0.000000 0.000000
    22 -3.112023 1.517253 4.341910 -1.079928 -1.164697 3.713612
    23 4.827231 0.000000 0.000002 0.121700 1.297657 -0.125490
    24 11.139760 0.000000 0.000000 0.000000 0.000000 -0.165170
    25 10.314597 0.000000 -0.000001 -1.570000 0.000000 0.121077
    26 1.646739 0.449549 -1.702246 0.154002 0.442277 0.277235
    27 0.928312 0.000000 -0.000001 0.000000 0.000000 0.000000
    28 0.928313 -0.000001 0.000002 0.000000 0.000000 0.000000
    29 2.975833 -0.386307 -0.044143 -0.000797 -0.043611 0.000035
    30 1.438886 -0.000001 0.000000 0.000000 0.000000 0.314000
    31 1.485302 -0.000001 0.000000 0.000000 0.000000 0.104667
    32 -2.869897 1.399662 -4.140396 -0.948870 1.235947 1.748251
    33 4.972046 0.000000 0.000000 0.301748 -1.308694 -0.016830
    34 11.585350 0.000000 0.000001 0.000000 0.000000 -1.528901
    35 10.127054 -0.000001 -0.000001 1.569752 0.000000 -0.069778
    36 1.533672 0.109715 1.664490 -0.233255 -0.412980 0.435684
    37 0.928312 0.000001 0.000000 0.000000 0.000000 0.000000
    38 0.928313 0.000000 0.000002 0.000000 0.000000 0.000000
    39 2.683747 -0.427339 0.044205 0.001045 0.043611 0.000046
    40 1.438886 -0.000001 0.000002 0.000000 0.000000 1.064097
    41 1.485300 0.000000 0.000000 0.000000 0.000000 1.229794
  time 6
    0 0.235347 0.531799 39.639404 0.000000 0.000000 -1.559947
    1 0.320322 0.027345 0.000000 0.000000 -1.570787 -1.570795
    2 -0.000004 0.000007 3.713254 -3.133720 0.023849 3.291381
    3 18.045721 0.000000 0.000000 0.000000 0.000000 -0.073858
    4 17.597595 0.000000 0.000000 -0.011105 0.024210 0.150615
    5 0.000004 -0.000003 -3.713254 3.142146 -0.017805 2.873343
    6 18.045725 0.000000 0.000000 0.000000 0.000000 -1.010724
    7 17.597597 0.000000 0.000000 0.014311 -0.009320 -0.054153
    8 1.293671 0.684478 -0.000001 -0.000004 -0.000001 0.044409
    9 5.309686 -0.003834 0.000000 0.067432 0.004650 -0.069633
    10 4.826790 -0.004591 0.000000 -0.007619 0.000072 0.008700
    11 5.792768 -0.005304 0.000000 -0.198398 0.003595 0.017091
    12 6.662314 -0.001453 0.000000 0.000000 -0.000001 0.471000
    13 2.046984 -0.000002 0.000000 0.145017 -0.026950 -0.276505
    14 1.038628 0.548043 -0.144017 -0.000001 0.000001 -1.849906
    15 -0.064003 -0.023525 0.026161 0.000000 0.000000 0.000000
    16 3.013920 3.984632 -0.088975 -0.000001 0.000001 -1.849906
    17 -0.084188 -0.025625 -0.001098 0.000000 0.000000 0.000000
    18 4.778185 3.972485 -0.079803 -0.000001 0.000001 -1.849906
    19 -0.058556 -0.021328 0.004244 0.000000 0.000000 0.000000
    20 1.640597 -1.968779 -0.099219 -0.000001 0.000001 -1.849906
    21 0.055573 -0.028913 0.000000 0.000000 0.000000 0.000000
    22 -3.112023 1.517253 4.341910 -1.033142 -1.193931 3.670372
    23 4.827231 0.000000 0.000002 -0.146373 1.293487 -0.347769
    24 11.139760 0.000000 0.000000 0.000000 0.000000 -0.165170
    25 10.314597 0.000000 -0.000001 -1.570000 0.000000 0.075763
    26 1.646739 0.449549 -1.702246 0.154002 0.442277 0.277235
    27 0.928312 0.000000 -0.000001 0.000000 0.000000 0.000000
    28 0.928313 -0.000001 0.000002 0.000000 0.000000 0.000000
    29 2.975833 -0.386307 -0.044143 -0.000797 -0.043611 0.000035
    30 1.438886 -0.000001 0.000000 0.000000 0.000000 0.314000
    31 1.485302 -0.000001 0.000000 0.000000 0.000000 0.104667
    32 -2.869897 1.399662 -4.140396 -0.948870 1.235947 1.748251
    33 4.972046 0.000000 0.000000 0.188036 -1.314003 0.052995
    34 11.585350 0.000000 0.000001 0.000000 0.000000 -1.541003
    35 10.127054 -0.000001 -0.000001 1.569752 0.000000 -0.069778
    36 1.533672 0.109715 1.664490 -0.233255 -0.412980 0.435684
    37 0.928312 0.000001 0.000000 0.000000 0.000000 0.000000
    38 0.928313 0.000000 0.000002 0.000000 0.000000 0.000000
    39 2.683747 -0.427339 0.044205 0.001045 0.043611 0.000046
    40 1.438886 -0.000001 0.000002 0.000000 0.000000 1.064097
    41 1.485300 0.000000 0.000000 0.000000 0.000000 1.229794
  time 7
    0 0.235347 0.461485 39.510494 0.000000 0.000000 -1.540375
    1 0.320322 0.019532 0.000000 0.000000 -1.570787 -1.570795
    2 -0.000004 0.000007 3.713254 -3.133800 0.024366 3.302783
    3 18.045721 0.000000 0.000000 0.000000 0.000000 -0.161797
    4 17.597595 0.000000 0.000000 -0.010243 0.024308 0.178891
    5 0.000004 -0.000003 -3.713254 3.142903 -0.018013 2.771394
    6 18.045725 0.000000 0.000000 0.000000 0.000000 -1.007609
    7 17.597597 0.000000 0.000000 0.012827 -0.010405 -0.038700
    8 1.293671 0.684478 -0.000001 -0.000004 -0.000001 0.044409
    9 5.309686 -0.003834 0.000000 0.047942 0.003308 -0.069706
    10 4.826790 -0.004591 0.000000 -0.021297 0.000192 0.008700
    11 5.792768 -0.005304 0.000000 -0.210107 0.003799 0.017050
    12 6.662314 -0.001453 0.000000 0.000000 -0.000001 0.471000
    13 2.046984 -0.000002 0.000000 0.175261 -0.035258 -0.278168
    14 1.038628 0.548043 -0.144017 -0.000001 0.000001 -1.849906
    15 -0.064003 -0.023525 0.026161 0.000000 0.000000 0.000000
    16 3.013920 3.984632 -0.088975 -0.000001 0.000001 -1.849906
    17 -0.084188 -0.025625 -0.001098 0.000000 0.000000 0.000000
    18 4.778185 3.972485 -0.079803 -0.000001 0.000001 -1.849906
    19 -0.058556 -0.021328 0.004244 0.000000 0.000000 0.000000
    20 1.640597 -1.968779 -0.099219 -0.000001 0.000001 -1.849906
    21 0.055573 -0.028913 0.000000 0.000000 0.000000 0.000000
    22 -3.112023 1.517253 4.341910 -0.980699 -1.221434 3.621379
    23 4.827231 0.000000 0.000002 -0.381259 1.270255 -0.538368
    24 11.139760 0.000000 0.000000 0.000000 0.000000 -0.165170
    25 10.314597 0.000000 -0.000001 -1.570000 0.000000 0.031817
    26 1.646739 0.449549 -1.702246 0.154002 0.442277 0.277235
    27 0.928312 0.000000 -0.000001 0.000000 0.000000 0.000000
    28 0.928313 -0.000001 0.000002 0.000000 0.000000 0.000000
    29 2.975833 -0.386307 -0.044143 -0.000797 -0.043611 0.000035
    30 1.438886 -0.000001 0.000000 0.000000 0.000000 0.314000
    31 1.485302 -0.000001 0.000000 0.000000 0.000000 0.104667
    32 -2.869897 1.399662 -4.140396 -0.948870 1.235947 1.748251
    33 4.972046 0.000000 0.000000 0.074325 -1.316175 0.124137
    34 11.585350 0.000000 0.000001 0.000000 0.000000 -1.552756
    35 10.127054 -0.000001 -0.000001 1.569752 0.000000 -0.069778
    36 1.533672 0.109715 1.664490 -0.233255 -0.412980 0.435684
    37 0.928312 0.000001 0.000000 0.000000 0.000000 0.000000
    38 0.928313 0.000000 0.000002 0.000000 0.000000 0.000000
    39 2.683747 -0.427339 0.044205 0.001045 0.043611 0.000046
    40 1.438886 -0.000001 0.000002 0.000000 0.000000 1.064097
    41 1.485300 0.000000 0.000000 0.000000 0.000000 1.229794
  time 8
    0 0.235347 0.395076 39.346426 0.000000 0.000000 -1.522418
    1 0.324229 0.015625 0.000000 0.000000 -1.570787 -1.570795
    2 -0.000004 0.000007 3.713254 -3.134242 0.024809 3.310972
    3 18.045721 0.000000 0.000000 0.000000 0.000000 -0.239273
    4 17.597595 0.000000 0.000000 -0.009610 0.024405 0.203231
    5 0.000004 -0.000003 -3.713254 3.144276 -0.017840 2.672050
    6 18.045725 0.000000 0.000000 0.000000 0.000000 -0.998119
    7 17.597597 0.000000 0.000000 0.011162 -0.011825 -0.015143
    8 1.293671 0.684478 -0.000001 -0.000004 -0.000001 0.044409
    9 5.309686 -0.003834 0.000000 0.029970 0.002061 -0.069760
    10 4.826790 -0.004591 0.000000 -0.033907 0.000312 0.008700
    11 5.792768 -0.005304 0.000000 -0.220919 0.003991 0.017008
    12 6.662314 -0.001453 0.000000 0.000000 -0.000001 0.471000
    13 2.046984 -0.000002 0.000000 0.202705 -0.042936 -0.279696
    14 1.038628 0.548043 -0.144017 -0.000001 0.000001 -1.849906
    15 -0.064003 -0.023525 0.026161 0.000000 0.000000 0.000000
    16 3.013920 3.984632 -0.088975 -0.000001 0.000001 -1.849906
    17 -0.084188 -0.025625 -0.001098 0.000000 0.000000 0.000000
    18 4.778185 3.972485 -0.079803 -0.000001 0.000001 -1.849906
    19 -0.058556 -0.021328 0.004244 0.000000 0.000000 0.000000
    20 1.640597 -1.968779 -0.099219 -0.000001 0.000001 -1.849906
    21 0.055573 -0.028913 0.000000 0.000000 0.000000 0.000000
    22 -3.112023 1.517253 4.341910 -0.924997 -1.245899 3.568839
    23 4.827231 0.000000 0.000002 -0.557821 1.235534 -0.674273
    24 11.139760 0.000000 0.000000 0.000000 0.000000 -0.165170
    25 10.314597 0.000000 -0.000001 -1.570000 0.000000 -0.008737
    26 1.646739 0.449549 -1.702246 0.154002 0.442277 0.277235
    27 0.928312 0.000000 -0.000001 0.000000 0.000000 0.000000
    28 0.928313 -0.000001 0.000002 0.000000 0.000000 0.000000
    29 2.975833 -0.386307 -0.044143 -0.000797 -0.043611 0.000035
    30 1.438886 -0.000001 0.000000 0.000000 0.000000 0.314000
    31 1.485302 -0.000001 0.000000 0.000000 0.000000 0.104667
    32 -2.869897 1.399662 -4.140396 -0.948870 1.235947 1.748251
    33 4.972046 0.000000 0.000000 -0.031419 -1.315531 0.190668
    34 11.585350 0.000000 0.000001 0.000000 0.000000 -1.563530
    35 10.127054 -0.000001 -0.000001 1.569752 0.000000 -0.069778
    36 1.533672 0.109715 1.664490 -0.233255 -0.412980 0.435684
    37 0.928312 0.000001 0.000000 0.000000 0.000000 0.000000
    38 0.928313 0.000000 0.000002 0.000000 0.000000 0.000000
    39 2.683747 -0.427339 0.044205 0.001045 0.043611 0.000046
    40 1.438886 -0.000001 0.000002 0.000000 0.000000 1.064097
    41 1.485300 0.000000 0.000000 0.000000 0.000000 1.229794
  time 9
    0 0.235347 0.328668 39.170640 0.000000 0.000000 -1.506741
    1 0.324229 0.011719 0.000000 0.000000 -1.570787 -1.570795
    2 -0.000004 0.000007 3.713254 -3.134362 0.025153 3.322756
    3 18.045721 0.000000 0.000000 0.000000 0.000000 -0.305692
    4 17.597595 0.000000 0.000000 -0.009255 0.024478 0.224369
    5 0.000004 -0.000003 -3.713254 3.148536 -0.016107 2.563999
    6 18.045725 0.000000 0.000000 0.000000 0.000000 -0.964142
    7 17.597597 0.000000 0.000000 0.008540 -0.015336 0.046703
    8 1.293671 0.684478 -0.000001 -0.000004 -0.000001 0.044409
    9 5.309686 -0.003834 0.000000 0.014409 0.000995 -0.069778
    10 4.826790 -0.004591 0.000000 -0.044827 0.000419 0.008700
    11 5.792768 -0.005304 0.000000 -0.230279 0.004159 0.016966
    12 6.662314 -0.001453 0.000000 0.000000 -0.000001 0.471000
    13 2.046984 -0.000002 0.000000 0.225798 -0.049646 -0.280955
    14 1.038628 0.548043 -0.144017 -0.000001 0.000001 -1.849906
    15 -0.064003 -0.023525 0.026161 0.000000 0.000000 0.000000
    16 3.013920 3.984632 -0.088975 -0.000001 0.000001 -1.849906
    17 -0.084188 -0.025625 -0.001098 0.000000 0.000000 0.000000
    18 4.778185 3.972485 -0.079803 -0.000001 0.000001 -1.849906
    19 -0.058556 -0.021328 0.004244 0.000000 0.000000 0.000000
    20 1.640597 -1.968779 -0.099219 -0.000001 0.000001 -1.849906
    21 0.055573 -0.028913 0.000000 0.000000 0.000000 0.000000
    22 -3.112023 1.517253 4.341910 -0.869966 -1.266247 3.516491
    23 4.827231 0.000000 0.000002 -0.678700 1.197749 -0.760121
    24 11.139760 0.000000 0.000000 0.000000 0.000000 -0.165170
    25 10.314597 0.000000 -0.000001 -1.570000 0.000000 -0.043831
    26 1.646739 0.449549 -1.702246 0.154002 0.442277 0.277235
    27 0.928312 0.000000 -0.000001 0.000000 0.000000 0.000000
    28 0.928313 -0.000001 0.000002 0.000000 0.000000 0.000000
    29 2.975833 -0.386307 -0.044143 -0.000797 -0.043611 0.000035
    30 1.438886 -0.000001 0.000000 0.000000 0.000000 0.314000
    31 1.485302 -0.000001 0.000000 0.000000 0.000000 0.104667
    32 -2.869897 1.399662 -4.140396 -0.948870 1.235947 1.748251
    33 4.972046 0.000000 0.000000 -0.121924 -1.312957 0.247319
    34 11.585350 0.000000 0.000001 0.000000 0.000000 -1.572904
    35 10.127054 -0.000001 -0.000001 1.569752 0.000000 -0.069778
    36 1.533672 0.109715 1.664490 -0.233255 -0.412980 0.435684
    37 0.928312 0.000001 0.000000 0.000000 0.000000 0.000000
    38 0.928313 0.000000 0.000002 0.000000 0.000000 0.000000
    39 2.683747 -0.427339 0.044205 0.001045 0.043611 0.000046
    40 1.438886 -0.000001 0.000002 0.000000 0.000000 1.064097
    41 1.485300 0.000000 0.000000 0.000000 0.000000 1.229794
  time 10
    0 0.235347 0.273979 39.006572 0.000000 0.000000 -1.494485
    1 0.324229 0.007813 0.000000 0.000000 -1.570787 -1.570795
    2 -0.000004 0.000007 3.713254 -3.133319 0.024981 3.364462
    3 18.045721 0.000000 0.000000 0.000000 0.000000 -0.307102
    4 17.597595 0.000000 0.000000 -0.008824 0.024648 0.258729
    5 0.000004 -0.000003 -3.713254 3.180629 -0.000479 2.613020
    6 18.045725 0.000000 0.000000 0.000000 0.000000 -0.693561
    7 17.597597 0.000000 0.000000 -0.005856 -0.022772 0.456310
    8 1.293671 0.684478 -0.000001 -0.000004 -0.000001 0.044409
    9 5.309686 -0.003834 0.000000 0.002167 0.000144 -0.069778
    10 4.826790 -0.004591 0.000000 -0.053414 0.000503 0.008700
    11 5.792768 -0.005304 0.000000 -0.237634 0.004290 0.016946
    12 6.662314 -0.001453 0.000000 0.000000 -0.000001 0.471000
    13 2.046984 -0.000002 0.000000 0.243074 -0.055117 -0.281494
    14 1.038628 0.548043 -0.144017 -0.000001 0.000001 -1.849906
    15 -0.064003 -0.023525 0.026161 0.000000 0.000000 0.000000
    16 3.013920 3.984632 -0.088975 -0.000001 0.000001 -1.849906
    17 -0.084188 -0.025625 -0.001098 0.000000 0.000000 0.000000
    18 4.778185 3.972485 -0.079803 -0.000001 0.000001 -1.849906
    19 -0.058556 -0.021328 0.004244 0.000000 0.000000 0.000000
    20 1.640597 -1.968779 -0.099219 -0.000001 0.000001 -1.849906
    21 0.055573 -0.028913 0.000000 0.000000 0.000000 0.000000
    22 -3.112023 1.517253 4.341910 -0.821550 -1.281518 3.470087
    23 4.827231 0.000000 0.000002 -0.755762 1.164390 -0.809653
    24 11.139760 0.000000 0.000000 0.000000 0.000000 -0.165170
    25 10.314597 0.000000 -0.000001 -1.570000 0.000000 -0.071411
    26 1.646739 0.449549 -1.702246 0.154002 0.442277 0.277235
    27 0.928312 0.000000 -0.000001 0.000000 0.000000 0.000000
    28 0.928313 -0.000001 0.000002 0.000000 0.000000 0.000000
    29 2.975833 -0.386307 -0.044143 -0.000797 -0.043611 0.000035
    30 1.438886 -0.000001 0.000000 0.000000 0.000000 0.314000
    31 1.485302 -0.000001 0.000000 0.000000 0.000000 0.104667
    32 -2.869897 1.399662 -4.140396 -0.948870 1.235947 1.748251
    33 4.972046 0.000000 0.000000 -0.191621 -1.309659 0.290399
    34 11.585350 0.000000 0.000001 0.000000 0.000000 -1.580249
    35 10.127054 -0.000001 -0.000001 1.569752 0.000000 -0.069778
    36 1.533672 0.109715 1.664490 -0.233255 -0.412980 0.435684
    37 0.928312 0.000001 0.000000 0.000000 0.000000 0.000000
    38 0.928313 0.000000 0.000002 0.000000 0.000000 0.000000
    39 2.683747 -0.427339 0.044205 0.001045 0.043611 0.000046
    40 1.438886 -0.000001 0.000002 0.000000 0.000000 1.064097
    41 1.485300 0.000000 0.000000 0.000000 0.000000 1.229794
  time 11
    0 0.235347 0.227103 38.873756 0.000000 0.000000 -1.486504
    1 0.324229 0.003906 0.000000 0.000000 -1.570787 -1.570795
    2 -0.000004 0.000007 3.713254 -3.132235 0.024513 3.408387
    3 18.045721 0.000000 0.000000 0.000000 0.000000 -0.279199
    4 17.597595 0.000000 0.000000 -0.008950 0.024600 0.283985
    5 0.000004 -0.000003 -3.713254 3.230710 0.016881 2.758367
    6 18.045725 0.000000 0.000000 0.000000 0.000000 -0.284466
    7 17.597597 0.000000 0.000000 -0.004009 -0.014843 0.040453
    8 1.293671 0.684478 -0.000001 -0.000004 -0.000001 0.044409
    9 5.309686 -0.003834 0.000000 -0.005827 -0.000395 -0.069778
    10 4.826790 -0.004591 0.000000 -0.059030 0.000551 0.008700
    11 5.792768 -0.005304 0.000000 -0.242445 0.004374 0.016925
    12 6.662314 -0.001453 0.000000 0.000000 -0.000001 0.471000
    13 2.046984 -0.000002 0.000000 0.253026 -0.059012 -0.281134
    14 1.038628 0.548043 -0.144017 -0.000001 0.000001 -1.849906
    15 -0.064003 -0.023525 0.026161 0.000000 0.000000 0.000000
    16 3.013920 3.984632 -0.088975 -0.000001 0.000001 -1.849906
    17 -0.084188 -0.025625 -0.001098 0.000000 0.000000 0.000000
    18 4.778185 3.972485 -0.079803 -0.000001 0.000001 -1.849906
    19 -0.058556 -0.021328 0.004244 0.000000 0.000000 0.000000
    20 1.640597 -1.968779 -0.099219 -0.000001 0.000001 -1.849906
    21 0.055573 -0.028913 0.000000 0.000000 0.000000 0.000000
    22 -3.112023 1.517253 4.341910 -0.787131 -1.291173 3.437105
    23 4.827231 0.000000 0.000002 -0.798875 1.141327 -0.834856
    24 11.139760 0.000000 0.000000 0.000000 0.000000 -0.165170
    25 10.314597 0.000000 -0.000001 -1.570000 0.000000 -0.089456
    26 1.646739 0.449549 -1.702246 0.154002 0.442277 0.277235
    27 0.928312 0.000000 -0.000001 0.000000 0.000000 0.000000
    28 0.928313 -0.000001 0.000002 0.000000 0.000000 0.000000
    29 2.975833 -0.386307 -0.044143 -0.000797 -0.043611 0.000035
    30 1.438886 -0.000001 0.000000 0.000000 0.000000 0.314000
    31 1.485302 -0.000001 0.000000 0.000000 0.000000 0.104667
    32 -2.869897 1.399662 -4.140396 -0.948870 1.235947 1.748251
    33 4.972046 0.000000 0.000000 -0.236332 -1.306843 0.317539
    34 11.585350 0.000000 0.000001 0.000000 0.000000 -1.585076
    35 10.127054 -0.000001 -0.000001 1.569752 0.000000 -0.069778
    36 1.533672 0.109715 1.664490 -0.233255 -0.412980 0.435684
    37 0.928312 0.000001 0.000000 0.000000 0.000000 0.000000
    38 0.928313 0.000000 0.000002 0.000000 0.000000 0.000000
    39 2.683747 -0.427339 0.044205 0.001045 0.043611 0.000046
    40 1.438886 -0.000001 0.000002 0.000000 0.000000 1.064097
    41 1.485300 0.000000 0.000000 0.000000 0.000000 1.229794
  time 12
    0 0.235347 0.195852 38.811254 0.000000 0.000000 -1.483654
    1 0.324229 0.003906 0.000000 0.000000 -1.570787 -1.570795
    2 -0.000004 0.000007 3.713254 -3.132877 0.024686 3.381833
    3 18.045721 0.000000 0.000000 0.000000 0.000000 -0.348215
    4 17.597595 0.000000 0.000000 -0.011333 0.023577 0.239421
    5 0.000004 -0.000003 -3.713254 3.247988 0.017227 2.876634
    6 18.045725 0.000000 0.000000 0.000000 0.000000 -0.057787
    7 17.597597 0.000000 0.000000 -0.002525 -0.011293 -0.207516
    8 1.293671 0.684478 -0.000001 -0.000004 -0.000001 0.044409
    9 5.309686 -0.003834 0.000000 -0.008692 -0.000599 -0.069778
    10 4.826790 -0.004591 0.000000 -0.061050 0.000575 0.008700
    11 5.792768 -0.005304 0.000000 -0.244173 0.004398 0.016904
    12 6.662314 -0.001453 0.000000 0.000000 -0.000001 0.471000
    13 2.046984 -0.000002 0.000000 0.254275 -0.061061 -0.279382
    14 1.038628 0.548043 -0.144017 -0.000001 0.000001 -1.849906
    15 -0.064003 -0.023525 0.026161 0.000000 0.000000 0.000000
    16 3.013920 3.984632 -0.088975 -0.000001 0.000001 -1.849906
    17 -0.084188 -0.025625 -0.001098 0.000000 0.000000 0.000000
    18 4.778185 3.972485 -0.079803 -0.000001 0.000001 -1.849906
    19 -0.058556 -0.021328 0.004244 0.000000 0.000000 0.000000
    20 1.640597 -1.968779 -0.099219 -0.000001 0.000001 -1.849906
    21 0.055573 -0.028913 0.000000 0.000000 0.000000 0.000000
    22 -3.112023 1.517253 4.341910 -0.774189 -1.294558 3.424641
    23 4.827231 0.000000 0.000002 -0.813089 1.132817 -0.842644
    24 11.139760 0.000000 0.000000 0.000000 0.000000 -0.165170
    25 10.314597 0.000000 -0.000001 -1.570000 0.000000 -0.095943
    26 1.646739 0.449549 -1.702246 0.154002 0.442277 0.277235
    27 0.928312 0.000000 -0.000001 0.000000 0.000000 0.000000
    28 0.928313 -0.000001 0.000002 0.000000 0.000000 0.000000
    29 2.975833 -0.386307 -0.044143 -0.000797 -0.043611 0.000035
    30 1.438886 -0.000001 0.000000 0.000000 0.000000 0.314000
    31 1.485302 -0.000001 0.000000 0.000000 0.000000 0.104667
    32 -2.869897 1.399662 -4.140396 -0.948870 1.235947 1.748251
    33 4.972046 0.000000 0.000000 -0.252112 -1.305717 0.327090
    34 11.585350 0.000000 0.000001 0.000000 0.000000 -1.586825
    35 10.127054 -0.000001 -0.000001 1.569752 0.000000 -0.069778
    36 1.533672 0.109715 1.664490 -0.233255 -0.412980 0.435684
    37 0.928312 0.000001 0.000000 0.000000 0.000000 0.000000
    38 0.928313 0.000000 0.000002 0.000000 0.000000 0.000000
    39 2.683747 -0.427339 0.044205 0.001045 0.043611 0.000046
    40 1.438886 -0.000001 0.000002 0.000000 0.000000 1.064097
    41 1.485300 0.000000 0.000000 0.000000 0.000000 1.229794
  time 13
    0 0.235347 0.203664 38.893287 0.000000 0.000000 -1.486504
    1 0.324229 0.003906 0.000000 0.000000 -1.570787 -1.570795
    2 -0.000004 0.000007 3.713254 -3.135084 0.025350 3.293907
    3 18.045721 0.000000 0.000000 0.000000 0.000000 -0.520383
    4 17.597595 0.000000 0.000000 -0.015820 0.020827 0.122111
    5 0.000004 -0.000003 -3.713254 3.231278 0.008495 2.948485
    6 18.045725 0.000000 0.000000 0.000000 0.000000 -0.017000
    7 17.597597 0.000000 0.000000 -0.001354 -0.008689 -0.184920
    8 1.293671 0.684478 -0.000001 -0.000004 -0.000001 0.044409
    9 5.309686 -0.003834 0.000000 -0.005827 -0.000395 -0.069778
    10 4.826790 -0.004591 0.000000 -0.059030 0.000551 0.008700
    11 5.792768 -0.005304 0.000000 -0.242445 0.004374 0.016925
    12 6.662314 -0.001453 0.000000 0.000000 -0.000001 0.471000
    13 2.046984 -0.000002 0.000000 0.245486 -0.061016 -0.276010
    14 1.038628 0.548043 -0.144017 -0.000001 0.000001 -1.849906
    15 -0.064003 -0.023525 0.026161 0.000000 0.000000 0.000000
    16 3.013920 3.984632 -0.088975 -0.000001 0.000001 -1.849906
    17 -0.084188 -0.025625 -0.001098 0.000000 0.000000 0.000000
    18 4.778185 3.972485 -0.079803 -0.000001 0.000001 -1.849906
    19 -0.058556 -0.021328 0.004244 0.000000 0.000000 0.000000
    20 1.640597 -1.968779 -0.099219 -0.000001 0.000001 -1.849906
    21 0.055573 -0.028913 0.000000 0.000000 0.000000 0.000000
    22 -3.112023 1.517253 4.341910 -0.787131 -1.291173 3.437105
    23 4.827231 0.000000 0.000002 -0.798875 1.141327 -0.834856
    24 11.139760 0.000000 0.000000 0.000000 0.000000 -0.165170
    25 10.314597 0.000000 -0.000001 -1.570000 0.000000 -0.089456
    26 1.646739 0.449549 -1.702246 0.154002 0.442277 0.277235
    27 0.928312 0.000000 -0.000001 0.000000 0.000000 0.000000
    28 0.928313 -0.000001 0.000002 0.000000 0.000000 0.000000
    29 2.975833 -0.386307 -0.044143 -0.000797 -0.043611 0.000035
    30 1.438886 -0.000001 0.000000 0.000000 0.000000 0.314000
    31 1.485302 -0.000001 0.000000 0.000000 0.000000 0.104667
    32 -2.869897 1.399662 -4.140396 -0.948870 1.235947 1.748251
    33 4.972046 0.000000 0.000000 -0.236332 -1.306843 0.317539
    34 11.585350 0.000000 0.000001 0.000000 0.000000 -1.585076
    35 10.127054 -0.000001 -0.000001 1.569752 0.000000 -0.069778
    36 1.533672 0.109715 1.664490 -0.233255 -0.412980 0.435684
    37 0.928312 0.000001 0.000000 0.000000 0.000000 0.000000
    38 0.928313 0.000000 0.000002 0.000000 0.000000 0.000000
    39 2.683747 -0.427339 0.044205 0.001045 0.043611 0.000046
    40 1.438886 -0.000001 0.000002 0.000000 0.000000 1.064097
    41 1.485300 0.000000 0.000000 0.000000 0.000000 1.229794
  time 14
    0 0.235347 0.250541 39.115950 0.000000 0.000000 -1.494485
    1 0.324229 0.007813 0.000000 0.000000 -1.570787 -1.570795
    2 -0.000004 0.000007 3.713254 -3.137974 0.025915 3.180880
    3 18.045721 0.000000 0.000000 0.000000 0.000000 -0.733813
    4 17.597595 0.000000 0.000000 -0.020510 0.016250 -0.028598
    5 0.000004 -0.000003 -3.713254 3.205764 -0.000722 3.008407
    6 18.045725 0.000000 0.000000 0.000000 0.000000 -0.022216
    7 17.597597 0.000000 0.000000 -0.000068 -0.008453 -0.104427
    8 1.293671 0.684478 -0.000001 -0.000004 -0.000001 0.044409
    9 5.309686 -0.003834 0.000000 0.002167 0.000144 -0.069778
    10 4.826790 -0.004591 0.000000 -0.053414 0.000503 0.008700
    11 5.792768 -0.005304 0.000000 -0.237634 0.004290 0.016946
    12 6.662314 -0.001453 0.000000 0.000000 -0.000001 0.471000
    13 2.046984 -0.000002 0.000000 0.226918 -0.058922 -0.271291
    14 1.038628 0.548043 -0.144017 -0.000001 0.000001 -1.849906
    15 -0.064003 -0.023525 0.026161 0.000000 0.000000 0.000000
    16 3.013920 3.984632 -0.088975 -0.000001 0.000001 -1.849906
    17 -0.084188 -0.025625 -0.001098 0.000000 0.000000 0.000000
    18 4.778185 3.972485 -0.079803 -0.000001 0.000001 -1.849906
    19 -0.058556 -0.021328 0.004244 0.000000 0.000000 0.000000
    20 1.640597 -1.968779 -0.099219 -0.000001 0.000001 -1.849906
    21 0.055573 -0.028913 0.000000 0.000000 0.000000 0.000000
    22 -3.112023 1.517253 4.341910 -0.821550 -1.281518 3.470087
    23 4.827231 0.000000 0.000002 -0.755762 1.164390 -0.809653
    24 11.139760 0.000000 0.000000 0.000000 0.000000 -0.165170
    25 10.314597 0.000000 -0.000001 -1.570000 0.000000 -0.071411
    26 1.646739 0.449549 -1.702246 0.154002 0.442277 0.277235
    27 0.928312 0.000000 -0.000001 0.000000 0.000000 0.000000
    28 0.928313 -0.000001 0.000002 0.000000 0.000000 0.000000
    29 2.975833 -0.386307 -0.044143 -0.000797 -0.043611 0.000035
    30 1.438886 -0.000001 0.000000 0.000000 0.000000 0.314000
    31 1.485302 -0.000001 0.000000 0.000000 0.000000 0.104667
    32 -2.869897 1.399662 -4.140396 -0.948870 1.235947 1.748251
    33 4.972046 0.000000 0.000000 -0.191621 -1.309659 0.290399
    34 11.585350 0.000000 0.000001 0.000000 0.000000 -1.580249
    35 10.127054 -0.000001 -0.000001 1.569752 0.000000 -0.069778
    36 1.533672 0.109715 1.664490 -0.233255 -0.412980 0.435684
    37 0.928312 0.000001 0.000000 0.000000 0.000000 0.000000
    38 0.928313 0.000000 0.000002 0.000000 0.000000 0.000000
    39 2.683747 -0.427339 0.044205 0.001045 0.043611 0.000046
    40 1.438886 -0.000001 0.000002 0.000000 0.000000 1.064097
    41 1.485300 0.000000 0.000000 0.000000 0.000000 1.229794
  time 15
    0 0.235347 0.313043 39.401115 0.000000 0.000000 -1.506741
    1 0.324229 0.011719 0.000000 0.000000 -1.570787 -1.570795
    2 -0.000004 0.000007 3.713254 -3.141023 0.026161 3.062573
    3 18.045721 0.000000 0.000000 0.000000 0.000000 -0.944423
    4 17.597595 0.000000 0.000000 -0.023780 0.010919 -0.175648
    5 0.000004 -0.000003 -3.713254 3.180393 -0.008137 3.059622
    6 18.045725 0.000000 0.000000 0.000000 0.000000 -0.043008
    7 17.597597 0.000000 0.000000 0.000988 -0.010445 -0.014216
    8 1.293671 0.684478 -0.000001 -0.000004 -0.000001 0.044409
    9 5.309686 -0.003834 0.000000 0.014409 0.000995 -0.069778
    10 4.826790 -0.004591 0.000000 -0.044827 0.000419 0.008700
    11 5.792768 -0.005304 0.000000 -0.230279 0.004159 0.016966
    12 6.662314 -0.001453 0.000000 0.000000 -0.000001 0.471000
    13 2.046984 -0.000002 0.000000 0.200077 -0.054892 -0.265672
    14 1.038628 0.548043 -0.144017 -0.000001 0.000001 -1.849906
    15 -0.064003 -0.023525 0.026161 0.000000 0.000000 0.000000
    16 3.013920 3.984632 -0.088975 -0.000001 0.000001 -1.849906
    17 -0.084188 -0.025625 -0.001098 0.000000 0.000000 0.000000
    18 4.778185 3.972485 -0.079803 -0.000001 0.000001 -1.849906
    19 -0.058556 -0.021328 0.004244 0.000000 0.000000 0.000000
    20 1.640597 -1.968779 -0.099219 -0.000001 0.000001 -1.849906
    21 0.055573 -0.028913 0.000000 0.000000 0.000000 0.000000
    22 -3.112023 1.517253 4.341910 -0.869966 -1.266247 3.516491
    23 4.827231 0.000000 0.000002 -0.678700 1.197749 -0.760121
    24 11.139760 0.000000 0.000000 0.000000 0.000000 -0.165170
    25 10.314597 0.000000 -0.000001 -1.570000 0.000000 -0.043815
    26 1.646739 0.449549 -1.702246 0.154002 0.442277 0.277235
    27 0.928312 0.000000 -0.000001 0.000000 0.000000 0.000000
    28 0.928313 -0.000001 0.000002 0.000000 0.000000 0.000000
    29 2.975833 -0.386307 -0.044143 -0.000797 -0.043611 0.000035
    30 1.438886 -0.000001 0.000000 0.000000 0.000000 0.314000
    31 1.485302 -0.000001 0.000000 0.000000 0.000000 0.104667
    32 -2.869897 1.399662 -4.140396 -0.948870 1.235947 1.748251
    33 4.972046 0.000000 0.000000 -0.121924 -1.312957 0.247319
    34 11.585350 0.000000 0.000001 0.000000 0.000000 -1.572904
    35 10.127054 -0.000001 -0.000001 1.569752 0.000000 -0.069778
    36 1.533672 0.109715 1.664490 -0.233255 -0.412980 0.435684
    37 0.928312 0.000001 0.000000 0.000000 0.000000 0.000000
    38 0.928313 0.000000 0.000002 0.000000 0.000000 0.000000
    39 2.683747 -0.427339 0.044205 0.001045 0.043611 0.000046
    40 1.438886 -0.000001 0.000002 0.000000 0.000000 1.064097
    41 1.485300 0.000000 0.000000 0.000000 0.000000 1.229794
  time 16
    0 0.235347 0.375545 39.619872 0.000000 0.000000 -1.522418
    1 0.324229 0.015625 0.000000 0.000000 -1.570787 -1.570795
    2 -0.000004 0.000007 3.713254 -3.144113 0.026063 2.944496
    3 18.045721 0.000000 0.000000 0.000000 0.000000 -1.132918
    4 17.597595 0.000000 0.000000 -0.025453 0.006075 -0.301193
    5 0.000004 -0.000003 -3.713254 3.156867 -0.013751 3.107477
    6 18.045725 0.000000 0.000000 0.000000 0.000000 -0.070175
    7 17.597597 0.000000 0.000000 0.001746 -0.013857 0.074312
    8 1.293671 0.684478 -0.000001 -0.000004 -0.000001 0.044409
    9 5.309686 -0.003834 0.000000 0.029970 0.002061 -0.069760
    10 4.826790 -0.004591 0.000000 -0.033907 0.000312 0.008700
    11 5.792768 -0.005304 0.000000 -0.220919 0.003991 0.017008
    12 6.662314 -0.001453 0.000000 0.000000 -0.000001 0.471000
    13 2.046984 -0.000002 0.000000 0.166774 -0.049150 -0.259425
    14 1.038628 0.548043 -0.144017 -0.000001 0.000001 -1.849906
    15 -0.064003 -0.023525 0.026161 0.000000 0.000000 0.000000
    16 3.013920 3.984632 -0.088975 -0.000001 0.000001 -1.849906
    17 -0.084188 -0.025625 -0.001098 0.000000 0.000000 0.000000
    18 4.778185 3.972485 -0.079803 -0.000001 0.000001 -1.849906
    19 -0.058556 -0.021328 0.004244 0.000000 0.000000 0.000000
    20 1.640597 -1.968779 -0.099219 -0.000001 0.000001 -1.849906
    21 0.055573 -0.028913 0.000000 0.000000 0.000000 0.000000
    22 -3.112023 1.517253 4.341910 -0.924997 -1.245899 3.568839
    23 4.827231 0.000000 0.000002 -0.557821 1.235534 -0.674273
    24 11.139760 0.000000 0.000000 0.000000 0.000000 -0.165170
    25 10.314597 0.000000 -0.000001 -1.570000 0.000000 -0.008737
    26 1.646739 0.449549 -1.702246 0.154002 0.442277 0.277235
    27 0.928312 0.000000 -0.000001 0.000000 0.000000 0.000000
    28 0.928313 -0.000001 0.000002 0.000000 0.000000 0.000000
    29 2.975833 -0.386307 -0.044143 -0.000797 -0.043611 0.000035
    30 1.438886 -0.000001 0.000000 0.000000 0.000000 0.314000
    31 1.485302 -0.000001 0.000000 0.000000 0.000000 0.104667
    32 -2.869897 1.399662 -4.140396 -0.948870 1.235947 1.748251
    33 4.972046 0.000000 0.000000 -0.031419 -1.315531 0.190668
    34 11.585350 0.000000 0.000001 0.000000 0.000000 -1.563530
    35 10.127054 -0.000001 -0.000001 1.569752 0.000000 -0.069778
    36 1.533672 0.109715 1.664490 -0.233255 -0.412980 0.435684
    37 0.928312 0.000001 0.000000 0.000000 0.000000 0.000000
    38 0.928313 0.000000 0.000002 0.000000 0.000000 0.000000
    39 2.683747 -0.427339 0.044205 0.001045 0.043611 0.000046
    40 1.438886 -0.000001 0.000002 0.000000 0.000000 1.064097
    41 1.485300 0.000000 0.000000 0.000000 0.000000 1.229794
  time 17
    0 0.235347 0.410702 39.701906 0.000000 0.000000 -1.540375
    1 0.320322 0.019532 0.000000 0.000000 -1.570787 -1.570795
    2 -0.000004 0.000007 3.713254 -3.146922 0.025620 2.835219
    3 18.045721 0.000000 0.000000 0.000000 0.000000 -1.266201
    4 17.597595 0.000000 0.000000 -0.025910 0.003568 -0.374901
    5 0.000004 -0.000003 -3.713254 3.138453 -0.017250 3.154852
    6 18.045725 0.000000 0.000000 0.000000 0.000000 -0.097994
    7 17.597597 0.000000 0.000000 0.002307 -0.017368 0.148555
    8 1.293671 0.684478 -0.000001 -0.000004 -0.000001 0.044409
    9 5.309686 -0.003834 0.000000 0.047942 0.003308 -0.069706
    10 4.826790 -0.004591 0.000000 -0.021297 0.000192 0.008700
    11 5.792768 -0.005304 0.000000 -0.210107 0.003799 0.017050
    12 6.662314 -0.001453 0.000000 0.000000 -0.000001 0.471000
    13 2.046984 -0.000002 0.000000 0.129076 -0.042013 -0.252548
    14 1.038628 0.548043 -0.144017 -0.000001 0.000001 -1.849906
    15 -0.064003 -0.023525 0.026161 0.000000 0.000000 0.000000
    16 3.013920 3.984632 -0.088975 -0.000001 0.000001 -1.849906
    17 -0.084188 -0.025625 -0.001098 0.000000 0.000000 0.000000
    18 4.778185 3.972485 -0.079803 -0.000001 0.000001 -1.849906
    19 -0.058556 -0.021328 0.004244 0.000000 0.000000 0.000000
    20 1.640597 -1.968779 -0.099219 -0.000001 0.000001 -1.849906
    21 0.055573 -0.028913 0.000000 0.000000 0.000000 0.000000
    22 -3.112023 1.517253 4.341910 -0.980699 -1.221434 3.621379
    23 4.827231 0.000000 0.000002 -0.381259 1.270255 -0.538368
    24 11.139760 0.000000 0.000000 0.000000 0.000000 -0.165170
    25 10.314597 0.000000 -0.000001 -1.570000 0.000000 0.031817
    26 1.646739 0.449549 -1.702246 0.154002 0.442277 0.277235
    27 0.928312 0.000000 -0.000001 0.000000 0.000000 0.000000
    28 0.928313 -0.000001 0.000002 0.000000 0.000000 0.000000
    29 2.975833 -0.386307 -0.044143 -0.000797 -0.043611 0.000035
    30 1.438886 -0.000001 0.000000 0.000000 0.000000 0.314000
    31 1.485302 -0.000001 0.000000 0.000000 0.000000 0.104667
    32 -2.869897 1.399662 -4.140396 -0.948870 1.235947 1.748251
    33 4.972046 0.000000 0.000000 0.074325 -1.316175 0.124137
    34 11.585350 0.000000 0.000001 0.000000 0.000000 -1.552756
    35 10.127054 -0.000001 -0.000001 1.569752 0.000000 -0.069778
    36 1.533672 0.109715 1.664490 -0.233255 -0.412980 0.435684
    37 0.928312 0.000001 0.000000 0.000000 0.000000 0.000000
    38 0.928313 0.000000 0.000002 0.000000 0.000000 0.000000
    39 2.683747 -0.427339 0.044205 0.001045 0.043611 0.000046
    40 1.438886 -0.000001 0.000002 0.000000 0.000000 1.064097
    41 1.485300 0.000000 0.000000 0.000000 0.000000 1.229794
  time 18
    0 0.235347 0.395076 39.647217 0.000000 0.000000 -1.559947
    1 0.320322 0.027345 0.000000 0.000000 -1.570787 -1.570795
    2 -0.000004 0.000007 3.713254 -3.148487 0.025227 2.745379
    3 18.045721 0.000000 0.000000 0.000000 0.000000 -1.303454
    4 17.597595 0.000000 0.000000 -0.025352 0.004639 -0.363920
    5 0.000004 -0.000003 -3.713254 3.130264 -0.018255 3.197702
    6 18.045725 0.000000 0.000000 0.000000 0.000000 -0.130739
    7 17.597597 0.000000 0.000000 0.003247 -0.019044 0.200684
    8 1.293671 0.684478 -0.000001 -0.000004 -0.000001 0.044409
    9 5.309686 -0.003834 0.000000 0.067432 0.004650 -0.069633
    10 4.826790 -0.004591 0.000000 -0.007619 0.000072 0.008700
    11 5.792768 -0.005304 0.000000 -0.198398 0.003595 0.017091
    12 6.662314 -0.001453 0.000000 0.000000 -0.000001 0.471000
    13 2.046984 -0.000002 0.000000 0.089182 -0.033817 -0.245176
    14 1.038628 0.548043 -0.144017 -0.000001 0.000001 -1.849906
    15 -0.064003 -0.023525 0.026161 0.000000 0.000000 0.000000
    16 3.013920 3.984632 -0.088975 -0.000001 0.000001 -1.849906
    17 -0.084188 -0.025625 -0.001098 0.000000 0.000000 0.000000
    18 4.778185 3.972485 -0.079803 -0.000001 0.000001 -1.849906
    19 -0.058556 -0.021328 0.004244 0.000000 0.000000 0.000000
    20 1.640597 -1.968779 -0.099219 -0.000001 0.000001 -1.849906
    21 0.055573 -0.028913 0.000000 0.000000 0.000000 0.000000
    22 -3.112023 1.517253 4.341910 -1.033142 -1.193931 3.670372
    23 4.827231 0.000000 0.000002 -0.146373 1.293487 -0.347769
    24 11.139760 0.000000 0.000000 0.000000 0.000000 -0.165170
    25 10.314597 0.000000 -0.000001 -1.570000 0.000000 0.075763
    26 1.646739 0.449549 -1.702246 0.154002 0.442277 0.277235
    27 0.928312 0.000000 -0.000001 0.000000 0.000000 0.000000
    28 0.928313 -0.000001 0.000002 0.000000 0.000000 0.000000
    29 2.975833 -0.386307 -0.044143 -0.000797 -0.043611 0.000035
    30 1.438886 -0.000001 0.000000 0.000000 0.000000 0.314000
    31 1.485302 -0.000001 0.000000 0.000000 0.000000 0.104667
    32 -2.869897 1.399662 -4.140396 -0.948870 1.235947 1.748251
    33 4.972046 0.000000 0.000000 0.188036 -1.314003 0.052995
    34 11.585350 0.000000 0.000001 0.000000 0.000000 -1.541003
    35 10.127054 -0.000001 -0.000001 1.569752 0.000000 -0.069778
    36 1.533672 0.109715 1.664490 -0.233255 -0.412980 0.435684
    37 0.928312 0.000001 0.000000 0.000000 0.000000 0.000000
    38 0.928313 0.000000 0.000002 0.000000 0.000000 0.000000
    39 2.683747 -0.427339 0.044205 0.001045 0.043611 0.000046
    40 1.438886 -0.000001 0.000002 0.000000 0.000000 1.064097
    41 1.485300 0.000000 0.000000 0.000000 0.000000 1.229794
  time 19
    0 0.235347 0.340387 39.526119 0.000000 0.000000 -1.580090
    1 0.320322 0.031251 0.000000 0.000000 -1.570787 -1.570795
    2 -0.000004 0.000007 3.713254 -3.149169 0.024981 2.661891
    3 18.045721 0.000000 0.000000 0.000000 0.000000 -1.278742
    4 17.597595 0.000000 0.000000 -0.023780 0.007925 -0.296618
    5 0.000004 -0.000003 -3.713254 3.129838 -0.017943 3.234039
    6 18.045725 0.000000 0.000000 0.000000 0.000000 -0.176886
    7 17.597597 0.000000 0.000000 0.004599 -0.019005 0.244433
    8 1.293671 0.684478 -0.000001 -0.000004 -0.000001 0.044409
    9 5.309686 -0.003834 0.000000 0.087522 0.006028 -0.069524
    10 4.826790 -0.004591 0.000000 0.006453 -0.000060 0.008700
    11 5.792768 -0.005304 0.000000 -0.186314 0.003368 0.017133
    12 6.662314 -0.001453 0.000000 0.000000 -0.000001 0.471000
    13 2.046984 -0.000002 0.000000 0.049459 -0.024902 -0.237221
    14 1.038628 0.548043 -0.144017 -0.000001 0.000001 -1.849906
    15 -0.064003 -0.023525 0.026161 0.000000 0.000000 0.000000
    16 3.013920 3.984632 -0.088975 -0.000001 0.000001 -1.849906
    17 -0.084188 -0.025625 -0.001098 0.000000 0.000000 0.000000
    18 4.778185 3.972485 -0.079803 -0.000001 0.000001 -1.849906
    19 -0.058556 -0.021328 0.004244 0.000000 0.000000 0.000000
    20 1.640597 -1.968779 -0.099219 -0.000001 0.000001 -1.849906
    21 0.055573 -0.028913 0.000000 0.000000 0.000000 0.000000
    22 -3.112023 1.517253 4.341910 -1.079928 -1.164697 3.713612
    23 4.827231 0.000000 0.000002 0.121700 1.297657 -0.125490
    24 11.139760 0.000000 0.000000 0.000000 0.000000 -0.165170
    25 10.314597 0.000000 -0.000001 -1.570000 0.000000 0.121077
    26 1.646739 0.449549 -1.702246 0.154002 0.442277 0.277235
    27 0.928312 0.000000 -0.000001 0.000000 0.000000 0.000000
    28 0.928313 -0.000001 0.000002 0.000000 0.000000 0.000000
    29 2.975833 -0.386307 -0.044143 -0.000797 -0.043611 0.000035
    30 1.438886 -0.000001 0.000000 0.000000 0.000000 0.314000
    31 1.485302 -0.000001 0.000000 0.000000 0.000000 0.104667
    32 -2.869897 1.399662 -4.140396 -0.948870 1.235947 1.748251
    33 4.972046 0.000000 0.000000 0.301748 -1.308694 -0.016830
    34 11.585350 0.000000 0.000001 0.000000 0.000000 -1.528901
    35 10.127054 -0.000001 -0.000001 1.569752 0.000000 -0.069778
    36 1.533672 0.109715 1.664490 -0.233255 -0.412980 0.435684
    37 0.928312 0.000001 0.000000 0.000000 0.000000 0.000000
    38 0.928313 0.000000 0.000002 0.000000 0.000000 0.000000
    39 2.683747 -0.427339 0.044205 0.001045 0.043611 0.000046
    40 1.438886 -0.000001 0.000002 0.000000 0.000000 1.064097
    41 1.485300 0.000000 0.000000 0.000000 0.000000 1.229794
  time 20
    0 0.235347 0.273979 39.373771 0.000000 0.000000 -1.599947
    1 0.320322 0.039064 0.000000 0.000000 -1.570787 -1.570795
    2 -0.000004 0.000007 3.713254 -3.150253 0.024513 2.575265
    3 18.045721 0.000000 0.000000 0.000000 0.000000 -1.202454
    4 17.597595 0.000000 0.000000 -0.020510 0.013646 -0.174138
    5 0.000004 -0.000003 -3.713254 3.133531 -0.017181 3.265577
    6 18.045725 0.000000 0.000000 0.000000 0.000000 -0.229336
    7 17.597597 0.000000 0.000000 0.005621 -0.017841 0.277090
    8 1.293671 0.684478 -0.000001 -0.000004 -0.000001 0.044409
    9 5.309686 -0.003834 0.000000 0.107318 0.007394 -0.069398
    10 4.826790 -0.004591 0.000000 0.020344 -0.000192 0.008700
    11 5.792768 -0.005304 0.000000 -0.174409 0.003164 0.017174
    12 6.662314 -0.001453 0.000000 0.000000 -0.000001 0.471000
    13 2.046984 -0.000002 0.000000 0.012192 -0.015693 -0.228950
    14 1.038628 0.548043 -0.144017 -0.000001 0.000001 -1.849906
    15 -0.064003 -0.023525 0.026161 0.000000 0.000000 0.000000
    16 3.013920 3.984632 -0.088975 -0.000001 0.000001 -1.849906
    17 -0.084188 -0.025625 -0.001098 0.000000 0.000000 0.000000
    18 4.778185 3.972485 -0.079803 -0.000001 0.000001 -1.849906
    19 -0.058556 -0.021328 0.004244 0.000000 0.000000 0.000000
    20 1.640597 -1.968779 -0.099219 -0.000001 0.000001 -1.849906
    21 0.055573 -0.028913 0.000000 0.000000 0.000000 0.000000
    22 -3.112023 1.517253 4.341910 -1.120099 -1.135232 3.750332
    23 4.827231 0.000000 0.000002 0.373502 1.281318 0.080861
    24 11.139760 0.000000 0.000000 0.000000 0.000000 -0.165170
    25 10.314597 0.000000 -0.000001 -1.570000 0.000000 0.165707
    26 1.646739 0.449549 -1.702246 0.154002 0.442277 0.277235
    27 0.928312 0.000000 -0.000001 0.000000 0.000000 0.000000
    28 0.928313 -0.000001 0.000002 0.000000 0.000000 0.000000
    29 2.975833 -0.386307 -0.044143 -0.000797 -0.043611 0.000035
    30 1.438886 -0.000001 0.000000 0.000000 0.000000 0.314000
    31 1.485302 -0.000001 0.000000 0.000000 0.000000 0.104667
    32 -2.869897 1.399662 -4.140396 -0.948870 1.235947 1.748251
    33 4.972046 0.000000 0.000000 0.408188 -1.300650 -0.080002
    34 11.585350 0.000000 0.000001 0.000000 0.000000 -1.517008
    35 10.127054 -0.000001 -0.000001 1.569752 0.000000 -0.069778
    36 1.533672 0.109715 1.664490 -0.233255 -0.412980 0.435684
    37 0.928312 0.000001 0.000000 0.000000 0.000000 0.000000
    38 0.928313 0.000000 0.000002 0.000000 0.000000 0.000000
    39 2.683747 -0.427339 0.044205 0.001045 0.043611 0.000046
    40 1.438886 -0.000001 0.000002 0.000000 0.000000 1.064097
    41 1.485300 0.000000 0.000000 0.000000 0.000000 1.229794
  time 21
    0 0.235347 0.238822 39.205797 0.000000 0.000000 -1.618569
    1 0.320322 0.042970 0.000000 0.000000 -1.570787 -1.570795
    2 -0.000004 0.000007 3.713254 -3.155068 0.022423 2.499124
    3 18.045721 0.000000 0.000000 0.000000 0.000000 -1.094922
    4 17.597595 0.000000 0.000000 -0.013944 0.022141 -0.010343
    5 0.000004 -0.000003 -3.713254 3.136039 -0.016661 3.294921
    6 18.045725 0.000000 0.000000 0.000000 0.000000 -0.277729
    7 17.597597 0.000000 0.000000 0.005259 -0.016737 0.294706
    8 1.293671 0.684478 -0.000001 -0.000004 -0.000001 0.044409
    9 5.309686 -0.003834 0.000000 0.125902 0.008665 -0.069235
    10 4.826790 -0.004591 0.000000 0.033382 -0.000312 0.008700
    11 5.792768 -0.005304 0.000000 -0.163239 0.002960 0.017216
    12 6.662314 -0.001453 0.000000 0.000000 -0.000001 0.471000
    13 2.046984 -0.000002 0.000000 -0.020249 -0.006552 -0.220725
    14 1.038628 0.548043 -0.144017 -0.000001 0.000001 -1.849906
    15 -0.064003 -0.023525 0.026161 0.000000 0.000000 0.000000
    16 3.013920 3.984632 -0.088975 -0.000001 0.000001 -1.849906
    17 -0.084188 -0.025625 -0.001098 0.000000 0.000000 0.000000
    18 4.778185 3.972485 -0.079803 -0.000001 0.000001 -1.849906
    19 -0.058556 -0.021328 0.004244 0.000000 0.000000 0.000000
    20 1.640597 -1.968779 -0.099219 -0.000001 0.000001 -1.849906
    21 0.055573 -0.028913 0.000000 0.000000 0.000000 0.000000
    22 -3.112023 1.517253 4.341910 -1.153463 -1.107075 3.780342
    23 4.827231 0.000000 0.000002 0.572207 1.250341 0.236631
    24 11.139760 0.000000 0.000000 0.000000 0.000000 -0.165170
    25 10.314597 0.000000 -0.000001 -1.570000 0.000000 0.207630
    26 1.646739 0.449549 -1.702246 0.154002 0.442277 0.277235
    27 0.928312 0.000000 -0.000001 0.000000 0.000000 0.000000
    28 0.928313 -0.000001 0.000002 0.000000 0.000000 0.000000
    29 2.975833 -0.386307 -0.044143 -0.000797 -0.043611 0.000035
    30 1.438886 -0.000001 0.000000 0.000000 0.000000 0.314000
    31 1.485302 -0.000001 0.000000 0.000000 0.000000 0.104667
    32 -2.869897 1.399662 -4.140396 -0.948870 1.235947 1.748251
    33 4.972046 0.000000 0.000000 0.501787 -1.290916 -0.132832
    34 11.585350 0.000000 0.000001 0.000000 0.000000 -1.505815
    35 10.127054 -0.000001 -0.000001 1.569752 0.000000 -0.069778
    36 1.533672 0.109715 1.664490 -0.233255 -0.412980 0.435684
    37 0.928312 0.000001 0.000000 0.000000 0.000000 0.000000
    38 0.928313 0.000000 0.000002 0.000000 0.000000 0.000000
    39 2.683747 -0.427339 0.044205 0.001045 0.043611 0.000046
    40 1.438886 -0.000001 0.000002 0.000000 0.000000 1.064097
    41 1.485300 0.000000 0.000000 0.000000 0.000000 1.229794
  time 22
    0 0.235347 0.254447 39.041729 0.000000 0.000000 -1.635006
    1 0.320322 0.050783 0.000000 0.000000 -1.570787 -1.570795
    2 -0.000004 0.000007 3.713254 -3.194756 0.008011 2.568225
    3 18.045721 0.000000 0.000000 0.000000 0.000000 -0.817671
    4 17.597595 0.000000 0.000000 0.022230 0.035943 0.391366
    5 0.000004 -0.000003 -3.713254 3.135613 -0.016488 3.323373
    6 18.045725 0.000000 0.000000 0.000000 0.000000 -0.321341
    7 17.597597 0.000000 0.000000 0.001944 -0.015810 0.281863
    8 1.293671 0.684478 -0.000001 -0.000004 -0.000001 0.044409
    9 5.309686 -0.003834 0.000000 0.142368 0.009791 -0.069090
    10 4.826790 -0.004591 0.000000 0.044925 -0.000419 0.008700
    11 5.792768 -0.005304 0.000000 -0.153324 0.002780 0.017236
    12 6.662314 -0.001453 0.000000 0.000000 -0.000001 0.471000
    13 2.046984 -0.000002 0.000000 -0.046314 0.001914 -0.213803
    14 1.038628 0.548043 -0.144017 -0.000001 0.000001 -1.849906
    15 -0.064003 -0.023525 0.026161 0.000000 0.000000 0.000000
    16 3.013920 3.984632 -0.088975 -0.000001 0.000001 -1.849906
    17 -0.084188 -0.025625 -0.001098 0.000000 0.000000 0.000000
    18 4.778185 3.972485 -0.079803 -0.000001 0.000001 -1.849906
    19 -0.058556 -0.021328 0.004244 0.000000 0.000000 0.000000
    20 1.640597 -1.968779 -0.099219 -0.000001 0.000001 -1.849906
    21 0.055573 -0.028913 0.000000 0.000000 0.000000 0.000000
    22 -3.112023 1.517253 4.341910 -1.179924 -1.081803 3.803927
    23 4.827231 0.000000 0.000002 0.712352 1.213493 0.338582
    24 11.139760 0.000000 0.000000 0.000000 0.000000 -0.165170
    25 10.314597 0.000000 -0.000001 -1.570000 0.000000 0.244762
    26 1.646739 0.449549 -1.702246 0.154002 0.442277 0.277235
    27 0.928312 0.000000 -0.000001 0.000000 0.000000 0.000000
    28 0.928313 -0.000001 0.000002 0.000000 0.000000 0.000000
    29 2.975833 -0.386307 -0.044143 -0.000797 -0.043611 0.000035
    30 1.438886 -0.000001 0.000000 0.000000 0.000000 0.314000
    31 1.485302 -0.000001 0.000000 0.000000 0.000000 0.104667
    32 -2.869897 1.399662 -4.140396 -0.948870 1.235947 1.748251
    33 4.972046 0.000000 0.000000 0.578987 -1.280539 -0.173936
    34 11.585350 0.000000 0.000001 0.000000 0.000000 -1.495951
    35 10.127054 -0.000001 -0.000001 1.569752 0.000000 -0.069778
    36 1.533672 0.109715 1.664490 -0.233255 -0.412980 0.435684
    37 0.928312 0.000001 0.000000 0.000000 0.000000 0.000000
    38 0.928313 0.000000 0.000002 0.000000 0.000000 0.000000
    39 2.683747 -0.427339 0.044205 0.001045 0.043611 0.000046
    40 1.438886 -0.000001 0.000002 0.000000 0.000000 1.064097
    41 1.485300 0.000000 0.000000 0.000000 0.000000 1.229794
  time 23
    0 0.235347 0.367732 38.811254 0.000000 0.000000 -1.658094
    1 0.316416 0.054689 0.000000 0.000000 -1.570787 -1.570795
    2 -0.000004 0.000007 3.713254 -3.303746 -0.008786 2.846621
    3 18.045721 0.000000 0.000000 0.000000 0.000000 -0.121501
    4 17.597595 0.000000 0.000000 0.070547 0.038646 -0.171164
    5 0.000004 -0.000003 -3.713254 3.134951 -0.016246 3.361356
    6 18.045725 0.000000 0.000000 0.000000 0.000000 -0.389149
    7 17.597597 0.000000 0.000000 -0.007966 -0.014764 0.207655
    8 1.293671 0.684478 -0.000001 -0.000004 -0.000001 0.044409
    9 5.309686 -0.003834 0.000000 0.165335 0.011361 -0.068836
    10 4.826790 -0.004591 0.000000 0.061050 -0.000575 0.008700
    11 5.792768 -0.005304 0.000000 -0.139528 0.002529 0.017278
    12 6.662314 -0.001453 0.000000 0.000000 -0.000001 0.471000
    13 2.046984 -0.000002 0.000000 -0.008660 0.015580 -0.272190
    14 1.038628 0.548043 -0.144017 -0.000001 0.000001 -1.849906
    15 -0.064003 -0.023525 0.026161 0.000000 0.000000 0.000000
    16 3.013920 3.984632 -0.088975 -0.000001 0.000001 -1.849906
    17 -0.084188 -0.025625 -0.001098 0.000000 0.000000 0.000000
    18 4.778185 3.972485 -0.079803 -0.000001 0.000001 -1.849906
    19 -0.058556 -0.021328 0.004244 0.000000 0.000000 0.000000
    20 1.640597 -1.968779 -0.099219 -0.000001 0.000001 -1.849906
    21 0.055573 -0.028913 0.000000 0.000000 0.000000 0.000000
    22 -3.112023 1.517253 4.341910 -1.213000 -1.046106 3.832786
    23 4.827231 0.000000 0.000002 0.858547 1.152050 0.431431
    24 11.139760 0.000000 0.000000 0.000000 0.000000 -0.165170
    25 10.314597 0.000000 -0.000001 -1.570000 0.000000 0.296547
    26 1.646739 0.449549 -1.702246 0.154002 0.442277 0.277235
    27 0.928312 0.000000 -0.000001 0.000000 0.000000 0.000000
    28 0.928313 -0.000001 0.000002 0.000000 0.000000 0.000000
    29 2.975833 -0.386307 -0.044143 -0.000797 -0.043611 0.000035
    30 1.438886 -0.000001 0.000000 0.000000 0.000000 0.314000
    31 1.485302 -0.000001 0.000000 0.000000 0.000000 0.104667
    32 -2.869897 1.399662 -4.140396 -0.948870 1.235947 1.748251
    33 4.972046 0.000000 0.000000 0.677382 -1.263968 -0.221891
    34 11.585350 0.000000 0.000001 0.000000 0.000000 -1.482100
    35 10.127054 -0.000001 -0.000001 1.569752 0.000000 -0.069778
    36 1.533672 0.109715 1.664490 -0.233255 -0.412980 0.435684
    37 0.928312 0.000001 0.000000 0.000000 0.000000 0.000000
    38 0.928313 0.000000 0.000002 0.000000 0.000000 0.000000
    39 2.683747 -0.427339 0.044205 0.001045 0.043611 0.000046
    40 1.438886 -0.000001 0.000002 0.000000 0.000000 1.064097
    41 1.485300 0.000000 0.000000 0.000000 0.000000 1.229794
end
