# Exported from Fuse 1.3.0

newmtl Hair
illum 4
Kd 1.00 1.00 1.00
Ka 0.00 0.00 0.00
Tf 1.00 1.00 1.00
Ni 1.00
Ks 1.00 1.00 1.00
map_Kd alphaswept_Hair_diffuse.png
map_Ks alphaswept_Hair_specular.png
bump alphaswept_Hair_normal.png
map_Ns alphaswept_Hair_gloss.png

newmtl Body
illum 4
Kd 1.00 1.00 1.00
Ka 0.00 0.00 0.00
Tf 1.00 1.00 1.00
Ni 1.00
Ks 1.00 1.00 1.00
map_Kd alphaswept_Body_diffuse.png
map_Ks alphaswept_Body_specular.png
bump alphaswept_Body_normal.png
map_Ns alphaswept_Body_gloss.png

