version 1
nodes
  0 "Bip01" -1
  1 "Bip01 Pelvis" 0
  2 "Bip01 L Thigh" 1
  3 "Bip01 L Calf" 2
  4 "Bip01 L Foot" 3
  5 "Bip01 R Thigh" 1
  6 "Bip01 R Calf" 5
  7 "Bip01 R Foot" 6
  8 "Bip01 Spine" 1
  9 "Bip01 Spine1" 8
  10 "Armour Front" 8
  11 "Armour Back" 8
  12 "Holster" 1
  13 "Bip01 Neck" 9
  14 "Bip01 R Clavicle" 13
  15 "Bip01 R UpperArm" 14
  16 "Bip01 R Forearm" 15
  17 "Bip01 R Hand" 16
  18 "Bip01 R Finger0" 17
  19 "Bip01 R Finger01" 18
  20 "Bip01 R Finger1" 17
  21 "Bip01 R Finger11" 20
  22 "Bip01 R Finger12" 21
  23 "Bip01 R Finger2" 17
  24 "Bip01 R Finger21" 23
  25 "Bip01 R Finger22" 24
  26 "Bip01 R Finger4" 17
  27 "Bip01 L Clavicle" 13
  28 "Bip01 L UpperArm" 27
  29 "Bip01 L Forearm" 28
  30 "Bip01 L Hand" 29
  31 "Bip01 L Finger0" 30
  32 "Bip01 L Finger01" 31
  33 "Bip01 L Finger02" 32
  34 "Bip01 L Finger1" 30
  35 "Bip01 L Finger11" 34
  36 "Bip01 L Finger12" 35
  37 "Bip01 L Finger2" 30
  38 "Bip01 L Finger21" 37
  39 "Bip01 L Finger22" 38
  40 "Bip01 L Finger3" 30
  41 "Bip01 L Finger31" 40
  42 "Bip01 L Finger32" 41
  43 "Bip01 L Finger4" 30
  44 "Bip01 L Finger41" 43
  45 "Bip01 L Finger42" 44
  46 "Bip01 R Finger02" 19
  47 "Bip01 R Finger3" 17
  48 "Bip01 R Finger31" 47
  49 "Bip01 R Finger32" 48
  50 "Bip01 R Finger41" 26
  51 "Bip01 R Finger42" 50
  52 "Bip01 Head" 13
  53 "R_eyebrow" 52
  54 "C_eyebrow" 52
  55 "L_eyebrow" 52
  56 "R_eye" 52
  57 "Eyelids" 52
  58 "L_eye" 52
  59 "Mouth" 52
  60 "ID Tag" 9
end
skeleton
  time 0
    0 0.402227 -0.434952 37.865995 0.000000 0.000000 -1.570939
    1 1.414433 0.000000 0.000000 -1.570795 -1.570451 0.000000
    2 -0.000006 0.000008 4.427393 6.280105 3.086979 6.128722
    3 18.465940 0.000000 0.000000 0.000000 0.000000 -0.573572
    4 14.875443 0.000000 -0.000001 -0.005246 0.054493 0.419018
    5 0.000006 -0.000004 -4.427393 -6.271569 -3.108773 5.840662
    6 18.465940 0.000000 0.000000 0.000000 0.000000 -1.193400
    7 14.875443 0.000000 0.000000 0.031521 -0.014850 -0.278198
    8 2.255207 -0.007574 0.000003 -0.000004 -0.000001 -0.095119
    9 9.514226 -0.009357 0.000000 0.000000 0.000000 -0.156994
    10 2.450429 5.076128 0.001325 3.140791 -1.570796 0.000000
    11 6.312407 -4.528058 0.001311 3.201869 -1.570796 0.000000
    12 2.233310 1.152535 -7.309138 -1.128454 -1.457413 -0.974829
    13 11.751820 -0.001633 0.000000 0.000000 -0.000001 0.239386
    14 -2.133122 0.444686 -2.649726 -0.088046 1.370039 2.815124
    15 4.640942 0.000000 0.000000 0.356333 -0.822696 -0.754975
    16 10.828047 0.000000 0.000000 0.000000 0.000000 -0.723211
    17 9.393338 0.000000 0.000001 1.569611 -0.034190 0.000011
    18 1.442242 0.107453 1.746178 -1.686405 -0.539236 0.325847
    19 1.063451 0.000000 -0.000001 0.000000 0.000000 0.199056
    20 4.172844 -0.251366 1.312745 -0.008026 -0.095731 0.148653
    21 1.215373 0.000000 0.000001 0.000000 0.000000 0.645746
    22 1.215372 0.000000 0.000001 0.000000 0.000000 0.645746
    23 4.220531 -0.244854 0.431466 -0.001333 -0.026242 0.148333
    24 1.350417 0.000001 -0.000001 0.000000 0.000000 0.863854
    25 1.350410 -0.000001 0.000001 0.000000 0.000000 0.863875
    26 4.262825 -0.232720 -1.392178 0.016840 0.076668 0.253759
    27 -2.133122 0.444674 2.649729 0.088019 -1.370041 2.815150
    28 4.640942 0.000000 -0.000001 0.439605 0.641223 0.308712
    29 10.828047 0.000000 -0.000002 0.000000 0.000000 -0.784238
    30 9.393336 -0.000001 0.000000 -1.569611 0.034157 0.000091
    31 1.442245 0.107453 -1.746177 1.686435 0.539221 0.325885
    32 1.063452 -0.000001 -0.000001 0.000000 0.000000 0.199056
    33 1.376307 -0.000001 0.000000 0.000000 0.000000 0.199053
    34 4.172847 -0.251366 -1.312744 0.008026 0.095731 0.148653
    35 1.215373 0.000001 0.000000 0.000000 0.000000 0.645758
    36 1.215371 -0.000001 0.000000 0.000000 0.000000 0.645758
    37 4.220535 -0.244855 -0.431465 0.001333 0.026242 0.148333
    38 1.350416 0.000000 0.000000 0.000000 0.000000 0.863850
    39 1.350410 -0.000001 -0.000001 0.000000 0.000000 0.863880
    40 4.237636 -0.195359 0.527090 0.000662 0.008837 0.261753
    41 1.215376 0.000001 0.000001 0.000000 0.000000 0.977275
    42 1.215371 0.000000 0.000000 0.000000 0.000000 0.977290
    43 4.262829 -0.232721 1.392178 -0.016840 -0.076668 0.253759
    44 1.012811 0.000000 0.000000 0.000000 0.000000 0.968559
    45 1.012809 -0.000001 0.000000 0.000000 0.000000 0.968559
    46 1.376306 -0.000001 0.000000 0.000000 0.000000 0.199056
    47 4.237632 -0.195359 -0.527090 -0.000662 -0.008837 0.261713
    48 1.215375 0.000001 -0.000001 0.000000 0.000000 0.977293
    49 1.215371 0.000000 0.000001 0.000000 0.000000 0.977318
    50 1.012810 0.000001 0.000000 0.000000 0.000000 0.968648
    51 1.012810 -0.000001 0.000000 0.000000 0.000000 0.968648
    52 2.110540 0.000000 0.000000 0.000000 0.000000 -0.013517
    53 5.253243 3.139475 -1.673515 2.984594 -1.570796 0.000000
    54 5.253259 3.139473 -0.054760 2.984594 -1.570796 0.000000
    55 5.253252 3.139468 1.574632 2.984594 -1.570796 0.000000
    56 4.598148 4.158443 -1.350299 2.984594 -1.570796 0.000000
    57 4.598139 4.158430 -0.054439 2.984594 -1.570796 0.000000
    58 4.598140 4.158430 1.240876 2.984594 -1.570796 0.000000
    59 0.891927 2.373051 -0.014527 -3.141592 -0.000001 1.413797
    60 7.228122 5.709446 3.726568 3.140796 -1.570796 0.000000
  time 1
    0 0.402227 -0.212366 37.361932 0.000000 0.000000 -1.570939
    1 1.773819 0.000000 0.000000 -1.570795 -1.570451 0.000000
    2 -0.000006 0.000008 4.427393 6.277229 3.086403 6.089796
    3 18.465940 0.000000 0.000000 0.000000 0.000000 -0.674746
    4 14.875443 0.000000 -0.000001 -0.004535 0.055344 0.481394
    5 0.000006 -0.000004 -4.427393 -6.269556 -3.109540 5.777020
    6 18.465940 0.000000 0.000000 0.000000 0.000000 -1.324665
    7 14.875443 0.000000 0.000000 0.031521 -0.014850 -0.210708
    8 2.255207 -0.007574 0.000003 -0.000004 -0.000001 -0.129098
    9 9.514226 -0.009357 0.000000 0.000000 0.000000 -0.156994
    10 2.450429 5.076128 0.001325 3.140791 -1.570796 0.000000
    11 6.312407 -4.528058 0.001311 3.210595 -1.570796 0.000000
    12 2.233310 1.152535 -7.309138 -1.147724 -1.453918 -1.019061
    13 11.751820 -0.001633 0.000000 0.000000 -0.000001 0.239386
    14 -2.133122 0.444686 -2.649726 -0.125998 1.369271 2.778016
    15 4.640942 0.000000 0.000000 0.396566 -0.754003 -0.766197
    16 10.828047 0.000000 0.000000 0.000000 0.000000 -1.148794
    17 9.393338 0.000000 0.000001 1.482952 -0.006897 -0.009106
    18 1.442242 0.107453 1.746178 -1.699769 -0.528955 0.264465
    19 1.063451 0.000000 -0.000001 0.000000 0.000000 0.191961
    20 4.172844 -0.251366 1.312745 -0.008242 -0.104408 0.149815
    21 1.215373 0.000000 0.000001 0.000000 0.000000 0.646837
    22 1.215372 0.000000 0.000001 0.000000 0.000000 0.646837
    23 4.220531 -0.244854 0.431466 -0.001537 -0.026230 0.156500
    24 1.350417 0.000001 -0.000001 0.000000 0.000000 0.871995
    25 1.350410 -0.000001 0.000001 0.000000 0.000000 0.872033
    26 4.262825 -0.232720 -1.392178 0.021538 0.092967 0.275211
    27 -2.133122 0.444674 2.649729 0.122603 -1.363846 2.781359
    28 4.640942 0.000000 -0.000001 0.241385 0.746711 -0.013636
    29 10.828047 0.000000 -0.000002 0.000000 0.000000 -1.066603
    30 9.393336 -0.000001 0.000000 -1.521700 0.030145 -0.017590
    31 1.442245 0.107453 -1.746177 1.699186 0.534013 0.319030
    32 1.063452 -0.000001 -0.000001 0.000000 0.000000 0.191961
    33 1.376307 -0.000001 0.000000 0.000000 0.000000 0.191960
    34 4.172847 -0.251366 -1.312744 0.008218 0.104420 0.149254
    35 1.215373 0.000001 0.000000 0.000000 0.000000 0.646248
    36 1.215371 -0.000001 0.000000 0.000000 0.000000 0.646248
    37 4.220535 -0.244855 -0.431465 0.001537 0.026230 0.155979
    38 1.350416 0.000000 0.000000 0.000000 0.000000 0.871523
    39 1.350410 -0.000001 -0.000001 0.000000 0.000000 0.871511
    40 4.237636 -0.195359 0.527090 -0.000321 0.001838 0.279763
    41 1.215376 0.000001 0.000001 0.000000 0.000000 0.995289
    42 1.215371 0.000000 0.000000 0.000000 0.000000 0.995304
    43 4.262829 -0.232721 1.392178 -0.021562 -0.092955 0.274733
    44 1.012811 0.000000 0.000000 0.000000 0.000000 0.989285
    45 1.012809 -0.000001 0.000000 0.000000 0.000000 0.989285
    46 1.376306 -0.000001 0.000000 0.000000 0.000000 0.191961
    47 4.237632 -0.195359 -0.527090 0.000285 -0.001826 0.280240
    48 1.215375 0.000001 -0.000001 0.000000 0.000000 0.995927
    49 1.215371 0.000000 0.000001 0.000000 0.000000 0.995828
    50 1.012810 0.000001 0.000000 0.000000 0.000000 0.989842
    51 1.012810 -0.000001 0.000000 0.000000 0.000000 0.989842
    52 2.110540 0.000000 0.000000 0.000000 0.000000 0.020543
    53 5.253243 3.139475 -1.673515 3.023424 -1.570796 0.000000
    54 5.253259 3.139473 -0.054760 3.053550 -1.570796 0.000000
    55 5.253252 3.139468 1.574632 3.023424 -1.570796 0.000000
    56 4.598148 4.158443 -1.350299 2.984594 -1.570796 0.000000
    57 4.598139 4.158430 -0.054439 3.246102 -1.570796 0.000000
    58 4.598140 4.158430 1.240876 2.984594 -1.570796 0.000000
    59 0.891927 2.373051 -0.014527 -3.141592 -0.000001 1.435383
    60 7.228122 5.709446 3.726568 3.140796 -1.570796 0.000000
  time 2
    0 0.402227 0.188289 36.590084 0.000000 0.000000 -1.570939
    1 2.293366 0.000000 0.000000 -1.570795 -1.570451 0.000000
    2 -0.000006 0.000008 4.427393 6.273777 3.085445 6.037544
    3 18.465940 0.000000 0.000000 0.000000 0.000000 -0.801799
    4 14.875443 0.000000 -0.000001 -0.004393 0.056749 0.556411
    5 0.000006 -0.000004 -4.427393 -6.266680 -3.110978 5.686734
    6 18.465940 0.000000 0.000000 0.000000 0.000000 -1.513884
    7 14.875443 0.000000 0.000000 0.031521 -0.014850 -0.111743
    8 2.255207 -0.007574 0.000003 -0.000004 -0.000001 -0.178065
    9 9.514226 -0.009357 0.000000 0.000000 0.000000 -0.156994
    10 2.450429 5.076128 0.001325 3.140791 -1.570796 0.000000
    11 6.312407 -4.528058 0.001311 3.219320 -1.570796 0.000000
    12 2.233310 1.152535 -7.309138 -1.171307 -1.468626 -1.064825
    13 11.751820 -0.001633 0.000000 0.000000 -0.000001 0.239386
    14 -2.133122 0.444686 -2.649726 -0.088046 1.370039 2.815124
    15 4.640942 0.000000 0.000000 0.396662 -0.679452 -0.818540
    16 10.828047 0.000000 0.000000 0.000000 0.000000 -1.556889
    17 9.393338 0.000000 0.000001 1.569611 -0.034190 0.000011
    18 1.442242 0.107453 1.746178 -1.686405 -0.539236 0.325847
    19 1.063451 0.000000 -0.000001 0.000000 0.000000 0.199056
    20 4.172844 -0.251366 1.312745 -0.008026 -0.095731 0.148653
    21 1.215373 0.000000 0.000001 0.000000 0.000000 0.645746
    22 1.215372 0.000000 0.000001 0.000000 0.000000 0.645746
    23 4.220531 -0.244854 0.431466 -0.001333 -0.026242 0.148333
    24 1.350417 0.000001 -0.000001 0.000000 0.000000 0.863854
    25 1.350410 -0.000001 0.000001 0.000000 0.000000 0.863875
    26 4.262825 -0.232720 -1.392178 0.016840 0.076668 0.253759
    27 -2.133122 0.444674 2.649729 0.088019 -1.370041 2.815150
    28 4.640942 0.000000 -0.000001 0.032301 0.791158 -0.371924
    29 10.828047 0.000000 -0.000002 0.000000 0.000000 -1.389907
    30 9.393336 -0.000001 0.000000 -1.569611 0.034157 0.000091
    31 1.442245 0.107453 -1.746177 1.686435 0.539221 0.325885
    32 1.063452 -0.000001 -0.000001 0.000000 0.000000 0.199056
    33 1.376307 -0.000001 0.000000 0.000000 0.000000 0.199053
    34 4.172847 -0.251366 -1.312744 0.008026 0.095731 0.148653
    35 1.215373 0.000001 0.000000 0.000000 0.000000 0.645758
    36 1.215371 -0.000001 0.000000 0.000000 0.000000 0.645758
    37 4.220535 -0.244855 -0.431465 0.001333 0.026242 0.148333
    38 1.350416 0.000000 0.000000 0.000000 0.000000 0.863850
    39 1.350410 -0.000001 -0.000001 0.000000 0.000000 0.863880
    40 4.237636 -0.195359 0.527090 0.000662 0.008837 0.261753
    41 1.215376 0.000001 0.000001 0.000000 0.000000 0.977275
    42 1.215371 0.000000 0.000000 0.000000 0.000000 0.977290
    43 4.262829 -0.232721 1.392178 -0.016840 -0.076668 0.253759
    44 1.012811 0.000000 0.000000 0.000000 0.000000 0.968559
    45 1.012809 -0.000001 0.000000 0.000000 0.000000 0.968559
    46 1.376306 -0.000001 0.000000 0.000000 0.000000 0.199056
    47 4.237632 -0.195359 -0.527090 -0.000662 -0.008837 0.261713
    48 1.215375 0.000001 -0.000001 0.000000 0.000000 0.977293
    49 1.215371 0.000000 0.000001 0.000000 0.000000 0.977318
    50 1.012810 0.000001 0.000000 0.000000 0.000000 0.968648
    51 1.012810 -0.000001 0.000000 0.000000 0.000000 0.968648
    52 2.110540 0.000000 0.000000 0.000000 0.000000 0.069525
    53 5.253243 3.139475 -1.673515 3.066401 -1.570796 0.000000
    54 5.253259 3.139473 -0.054760 3.108938 -1.570796 0.000000
    55 5.253252 3.139468 1.574632 3.066401 -1.570796 0.000000
    56 4.598148 4.158443 -1.350299 2.984594 -1.570796 0.000000
    57 4.598139 4.158430 -0.054439 3.385990 -1.570796 0.000000
    58 4.598140 4.158430 1.240876 2.984594 -1.570796 0.000000
    59 0.891927 2.373051 -0.014527 -3.141592 -0.000001 1.457242
    60 7.228122 5.709446 3.726568 3.140796 -1.570796 0.000000
  time 3
    0 0.402227 0.686882 35.723725 0.000000 0.000000 -1.570939
    1 2.871509 0.000000 0.000000 -1.570795 -1.570451 0.000000
    2 -0.000006 0.000008 4.427393 6.270614 3.084294 5.989605
    3 18.465940 0.000000 0.000000 0.000000 0.000000 -0.927024
    4 14.875443 0.000000 -0.000001 -0.004393 0.058409 0.633680
    5 0.000006 -0.000004 -4.427393 -6.263707 -3.112800 5.586672
    6 18.465940 0.000000 0.000000 0.000000 0.000000 -1.730602
    7 14.875443 0.000000 0.000000 0.031521 -0.014850 0.005043
    8 2.255207 -0.007574 0.000003 -0.000004 -0.000001 -0.234145
    9 9.514226 -0.009357 0.000000 0.000000 0.000000 -0.156994
    10 2.450429 5.076128 0.001325 3.140791 -1.570796 0.000000
    11 6.312407 -4.528058 0.001311 3.228046 -1.570796 0.000000
    12 2.233310 1.152535 -7.309138 -1.194604 -1.467694 -1.138257
    13 11.751820 -0.001633 0.000000 0.000000 -0.000001 0.239386
    14 -2.133122 0.444686 -2.649726 0.200017 1.366883 3.097331
    15 4.640942 0.000000 0.000000 0.312947 -0.540671 -1.088655
    16 10.828047 0.000000 0.000000 0.000000 0.000000 -1.973470
    17 9.393338 0.000000 0.000001 2.300308 -0.267764 -0.020065
    18 1.442242 0.107453 1.746178 -1.599035 -0.647552 0.841566
    19 1.063451 0.000000 -0.000001 0.000000 0.000000 0.258140
    20 4.172844 -0.251366 1.312745 -0.006840 -0.023105 0.139037
    21 1.215373 0.000000 0.000001 0.000000 0.000000 0.636681
    22 1.215372 0.000000 0.000001 0.000000 0.000000 0.636681
    23 4.220531 -0.244854 0.431466 0.000489 -0.026254 0.080153
    24 1.350417 0.000001 -0.000001 0.000000 0.000000 0.795656
    25 1.350410 -0.000001 0.000001 0.000000 0.000000 0.795704
    26 4.262825 -0.232720 -1.392178 -0.008484 -0.062485 0.077129
    27 -2.133122 0.444674 2.649729 -0.275257 -1.414059 3.173489
    28 4.640942 0.000000 -0.000001 -0.158531 0.730261 -0.829545
    29 10.828047 0.000000 -0.000002 0.000000 0.000000 -1.914551
    30 9.393336 -0.000001 0.000000 -1.966072 0.098573 0.135183
    31 1.442245 0.107453 -1.746177 1.580767 0.572069 0.381465
    32 1.063452 -0.000001 -0.000001 0.000000 0.000000 0.258140
    33 1.376307 -0.000001 0.000000 0.000000 0.000000 0.258137
    34 4.172847 -0.251366 -1.312744 0.006792 0.023081 0.143564
    35 1.215373 0.000001 0.000000 0.000000 0.000000 0.641143
    36 1.215371 -0.000001 0.000000 0.000000 0.000000 0.641143
    37 4.220535 -0.244855 -0.431465 -0.000345 0.026266 0.084677
    38 1.350416 0.000000 0.000000 0.000000 0.000000 0.800257
    39 1.350410 -0.000001 -0.000001 0.000000 0.000000 0.800246
    40 4.237636 -0.195359 0.527090 0.003921 0.067873 0.111907
    41 1.215376 0.000001 0.000001 0.000000 0.000000 0.827362
    42 1.215371 0.000000 0.000000 0.000000 0.000000 0.827339
    43 4.262829 -0.232721 1.392178 0.009071 0.062401 0.081706
    44 1.012811 0.000000 0.000000 0.000000 0.000000 0.795920
    45 1.012809 -0.000001 0.000000 0.000000 0.000000 0.795920
    46 1.376306 -0.000001 0.000000 0.000000 0.000000 0.258132
    47 4.237632 -0.195359 -0.527090 -0.003514 -0.067933 0.107454
    48 1.215375 0.000001 -0.000001 0.000000 0.000000 0.822809
    49 1.215371 0.000000 0.000001 0.000000 0.000000 0.822801
    50 1.012810 0.000001 0.000000 0.000000 0.000000 0.791375
    51 1.012810 -0.000001 0.000000 0.000000 0.000000 0.791375
    52 2.110540 0.000000 0.000000 0.000000 0.000000 0.125516
    53 5.253243 3.139475 -1.673515 3.101144 -1.570796 0.000000
    54 5.253259 3.139473 -0.054760 3.138809 -1.570796 0.000000
    55 5.253252 3.139468 1.574632 3.101144 -1.570796 0.000000
    56 4.598148 4.158443 -1.350299 2.984594 -1.570796 0.000000
    57 4.598139 4.158430 -0.054439 3.271981 -1.570796 0.000000
    58 4.598140 4.158430 1.240876 2.984594 -1.570796 0.000000
    59 0.891927 2.373051 -0.014527 -3.141592 -0.000001 1.479010
    60 7.228122 5.709446 3.726568 3.140796 -1.570796 0.000000
  time 4
    0 0.402227 0.936179 35.077893 0.000000 0.000000 -1.570939
    1 3.230895 0.000000 0.000000 -1.570795 -1.570451 0.000000
    2 -0.000006 0.000008 4.427393 6.268601 3.083431 5.960746
    3 18.465940 0.000000 0.000000 0.000000 0.000000 -1.006268
    4 14.875443 0.000000 -0.000001 -0.004464 0.059686 0.684205
    5 0.000006 -0.000004 -4.427393 -6.261982 -3.113950 5.526097
    6 18.465940 0.000000 0.000000 0.000000 0.000000 -1.867839
    7 14.875443 0.000000 0.000000 0.031521 -0.014850 0.081687
    8 2.255207 -0.007574 0.000003 -0.000004 -0.000001 -0.269546
    9 9.514226 -0.009357 0.000000 0.000000 0.000000 -0.156994
    10 2.450429 5.076128 0.001325 3.140791 -1.570796 0.000000
    11 6.312407 -4.528058 0.001311 3.236771 -1.570796 0.000000
    12 2.233310 1.152535 -7.309138 -1.183195 -1.474684 -1.204510
    13 11.751820 -0.001633 0.000000 0.000000 -0.000001 0.239386
    14 -2.133122 0.444686 -2.649726 0.486136 1.345452 3.377033
    15 4.640942 0.000000 0.000000 0.228755 -0.467724 -1.346606
    16 10.828047 0.000000 0.000000 0.000000 0.000000 -2.251620
    17 9.393338 0.000000 0.000001 3.025706 -0.416854 -0.186879
    18 1.442242 0.107453 1.746178 -1.599671 -0.766879 1.371086
    19 1.063451 0.000000 -0.000001 0.000000 0.000000 0.312502
    20 4.172844 -0.251366 1.312745 -0.006324 0.043745 0.130221
    21 1.215373 0.000000 0.000001 0.000000 0.000000 0.628203
    22 1.215372 0.000000 0.000001 0.000000 0.000000 0.628203
    23 4.220531 -0.244854 0.431466 0.002095 -0.026194 0.017419
    24 1.350417 0.000001 -0.000001 0.000000 0.000000 0.732913
    25 1.350410 -0.000001 0.000001 0.000000 0.000000 0.732972
    26 4.262825 -0.232720 -1.392178 -0.009922 -0.192601 -0.084935
    27 -2.133122 0.444674 2.649729 -0.750955 -1.417131 3.646469
    28 4.640942 0.000000 -0.000001 -0.262514 0.671528 -1.144284
    29 10.828047 0.000000 -0.000002 0.000000 0.000000 -2.323577
    30 9.393336 -0.000001 0.000000 -2.324849 0.199553 0.229689
    31 1.442245 0.107453 -1.746177 1.481774 0.632347 0.426967
    32 1.063452 -0.000001 -0.000001 0.000000 0.000000 0.312502
    33 1.376307 -0.000001 0.000000 0.000000 0.000000 0.312492
    34 4.172847 -0.251366 -1.312744 0.005965 -0.043793 0.138956
    35 1.215373 0.000001 0.000000 0.000000 0.000000 0.636937
    36 1.215371 -0.000001 0.000000 0.000000 0.000000 0.636937
    37 4.220535 -0.244855 -0.431465 -0.001843 0.026206 0.026146
    38 1.350416 0.000000 0.000000 0.000000 0.000000 0.741668
    39 1.350410 -0.000001 -0.000001 0.000000 0.000000 0.741699
    40 4.237636 -0.195359 0.527090 -0.000896 0.122079 -0.026251
    41 1.215376 0.000001 0.000001 0.000000 0.000000 0.689334
    42 1.215371 0.000000 0.000000 0.000000 0.000000 0.689357
    43 4.262829 -0.232721 1.392178 0.011624 0.192530 -0.076020
    44 1.012811 0.000000 0.000000 0.000000 0.000000 0.637000
    45 1.012809 -0.000001 0.000000 0.000000 0.000000 0.637000
    46 1.376306 -0.000001 0.000000 0.000000 0.000000 0.312493
    47 4.237632 -0.195359 -0.527090 0.001927 -0.122067 -0.035077
    48 1.215375 0.000001 -0.000001 0.000000 0.000000 0.680579
    49 1.215371 0.000000 0.000001 0.000000 0.000000 0.680639
    50 1.012810 0.000001 0.000000 0.000000 0.000000 0.628203
    51 1.012810 -0.000001 0.000000 0.000000 0.000000 0.628203
    52 2.110540 0.000000 0.000000 0.000000 0.000000 0.161038
    53 5.253243 3.139475 -1.673515 3.115490 -1.570796 0.000000
    54 5.253259 3.139473 -0.054760 3.124201 -1.570796 0.000000
    55 5.253252 3.139468 1.574632 3.115490 -1.570796 0.000000
    56 4.598148 4.158443 -1.350299 2.984594 -1.570796 0.000000
    57 4.598139 4.158430 -0.054439 3.069794 -1.570796 0.000000
    58 4.598140 4.158430 1.240876 2.984594 -1.570796 0.000000
    59 0.891927 2.373051 -0.014527 -3.141592 -0.000001 1.501052
    60 7.228122 5.709446 3.726568 3.140796 -1.570796 0.000000
  time 5
    0 0.402227 0.767013 37.913251 0.000000 0.000000 -1.570939
    1 2.894947 0.000000 0.000000 -1.570795 -1.570451 0.000000
    2 -0.000006 0.000008 4.427393 6.208587 3.125519 5.950871
    3 18.465940 0.000000 0.000000 0.000000 0.000000 -0.920664
    4 14.875443 0.000000 -0.000001 0.051780 0.056089 0.309475
    5 0.000006 -0.000004 -4.427393 -6.251627 3.132697 5.699865
    6 18.465940 0.000000 0.000000 0.000000 0.000000 -1.661228
    7 14.875443 0.000000 0.000000 -0.007399 -0.031947 0.048711
    8 2.255207 -0.007574 0.000003 -0.000004 -0.000001 -0.269546
    9 9.514226 -0.009357 0.000000 0.000000 0.000000 -0.068344
    10 2.450429 5.076128 0.001325 3.140791 -1.570796 0.000000
    11 6.312407 -4.528058 0.001311 3.245497 -1.570796 0.000000
    12 2.233310 1.152535 -7.309138 -1.006508 -1.496586 -1.233328
    13 11.751820 -0.001633 0.000000 0.000000 -0.000001 0.239386
    14 -2.133122 0.444686 -2.649726 0.631926 1.324686 3.518693
    15 4.640942 0.000000 0.000000 0.245192 -0.414722 -1.441248
    16 10.828047 0.000000 0.000000 0.000000 0.000000 -2.303958
    17 9.393338 0.000000 0.000001 3.174572 -0.430452 -0.231782
    18 1.442242 0.107453 1.746178 -1.640583 -0.786542 1.525158
    19 1.063451 0.000000 -0.000001 0.000000 0.000000 0.323108
    20 4.172844 -0.251366 1.312745 -0.006288 0.056820 0.128498
    21 1.215373 0.000000 0.000001 0.000000 0.000000 0.626566
    22 1.215372 0.000000 0.000001 0.000000 0.000000 0.626566
    23 4.220531 -0.244854 0.431466 0.002394 -0.026158 0.005168
    24 1.350417 0.000001 -0.000001 0.000000 0.000000 0.720743
    25 1.350410 -0.000001 0.000001 0.000000 0.000000 0.720711
    26 4.262825 -0.232720 -1.392178 -0.007669 -0.218021 -0.117093
    27 -2.133122 0.444674 2.649729 -0.834605 -1.389733 3.727797
    28 4.640942 0.000000 -0.000001 -0.338500 0.651036 -1.259245
    29 10.828047 0.000000 -0.000002 0.000000 0.000000 -2.408689
    30 9.393336 -0.000001 0.000000 -2.394780 0.222821 0.243755
    31 1.442245 0.107453 -1.746177 1.457493 0.707227 0.427275
    32 1.063452 -0.000001 -0.000001 0.000000 0.000000 0.323108
    33 1.376307 -0.000001 0.000000 0.000000 0.000000 0.323125
    34 4.172847 -0.251366 -1.312744 0.005833 -0.056880 0.138075
    35 1.215373 0.000001 0.000000 0.000000 0.000000 0.636162
    36 1.215371 -0.000001 0.000000 0.000000 0.000000 0.636162
    37 4.220535 -0.244855 -0.431465 -0.002167 0.026182 0.014696
    38 1.350416 0.000000 0.000000 0.000000 0.000000 0.730242
    39 1.350410 -0.000001 -0.000001 0.000000 0.000000 0.730274
    40 4.237636 -0.195359 0.527090 -0.002694 0.132602 -0.053445
    41 1.215376 0.000001 0.000001 0.000000 0.000000 0.662312
    42 1.215371 0.000000 0.000000 0.000000 0.000000 0.662336
    43 4.262829 -0.232721 1.392178 0.009646 0.217961 -0.107222
    44 1.012811 0.000000 0.000000 0.000000 0.000000 0.605933
    45 1.012809 -0.000001 0.000000 0.000000 0.000000 0.605933
    46 1.376306 -0.000001 0.000000 0.000000 0.000000 0.323114
    47 4.237632 -0.195359 -0.527090 0.003916 -0.132566 -0.063106
    48 1.215375 0.000001 -0.000001 0.000000 0.000000 0.652754
    49 1.215371 0.000000 0.000001 0.000000 0.000000 0.652779
    50 1.012810 0.000001 0.000000 0.000000 0.000000 0.596307
    51 1.012810 -0.000001 0.000000 0.000000 0.000000 0.596307
    52 2.110540 0.000000 0.000000 0.000000 0.000000 0.072406
    53 5.253243 3.139475 -1.673515 3.101144 -1.570796 0.000000
    54 5.253259 3.139473 -0.054760 3.056517 -1.570796 0.000000
    55 5.253252 3.139468 1.574632 3.101144 -1.570796 0.000000
    56 4.598148 4.158443 -1.350299 2.984594 -1.570796 0.000000
    57 4.598139 4.158430 -0.054439 2.861550 -1.570796 0.000000
    58 4.598140 4.158430 1.240876 2.984594 -1.570796 0.000000
    59 0.891927 2.373051 -0.014527 -3.141592 -0.000001 1.522820
    60 7.228122 5.709446 3.726568 3.140796 -1.570796 0.000000
  time 6
    0 0.402227 0.517717 39.204914 0.000000 0.000000 -1.570939
    1 2.492591 0.000000 0.000000 -1.570795 -1.570451 0.000000
    2 -0.000006 0.000008 4.427393 6.150875 -3.118471 5.978004
    3 18.465940 0.000000 0.000000 0.000000 0.000000 -0.819051
    4 14.875443 0.000000 -0.000001 0.117978 0.064028 0.150236
    5 0.000006 -0.000004 -4.427393 -6.236096 3.099524 5.881012
    6 18.465940 0.000000 0.000000 0.000000 0.000000 -1.445823
    7 14.875443 0.000000 0.000000 -0.048248 -0.040738 0.014534
    8 2.255207 -0.007574 0.000003 -0.000004 -0.000001 -0.269546
    9 9.514226 -0.009357 0.000000 0.000000 0.000000 0.033382
    10 2.450429 5.076128 0.001325 3.140791 -1.570796 0.000000
    11 6.312407 -4.528058 0.001311 3.254222 -1.570796 0.000000
    12 2.233310 1.152535 -7.309138 -0.779009 -1.508964 -1.294219
    13 11.751820 -0.001633 0.000000 0.000000 -0.000001 0.239386
    14 -2.133122 0.444686 -2.649726 0.738098 1.303359 3.621482
    15 4.640942 0.000000 0.000000 0.282844 -0.389616 -1.483782
    16 10.828047 0.000000 0.000000 0.000000 0.000000 -2.280490
    17 9.393338 0.000000 0.000001 3.158013 -0.429249 -0.226642
    18 1.442242 0.107453 1.746178 -1.678313 -0.779407 1.568980
    19 1.063451 0.000000 -0.000001 0.000000 0.000000 0.321958
    20 4.172844 -0.251366 1.312745 -0.006300 0.055370 0.128699
    21 1.215373 0.000000 0.000001 0.000000 0.000000 0.626776
    22 1.215372 0.000000 0.000001 0.000000 0.000000 0.626776
    23 4.220531 -0.244854 0.431466 0.002358 -0.026170 0.006529
    24 1.350417 0.000001 -0.000001 0.000000 0.000000 0.722128
    25 1.350410 -0.000001 0.000001 0.000000 0.000000 0.722047
    26 4.262825 -0.232720 -1.392178 -0.007944 -0.215180 -0.113511
    27 -2.133122 0.444674 2.649729 -0.822315 -1.358810 3.712238
    28 4.640942 0.000000 -0.000001 -0.390026 0.671023 -1.309175
    29 10.828047 0.000000 -0.000002 0.000000 0.000000 -2.395693
    30 9.393336 -0.000001 0.000000 -2.386948 0.220223 0.242339
    31 1.442245 0.107453 -1.746177 1.451956 0.788115 0.414776
    32 1.063452 -0.000001 -0.000001 0.000000 0.000000 0.321958
    33 1.376307 -0.000001 0.000000 0.000000 0.000000 0.321950
    34 4.172847 -0.251366 -1.312744 0.005845 -0.055430 0.138155
    35 1.215373 0.000001 0.000000 0.000000 0.000000 0.636202
    36 1.215371 -0.000001 0.000000 0.000000 0.000000 0.636202
    37 4.220535 -0.244855 -0.431465 -0.002131 0.026182 0.015977
    38 1.350416 0.000000 0.000000 0.000000 0.000000 0.731493
    39 1.350410 -0.000001 -0.000001 0.000000 0.000000 0.731525
    40 4.237636 -0.195359 0.527090 -0.002478 0.131415 -0.050503
    41 1.215376 0.000001 0.000001 0.000000 0.000000 0.665356
    42 1.215371 0.000000 0.000000 0.000000 0.000000 0.665338
    43 4.262829 -0.232721 1.392178 0.009922 0.215121 -0.103800
    44 1.012811 0.000000 0.000000 0.000000 0.000000 0.609311
    45 1.012809 -0.000001 0.000000 0.000000 0.000000 0.609311
    46 1.376306 -0.000001 0.000000 0.000000 0.000000 0.321946
    47 4.237632 -0.195359 -0.527090 0.003701 -0.131379 -0.060005
    48 1.215375 0.000001 -0.000001 0.000000 0.000000 0.655944
    49 1.215371 0.000000 0.000001 0.000000 0.000000 0.655880
    50 1.012810 0.000001 0.000000 0.000000 0.000000 0.599917
    51 1.012810 -0.000001 0.000000 0.000000 0.000000 0.599917
    52 2.110540 0.000000 0.000000 0.000000 0.000000 -0.029385
    53 5.253243 3.139475 -1.673515 3.066401 -1.570796 0.000000
    54 5.253259 3.139473 -0.054760 2.969523 -1.570796 0.000000
    55 5.253252 3.139468 1.574632 3.066401 -1.570796 0.000000
    56 4.598148 4.158443 -1.350299 2.984594 -1.570796 0.000000
    57 4.598139 4.158430 -0.054439 2.729290 -1.570796 0.000000
    58 4.598140 4.158430 1.240876 2.984594 -1.570796 0.000000
    59 0.891927 2.373051 -0.014527 -3.141592 -0.000001 1.544497
    60 7.228122 5.709446 3.726568 3.140796 -1.570796 0.000000
  time 7
    0 0.402227 0.215000 40.228793 0.000000 0.000000 -1.570939
    1 2.066797 0.000000 0.000000 -1.570795 -1.570451 0.000000
    2 -0.000006 0.000008 4.427393 6.102174 -3.086833 6.002740
    3 18.465940 0.000000 0.000000 0.000000 0.000000 -0.733667
    4 14.875443 0.000000 -0.000001 0.169742 0.083503 -0.015007
    5 0.000006 -0.000004 -4.427393 -6.219126 3.074212 6.035803
    6 18.465940 0.000000 0.000000 0.000000 0.000000 -1.264874
    7 14.875443 0.000000 0.000000 -0.083097 -0.041799 -0.012064
    8 2.255207 -0.007574 0.000003 -0.000004 -0.000001 -0.269546
    9 9.514226 -0.009357 0.000000 0.000000 0.000000 0.138398
    10 2.450429 5.076128 0.001325 3.140791 -1.570796 0.000000
    11 6.312407 -4.528058 0.001311 3.262947 -1.570796 0.000000
    12 2.233310 1.152535 -7.309138 -0.400708 -1.525623 -1.539410
    13 11.751820 -0.001633 0.000000 0.000000 -0.000001 0.239386
    14 -2.133122 0.444686 -2.649726 0.822888 1.281139 3.703027
    15 4.640942 0.000000 0.000000 0.332633 -0.379434 -1.509600
    16 10.828047 0.000000 0.000000 0.000000 0.000000 -2.226801
    17 9.393338 0.000000 0.000001 3.075107 -0.422059 -0.201572
    18 1.442242 0.107453 1.746178 -1.713316 -0.763059 1.566972
    19 1.063451 0.000000 -0.000001 0.000000 0.000000 0.316025
    20 4.172844 -0.251366 1.312745 -0.006312 0.048132 0.129660
    21 1.215373 0.000000 0.000001 0.000000 0.000000 0.627658
    22 1.215372 0.000000 0.000001 0.000000 0.000000 0.627658
    23 4.220531 -0.244854 0.431466 0.002203 -0.026182 0.013335
    24 1.350417 0.000001 -0.000001 0.000000 0.000000 0.728842
    25 1.350410 -0.000001 0.000001 0.000000 0.000000 0.728869
    26 4.262825 -0.232720 -1.392178 -0.009263 -0.201099 -0.095521
    27 -2.133122 0.444674 2.649729 -0.788398 -1.326351 3.674629
    28 4.640942 0.000000 -0.000001 -0.435282 0.711789 -1.340959
    29 10.828047 0.000000 -0.000002 0.000000 0.000000 -2.343711
    30 9.393336 -0.000001 0.000000 -2.348159 0.207194 0.234573
    31 1.442245 0.107453 -1.746177 1.452639 0.871453 0.396612
    32 1.063452 -0.000001 -0.000001 0.000000 0.000000 0.316025
    33 1.376307 -0.000001 0.000000 0.000000 0.000000 0.316031
    34 4.172847 -0.251366 -1.312744 0.005917 -0.048180 0.138676
    35 1.215373 0.000001 0.000000 0.000000 0.000000 0.636652
    36 1.215371 -0.000001 0.000000 0.000000 0.000000 0.636652
    37 4.220535 -0.244855 -0.431465 -0.001963 0.026206 0.022343
    38 1.350416 0.000000 0.000000 0.000000 0.000000 0.737915
    39 1.350410 -0.000001 -0.000001 0.000000 0.000000 0.737905
    40 4.237636 -0.195359 0.527090 -0.001460 0.125615 -0.035395
    41 1.215376 0.000001 0.000001 0.000000 0.000000 0.680368
    42 1.215371 0.000000 0.000000 0.000000 0.000000 0.680350
    43 4.262829 -0.232721 1.392178 0.011036 0.201015 -0.086368
    44 1.012811 0.000000 0.000000 0.000000 0.000000 0.626658
    45 1.012809 -0.000001 0.000000 0.000000 0.000000 0.626658
    46 1.376306 -0.000001 0.000000 0.000000 0.000000 0.316041
    47 4.237632 -0.195359 -0.527090 0.002562 -0.125591 -0.044420
    48 1.215375 0.000001 -0.000001 0.000000 0.000000 0.671304
    49 1.215371 0.000000 0.000001 0.000000 0.000000 0.671336
    50 1.012810 0.000001 0.000000 0.000000 0.000000 0.617585
    51 1.012810 -0.000001 0.000000 0.000000 0.000000 0.617585
    52 2.110540 0.000000 0.000000 0.000000 0.000000 -0.134273
    53 5.253243 3.139475 -1.673515 3.023424 -1.570796 0.000000
    54 5.253259 3.139473 -0.054760 2.874782 -1.570796 0.000000
    55 5.253252 3.139468 1.574632 3.023424 -1.570796 0.000000
    56 4.598148 4.158443 -1.350299 2.984594 -1.570796 0.000000
    57 4.598139 4.158430 -0.054439 2.808302 -1.570796 0.000000
    58 4.598140 4.158430 1.240876 2.984594 -1.570796 0.000000
    59 0.891927 2.373051 -0.014527 -3.141592 -0.000001 1.566265
    60 7.228122 5.709446 3.726568 3.140796 -1.570796 0.000000
  time 8
    0 0.402227 0.001317 41.252672 0.000000 0.000000 -1.570939
    1 1.816789 0.000000 0.000000 -1.570795 -1.570451 0.000000
    2 -0.000006 0.000008 4.427393 6.068237 -3.065741 6.020861
    3 18.465940 0.000000 0.000000 0.000000 0.000000 -0.674819
    4 14.875443 0.000000 -0.000001 0.197508 0.114386 -0.186136
    5 0.000006 -0.000004 -4.427393 -6.205320 3.058489 6.143820
    6 18.465940 0.000000 0.000000 0.000000 0.000000 -1.140107
    7 14.875443 0.000000 0.000000 -0.106926 -0.039192 -0.029546
    8 2.255207 -0.007574 0.000003 -0.000004 -0.000001 -0.269546
    9 9.514226 -0.009357 0.000000 0.000000 0.000000 0.200572
    10 2.450429 5.076128 0.001325 3.140791 -1.570796 0.000000
    11 6.312407 -4.528058 0.001311 3.271673 -1.570796 0.000000
    12 2.233310 1.152535 -7.309138 -0.206092 -1.526672 -1.644437
    13 11.751820 -0.001633 0.000000 0.000000 -0.000001 0.239386
    14 -2.133122 0.444686 -2.649726 0.897681 1.256428 3.774460
    15 4.640942 0.000000 0.000000 0.367037 -0.402169 -1.536125
    16 10.828047 0.000000 0.000000 0.000000 0.000000 -2.188223
    17 9.393338 0.000000 0.000001 3.025706 -0.416854 -0.186879
    18 1.442242 0.107453 1.746178 1.393092 -2.390996 -1.554997
    19 1.063451 0.000000 -0.000001 0.000000 0.000000 0.312502
    20 4.172844 -0.251366 1.312745 -0.006324 0.043745 0.130221
    21 1.215373 0.000000 0.000001 0.000000 0.000000 0.628203
    22 1.215372 0.000000 0.000001 0.000000 0.000000 0.628203
    23 4.220531 -0.244854 0.431466 0.002095 -0.026194 0.017419
    24 1.350417 0.000001 -0.000001 0.000000 0.000000 0.732913
    25 1.350410 -0.000001 0.000001 0.000000 0.000000 0.732972
    26 4.262825 -0.232720 -1.392178 -0.009922 -0.192601 -0.084935
    27 -2.133122 0.444674 2.649729 -0.774107 -1.294521 3.656206
    28 4.640942 0.000000 -0.000001 -0.465825 0.781273 -1.372919
    29 10.828047 0.000000 -0.000002 0.000000 0.000000 -2.311252
    30 9.393336 -0.000001 0.000000 -2.324849 0.199553 0.229689
    31 1.442245 0.107453 -1.746177 1.446563 0.953498 0.378181
    32 1.063452 -0.000001 -0.000001 0.000000 0.000000 0.312502
    33 1.376307 -0.000001 0.000000 0.000000 0.000000 0.312492
    34 4.172847 -0.251366 -1.312744 0.005965 -0.043793 0.138956
    35 1.215373 0.000001 0.000000 0.000000 0.000000 0.636937
    36 1.215371 -0.000001 0.000000 0.000000 0.000000 0.636937
    37 4.220535 -0.244855 -0.431465 -0.001843 0.026206 0.026146
    38 1.350416 0.000000 0.000000 0.000000 0.000000 0.741668
    39 1.350410 -0.000001 -0.000001 0.000000 0.000000 0.741699
    40 4.237636 -0.195359 0.527090 -0.000896 0.122079 -0.026251
    41 1.215376 0.000001 0.000001 0.000000 0.000000 0.689334
    42 1.215371 0.000000 0.000000 0.000000 0.000000 0.689357
    43 4.262829 -0.232721 1.392178 0.011624 0.192530 -0.076020
    44 1.012811 0.000000 0.000000 0.000000 0.000000 0.637000
    45 1.012809 -0.000001 0.000000 0.000000 0.000000 0.637000
    46 1.376306 -0.000001 0.000000 0.000000 0.000000 0.312493
    47 4.237632 -0.195359 -0.527090 0.001927 -0.122067 -0.035077
    48 1.215375 0.000001 -0.000001 0.000000 0.000000 0.680579
    49 1.215371 0.000000 0.000001 0.000000 0.000000 0.680639
    50 1.012810 0.000001 0.000000 0.000000 0.000000 0.628203
    51 1.012810 -0.000001 0.000000 0.000000 0.000000 0.628203
    52 2.110540 0.000000 0.000000 0.000000 0.000000 -0.196544
    53 5.253243 3.139475 -1.673515 2.984594 -1.570796 0.000000
    54 5.253259 3.139473 -0.054760 2.783933 -1.570796 0.000000
    55 5.253252 3.139468 1.574632 2.984594 -1.570796 0.000000
    56 4.598148 4.158443 -1.350299 2.984594 -1.570796 0.000000
    57 4.598139 4.158430 -0.054439 2.984594 -1.570796 0.000000
    58 4.598140 4.158430 1.240876 2.984594 -1.570796 0.000000
    59 0.891927 2.373051 -0.014527 0.000000 -3.141303 -1.553045
    60 7.228122 5.709446 3.726568 3.140796 -1.570796 0.000000
end
