version 1
nodes
  0 "Bip01" -1
  1 "Bip01 Pelvis" 0
  2 "Bip01 L Thigh" 1
  3 "Bip01 L Calf" 2
  4 "Bip01 L Foot" 3
  5 "Bip01 R Thigh" 1
  6 "Bip01 R Calf" 5
  7 "Bip01 R Foot" 6
  8 "Bip01 Spine" 1
  9 "Bip01 Spine1" 8
  10 "Armour Front" 8
  11 "Armour Back" 8
  12 "Holster" 1
  13 "Bip01 Neck" 9
  14 "Bip01 R Clavicle" 13
  15 "Bip01 R UpperArm" 14
  16 "Bip01 R Forearm" 15
  17 "Bip01 R Hand" 16
  18 "Bip01 R Finger0" 17
  19 "Bip01 R Finger01" 18
  20 "Bip01 R Finger1" 17
  21 "Bip01 R Finger11" 20
  22 "Bip01 R Finger12" 21
  23 "Bip01 R Finger2" 17
  24 "Bip01 R Finger21" 23
  25 "Bip01 R Finger22" 24
  26 "Bip01 R Finger4" 17
  27 "Bip01 L Clavicle" 13
  28 "Bip01 L UpperArm" 27
  29 "Bip01 L Forearm" 28
  30 "Bip01 L Hand" 29
  31 "Bip01 L Finger0" 30
  32 "Bip01 L Finger01" 31
  33 "Bip01 L Finger02" 32
  34 "Bip01 L Finger1" 30
  35 "Bip01 L Finger11" 34
  36 "Bip01 L Finger12" 35
  37 "Bip01 L Finger2" 30
  38 "Bip01 L Finger21" 37
  39 "Bip01 L Finger22" 38
  40 "Bip01 L Finger3" 30
  41 "Bip01 L Finger31" 40
  42 "Bip01 L Finger32" 41
  43 "Bip01 L Finger4" 30
  44 "Bip01 L Finger41" 43
  45 "Bip01 L Finger42" 44
  46 "Bip01 R Finger02" 19
  47 "Bip01 R Finger3" 17
  48 "Bip01 R Finger31" 47
  49 "Bip01 R Finger32" 48
  50 "Bip01 R Finger41" 26
  51 "Bip01 R Finger42" 50
  52 "Bip01 Head" 13
  53 "R_eyebrow" 52
  54 "C_eyebrow" 52
  55 "L_eyebrow" 52
  56 "R_eye" 52
  57 "Eyelids" 52
  58 "L_eye" 52
  59 "Mouth" 52
  60 "ID Tag" 9
end
skeleton
  time 0
    0 1.718674 6.767937 38.401563 0.000000 0.000000 -1.701811
    1 0.164395 -0.125004 0.000000 -1.570795 -1.570451 0.000000
    2 -0.000006 0.000008 4.427393 6.112432 3.130217 0.000858
    3 18.465940 0.000000 0.000000 0.000000 0.000000 -0.416547
    4 14.875443 0.000000 -0.000001 0.018432 0.017416 0.402071
    5 0.000006 -0.000004 -4.427393 -6.177133 3.095689 5.920884
    6 18.465940 0.000000 0.000000 0.000000 0.000000 -0.394325
    7 14.875443 0.000000 0.000000 -0.002065 0.005218 0.029353
    8 2.255207 -0.007574 0.000003 0.122038 -0.017391 -0.001321
    9 9.514226 -0.009357 0.000000 -0.008742 0.002352 -0.095859
    10 2.450429 5.076128 0.001325 3.140791 -1.570796 0.000000
    11 6.312407 -4.528058 0.001311 3.140791 -1.570796 0.000000
    12 2.233310 1.152535 -7.309138 -1.147532 -1.553350 -0.850941
    13 11.751820 -0.001633 0.000000 0.000024 0.043599 0.439966
    14 -1.890927 0.854855 -2.731760 -0.942423 1.461410 1.764410
    15 4.640942 0.000000 0.000000 -0.601413 -1.183806 0.506842
    16 10.828047 0.000000 0.000000 0.000000 0.000000 -0.234359
    17 9.393338 0.000000 0.000001 1.569611 -0.034190 0.000011
    18 1.442242 0.107453 1.746178 -1.686405 -0.539236 0.325847
    19 1.063451 0.000000 -0.000001 0.000000 0.000000 0.199056
    20 4.172844 -0.251366 1.312745 -0.008026 -0.095731 0.148653
    21 1.215373 0.000000 0.000001 0.000000 0.000000 0.645746
    22 1.215372 0.000000 0.000001 0.000000 0.000000 0.645746
    23 4.220531 -0.244854 0.431466 -0.001333 -0.026242 0.148333
    24 1.350417 0.000001 -0.000001 0.000000 0.000000 0.863854
    25 1.350410 -0.000001 0.000001 0.000000 0.000000 0.863875
    26 4.262825 -0.232720 -1.392178 0.016840 0.076668 0.253759
    27 -2.117496 0.854843 2.563789 0.697195 -1.395374 2.006454
    28 4.640942 0.000000 -0.000001 0.738456 1.089872 0.724774
    29 10.828047 0.000000 -0.000002 0.000000 0.000000 -0.470330
    30 9.393336 -0.000001 0.000000 -1.569611 0.034157 0.000091
    31 1.442245 0.107453 -1.746177 1.686435 0.539221 0.325885
    32 1.063452 -0.000001 -0.000001 0.000000 0.000000 0.199056
    33 1.376307 -0.000001 0.000000 0.000000 0.000000 0.199053
    34 4.172847 -0.251366 -1.312744 0.008026 0.095731 0.148653
    35 1.215373 0.000001 0.000000 0.000000 0.000000 0.645758
    36 1.215371 -0.000001 0.000000 0.000000 0.000000 0.645758
    37 4.220535 -0.244855 -0.431465 0.001333 0.026242 0.148333
    38 1.350416 0.000000 0.000000 0.000000 0.000000 0.863850
    39 1.350410 -0.000001 -0.000001 0.000000 0.000000 0.863880
    40 4.237636 -0.195359 0.527090 0.000662 0.008837 0.261753
    41 1.215376 0.000001 0.000001 0.000000 0.000000 0.977275
    42 1.215371 0.000000 0.000000 0.000000 0.000000 0.977290
    43 4.262829 -0.232721 1.392178 -0.016840 -0.076668 0.253759
    44 1.012811 0.000000 0.000000 0.000000 0.000000 0.968559
    45 1.012809 -0.000001 0.000000 0.000000 0.000000 0.968559
    46 1.376306 -0.000001 0.000000 0.000000 0.000000 0.199056
    47 4.237632 -0.195359 -0.527090 -0.000662 -0.008837 0.261713
    48 1.215375 0.000001 -0.000001 0.000000 0.000000 0.977293
    49 1.215371 0.000000 0.000001 0.000000 0.000000 0.977318
    50 1.012810 0.000001 0.000000 0.000000 0.000000 0.968648
    51 1.012810 -0.000001 0.000000 0.000000 0.000000 0.968648
    52 2.110540 0.000000 0.000000 0.002417 -0.010494 -0.153582
    53 5.253243 3.139475 -1.673515 2.984594 -1.570796 0.000000
    54 5.253259 3.139473 -0.054760 2.984594 -1.570796 0.000000
    55 5.253252 3.139468 1.574632 2.984594 -1.570796 0.000000
    56 4.598148 4.158443 -1.350299 2.984594 -1.570796 0.000000
    57 4.598139 4.158430 -0.054439 2.984594 -1.570796 0.000000
    58 4.598140 4.158430 1.240876 2.984594 -1.570796 0.000000
    59 0.891927 2.373051 -0.014527 -3.141592 -0.000001 1.413797
    60 7.228122 5.709446 3.726568 3.140796 -1.570796 0.000000
  time 1
    0 0.847553 9.901951 38.779610 -0.007095 -0.018600 -2.181386
    1 0.121425 0.675802 0.000000 -0.000112 -1.552285 -1.570725
    2 -0.000006 0.000008 4.427393 6.109747 3.086403 0.021951
    3 18.465940 0.000000 0.000000 0.000000 0.000000 -0.326922
    4 14.875443 0.000000 -0.000001 -0.351666 0.040935 0.320457
    5 0.000006 -0.000004 -4.427393 -6.179051 3.117453 5.842578
    6 18.465940 0.000000 0.000000 0.000000 0.000000 -0.775321
    7 14.875443 0.000000 0.000000 0.026256 0.050477 0.103295
    8 2.255207 -0.007574 0.039067 -0.074072 0.052833 0.043179
    9 9.514226 -0.009357 0.000000 -0.031177 -0.004878 -0.203105
    10 2.450429 5.076128 0.001325 3.023361 -1.570796 0.000000
    11 6.312407 -4.528058 0.001311 3.147271 -1.570796 0.000000
    12 2.233310 1.152535 -7.309138 -1.073233 -1.541613 -0.988137
    13 11.751820 -0.001633 0.000000 -0.089141 0.103654 0.431866
    14 -1.734672 1.089237 -2.755198 -1.172725 1.344248 1.549369
    15 4.640942 0.000000 0.000000 -0.450421 -0.282148 0.579432
    16 10.828047 0.000000 0.000000 0.000000 0.000000 -0.560088
    17 9.393338 0.000000 0.000001 1.569611 -0.033930 0.000884
    18 1.442242 0.107453 1.746178 -1.686405 -0.539236 0.325847
    19 1.063451 0.000000 -0.000001 0.000000 0.000000 0.199056
    20 4.172844 -0.251366 1.312745 -0.008026 -0.095731 0.148653
    21 1.215373 0.000000 0.000001 0.000000 0.000000 0.645746
    22 1.215372 0.000000 0.000001 0.000000 0.000000 0.645746
    23 4.220531 -0.244854 0.431466 -0.001333 -0.026242 0.148333
    24 1.350417 0.000001 -0.000001 0.000000 0.000000 0.863854
    25 1.350410 -0.000001 0.000001 0.000000 0.000000 0.863875
    26 4.262825 -0.232720 -1.392178 0.016840 0.076668 0.253759
    27 -2.269845 0.624367 2.493474 -0.623956 -1.334459 3.319249
    28 4.640942 0.000000 -0.000001 -0.476502 1.131576 -0.625787
    29 10.828047 0.000000 -0.000002 0.000000 0.000000 -0.684239
    30 9.393336 -0.000001 0.000000 -1.569611 0.034195 -0.001716
    31 1.442245 0.107453 -1.746177 1.686435 0.539221 0.325885
    32 1.063452 -0.000001 -0.000001 0.000000 0.000000 0.199056
    33 1.376307 -0.000001 0.000000 0.000000 0.000000 0.199053
    34 4.172847 -0.251366 -1.312744 0.008026 0.095731 0.148653
    35 1.215373 0.000001 0.000000 0.000000 0.000000 0.645758
    36 1.215371 -0.000001 0.000000 0.000000 0.000000 0.645758
    37 4.220535 -0.244855 -0.431465 0.001333 0.026242 0.148333
    38 1.350416 0.000000 0.000000 0.000000 0.000000 0.863850
    39 1.350410 -0.000001 -0.000001 0.000000 0.000000 0.863880
    40 4.237636 -0.195359 0.527090 0.000662 0.008837 0.261753
    41 1.215376 0.000001 0.000001 0.000000 0.000000 0.977275
    42 1.215371 0.000000 0.000000 0.000000 0.000000 0.977290
    43 4.262829 -0.232721 1.392178 -0.016840 -0.076668 0.253759
    44 1.012811 0.000000 0.000000 0.000000 0.000000 0.968559
    45 1.012809 -0.000001 0.000000 0.000000 0.000000 0.968559
    46 1.376306 -0.000001 0.000000 0.000000 0.000000 0.199056
    47 4.237632 -0.195359 -0.527090 -0.000662 -0.008837 0.261713
    48 1.215375 0.000001 -0.000001 0.000000 0.000000 0.977293
    49 1.215371 0.000000 0.000001 0.000000 0.000000 0.977318
    50 1.012810 0.000001 0.000000 0.000000 0.000000 0.968648
    51 1.012810 -0.000001 0.000000 0.000000 0.000000 0.968648
    52 2.110540 0.000000 0.000000 -0.126329 0.120902 -0.232022
    53 5.253243 3.139475 -1.673515 2.984594 -1.570796 0.000000
    54 5.253259 3.139473 -0.054760 3.067425 -1.570796 0.000000
    55 5.253252 3.139468 1.574632 2.984594 -1.570796 0.000000
    56 4.598148 4.158443 -1.350299 2.948859 -1.570796 0.000000
    57 4.598139 4.158430 -0.054439 3.267218 -1.570796 0.000000
    58 4.598140 4.158430 1.240876 2.948859 -1.570796 0.000000
    59 0.891927 2.373051 -0.014527 -3.141592 -0.000001 1.424362
    60 7.228122 5.709446 3.726568 2.800197 -1.570796 0.000000
  time 2
    0 0.203002 12.626406 39.299426 0.000000 -0.034771 -2.730952
    1 -0.183272 1.058626 0.000000 -1.570795 -1.570451 0.000000
    2 -0.000006 0.000008 4.427393 6.111665 3.082377 0.067301
    3 18.465940 0.000000 0.000000 0.000000 0.000000 -0.155715
    4 14.875443 0.000000 -0.000001 -0.711667 0.041318 0.183301
    5 0.000006 -0.000004 -4.427393 -6.160547 3.132697 5.759001
    6 18.465940 0.000000 0.000000 0.000000 0.000000 -1.121007
    7 14.875443 0.000000 0.000000 0.024396 0.108953 0.183916
    8 2.255207 -0.007574 0.000003 -0.223505 0.122448 0.086521
    9 9.514226 -0.009357 0.000000 -0.047460 -0.003266 -0.246618
    10 2.450429 5.076128 0.001325 2.871264 -1.570796 0.000000
    11 6.312407 -4.528058 0.001311 3.150027 -1.570796 0.000000
    12 2.233310 1.152535 -7.309138 -1.022901 -1.529235 -1.092015
    13 11.751820 -0.001633 0.000000 -0.158676 0.117148 0.427173
    14 -1.691702 1.276743 -2.692696 -1.139586 1.261287 1.591022
    15 4.640942 0.000000 0.000000 -0.151400 0.315726 0.680823
    16 10.828047 0.000000 0.000000 0.000000 0.000000 -0.811941
    17 9.393338 0.000000 0.000001 1.569611 -0.034190 0.000011
    18 1.442242 0.107453 1.746178 -1.686405 -0.539236 0.325847
    19 1.063451 0.000000 -0.000001 0.000000 0.000000 0.199056
    20 4.172844 -0.251366 1.312745 -0.008026 -0.095731 0.148653
    21 1.215373 0.000000 0.000001 0.000000 0.000000 0.645746
    22 1.215372 0.000000 0.000001 0.000000 0.000000 0.645746
    23 4.220531 -0.244854 0.431466 -0.001333 -0.026242 0.148333
    24 1.350417 0.000001 -0.000001 0.000000 0.000000 0.863854
    25 1.350410 -0.000001 0.000001 0.000000 0.000000 0.863875
    26 4.262825 -0.232720 -1.392178 0.016840 0.076668 0.253759
    27 -2.301096 0.444674 2.501287 -0.981421 -1.167127 3.656110
    28 4.640942 0.000000 -0.000001 -0.875301 0.718211 -1.165298
    29 10.828047 0.000000 -0.000002 0.000000 0.000000 -0.897721
    30 9.393336 -0.000001 0.000000 -1.569611 0.034157 0.000091
    31 1.442245 0.107453 -1.746177 1.686435 0.539221 0.325885
    32 1.063452 -0.000001 -0.000001 0.000000 0.000000 0.199056
    33 1.376307 -0.000001 0.000000 0.000000 0.000000 0.199053
    34 4.172847 -0.251366 -1.312744 0.008026 0.095731 0.148653
    35 1.215373 0.000001 0.000000 0.000000 0.000000 0.645758
    36 1.215371 -0.000001 0.000000 0.000000 0.000000 0.645758
    37 4.220535 -0.244855 -0.431465 0.001333 0.026242 0.148333
    38 1.350416 0.000000 0.000000 0.000000 0.000000 0.863850
    39 1.350410 -0.000001 -0.000001 0.000000 0.000000 0.863880
    40 4.237636 -0.195359 0.527090 0.000662 0.008837 0.261753
    41 1.215376 0.000001 0.000001 0.000000 0.000000 0.977275
    42 1.215371 0.000000 0.000000 0.000000 0.000000 0.977290
    43 4.262829 -0.232721 1.392178 -0.016840 -0.076668 0.253759
    44 1.012811 0.000000 0.000000 0.000000 0.000000 0.968559
    45 1.012809 -0.000001 0.000000 0.000000 0.000000 0.968559
    46 1.376306 -0.000001 0.000000 0.000000 0.000000 0.199056
    47 4.237632 -0.195359 -0.527090 -0.000662 -0.008837 0.261713
    48 1.215375 0.000001 -0.000001 0.000000 0.000000 0.977293
    49 1.215371 0.000000 0.000001 0.000000 0.000000 0.977318
    50 1.012810 0.000001 0.000000 0.000000 0.000000 0.968648
    51 1.012810 -0.000001 0.000000 0.000000 0.000000 0.968648
    52 2.110540 0.000000 0.000000 -0.243660 0.222560 -0.274296
    53 5.253243 3.139475 -1.673515 2.984594 -1.570796 0.000000
    54 5.253259 3.139473 -0.054760 3.115451 -1.570796 0.000000
    55 5.253252 3.139468 1.574632 2.984594 -1.570796 0.000000
    56 4.598148 4.158443 -1.350299 2.909290 -1.570796 0.000000
    57 4.598139 4.158430 -0.054439 3.429613 -1.570796 0.000000
    58 4.598140 4.158430 1.240876 2.909290 -1.570796 0.000000
    59 0.891927 2.373051 -0.014527 -3.141592 -0.000001 1.436203
    60 7.228122 5.709446 3.726568 2.521240 -1.570796 0.000000
  time 3
    0 -0.363421 14.139992 39.110402 0.023682 -0.027612 -3.494226
    1 -2.238022 0.496109 0.000000 -0.000112 -1.737593 -1.570725
    2 -0.000006 0.000008 4.427393 6.096230 -3.077149 6.181455
    3 18.465940 0.000000 0.000000 0.000000 0.000000 -0.450539
    4 14.875443 0.000000 -0.000001 -0.091140 0.099381 0.346727
    5 0.000006 -0.000004 -4.427393 -6.052114 3.128479 5.631048
    6 18.465940 0.000000 0.000000 0.000000 0.000000 -1.406049
    7 14.875443 0.000000 0.000000 -0.088361 0.163730 0.275078
    8 2.227862 -0.007574 -0.367196 -0.212524 0.198962 0.216150
    9 9.514226 -0.009357 0.000000 -0.042995 0.041903 -0.054879
    10 2.450429 5.076128 0.001325 2.528630 -1.570796 0.000000
    11 6.312407 -4.528058 0.001311 3.154619 -1.570796 0.000000
    12 2.233310 1.152535 -7.309138 -0.868360 -1.541671 -1.331366
    13 11.751820 -0.001633 0.000000 -0.167652 -0.024593 0.450028
    14 -2.062807 1.300181 -2.419250 -0.628534 1.268347 2.076025
    15 4.640942 0.000000 0.000000 0.064480 0.135241 0.649904
    16 10.828047 0.000000 0.000000 0.000000 0.000000 -0.826472
    17 9.393338 0.000000 0.000001 1.570660 -0.036435 -0.007699
    18 1.442242 0.107453 1.746178 -1.686405 -0.539236 0.325847
    19 1.063451 0.000000 -0.000001 0.000000 0.000000 0.199056
    20 4.172844 -0.251366 1.312745 -0.008026 -0.095731 0.148653
    21 1.215373 0.000000 0.000001 0.000000 0.000000 0.645746
    22 1.215372 0.000000 0.000001 0.000000 0.000000 0.645746
    23 4.220531 -0.244854 0.431466 -0.001333 -0.026242 0.148333
    24 1.350417 0.000001 -0.000001 0.000000 0.000000 0.863854
    25 1.350410 -0.000001 0.000001 0.000000 0.000000 0.863875
    26 4.262825 -0.232720 -1.392178 0.016840 0.076668 0.253759
    27 -1.933897 0.425142 2.805984 -1.068596 -1.137262 3.688374
    28 4.640942 0.000000 -0.000001 -0.891504 0.283777 -1.388840
    29 10.828047 0.000000 -0.000002 0.000000 0.000000 -1.162026
    30 9.393336 -0.000001 0.000000 -1.569150 0.033469 0.016354
    31 1.442245 0.107453 -1.746177 1.686435 0.539221 0.325885
    32 1.063452 -0.000001 -0.000001 0.000000 0.000000 0.199056
    33 1.376307 -0.000001 0.000000 0.000000 0.000000 0.199053
    34 4.172847 -0.251366 -1.312744 0.008026 0.095731 0.148653
    35 1.215373 0.000001 0.000000 0.000000 0.000000 0.645758
    36 1.215371 -0.000001 0.000000 0.000000 0.000000 0.645758
    37 4.220535 -0.244855 -0.431465 0.001333 0.026242 0.148333
    38 1.350416 0.000000 0.000000 0.000000 0.000000 0.863850
    39 1.350410 -0.000001 -0.000001 0.000000 0.000000 0.863880
    40 4.237636 -0.195359 0.527090 0.000662 0.008837 0.261753
    41 1.215376 0.000001 0.000001 0.000000 0.000000 0.977275
    42 1.215371 0.000000 0.000000 0.000000 0.000000 0.977290
    43 4.262829 -0.232721 1.392178 -0.016840 -0.076668 0.253759
    44 1.012811 0.000000 0.000000 0.000000 0.000000 0.968559
    45 1.012809 -0.000001 0.000000 0.000000 0.000000 0.968559
    46 1.376306 -0.000001 0.000000 0.000000 0.000000 0.199056
    47 4.237632 -0.195359 -0.527090 -0.000662 -0.008837 0.261713
    48 1.215375 0.000001 -0.000001 0.000000 0.000000 0.977293
    49 1.215371 0.000000 0.000001 0.000000 0.000000 0.977318
    50 1.012810 0.000001 0.000000 0.000000 0.000000 0.968648
    51 1.012810 -0.000001 0.000000 0.000000 0.000000 0.968648
    52 2.110540 0.000000 0.000000 -0.322686 0.222229 -0.172074
    53 5.253243 3.139475 -1.673515 2.984594 -1.570796 0.000000
    54 5.253259 3.139473 -0.054760 3.101460 -1.570796 0.000000
    55 5.253252 3.139468 1.574632 2.984594 -1.570796 0.000000
    56 4.598148 4.158443 -1.350299 2.868724 -1.570796 0.000000
    57 4.598139 4.158430 -0.054439 3.377004 -1.570796 0.000000
    58 4.598140 4.158430 1.240876 2.868724 -1.570796 0.000000
    59 0.891927 2.373051 -0.014527 -3.141592 -0.000001 1.447861
    60 7.228122 5.709446 3.726568 2.363668 -1.570796 0.000000
  time 4
    0 0.203002 14.878978 38.779610 0.034611 0.000511 -4.318094
    1 -3.488060 -0.484390 0.000000 -0.000112 -1.867340 -1.570725
    2 -0.000006 0.000008 4.427393 6.126333 -3.007929 6.006575
    3 18.465940 0.000000 0.000000 0.000000 0.000000 -0.647844
    4 14.875443 0.000000 -0.000001 0.511149 0.158508 0.414238
    5 0.000006 -0.000004 -4.427393 -5.961130 3.077568 5.588780
    6 18.465940 0.000000 0.000000 0.000000 0.000000 -1.564880
    7 14.875443 0.000000 0.000000 -0.215507 0.199683 0.352923
    8 2.161454 -0.007574 -0.652361 -0.161835 0.202763 0.278616
    9 9.514226 -0.009357 0.000000 -0.026825 0.073674 0.111987
    10 2.450429 5.076128 0.001325 2.375655 -1.570796 0.000000
    11 6.312407 -4.528058 0.001311 3.167069 -1.570796 0.000000
    12 2.233310 1.152535 -7.309138 1.493867 -1.548865 2.599543
    13 11.751820 -0.001633 0.000000 -0.160306 -0.175635 0.474136
    14 -2.398755 1.276743 -2.091115 -0.223932 1.211843 2.460000
    15 4.640942 0.000000 0.000000 0.113313 -0.134022 0.556125
    16 10.828047 0.000000 0.000000 0.000000 0.000000 -0.798245
    17 9.393338 0.000000 0.000001 1.571377 -0.038192 -0.013713
    18 1.442242 0.107453 1.746178 -1.686405 -0.539236 0.325847
    19 1.063451 0.000000 -0.000001 0.000000 0.000000 0.199056
    20 4.172844 -0.251366 1.312745 -0.008026 -0.095731 0.148653
    21 1.215373 0.000000 0.000001 0.000000 0.000000 0.645746
    22 1.215372 0.000000 0.000001 0.000000 0.000000 0.645746
    23 4.220531 -0.244854 0.431466 -0.001333 -0.026242 0.148333
    24 1.350417 0.000001 -0.000001 0.000000 0.000000 0.863854
    25 1.350410 -0.000001 0.000001 0.000000 0.000000 0.863875
    26 4.262825 -0.232720 -1.392178 0.016840 0.076668 0.253759
    27 -1.480758 0.444674 3.059898 -1.139384 -1.204547 3.720924
    28 4.640942 0.000000 -0.000001 -0.841841 0.100075 -1.499704
    29 10.828047 0.000000 -0.000002 0.000000 0.000000 -1.320231
    30 9.393336 -0.000001 0.000000 -1.568874 0.033049 0.029102
    31 1.442245 0.107453 -1.746177 1.686435 0.539221 0.325885
    32 1.063452 -0.000001 -0.000001 0.000000 0.000000 0.199056
    33 1.376307 -0.000001 0.000000 0.000000 0.000000 0.199053
    34 4.172847 -0.251366 -1.312744 0.008026 0.095731 0.148653
    35 1.215373 0.000001 0.000000 0.000000 0.000000 0.645758
    36 1.215371 -0.000001 0.000000 0.000000 0.000000 0.645758
    37 4.220535 -0.244855 -0.431465 0.001333 0.026242 0.148333
    38 1.350416 0.000000 0.000000 0.000000 0.000000 0.863850
    39 1.350410 -0.000001 -0.000001 0.000000 0.000000 0.863880
    40 4.237636 -0.195359 0.527090 0.000662 0.008837 0.261753
    41 1.215376 0.000001 0.000001 0.000000 0.000000 0.977275
    42 1.215371 0.000000 0.000000 0.000000 0.000000 0.977290
    43 4.262829 -0.232721 1.392178 -0.016840 -0.076668 0.253759
    44 1.012811 0.000000 0.000000 0.000000 0.000000 0.968559
    45 1.012809 -0.000001 0.000000 0.000000 0.000000 0.968559
    46 1.376306 -0.000001 0.000000 0.000000 0.000000 0.199056
    47 4.237632 -0.195359 -0.527090 -0.000662 -0.008837 0.261713
    48 1.215375 0.000001 -0.000001 0.000000 0.000000 0.977293
    49 1.215371 0.000000 0.000001 0.000000 0.000000 0.977318
    50 1.012810 0.000001 0.000000 0.000000 0.000000 0.968648
    51 1.012810 -0.000001 0.000000 0.000000 0.000000 0.968648
    52 2.110540 0.000000 0.000000 -0.341710 0.135484 -0.125758
    53 5.253243 3.139475 -1.673515 2.984594 -1.570796 0.000000
    54 5.253259 3.139473 -0.054760 3.072552 -1.570796 0.000000
    55 5.253252 3.139468 1.574632 2.984594 -1.570796 0.000000
    56 4.598148 4.158443 -1.350299 2.830076 -1.570796 0.000000
    57 4.598139 4.158430 -0.054439 3.272080 -1.570796 0.000000
    58 4.598140 4.158430 1.240876 2.830076 -1.570796 0.000000
    59 0.891927 2.373051 -0.014527 -3.141592 -0.000001 1.459337
    60 7.228122 5.709446 3.726568 2.245703 -1.570796 0.000000
  time 5
    0 3.906240 15.983005 37.078396 0.024832 0.024097 -5.071206
    1 -0.745789 -1.425825 0.000000 -0.000112 -1.737593 -1.570725
    2 -0.000006 0.000008 4.427393 6.150779 -3.022406 6.027477
    3 18.465940 0.000000 0.000000 0.000000 0.000000 -0.846392
    4 14.875443 0.000000 -0.000001 0.110299 0.065220 0.605751
    5 0.000006 -0.000004 -4.427393 -6.020572 2.978528 5.749225
    6 18.465940 0.000000 0.000000 0.000000 0.000000 -1.412613
    7 14.875443 0.000000 0.000000 -0.278044 0.229724 0.378433
    8 2.227862 -0.007574 -0.367196 -0.259485 0.025599 0.064784
    9 9.514226 -0.009357 0.000000 -0.033390 0.031421 -0.036954
    10 2.450429 5.076128 0.001325 2.853624 -1.570796 0.000000
    11 6.312407 -4.528058 0.001311 3.193144 -1.570796 0.000000
    12 2.233310 1.152535 -7.309138 -1.244072 -1.685985 -0.853143
    13 11.751820 -0.001633 0.000000 -0.160845 -0.193948 0.477157
    14 -2.437819 1.276743 -2.048145 -0.630571 1.085149 2.041329
    15 4.640942 0.000000 0.000000 -0.138977 0.114389 0.930848
    16 10.828047 0.000000 0.000000 0.000000 0.000000 -0.978856
    17 9.393338 0.000000 0.000001 1.569611 -0.034190 0.000011
    18 1.442242 0.107453 1.746178 -1.686405 -0.539236 0.325847
    19 1.063451 0.000000 -0.000001 0.000000 0.000000 0.199056
    20 4.172844 -0.251366 1.312745 -0.008026 -0.095731 0.148653
    21 1.215373 0.000000 0.000001 0.000000 0.000000 0.645746
    22 1.215372 0.000000 0.000001 0.000000 0.000000 0.645746
    23 4.220531 -0.244854 0.431466 -0.001333 -0.026242 0.148333
    24 1.350417 0.000001 -0.000001 0.000000 0.000000 0.863854
    25 1.350410 -0.000001 0.000001 0.000000 0.000000 0.863875
    26 4.262825 -0.232720 -1.392178 0.016840 0.076668 0.253759
    27 -1.426069 0.444674 3.083336 1.546649 -1.784657 1.085884
    28 4.640942 0.000000 -0.000001 -0.801054 0.533571 -1.284474
    29 10.828047 0.000000 -0.000002 0.000000 0.000000 -1.137133
    30 9.393336 -0.000001 0.000000 -1.569611 0.038589 0.013864
    31 1.442245 0.107453 -1.746177 1.688700 0.543887 0.332453
    32 1.063452 -0.000001 -0.000001 0.000000 0.000000 0.199787
    33 1.376307 -0.000001 0.000000 0.000000 0.000000 0.199784
    34 4.172847 -0.251366 -1.312744 0.008314 0.095707 0.151538
    35 1.215373 0.000001 0.000000 0.000000 0.000000 0.664909
    36 1.215371 -0.000001 0.000000 0.000000 0.000000 0.664909
    37 4.220535 -0.244855 -0.431465 0.001405 0.026242 0.151175
    38 1.350416 0.000000 0.000000 0.000000 0.000000 0.889495
    39 1.350410 -0.000001 -0.000001 0.000000 0.000000 0.889525
    40 4.237636 -0.195359 0.527090 0.000722 0.008837 0.267955
    41 1.215376 0.000001 0.000001 0.000000 0.000000 1.006340
    42 1.215371 0.000000 0.000000 0.000000 0.000000 1.006312
    43 4.262829 -0.232721 1.392178 -0.017271 -0.076572 0.259729
    44 1.012811 0.000000 0.000000 0.000000 0.000000 0.997333
    45 1.012809 -0.000001 0.000000 0.000000 0.000000 0.997333
    46 1.376306 -0.000001 0.000000 0.000000 0.000000 0.199056
    47 4.237632 -0.195359 -0.527090 -0.000662 -0.008837 0.261713
    48 1.215375 0.000001 -0.000001 0.000000 0.000000 0.977293
    49 1.215371 0.000000 0.000001 0.000000 0.000000 0.977318
    50 1.012810 0.000001 0.000000 0.000000 0.000000 0.968648
    51 1.012810 -0.000001 0.000000 0.000000 0.000000 0.968648
    52 2.110540 0.000000 0.000000 -0.249470 -0.073816 -0.486350
    53 5.253243 3.139475 -1.673515 2.984594 -1.570796 0.000000
    54 5.253259 3.139473 -0.054760 3.035896 -1.570796 0.000000
    55 5.253252 3.139468 1.574632 2.984594 -1.570796 0.000000
    56 4.598148 4.158443 -1.350299 2.796258 -1.570796 0.000000
    57 4.598139 4.158430 -0.054439 3.140442 -1.570796 0.000000
    58 4.598140 4.158430 1.240876 2.796258 -1.570796 0.000000
    59 0.891927 2.373051 -0.014527 -3.141592 -0.000001 1.469811
    60 7.228122 5.709446 3.726568 2.141605 -1.570796 0.000000
  time 6
    0 7.754014 14.878978 34.416310 0.001055 0.034771 -5.835822
    1 2.394932 -2.089908 0.000000 -1.570795 -1.570451 0.000000
    2 -0.000006 0.000008 4.427393 6.192386 -3.141192 0.006803
    3 18.465940 0.000000 0.000000 0.000000 0.000000 -0.889084
    4 14.875443 0.000000 -0.000001 -0.245436 0.300877 0.794380
    5 0.000006 -0.000004 -4.427393 -6.077425 2.844588 5.952705
    6 18.465940 0.000000 0.000000 0.000000 0.000000 -1.282332
    7 14.875443 0.000000 0.000000 -0.258111 0.266707 0.435831
    8 2.255207 -0.007574 0.000003 -0.221682 -0.169221 -0.163606
    9 9.514226 -0.009357 0.000000 -0.030089 -0.020535 -0.243977
    10 2.450429 5.076128 0.001325 3.232857 -1.570796 0.000000
    11 6.312407 -4.528058 0.001311 3.349743 -1.570796 0.000000
    12 2.233310 1.152535 -7.309138 -1.153667 -1.808280 -0.800294
    13 11.751820 -0.001633 0.000000 -0.160306 -0.175635 0.474136
    14 -2.398755 1.276743 -2.091115 -0.534766 1.045444 2.153209
    15 4.640942 0.000000 0.000000 -0.491705 0.317051 0.804894
    16 10.828047 0.000000 0.000000 0.000000 0.000000 -0.811941
    17 9.393338 0.000000 0.000001 1.569611 -0.034190 0.000011
    18 1.442242 0.107453 1.746178 -1.686405 -0.539236 0.325847
    19 1.063451 0.000000 -0.000001 0.000000 0.000000 0.199056
    20 4.172844 -0.251366 1.312745 -0.008026 -0.095731 0.148653
    21 1.215373 0.000000 0.000001 0.000000 0.000000 0.645746
    22 1.215372 0.000000 0.000001 0.000000 0.000000 0.645746
    23 4.220531 -0.244854 0.431466 -0.001333 -0.026242 0.148333
    24 1.350417 0.000001 -0.000001 0.000000 0.000000 0.863854
    25 1.350410 -0.000001 0.000001 0.000000 0.000000 0.863875
    26 4.262825 -0.232720 -1.392178 0.016840 0.076668 0.253759
    27 -1.480758 0.444674 3.059898 -2.398417 -1.388600 5.066079
    28 4.640942 0.000000 -0.000001 -0.576140 1.022769 -0.956330
    29 10.828047 0.000000 -0.000002 0.000000 0.000000 -0.897721
    30 9.393336 -0.000001 0.000000 -1.569611 0.034157 0.000091
    31 1.442245 0.107453 -1.746177 1.686435 0.539221 0.325885
    32 1.063452 -0.000001 -0.000001 0.000000 0.000000 0.199056
    33 1.376307 -0.000001 0.000000 0.000000 0.000000 0.199053
    34 4.172847 -0.251366 -1.312744 0.008026 0.095731 0.148653
    35 1.215373 0.000001 0.000000 0.000000 0.000000 0.645758
    36 1.215371 -0.000001 0.000000 0.000000 0.000000 0.645758
    37 4.220535 -0.244855 -0.431465 0.001333 0.026242 0.148333
    38 1.350416 0.000000 0.000000 0.000000 0.000000 0.863850
    39 1.350410 -0.000001 -0.000001 0.000000 0.000000 0.863880
    40 4.237636 -0.195359 0.527090 0.000662 0.008837 0.261753
    41 1.215376 0.000001 0.000001 0.000000 0.000000 0.977275
    42 1.215371 0.000000 0.000000 0.000000 0.000000 0.977290
    43 4.262829 -0.232721 1.392178 -0.016840 -0.076668 0.253759
    44 1.012811 0.000000 0.000000 0.000000 0.000000 0.968559
    45 1.012809 -0.000001 0.000000 0.000000 0.000000 0.968559
    46 1.376306 -0.000001 0.000000 0.000000 0.000000 0.199056
    47 4.237632 -0.195359 -0.527090 -0.000662 -0.008837 0.261713
    48 1.215375 0.000001 -0.000001 0.000000 0.000000 0.977293
    49 1.215371 0.000000 0.000001 0.000000 0.000000 0.977318
    50 1.012810 0.000001 0.000000 0.000000 0.000000 0.968648
    51 1.012810 -0.000001 0.000000 0.000000 0.000000 0.968648
    52 2.110540 0.000000 0.000000 -0.037071 -0.009652 -0.751128
    53 5.253243 3.139475 -1.673515 2.984594 -1.570796 0.000000
    54 5.253259 3.139473 -0.054760 2.998740 -1.570796 0.000000
    55 5.253252 3.139468 1.574632 2.984594 -1.570796 0.000000
    56 4.598148 4.158443 -1.350299 2.770109 -1.570796 0.000000
    57 4.598139 4.158430 -0.054439 3.007674 -1.570796 0.000000
    58 4.598140 4.158430 1.240876 2.770109 -1.570796 0.000000
    59 0.891927 2.373051 -0.014527 -3.141592 -0.000001 1.478646
    60 7.228122 5.709446 3.726568 2.024969 -1.570796 0.000000
  time 7
    0 8.828266 7.622668 29.926993 -0.039118 -0.070308 -0.492998
    1 0.914418 -1.164098 0.000000 -0.000112 -1.552285 -1.570725
    2 -0.000006 0.000008 4.427393 0.001808 -3.122210 0.344289
    3 18.465940 0.000000 0.000000 0.000000 0.000000 -1.077835
    4 14.875443 0.000000 -0.000001 0.103793 -0.220881 0.881801
    5 0.000006 -0.000004 -4.427393 -6.152014 2.730207 6.054205
    6 18.465940 0.000000 0.000000 0.000000 0.000000 -1.622965
    7 14.875443 0.000000 0.000000 -0.118928 0.365167 0.689023
    8 2.255207 -0.007574 0.039067 0.146592 -0.143317 -0.019519
    9 9.514226 -0.009357 0.000000 -0.007804 0.005214 -0.236292
    10 2.450429 5.076128 0.001325 3.130084 -1.570796 0.000000
    11 6.312407 -4.528058 0.001311 3.196307 -1.570796 0.000000
    12 2.233310 1.152535 -7.309138 -1.187605 -1.938905 -0.755775
    13 11.751820 -0.001633 0.000000 -0.160306 -0.175635 0.474136
    14 -2.398755 1.276743 -2.091115 -0.499128 1.033587 2.191523
    15 4.640942 0.000000 0.000000 -0.225845 0.238455 1.229371
    16 10.828047 0.000000 0.000000 0.000000 0.000000 -0.785322
    17 9.393338 0.000000 0.000001 1.560007 -0.034093 -0.003869
    18 1.442242 0.107453 1.746178 -1.687859 -0.539236 0.325641
    19 1.063451 0.000000 -0.000001 0.000000 0.000000 0.203083
    20 4.172844 -0.251366 1.312745 -0.008230 -0.095719 0.150617
    21 1.215373 0.000000 0.000001 0.000000 0.000000 0.658882
    22 1.215372 0.000000 0.000001 0.000000 0.000000 0.658882
    23 4.220531 -0.244854 0.431466 -0.001381 -0.026242 0.150294
    24 1.350417 0.000001 -0.000001 0.000000 0.000000 0.881396
    25 1.350410 -0.000001 0.000001 0.000000 0.000000 0.881431
    26 4.262825 -0.232720 -1.392178 0.017128 0.076596 0.257739
    27 -1.480758 0.444674 3.059898 1.380588 -1.788409 1.261808
    28 4.640942 0.000000 -0.000001 -0.589798 0.713810 -1.321643
    29 10.828047 0.000000 -0.000002 0.000000 0.000000 -0.849521
    30 9.393336 -0.000001 0.000000 -1.568874 0.000917 0.015280
    31 1.442245 0.107453 -1.746177 1.671910 0.506681 0.281409
    32 1.063452 -0.000001 -0.000001 0.000000 0.000000 0.193986
    33 1.376307 -0.000001 0.000000 0.000000 0.000000 0.194009
    34 4.172847 -0.251366 -1.312744 0.006157 0.095875 0.128899
    35 1.215373 0.000001 0.000000 0.000000 0.000000 0.513538
    36 1.215371 -0.000001 0.000000 0.000000 0.000000 0.513538
    37 4.220535 -0.244855 -0.431465 0.000793 0.026254 0.128676
    38 1.350416 0.000000 0.000000 0.000000 0.000000 0.686998
    39 1.350410 -0.000001 -0.000001 0.000000 0.000000 0.687031
    40 4.237636 -0.195359 0.527090 0.000254 0.008861 0.218815
    41 1.215376 0.000001 0.000001 0.000000 0.000000 0.777280
    42 1.215371 0.000000 0.000000 0.000000 0.000000 0.777259
    43 4.262829 -0.232721 1.392178 -0.013664 -0.077315 0.212487
    44 1.012811 0.000000 0.000000 0.000000 0.000000 0.770316
    45 1.012809 -0.000001 0.000000 0.000000 0.000000 0.770316
    46 1.376306 -0.000001 0.000000 0.000000 0.000000 0.203088
    47 4.237632 -0.195359 -0.527090 -0.000698 -0.008837 0.265967
    48 1.215375 0.000001 -0.000001 0.000000 0.000000 0.997228
    49 1.215371 0.000000 0.000001 0.000000 0.000000 0.997164
    50 1.012810 0.000001 0.000000 0.000000 0.000000 0.988331
    51 1.012810 -0.000001 0.000000 0.000000 0.000000 0.988331
    52 2.110540 0.000000 0.000000 -0.216975 -0.043297 -0.808840
    53 5.253243 3.139475 -1.673515 2.984594 -1.570796 0.000000
    54 5.253259 3.139473 -0.054760 2.968290 -1.570796 0.000000
    55 5.253252 3.139468 1.574632 2.984594 -1.570796 0.000000
    56 4.598148 4.158443 -1.350299 2.754695 -1.570796 0.000000
    57 4.598139 4.158430 -0.054439 2.899378 -1.570796 0.000000
    58 4.598140 4.158430 1.240876 2.754695 -1.570796 0.000000
    59 0.891927 2.373051 -0.014527 -3.141592 -0.000001 1.485295
    60 7.228122 5.709446 3.726568 1.869867 -1.570796 0.000000
  time 8
    0 8.484505 0.134869 24.177518 -0.034611 -0.002173 -1.227509
    1 -0.808291 0.039064 0.000000 -1.570795 -1.570451 0.000000
    2 -0.000006 0.000008 4.427393 0.054823 -3.038705 0.640643
    3 18.465940 0.000000 0.000000 0.000000 0.000000 -0.768098
    4 14.875443 0.000000 -0.000001 0.657695 -0.145301 -0.365995
    5 0.000006 -0.000004 -4.427393 -6.181352 2.681885 6.153788
    6 18.465940 0.000000 0.000000 0.000000 0.000000 -1.901771
    7 14.875443 0.000000 0.000000 0.040715 0.425037 0.794966
    8 2.255207 -0.007574 0.000003 0.098416 -0.029193 0.117985
    9 9.514226 -0.009357 0.000000 0.007316 0.070422 -0.176759
    10 2.450429 5.076128 0.001325 3.049603 -1.570796 0.000000
    11 6.312407 -4.528058 0.001311 3.182990 -1.570796 0.000000
    12 2.233310 1.152535 -7.309138 1.423403 -1.234637 3.022716
    13 11.751820 -0.001633 0.000000 -0.160306 -0.175635 0.474136
    14 -2.398755 1.276743 -2.091115 -0.479874 1.025260 2.212118
    15 4.640942 0.000000 0.000000 -0.000791 0.195914 1.223171
    16 10.828047 0.000000 0.000000 0.000000 0.000000 -0.787508
    17 9.393338 0.000000 0.000001 1.546373 -0.039786 -0.002850
    18 1.442242 0.107453 1.746178 -1.690223 -0.539292 0.325332
    19 1.063451 0.000000 -0.000001 0.000000 0.000000 0.209842
    20 4.172844 -0.251366 1.312745 -0.008530 -0.095683 0.153862
    21 1.215373 0.000000 0.000001 0.000000 0.000000 0.680663
    22 1.215372 0.000000 0.000001 0.000000 0.000000 0.680663
    23 4.220531 -0.244854 0.431466 -0.001465 -0.026230 0.153537
    24 1.350417 0.000001 -0.000001 0.000000 0.000000 0.910732
    25 1.350410 -0.000001 0.000001 0.000000 0.000000 0.910674
    26 4.262825 -0.232720 -1.392178 0.017667 0.076501 0.264664
    27 -1.480758 0.444674 3.059898 -1.278482 -1.230686 3.871553
    28 4.640942 0.000000 -0.000001 -0.664666 0.221148 -1.216632
    29 10.828047 0.000000 -0.000002 0.000000 0.000000 -0.869899
    30 9.393336 -0.000001 0.000000 -1.562516 -0.046612 0.040237
    31 1.442245 0.107453 -1.746177 1.655622 0.462925 0.224680
    32 1.063452 -0.000001 -0.000001 0.000000 0.000000 0.187359
    33 1.376307 -0.000001 0.000000 0.000000 0.000000 0.187360
    34 4.172847 -0.251366 -1.312744 0.003664 0.095995 0.102854
    35 1.215373 0.000001 0.000000 0.000000 0.000000 0.339014
    36 1.215371 -0.000001 0.000000 0.000000 0.000000 0.339014
    37 4.220535 -0.244855 -0.431465 0.000110 0.026266 0.102733
    38 1.350416 0.000000 0.000000 0.000000 0.000000 0.453518
    39 1.350410 -0.000001 -0.000001 0.000000 0.000000 0.453512
    40 4.237636 -0.195359 0.527090 -0.000213 0.008861 0.162240
    41 1.215376 0.000001 0.000001 0.000000 0.000000 0.513108
    42 1.215371 0.000000 0.000000 0.000000 0.000000 0.513094
    43 4.262829 -0.232721 1.392178 -0.009421 -0.077951 0.158121
    44 1.012811 0.000000 0.000000 0.000000 0.000000 0.508521
    45 1.012809 -0.000001 0.000000 0.000000 0.000000 0.508521
    46 1.376306 -0.000001 0.000000 0.000000 0.000000 0.209831
    47 4.237632 -0.195359 -0.527090 -0.000758 -0.008825 0.273044
    48 1.215375 0.000001 -0.000001 0.000000 0.000000 1.030299
    49 1.215371 0.000000 0.000001 0.000000 0.000000 1.030223
    50 1.012810 0.000001 0.000000 0.000000 0.000000 1.021108
    51 1.012810 -0.000001 0.000000 0.000000 0.000000 1.021108
    52 2.110540 0.000000 0.000000 0.029256 0.124149 -0.811377
    53 5.253243 3.139475 -1.673515 2.984594 -1.570796 0.000000
    54 5.253259 3.139473 -0.054760 2.951639 -1.570796 0.000000
    55 5.253252 3.139468 1.574632 2.984594 -1.570796 0.000000
    56 4.598148 4.158443 -1.350299 2.747410 -1.570796 0.000000
    57 4.598139 4.158430 -0.054439 2.841105 -1.570796 0.000000
    58 4.598140 4.158430 1.240876 2.747410 -1.570796 0.000000
    59 0.891927 2.373051 -0.014527 -3.141592 -0.000001 1.489940
    60 7.228122 5.709446 3.726568 1.649988 -1.570796 0.000000
  time 9
    0 6.539133 -1.619110 13.970230 -0.234419 0.617561 -1.314469
    1 -2.304431 1.582080 0.000000 -1.570795 -1.570451 0.000000
    2 -0.000006 0.000008 4.427393 0.144364 -2.876967 0.372093
    3 18.465940 0.000000 0.000000 0.000000 0.000000 -0.640607
    4 14.875443 0.000000 -0.000001 -0.791908 -0.335538 -0.336644
    5 0.000006 -0.000004 -4.427393 -5.948474 2.963475 0.070490
    6 18.465940 0.000000 0.000000 0.000000 0.000000 -1.164456
    7 14.875443 0.000000 0.000000 0.394814 0.175098 0.028415
    8 2.255207 -0.007574 0.000003 -0.012727 0.094473 0.238384
    9 9.514226 -0.009357 0.000000 0.025512 0.141636 -0.107744
    10 2.450429 5.076128 0.001325 3.004755 -1.570796 0.000000
    11 6.312407 -4.528058 0.001311 3.172529 -1.570796 0.000000
    12 2.233310 1.152535 -7.309138 -1.035173 -1.706838 -0.534902
    13 11.751820 -0.001633 0.000000 -0.160306 -0.175635 0.474136
    14 -2.398755 1.276743 -2.091115 -0.453771 1.024263 2.239022
    15 4.640942 0.000000 0.000000 0.231431 0.194589 1.098316
    16 10.828047 0.000000 0.000000 0.000000 0.000000 -0.773041
    17 9.393338 0.000000 0.000001 1.538811 -0.030287 -0.016525
    18 1.442242 0.107453 1.746178 -1.690860 -0.539292 0.325229
    19 1.063451 0.000000 -0.000001 0.000000 0.000000 0.211160
    20 4.172844 -0.251366 1.312745 -0.008577 -0.095683 0.154543
    21 1.215373 0.000000 0.000001 0.000000 0.000000 0.685112
    22 1.215372 0.000000 0.000001 0.000000 0.000000 0.685112
    23 4.220531 -0.244854 0.431466 -0.001489 -0.026230 0.154178
    24 1.350417 0.000001 -0.000001 0.000000 0.000000 0.916481
    25 1.350410 -0.000001 0.000001 0.000000 0.000000 0.916494
    26 4.262825 -0.232720 -1.392178 0.017775 0.076477 0.266017
    27 -1.480758 0.444674 3.059898 -1.074884 -1.201525 3.655537
    28 4.640942 0.000000 -0.000001 -0.960412 -0.190847 -0.842364
    29 10.828047 0.000000 -0.000002 0.000000 0.000000 -0.895158
    30 9.393336 -0.000001 0.000000 -1.556896 -0.095440 0.065634
    31 1.442245 0.107453 -1.746177 1.642260 0.417815 0.169100
    32 1.063452 -0.000001 -0.000001 0.000000 0.000000 0.180623
    33 1.376307 -0.000001 0.000000 0.000000 0.000000 0.180610
    34 4.172847 -0.251366 -1.312744 0.001099 0.096055 0.076408
    35 1.215373 0.000001 0.000000 0.000000 0.000000 0.161836
    36 1.215371 -0.000001 0.000000 0.000000 0.000000 0.161836
    37 4.220535 -0.244855 -0.431465 -0.000585 0.026254 0.076390
    38 1.350416 0.000000 0.000000 0.000000 0.000000 0.216534
    39 1.350410 -0.000001 -0.000001 0.000000 0.000000 0.216574
    40 4.237636 -0.195359 0.527090 -0.000753 0.008837 0.104830
    41 1.215376 0.000001 0.000001 0.000000 0.000000 0.245016
    42 1.215371 0.000000 0.000000 0.000000 0.000000 0.245010
    43 4.262829 -0.232721 1.392178 -0.005131 -0.078322 0.102919
    44 1.012811 0.000000 0.000000 0.000000 0.000000 0.242806
    45 1.012809 -0.000001 0.000000 0.000000 0.000000 0.242806
    46 1.376306 -0.000001 0.000000 0.000000 0.000000 0.211175
    47 4.237632 -0.195359 -0.527090 -0.000758 -0.008825 0.274515
    48 1.215375 0.000001 -0.000001 0.000000 0.000000 1.036930
    49 1.215371 0.000000 0.000001 0.000000 0.000000 1.036854
    50 1.012810 0.000001 0.000000 0.000000 0.000000 1.027655
    51 1.012810 -0.000001 0.000000 0.000000 0.000000 1.027655
    52 2.110540 0.000000 0.000000 0.390555 0.216125 -0.631963
    53 5.253243 3.139475 -1.673515 2.984594 -1.570796 0.000000
    54 5.253259 3.139473 -0.054760 2.945973 -1.570796 0.000000
    55 5.253252 3.139468 1.574632 2.984594 -1.570796 0.000000
    56 4.598148 4.158443 -1.350299 2.743652 -1.570796 0.000000
    57 4.598139 4.158430 -0.054439 2.822248 -1.570796 0.000000
    58 4.598140 4.158430 1.240876 2.743652 -1.570796 0.000000
    59 0.891927 2.373051 -0.014527 -3.141592 -0.000001 1.494221
    60 7.228122 5.709446 3.726568 0.694677 -1.570493 0.000000
  time 10
    0 4.535166 -1.619110 4.566293 -0.459825 1.251741 -1.333261
    1 -3.245866 3.011811 0.000000 -1.570795 -1.570451 0.000000
    2 -0.000006 0.000008 4.427393 0.058179 -3.027392 0.646396
    3 18.465940 0.000000 0.000000 0.000000 0.000000 -0.758230
    4 14.875443 0.000000 -0.000001 -0.328166 -0.153474 -0.370854
    5 0.000006 -0.000004 -4.427393 -5.913960 2.938547 0.328889
    6 18.465940 0.000000 0.000000 0.000000 0.000000 -1.443985
    7 14.875443 0.000000 0.000000 0.355334 0.148513 -0.167866
    8 2.255207 -0.007574 0.000003 -0.099680 0.209357 0.330560
    9 9.514226 -0.009357 0.000000 0.042620 0.205929 -0.063668
    10 2.450429 5.076128 0.001325 3.001508 -1.570796 0.000000
    11 6.312407 -4.528058 0.001311 3.164620 -1.570796 0.000000
    12 2.233310 1.152535 -7.309138 -0.945343 -1.727284 -0.457065
    13 11.751820 -0.001633 0.000000 -0.160306 -0.175635 0.474136
    14 -2.398755 1.276743 -2.091115 -0.396381 1.033005 2.296261
    15 4.640942 0.000000 0.000000 0.435747 0.251287 0.875679
    16 10.828047 0.000000 0.000000 0.000000 0.000000 -0.696591
    17 9.393338 0.000000 0.000001 1.546318 0.015647 -0.064435
    18 1.442242 0.107453 1.746178 -1.686405 -0.539236 0.325847
    19 1.063451 0.000000 -0.000001 0.000000 0.000000 0.199056
    20 4.172844 -0.251366 1.312745 -0.008026 -0.095731 0.148653
    21 1.215373 0.000000 0.000001 0.000000 0.000000 0.645746
    22 1.215372 0.000000 0.000001 0.000000 0.000000 0.645746
    23 4.220531 -0.244854 0.431466 -0.001333 -0.026242 0.148333
    24 1.350417 0.000001 -0.000001 0.000000 0.000000 0.863854
    25 1.350410 -0.000001 0.000001 0.000000 0.000000 0.863875
    26 4.262825 -0.232720 -1.392178 0.016840 0.076668 0.253759
    27 -1.480758 0.444674 3.059898 -0.902344 -1.205907 3.489255
    28 4.640942 0.000000 -0.000001 -1.320536 -0.324763 -0.325682
    29 10.828047 0.000000 -0.000002 0.000000 0.000000 -0.995218
    30 9.393336 -0.000001 0.000000 -1.518383 -0.161805 0.086392
    31 1.442245 0.107453 -1.746177 1.632600 0.376029 0.119821
    32 1.063452 -0.000001 -0.000001 0.000000 0.000000 0.174451
    33 1.376307 -0.000001 0.000000 0.000000 0.000000 0.174434
    34 4.172847 -0.251366 -1.312744 -0.001190 0.096055 0.052246
    35 1.215373 0.000001 0.000000 0.000000 0.000000 0.000093
    36 1.215371 -0.000001 0.000000 0.000000 0.000000 0.000093
    37 4.220535 -0.244855 -0.431465 -0.001184 0.026242 0.052329
    38 1.350416 0.000000 0.000000 0.000000 0.000000 0.000068
    39 1.350410 -0.000001 -0.000001 0.000000 0.000000 0.000027
    40 4.237636 -0.195359 0.527090 -0.001184 0.008789 0.052350
    41 1.215376 0.000001 0.000001 0.000000 0.000000 0.000068
    42 1.215371 0.000000 0.000000 0.000000 0.000000 0.000028
    43 4.262829 -0.232721 1.392178 -0.001188 -0.078478 0.052453
    44 1.012811 0.000000 0.000000 0.000000 0.000000 0.000068
    45 1.012809 -0.000001 0.000000 0.000000 0.000000 0.000068
    46 1.376306 -0.000001 0.000000 0.000000 0.000000 0.199056
    47 4.237632 -0.195359 -0.527090 -0.000662 -0.008837 0.261713
    48 1.215375 0.000001 -0.000001 0.000000 0.000000 0.977293
    49 1.215371 0.000000 0.000001 0.000000 0.000000 0.977318
    50 1.012810 0.000001 0.000000 0.000000 0.000000 0.968648
    51 1.012810 -0.000001 0.000000 0.000000 0.000000 0.968648
    52 2.110540 0.000000 0.000000 0.711287 0.148263 -0.401029
    53 5.253243 3.139475 -1.673515 2.984594 -1.570796 0.000000
    54 5.253259 3.139473 -0.054760 2.943236 -1.570796 0.000000
    55 5.253252 3.139468 1.574632 2.984594 -1.570796 0.000000
    56 4.598148 4.158443 -1.350299 2.742809 -1.570796 0.000000
    57 4.598139 4.158430 -0.054439 2.814080 -1.570796 0.000000
    58 4.598140 4.158430 1.240876 2.742809 -1.570796 0.000000
    59 0.891927 2.373051 -0.014527 -3.141592 -0.000001 1.497773
    60 7.228122 5.709446 3.726568 2.918732 -1.570796 0.000000
  time 11
    0 4.273439 -1.725952 4.345765 -0.424542 1.318917 -1.400567
    1 -2.909918 3.086032 0.000000 -1.570795 -1.570451 0.000000
    2 -0.000006 0.000008 4.427393 0.085885 -2.991535 0.386091
    3 18.465940 0.000000 0.000000 0.000000 0.000000 -0.589800
    4 14.875443 0.000000 -0.000001 -0.286001 0.003028 -0.286593
    5 0.000006 -0.000004 -4.427393 -5.905811 2.935287 0.188668
    6 18.465940 0.000000 0.000000 0.000000 0.000000 -0.972612
    7 14.875443 0.000000 0.000000 0.404992 -0.199887 -0.143931
    8 2.255207 -0.007574 0.000003 -0.098019 0.210175 0.339658
    9 9.514226 -0.009357 0.000000 0.026225 0.237081 -0.166108
    10 2.450429 5.076128 0.001325 3.001332 -1.570796 0.000000
    11 6.312407 -4.528058 0.001311 3.158803 -1.570796 0.000000
    12 2.233310 1.152535 -7.309138 -1.176964 -1.735555 -0.351176
    13 11.751820 -0.001633 0.000000 -0.160306 -0.175635 0.474136
    14 -2.398755 1.276743 -2.091115 -0.082770 1.097131 2.605927
    15 4.640942 0.000000 0.000000 0.433454 0.363497 -0.101975
    16 10.828047 0.000000 0.000000 0.000000 0.000000 -0.197774
    17 9.393338 0.000000 0.000001 1.609408 0.335917 -0.348164
    18 1.442242 0.107453 1.746178 -1.646675 -0.538618 0.331305
    19 1.063451 0.000000 -0.000001 0.000000 0.000000 0.091242
    20 4.172844 -0.251366 1.312745 -0.003041 -0.096019 0.096443
    21 1.215373 0.000000 0.000001 0.000000 0.000000 0.295858
    22 1.215372 0.000000 0.000001 0.000000 0.000000 0.295858
    23 4.220531 -0.244854 0.431466 0.000033 -0.026266 0.096327
    24 1.350417 0.000001 -0.000001 0.000000 0.000000 0.395868
    25 1.350410 -0.000001 0.000001 0.000000 0.000000 0.395934
    26 4.262825 -0.232720 -1.392178 0.008403 0.078071 0.144629
    27 -1.480758 0.444674 3.059898 -0.869761 -1.277146 3.483527
    28 4.640942 0.000000 -0.000001 -1.171545 -0.128146 -0.231676
    29 10.828047 0.000000 -0.000002 0.000000 0.000000 -1.391615
    30 9.393336 -0.000001 0.000000 -1.318909 -0.296139 0.061678
    31 1.442245 0.107453 -1.746177 1.629928 0.362043 0.103689
    32 1.063452 -0.000001 -0.000001 0.000000 0.000000 0.172426
    33 1.376307 -0.000001 0.000000 0.000000 0.000000 0.172385
    34 4.172847 -0.251366 -1.312744 -0.001933 0.096043 0.044272
    35 1.215373 0.000001 0.000000 0.000000 0.000000 -0.053726
    36 1.215371 -0.000001 0.000000 0.000000 0.000000 -0.053726
    37 4.220535 -0.244855 -0.431465 -0.001388 0.026242 0.044402
    38 1.350416 0.000000 0.000000 0.000000 0.000000 -0.071991
    39 1.350410 -0.000001 -0.000001 0.000000 0.000000 -0.071989
    40 4.237636 -0.195359 0.527090 -0.001328 0.008777 0.034896
    41 1.215376 0.000001 0.000001 0.000000 0.000000 -0.081415
    42 1.215371 0.000000 0.000000 0.000000 0.000000 -0.081411
    43 4.262829 -0.232721 1.392178 0.000094 -0.078478 0.035697
    44 1.012811 0.000000 0.000000 0.000000 0.000000 -0.080706
    45 1.012809 -0.000001 0.000000 0.000000 0.000000 -0.080706
    46 1.376306 -0.000001 0.000000 0.000000 0.000000 0.091260
    47 4.237632 -0.195359 -0.527090 0.000345 -0.008861 0.148285
    48 1.215375 0.000001 -0.000001 0.000000 0.000000 0.447951
    49 1.215371 0.000000 0.000001 0.000000 0.000000 0.447932
    50 1.012810 0.000001 0.000000 0.000000 0.000000 0.443964
    51 1.012810 -0.000001 0.000000 0.000000 0.000000 0.443964
    52 2.110540 0.000000 0.000000 0.802756 0.045462 -0.144895
    53 5.253243 3.139475 -1.673515 2.984594 -1.570796 0.000000
    54 5.253259 3.139473 -0.054760 2.942966 -1.570796 0.000000
    55 5.253252 3.139468 1.574632 2.984594 -1.570796 0.000000
    56 4.598148 4.158443 -1.350299 2.744649 -1.570796 0.000000
    57 4.598139 4.158430 -0.054439 2.815079 -1.570796 0.000000
    58 4.598140 4.158430 1.240876 2.744649 -1.570796 0.000000
    59 0.891927 2.373051 -0.014527 -3.141592 -0.000001 1.500505
    60 7.228122 5.709446 3.726568 3.103089 -1.570796 0.000000
  time 12
    0 4.535166 -1.672531 4.786821 -0.215723 1.251741 -1.333261
    1 -4.003701 2.851650 0.000000 -1.570795 -1.570451 0.000000
    2 -0.000006 0.000008 4.427393 0.135161 -2.956638 0.065575
    3 18.465940 0.000000 0.000000 0.000000 0.000000 -0.463771
    4 14.875443 0.000000 -0.000001 -0.234593 0.110023 -0.163303
    5 0.000006 -0.000004 -4.427393 -5.920096 2.903648 -0.012320
    6 18.465940 0.000000 0.000000 0.000000 0.000000 -0.523161
    7 14.875443 0.000000 0.000000 0.143120 -0.443066 0.045034
    8 2.255207 -0.007574 0.000003 -0.099518 0.204017 0.278516
    9 9.514226 -0.009357 0.000000 0.030727 0.152011 0.266989
    10 2.450429 5.076128 0.001325 3.003877 -1.570796 0.000000
    11 6.312407 -4.528058 0.001311 3.154772 -1.570796 0.000000
    12 2.233310 1.152535 -7.309138 -1.417884 -1.746128 -0.256489
    13 11.751820 -0.001633 0.000000 -0.160306 -0.175635 0.474136
    14 -2.398755 1.276743 -2.091115 0.227231 0.689576 2.875239
    15 4.640942 0.000000 0.000000 0.595053 0.738624 -1.079708
    16 10.828047 0.000000 0.000000 0.000000 0.000000 -0.255127
    17 9.393338 0.000000 0.000001 1.680778 0.537122 -0.317614
    18 1.442242 0.107453 1.746178 -1.613036 -0.538281 0.335837
    19 1.063451 0.000000 -0.000001 0.000000 0.000000 0.000028
    20 4.172844 -0.251366 1.312745 0.001190 -0.096055 0.052246
    21 1.215373 0.000000 0.000001 0.000000 0.000000 0.000110
    22 1.215372 0.000000 0.000001 0.000000 0.000000 0.000110
    23 4.220531 -0.244854 0.431466 0.001184 -0.026242 0.052329
    24 1.350417 0.000001 -0.000001 0.000000 0.000000 0.000110
    25 1.350410 -0.000001 0.000001 0.000000 0.000000 0.000027
    26 4.262825 -0.232720 -1.392178 0.001188 0.078478 0.052453
    27 -1.480758 0.444674 3.059898 -0.835844 -1.171811 3.413177
    28 4.640942 0.000000 -0.000001 -1.298249 -0.141350 -0.551625
    29 10.828047 0.000000 -0.000002 0.000000 0.000000 -1.690026
    30 9.393336 -0.000001 0.000000 -1.120541 -0.379697 -0.065990
    31 1.442245 0.107453 -1.746177 1.632600 0.376029 0.119821
    32 1.063452 -0.000001 -0.000001 0.000000 0.000000 0.174451
    33 1.376307 -0.000001 0.000000 0.000000 0.000000 0.174434
    34 4.172847 -0.251366 -1.312744 -0.001190 0.096055 0.052246
    35 1.215373 0.000001 0.000000 0.000000 0.000000 0.000093
    36 1.215371 -0.000001 0.000000 0.000000 0.000000 0.000093
    37 4.220535 -0.244855 -0.431465 -0.001184 0.026242 0.052329
    38 1.350416 0.000000 0.000000 0.000000 0.000000 0.000068
    39 1.350410 -0.000001 -0.000001 0.000000 0.000000 0.000027
    40 4.237636 -0.195359 0.527090 -0.001184 0.008789 0.052350
    41 1.215376 0.000001 0.000001 0.000000 0.000000 0.000068
    42 1.215371 0.000000 0.000000 0.000000 0.000000 0.000028
    43 4.262829 -0.232721 1.392178 -0.001188 -0.078478 0.052453
    44 1.012811 0.000000 0.000000 0.000000 0.000000 0.000068
    45 1.012809 -0.000001 0.000000 0.000000 0.000000 0.000068
    46 1.376306 -0.000001 0.000000 0.000000 0.000000 0.000012
    47 4.237632 -0.195359 -0.527090 0.001184 -0.008789 0.052350
    48 1.215375 0.000001 -0.000001 0.000000 0.000000 0.000110
    49 1.215371 0.000000 0.000001 0.000000 0.000000 0.000027
    50 1.012810 0.000001 0.000000 0.000000 0.000000 0.000110
    51 1.012810 -0.000001 0.000000 0.000000 0.000000 0.000110
    52 2.110540 0.000000 0.000000 0.708819 0.130583 -0.589518
    53 5.253243 3.139475 -1.673515 2.984594 -1.570796 0.000000
    54 5.253259 3.139473 -0.054760 2.944817 -1.570796 0.000000
    55 5.253252 3.139468 1.574632 2.984594 -1.570796 0.000000
    56 4.598148 4.158443 -1.350299 2.748484 -1.570796 0.000000
    57 4.598139 4.158430 -0.054439 2.823721 -1.570796 0.000000
    58 4.598140 4.158430 1.240876 2.748484 -1.570796 0.000000
    59 0.891927 2.373051 -0.014527 -3.141592 -0.000001 1.503147
    60 7.228122 5.709446 3.726568 3.219155 -1.570796 0.000000
  time 13
    0 4.535166 -1.672531 5.070357 -0.160498 1.302938 -1.347643
    1 -3.257585 2.738365 0.000000 -1.570795 -1.570451 0.000000
    2 -0.000006 0.000008 4.427393 0.131614 -2.993549 0.025115
    3 18.465940 0.000000 0.000000 0.000000 0.000000 -0.776067
    4 14.875443 0.000000 -0.000001 -0.051997 0.144652 -0.003867
    5 0.000006 -0.000004 -4.427393 -5.952597 2.787829 -0.044428
    6 18.465940 0.000000 0.000000 0.000000 0.000000 -0.809188
    7 14.875443 0.000000 0.000000 0.075634 -0.258423 0.402293
    8 2.255207 -0.007574 0.000003 -0.101827 0.197783 0.215885
    9 9.514226 -0.009357 0.000000 0.028025 0.139996 0.224472
    10 2.450429 5.076128 0.001325 3.008792 -1.570796 0.000000
    11 6.312407 -4.528058 0.001311 3.152119 -1.570796 0.000000
    12 2.233310 1.152535 -7.309138 -1.469749 -1.831609 -0.231692
    13 11.751820 -0.001633 0.000000 -0.160306 -0.175635 0.474136
    14 -2.398755 1.276743 -2.091115 0.241393 0.706708 2.889711
    15 4.640942 0.000000 0.000000 0.842661 0.598030 -0.918519
    16 10.828047 0.000000 0.000000 0.000000 0.000000 -0.523889
    17 9.393338 0.000000 0.000001 1.679784 0.407095 -0.280178
    18 1.442242 0.107453 1.746178 -1.627219 -0.538337 0.333880
    19 1.063451 0.000000 -0.000001 0.000000 0.000000 0.038570
    20 4.172844 -0.251366 1.312745 -0.000596 -0.096055 0.070918
    21 1.215373 0.000000 0.000001 0.000000 0.000000 0.125091
    22 1.215372 0.000000 0.000001 0.000000 0.000000 0.125091
    23 4.220531 -0.244854 0.431466 0.000729 -0.026254 0.070905
    24 1.350417 0.000001 -0.000001 0.000000 0.000000 0.167268
    25 1.350410 -0.000001 0.000001 0.000000 0.000000 0.167378
    26 4.262825 -0.232720 -1.392178 0.004208 0.078382 0.091417
    27 -1.480758 0.444674 3.059898 -0.881956 -1.186139 3.462241
    28 4.640942 0.000000 -0.000001 -1.257835 -0.056570 -0.604598
    29 10.828047 0.000000 -0.000002 0.000000 0.000000 -1.747682
    30 9.393336 -0.000001 0.000000 -1.040751 -0.362313 -0.085233
    31 1.442245 0.107453 -1.746177 1.642415 0.418443 0.169880
    32 1.063452 -0.000001 -0.000001 0.000000 0.000000 0.180719
    33 1.376307 -0.000001 0.000000 0.000000 0.000000 0.180711
    34 4.172847 -0.251366 -1.312744 0.001159 0.096055 0.076769
    35 1.215373 0.000001 0.000000 0.000000 0.000000 0.164449
    36 1.215371 -0.000001 0.000000 0.000000 0.000000 0.164449
    37 4.220535 -0.244855 -0.431465 -0.000573 0.026254 0.076750
    38 1.350416 0.000000 0.000000 0.000000 0.000000 0.219996
    39 1.350410 -0.000001 -0.000001 0.000000 0.000000 0.219993
    40 4.237636 -0.195359 0.527090 -0.000741 0.008837 0.105665
    41 1.215376 0.000001 0.000001 0.000000 0.000000 0.248894
    42 1.215371 0.000000 0.000000 0.000000 0.000000 0.248888
    43 4.262829 -0.232721 1.392178 -0.005203 -0.078322 0.103715
    44 1.012811 0.000000 0.000000 0.000000 0.000000 0.246684
    45 1.012809 -0.000001 0.000000 0.000000 0.000000 0.246684
    46 1.376306 -0.000001 0.000000 0.000000 0.000000 0.038596
    47 4.237632 -0.195359 -0.527090 0.000836 -0.008825 0.092903
    48 1.215375 0.000001 -0.000001 0.000000 0.000000 0.189344
    49 1.215371 0.000000 0.000001 0.000000 0.000000 0.189322
    50 1.012810 0.000001 0.000000 0.000000 0.000000 0.187665
    51 1.012810 -0.000001 0.000000 0.000000 0.000000 0.187665
    52 2.110540 0.000000 0.000000 0.539301 0.475067 -0.973891
    53 5.253243 3.139475 -1.673515 2.984594 -1.570796 0.000000
    54 5.253259 3.139473 -0.054760 2.948324 -1.570796 0.000000
    55 5.253252 3.139468 1.574632 2.984594 -1.570796 0.000000
    56 4.598148 4.158443 -1.350299 2.754082 -1.570796 0.000000
    57 4.598139 4.158430 -0.054439 2.838486 -1.570796 0.000000
    58 4.598140 4.158430 1.240876 2.754082 -1.570796 0.000000
    59 0.891927 2.373051 -0.014527 -3.141592 -0.000001 1.505150
    60 7.228122 5.709446 3.726568 3.279467 -1.570796 0.000000
  time 14
    0 4.535166 -1.672531 5.479908 -0.115627 1.369667 -1.359915
    1 -2.167708 2.632893 0.000000 -1.570795 -1.570451 0.000000
    2 -0.000006 0.000008 4.427393 0.145035 -2.960568 -0.005757
    3 18.465940 0.000000 0.000000 0.000000 0.000000 -0.307550
    4 14.875443 0.000000 -0.000001 0.230856 0.118877 -0.456774
    5 0.000006 -0.000004 -4.427393 -5.917220 2.906237 0.014613
    6 18.465940 0.000000 0.000000 0.000000 0.000000 -0.345625
    7 14.875443 0.000000 0.000000 0.107043 -0.227927 0.006693
    8 2.255207 -0.007574 0.000003 -0.103975 0.191094 0.150343
    9 9.514226 -0.009357 0.000000 0.027463 0.138263 0.110580
    10 2.450429 5.076128 0.001325 3.015462 -1.570796 0.000000
    11 6.312407 -4.528058 0.001311 3.150486 -1.570796 0.000000
    12 2.233310 1.152535 -7.309138 -1.382221 -1.744963 -0.266063
    13 11.751820 -0.001633 0.000000 -0.160306 -0.175635 0.474136
    14 -2.398755 1.276743 -2.091115 0.227694 0.792327 2.889062
    15 4.640942 0.000000 0.000000 0.984000 0.406038 -0.779067
    16 10.828047 0.000000 0.000000 0.000000 0.000000 -0.589022
    17 9.393338 0.000000 0.000001 1.485767 0.394831 -0.318293
    18 1.442242 0.107453 1.746178 -1.648857 -0.538618 0.330945
    19 1.063451 0.000000 -0.000001 0.000000 0.000000 0.097235
    20 4.172844 -0.251366 1.312745 -0.003292 -0.096007 0.099328
    21 1.215373 0.000000 0.000001 0.000000 0.000000 0.315290
    22 1.215372 0.000000 0.000001 0.000000 0.000000 0.315290
    23 4.220531 -0.244854 0.431466 -0.000014 -0.026266 0.099210
    24 1.350417 0.000001 -0.000001 0.000000 0.000000 0.421762
    25 1.350410 -0.000001 0.000001 0.000000 0.000000 0.421790
    26 4.262825 -0.232720 -1.392178 0.008846 0.078011 0.150758
    27 -1.480758 0.444674 3.059898 -0.950934 -1.217415 3.540419
    28 4.640942 0.000000 -0.000001 -1.204075 0.061906 -0.606705
    29 10.828047 0.000000 -0.000002 0.000000 0.000000 -1.773796
    30 9.393336 -0.000001 0.000000 -0.976993 -0.331366 -0.085820
    31 1.442245 0.107453 -1.746177 1.656785 0.466348 0.228990
    32 1.063452 -0.000001 -0.000001 0.000000 0.000000 0.187850
    33 1.376307 -0.000001 0.000000 0.000000 0.000000 0.187876
    34 4.172847 -0.251366 -1.312744 0.003856 0.095995 0.104857
    35 1.215373 0.000001 0.000000 0.000000 0.000000 0.352366
    36 1.215371 -0.000001 0.000000 0.000000 0.000000 0.352366
    37 4.220535 -0.244855 -0.431465 0.000158 0.026266 0.104735
    38 1.350416 0.000000 0.000000 0.000000 0.000000 0.471491
    39 1.350410 -0.000001 -0.000001 0.000000 0.000000 0.471526
    40 4.237636 -0.195359 0.527090 -0.000177 0.008861 0.166653
    41 1.215376 0.000001 0.000001 0.000000 0.000000 0.533416
    42 1.215371 0.000000 0.000000 0.000000 0.000000 0.533443
    43 4.262829 -0.232721 1.392178 -0.009769 -0.077903 0.162300
    44 1.012811 0.000000 0.000000 0.000000 0.000000 0.528704
    45 1.012809 -0.000001 0.000000 0.000000 0.000000 0.528704
    46 1.376306 -0.000001 0.000000 0.000000 0.000000 0.097209
    47 4.237632 -0.195359 -0.527090 0.000285 -0.008861 0.154527
    48 1.215375 0.000001 -0.000001 0.000000 0.000000 0.477160
    49 1.215371 0.000000 0.000001 0.000000 0.000000 0.477223
    50 1.012810 0.000001 0.000000 0.000000 0.000000 0.472880
    51 1.012810 -0.000001 0.000000 0.000000 0.000000 0.472880
    52 2.110540 0.000000 0.000000 0.615705 0.355639 -0.591496
    53 5.253243 3.139475 -1.673515 2.984594 -1.570796 0.000000
    54 5.253259 3.139473 -0.054760 2.953104 -1.570796 0.000000
    55 5.253252 3.139468 1.574632 2.984594 -1.570796 0.000000
    56 4.598148 4.158443 -1.350299 2.760830 -1.570796 0.000000
    57 4.598139 4.158430 -0.054439 2.857834 -1.570796 0.000000
    58 4.598140 4.158430 1.240876 2.760830 -1.570796 0.000000
    59 0.891927 2.373051 -0.014527 -3.141592 -0.000001 1.507063
    60 7.228122 5.709446 3.726568 3.295614 -1.570796 0.000000
  time 15
    0 4.535166 -1.672531 5.920964 -0.073154 1.434095 -1.363654
    1 -1.066112 2.527421 0.000000 -1.570795 -1.570451 0.000000
    2 -0.000006 0.000008 4.427393 0.156923 -2.943982 -0.046409
    3 18.465940 0.000000 0.000000 0.000000 0.000000 -0.216610
    4 14.875443 0.000000 -0.000001 0.459883 0.097210 -0.545894
    5 0.000006 -0.000004 -4.427393 -5.915206 2.947943 -0.017304
    6 18.465940 0.000000 0.000000 0.000000 0.000000 -0.274283
    7 14.875443 0.000000 0.000000 0.131468 -0.174635 -0.109529
    8 2.255207 -0.007574 0.000003 -0.105636 0.185069 0.092211
    9 9.514226 -0.009357 0.000000 0.027538 0.140265 -0.016929
    10 2.450429 5.076128 0.001325 3.023274 -1.570796 0.000000
    11 6.312407 -4.528058 0.001311 3.149516 -1.570796 0.000000
    12 2.233310 1.152535 -7.309138 -0.837298 -1.762933 -0.868653
    13 11.751820 -0.001633 0.000000 -0.160306 -0.175635 0.474136
    14 -2.398755 1.276743 -2.091115 0.208070 0.889180 2.881084
    15 4.640942 0.000000 0.000000 1.086732 0.205189 -0.662059
    16 10.828047 0.000000 0.000000 0.000000 0.000000 -0.617056
    17 9.393338 0.000000 0.000001 1.259680 0.394668 -0.370567
    18 1.442242 0.107453 1.746178 -1.671404 -0.538955 0.327855
    19 1.063451 0.000000 -0.000001 0.000000 0.000000 0.158320
    20 4.172844 -0.251366 1.312745 -0.006157 -0.095875 0.128939
    21 1.215373 0.000000 0.000001 0.000000 0.000000 0.513547
    22 1.215372 0.000000 0.000001 0.000000 0.000000 0.513547
    23 4.220531 -0.244854 0.431466 -0.000793 -0.026254 0.128676
    24 1.350417 0.000001 -0.000001 0.000000 0.000000 0.687000
    25 1.350410 -0.000001 0.000001 0.000000 0.000000 0.687079
    26 4.262825 -0.232720 -1.392178 0.013664 0.077315 0.212487
    27 -1.480758 0.444674 3.059898 -1.028867 -1.249144 3.628142
    28 4.640942 0.000000 -0.000001 -1.151059 0.174465 -0.580716
    29 10.828047 0.000000 -0.000002 0.000000 0.000000 -1.780629
    30 9.393336 -0.000001 0.000000 -0.928253 -0.299425 -0.077566
    31 1.442245 0.107453 -1.746177 1.673168 0.509685 0.285432
    32 1.063452 -0.000001 -0.000001 0.000000 0.000000 0.194478
    33 1.376307 -0.000001 0.000000 0.000000 0.000000 0.194468
    34 4.172847 -0.251366 -1.312744 0.006300 0.095863 0.130742
    35 1.215373 0.000001 0.000000 0.000000 0.000000 0.525584
    36 1.215371 -0.000001 0.000000 0.000000 0.000000 0.525584
    37 4.220535 -0.244855 -0.431465 0.000841 0.026254 0.130477
    38 1.350416 0.000000 0.000000 0.000000 0.000000 0.703220
    39 1.350410 -0.000001 -0.000001 0.000000 0.000000 0.703252
    40 4.237636 -0.195359 0.527090 0.000290 0.008861 0.222750
    41 1.215376 0.000001 0.000001 0.000000 0.000000 0.795628
    42 1.215371 0.000000 0.000000 0.000000 0.000000 0.795606
    43 4.262829 -0.232721 1.392178 -0.013952 -0.077268 0.216268
    44 1.012811 0.000000 0.000000 0.000000 0.000000 0.788455
    45 1.012809 -0.000001 0.000000 0.000000 0.000000 0.788455
    46 1.376306 -0.000001 0.000000 0.000000 0.000000 0.158313
    47 4.237632 -0.195359 -0.527090 -0.000254 -0.008861 0.218894
    48 1.215375 0.000001 -0.000001 0.000000 0.000000 0.777274
    49 1.215371 0.000000 0.000001 0.000000 0.000000 0.777290
    50 1.012810 0.000001 0.000000 0.000000 0.000000 0.770391
    51 1.012810 -0.000001 0.000000 0.000000 0.000000 0.770391
    52 2.110540 0.000000 0.000000 0.680849 0.195710 -0.193146
    53 5.253243 3.139475 -1.673515 2.984594 -1.570796 0.000000
    54 5.253259 3.139473 -0.054760 2.958692 -1.570796 0.000000
    55 5.253252 3.139468 1.574632 2.984594 -1.570796 0.000000
    56 4.598148 4.158443 -1.350299 2.768345 -1.570796 0.000000
    57 4.598139 4.158430 -0.054439 2.880227 -1.570796 0.000000
    58 4.598140 4.158430 1.240876 2.768345 -1.570796 0.000000
    59 0.891927 2.373051 -0.014527 -3.141592 -0.000001 1.508885
    60 7.228122 5.709446 3.726568 3.279847 -1.570796 0.000000
  time 16
    0 4.535166 -1.672531 6.236004 -0.022148 1.478516 -1.349273
    1 -0.304370 2.441481 0.000000 -1.570795 -1.570451 0.000000
    2 -0.000006 0.000008 4.427393 0.165647 -2.935450 6.204561
    3 18.465940 0.000000 0.000000 0.000000 0.000000 -0.215440
    4 14.875443 0.000000 -0.000001 0.610304 0.076011 -0.546131
    5 0.000006 -0.000004 -4.427393 -5.917507 2.965105 -0.052671
    6 18.465940 0.000000 0.000000 0.000000 0.000000 -0.285178
    7 14.875443 0.000000 0.000000 0.149717 -0.132226 -0.156311
    8 2.255207 -0.007574 0.000003 -0.106568 0.180812 0.051682
    9 9.514226 -0.009357 0.000000 0.028251 0.139324 -0.100232
    10 2.450429 5.076128 0.001325 3.031699 -1.570796 0.000000
    11 6.312407 -4.528058 0.001311 3.148802 -1.570796 0.000000
    12 2.233310 1.152535 -7.309138 -0.854171 -1.730109 -0.860898
    13 11.751820 -0.001633 0.000000 -0.160306 -0.175635 0.474136
    14 -2.398755 1.276743 -2.091115 0.200943 0.956690 2.880063
    15 4.640942 0.000000 0.000000 1.152194 0.047788 -0.592765
    16 10.828047 0.000000 0.000000 0.000000 0.000000 -0.666307
    17 9.393338 0.000000 0.000001 1.106564 0.390504 -0.406791
    18 1.442242 0.107453 1.746178 -1.686405 -0.539236 0.325847
    19 1.063451 0.000000 -0.000001 0.000000 0.000000 0.199056
    20 4.172844 -0.251366 1.312745 -0.008026 -0.095731 0.148653
    21 1.215373 0.000000 0.000001 0.000000 0.000000 0.645746
    22 1.215372 0.000000 0.000001 0.000000 0.000000 0.645746
    23 4.220531 -0.244854 0.431466 -0.001333 -0.026242 0.148333
    24 1.350417 0.000001 -0.000001 0.000000 0.000000 0.863854
    25 1.350410 -0.000001 0.000001 0.000000 0.000000 0.863875
    26 4.262825 -0.232720 -1.392178 0.016840 0.076668 0.253759
    27 -1.480758 0.444674 3.059898 -1.080695 -1.267224 3.685701
    28 4.640942 0.000000 -0.000001 -1.116046 0.239908 -0.559058
    29 10.828047 0.000000 -0.000002 0.000000 0.000000 -1.781300
    30 9.393336 -0.000001 0.000000 -0.893518 -0.277953 -0.071754
    31 1.442245 0.107453 -1.746177 1.686435 0.539221 0.325885
    32 1.063452 -0.000001 -0.000001 0.000000 0.000000 0.199056
    33 1.376307 -0.000001 0.000000 0.000000 0.000000 0.199053
    34 4.172847 -0.251366 -1.312744 0.008026 0.095731 0.148653
    35 1.215373 0.000001 0.000000 0.000000 0.000000 0.645758
    36 1.215371 -0.000001 0.000000 0.000000 0.000000 0.645758
    37 4.220535 -0.244855 -0.431465 0.001333 0.026242 0.148333
    38 1.350416 0.000000 0.000000 0.000000 0.000000 0.863850
    39 1.350410 -0.000001 -0.000001 0.000000 0.000000 0.863880
    40 4.237636 -0.195359 0.527090 0.000662 0.008837 0.261753
    41 1.215376 0.000001 0.000001 0.000000 0.000000 0.977275
    42 1.215371 0.000000 0.000000 0.000000 0.000000 0.977290
    43 4.262829 -0.232721 1.392178 -0.016840 -0.076668 0.253759
    44 1.012811 0.000000 0.000000 0.000000 0.000000 0.968559
    45 1.012809 -0.000001 0.000000 0.000000 0.000000 0.968559
    46 1.376306 -0.000001 0.000000 0.000000 0.000000 0.199056
    47 4.237632 -0.195359 -0.527090 -0.000662 -0.008837 0.261713
    48 1.215375 0.000001 -0.000001 0.000000 0.000000 0.977293
    49 1.215371 0.000000 0.000001 0.000000 0.000000 0.977318
    50 1.012810 0.000001 0.000000 0.000000 0.000000 0.968648
    51 1.012810 -0.000001 0.000000 0.000000 0.000000 0.968648
    52 2.110540 0.000000 0.000000 0.728563 0.065277 0.069568
    53 5.253243 3.139475 -1.673515 2.984594 -1.570796 0.000000
    54 5.253259 3.139473 -0.054760 2.964705 -1.570796 0.000000
    55 5.253252 3.139468 1.574632 2.984594 -1.570796 0.000000
    56 4.598148 4.158443 -1.350299 2.776167 -1.570796 0.000000
    57 4.598139 4.158430 -0.054439 2.904158 -1.570796 0.000000
    58 4.598140 4.158430 1.240876 2.776167 -1.570796 0.000000
    59 0.891927 2.373051 -0.014527 -3.141592 -0.000001 1.510342
    60 7.228122 5.709446 3.726568 3.243944 -1.570796 0.000000
  time 17
    0 4.535166 -1.672531 6.299012 0.021285 1.494368 -1.329522
    1 -0.069987 2.390698 0.000000 -1.570795 -1.570451 0.000000
    2 -0.000006 0.000008 4.427393 0.169098 -2.933436 6.191426
    3 18.465940 0.000000 0.000000 0.000000 0.000000 -0.216537
    4 14.875443 0.000000 -0.000001 0.646958 0.060857 -0.538428
    5 0.000006 -0.000004 -4.427393 -5.917411 2.971145 -0.059667
    6 18.465940 0.000000 0.000000 0.000000 0.000000 -0.279402
    7 14.875443 0.000000 0.000000 0.157403 -0.119524 -0.198140
    8 2.255207 -0.007574 0.000003 -0.106973 0.179121 0.035767
    9 9.514226 -0.009357 0.000000 0.029939 0.134029 -0.120235
    10 2.450429 5.076128 0.001325 3.040475 -1.570796 0.000000
    11 6.312407 -4.528058 0.001311 3.147935 -1.570796 0.000000
    12 2.233310 1.152535 -7.309138 -1.041788 -1.707479 -0.670949
    13 11.751820 -0.001633 0.000000 -0.160306 -0.175635 0.474136
    14 -2.398755 1.276743 -2.091115 0.216216 0.981423 2.896576
    15 4.640942 0.000000 0.000000 1.194911 -0.045035 -0.578874
    16 10.828047 0.000000 0.000000 0.000000 0.000000 -0.755874
    17 9.393338 0.000000 0.000001 1.060916 0.386340 -0.416102
    18 1.442242 0.107453 1.746178 -1.691042 -0.539461 0.325229
    19 1.063451 0.000000 -0.000001 0.000000 0.000000 0.211927
    20 4.172844 -0.251366 1.312745 -0.008613 -0.095683 0.154904
    21 1.215373 0.000000 0.000001 0.000000 0.000000 0.687588
    22 1.215372 0.000000 0.000001 0.000000 0.000000 0.687588
    23 4.220531 -0.244854 0.431466 -0.001489 -0.026230 0.154538
    24 1.350417 0.000001 -0.000001 0.000000 0.000000 0.919881
    25 1.350410 -0.000001 0.000001 0.000000 0.000000 0.919833
    26 4.262825 -0.232720 -1.392178 0.017835 0.076465 0.266694
    27 -1.480758 0.444674 3.059898 -1.076884 -1.268609 3.682265
    28 4.640942 0.000000 -0.000001 -1.108224 0.236805 -0.556015
    29 10.828047 0.000000 -0.000002 0.000000 0.000000 -1.774162
    30 9.393336 -0.000001 0.000000 -0.877855 -0.270808 -0.071216
    31 1.442245 0.107453 -1.746177 1.691876 0.550228 0.341504
    32 1.063452 -0.000001 -0.000001 0.000000 0.000000 0.200757
    33 1.376307 -0.000001 0.000000 0.000000 0.000000 0.200787
    34 4.172847 -0.251366 -1.312744 0.008673 0.095671 0.155425
    35 1.215373 0.000001 0.000000 0.000000 0.000000 0.691165
    36 1.215371 -0.000001 0.000000 0.000000 0.000000 0.691165
    37 4.220535 -0.244855 -0.431465 0.001513 0.026230 0.155099
    38 1.350416 0.000000 0.000000 0.000000 0.000000 0.924649
    39 1.350410 -0.000001 -0.000001 0.000000 0.000000 0.924636
    40 4.237636 -0.195359 0.527090 0.000769 0.008825 0.276503
    41 1.215376 0.000001 0.000001 0.000000 0.000000 1.046039
    42 1.215371 0.000000 0.000000 0.000000 0.000000 1.046010
    43 4.262829 -0.232721 1.392178 -0.017907 -0.076453 0.267887
    44 1.012811 0.000000 0.000000 0.000000 0.000000 1.036698
    45 1.012809 -0.000001 0.000000 0.000000 0.000000 1.036698
    46 1.376306 -0.000001 0.000000 0.000000 0.000000 0.211947
    47 4.237632 -0.195359 -0.527090 -0.000758 -0.008825 0.275310
    48 1.215375 0.000001 -0.000001 0.000000 0.000000 1.040707
    49 1.215371 0.000000 0.000001 0.000000 0.000000 1.040623
    50 1.012810 0.000001 0.000000 0.000000 0.000000 1.031390
    51 1.012810 -0.000001 0.000000 0.000000 0.000000 1.031390
    52 2.110540 0.000000 0.000000 0.796740 0.010884 0.127968
    53 5.253243 3.139475 -1.673515 2.984594 -1.570796 0.000000
    54 5.253259 3.139473 -0.054760 2.970718 -1.570796 0.000000
    55 5.253252 3.139468 1.574632 2.984594 -1.570796 0.000000
    56 4.598148 4.158443 -1.350299 2.783835 -1.570796 0.000000
    57 4.598139 4.158430 -0.054439 2.928089 -1.570796 0.000000
    58 4.598140 4.158430 1.240876 2.783835 -1.570796 0.000000
    59 0.891927 2.373051 -0.014527 -3.141592 -0.000001 1.512255
    60 7.228122 5.709446 3.726568 3.200159 -1.570796 0.000000
  time 18
    0 4.535166 -1.672531 6.141492 0.031543 1.492514 -1.330960
    1 -0.132489 2.367260 0.000000 -1.570795 -1.570451 0.000000
    2 -0.000006 0.000008 4.427393 0.170536 -2.934203 6.184235
    3 18.465940 0.000000 0.000000 0.000000 0.000000 -0.229695
    4 14.875443 0.000000 -0.000001 0.644434 0.049044 -0.516622
    5 0.000006 -0.000004 -4.427393 -5.917507 2.971145 -0.059763
    6 18.465940 0.000000 0.000000 0.000000 0.000000 -0.279927
    7 14.875443 0.000000 0.000000 0.161439 -0.116099 -0.230404
    8 2.255207 -0.007574 0.000003 -0.107095 0.179292 0.037521
    9 9.514226 -0.009357 0.000000 0.032378 0.127807 -0.109086
    10 2.450429 5.076128 0.001325 3.048725 -1.570796 0.000000
    11 6.312407 -4.528058 0.001311 3.146557 -1.570796 0.000000
    12 2.233310 1.152535 -7.309138 -1.281557 -1.691664 -0.407280
    13 11.751820 -0.001633 0.000000 -0.160306 -0.175635 0.474136
    14 -2.398755 1.276743 -2.091115 0.242689 0.985015 2.922645
    15 4.640942 0.000000 0.000000 1.229123 -0.102500 -0.597865
    16 10.828047 0.000000 0.000000 0.000000 0.000000 -0.860292
    17 9.393338 0.000000 0.000001 1.065939 0.386828 -0.415083
    18 1.442242 0.107453 1.746178 -1.690587 -0.539292 0.325229
    19 1.063451 0.000000 -0.000001 0.000000 0.000000 0.210513
    20 4.172844 -0.251366 1.312745 -0.008553 -0.095683 0.154223
    21 1.215373 0.000000 0.000001 0.000000 0.000000 0.682845
    22 1.215372 0.000000 0.000001 0.000000 0.000000 0.682845
    23 4.220531 -0.244854 0.431466 -0.001477 -0.026230 0.153857
    24 1.350417 0.000001 -0.000001 0.000000 0.000000 0.913670
    25 1.350410 -0.000001 0.000001 0.000000 0.000000 0.913632
    26 4.262825 -0.232720 -1.392178 0.017727 0.076489 0.265301
    27 -1.480758 0.444674 3.059898 -1.037251 -1.261332 3.640742
    28 4.640942 0.000000 -0.000001 -1.114618 0.187452 -0.559000
    29 10.828047 0.000000 -0.000002 0.000000 0.000000 -1.753845
    30 9.393336 -0.000001 0.000000 -0.879513 -0.271649 -0.071363
    31 1.442245 0.107453 -1.746177 1.691253 0.549058 0.339739
    32 1.063452 -0.000001 -0.000001 0.000000 0.000000 0.200590
    33 1.376307 -0.000001 0.000000 0.000000 0.000000 0.200587
    34 4.172847 -0.251366 -1.312744 0.008601 0.095683 0.154664
    35 1.215373 0.000001 0.000000 0.000000 0.000000 0.686061
    36 1.215371 -0.000001 0.000000 0.000000 0.000000 0.686061
    37 4.220535 -0.244855 -0.431465 0.001489 0.026230 0.154338
    38 1.350416 0.000000 0.000000 0.000000 0.000000 0.917852
    39 1.350410 -0.000001 -0.000001 0.000000 0.000000 0.917881
    40 4.237636 -0.195359 0.527090 0.000758 0.008825 0.274873
    41 1.215376 0.000001 0.000001 0.000000 0.000000 1.038408
    42 1.215371 0.000000 0.000000 0.000000 0.000000 1.038379
    43 4.262829 -0.232721 1.392178 -0.017799 -0.076477 0.266296
    44 1.012811 0.000000 0.000000 0.000000 0.000000 1.029108
    45 1.012809 -0.000001 0.000000 0.000000 0.000000 1.029108
    46 1.376306 -0.000001 0.000000 0.000000 0.000000 0.210514
    47 4.237632 -0.195359 -0.527090 -0.000758 -0.008825 0.273839
    48 1.215375 0.000001 -0.000001 0.000000 0.000000 1.033572
    49 1.215371 0.000000 0.000001 0.000000 0.000000 1.033611
    50 1.012810 0.000001 0.000000 0.000000 0.000000 1.024339
    51 1.012810 -0.000001 0.000000 0.000000 0.000000 1.024339
    52 2.110540 0.000000 0.000000 0.876229 -0.015906 0.098940
    53 5.253243 3.139475 -1.673515 2.984594 -1.570796 0.000000
    54 5.253259 3.139473 -0.054760 2.976346 -1.570796 0.000000
    55 5.253252 3.139468 1.574632 2.984594 -1.570796 0.000000
    56 4.598148 4.158443 -1.350299 2.790890 -1.570796 0.000000
    57 4.598139 4.158430 -0.054439 2.950498 -1.570796 0.000000
    58 4.598140 4.158430 1.240876 2.790890 -1.570796 0.000000
    59 0.891927 2.373051 -0.014527 -3.141592 -0.000001 1.513894
    60 7.228122 5.709446 3.726568 3.160362 -1.570796 0.000000
  time 19
    0 4.535166 -1.672531 5.952468 0.026845 1.483694 -1.342849
    1 -0.312182 2.367260 0.000000 -1.570795 -1.570451 0.000000
    2 -0.000006 0.000008 4.427393 0.171207 -2.936121 6.179441
    3 18.465940 0.000000 0.000000 0.000000 0.000000 -0.247679
    4 14.875443 0.000000 -0.000001 0.626267 0.038998 -0.488930
    5 0.000006 -0.000004 -4.427393 -5.917603 2.968748 -0.057175
    6 18.465940 0.000000 0.000000 0.000000 0.000000 -0.282946
    7 14.875443 0.000000 0.000000 0.163966 -0.116341 -0.258878
    8 2.255207 -0.007574 0.000003 -0.107095 0.180223 0.046322
    9 9.514226 -0.009357 0.000000 0.034854 0.121181 -0.085511
    10 2.450429 5.076128 0.001325 3.056185 -1.570796 0.000000
    11 6.312407 -4.528058 0.001311 3.144261 -1.570796 0.000000
    12 2.233310 1.152535 -7.309138 1.552060 -1.467403 3.045598
    13 11.751820 -0.001633 0.000000 -0.160306 -0.175635 0.474136
    14 -2.398755 1.276743 -2.091115 0.272866 0.979782 2.951867
    15 4.640942 0.000000 0.000000 1.260181 -0.145738 -0.631453
    16 10.828047 0.000000 0.000000 0.000000 0.000000 -0.970562
    17 9.393338 0.000000 0.000001 1.091274 0.389170 -0.409895
    18 1.442242 0.107453 1.746178 -1.687859 -0.539236 0.325641
    19 1.063451 0.000000 -0.000001 0.000000 0.000000 0.203334
    20 4.172844 -0.251366 1.312745 -0.008242 -0.095719 0.150737
    21 1.215373 0.000000 0.000001 0.000000 0.000000 0.659595
    22 1.215372 0.000000 0.000001 0.000000 0.000000 0.659595
    23 4.220531 -0.244854 0.431466 -0.001381 -0.026242 0.150414
    24 1.350417 0.000001 -0.000001 0.000000 0.000000 0.882487
    25 1.350410 -0.000001 0.000001 0.000000 0.000000 0.882528
    26 4.262825 -0.232720 -1.392178 0.017139 0.076596 0.258097
    27 -1.480758 0.444674 3.059898 -0.986566 -1.249748 3.587001
    28 4.640942 0.000000 -0.000001 -1.126786 0.119773 -0.563683
    29 10.828047 0.000000 -0.000002 0.000000 0.000000 -1.728281
    30 9.393336 -0.000001 0.000000 -0.888266 -0.275584 -0.071656
    31 1.442245 0.107453 -1.746177 1.688221 0.542902 0.331078
    32 1.063452 -0.000001 -0.000001 0.000000 0.000000 0.199631
    33 1.376307 -0.000001 0.000000 0.000000 0.000000 0.199627
    34 4.172847 -0.251366 -1.312744 0.008266 0.095707 0.150897
    35 1.215373 0.000001 0.000000 0.000000 0.000000 0.660907
    36 1.215371 -0.000001 0.000000 0.000000 0.000000 0.660907
    37 4.220535 -0.244855 -0.431465 0.001393 0.026242 0.150575
    38 1.350416 0.000000 0.000000 0.000000 0.000000 0.884158
    39 1.350410 -0.000001 -0.000001 0.000000 0.000000 0.884146
    40 4.237636 -0.195359 0.527090 0.000710 0.008837 0.266682
    41 1.215376 0.000001 0.000001 0.000000 0.000000 1.000252
    42 1.215371 0.000000 0.000000 0.000000 0.000000 1.000224
    43 4.262829 -0.232721 1.392178 -0.017175 -0.076584 0.258375
    44 1.012811 0.000000 0.000000 0.000000 0.000000 0.991328
    45 1.012809 -0.000001 0.000000 0.000000 0.000000 0.991328
    46 1.376306 -0.000001 0.000000 0.000000 0.000000 0.203353
    47 4.237632 -0.195359 -0.527090 -0.000698 -0.008837 0.266285
    48 1.215375 0.000001 -0.000001 0.000000 0.000000 0.998487
    49 1.215371 0.000000 0.000001 0.000000 0.000000 0.998404
    50 1.012810 0.000001 0.000000 0.000000 0.000000 0.989548
    51 1.012810 -0.000001 0.000000 0.000000 0.000000 0.989548
    52 2.110540 0.000000 0.000000 0.960294 -0.028925 0.034218
    53 5.253243 3.139475 -1.673515 2.984594 -1.570796 0.000000
    54 5.253259 3.139473 -0.054760 2.981087 -1.570796 0.000000
    55 5.253252 3.139468 1.574632 2.984594 -1.570796 0.000000
    56 4.598148 4.158443 -1.350299 2.796871 -1.570796 0.000000
    57 4.598139 4.158430 -0.054439 2.969846 -1.570796 0.000000
    58 4.598140 4.158430 1.240876 2.796871 -1.570796 0.000000
    59 0.891927 2.373051 -0.014527 -3.141592 -0.000001 1.516080
    60 7.228122 5.709446 3.726568 3.136807 -1.570796 0.000000
  time 20
    0 4.535166 -1.672531 5.779196 0.029818 1.478516 -1.349273
    1 -0.441092 2.359447 0.000000 -1.570795 -1.570451 0.000000
    2 -0.000006 0.000008 4.427393 0.172166 -2.937463 6.173497
    3 18.465940 0.000000 0.000000 0.000000 0.000000 -0.263250
    4 14.875443 0.000000 -0.000001 0.615708 0.028356 -0.464122
    5 0.000006 -0.000004 -4.427393 -5.917699 2.967502 -0.055929
    6 18.465940 0.000000 0.000000 0.000000 0.000000 -0.284718
    7 14.875443 0.000000 0.000000 0.167089 -0.114644 -0.289228
    8 2.255207 -0.007574 0.000003 -0.107176 0.180774 0.051582
    9 9.514226 -0.009357 0.000000 0.037105 0.114690 -0.068171
    10 2.450429 5.076128 0.001325 3.062417 -1.570796 0.000000
    11 6.312407 -4.528058 0.001311 3.140791 -1.570796 0.000000
    12 2.233310 1.152535 -7.309138 1.269532 -1.458374 -2.951485
    13 11.751820 -0.001633 0.000000 -0.160306 -0.175635 0.474136
    14 -2.398755 1.276743 -2.091115 0.301005 0.978328 2.979327
    15 4.640942 0.000000 0.000000 1.293629 -0.195462 -0.661510
    16 10.828047 0.000000 0.000000 0.000000 0.000000 -1.078003
    17 9.393338 0.000000 0.000001 1.106564 0.390504 -0.406791
    18 1.442242 0.107453 1.746178 -1.686405 -0.539236 0.325847
    19 1.063451 0.000000 -0.000001 0.000000 0.000000 0.199056
    20 4.172844 -0.251366 1.312745 -0.008026 -0.095731 0.148653
    21 1.215373 0.000000 0.000001 0.000000 0.000000 0.645746
    22 1.215372 0.000000 0.000001 0.000000 0.000000 0.645746
    23 4.220531 -0.244854 0.431466 -0.001333 -0.026242 0.148333
    24 1.350417 0.000001 -0.000001 0.000000 0.000000 0.863854
    25 1.350410 -0.000001 0.000001 0.000000 0.000000 0.863875
    26 4.262825 -0.232720 -1.392178 0.016840 0.076668 0.253759
    27 -1.480758 0.444674 3.059898 -0.945503 -1.239373 3.543378
    28 4.640942 0.000000 -0.000001 -1.136160 0.061617 -0.566960
    29 10.828047 0.000000 -0.000002 0.000000 0.000000 -1.705279
    30 9.393336 -0.000001 0.000000 -0.893518 -0.277953 -0.071754
    31 1.442245 0.107453 -1.746177 1.686435 0.539221 0.325885
    32 1.063452 -0.000001 -0.000001 0.000000 0.000000 0.199056
    33 1.376307 -0.000001 0.000000 0.000000 0.000000 0.199053
    34 4.172847 -0.251366 -1.312744 0.008026 0.095731 0.148653
    35 1.215373 0.000001 0.000000 0.000000 0.000000 0.645758
    36 1.215371 -0.000001 0.000000 0.000000 0.000000 0.645758
    37 4.220535 -0.244855 -0.431465 0.001333 0.026242 0.148333
    38 1.350416 0.000000 0.000000 0.000000 0.000000 0.863850
    39 1.350410 -0.000001 -0.000001 0.000000 0.000000 0.863880
    40 4.237636 -0.195359 0.527090 0.000662 0.008837 0.261753
    41 1.215376 0.000001 0.000001 0.000000 0.000000 0.977275
    42 1.215371 0.000000 0.000000 0.000000 0.000000 0.977290
    43 4.262829 -0.232721 1.392178 -0.016840 -0.076668 0.253759
    44 1.012811 0.000000 0.000000 0.000000 0.000000 0.968559
    45 1.012809 -0.000001 0.000000 0.000000 0.000000 0.968559
    46 1.376306 -0.000001 0.000000 0.000000 0.000000 0.199056
    47 4.237632 -0.195359 -0.527090 -0.000662 -0.008837 0.261713
    48 1.215375 0.000001 -0.000001 0.000000 0.000000 0.977293
    49 1.215371 0.000000 0.000001 0.000000 0.000000 0.977318
    50 1.012810 0.000001 0.000000 0.000000 0.000000 0.968648
    51 1.012810 -0.000001 0.000000 0.000000 0.000000 0.968648
    52 2.110540 0.000000 0.000000 1.042251 -0.045582 -0.015796
    53 5.253243 3.139475 -1.673515 2.984594 -1.570796 0.000000
    54 5.253259 3.139473 -0.054760 2.984594 -1.570796 0.000000
    55 5.253252 3.139468 1.574632 2.984594 -1.570796 0.000000
    56 4.598148 4.158443 -1.350299 2.801396 -1.570796 0.000000
    57 4.598139 4.158430 -0.054439 2.984594 -1.570796 0.000000
    58 4.598140 4.158430 1.240876 2.801396 -1.570796 0.000000
    59 0.891927 2.373051 -0.014527 -3.141592 -0.000001 1.518357
    60 7.228122 5.709446 3.726568 3.140796 -1.570796 0.000000
end
