version 1
nodes
  0 "Bip01" -1
  1 "Bip01 Pelvis" 0
  2 "Bip01 L Thigh" 1
  3 "Bip01 L Calf" 2
  4 "Bip01 L Foot" 3
  5 "Bip01 R Thigh" 1
  6 "Bip01 R Calf" 5
  7 "Bip01 R Foot" 6
  8 "Bip01 Spine" 1
  9 "Bip01 Spine1" 8
  10 "Armour Front" 8
  11 "Armour Back" 8
  12 "Holster" 1
  13 "Bip01 Neck" 9
  14 "Bip01 R Clavicle" 13
  15 "Bip01 R UpperArm" 14
  16 "Bip01 R Forearm" 15
  17 "Bip01 R Hand" 16
  18 "Bip01 R Finger0" 17
  19 "Bip01 R Finger01" 18
  20 "Bip01 R Finger1" 17
  21 "Bip01 R Finger11" 20
  22 "Bip01 R Finger12" 21
  23 "Bip01 R Finger2" 17
  24 "Bip01 R Finger21" 23
  25 "Bip01 R Finger22" 24
  26 "Bip01 R Finger4" 17
  27 "Bip01 L Clavicle" 13
  28 "Bip01 L UpperArm" 27
  29 "Bip01 L Forearm" 28
  30 "Bip01 L Hand" 29
  31 "Bip01 L Finger0" 30
  32 "Bip01 L Finger01" 31
  33 "Bip01 L Finger02" 32
  34 "Bip01 L Finger1" 30
  35 "Bip01 L Finger11" 34
  36 "Bip01 L Finger12" 35
  37 "Bip01 L Finger2" 30
  38 "Bip01 L Finger21" 37
  39 "Bip01 L Finger22" 38
  40 "Bip01 L Finger3" 30
  41 "Bip01 L Finger31" 40
  42 "Bip01 L Finger32" 41
  43 "Bip01 L Finger4" 30
  44 "Bip01 L Finger41" 43
  45 "Bip01 L Finger42" 44
  46 "Bip01 R Finger02" 19
  47 "Bip01 R Finger3" 17
  48 "Bip01 R Finger31" 47
  49 "Bip01 R Finger32" 48
  50 "Bip01 R Finger41" 26
  51 "Bip01 R Finger42" 50
  52 "Bip01 Head" 13
  53 "R_eyebrow" 52
  54 "C_eyebrow" 52
  55 "L_eyebrow" 52
  56 "R_eye" 52
  57 "Eyelids" 52
  58 "L_eye" 52
  59 "Mouth" 52
  60 "ID Tag" 9
end
skeleton
  time 0
    0 1.273347 8.254813 38.228291 -0.032694 -0.000511 -1.632013
    1 1.359744 0.101566 0.000000 -0.000112 -1.518483 -1.570725
    2 -0.000006 0.000008 4.427393 6.134002 -3.138796 0.101912
    3 18.465940 0.000000 0.000000 0.000000 0.000000 -0.309597
    4 14.875443 0.000000 -0.000001 0.036635 -0.030665 0.388482
    5 0.000006 -0.000004 -4.427393 -6.195637 3.102400 5.919063
    6 18.465940 0.000000 0.000000 0.000000 0.000000 -0.544754
    7 14.875443 0.000000 0.000000 0.057490 -0.014668 0.179151
    8 2.255207 -0.007574 0.113288 -0.066293 -0.001559 -0.135285
    9 9.514226 -0.009357 0.000000 0.024649 -0.102877 -0.044531
    10 2.450429 5.076128 0.001325 3.201788 -1.570796 0.000000
    11 6.312407 -4.528058 0.001311 3.201869 -1.570796 0.000000
    12 2.233310 1.152535 -7.309138 -1.044568 -1.534652 -0.988520
    13 11.751820 -0.001633 0.000000 -0.034144 0.101808 0.134371
    14 -1.890927 0.319682 -2.837232 0.445500 1.274328 3.418501
    15 4.640942 0.000000 0.000000 0.636337 -0.022300 -1.749423
    16 10.828047 0.000000 0.000000 0.000000 0.000000 -0.852448
    17 9.393338 0.000000 0.000001 2.229380 0.174790 0.472277
    18 1.442242 0.107453 1.746178 -2.449369 -0.338953 0.923082
    19 1.063451 0.000000 -0.000001 0.000000 0.000000 0.366492
    20 4.172844 -0.251366 1.312745 -0.000488 -0.096055 0.069756
    21 1.215373 0.000000 0.000001 0.000000 0.000000 0.130798
    22 1.215372 0.000000 0.000001 0.000000 0.000000 1.151880
    23 4.220531 -0.244854 0.431466 -0.011400 0.078000 0.147652
    24 1.350417 0.000001 -0.000001 0.000000 0.000000 0.977293
    25 1.350410 -0.000001 0.000001 0.000000 0.000000 1.518344
    26 4.262825 -0.232720 -1.392178 0.021226 -0.052274 0.146778
    27 -2.418287 0.139977 2.430972 -0.077089 -1.168638 3.076220
    28 4.640942 0.000000 -0.000001 -0.482276 -0.062486 -1.733139
    29 10.828047 0.000000 -0.000002 0.000000 0.000000 -0.674416
    30 9.393336 -0.000001 0.000000 -2.174851 -0.327048 0.429300
    31 1.442245 0.107453 -1.746177 1.545065 0.350667 0.095007
    32 1.063452 -0.000001 -0.000001 0.000000 0.000000 0.199056
    33 1.376307 -0.000001 0.000000 0.000000 0.000000 0.199053
    34 4.172847 -0.251366 -1.312744 0.007990 -0.043865 0.147531
    35 1.215373 0.000001 0.000000 0.000000 0.000000 0.645758
    36 1.215371 -0.000001 0.000000 0.000000 0.000000 0.881369
    37 4.220535 -0.244855 -0.431465 0.001333 0.026242 0.148333
    38 1.350416 0.000000 0.000000 0.000000 0.000000 0.732994
    39 1.350410 -0.000001 -0.000001 0.000000 0.000000 1.256567
    40 4.237636 -0.195359 0.527090 0.025769 0.128431 0.455451
    41 1.215376 0.000001 0.000001 0.000000 0.000000 0.401351
    42 1.215371 0.000000 0.000000 0.000000 0.000000 1.326353
    43 4.262829 -0.232721 1.392178 0.025466 0.184116 0.480058
    44 1.012811 0.000000 0.000000 0.000000 0.000000 0.584666
    45 1.012809 -0.000001 0.000000 0.000000 0.000000 0.837704
    46 1.376306 -0.000001 0.000000 0.000000 0.000000 0.811525
    47 4.237632 -0.195359 -0.527090 0.000345 -0.008861 0.148285
    48 1.215375 0.000001 -0.000001 0.000000 0.000000 0.977293
    49 1.215371 0.000000 0.000001 0.000000 0.000000 1.518344
    50 1.012810 0.000001 0.000000 0.000000 0.000000 0.977293
    51 1.012810 -0.000001 0.000000 0.000000 0.000000 1.186713
    52 2.110540 0.000000 0.000000 0.102832 0.247215 -0.196157
    53 5.253243 3.139475 -1.673515 2.984594 -1.570796 0.000000
    54 5.253259 3.139473 -0.054760 3.106741 -1.570796 0.000000
    55 5.253252 3.139468 1.574632 2.984594 -1.570796 0.000000
    56 4.598148 4.158443 -1.350299 2.984594 -1.570796 0.000000
    57 4.598139 4.158430 -0.054439 2.984594 -1.570796 0.000000
    58 4.598140 4.158430 1.240876 2.984594 -1.570796 0.000000
    59 0.891927 2.373051 -0.014527 -3.141592 -0.000001 1.413797
    60 7.228122 5.709446 3.726568 3.140796 -1.570796 0.000000
  time 1
    0 1.273347 8.254813 38.228291 -0.032694 -0.000511 -1.632013
    1 1.508186 0.093753 0.000000 -0.000112 -1.518483 -1.570725
    2 -0.000006 0.000008 4.427393 6.134098 -3.139563 0.113705
    3 18.465940 0.000000 0.000000 0.000000 0.000000 -0.292418
    4 14.875443 0.000000 -0.000001 0.036457 -0.031623 0.383070
    5 0.000006 -0.000004 -4.427393 -6.195541 3.102592 5.922034
    6 18.465940 0.000000 0.000000 0.000000 0.000000 -0.548298
    7 14.875443 0.000000 0.000000 0.057490 -0.014577 0.185642
    8 2.255207 -0.007574 0.113288 -0.066252 -0.002301 -0.146435
    9 9.514226 -0.009357 0.000000 0.025362 -0.102716 -0.051545
    10 2.450429 5.076128 0.001325 3.201788 -1.570796 0.000000
    11 6.312407 -4.528058 0.001311 3.208860 -1.570796 0.000000
    12 2.233310 1.152535 -7.309138 -1.044568 -1.534652 -0.988520
    13 11.751820 -0.001633 0.000000 -0.034144 0.101808 0.134371
    14 -1.890927 0.319682 -2.837232 0.445500 1.274328 3.418501
    15 4.640942 0.000000 0.000000 0.620282 -0.126769 -1.651799
    16 10.828047 0.000000 0.000000 0.000000 0.000000 -1.116260
    17 9.393338 0.000000 0.000001 2.189031 0.318578 0.440030
    18 1.442242 0.107453 1.746178 -2.449369 -0.338953 0.923082
    19 1.063451 0.000000 -0.000001 0.000000 0.000000 0.366492
    20 4.172844 -0.251366 1.312745 -0.000488 -0.096055 0.069756
    21 1.215373 0.000000 0.000001 0.000000 0.000000 0.130798
    22 1.215372 0.000000 0.000001 0.000000 0.000000 1.151880
    23 4.220531 -0.244854 0.431466 -0.011400 0.078000 0.147652
    24 1.350417 0.000001 -0.000001 0.000000 0.000000 0.977293
    25 1.350410 -0.000001 0.000001 0.000000 0.000000 1.518344
    26 4.262825 -0.232720 -1.392178 0.021226 -0.052274 0.146778
    27 -2.418287 0.139977 2.430972 -0.077089 -1.168638 3.076220
    28 4.640942 0.000000 -0.000001 -0.477061 0.019263 -1.643991
    29 10.828047 0.000000 -0.000002 0.000000 0.000000 -0.927922
    30 9.393336 -0.000001 0.000000 -2.073133 -0.449844 0.395405
    31 1.442245 0.107453 -1.746177 1.545065 0.350667 0.095007
    32 1.063452 -0.000001 -0.000001 0.000000 0.000000 0.199056
    33 1.376307 -0.000001 0.000000 0.000000 0.000000 0.199053
    34 4.172847 -0.251366 -1.312744 0.007990 -0.043865 0.147531
    35 1.215373 0.000001 0.000000 0.000000 0.000000 0.645758
    36 1.215371 -0.000001 0.000000 0.000000 0.000000 0.881369
    37 4.220535 -0.244855 -0.431465 0.001333 0.026242 0.148333
    38 1.350416 0.000000 0.000000 0.000000 0.000000 0.732994
    39 1.350410 -0.000001 -0.000001 0.000000 0.000000 1.256567
    40 4.237636 -0.195359 0.527090 0.025769 0.128431 0.455451
    41 1.215376 0.000001 0.000001 0.000000 0.000000 0.401351
    42 1.215371 0.000000 0.000000 0.000000 0.000000 1.326353
    43 4.262829 -0.232721 1.392178 0.025466 0.184116 0.480058
    44 1.012811 0.000000 0.000000 0.000000 0.000000 0.584666
    45 1.012809 -0.000001 0.000000 0.000000 0.000000 0.837704
    46 1.376306 -0.000001 0.000000 0.000000 0.000000 0.811525
    47 4.237632 -0.195359 -0.527090 0.000345 -0.008861 0.148285
    48 1.215375 0.000001 -0.000001 0.000000 0.000000 0.977293
    49 1.215371 0.000000 0.000001 0.000000 0.000000 1.518344
    50 1.012810 0.000001 0.000000 0.000000 0.000000 0.977293
    51 1.012810 -0.000001 0.000000 0.000000 0.000000 1.186713
    52 2.110540 0.000000 0.000000 0.104683 0.245592 -0.168075
    53 5.253243 3.139475 -1.673515 2.984594 -1.570796 0.000000
    54 5.253259 3.139473 -0.054760 3.106741 -1.570796 0.000000
    55 5.253252 3.139468 1.574632 2.984594 -1.570796 0.000000
    56 4.598148 4.158443 -1.350299 2.984594 -1.570796 0.000000
    57 4.598139 4.158430 -0.054439 2.984594 -1.570796 0.000000
    58 4.598140 4.158430 1.240876 2.984594 -1.570796 0.000000
    59 0.891927 2.373051 -0.014527 -3.141592 -0.000001 1.413797
    60 7.228122 5.709446 3.726568 3.140796 -1.570796 0.000000
  time 2
    0 1.273347 8.254813 38.228291 -0.032694 -0.000511 -1.632013
    1 1.676160 0.082034 0.000000 -0.000112 -1.518483 -1.570725
    2 -0.000006 0.000008 4.427393 6.134290 -3.140521 0.127320
    3 18.465940 0.000000 0.000000 0.000000 0.000000 -0.272680
    4 14.875443 0.000000 -0.000001 0.036208 -0.032687 0.376947
    5 0.000006 -0.000004 -4.427393 -6.195445 3.102784 5.925389
    6 18.465940 0.000000 0.000000 0.000000 0.000000 -0.552302
    7 14.875443 0.000000 0.000000 0.057490 -0.014456 0.193070
    8 2.255207 -0.007574 0.113288 -0.066211 -0.003156 -0.159239
    9 9.514226 -0.009357 0.000000 0.026150 -0.102501 -0.059598
    10 2.450429 5.076128 0.001325 3.201788 -1.570796 0.000000
    11 6.312407 -4.528058 0.001311 3.216871 -1.570796 0.000000
    12 2.233310 1.152535 -7.309138 -1.044568 -1.534652 -0.988520
    13 11.751820 -0.001633 0.000000 -0.034144 0.101808 0.134371
    14 -1.890927 0.319682 -2.837232 0.445500 1.274328 3.418501
    15 4.640942 0.000000 0.000000 0.609292 -0.183746 -1.597650
    16 10.828047 0.000000 0.000000 0.000000 0.000000 -1.269223
    17 9.393338 0.000000 0.000001 2.151221 0.393074 0.423882
    18 1.442242 0.107453 1.746178 -2.449369 -0.338953 0.923082
    19 1.063451 0.000000 -0.000001 0.000000 0.000000 0.366492
    20 4.172844 -0.251366 1.312745 -0.000488 -0.096055 0.069756
    21 1.215373 0.000000 0.000001 0.000000 0.000000 0.130798
    22 1.215372 0.000000 0.000001 0.000000 0.000000 1.151880
    23 4.220531 -0.244854 0.431466 -0.011400 0.078000 0.147652
    24 1.350417 0.000001 -0.000001 0.000000 0.000000 0.977293
    25 1.350410 -0.000001 0.000001 0.000000 0.000000 1.518344
    26 4.262825 -0.232720 -1.392178 0.021226 -0.052274 0.146778
    27 -2.418287 0.139977 2.430972 -0.077089 -1.168638 3.076220
    28 4.640942 0.000000 -0.000001 -0.473833 0.065297 -1.602607
    29 10.828047 0.000000 -0.000002 0.000000 0.000000 -1.073070
    30 9.393336 -0.000001 0.000000 -1.994726 -0.509370 0.372450
    31 1.442245 0.107453 -1.746177 1.545065 0.350667 0.095007
    32 1.063452 -0.000001 -0.000001 0.000000 0.000000 0.199056
    33 1.376307 -0.000001 0.000000 0.000000 0.000000 0.199053
    34 4.172847 -0.251366 -1.312744 0.007990 -0.043865 0.147531
    35 1.215373 0.000001 0.000000 0.000000 0.000000 0.645758
    36 1.215371 -0.000001 0.000000 0.000000 0.000000 0.881369
    37 4.220535 -0.244855 -0.431465 0.001333 0.026242 0.148333
    38 1.350416 0.000000 0.000000 0.000000 0.000000 0.732994
    39 1.350410 -0.000001 -0.000001 0.000000 0.000000 1.256567
    40 4.237636 -0.195359 0.527090 0.025769 0.128431 0.455451
    41 1.215376 0.000001 0.000001 0.000000 0.000000 0.401351
    42 1.215371 0.000000 0.000000 0.000000 0.000000 1.326353
    43 4.262829 -0.232721 1.392178 0.025466 0.184116 0.480058
    44 1.012811 0.000000 0.000000 0.000000 0.000000 0.584666
    45 1.012809 -0.000001 0.000000 0.000000 0.000000 0.837704
    46 1.376306 -0.000001 0.000000 0.000000 0.000000 0.811525
    47 4.237632 -0.195359 -0.527090 0.000345 -0.008861 0.148285
    48 1.215375 0.000001 -0.000001 0.000000 0.000000 0.977293
    49 1.215371 0.000000 0.000001 0.000000 0.000000 1.518344
    50 1.012810 0.000001 0.000000 0.000000 0.000000 0.977293
    51 1.012810 -0.000001 0.000000 0.000000 0.000000 1.186713
    52 2.110540 0.000000 0.000000 0.106791 0.243727 -0.135907
    53 5.253243 3.139475 -1.673515 2.984594 -1.570796 0.000000
    54 5.253259 3.139473 -0.054760 3.106741 -1.570796 0.000000
    55 5.253252 3.139468 1.574632 2.984594 -1.570796 0.000000
    56 4.598148 4.158443 -1.350299 2.984594 -1.570796 0.000000
    57 4.598139 4.158430 -0.054439 2.984594 -1.570796 0.000000
    58 4.598140 4.158430 1.240876 2.984594 -1.570796 0.000000
    59 0.891927 2.373051 -0.014527 -3.141592 -0.000001 1.413797
    60 7.228122 5.709446 3.726568 3.140796 -1.570796 0.000000
  time 3
    0 1.273347 8.254813 38.228291 -0.032694 -0.000511 -1.632013
    1 1.848040 0.062502 0.000000 -0.000112 -1.518483 -1.570725
    2 -0.000006 0.000008 4.427393 6.134385 -3.141384 0.141318
    3 18.465940 0.000000 0.000000 0.000000 0.000000 -0.252357
    4 14.875443 0.000000 -0.000001 0.035924 -0.033794 0.370587
    5 0.000006 -0.000004 -4.427393 -6.195349 3.102975 5.928935
    6 18.465940 0.000000 0.000000 0.000000 0.000000 -0.556437
    7 14.875443 0.000000 0.000000 0.057455 -0.014304 0.200723
    8 2.255207 -0.007574 0.113288 -0.066171 -0.004030 -0.172440
    9 9.514226 -0.009357 0.000000 0.027013 -0.102272 -0.067911
    10 2.450429 5.076128 0.001325 3.201788 -1.570796 0.000000
    11 6.312407 -4.528058 0.001311 3.225137 -1.570796 0.000000
    12 2.233310 1.152535 -7.309138 -1.044568 -1.534652 -0.988520
    13 11.751820 -0.001633 0.000000 -0.034144 0.101808 0.134371
    14 -1.890927 0.319682 -2.837232 0.445500 1.274328 3.418501
    15 4.640942 0.000000 0.000000 0.610344 -0.204319 -1.567516
    16 10.828047 0.000000 0.000000 0.000000 0.000000 -1.379428
    17 9.393338 0.000000 0.000001 2.156520 0.375898 0.520139
    18 1.442242 0.107453 1.746178 -2.449369 -0.338953 0.923082
    19 1.063451 0.000000 -0.000001 0.000000 0.000000 0.366492
    20 4.172844 -0.251366 1.312745 -0.000488 -0.096055 0.069756
    21 1.215373 0.000000 0.000001 0.000000 0.000000 0.130798
    22 1.215372 0.000000 0.000001 0.000000 0.000000 1.151880
    23 4.220531 -0.244854 0.431466 -0.011400 0.078000 0.147652
    24 1.350417 0.000001 -0.000001 0.000000 0.000000 0.977293
    25 1.350410 -0.000001 0.000001 0.000000 0.000000 1.518344
    26 4.262825 -0.232720 -1.392178 0.021226 -0.052274 0.146778
    27 -2.418287 0.139977 2.430972 -0.077089 -1.168638 3.076220
    28 4.640942 0.000000 -0.000001 -0.475261 0.089613 -1.584930
    29 10.828047 0.000000 -0.000002 0.000000 0.000000 -1.181916
    30 9.393336 -0.000001 0.000000 -1.997490 -0.507842 0.475649
    31 1.442245 0.107453 -1.746177 1.545065 0.350667 0.095007
    32 1.063452 -0.000001 -0.000001 0.000000 0.000000 0.199056
    33 1.376307 -0.000001 0.000000 0.000000 0.000000 0.199053
    34 4.172847 -0.251366 -1.312744 0.007990 -0.043865 0.147531
    35 1.215373 0.000001 0.000000 0.000000 0.000000 0.645758
    36 1.215371 -0.000001 0.000000 0.000000 0.000000 0.881369
    37 4.220535 -0.244855 -0.431465 0.001333 0.026242 0.148333
    38 1.350416 0.000000 0.000000 0.000000 0.000000 0.732994
    39 1.350410 -0.000001 -0.000001 0.000000 0.000000 1.256567
    40 4.237636 -0.195359 0.527090 0.025769 0.128431 0.455451
    41 1.215376 0.000001 0.000001 0.000000 0.000000 0.401351
    42 1.215371 0.000000 0.000000 0.000000 0.000000 1.326353
    43 4.262829 -0.232721 1.392178 0.025466 0.184116 0.480058
    44 1.012811 0.000000 0.000000 0.000000 0.000000 0.584666
    45 1.012809 -0.000001 0.000000 0.000000 0.000000 0.837704
    46 1.376306 -0.000001 0.000000 0.000000 0.000000 0.811525
    47 4.237632 -0.195359 -0.527090 0.000345 -0.008861 0.148285
    48 1.215375 0.000001 -0.000001 0.000000 0.000000 0.977293
    49 1.215371 0.000000 0.000001 0.000000 0.000000 1.518344
    50 1.012810 0.000001 0.000000 0.000000 0.000000 0.977293
    51 1.012810 -0.000001 0.000000 0.000000 0.000000 1.186713
    52 2.110540 0.000000 0.000000 0.108899 0.241833 -0.102751
    53 5.253243 3.139475 -1.673515 2.984594 -1.570796 0.000000
    54 5.253259 3.139473 -0.054760 3.106741 -1.570796 0.000000
    55 5.253252 3.139468 1.574632 2.984594 -1.570796 0.000000
    56 4.598148 4.158443 -1.350299 2.984594 -1.570796 0.000000
    57 4.598139 4.158430 -0.054439 2.984594 -1.570796 0.000000
    58 4.598140 4.158430 1.240876 2.984594 -1.570796 0.000000
    59 0.891927 2.373051 -0.014527 -3.141592 -0.000001 1.413797
    60 7.228122 5.709446 3.726568 3.140796 -1.570796 0.000000
  time 4
    0 1.273347 8.254813 38.228291 -0.032694 -0.000511 -1.632013
    1 2.008201 0.050783 0.000000 -0.000112 -1.518483 -1.570725
    2 -0.000006 0.000008 4.427393 6.134481 -3.142343 0.154453
    3 18.465940 0.000000 0.000000 0.000000 0.000000 -0.233351
    4 14.875443 0.000000 -0.000001 0.035675 -0.034837 0.364622
    5 0.000006 -0.000004 -4.427393 -6.195254 3.103167 5.932290
    6 18.465940 0.000000 0.000000 0.000000 0.000000 -0.560309
    7 14.875443 0.000000 0.000000 0.057455 -0.014183 0.207926
    8 2.255207 -0.007574 0.113288 -0.066130 -0.004866 -0.184814
    9 9.514226 -0.009357 0.000000 0.027838 -0.102057 -0.075683
    10 2.450429 5.076128 0.001325 3.201788 -1.570796 0.000000
    11 6.312407 -4.528058 0.001311 3.232893 -1.570796 0.000000
    12 2.233310 1.152535 -7.309138 -1.044568 -1.534652 -0.988520
    13 11.751820 -0.001633 0.000000 -0.034144 0.101808 0.134371
    14 -1.890927 0.319682 -2.837232 0.445500 1.274328 3.418501
    15 4.640942 0.000000 0.000000 0.612542 -0.212618 -1.563435
    16 10.828047 0.000000 0.000000 0.000000 0.000000 -1.384508
    17 9.393338 0.000000 0.000001 2.162150 0.361291 0.543707
    18 1.442242 0.107453 1.746178 -2.449369 -0.338953 0.923082
    19 1.063451 0.000000 -0.000001 0.000000 0.000000 0.366492
    20 4.172844 -0.251366 1.312745 -0.000488 -0.096055 0.069756
    21 1.215373 0.000000 0.000001 0.000000 0.000000 0.130798
    22 1.215372 0.000000 0.000001 0.000000 0.000000 1.151880
    23 4.220531 -0.244854 0.431466 -0.011400 0.078000 0.147652
    24 1.350417 0.000001 -0.000001 0.000000 0.000000 0.977293
    25 1.350410 -0.000001 0.000001 0.000000 0.000000 1.518344
    26 4.262825 -0.232720 -1.392178 0.021226 -0.052274 0.146778
    27 -2.418287 0.139977 2.430972 -0.077089 -1.168638 3.076220
    28 4.640942 0.000000 -0.000001 -0.478427 0.101013 -1.583701
    29 10.828047 0.000000 -0.000002 0.000000 0.000000 -1.186797
    30 9.393336 -0.000001 0.000000 -2.005690 -0.499666 0.500949
    31 1.442245 0.107453 -1.746177 1.545065 0.350667 0.095007
    32 1.063452 -0.000001 -0.000001 0.000000 0.000000 0.199056
    33 1.376307 -0.000001 0.000000 0.000000 0.000000 0.199053
    34 4.172847 -0.251366 -1.312744 0.007990 -0.043865 0.147531
    35 1.215373 0.000001 0.000000 0.000000 0.000000 0.645758
    36 1.215371 -0.000001 0.000000 0.000000 0.000000 0.881369
    37 4.220535 -0.244855 -0.431465 0.001333 0.026242 0.148333
    38 1.350416 0.000000 0.000000 0.000000 0.000000 0.732994
    39 1.350410 -0.000001 -0.000001 0.000000 0.000000 1.256567
    40 4.237636 -0.195359 0.527090 0.025769 0.128431 0.455451
    41 1.215376 0.000001 0.000001 0.000000 0.000000 0.401351
    42 1.215371 0.000000 0.000000 0.000000 0.000000 1.326353
    43 4.262829 -0.232721 1.392178 0.025466 0.184116 0.480058
    44 1.012811 0.000000 0.000000 0.000000 0.000000 0.584666
    45 1.012809 -0.000001 0.000000 0.000000 0.000000 0.837704
    46 1.376306 -0.000001 0.000000 0.000000 0.000000 0.811525
    47 4.237632 -0.195359 -0.527090 0.000345 -0.008861 0.148285
    48 1.215375 0.000001 -0.000001 0.000000 0.000000 0.977293
    49 1.215371 0.000000 0.000001 0.000000 0.000000 1.518344
    50 1.012810 0.000001 0.000000 0.000000 0.000000 0.977293
    51 1.012810 -0.000001 0.000000 0.000000 0.000000 1.186713
    52 2.110540 0.000000 0.000000 0.110853 0.240029 -0.071917
    53 5.253243 3.139475 -1.673515 2.984594 -1.570796 0.000000
    54 5.253259 3.139473 -0.054760 3.106741 -1.570796 0.000000
    55 5.253252 3.139468 1.574632 2.984594 -1.570796 0.000000
    56 4.598148 4.158443 -1.350299 2.984594 -1.570796 0.000000
    57 4.598139 4.158430 -0.054439 2.984594 -1.570796 0.000000
    58 4.598140 4.158430 1.240876 2.984594 -1.570796 0.000000
    59 0.891927 2.373051 -0.014527 -3.141592 -0.000001 1.413797
    60 7.228122 5.709446 3.726568 3.140796 -1.570796 0.000000
  time 5
    0 1.273347 8.254813 38.228291 -0.032694 -0.000511 -1.632013
    1 2.144924 0.039064 0.000000 -0.000112 -1.518483 -1.570725
    2 -0.000006 0.000008 4.427393 6.134673 -3.143110 0.165479
    3 18.465940 0.000000 0.000000 0.000000 0.000000 -0.217341
    4 14.875443 0.000000 -0.000001 0.035497 -0.035688 0.359684
    5 0.000006 -0.000004 -4.427393 -6.195158 3.103263 5.934973
    6 18.465940 0.000000 0.000000 0.000000 0.000000 -0.563591
    7 14.875443 0.000000 0.000000 0.057455 -0.014092 0.213928
    8 2.255207 -0.007574 0.113288 -0.066049 -0.005550 -0.195203
    9 9.514226 -0.009357 0.000000 0.028476 -0.101883 -0.082199
    10 2.450429 5.076128 0.001325 3.201788 -1.570796 0.000000
    11 6.312407 -4.528058 0.001311 3.239373 -1.570796 0.000000
    12 2.233310 1.152535 -7.309138 -1.044568 -1.534652 -0.988520
    13 11.751820 -0.001633 0.000000 -0.034144 0.101808 0.134371
    14 -1.890927 0.319682 -2.837232 0.445500 1.274328 3.418501
    15 4.640942 0.000000 0.000000 0.615313 -0.212897 -1.575520
    16 10.828047 0.000000 0.000000 0.000000 0.000000 -1.324004
    17 9.393338 0.000000 0.000001 2.168001 0.348572 0.521303
    18 1.442242 0.107453 1.746178 -2.449369 -0.338953 0.923082
    19 1.063451 0.000000 -0.000001 0.000000 0.000000 0.366492
    20 4.172844 -0.251366 1.312745 -0.000488 -0.096055 0.069756
    21 1.215373 0.000000 0.000001 0.000000 0.000000 0.130798
    22 1.215372 0.000000 0.000001 0.000000 0.000000 1.151880
    23 4.220531 -0.244854 0.431466 -0.011400 0.078000 0.147652
    24 1.350417 0.000001 -0.000001 0.000000 0.000000 0.977293
    25 1.350410 -0.000001 0.000001 0.000000 0.000000 1.518344
    26 4.262825 -0.232720 -1.392178 0.021226 -0.052274 0.146778
    27 -2.418287 0.139977 2.430972 -0.077089 -1.168638 3.076220
    28 4.640942 0.000000 -0.000001 -0.482524 0.103466 -1.591310
    29 10.828047 0.000000 -0.000002 0.000000 0.000000 -1.128042
    30 9.393336 -0.000001 0.000000 -2.017760 -0.486790 0.477798
    31 1.442245 0.107453 -1.746177 1.545065 0.350667 0.095007
    32 1.063452 -0.000001 -0.000001 0.000000 0.000000 0.199056
    33 1.376307 -0.000001 0.000000 0.000000 0.000000 0.199053
    34 4.172847 -0.251366 -1.312744 0.007990 -0.043865 0.147531
    35 1.215373 0.000001 0.000000 0.000000 0.000000 0.645758
    36 1.215371 -0.000001 0.000000 0.000000 0.000000 0.881369
    37 4.220535 -0.244855 -0.431465 0.001333 0.026242 0.148333
    38 1.350416 0.000000 0.000000 0.000000 0.000000 0.732994
    39 1.350410 -0.000001 -0.000001 0.000000 0.000000 1.256567
    40 4.237636 -0.195359 0.527090 0.025769 0.128431 0.455451
    41 1.215376 0.000001 0.000001 0.000000 0.000000 0.401351
    42 1.215371 0.000000 0.000000 0.000000 0.000000 1.326353
    43 4.262829 -0.232721 1.392178 0.025466 0.184116 0.480058
    44 1.012811 0.000000 0.000000 0.000000 0.000000 0.584666
    45 1.012809 -0.000001 0.000000 0.000000 0.000000 0.837704
    46 1.376306 -0.000001 0.000000 0.000000 0.000000 0.811525
    47 4.237632 -0.195359 -0.527090 0.000345 -0.008861 0.148285
    48 1.215375 0.000001 -0.000001 0.000000 0.000000 0.977293
    49 1.215371 0.000000 0.000001 0.000000 0.000000 1.518344
    50 1.012810 0.000001 0.000000 0.000000 0.000000 0.977293
    51 1.012810 -0.000001 0.000000 0.000000 0.000000 1.186713
    52 2.110540 0.000000 0.000000 0.112498 0.238556 -0.045856
    53 5.253243 3.139475 -1.673515 2.984594 -1.570796 0.000000
    54 5.253259 3.139473 -0.054760 3.106741 -1.570796 0.000000
    55 5.253252 3.139468 1.574632 2.984594 -1.570796 0.000000
    56 4.598148 4.158443 -1.350299 2.984594 -1.570796 0.000000
    57 4.598139 4.158430 -0.054439 2.984594 -1.570796 0.000000
    58 4.598140 4.158430 1.240876 2.984594 -1.570796 0.000000
    59 0.891927 2.373051 -0.014527 -3.141592 -0.000001 1.413797
    60 7.228122 5.709446 3.726568 3.140796 -1.570796 0.000000
  time 6
    0 1.273347 8.254813 38.228291 -0.032694 -0.000511 -1.632013
    1 2.238677 0.039064 0.000000 -0.000112 -1.518483 -1.570725
    2 -0.000006 0.000008 4.427393 6.134769 -3.143685 0.172957
    3 18.465940 0.000000 0.000000 0.000000 0.000000 -0.206376
    4 14.875443 0.000000 -0.000001 0.035284 -0.036284 0.356247
    5 0.000006 -0.000004 -4.427393 -6.195062 3.103359 5.936890
    6 18.465940 0.000000 0.000000 0.000000 0.000000 -0.565822
    7 14.875443 0.000000 0.000000 0.057420 -0.014062 0.218055
    8 2.255207 -0.007574 0.113288 -0.066009 -0.006007 -0.202283
    9 9.514226 -0.009357 0.000000 0.028926 -0.101748 -0.086702
    10 2.450429 5.076128 0.001325 3.201788 -1.570796 0.000000
    11 6.312407 -4.528058 0.001311 3.243813 -1.570796 0.000000
    12 2.233310 1.152535 -7.309138 -1.044568 -1.534652 -0.988520
    13 11.751820 -0.001633 0.000000 -0.034144 0.101808 0.134371
    14 -1.890927 0.319682 -2.837232 0.445500 1.274328 3.418501
    15 4.640942 0.000000 0.000000 0.619136 -0.205086 -1.598514
    16 10.828047 0.000000 0.000000 0.000000 0.000000 -1.228844
    17 9.393338 0.000000 0.000001 2.174348 0.335982 0.477418
    18 1.442242 0.107453 1.746178 -2.449369 -0.338953 0.923082
    19 1.063451 0.000000 -0.000001 0.000000 0.000000 0.366492
    20 4.172844 -0.251366 1.312745 -0.000488 -0.096055 0.069756
    21 1.215373 0.000000 0.000001 0.000000 0.000000 0.130798
    22 1.215372 0.000000 0.000001 0.000000 0.000000 1.151880
    23 4.220531 -0.244854 0.431466 -0.011400 0.078000 0.147652
    24 1.350417 0.000001 -0.000001 0.000000 0.000000 0.977293
    25 1.350410 -0.000001 0.000001 0.000000 0.000000 1.518344
    26 4.262825 -0.232720 -1.392178 0.021226 -0.052274 0.146778
    27 -2.418287 0.139977 2.430972 -0.077089 -1.168638 3.076220
    28 4.640942 0.000000 -0.000001 -0.487056 0.097477 -1.607173
    29 10.828047 0.000000 -0.000002 0.000000 0.000000 -1.034327
    30 9.393336 -0.000001 0.000000 -2.032225 -0.471431 0.431107
    31 1.442245 0.107453 -1.746177 1.545065 0.350667 0.095007
    32 1.063452 -0.000001 -0.000001 0.000000 0.000000 0.199056
    33 1.376307 -0.000001 0.000000 0.000000 0.000000 0.199053
    34 4.172847 -0.251366 -1.312744 0.007990 -0.043865 0.147531
    35 1.215373 0.000001 0.000000 0.000000 0.000000 0.645758
    36 1.215371 -0.000001 0.000000 0.000000 0.000000 0.881369
    37 4.220535 -0.244855 -0.431465 0.001333 0.026242 0.148333
    38 1.350416 0.000000 0.000000 0.000000 0.000000 0.732994
    39 1.350410 -0.000001 -0.000001 0.000000 0.000000 1.256567
    40 4.237636 -0.195359 0.527090 0.025769 0.128431 0.455451
    41 1.215376 0.000001 0.000001 0.000000 0.000000 0.401351
    42 1.215371 0.000000 0.000000 0.000000 0.000000 1.326353
    43 4.262829 -0.232721 1.392178 0.025466 0.184116 0.480058
    44 1.012811 0.000000 0.000000 0.000000 0.000000 0.584666
    45 1.012809 -0.000001 0.000000 0.000000 0.000000 0.837704
    46 1.376306 -0.000001 0.000000 0.000000 0.000000 0.811525
    47 4.237632 -0.195359 -0.527090 0.000345 -0.008861 0.148285
    48 1.215375 0.000001 -0.000001 0.000000 0.000000 0.977293
    49 1.215371 0.000000 0.000001 0.000000 0.000000 1.518344
    50 1.012810 0.000001 0.000000 0.000000 0.000000 0.977293
    51 1.012810 -0.000001 0.000000 0.000000 0.000000 1.186713
    52 2.110540 0.000000 0.000000 0.113475 0.237564 -0.028009
    53 5.253243 3.139475 -1.673515 2.984594 -1.570796 0.000000
    54 5.253259 3.139473 -0.054760 3.106741 -1.570796 0.000000
    55 5.253252 3.139468 1.574632 2.984594 -1.570796 0.000000
    56 4.598148 4.158443 -1.350299 2.984594 -1.570796 0.000000
    57 4.598139 4.158430 -0.054439 2.984594 -1.570796 0.000000
    58 4.598140 4.158430 1.240876 2.984594 -1.570796 0.000000
    59 0.891927 2.373051 -0.014527 -3.141592 -0.000001 1.413797
    60 7.228122 5.709446 3.726568 3.140796 -1.570796 0.000000
  time 7
    0 1.273347 8.254813 38.228291 -0.032694 -0.000511 -1.632013
    1 2.269928 0.031251 0.000000 -0.000112 -1.518483 -1.570725
    2 -0.000006 0.000008 4.427393 6.134769 -3.143877 0.175737
    3 18.465940 0.000000 0.000000 0.000000 0.000000 -0.202355
    4 14.875443 0.000000 -0.000001 0.035212 -0.036497 0.354983
    5 0.000006 -0.000004 -4.427393 -6.195062 3.103455 5.937561
    6 18.465940 0.000000 0.000000 0.000000 0.000000 -0.566676
    7 14.875443 0.000000 0.000000 0.057420 -0.014001 0.219593
    8 2.255207 -0.007574 0.113288 -0.066009 -0.006197 -0.204930
    9 9.514226 -0.009357 0.000000 0.029076 -0.101708 -0.088369
    10 2.450429 5.076128 0.001325 3.201788 -1.570796 0.000000
    11 6.312407 -4.528058 0.001311 3.245497 -1.570796 0.000000
    12 2.233310 1.152535 -7.309138 -1.044568 -1.534652 -0.988520
    13 11.751820 -0.001633 0.000000 -0.034144 0.101808 0.134371
    14 -1.890927 0.319682 -2.837232 0.445500 1.274328 3.418501
    15 4.640942 0.000000 0.000000 0.623627 -0.190162 -1.625274
    16 10.828047 0.000000 0.000000 0.000000 0.000000 -1.132913
    17 9.393338 0.000000 0.000001 2.181248 0.321603 0.437508
    18 1.442242 0.107453 1.746178 -2.449369 -0.338953 0.923082
    19 1.063451 0.000000 -0.000001 0.000000 0.000000 0.366492
    20 4.172844 -0.251366 1.312745 -0.000488 -0.096055 0.069756
    21 1.215373 0.000000 0.000001 0.000000 0.000000 0.130798
    22 1.215372 0.000000 0.000001 0.000000 0.000000 1.151880
    23 4.220531 -0.244854 0.431466 -0.011400 0.078000 0.147652
    24 1.350417 0.000001 -0.000001 0.000000 0.000000 0.977293
    25 1.350410 -0.000001 0.000001 0.000000 0.000000 1.518344
    26 4.262825 -0.232720 -1.392178 0.021226 -0.052274 0.146778
    27 -2.418287 0.139977 2.430972 -0.077089 -1.168638 3.076220
    28 4.640942 0.000000 -0.000001 -0.491029 0.084562 -1.627894
    29 10.828047 0.000000 -0.000002 0.000000 0.000000 -0.938233
    30 9.393336 -0.000001 0.000000 -2.048349 -0.455155 0.387346
    31 1.442245 0.107453 -1.746177 1.545065 0.350667 0.095007
    32 1.063452 -0.000001 -0.000001 0.000000 0.000000 0.199056
    33 1.376307 -0.000001 0.000000 0.000000 0.000000 0.199053
    34 4.172847 -0.251366 -1.312744 0.007990 -0.043865 0.147531
    35 1.215373 0.000001 0.000000 0.000000 0.000000 0.645758
    36 1.215371 -0.000001 0.000000 0.000000 0.000000 0.881369
    37 4.220535 -0.244855 -0.431465 0.001333 0.026242 0.148333
    38 1.350416 0.000000 0.000000 0.000000 0.000000 0.732994
    39 1.350410 -0.000001 -0.000001 0.000000 0.000000 1.256567
    40 4.237636 -0.195359 0.527090 0.025769 0.128431 0.455451
    41 1.215376 0.000001 0.000001 0.000000 0.000000 0.401351
    42 1.215371 0.000000 0.000000 0.000000 0.000000 1.326353
    43 4.262829 -0.232721 1.392178 0.025466 0.184116 0.480058
    44 1.012811 0.000000 0.000000 0.000000 0.000000 0.584666
    45 1.012809 -0.000001 0.000000 0.000000 0.000000 0.837704
    46 1.376306 -0.000001 0.000000 0.000000 0.000000 0.811525
    47 4.237632 -0.195359 -0.527090 0.000345 -0.008861 0.148285
    48 1.215375 0.000001 -0.000001 0.000000 0.000000 0.977293
    49 1.215371 0.000000 0.000001 0.000000 0.000000 1.518344
    50 1.012810 0.000001 0.000000 0.000000 0.000000 0.977293
    51 1.012810 -0.000001 0.000000 0.000000 0.000000 1.186713
    52 2.110540 0.000000 0.000000 0.113835 0.237173 -0.021516
    53 5.253243 3.139475 -1.673515 2.984594 -1.570796 0.000000
    54 5.253259 3.139473 -0.054760 3.106741 -1.570796 0.000000
    55 5.253252 3.139468 1.574632 2.984594 -1.570796 0.000000
    56 4.598148 4.158443 -1.350299 2.984594 -1.570796 0.000000
    57 4.598139 4.158430 -0.054439 2.984594 -1.570796 0.000000
    58 4.598140 4.158430 1.240876 2.984594 -1.570796 0.000000
    59 0.891927 2.373051 -0.014527 -3.141592 -0.000001 1.413797
    60 7.228122 5.709446 3.726568 3.140796 -1.570796 0.000000
  time 8
    0 1.273347 8.254813 38.228291 -0.032694 -0.000511 -1.632013
    1 2.246490 0.039064 0.000000 -0.000112 -1.518483 -1.570725
    2 -0.000006 0.000008 4.427393 6.134769 -3.143685 0.173628
    3 18.465940 0.000000 0.000000 0.000000 0.000000 -0.205498
    4 14.875443 0.000000 -0.000001 0.035284 -0.036348 0.355931
    5 0.000006 -0.000004 -4.427393 -6.195062 3.103359 5.937082
    6 18.465940 0.000000 0.000000 0.000000 0.000000 -0.566019
    7 14.875443 0.000000 0.000000 0.057420 -0.014062 0.218393
    8 2.255207 -0.007574 0.113288 -0.066009 -0.006045 -0.202879
    9 9.514226 -0.009357 0.000000 0.029001 -0.101735 -0.087070
    10 2.450429 5.076128 0.001325 3.201788 -1.570796 0.000000
    11 6.312407 -4.528058 0.001311 3.244221 -1.570796 0.000000
    12 2.233310 1.152535 -7.309138 -1.044568 -1.534652 -0.988520
    13 11.751820 -0.001633 0.000000 -0.034144 0.101808 0.134371
    14 -1.890927 0.319682 -2.837232 0.445500 1.274328 3.418501
    15 4.640942 0.000000 0.000000 0.627545 -0.173843 -1.643637
    16 10.828047 0.000000 0.000000 0.000000 0.000000 -1.078131
    17 9.393338 0.000000 0.000001 2.188865 0.303581 0.429459
    18 1.442242 0.107453 1.746178 -2.449369 -0.338953 0.923082
    19 1.063451 0.000000 -0.000001 0.000000 0.000000 0.366492
    20 4.172844 -0.251366 1.312745 -0.000488 -0.096055 0.069756
    21 1.215373 0.000000 0.000001 0.000000 0.000000 0.130798
    22 1.215372 0.000000 0.000001 0.000000 0.000000 1.151880
    23 4.220531 -0.244854 0.431466 -0.011400 0.078000 0.147652
    24 1.350417 0.000001 -0.000001 0.000000 0.000000 0.977293
    25 1.350410 -0.000001 0.000001 0.000000 0.000000 1.518344
    26 4.262825 -0.232720 -1.392178 0.021226 -0.052274 0.146778
    27 -2.418287 0.139977 2.430972 -0.077089 -1.168638 3.076220
    28 4.640942 0.000000 -0.000001 -0.493078 0.070781 -1.643172
    29 10.828047 0.000000 -0.000002 0.000000 0.000000 -0.883993
    30 9.393336 -0.000001 0.000000 -2.065302 -0.439299 0.378555
    31 1.442245 0.107453 -1.746177 1.545065 0.350667 0.095007
    32 1.063452 -0.000001 -0.000001 0.000000 0.000000 0.199056
    33 1.376307 -0.000001 0.000000 0.000000 0.000000 0.199053
    34 4.172847 -0.251366 -1.312744 0.007990 -0.043865 0.147531
    35 1.215373 0.000001 0.000000 0.000000 0.000000 0.645758
    36 1.215371 -0.000001 0.000000 0.000000 0.000000 0.881369
    37 4.220535 -0.244855 -0.431465 0.001333 0.026242 0.148333
    38 1.350416 0.000000 0.000000 0.000000 0.000000 0.732994
    39 1.350410 -0.000001 -0.000001 0.000000 0.000000 1.256567
    40 4.237636 -0.195359 0.527090 0.025769 0.128431 0.455451
    41 1.215376 0.000001 0.000001 0.000000 0.000000 0.401351
    42 1.215371 0.000000 0.000000 0.000000 0.000000 1.326353
    43 4.262829 -0.232721 1.392178 0.025466 0.184116 0.480058
    44 1.012811 0.000000 0.000000 0.000000 0.000000 0.584666
    45 1.012809 -0.000001 0.000000 0.000000 0.000000 0.837704
    46 1.376306 -0.000001 0.000000 0.000000 0.000000 0.811525
    47 4.237632 -0.195359 -0.527090 0.000345 -0.008861 0.148285
    48 1.215375 0.000001 -0.000001 0.000000 0.000000 0.977293
    49 1.215371 0.000000 0.000001 0.000000 0.000000 1.518344
    50 1.012810 0.000001 0.000000 0.000000 0.000000 0.977293
    51 1.012810 -0.000001 0.000000 0.000000 0.000000 1.186713
    52 2.110540 0.000000 0.000000 0.113578 0.237473 -0.026504
    53 5.253243 3.139475 -1.673515 2.984594 -1.570796 0.000000
    54 5.253259 3.139473 -0.054760 3.106741 -1.570796 0.000000
    55 5.253252 3.139468 1.574632 2.984594 -1.570796 0.000000
    56 4.598148 4.158443 -1.350299 2.984594 -1.570796 0.000000
    57 4.598139 4.158430 -0.054439 2.984594 -1.570796 0.000000
    58 4.598140 4.158430 1.240876 2.984594 -1.570796 0.000000
    59 0.891927 2.373051 -0.014527 -3.141592 -0.000001 1.413797
    60 7.228122 5.709446 3.726568 3.140796 -1.570796 0.000000
  time 9
    0 1.273347 8.254813 38.228291 -0.032694 -0.000511 -1.632013
    1 2.168362 0.039064 0.000000 -0.000112 -1.518483 -1.570725
    2 -0.000006 0.000008 4.427393 6.134673 -3.143302 0.167780
    3 18.465940 0.000000 0.000000 0.000000 0.000000 -0.214051
    4 14.875443 0.000000 -0.000001 0.035426 -0.035880 0.358657
    5 0.000006 -0.000004 -4.427393 -6.195158 3.103359 5.935548
    6 18.465940 0.000000 0.000000 0.000000 0.000000 -0.564247
    7 14.875443 0.000000 0.000000 0.057455 -0.014092 0.215166
    8 2.255207 -0.007574 0.113288 -0.066049 -0.005683 -0.197320
    9 9.514226 -0.009357 0.000000 0.028626 -0.101842 -0.083563
    10 2.450429 5.076128 0.001325 3.201788 -1.570796 0.000000
    11 6.312407 -4.528058 0.001311 3.240700 -1.570796 0.000000
    12 2.233310 1.152535 -7.309138 -1.044568 -1.534652 -0.988520
    13 11.751820 -0.001633 0.000000 -0.034144 0.101808 0.134371
    14 -1.890927 0.319682 -2.837232 0.445500 1.274328 3.418501
    15 4.640942 0.000000 0.000000 0.630412 -0.158082 -1.653368
    16 10.828047 0.000000 0.000000 0.000000 0.000000 -1.059935
    17 9.393338 0.000000 0.000001 2.196538 0.282826 0.447789
    18 1.442242 0.107453 1.746178 -2.449369 -0.338953 0.923082
    19 1.063451 0.000000 -0.000001 0.000000 0.000000 0.366492
    20 4.172844 -0.251366 1.312745 -0.000488 -0.096055 0.069756
    21 1.215373 0.000000 0.000001 0.000000 0.000000 0.130798
    22 1.215372 0.000000 0.000001 0.000000 0.000000 1.151880
    23 4.220531 -0.244854 0.431466 -0.011400 0.078000 0.147652
    24 1.350417 0.000001 -0.000001 0.000000 0.000000 0.977293
    25 1.350410 -0.000001 0.000001 0.000000 0.000000 1.518344
    26 4.262825 -0.232720 -1.392178 0.021226 -0.052274 0.146778
    27 -2.418287 0.139977 2.430972 -0.077089 -1.168638 3.076220
    28 4.640942 0.000000 -0.000001 -0.493574 0.057865 -1.651249
    29 10.828047 0.000000 -0.000002 0.000000 0.000000 -0.868374
    30 9.393336 -0.000001 0.000000 -2.082992 -0.423520 0.400240
    31 1.442245 0.107453 -1.746177 1.545065 0.350667 0.095007
    32 1.063452 -0.000001 -0.000001 0.000000 0.000000 0.199056
    33 1.376307 -0.000001 0.000000 0.000000 0.000000 0.199053
    34 4.172847 -0.251366 -1.312744 0.007990 -0.043865 0.147531
    35 1.215373 0.000001 0.000000 0.000000 0.000000 0.645758
    36 1.215371 -0.000001 0.000000 0.000000 0.000000 0.881369
    37 4.220535 -0.244855 -0.431465 0.001333 0.026242 0.148333
    38 1.350416 0.000000 0.000000 0.000000 0.000000 0.732994
    39 1.350410 -0.000001 -0.000001 0.000000 0.000000 1.256567
    40 4.237636 -0.195359 0.527090 0.025769 0.128431 0.455451
    41 1.215376 0.000001 0.000001 0.000000 0.000000 0.401351
    42 1.215371 0.000000 0.000000 0.000000 0.000000 1.326353
    43 4.262829 -0.232721 1.392178 0.025466 0.184116 0.480058
    44 1.012811 0.000000 0.000000 0.000000 0.000000 0.584666
    45 1.012809 -0.000001 0.000000 0.000000 0.000000 0.837704
    46 1.376306 -0.000001 0.000000 0.000000 0.000000 0.811525
    47 4.237632 -0.195359 -0.527090 0.000345 -0.008861 0.148285
    48 1.215375 0.000001 -0.000001 0.000000 0.000000 0.977293
    49 1.215371 0.000000 0.000001 0.000000 0.000000 1.518344
    50 1.012810 0.000001 0.000000 0.000000 0.000000 0.977293
    51 1.012810 -0.000001 0.000000 0.000000 0.000000 1.186713
    52 2.110540 0.000000 0.000000 0.112755 0.238285 -0.040610
    53 5.253243 3.139475 -1.673515 2.984594 -1.570796 0.000000
    54 5.253259 3.139473 -0.054760 3.106741 -1.570796 0.000000
    55 5.253252 3.139468 1.574632 2.984594 -1.570796 0.000000
    56 4.598148 4.158443 -1.350299 2.984594 -1.570796 0.000000
    57 4.598139 4.158430 -0.054439 2.984594 -1.570796 0.000000
    58 4.598140 4.158430 1.240876 2.984594 -1.570796 0.000000
    59 0.891927 2.373051 -0.014527 -3.141592 -0.000001 1.413797
    60 7.228122 5.709446 3.726568 3.140796 -1.570796 0.000000
  time 10
    0 1.273347 8.254813 38.228291 -0.032694 -0.000511 -1.632013
    1 2.066797 0.050783 0.000000 -0.000112 -1.518483 -1.570725
    2 -0.000006 0.000008 4.427393 6.134577 -3.142630 0.158959
    3 18.465940 0.000000 0.000000 0.000000 0.000000 -0.226844
    4 14.875443 0.000000 -0.000001 0.035604 -0.035156 0.362607
    5 0.000006 -0.000004 -4.427393 -6.195158 3.103167 5.933344
    6 18.465940 0.000000 0.000000 0.000000 0.000000 -0.561622
    7 14.875443 0.000000 0.000000 0.057455 -0.014183 0.210364
    8 2.255207 -0.007574 0.113288 -0.066090 -0.005132 -0.189016
    9 9.514226 -0.009357 0.000000 0.028101 -0.101990 -0.078324
    10 2.450429 5.076128 0.001325 3.201788 -1.570796 0.000000
    11 6.312407 -4.528058 0.001311 3.235495 -1.570796 0.000000
    12 2.233310 1.152535 -7.309138 -1.044568 -1.534652 -0.988520
    13 11.751820 -0.001633 0.000000 -0.034144 0.101808 0.134371
    14 -1.890927 0.319682 -2.837232 0.445500 1.274328 3.418501
    15 4.640942 0.000000 0.000000 0.632992 -0.139043 -1.664355
    16 10.828047 0.000000 0.000000 0.000000 0.000000 -1.041482
    17 9.393338 0.000000 0.000001 2.203658 0.261876 0.466167
    18 1.442242 0.107453 1.746178 -2.449369 -0.338953 0.923082
    19 1.063451 0.000000 -0.000001 0.000000 0.000000 0.366492
    20 4.172844 -0.251366 1.312745 -0.000488 -0.096055 0.069756
    21 1.215373 0.000000 0.000001 0.000000 0.000000 0.130798
    22 1.215372 0.000000 0.000001 0.000000 0.000000 1.151880
    23 4.220531 -0.244854 0.431466 -0.011400 0.078000 0.147652
    24 1.350417 0.000001 -0.000001 0.000000 0.000000 0.977293
    25 1.350410 -0.000001 0.000001 0.000000 0.000000 1.518344
    26 4.262825 -0.232720 -1.392178 0.021226 -0.052274 0.146778
    27 -2.418287 0.139977 2.430972 -0.077089 -1.168638 3.076220
    28 4.640942 0.000000 -0.000001 -0.493202 0.041847 -1.660029
    29 10.828047 0.000000 -0.000002 0.000000 0.000000 -0.853182
    30 9.393336 -0.000001 0.000000 -2.100682 -0.407053 0.422023
    31 1.442245 0.107453 -1.746177 1.545065 0.350667 0.095007
    32 1.063452 -0.000001 -0.000001 0.000000 0.000000 0.199056
    33 1.376307 -0.000001 0.000000 0.000000 0.000000 0.199053
    34 4.172847 -0.251366 -1.312744 0.007990 -0.043865 0.147531
    35 1.215373 0.000001 0.000000 0.000000 0.000000 0.645758
    36 1.215371 -0.000001 0.000000 0.000000 0.000000 0.881369
    37 4.220535 -0.244855 -0.431465 0.001333 0.026242 0.148333
    38 1.350416 0.000000 0.000000 0.000000 0.000000 0.732994
    39 1.350410 -0.000001 -0.000001 0.000000 0.000000 1.256567
    40 4.237636 -0.195359 0.527090 0.025769 0.128431 0.455451
    41 1.215376 0.000001 0.000001 0.000000 0.000000 0.401351
    42 1.215371 0.000000 0.000000 0.000000 0.000000 1.326353
    43 4.262829 -0.232721 1.392178 0.025466 0.184116 0.480058
    44 1.012811 0.000000 0.000000 0.000000 0.000000 0.584666
    45 1.012809 -0.000001 0.000000 0.000000 0.000000 0.837704
    46 1.376306 -0.000001 0.000000 0.000000 0.000000 0.811525
    47 4.237632 -0.195359 -0.527090 0.000345 -0.008861 0.148285
    48 1.215375 0.000001 -0.000001 0.000000 0.000000 0.977293
    49 1.215371 0.000000 0.000001 0.000000 0.000000 1.518344
    50 1.012810 0.000001 0.000000 0.000000 0.000000 0.977293
    51 1.012810 -0.000001 0.000000 0.000000 0.000000 1.186713
    52 2.110540 0.000000 0.000000 0.111521 0.239458 -0.061424
    53 5.253243 3.139475 -1.673515 2.984594 -1.570796 0.000000
    54 5.253259 3.139473 -0.054760 3.106741 -1.570796 0.000000
    55 5.253252 3.139468 1.574632 2.984594 -1.570796 0.000000
    56 4.598148 4.158443 -1.350299 2.984594 -1.570796 0.000000
    57 4.598139 4.158430 -0.054439 2.984594 -1.570796 0.000000
    58 4.598140 4.158430 1.240876 2.984594 -1.570796 0.000000
    59 0.891927 2.373051 -0.014527 -3.141592 -0.000001 1.413797
    60 7.228122 5.709446 3.726568 3.140796 -1.570796 0.000000
  time 11
    0 1.273347 8.254813 38.228291 -0.032694 -0.000511 -1.632013
    1 1.930074 0.062502 0.000000 -0.000112 -1.518483 -1.570725
    2 -0.000006 0.000008 4.427393 6.134481 -3.141863 0.148125
    3 18.465940 0.000000 0.000000 0.000000 0.000000 -0.242562
    4 14.875443 0.000000 -0.000001 0.035817 -0.034326 0.367545
    5 0.000006 -0.000004 -4.427393 -6.195254 3.103071 5.930660
    6 18.465940 0.000000 0.000000 0.000000 0.000000 -0.558472
    7 14.875443 0.000000 0.000000 0.057455 -0.014274 0.204437
    8 2.255207 -0.007574 0.113288 -0.066130 -0.004448 -0.178826
    9 9.514226 -0.009357 0.000000 0.027388 -0.102165 -0.071916
    10 2.450429 5.076128 0.001325 3.201788 -1.570796 0.000000
    11 6.312407 -4.528058 0.001311 3.229117 -1.570796 0.000000
    12 2.233310 1.152535 -7.309138 -1.044568 -1.534652 -0.988520
    13 11.751820 -0.001633 0.000000 -0.034144 0.101808 0.134371
    14 -1.890927 0.319682 -2.837232 0.445500 1.274328 3.418501
    15 4.640942 0.000000 0.000000 0.634999 -0.117773 -1.676676
    16 10.828047 0.000000 0.000000 0.000000 0.000000 -1.020392
    17 9.393338 0.000000 0.000001 2.210282 0.241284 0.482170
    18 1.442242 0.107453 1.746178 -2.449369 -0.338953 0.923082
    19 1.063451 0.000000 -0.000001 0.000000 0.000000 0.366492
    20 4.172844 -0.251366 1.312745 -0.000488 -0.096055 0.069756
    21 1.215373 0.000000 0.000001 0.000000 0.000000 0.130798
    22 1.215372 0.000000 0.000001 0.000000 0.000000 1.151880
    23 4.220531 -0.244854 0.431466 -0.011400 0.078000 0.147652
    24 1.350417 0.000001 -0.000001 0.000000 0.000000 0.977293
    25 1.350410 -0.000001 0.000001 0.000000 0.000000 1.518344
    26 4.262825 -0.232720 -1.392178 0.021226 -0.052274 0.146778
    27 -2.418287 0.139977 2.430972 -0.077089 -1.168638 3.076220
    28 4.640942 0.000000 -0.000001 -0.492209 0.023376 -1.670039
    29 10.828047 0.000000 -0.000002 0.000000 0.000000 -0.835610
    30 9.393336 -0.000001 0.000000 -2.118004 -0.390242 0.441217
    31 1.442245 0.107453 -1.746177 1.545065 0.350667 0.095007
    32 1.063452 -0.000001 -0.000001 0.000000 0.000000 0.199056
    33 1.376307 -0.000001 0.000000 0.000000 0.000000 0.199053
    34 4.172847 -0.251366 -1.312744 0.007990 -0.043865 0.147531
    35 1.215373 0.000001 0.000000 0.000000 0.000000 0.645758
    36 1.215371 -0.000001 0.000000 0.000000 0.000000 0.881369
    37 4.220535 -0.244855 -0.431465 0.001333 0.026242 0.148333
    38 1.350416 0.000000 0.000000 0.000000 0.000000 0.732994
    39 1.350410 -0.000001 -0.000001 0.000000 0.000000 1.256567
    40 4.237636 -0.195359 0.527090 0.025769 0.128431 0.455451
    41 1.215376 0.000001 0.000001 0.000000 0.000000 0.401351
    42 1.215371 0.000000 0.000000 0.000000 0.000000 1.326353
    43 4.262829 -0.232721 1.392178 0.025466 0.184116 0.480058
    44 1.012811 0.000000 0.000000 0.000000 0.000000 0.584666
    45 1.012809 -0.000001 0.000000 0.000000 0.000000 0.837704
    46 1.376306 -0.000001 0.000000 0.000000 0.000000 0.811525
    47 4.237632 -0.195359 -0.527090 0.000345 -0.008861 0.148285
    48 1.215375 0.000001 -0.000001 0.000000 0.000000 0.977293
    49 1.215371 0.000000 0.000001 0.000000 0.000000 1.518344
    50 1.012810 0.000001 0.000000 0.000000 0.000000 0.977293
    51 1.012810 -0.000001 0.000000 0.000000 0.000000 1.186713
    52 2.110540 0.000000 0.000000 0.109876 0.240901 -0.086796
    53 5.253243 3.139475 -1.673515 2.984594 -1.570796 0.000000
    54 5.253259 3.139473 -0.054760 3.106741 -1.570796 0.000000
    55 5.253252 3.139468 1.574632 2.984594 -1.570796 0.000000
    56 4.598148 4.158443 -1.350299 2.984594 -1.570796 0.000000
    57 4.598139 4.158430 -0.054439 2.984594 -1.570796 0.000000
    58 4.598140 4.158430 1.240876 2.984594 -1.570796 0.000000
    59 0.891927 2.373051 -0.014527 -3.141592 -0.000001 1.413797
    60 7.228122 5.709446 3.726568 3.140796 -1.570796 0.000000
  time 12
    0 1.273347 8.254813 38.228291 -0.032694 -0.000511 -1.632013
    1 1.785538 0.070315 0.000000 -0.000112 -1.518483 -1.570725
    2 -0.000006 0.000008 4.427393 6.134290 -3.141096 0.136140
    3 18.465940 0.000000 0.000000 0.000000 0.000000 -0.259960
    4 14.875443 0.000000 -0.000001 0.036066 -0.033368 0.372957
    5 0.000006 -0.000004 -4.427393 -6.195349 3.102879 5.927593
    6 18.465940 0.000000 0.000000 0.000000 0.000000 -0.554927
    7 14.875443 0.000000 0.000000 0.057455 -0.014365 0.197872
    8 2.255207 -0.007574 0.113288 -0.066211 -0.003707 -0.167510
    9 9.514226 -0.009357 0.000000 0.026675 -0.102367 -0.064772
    10 2.450429 5.076128 0.001325 3.201788 -1.570796 0.000000
    11 6.312407 -4.528058 0.001311 3.222025 -1.570796 0.000000
    12 2.233310 1.152535 -7.309138 -1.044568 -1.534652 -0.988520
    13 11.751820 -0.001633 0.000000 -0.034144 0.101808 0.134371
    14 -1.890927 0.319682 -2.837232 0.445500 1.274328 3.418501
    15 4.640942 0.000000 0.000000 0.636624 -0.094759 -1.690801
    16 10.828047 0.000000 0.000000 0.000000 0.000000 -0.994030
    17 9.393338 0.000000 0.000001 2.216022 0.221635 0.493372
    18 1.442242 0.107453 1.746178 -2.449369 -0.338953 0.923082
    19 1.063451 0.000000 -0.000001 0.000000 0.000000 0.366492
    20 4.172844 -0.251366 1.312745 -0.000488 -0.096055 0.069756
    21 1.215373 0.000000 0.000001 0.000000 0.000000 0.130798
    22 1.215372 0.000000 0.000001 0.000000 0.000000 1.151880
    23 4.220531 -0.244854 0.431466 -0.011400 0.078000 0.147652
    24 1.350417 0.000001 -0.000001 0.000000 0.000000 0.977293
    25 1.350410 -0.000001 0.000001 0.000000 0.000000 1.518344
    26 4.262825 -0.232720 -1.392178 0.021226 -0.052274 0.146778
    27 -2.418287 0.139977 2.430972 -0.077089 -1.168638 3.076220
    28 4.640942 0.000000 -0.000001 -0.490595 0.003029 -1.681629
    29 10.828047 0.000000 -0.000002 0.000000 0.000000 -0.812548
    30 9.393336 -0.000001 0.000000 -2.134404 -0.373278 0.454746
    31 1.442245 0.107453 -1.746177 1.545065 0.350667 0.095007
    32 1.063452 -0.000001 -0.000001 0.000000 0.000000 0.199056
    33 1.376307 -0.000001 0.000000 0.000000 0.000000 0.199053
    34 4.172847 -0.251366 -1.312744 0.007990 -0.043865 0.147531
    35 1.215373 0.000001 0.000000 0.000000 0.000000 0.645758
    36 1.215371 -0.000001 0.000000 0.000000 0.000000 0.881369
    37 4.220535 -0.244855 -0.431465 0.001333 0.026242 0.148333
    38 1.350416 0.000000 0.000000 0.000000 0.000000 0.732994
    39 1.350410 -0.000001 -0.000001 0.000000 0.000000 1.256567
    40 4.237636 -0.195359 0.527090 0.025769 0.128431 0.455451
    41 1.215376 0.000001 0.000001 0.000000 0.000000 0.401351
    42 1.215371 0.000000 0.000000 0.000000 0.000000 1.326353
    43 4.262829 -0.232721 1.392178 0.025466 0.184116 0.480058
    44 1.012811 0.000000 0.000000 0.000000 0.000000 0.584666
    45 1.012809 -0.000001 0.000000 0.000000 0.000000 0.837704
    46 1.376306 -0.000001 0.000000 0.000000 0.000000 0.811525
    47 4.237632 -0.195359 -0.527090 0.000345 -0.008861 0.148285
    48 1.215375 0.000001 -0.000001 0.000000 0.000000 0.977293
    49 1.215371 0.000000 0.000001 0.000000 0.000000 1.518344
    50 1.012810 0.000001 0.000000 0.000000 0.000000 0.977293
    51 1.012810 -0.000001 0.000000 0.000000 0.000000 1.186713
    52 2.110540 0.000000 0.000000 0.108179 0.242525 -0.115093
    53 5.253243 3.139475 -1.673515 2.984594 -1.570796 0.000000
    54 5.253259 3.139473 -0.054760 3.106741 -1.570796 0.000000
    55 5.253252 3.139468 1.574632 2.984594 -1.570796 0.000000
    56 4.598148 4.158443 -1.350299 2.984594 -1.570796 0.000000
    57 4.598139 4.158430 -0.054439 2.984594 -1.570796 0.000000
    58 4.598140 4.158430 1.240876 2.984594 -1.570796 0.000000
    59 0.891927 2.373051 -0.014527 -3.141592 -0.000001 1.413797
    60 7.228122 5.709446 3.726568 3.140796 -1.570796 0.000000
  time 13
    0 1.273347 8.254813 38.228291 -0.032694 -0.000511 -1.632013
    1 1.633190 0.082034 0.000000 -0.000112 -1.518483 -1.570725
    2 -0.000006 0.000008 4.427393 6.134194 -3.140329 0.123868
    3 18.465940 0.000000 0.000000 0.000000 0.000000 -0.277724
    4 14.875443 0.000000 -0.000001 0.036243 -0.032389 0.378527
    5 0.000006 -0.000004 -4.427393 -6.195445 3.102688 5.924622
    6 18.465940 0.000000 0.000000 0.000000 0.000000 -0.551252
    7 14.875443 0.000000 0.000000 0.057490 -0.014486 0.191156
    8 2.255207 -0.007574 0.113288 -0.066211 -0.002947 -0.155963
    9 9.514226 -0.009357 0.000000 0.025925 -0.102555 -0.057520
    10 2.450429 5.076128 0.001325 3.201788 -1.570796 0.000000
    11 6.312407 -4.528058 0.001311 3.214779 -1.570796 0.000000
    12 2.233310 1.152535 -7.309138 -1.044568 -1.534652 -0.988520
    13 11.751820 -0.001633 0.000000 -0.034144 0.101808 0.134371
    14 -1.890927 0.319682 -2.837232 0.445500 1.274328 3.418501
    15 4.640942 0.000000 0.000000 0.637484 -0.070908 -1.707125
    16 10.828047 0.000000 0.000000 0.000000 0.000000 -0.959374
    17 9.393338 0.000000 0.000001 2.221100 0.203548 0.497299
    18 1.442242 0.107453 1.746178 -2.449369 -0.338953 0.923082
    19 1.063451 0.000000 -0.000001 0.000000 0.000000 0.366492
    20 4.172844 -0.251366 1.312745 -0.000488 -0.096055 0.069756
    21 1.215373 0.000000 0.000001 0.000000 0.000000 0.130798
    22 1.215372 0.000000 0.000001 0.000000 0.000000 1.151880
    23 4.220531 -0.244854 0.431466 -0.011400 0.078000 0.147652
    24 1.350417 0.000001 -0.000001 0.000000 0.000000 0.977293
    25 1.350410 -0.000001 0.000001 0.000000 0.000000 1.518344
    26 4.262825 -0.232720 -1.392178 0.021226 -0.052274 0.146778
    27 -2.418287 0.139977 2.430972 -0.077089 -1.168638 3.076220
    28 4.640942 0.000000 -0.000001 -0.488484 -0.018473 -1.695326
    29 10.828047 0.000000 -0.000002 0.000000 0.000000 -0.780577
    30 9.393336 -0.000001 0.000000 -2.149514 -0.356735 0.459727
    31 1.442245 0.107453 -1.746177 1.545065 0.350667 0.095007
    32 1.063452 -0.000001 -0.000001 0.000000 0.000000 0.199056
    33 1.376307 -0.000001 0.000000 0.000000 0.000000 0.199053
    34 4.172847 -0.251366 -1.312744 0.007990 -0.043865 0.147531
    35 1.215373 0.000001 0.000000 0.000000 0.000000 0.645758
    36 1.215371 -0.000001 0.000000 0.000000 0.000000 0.881369
    37 4.220535 -0.244855 -0.431465 0.001333 0.026242 0.148333
    38 1.350416 0.000000 0.000000 0.000000 0.000000 0.732994
    39 1.350410 -0.000001 -0.000001 0.000000 0.000000 1.256567
    40 4.237636 -0.195359 0.527090 0.025769 0.128431 0.455451
    41 1.215376 0.000001 0.000001 0.000000 0.000000 0.401351
    42 1.215371 0.000000 0.000000 0.000000 0.000000 1.326353
    43 4.262829 -0.232721 1.392178 0.025466 0.184116 0.480058
    44 1.012811 0.000000 0.000000 0.000000 0.000000 0.584666
    45 1.012809 -0.000001 0.000000 0.000000 0.000000 0.837704
    46 1.376306 -0.000001 0.000000 0.000000 0.000000 0.811525
    47 4.237632 -0.195359 -0.527090 0.000345 -0.008861 0.148285
    48 1.215375 0.000001 -0.000001 0.000000 0.000000 0.977293
    49 1.215371 0.000000 0.000001 0.000000 0.000000 1.518344
    50 1.012810 0.000001 0.000000 0.000000 0.000000 0.977293
    51 1.012810 -0.000001 0.000000 0.000000 0.000000 1.186713
    52 2.110540 0.000000 0.000000 0.106328 0.244209 -0.144121
    53 5.253243 3.139475 -1.673515 2.984594 -1.570796 0.000000
    54 5.253259 3.139473 -0.054760 3.106741 -1.570796 0.000000
    55 5.253252 3.139468 1.574632 2.984594 -1.570796 0.000000
    56 4.598148 4.158443 -1.350299 2.984594 -1.570796 0.000000
    57 4.598139 4.158430 -0.054439 2.984594 -1.570796 0.000000
    58 4.598140 4.158430 1.240876 2.984594 -1.570796 0.000000
    59 0.891927 2.373051 -0.014527 -3.141592 -0.000001 1.413797
    60 7.228122 5.709446 3.726568 3.140796 -1.570796 0.000000
  time 14
    0 1.273347 8.254813 38.228291 -0.032694 -0.000511 -1.632013
    1 1.488654 0.093753 0.000000 -0.000112 -1.518483 -1.570725
    2 -0.000006 0.000008 4.427393 6.134098 -3.139467 0.112171
    3 18.465940 0.000000 0.000000 0.000000 0.000000 -0.294757
    4 14.875443 0.000000 -0.000001 0.036457 -0.031495 0.383860
    5 0.000006 -0.000004 -4.427393 -6.195541 3.102592 5.921555
    6 18.465940 0.000000 0.000000 0.000000 0.000000 -0.547773
    7 14.875443 0.000000 0.000000 0.057490 -0.014577 0.184779
    8 2.255207 -0.007574 0.113288 -0.066252 -0.002206 -0.144946
    9 9.514226 -0.009357 0.000000 0.025212 -0.102729 -0.050571
    10 2.450429 5.076128 0.001325 3.201788 -1.570796 0.000000
    11 6.312407 -4.528058 0.001311 3.207890 -1.570796 0.000000
    12 2.233310 1.152535 -7.309138 -1.044568 -1.534652 -0.988520
    13 11.751820 -0.001633 0.000000 -0.034144 0.101808 0.134371
    14 -1.890927 0.319682 -2.837232 0.445500 1.274328 3.418501
    15 4.640942 0.000000 0.000000 0.637388 -0.046569 -1.726430
    16 10.828047 0.000000 0.000000 0.000000 0.000000 -0.913530
    17 9.393338 0.000000 0.000001 2.225516 0.187672 0.491286
    18 1.442242 0.107453 1.746178 -2.449369 -0.338953 0.923082
    19 1.063451 0.000000 -0.000001 0.000000 0.000000 0.366492
    20 4.172844 -0.251366 1.312745 -0.000488 -0.096055 0.069756
    21 1.215373 0.000000 0.000001 0.000000 0.000000 0.130798
    22 1.215372 0.000000 0.000001 0.000000 0.000000 1.151880
    23 4.220531 -0.244854 0.431466 -0.011400 0.078000 0.147652
    24 1.350417 0.000001 -0.000001 0.000000 0.000000 0.977293
    25 1.350410 -0.000001 0.000001 0.000000 0.000000 1.518344
    26 4.262825 -0.232720 -1.392178 0.021226 -0.052274 0.146778
    27 -2.418287 0.139977 2.430972 -0.077089 -1.168638 3.076220
    28 4.640942 0.000000 -0.000001 -0.485752 -0.040407 -1.712066
    29 10.828047 0.000000 -0.000002 0.000000 0.000000 -0.736405
    30 9.393336 -0.000001 0.000000 -2.163058 -0.341108 0.452694
    31 1.442245 0.107453 -1.746177 1.545065 0.350667 0.095007
    32 1.063452 -0.000001 -0.000001 0.000000 0.000000 0.199056
    33 1.376307 -0.000001 0.000000 0.000000 0.000000 0.199053
    34 4.172847 -0.251366 -1.312744 0.007990 -0.043865 0.147531
    35 1.215373 0.000001 0.000000 0.000000 0.000000 0.645758
    36 1.215371 -0.000001 0.000000 0.000000 0.000000 0.881369
    37 4.220535 -0.244855 -0.431465 0.001333 0.026242 0.148333
    38 1.350416 0.000000 0.000000 0.000000 0.000000 0.732994
    39 1.350410 -0.000001 -0.000001 0.000000 0.000000 1.256567
    40 4.237636 -0.195359 0.527090 0.025769 0.128431 0.455451
    41 1.215376 0.000001 0.000001 0.000000 0.000000 0.401351
    42 1.215371 0.000000 0.000000 0.000000 0.000000 1.326353
    43 4.262829 -0.232721 1.392178 0.025466 0.184116 0.480058
    44 1.012811 0.000000 0.000000 0.000000 0.000000 0.584666
    45 1.012809 -0.000001 0.000000 0.000000 0.000000 0.837704
    46 1.376306 -0.000001 0.000000 0.000000 0.000000 0.811525
    47 4.237632 -0.195359 -0.527090 0.000345 -0.008861 0.148285
    48 1.215375 0.000001 -0.000001 0.000000 0.000000 0.977293
    49 1.215371 0.000000 0.000001 0.000000 0.000000 1.518344
    50 1.012810 0.000001 0.000000 0.000000 0.000000 0.977293
    51 1.012810 -0.000001 0.000000 0.000000 0.000000 1.186713
    52 2.110540 0.000000 0.000000 0.104477 0.245802 -0.171816
    53 5.253243 3.139475 -1.673515 2.984594 -1.570796 0.000000
    54 5.253259 3.139473 -0.054760 3.106741 -1.570796 0.000000
    55 5.253252 3.139468 1.574632 2.984594 -1.570796 0.000000
    56 4.598148 4.158443 -1.350299 2.984594 -1.570796 0.000000
    57 4.598139 4.158430 -0.054439 2.984594 -1.570796 0.000000
    58 4.598140 4.158430 1.240876 2.984594 -1.570796 0.000000
    59 0.891927 2.373051 -0.014527 -3.141592 -0.000001 1.413797
    60 7.228122 5.709446 3.726568 3.140796 -1.570796 0.000000
  time 15
    0 1.273347 8.254813 38.228291 -0.032694 -0.000511 -1.632013
    1 1.359744 0.101566 0.000000 -0.000112 -1.518483 -1.570725
    2 -0.000006 0.000008 4.427393 6.134002 -3.138796 0.101912
    3 18.465940 0.000000 0.000000 0.000000 0.000000 -0.309597
    4 14.875443 0.000000 -0.000001 0.036635 -0.030665 0.388482
    5 0.000006 -0.000004 -4.427393 -6.195637 3.102400 5.919063
    6 18.465940 0.000000 0.000000 0.000000 0.000000 -0.544754
    7 14.875443 0.000000 0.000000 0.057490 -0.014668 0.179151
    8 2.255207 -0.007574 0.113288 -0.066293 -0.001559 -0.135285
    9 9.514226 -0.009357 0.000000 0.024649 -0.102877 -0.044531
    10 2.450429 5.076128 0.001325 3.201788 -1.570796 0.000000
    11 6.312407 -4.528058 0.001311 3.201869 -1.570796 0.000000
    12 2.233310 1.152535 -7.309138 -1.044568 -1.534652 -0.988520
    13 11.751820 -0.001633 0.000000 -0.034144 0.101808 0.134371
    14 -1.890927 0.319682 -2.837232 0.445500 1.274328 3.418501
    15 4.640942 0.000000 0.000000 0.636337 -0.022300 -1.749423
    16 10.828047 0.000000 0.000000 0.000000 0.000000 -0.852448
    17 9.393338 0.000000 0.000001 2.229380 0.174790 0.472277
    18 1.442242 0.107453 1.746178 -2.449369 -0.338953 0.923082
    19 1.063451 0.000000 -0.000001 0.000000 0.000000 0.366492
    20 4.172844 -0.251366 1.312745 -0.000488 -0.096055 0.069756
    21 1.215373 0.000000 0.000001 0.000000 0.000000 0.130798
    22 1.215372 0.000000 0.000001 0.000000 0.000000 1.151880
    23 4.220531 -0.244854 0.431466 -0.011400 0.078000 0.147652
    24 1.350417 0.000001 -0.000001 0.000000 0.000000 0.977293
    25 1.350410 -0.000001 0.000001 0.000000 0.000000 1.518344
    26 4.262825 -0.232720 -1.392178 0.021226 -0.052274 0.146778
    27 -2.418287 0.139977 2.430972 -0.077089 -1.168638 3.076220
    28 4.640942 0.000000 -0.000001 -0.482276 -0.062486 -1.733139
    29 10.828047 0.000000 -0.000002 0.000000 0.000000 -0.674416
    30 9.393336 -0.000001 0.000000 -2.174851 -0.327048 0.429300
    31 1.442245 0.107453 -1.746177 1.545065 0.350667 0.095007
    32 1.063452 -0.000001 -0.000001 0.000000 0.000000 0.199056
    33 1.376307 -0.000001 0.000000 0.000000 0.000000 0.199053
    34 4.172847 -0.251366 -1.312744 0.007990 -0.043865 0.147531
    35 1.215373 0.000001 0.000000 0.000000 0.000000 0.645758
    36 1.215371 -0.000001 0.000000 0.000000 0.000000 0.881369
    37 4.220535 -0.244855 -0.431465 0.001333 0.026242 0.148333
    38 1.350416 0.000000 0.000000 0.000000 0.000000 0.732994
    39 1.350410 -0.000001 -0.000001 0.000000 0.000000 1.256567
    40 4.237636 -0.195359 0.527090 0.025769 0.128431 0.455451
    41 1.215376 0.000001 0.000001 0.000000 0.000000 0.401351
    42 1.215371 0.000000 0.000000 0.000000 0.000000 1.326353
    43 4.262829 -0.232721 1.392178 0.025466 0.184116 0.480058
    44 1.012811 0.000000 0.000000 0.000000 0.000000 0.584666
    45 1.012809 -0.000001 0.000000 0.000000 0.000000 0.837704
    46 1.376306 -0.000001 0.000000 0.000000 0.000000 0.811525
    47 4.237632 -0.195359 -0.527090 0.000345 -0.008861 0.148285
    48 1.215375 0.000001 -0.000001 0.000000 0.000000 0.977293
    49 1.215371 0.000000 0.000001 0.000000 0.000000 1.518344
    50 1.012810 0.000001 0.000000 0.000000 0.000000 0.977293
    51 1.012810 -0.000001 0.000000 0.000000 0.000000 1.186713
    52 2.110540 0.000000 0.000000 0.102832 0.247215 -0.196157
    53 5.253243 3.139475 -1.673515 2.984594 -1.570796 0.000000
    54 5.253259 3.139473 -0.054760 3.106741 -1.570796 0.000000
    55 5.253252 3.139468 1.574632 2.984594 -1.570796 0.000000
    56 4.598148 4.158443 -1.350299 2.984594 -1.570796 0.000000
    57 4.598139 4.158430 -0.054439 2.984594 -1.570796 0.000000
    58 4.598140 4.158430 1.240876 2.984594 -1.570796 0.000000
    59 0.891927 2.373051 -0.014527 -3.141592 -0.000001 1.413797
    60 7.228122 5.709446 3.726568 3.140796 -1.570796 0.000000
end
