version 1
nodes
  0 "Bip01" -1
  1 "Bip01 Pelvis" 0
  2 "Bip01 L Thigh" 1
  3 "Bip01 L Calf" 2
  4 "Bip01 L Foot" 3
  5 "Bip01 R Thigh" 1
  6 "Bip01 R Calf" 5
  7 "Bip01 R Foot" 6
  8 "Bip01 Spine" 1
  9 "Bip01 Spine1" 8
  10 "Armour Front" 8
  11 "Armour Back" 8
  12 "Holster" 1
  13 "Bip01 Neck" 9
  14 "Bip01 R Clavicle" 13
  15 "Bip01 R UpperArm" 14
  16 "Bip01 R Forearm" 15
  17 "Bip01 R Hand" 16
  18 "Bip01 R Finger0" 17
  19 "Bip01 R Finger01" 18
  20 "Bip01 R Finger1" 17
  21 "Bip01 R Finger11" 20
  22 "Bip01 R Finger12" 21
  23 "Bip01 R Finger2" 17
  24 "Bip01 R Finger21" 23
  25 "Bip01 R Finger22" 24
  26 "Bip01 R Finger4" 17
  27 "Bip01 L Clavicle" 13
  28 "Bip01 L UpperArm" 27
  29 "Bip01 L Forearm" 28
  30 "Bip01 L Hand" 29
  31 "Bip01 L Finger0" 30
  32 "Bip01 L Finger01" 31
  33 "Bip01 L Finger02" 32
  34 "Bip01 L Finger1" 30
  35 "Bip01 L Finger11" 34
  36 "Bip01 L Finger12" 35
  37 "Bip01 L Finger2" 30
  38 "Bip01 L Finger21" 37
  39 "Bip01 L Finger22" 38
  40 "Bip01 L Finger3" 30
  41 "Bip01 L Finger31" 40
  42 "Bip01 L Finger32" 41
  43 "Bip01 L Finger4" 30
  44 "Bip01 L Finger41" 43
  45 "Bip01 L Finger42" 44
  46 "Bip01 R Finger02" 19
  47 "Bip01 R Finger3" 17
  48 "Bip01 R Finger31" 47
  49 "Bip01 R Finger32" 48
  50 "Bip01 R Finger41" 26
  51 "Bip01 R Finger42" 50
  52 "Bip01 Head" 13
  53 "R_eyebrow" 52
  54 "C_eyebrow" 52
  55 "L_eyebrow" 52
  56 "R_eye" 52
  57 "Eyelids" 52
  58 "L_eye" 52
  59 "Mouth" 52
  60 "ID Tag" 9
end
skeleton
  time 0
    0 1.718674 6.767937 38.401563 0.000000 0.000000 -1.701811
    1 0.164395 -0.125004 0.000000 -1.570795 -1.570451 0.000000
    2 -0.000006 0.000008 4.427393 6.112432 3.130217 0.000858
    3 18.465940 0.000000 0.000000 0.000000 0.000000 -0.416547
    4 14.875443 0.000000 -0.000001 0.018432 0.017416 0.402071
    5 0.000006 -0.000004 -4.427393 -6.177133 3.095689 5.920884
    6 18.465940 0.000000 0.000000 0.000000 0.000000 -0.394325
    7 14.875443 0.000000 0.000000 -0.002065 0.005218 0.029353
    8 2.255207 -0.007574 0.000003 0.122038 -0.017391 -0.001321
    9 9.514226 -0.009357 0.000000 -0.008742 0.002352 -0.095859
    10 2.450429 5.076128 0.001325 3.132102 -1.570796 0.000000
    11 6.312407 -4.528058 0.001311 3.140791 -1.570796 0.000000
    12 2.233310 1.152535 -7.309138 -1.954754 -1.570796 0.000000
    13 11.751820 -0.001633 0.000000 0.000024 0.043599 0.439966
    14 -1.890927 0.854855 -2.731760 -0.942423 1.461410 1.764410
    15 4.640942 0.000000 0.000000 -0.601413 -1.183806 0.506842
    16 10.828047 0.000000 0.000000 0.000000 0.000000 -0.234359
    17 9.393338 0.000000 0.000001 1.569611 -0.034190 0.000011
    18 1.442242 0.107453 1.746178 -1.686405 -0.539236 0.325847
    19 1.063451 0.000000 -0.000001 0.000000 0.000000 0.199056
    20 4.172844 -0.251366 1.312745 -0.008026 -0.095731 0.148653
    21 1.215373 0.000000 0.000001 0.000000 0.000000 0.645746
    22 1.215372 0.000000 0.000001 0.000000 0.000000 0.645746
    23 4.220531 -0.244854 0.431466 -0.001333 -0.026242 0.148333
    24 1.350417 0.000001 -0.000001 0.000000 0.000000 0.863854
    25 1.350410 -0.000001 0.000001 0.000000 0.000000 0.863875
    26 4.262825 -0.232720 -1.392178 0.016840 0.076668 0.253759
    27 -2.117496 0.854843 2.563789 0.697195 -1.395374 2.006454
    28 4.640942 0.000000 -0.000001 0.738456 1.089872 0.724774
    29 10.828047 0.000000 -0.000002 0.000000 0.000000 -0.470330
    30 9.393336 -0.000001 0.000000 -1.569611 0.034157 0.000091
    31 1.442245 0.107453 -1.746177 1.686435 0.539221 0.325885
    32 1.063452 -0.000001 -0.000001 0.000000 0.000000 0.199056
    33 1.376307 -0.000001 0.000000 0.000000 0.000000 0.199053
    34 4.172847 -0.251366 -1.312744 0.008026 0.095731 0.148653
    35 1.215373 0.000001 0.000000 0.000000 0.000000 0.645758
    36 1.215371 -0.000001 0.000000 0.000000 0.000000 0.645758
    37 4.220535 -0.244855 -0.431465 0.001333 0.026242 0.148333
    38 1.350416 0.000000 0.000000 0.000000 0.000000 0.863850
    39 1.350410 -0.000001 -0.000001 0.000000 0.000000 0.863880
    40 4.237636 -0.195359 0.527090 0.000662 0.008837 0.261753
    41 1.215376 0.000001 0.000001 0.000000 0.000000 0.977275
    42 1.215371 0.000000 0.000000 0.000000 0.000000 0.977290
    43 4.262829 -0.232721 1.392178 -0.016840 -0.076668 0.253759
    44 1.012811 0.000000 0.000000 0.000000 0.000000 0.968559
    45 1.012809 -0.000001 0.000000 0.000000 0.000000 0.968559
    46 1.376306 -0.000001 0.000000 0.000000 0.000000 0.199056
    47 4.237632 -0.195359 -0.527090 -0.000662 -0.008837 0.261713
    48 1.215375 0.000001 -0.000001 0.000000 0.000000 0.977293
    49 1.215371 0.000000 0.000001 0.000000 0.000000 0.977318
    50 1.012810 0.000001 0.000000 0.000000 0.000000 0.968648
    51 1.012810 -0.000001 0.000000 0.000000 0.000000 0.968648
    52 2.110540 0.000000 0.000000 0.002417 -0.010494 -0.153582
    53 5.253243 3.139475 -1.673515 2.984594 -1.570796 0.000000
    54 5.253259 3.139473 -0.054760 2.984594 -1.570796 0.000000
    55 5.253252 3.139468 1.574632 2.984594 -1.570796 0.000000
    56 4.598148 4.158443 -1.350299 2.984594 -1.570796 0.000000
    57 4.598139 4.158430 -0.054439 2.984594 -1.570796 0.000000
    58 4.598140 4.158430 1.240876 2.984594 -1.570796 0.000000
    59 0.891927 2.373051 -0.014527 -3.141592 -0.000001 1.413797
    60 7.228122 5.709446 3.726568 3.140796 -1.570796 0.000000
  time 1
    0 0.968651 5.387903 38.464571 0.005465 -0.000959 -1.780046
    1 -0.214523 -0.136723 0.000000 -0.000112 -1.542843 -1.570725
    2 -0.000006 0.000008 4.427393 6.113007 3.087937 0.041798
    3 18.465940 0.000000 0.000000 0.000000 0.000000 -0.354555
    4 14.875443 0.000000 -0.000001 -0.031306 0.020332 0.381095
    5 0.000006 -0.000004 -4.427393 -6.186721 3.078047 5.916954
    6 18.465940 0.000000 0.000000 0.000000 0.000000 -0.408173
    7 14.875443 0.000000 0.000000 -0.050740 -0.006877 0.040307
    8 2.255207 -0.007574 0.058599 0.079534 -0.044739 0.021838
    9 9.514226 -0.009357 0.000000 -0.007391 0.004395 -0.063906
    10 2.450429 5.076128 0.001325 3.136139 -1.570796 0.000000
    11 6.312407 -4.528058 0.001311 3.140791 -1.570796 0.000000
    12 2.233310 1.152535 -7.309138 -1.140437 -1.587485 -0.834952
    13 11.751820 -0.001633 0.000000 0.000024 0.043599 0.439966
    14 -1.890927 0.854855 -2.731760 -0.612983 1.491894 2.090775
    15 4.640942 0.000000 0.000000 -0.583925 -1.126620 0.534701
    16 10.828047 0.000000 0.000000 0.000000 0.000000 -0.432137
    17 9.393338 0.000000 0.000001 1.569611 -0.034190 0.000011
    18 1.442242 0.107453 1.746178 -1.686405 -0.539236 0.325847
    19 1.063451 0.000000 -0.000001 0.000000 0.000000 0.199056
    20 4.172844 -0.251366 1.312745 -0.008026 -0.095731 0.148653
    21 1.215373 0.000000 0.000001 0.000000 0.000000 0.645746
    22 1.215372 0.000000 0.000001 0.000000 0.000000 0.645746
    23 4.220531 -0.244854 0.431466 -0.001333 -0.026242 0.148333
    24 1.350417 0.000001 -0.000001 0.000000 0.000000 0.863854
    25 1.350410 -0.000001 0.000001 0.000000 0.000000 0.863875
    26 4.262825 -0.232720 -1.392178 0.016840 0.076668 0.253759
    27 -2.117496 0.854843 2.563789 0.721013 -1.391773 1.982685
    28 4.640942 0.000000 -0.000001 0.584188 1.137204 0.590555
    29 10.828047 0.000000 -0.000002 0.000000 0.000000 -0.634453
    30 9.393336 -0.000001 0.000000 -1.569611 0.034157 0.000091
    31 1.442245 0.107453 -1.746177 1.686435 0.539221 0.325885
    32 1.063452 -0.000001 -0.000001 0.000000 0.000000 0.199056
    33 1.376307 -0.000001 0.000000 0.000000 0.000000 0.199053
    34 4.172847 -0.251366 -1.312744 0.008026 0.095731 0.148653
    35 1.215373 0.000001 0.000000 0.000000 0.000000 0.645758
    36 1.215371 -0.000001 0.000000 0.000000 0.000000 0.645758
    37 4.220535 -0.244855 -0.431465 0.001333 0.026242 0.148333
    38 1.350416 0.000000 0.000000 0.000000 0.000000 0.863850
    39 1.350410 -0.000001 -0.000001 0.000000 0.000000 0.863880
    40 4.237636 -0.195359 0.527090 0.000662 0.008837 0.261753
    41 1.215376 0.000001 0.000001 0.000000 0.000000 0.977275
    42 1.215371 0.000000 0.000000 0.000000 0.000000 0.977290
    43 4.262829 -0.232721 1.392178 -0.016840 -0.076668 0.253759
    44 1.012811 0.000000 0.000000 0.000000 0.000000 0.968559
    45 1.012809 -0.000001 0.000000 0.000000 0.000000 0.968559
    46 1.376306 -0.000001 0.000000 0.000000 0.000000 0.199056
    47 4.237632 -0.195359 -0.527090 -0.000662 -0.008837 0.261713
    48 1.215375 0.000001 -0.000001 0.000000 0.000000 0.977293
    49 1.215371 0.000000 0.000001 0.000000 0.000000 0.977318
    50 1.012810 0.000001 0.000000 0.000000 0.000000 0.968648
    51 1.012810 -0.000001 0.000000 0.000000 0.000000 0.968648
    52 2.110540 0.000000 0.000000 0.043395 -0.021619 -0.207553
    53 5.253243 3.139475 -1.673515 2.984594 -1.570796 0.000000
    54 5.253259 3.139473 -0.054760 2.984594 -1.570796 0.000000
    55 5.253252 3.139468 1.574632 2.984594 -1.570796 0.000000
    56 4.598148 4.158443 -1.350299 2.984594 -1.570796 0.000000
    57 4.598139 4.158430 -0.054439 2.984594 -1.570796 0.000000
    58 4.598140 4.158430 1.240876 2.984594 -1.570796 0.000000
    59 0.891927 2.373051 -0.014527 -3.141592 -0.000001 1.413797
    60 7.228122 5.709446 3.726568 3.140796 -1.570796 0.000000
  time 2
    0 0.222534 3.767475 38.559083 0.011697 -0.001854 -1.869787
    1 -0.640317 -0.125004 0.000000 -0.000112 -1.510823 -1.570725
    2 -0.000006 0.000008 4.427393 6.124223 3.029934 0.153398
    3 18.465940 0.000000 0.000000 0.000000 0.000000 -0.175161
    4 14.875443 0.000000 -0.000001 -0.104472 0.021162 0.313228
    5 0.000006 -0.000004 -4.427393 -6.196788 3.061077 5.914271
    6 18.465940 0.000000 0.000000 0.000000 0.000000 -0.454247
    7 14.875443 0.000000 0.000000 -0.122718 -0.025005 0.085326
    8 2.255207 -0.007574 0.132820 0.029291 -0.074804 0.048406
    9 9.514226 -0.009357 0.000000 -0.005703 0.006693 -0.027234
    10 2.450429 5.076128 0.001325 3.140177 -1.570796 0.000000
    11 6.312407 -4.528058 0.001311 3.140791 -1.570796 0.000000
    12 2.233310 1.152535 -7.309138 -1.150312 -1.605688 -0.839452
    13 11.751820 -0.001633 0.000000 0.000024 0.043599 0.439966
    14 -1.890927 0.854855 -2.731760 -0.035747 1.506098 2.665115
    15 4.640942 0.000000 0.000000 -0.544074 -1.076826 0.538939
    16 10.828047 0.000000 0.000000 0.000000 0.000000 -0.629980
    17 9.393338 0.000000 0.000001 1.569611 -0.034190 0.000011
    18 1.442242 0.107453 1.746178 -1.686405 -0.539236 0.325847
    19 1.063451 0.000000 -0.000001 0.000000 0.000000 0.199056
    20 4.172844 -0.251366 1.312745 -0.008026 -0.095731 0.148653
    21 1.215373 0.000000 0.000001 0.000000 0.000000 0.645746
    22 1.215372 0.000000 0.000001 0.000000 0.000000 0.645746
    23 4.220531 -0.244854 0.431466 -0.001333 -0.026242 0.148333
    24 1.350417 0.000001 -0.000001 0.000000 0.000000 0.863854
    25 1.350410 -0.000001 0.000001 0.000000 0.000000 0.863875
    26 4.262825 -0.232720 -1.392178 0.016840 0.076668 0.253759
    27 -2.117496 0.854843 2.563789 0.744069 -1.388046 1.959872
    28 4.640942 0.000000 -0.000001 0.377153 1.174940 0.410152
    29 10.828047 0.000000 -0.000002 0.000000 0.000000 -0.798637
    30 9.393336 -0.000001 0.000000 -1.569611 0.034157 0.000091
    31 1.442245 0.107453 -1.746177 1.686435 0.539221 0.325885
    32 1.063452 -0.000001 -0.000001 0.000000 0.000000 0.199056
    33 1.376307 -0.000001 0.000000 0.000000 0.000000 0.199053
    34 4.172847 -0.251366 -1.312744 0.008026 0.095731 0.148653
    35 1.215373 0.000001 0.000000 0.000000 0.000000 0.645758
    36 1.215371 -0.000001 0.000000 0.000000 0.000000 0.645758
    37 4.220535 -0.244855 -0.431465 0.001333 0.026242 0.148333
    38 1.350416 0.000000 0.000000 0.000000 0.000000 0.863850
    39 1.350410 -0.000001 -0.000001 0.000000 0.000000 0.863880
    40 4.237636 -0.195359 0.527090 0.000662 0.008837 0.261753
    41 1.215376 0.000001 0.000001 0.000000 0.000000 0.977275
    42 1.215371 0.000000 0.000000 0.000000 0.000000 0.977290
    43 4.262829 -0.232721 1.392178 -0.016840 -0.076668 0.253759
    44 1.012811 0.000000 0.000000 0.000000 0.000000 0.968559
    45 1.012809 -0.000001 0.000000 0.000000 0.000000 0.968559
    46 1.376306 -0.000001 0.000000 0.000000 0.000000 0.199056
    47 4.237632 -0.195359 -0.527090 -0.000662 -0.008837 0.261713
    48 1.215375 0.000001 -0.000001 0.000000 0.000000 0.977293
    49 1.215371 0.000000 0.000001 0.000000 0.000000 0.977318
    50 1.012810 0.000001 0.000000 0.000000 0.000000 0.968648
    51 1.012810 -0.000001 0.000000 0.000000 0.000000 0.968648
    52 2.110540 0.000000 0.000000 0.090852 -0.033315 -0.269651
    53 5.253243 3.139475 -1.673515 2.984594 -1.570796 0.000000
    54 5.253259 3.139473 -0.054760 2.984594 -1.570796 0.000000
    55 5.253252 3.139468 1.574632 2.984594 -1.570796 0.000000
    56 4.598148 4.158443 -1.350299 2.984594 -1.570796 0.000000
    57 4.598139 4.158430 -0.054439 2.984594 -1.570796 0.000000
    58 4.598140 4.158430 1.240876 2.984594 -1.570796 0.000000
    59 0.891927 2.373051 -0.014527 -3.141592 -0.000001 1.413797
    60 7.228122 5.709446 3.726568 3.140796 -1.570796 0.000000
  time 3
    0 -0.625148 2.173758 38.653595 0.018504 -0.001981 -1.962404
    1 -1.085643 -0.082034 0.000000 -0.000112 -1.477725 -1.570725
    2 -0.000006 0.000008 4.427393 6.146657 2.967713 0.276024
    3 18.465940 0.000000 0.000000 0.000000 0.000000 -0.001980
    4 14.875443 0.000000 -0.000001 -0.189406 0.014734 0.210282
    5 0.000006 -0.000004 -4.427393 -6.205320 3.041135 5.920117
    6 18.465940 0.000000 0.000000 0.000000 0.000000 -0.511085
    7 14.875443 0.000000 0.000000 -0.209681 -0.042072 0.150265
    8 2.247394 -0.007574 0.207041 -0.024113 -0.104376 0.075867
    9 9.514226 -0.009357 0.000000 -0.003977 0.009004 0.010478
    10 2.450429 5.076128 0.001325 3.133155 -1.570796 0.000000
    11 6.312407 -4.528058 0.001311 3.140791 -1.570796 0.000000
    12 2.233310 1.152535 -7.309138 -1.150600 -1.628871 -0.835814
    13 11.751820 -0.001633 0.000000 0.000024 0.043599 0.439966
    14 -1.890927 0.854855 -2.731760 0.470585 1.498332 3.168671
    15 4.640942 0.000000 0.000000 -0.498108 -1.030449 0.553143
    16 10.828047 0.000000 0.000000 0.000000 0.000000 -0.783136
    17 9.393338 0.000000 0.000001 1.569611 -0.034190 0.000011
    18 1.442242 0.107453 1.746178 -1.686405 -0.539236 0.325847
    19 1.063451 0.000000 -0.000001 0.000000 0.000000 0.199056
    20 4.172844 -0.251366 1.312745 -0.008026 -0.095731 0.148653
    21 1.215373 0.000000 0.000001 0.000000 0.000000 0.645746
    22 1.215372 0.000000 0.000001 0.000000 0.000000 0.645746
    23 4.220531 -0.244854 0.431466 -0.001333 -0.026242 0.148333
    24 1.350417 0.000001 -0.000001 0.000000 0.000000 0.863854
    25 1.350410 -0.000001 0.000001 0.000000 0.000000 0.863875
    26 4.262825 -0.232720 -1.392178 0.016840 0.076668 0.253759
    27 -2.117496 0.854843 2.563789 0.714916 -1.392730 1.988890
    28 4.640942 0.000000 -0.000001 0.138023 1.193628 0.187019
    29 10.828047 0.000000 -0.000002 0.000000 0.000000 -0.911388
    30 9.393336 -0.000001 0.000000 -1.569611 0.034157 0.000091
    31 1.442245 0.107453 -1.746177 1.686435 0.539221 0.325885
    32 1.063452 -0.000001 -0.000001 0.000000 0.000000 0.199056
    33 1.376307 -0.000001 0.000000 0.000000 0.000000 0.199053
    34 4.172847 -0.251366 -1.312744 0.008026 0.095731 0.148653
    35 1.215373 0.000001 0.000000 0.000000 0.000000 0.645758
    36 1.215371 -0.000001 0.000000 0.000000 0.000000 0.645758
    37 4.220535 -0.244855 -0.431465 0.001333 0.026242 0.148333
    38 1.350416 0.000000 0.000000 0.000000 0.000000 0.863850
    39 1.350410 -0.000001 -0.000001 0.000000 0.000000 0.863880
    40 4.237636 -0.195359 0.527090 0.000662 0.008837 0.261753
    41 1.215376 0.000001 0.000001 0.000000 0.000000 0.977275
    42 1.215371 0.000000 0.000000 0.000000 0.000000 0.977290
    43 4.262829 -0.232721 1.392178 -0.016840 -0.076668 0.253759
    44 1.012811 0.000000 0.000000 0.000000 0.000000 0.968559
    45 1.012809 -0.000001 0.000000 0.000000 0.000000 0.968559
    46 1.376306 -0.000001 0.000000 0.000000 0.000000 0.199056
    47 4.237632 -0.195359 -0.527090 -0.000662 -0.008837 0.261713
    48 1.215375 0.000001 -0.000001 0.000000 0.000000 0.977293
    49 1.215371 0.000000 0.000001 0.000000 0.000000 0.977318
    50 1.012810 0.000001 0.000000 0.000000 0.000000 0.968648
    51 1.012810 -0.000001 0.000000 0.000000 0.000000 0.968648
    52 2.110540 0.000000 0.000000 0.140160 -0.044079 -0.334416
    53 5.253243 3.139475 -1.673515 2.984594 -1.570796 0.000000
    54 5.253259 3.139473 -0.054760 2.984594 -1.570796 0.000000
    55 5.253252 3.139468 1.574632 2.984594 -1.570796 0.000000
    56 4.598148 4.158443 -1.350299 2.984594 -1.570796 0.000000
    57 4.598139 4.158430 -0.054439 2.984594 -1.570796 0.000000
    58 4.598140 4.158430 1.240876 2.984594 -1.570796 0.000000
    59 0.891927 2.373051 -0.014527 -3.141592 -0.000001 1.413797
    60 7.228122 5.709446 3.726568 3.140796 -1.570796 0.000000
  time 4
    0 -1.437673 0.597848 38.732354 0.024640 -0.001662 -2.049268
    1 -1.499719 -0.019532 0.000000 -0.000112 -1.446711 -1.570725
    2 -0.000006 0.000008 4.427393 6.128729 2.934445 0.166341
    3 18.465940 0.000000 0.000000 0.000000 0.000000 -0.479854
    4 14.875443 0.000000 -0.000001 -0.128292 -0.057866 0.260530
    5 0.000006 -0.000004 -4.427393 -6.213661 3.016591 5.933056
    6 18.465940 0.000000 0.000000 0.000000 0.000000 -0.576061
    7 14.875443 0.000000 0.000000 -0.301557 -0.052136 0.230360
    8 2.247394 -0.007574 0.273449 -0.075895 -0.130736 0.101641
    9 9.514226 -0.009357 0.000000 -0.002214 0.011101 0.046003
    10 2.450429 5.076128 0.001325 3.100946 -1.570796 0.000000
    11 6.312407 -4.528058 0.001311 3.140791 -1.570796 0.000000
    12 2.233310 1.152535 -7.309138 -1.151942 -1.652812 -0.823272
    13 11.751820 -0.001633 0.000000 0.000024 0.043599 0.439966
    14 -1.890927 0.854855 -2.731760 0.685984 1.487409 3.382692
    15 4.640942 0.000000 0.000000 -0.458353 -0.979400 0.615217
    16 10.828047 0.000000 0.000000 0.000000 0.000000 -0.830265
    17 9.393338 0.000000 0.000001 1.569611 -0.034190 0.000011
    18 1.442242 0.107453 1.746178 -1.686405 -0.539236 0.325847
    19 1.063451 0.000000 -0.000001 0.000000 0.000000 0.199056
    20 4.172844 -0.251366 1.312745 -0.008026 -0.095731 0.148653
    21 1.215373 0.000000 0.000001 0.000000 0.000000 0.645746
    22 1.215372 0.000000 0.000001 0.000000 0.000000 0.645746
    23 4.220531 -0.244854 0.431466 -0.001333 -0.026242 0.148333
    24 1.350417 0.000001 -0.000001 0.000000 0.000000 0.863854
    25 1.350410 -0.000001 0.000001 0.000000 0.000000 0.863875
    26 4.262825 -0.232720 -1.392178 0.016840 0.076668 0.253759
    27 -2.117496 0.854843 2.563789 0.604971 -1.407159 2.098091
    28 4.640942 0.000000 -0.000001 -0.103032 1.189515 -0.062044
    29 10.828047 0.000000 -0.000002 0.000000 0.000000 -0.962577
    30 9.393336 -0.000001 0.000000 -1.569611 0.034157 0.000091
    31 1.442245 0.107453 -1.746177 1.686435 0.539221 0.325885
    32 1.063452 -0.000001 -0.000001 0.000000 0.000000 0.199056
    33 1.376307 -0.000001 0.000000 0.000000 0.000000 0.199053
    34 4.172847 -0.251366 -1.312744 0.008026 0.095731 0.148653
    35 1.215373 0.000001 0.000000 0.000000 0.000000 0.645758
    36 1.215371 -0.000001 0.000000 0.000000 0.000000 0.645758
    37 4.220535 -0.244855 -0.431465 0.001333 0.026242 0.148333
    38 1.350416 0.000000 0.000000 0.000000 0.000000 0.863850
    39 1.350410 -0.000001 -0.000001 0.000000 0.000000 0.863880
    40 4.237636 -0.195359 0.527090 0.000662 0.008837 0.261753
    41 1.215376 0.000001 0.000001 0.000000 0.000000 0.977275
    42 1.215371 0.000000 0.000000 0.000000 0.000000 0.977290
    43 4.262829 -0.232721 1.392178 -0.016840 -0.076668 0.253759
    44 1.012811 0.000000 0.000000 0.000000 0.000000 0.968559
    45 1.012809 -0.000001 0.000000 0.000000 0.000000 0.968559
    46 1.376306 -0.000001 0.000000 0.000000 0.000000 0.199056
    47 4.237632 -0.195359 -0.527090 -0.000662 -0.008837 0.261713
    48 1.215375 0.000001 -0.000001 0.000000 0.000000 0.977293
    49 1.215371 0.000000 0.000001 0.000000 0.000000 0.977318
    50 1.012810 0.000001 0.000000 0.000000 0.000000 0.968648
    51 1.012810 -0.000001 0.000000 0.000000 0.000000 0.968648
    52 2.110540 0.000000 0.000000 0.186897 -0.053009 -0.395525
    53 5.253243 3.139475 -1.673515 2.984594 -1.570796 0.000000
    54 5.253259 3.139473 -0.054760 2.984594 -1.570796 0.000000
    55 5.253252 3.139468 1.574632 2.984594 -1.570796 0.000000
    56 4.598148 4.158443 -1.350299 2.984594 -1.570796 0.000000
    57 4.598139 4.158430 -0.054439 2.984594 -1.570796 0.000000
    58 4.598140 4.158430 1.240876 2.984594 -1.570796 0.000000
    59 0.891927 2.373051 -0.014527 -3.141592 -0.000001 1.413797
    60 7.228122 5.709446 3.726568 3.140796 -1.570796 0.000000
  time 5
    0 -2.105662 -0.630828 38.795362 0.029818 -0.000959 -2.121847
    1 -1.839573 0.050783 0.000000 -0.000112 -1.420785 -1.570725
    2 -0.000006 0.000008 4.427393 6.078974 2.971260 6.157102
    3 18.465940 0.000000 0.000000 0.000000 0.000000 -0.967158
    4 14.875443 0.000000 -0.000001 -0.144468 -0.097199 -0.069324
    5 0.000006 -0.000004 -4.427393 -6.218167 2.987828 5.965260
    6 18.465940 0.000000 0.000000 0.000000 0.000000 -0.612946
    7 14.875443 0.000000 0.000000 -0.389363 -0.052015 0.301376
    8 2.235675 -0.007574 0.335951 -0.120304 -0.151660 0.123213
    9 9.514226 -0.009357 0.000000 -0.000638 0.012808 0.075683
    10 2.450429 5.076128 0.001325 3.057765 -1.570796 0.000000
    11 6.312407 -4.528058 0.001311 3.140791 -1.570796 0.000000
    12 2.233310 1.152535 -7.309138 -1.158749 -1.674277 -0.805177
    13 11.751820 -0.001633 0.000000 0.000024 0.043599 0.439966
    14 -1.890927 0.854855 -2.731760 0.699036 1.486495 3.395587
    15 4.640942 0.000000 0.000000 -0.423472 -0.934419 0.704602
    16 10.828047 0.000000 0.000000 0.000000 0.000000 -0.812712
    17 9.393338 0.000000 0.000001 1.569611 -0.034190 0.000011
    18 1.442242 0.107453 1.746178 -1.686405 -0.539236 0.325847
    19 1.063451 0.000000 -0.000001 0.000000 0.000000 0.199056
    20 4.172844 -0.251366 1.312745 -0.008026 -0.095731 0.148653
    21 1.215373 0.000000 0.000001 0.000000 0.000000 0.645746
    22 1.215372 0.000000 0.000001 0.000000 0.000000 0.645746
    23 4.220531 -0.244854 0.431466 -0.001333 -0.026242 0.148333
    24 1.350417 0.000001 -0.000001 0.000000 0.000000 0.863854
    25 1.350410 -0.000001 0.000001 0.000000 0.000000 0.863875
    26 4.262825 -0.232720 -1.392178 0.016840 0.076668 0.253759
    27 -2.117496 0.854843 2.563789 0.422808 -1.423074 2.279360
    28 4.640942 0.000000 -0.000001 -0.302369 1.165561 -0.289040
    29 10.828047 0.000000 -0.000002 0.000000 0.000000 -0.982162
    30 9.393336 -0.000001 0.000000 -1.569611 0.034157 0.000091
    31 1.442245 0.107453 -1.746177 1.686435 0.539221 0.325885
    32 1.063452 -0.000001 -0.000001 0.000000 0.000000 0.199056
    33 1.376307 -0.000001 0.000000 0.000000 0.000000 0.199053
    34 4.172847 -0.251366 -1.312744 0.008026 0.095731 0.148653
    35 1.215373 0.000001 0.000000 0.000000 0.000000 0.645758
    36 1.215371 -0.000001 0.000000 0.000000 0.000000 0.645758
    37 4.220535 -0.244855 -0.431465 0.001333 0.026242 0.148333
    38 1.350416 0.000000 0.000000 0.000000 0.000000 0.863850
    39 1.350410 -0.000001 -0.000001 0.000000 0.000000 0.863880
    40 4.237636 -0.195359 0.527090 0.000662 0.008837 0.261753
    41 1.215376 0.000001 0.000001 0.000000 0.000000 0.977275
    42 1.215371 0.000000 0.000000 0.000000 0.000000 0.977290
    43 4.262829 -0.232721 1.392178 -0.016840 -0.076668 0.253759
    44 1.012811 0.000000 0.000000 0.000000 0.000000 0.968559
    45 1.012809 -0.000001 0.000000 0.000000 0.000000 0.968559
    46 1.376306 -0.000001 0.000000 0.000000 0.000000 0.199056
    47 4.237632 -0.195359 -0.527090 -0.000662 -0.008837 0.261713
    48 1.215375 0.000001 -0.000001 0.000000 0.000000 0.977293
    49 1.215371 0.000000 0.000001 0.000000 0.000000 0.977318
    50 1.012810 0.000001 0.000000 0.000000 0.000000 0.968648
    51 1.012810 -0.000001 0.000000 0.000000 0.000000 0.968648
    52 2.110540 0.000000 0.000000 0.226024 -0.059504 -0.446786
    53 5.253243 3.139475 -1.673515 2.984594 -1.570796 0.000000
    54 5.253259 3.139473 -0.054760 2.984594 -1.570796 0.000000
    55 5.253252 3.139468 1.574632 2.984594 -1.570796 0.000000
    56 4.598148 4.158443 -1.350299 2.984594 -1.570796 0.000000
    57 4.598139 4.158430 -0.054439 2.984594 -1.570796 0.000000
    58 4.598140 4.158430 1.240876 2.984594 -1.570796 0.000000
    59 0.891927 2.373051 -0.014527 -3.141592 -0.000001 1.413797
    60 7.228122 5.709446 3.726568 3.140796 -1.570796 0.000000
  time 6
    0 -2.550988 -1.503366 38.842618 0.033461 -0.000128 -2.171703
    1 -2.070048 0.113285 0.000000 -0.000112 -1.402964 -1.570725
    2 -0.000006 0.000008 4.427393 6.069866 3.028113 5.983949
    3 18.465940 0.000000 0.000000 0.000000 0.000000 -1.122501
    4 14.875443 0.000000 -0.000001 -0.049082 -0.044649 0.107454
    5 0.000006 -0.000004 -4.427393 -6.219414 2.959640 6.009349
    6 18.465940 0.000000 0.000000 0.000000 0.000000 -0.628895
    7 14.875443 0.000000 0.000000 -0.457270 -0.042284 0.362114
    8 2.227862 -0.007574 0.367202 -0.151341 -0.165477 0.138002
    9 9.514226 -0.009357 0.000000 0.000338 0.013936 0.096054
    10 2.450429 5.076128 0.001325 3.036087 -1.570796 0.000000
    11 6.312407 -4.528058 0.001311 3.140791 -1.570796 0.000000
    12 2.233310 1.152535 -7.309138 -1.167760 -1.692946 -0.778274
    13 11.751820 -0.001633 0.000000 0.000024 0.043599 0.439966
    14 -1.890927 0.854855 -2.731760 0.536214 1.495674 3.233888
    15 4.640942 0.000000 0.000000 -0.400537 -0.890901 0.829379
    16 10.828047 0.000000 0.000000 0.000000 0.000000 -0.785386
    17 9.393338 0.000000 0.000001 1.569611 -0.034190 0.000011
    18 1.442242 0.107453 1.746178 -1.686405 -0.539236 0.325847
    19 1.063451 0.000000 -0.000001 0.000000 0.000000 0.199056
    20 4.172844 -0.251366 1.312745 -0.008026 -0.095731 0.148653
    21 1.215373 0.000000 0.000001 0.000000 0.000000 0.645746
    22 1.215372 0.000000 0.000001 0.000000 0.000000 0.645746
    23 4.220531 -0.244854 0.431466 -0.001333 -0.026242 0.148333
    24 1.350417 0.000001 -0.000001 0.000000 0.000000 0.863854
    25 1.350410 -0.000001 0.000001 0.000000 0.000000 0.863875
    26 4.262825 -0.232720 -1.392178 0.016840 0.076668 0.253759
    27 -2.117496 0.854843 2.563789 0.180053 -1.433776 2.521148
    28 4.640942 0.000000 -0.000001 -0.426032 1.137204 -0.450653
    29 10.828047 0.000000 -0.000002 0.000000 0.000000 -0.977891
    30 9.393336 -0.000001 0.000000 -1.569611 0.034157 0.000091
    31 1.442245 0.107453 -1.746177 1.686435 0.539221 0.325885
    32 1.063452 -0.000001 -0.000001 0.000000 0.000000 0.199056
    33 1.376307 -0.000001 0.000000 0.000000 0.000000 0.199053
    34 4.172847 -0.251366 -1.312744 0.008026 0.095731 0.148653
    35 1.215373 0.000001 0.000000 0.000000 0.000000 0.645758
    36 1.215371 -0.000001 0.000000 0.000000 0.000000 0.645758
    37 4.220535 -0.244855 -0.431465 0.001333 0.026242 0.148333
    38 1.350416 0.000000 0.000000 0.000000 0.000000 0.863850
    39 1.350410 -0.000001 -0.000001 0.000000 0.000000 0.863880
    40 4.237636 -0.195359 0.527090 0.000662 0.008837 0.261753
    41 1.215376 0.000001 0.000001 0.000000 0.000000 0.977275
    42 1.215371 0.000000 0.000000 0.000000 0.000000 0.977290
    43 4.262829 -0.232721 1.392178 -0.016840 -0.076668 0.253759
    44 1.012811 0.000000 0.000000 0.000000 0.000000 0.968559
    45 1.012809 -0.000001 0.000000 0.000000 0.000000 0.968559
    46 1.376306 -0.000001 0.000000 0.000000 0.000000 0.199056
    47 4.237632 -0.195359 -0.527090 -0.000662 -0.008837 0.261713
    48 1.215375 0.000001 -0.000001 0.000000 0.000000 0.977293
    49 1.215371 0.000000 0.000001 0.000000 0.000000 0.977318
    50 1.012810 0.000001 0.000000 0.000000 0.000000 0.968648
    51 1.012810 -0.000001 0.000000 0.000000 0.000000 0.968648
    52 2.110540 0.000000 0.000000 0.253069 -0.063503 -0.482222
    53 5.253243 3.139475 -1.673515 2.984594 -1.570796 0.000000
    54 5.253259 3.139473 -0.054760 2.984594 -1.570796 0.000000
    55 5.253252 3.139468 1.574632 2.984594 -1.570796 0.000000
    56 4.598148 4.158443 -1.350299 2.984594 -1.570796 0.000000
    57 4.598139 4.158430 -0.054439 2.984594 -1.570796 0.000000
    58 4.598140 4.158430 1.240876 2.984594 -1.570796 0.000000
    59 0.891927 2.373051 -0.014527 -3.141592 -0.000001 1.413797
    60 7.228122 5.709446 3.726568 3.140796 -1.570796 0.000000
  time 7
    0 -2.715055 -1.806083 38.874122 0.034611 0.000000 -2.190207
    1 -2.155989 0.136723 0.000000 -0.000112 -1.396353 -1.570725
    2 -0.000006 0.000008 4.427393 6.077056 3.076624 5.883662
    3 18.465940 0.000000 0.000000 0.000000 0.000000 -1.152400
    4 14.875443 0.000000 -0.000001 0.021952 -0.020619 0.358736
    5 0.000006 -0.000004 -4.427393 -6.215387 2.941999 6.065802
    6 18.465940 0.000000 0.000000 0.000000 0.000000 -0.616819
    7 14.875443 0.000000 0.000000 -0.484187 -0.028582 0.405519
    8 2.223956 -0.007574 0.390640 -0.162970 -0.170475 0.143494
    9 9.514226 -0.009357 0.000000 0.000713 0.014380 0.103631
    10 2.450429 5.076128 0.001325 3.040914 -1.570796 0.000000
    11 6.312407 -4.528058 0.001311 3.140791 -1.570796 0.000000
    12 2.233310 1.152535 -7.309138 -1.191152 -1.701654 -0.711160
    13 11.751820 -0.001633 0.000000 0.000024 0.043599 0.439966
    14 -1.890927 0.854855 -2.731760 -0.020103 1.506140 2.680700
    15 4.640942 0.000000 0.000000 -0.388495 -0.874024 0.918998
    16 10.828047 0.000000 0.000000 0.000000 0.000000 -0.729383
    17 9.393338 0.000000 0.000001 1.569611 -0.034190 0.000011
    18 1.442242 0.107453 1.746178 -1.686405 -0.539236 0.325847
    19 1.063451 0.000000 -0.000001 0.000000 0.000000 0.199056
    20 4.172844 -0.251366 1.312745 -0.008026 -0.095731 0.148653
    21 1.215373 0.000000 0.000001 0.000000 0.000000 0.645746
    22 1.215372 0.000000 0.000001 0.000000 0.000000 0.645746
    23 4.220531 -0.244854 0.431466 -0.001333 -0.026242 0.148333
    24 1.350417 0.000001 -0.000001 0.000000 0.000000 0.863854
    25 1.350410 -0.000001 0.000001 0.000000 0.000000 0.863875
    26 4.262825 -0.232720 -1.392178 0.016840 0.076668 0.253759
    27 -2.117496 0.854843 2.563789 -0.074422 -1.435589 2.774868
    28 4.640942 0.000000 -0.000001 -0.467377 1.123351 -0.531255
    29 10.828047 0.000000 -0.000002 0.000000 0.000000 -0.957818
    30 9.393336 -0.000001 0.000000 -1.569611 0.034157 0.000091
    31 1.442245 0.107453 -1.746177 1.686435 0.539221 0.325885
    32 1.063452 -0.000001 -0.000001 0.000000 0.000000 0.199056
    33 1.376307 -0.000001 0.000000 0.000000 0.000000 0.199053
    34 4.172847 -0.251366 -1.312744 0.008026 0.095731 0.148653
    35 1.215373 0.000001 0.000000 0.000000 0.000000 0.645758
    36 1.215371 -0.000001 0.000000 0.000000 0.000000 0.645758
    37 4.220535 -0.244855 -0.431465 0.001333 0.026242 0.148333
    38 1.350416 0.000000 0.000000 0.000000 0.000000 0.863850
    39 1.350410 -0.000001 -0.000001 0.000000 0.000000 0.863880
    40 4.237636 -0.195359 0.527090 0.000662 0.008837 0.261753
    41 1.215376 0.000001 0.000001 0.000000 0.000000 0.977275
    42 1.215371 0.000000 0.000000 0.000000 0.000000 0.977290
    43 4.262829 -0.232721 1.392178 -0.016840 -0.076668 0.253759
    44 1.012811 0.000000 0.000000 0.000000 0.000000 0.968559
    45 1.012809 -0.000001 0.000000 0.000000 0.000000 0.968559
    46 1.376306 -0.000001 0.000000 0.000000 0.000000 0.199056
    47 4.237632 -0.195359 -0.527090 -0.000662 -0.008837 0.261713
    48 1.215375 0.000001 -0.000001 0.000000 0.000000 0.977293
    49 1.215371 0.000000 0.000001 0.000000 0.000000 0.977318
    50 1.012810 0.000001 0.000000 0.000000 0.000000 0.968648
    51 1.012810 -0.000001 0.000000 0.000000 0.000000 0.968648
    52 2.110540 0.000000 0.000000 0.263198 -0.064886 -0.495295
    53 5.253243 3.139475 -1.673515 2.984594 -1.570796 0.000000
    54 5.253259 3.139473 -0.054760 2.984594 -1.570796 0.000000
    55 5.253252 3.139468 1.574632 2.984594 -1.570796 0.000000
    56 4.598148 4.158443 -1.350299 2.984594 -1.570796 0.000000
    57 4.598139 4.158430 -0.054439 2.984594 -1.570796 0.000000
    58 4.598140 4.158430 1.240876 2.984594 -1.570796 0.000000
    59 0.891927 2.373051 -0.014527 -3.141592 -0.000001 1.413797
    60 7.228122 5.709446 3.726568 3.140796 -1.570796 0.000000
  time 8
    0 -2.390827 -1.173938 38.826866 0.032215 -0.000447 -2.155020
    1 -1.995827 0.082034 0.000000 -0.000112 -1.408914 -1.570725
    2 -0.000006 0.000008 4.427393 6.090861 3.045178 6.026805
    3 18.465940 0.000000 0.000000 0.000000 0.000000 -0.887475
    4 14.875443 0.000000 -0.000001 -0.156698 -0.013851 0.425536
    5 0.000006 -0.000004 -4.427393 -6.217496 2.967693 6.006282
    6 18.465940 0.000000 0.000000 0.000000 0.000000 -0.615047
    7 14.875443 0.000000 0.000000 -0.450953 -0.044406 0.345082
    8 2.227862 -0.007574 0.359389 -0.140887 -0.160916 0.133039
    9 9.514226 -0.009357 0.000000 0.000000 0.013574 0.089213
    10 2.450429 5.076128 0.001325 3.053640 -1.570796 0.000000
    11 6.312407 -4.528058 0.001311 3.140791 -1.570796 0.000000
    12 2.233310 1.152535 -7.309138 -1.167760 -1.675500 -0.778274
    13 11.751820 -0.001633 0.000000 0.000024 0.043599 0.439966
    14 -1.890927 0.854855 -2.731760 -0.978893 1.455637 1.728415
    15 4.640942 0.000000 0.000000 -0.391076 -0.921377 0.898359
    16 10.828047 0.000000 0.000000 0.000000 0.000000 -0.636538
    17 9.393338 0.000000 0.000001 1.569611 -0.034190 0.000011
    18 1.442242 0.107453 1.746178 -1.686405 -0.539236 0.325847
    19 1.063451 0.000000 -0.000001 0.000000 0.000000 0.199056
    20 4.172844 -0.251366 1.312745 -0.008026 -0.095731 0.148653
    21 1.215373 0.000000 0.000001 0.000000 0.000000 0.645746
    22 1.215372 0.000000 0.000001 0.000000 0.000000 0.645746
    23 4.220531 -0.244854 0.431466 -0.001333 -0.026242 0.148333
    24 1.350417 0.000001 -0.000001 0.000000 0.000000 0.863854
    25 1.350410 -0.000001 0.000001 0.000000 0.000000 0.863875
    26 4.262825 -0.232720 -1.392178 0.016840 0.076668 0.253759
    27 -2.117496 0.854843 2.563789 -0.401780 -1.424383 3.100561
    28 4.640942 0.000000 -0.000001 -0.353585 1.156902 -0.451063
    29 10.828047 0.000000 -0.000002 0.000000 0.000000 -0.876794
    30 9.393336 -0.000001 0.000000 -1.569611 0.034157 0.000091
    31 1.442245 0.107453 -1.746177 1.686435 0.539221 0.325885
    32 1.063452 -0.000001 -0.000001 0.000000 0.000000 0.199056
    33 1.376307 -0.000001 0.000000 0.000000 0.000000 0.199053
    34 4.172847 -0.251366 -1.312744 0.008026 0.095731 0.148653
    35 1.215373 0.000001 0.000000 0.000000 0.000000 0.645758
    36 1.215371 -0.000001 0.000000 0.000000 0.000000 0.645758
    37 4.220535 -0.244855 -0.431465 0.001333 0.026242 0.148333
    38 1.350416 0.000000 0.000000 0.000000 0.000000 0.863850
    39 1.350410 -0.000001 -0.000001 0.000000 0.000000 0.863880
    40 4.237636 -0.195359 0.527090 0.000662 0.008837 0.261753
    41 1.215376 0.000001 0.000001 0.000000 0.000000 0.977275
    42 1.215371 0.000000 0.000000 0.000000 0.000000 0.977290
    43 4.262829 -0.232721 1.392178 -0.016840 -0.076668 0.253759
    44 1.012811 0.000000 0.000000 0.000000 0.000000 0.968559
    45 1.012809 -0.000001 0.000000 0.000000 0.000000 0.968559
    46 1.376306 -0.000001 0.000000 0.000000 0.000000 0.199056
    47 4.237632 -0.195359 -0.527090 -0.000662 -0.008837 0.261713
    48 1.215375 0.000001 -0.000001 0.000000 0.000000 0.977293
    49 1.215371 0.000000 0.000001 0.000000 0.000000 0.977318
    50 1.012810 0.000001 0.000000 0.000000 0.000000 0.968648
    51 1.012810 -0.000001 0.000000 0.000000 0.000000 0.968648
    52 2.110540 0.000000 0.000000 0.244020 -0.062210 -0.470396
    53 5.253243 3.139475 -1.673515 2.984594 -1.570796 0.000000
    54 5.253259 3.139473 -0.054760 2.984594 -1.570796 0.000000
    55 5.253252 3.139468 1.574632 2.984594 -1.570796 0.000000
    56 4.598148 4.158443 -1.350299 2.984594 -1.570796 0.000000
    57 4.598139 4.158430 -0.054439 2.984594 -1.570796 0.000000
    58 4.598140 4.158430 1.240876 2.984594 -1.570796 0.000000
    59 0.891927 2.373051 -0.014527 -3.141592 -0.000001 1.413797
    60 7.228122 5.709446 3.726568 3.140796 -1.570796 0.000000
  time 9
    0 -1.597834 0.330745 38.763858 0.025887 -0.001534 -2.065184
    1 -1.573940 0.000000 0.000000 -0.000112 -1.441020 -1.570725
    2 -0.000006 0.000008 4.427393 6.117321 2.998392 -0.000005
    3 18.465940 0.000000 0.000000 0.000000 0.000000 -0.473640
    4 14.875443 0.000000 -0.000001 -0.230931 0.013351 0.416964
    5 0.000006 -0.000004 -4.427393 -6.211744 3.010071 5.948008
    6 18.465940 0.000000 0.000000 0.000000 0.000000 -0.590303
    7 14.875443 0.000000 0.000000 -0.352163 -0.054046 0.260410
    8 2.247394 -0.007574 0.285168 -0.085539 -0.135411 0.106372
    9 9.514226 -0.009357 0.000000 -0.001876 0.011464 0.052541
    10 2.450429 5.076128 0.001325 3.071895 -1.570796 0.000000
    11 6.312407 -4.528058 0.001311 3.140791 -1.570796 0.000000
    12 2.233310 1.152535 -7.309138 -1.153380 -1.649317 -0.827676
    13 11.751820 -0.001633 0.000000 0.000024 0.043599 0.439966
    14 -1.890927 0.854855 -2.731760 -1.214564 1.388936 1.498160
    15 4.640942 0.000000 0.000000 -0.419745 -0.985328 0.829222
    16 10.828047 0.000000 0.000000 0.000000 0.000000 -0.529547
    17 9.393338 0.000000 0.000001 1.569611 -0.034190 0.000011
    18 1.442242 0.107453 1.746178 -1.686405 -0.539236 0.325847
    19 1.063451 0.000000 -0.000001 0.000000 0.000000 0.199056
    20 4.172844 -0.251366 1.312745 -0.008026 -0.095731 0.148653
    21 1.215373 0.000000 0.000001 0.000000 0.000000 0.645746
    22 1.215372 0.000000 0.000001 0.000000 0.000000 0.645746
    23 4.220531 -0.244854 0.431466 -0.001333 -0.026242 0.148333
    24 1.350417 0.000001 -0.000001 0.000000 0.000000 0.863854
    25 1.350410 -0.000001 0.000001 0.000000 0.000000 0.863875
    26 4.262825 -0.232720 -1.392178 0.016840 0.076668 0.253759
    27 -2.117496 0.854843 2.563789 -0.514297 -1.416098 3.212530
    28 4.640942 0.000000 -0.000001 -0.073420 1.194133 -0.184556
    29 10.828047 0.000000 -0.000002 0.000000 0.000000 -0.759406
    30 9.393336 -0.000001 0.000000 -1.569611 0.034157 0.000091
    31 1.442245 0.107453 -1.746177 1.686435 0.539221 0.325885
    32 1.063452 -0.000001 -0.000001 0.000000 0.000000 0.199056
    33 1.376307 -0.000001 0.000000 0.000000 0.000000 0.199053
    34 4.172847 -0.251366 -1.312744 0.008026 0.095731 0.148653
    35 1.215373 0.000001 0.000000 0.000000 0.000000 0.645758
    36 1.215371 -0.000001 0.000000 0.000000 0.000000 0.645758
    37 4.220535 -0.244855 -0.431465 0.001333 0.026242 0.148333
    38 1.350416 0.000000 0.000000 0.000000 0.000000 0.863850
    39 1.350410 -0.000001 -0.000001 0.000000 0.000000 0.863880
    40 4.237636 -0.195359 0.527090 0.000662 0.008837 0.261753
    41 1.215376 0.000001 0.000001 0.000000 0.000000 0.977275
    42 1.215371 0.000000 0.000000 0.000000 0.000000 0.977290
    43 4.262829 -0.232721 1.392178 -0.016840 -0.076668 0.253759
    44 1.012811 0.000000 0.000000 0.000000 0.000000 0.968559
    45 1.012809 -0.000001 0.000000 0.000000 0.000000 0.968559
    46 1.376306 -0.000001 0.000000 0.000000 0.000000 0.199056
    47 4.237632 -0.195359 -0.527090 -0.000662 -0.008837 0.261713
    48 1.215375 0.000001 -0.000001 0.000000 0.000000 0.977293
    49 1.215371 0.000000 0.000001 0.000000 0.000000 0.977318
    50 1.012810 0.000001 0.000000 0.000000 0.000000 0.968648
    51 1.012810 -0.000001 0.000000 0.000000 0.000000 0.968648
    52 2.110540 0.000000 0.000000 0.195432 -0.054482 -0.406706
    53 5.253243 3.139475 -1.673515 2.984594 -1.570796 0.000000
    54 5.253259 3.139473 -0.054760 2.984594 -1.570796 0.000000
    55 5.253252 3.139468 1.574632 2.984594 -1.570796 0.000000
    56 4.598148 4.158443 -1.350299 2.984594 -1.570796 0.000000
    57 4.598139 4.158430 -0.054439 2.984594 -1.570796 0.000000
    58 4.598140 4.158430 1.240876 2.984594 -1.570796 0.000000
    59 0.891927 2.373051 -0.014527 -3.141592 -0.000001 1.413797
    60 7.228122 5.709446 3.726568 3.140796 -1.570796 0.000000
  time 10
    0 -0.484519 2.476475 38.622091 0.017066 -0.001981 -1.943996
    1 -0.999703 -0.093753 0.000000 -0.000112 -1.484293 -1.570725
    2 -0.000006 0.000008 4.427393 6.147328 2.972986 0.276120
    3 18.465940 0.000000 0.000000 0.000000 0.000000 -0.001980
    4 14.875443 0.000000 -0.000001 -0.195130 0.012329 0.193651
    5 0.000006 -0.000004 -4.427393 -6.200239 3.046792 5.919926
    6 18.465940 0.000000 0.000000 0.000000 0.000000 -0.512135
    7 14.875443 0.000000 0.000000 -0.215752 -0.042860 0.150940
    8 2.247394 -0.007574 0.187509 -0.013416 -0.098618 0.070408
    9 9.514226 -0.009357 0.000000 -0.004315 0.008547 0.003031
    10 2.450429 5.076128 0.001325 3.092871 -1.570796 0.000000
    11 6.312407 -4.528058 0.001311 3.140791 -1.570796 0.000000
    12 2.233310 1.152535 -7.309138 -1.146861 -1.611513 -0.830644
    13 11.751820 -0.001633 0.000000 0.000024 0.043599 0.439966
    14 -1.890927 0.854855 -2.731760 -1.199198 1.395830 1.513003
    15 4.640942 0.000000 0.000000 -0.485684 -1.038748 0.744703
    16 10.828047 0.000000 0.000000 0.000000 0.000000 -0.430851
    17 9.393338 0.000000 0.000001 1.569611 -0.034190 0.000011
    18 1.442242 0.107453 1.746178 -1.686405 -0.539236 0.325847
    19 1.063451 0.000000 -0.000001 0.000000 0.000000 0.199056
    20 4.172844 -0.251366 1.312745 -0.008026 -0.095731 0.148653
    21 1.215373 0.000000 0.000001 0.000000 0.000000 0.645746
    22 1.215372 0.000000 0.000001 0.000000 0.000000 0.645746
    23 4.220531 -0.244854 0.431466 -0.001333 -0.026242 0.148333
    24 1.350417 0.000001 -0.000001 0.000000 0.000000 0.863854
    25 1.350410 -0.000001 0.000001 0.000000 0.000000 0.863875
    26 4.262825 -0.232720 -1.392178 0.016840 0.076668 0.253759
    27 -2.117496 0.854843 2.563789 -0.220475 -1.432668 2.920055
    28 4.640942 0.000000 -0.000001 0.243682 1.188722 0.148972
    29 10.828047 0.000000 -0.000002 0.000000 0.000000 -0.662702
    30 9.393336 -0.000001 0.000000 -1.569611 0.034157 0.000091
    31 1.442245 0.107453 -1.746177 1.686435 0.539221 0.325885
    32 1.063452 -0.000001 -0.000001 0.000000 0.000000 0.199056
    33 1.376307 -0.000001 0.000000 0.000000 0.000000 0.199053
    34 4.172847 -0.251366 -1.312744 0.008026 0.095731 0.148653
    35 1.215373 0.000001 0.000000 0.000000 0.000000 0.645758
    36 1.215371 -0.000001 0.000000 0.000000 0.000000 0.645758
    37 4.220535 -0.244855 -0.431465 0.001333 0.026242 0.148333
    38 1.350416 0.000000 0.000000 0.000000 0.000000 0.863850
    39 1.350410 -0.000001 -0.000001 0.000000 0.000000 0.863880
    40 4.237636 -0.195359 0.527090 0.000662 0.008837 0.261753
    41 1.215376 0.000001 0.000001 0.000000 0.000000 0.977275
    42 1.215371 0.000000 0.000000 0.000000 0.000000 0.977290
    43 4.262829 -0.232721 1.392178 -0.016840 -0.076668 0.253759
    44 1.012811 0.000000 0.000000 0.000000 0.000000 0.968559
    45 1.012809 -0.000001 0.000000 0.000000 0.000000 0.968559
    46 1.376306 -0.000001 0.000000 0.000000 0.000000 0.199056
    47 4.237632 -0.195359 -0.527090 -0.000662 -0.008837 0.261713
    48 1.215375 0.000001 -0.000001 0.000000 0.000000 0.977293
    49 1.215371 0.000000 0.000001 0.000000 0.000000 0.977318
    50 1.012810 0.000001 0.000000 0.000000 0.000000 0.968648
    51 1.012810 -0.000001 0.000000 0.000000 0.000000 0.968648
    52 2.110540 0.000000 0.000000 0.130391 -0.042064 -0.321514
    53 5.253243 3.139475 -1.673515 2.984594 -1.570796 0.000000
    54 5.253259 3.139473 -0.054760 2.984594 -1.570796 0.000000
    55 5.253252 3.139468 1.574632 2.984594 -1.570796 0.000000
    56 4.598148 4.158443 -1.350299 2.984594 -1.570796 0.000000
    57 4.598139 4.158430 -0.054439 2.984594 -1.570796 0.000000
    58 4.598140 4.158430 1.240876 2.984594 -1.570796 0.000000
    59 0.891927 2.373051 -0.014527 -3.141592 -0.000001 1.413797
    60 7.228122 5.709446 3.726568 3.140796 -1.570796 0.000000
  time 11
    0 0.663954 4.729048 38.511827 0.007958 -0.001342 -1.815041
    1 -0.374684 -0.136723 0.000000 -0.000112 -1.530354 -1.570725
    2 -0.000006 0.000008 4.427393 6.119334 3.060134 0.116198
    3 18.465940 0.000000 0.000000 0.000000 0.000000 -0.216756
    4 14.875443 0.000000 -0.000001 -0.065044 0.020268 0.317810
    5 0.000006 -0.000004 -4.427393 -6.188447 3.071815 5.911779
    6 18.465940 0.000000 0.000000 0.000000 0.000000 -0.437314
    7 14.875443 0.000000 0.000000 -0.085238 -0.015850 0.064917
    8 2.255207 -0.007574 0.082037 0.060126 -0.056617 0.032194
    9 9.514226 -0.009357 0.000000 -0.006716 0.005308 -0.049618
    10 2.450429 5.076128 0.001325 3.113759 -1.570796 0.000000
    11 6.312407 -4.528058 0.001311 3.140791 -1.570796 0.000000
    12 2.233310 1.152535 -7.309138 -1.139766 -1.589669 -0.826910
    13 11.751820 -0.001633 0.000000 0.000024 0.043599 0.439966
    14 -1.890927 0.854855 -2.731760 -1.100246 1.429700 1.609298
    15 4.640942 0.000000 0.000000 -0.557931 -1.103606 0.639231
    16 10.828047 0.000000 0.000000 0.000000 0.000000 -0.332669
    17 9.393338 0.000000 0.000001 1.569611 -0.034190 0.000011
    18 1.442242 0.107453 1.746178 -1.686405 -0.539236 0.325847
    19 1.063451 0.000000 -0.000001 0.000000 0.000000 0.199056
    20 4.172844 -0.251366 1.312745 -0.008026 -0.095731 0.148653
    21 1.215373 0.000000 0.000001 0.000000 0.000000 0.645746
    22 1.215372 0.000000 0.000001 0.000000 0.000000 0.645746
    23 4.220531 -0.244854 0.431466 -0.001333 -0.026242 0.148333
    24 1.350417 0.000001 -0.000001 0.000000 0.000000 0.863854
    25 1.350410 -0.000001 0.000001 0.000000 0.000000 0.863875
    26 4.262825 -0.232720 -1.392178 0.016840 0.076668 0.253759
    27 -2.117496 0.854843 2.563789 0.296667 -1.429873 2.404979
    28 4.640942 0.000000 -0.000001 0.531545 1.148677 0.472959
    29 10.828047 0.000000 -0.000002 0.000000 0.000000 -0.566486
    30 9.393336 -0.000001 0.000000 -1.569611 0.034157 0.000091
    31 1.442245 0.107453 -1.746177 1.686435 0.539221 0.325885
    32 1.063452 -0.000001 -0.000001 0.000000 0.000000 0.199056
    33 1.376307 -0.000001 0.000000 0.000000 0.000000 0.199053
    34 4.172847 -0.251366 -1.312744 0.008026 0.095731 0.148653
    35 1.215373 0.000001 0.000000 0.000000 0.000000 0.645758
    36 1.215371 -0.000001 0.000000 0.000000 0.000000 0.645758
    37 4.220535 -0.244855 -0.431465 0.001333 0.026242 0.148333
    38 1.350416 0.000000 0.000000 0.000000 0.000000 0.863850
    39 1.350410 -0.000001 -0.000001 0.000000 0.000000 0.863880
    40 4.237636 -0.195359 0.527090 0.000662 0.008837 0.261753
    41 1.215376 0.000001 0.000001 0.000000 0.000000 0.977275
    42 1.215371 0.000000 0.000000 0.000000 0.000000 0.977290
    43 4.262829 -0.232721 1.392178 -0.016840 -0.076668 0.253759
    44 1.012811 0.000000 0.000000 0.000000 0.000000 0.968559
    45 1.012809 -0.000001 0.000000 0.000000 0.000000 0.968559
    46 1.376306 -0.000001 0.000000 0.000000 0.000000 0.199056
    47 4.237632 -0.195359 -0.527090 -0.000662 -0.008837 0.261713
    48 1.215375 0.000001 -0.000001 0.000000 0.000000 0.977293
    49 1.215371 0.000000 0.000001 0.000000 0.000000 0.977318
    50 1.012810 0.000001 0.000000 0.000000 0.000000 0.968648
    51 1.012810 -0.000001 0.000000 0.000000 0.000000 0.968648
    52 2.110540 0.000000 0.000000 0.061905 -0.026339 -0.231678
    53 5.253243 3.139475 -1.673515 2.984594 -1.570796 0.000000
    54 5.253259 3.139473 -0.054760 2.984594 -1.570796 0.000000
    55 5.253252 3.139468 1.574632 2.984594 -1.570796 0.000000
    56 4.598148 4.158443 -1.350299 2.984594 -1.570796 0.000000
    57 4.598139 4.158430 -0.054439 2.984594 -1.570796 0.000000
    58 4.598140 4.158430 1.240876 2.984594 -1.570796 0.000000
    59 0.891927 2.373051 -0.014527 -3.141592 -0.000001 1.413797
    60 7.228122 5.709446 3.726568 3.140796 -1.570796 0.000000
  time 12
    0 1.718674 6.767937 38.401563 0.000000 0.000000 -1.701811
    1 0.164395 -0.125004 0.000000 -1.570795 -1.570451 0.000000
    2 -0.000006 0.000008 4.427393 6.112432 3.130217 0.000858
    3 18.465940 0.000000 0.000000 0.000000 0.000000 -0.416547
    4 14.875443 0.000000 -0.000001 0.018432 0.017416 0.402071
    5 0.000006 -0.000004 -4.427393 -6.177133 3.095689 5.920884
    6 18.465940 0.000000 0.000000 0.000000 0.000000 -0.394325
    7 14.875443 0.000000 0.000000 -0.002065 0.005218 0.029353
    8 2.255207 -0.007574 0.000003 0.122038 -0.017391 -0.001321
    9 9.514226 -0.009357 0.000000 -0.008742 0.002352 -0.095859
    10 2.450429 5.076128 0.001325 3.132102 -1.570796 0.000000
    11 6.312407 -4.528058 0.001311 3.140791 -1.570796 0.000000
    12 2.233310 1.152535 -7.309138 -1.954658 -1.570796 0.000000
    13 11.751820 -0.001633 0.000000 0.000024 0.043599 0.439966
    14 -1.890927 0.854855 -2.731760 -0.942423 1.461410 1.764410
    15 4.640942 0.000000 0.000000 -0.601413 -1.183806 0.506842
    16 10.828047 0.000000 0.000000 0.000000 0.000000 -0.234359
    17 9.393338 0.000000 0.000001 1.569611 -0.034190 0.000011
    18 1.442242 0.107453 1.746178 -1.686405 -0.539236 0.325847
    19 1.063451 0.000000 -0.000001 0.000000 0.000000 0.199056
    20 4.172844 -0.251366 1.312745 -0.008026 -0.095731 0.148653
    21 1.215373 0.000000 0.000001 0.000000 0.000000 0.645746
    22 1.215372 0.000000 0.000001 0.000000 0.000000 0.645746
    23 4.220531 -0.244854 0.431466 -0.001333 -0.026242 0.148333
    24 1.350417 0.000001 -0.000001 0.000000 0.000000 0.863854
    25 1.350410 -0.000001 0.000001 0.000000 0.000000 0.863875
    26 4.262825 -0.232720 -1.392178 0.016840 0.076668 0.253759
    27 -2.117496 0.854843 2.563789 0.697195 -1.395374 2.006454
    28 4.640942 0.000000 -0.000001 0.738456 1.089872 0.724774
    29 10.828047 0.000000 -0.000002 0.000000 0.000000 -0.470330
    30 9.393336 -0.000001 0.000000 -1.569611 0.034157 0.000091
    31 1.442245 0.107453 -1.746177 1.686435 0.539221 0.325885
    32 1.063452 -0.000001 -0.000001 0.000000 0.000000 0.199056
    33 1.376307 -0.000001 0.000000 0.000000 0.000000 0.199053
    34 4.172847 -0.251366 -1.312744 0.008026 0.095731 0.148653
    35 1.215373 0.000001 0.000000 0.000000 0.000000 0.645758
    36 1.215371 -0.000001 0.000000 0.000000 0.000000 0.645758
    37 4.220535 -0.244855 -0.431465 0.001333 0.026242 0.148333
    38 1.350416 0.000000 0.000000 0.000000 0.000000 0.863850
    39 1.350410 -0.000001 -0.000001 0.000000 0.000000 0.863880
    40 4.237636 -0.195359 0.527090 0.000662 0.008837 0.261753
    41 1.215376 0.000001 0.000001 0.000000 0.000000 0.977275
    42 1.215371 0.000000 0.000000 0.000000 0.000000 0.977290
    43 4.262829 -0.232721 1.392178 -0.016840 -0.076668 0.253759
    44 1.012811 0.000000 0.000000 0.000000 0.000000 0.968559
    45 1.012809 -0.000001 0.000000 0.000000 0.000000 0.968559
    46 1.376306 -0.000001 0.000000 0.000000 0.000000 0.199056
    47 4.237632 -0.195359 -0.527090 -0.000662 -0.008837 0.261713
    48 1.215375 0.000001 -0.000001 0.000000 0.000000 0.977293
    49 1.215371 0.000000 0.000001 0.000000 0.000000 0.977318
    50 1.012810 0.000001 0.000000 0.000000 0.000000 0.968648
    51 1.012810 -0.000001 0.000000 0.000000 0.000000 0.968648
    52 2.110540 0.000000 0.000000 0.002417 -0.010494 -0.153582
    53 5.253243 3.139475 -1.673515 2.984594 -1.570796 0.000000
    54 5.253259 3.139473 -0.054760 2.984594 -1.570796 0.000000
    55 5.253252 3.139468 1.574632 2.984594 -1.570796 0.000000
    56 4.598148 4.158443 -1.350299 2.984594 -1.570796 0.000000
    57 4.598139 4.158430 -0.054439 2.984594 -1.570796 0.000000
    58 4.598140 4.158430 1.240876 2.984594 -1.570796 0.000000
    59 0.891927 2.373051 -0.014527 -3.141592 -0.000001 1.413797
    60 7.228122 5.709446 3.726568 3.140796 -1.570796 0.000000
end
