version 1
nodes
0 "root" -1
end
skeleton
time 0
0 0 0 0 0 0 0
end
triangles
drkmtlt_bord13.vmt
0  7.362500 -3.226625 2.750000  0.707107 -0.707107 -0.000000  0.281250 -0.164062 0
0  3.226626 -7.362500 1.250000  0.707107 -0.707107 -0.000000  0.218750 -0.210938 0
0  7.362500 -3.226625 1.250000  0.707107 -0.707107 0.000000  0.281250 -0.210938 0
drkmtlt_bord13.vmt
0  7.362500 3.226624 2.750000  0.707107 0.707107 -0.000000  0.718750 -0.164062 0
0  3.226625 7.362500 1.250000  0.707107 0.707107 -0.000000  0.218750 -0.210938 0
0  3.226625 7.362500 2.750000  0.707107 0.707107 0.000000  0.218750 -0.164062 0
drkmtlt_bord13.vmt
0  -3.226626 7.362500 2.750000  -0.707107 0.707107 0.000000  -0.218750 -0.164062 0
0  -7.362500 3.226624 1.250000  -0.707107 0.707107 0.000000  0.718750 -0.210938 0
0  -7.362500 3.226623 2.750000  -0.707107 0.707107 0.000000  0.718750 -0.164062 0
drkmtlt_bord13.vmt
0  -3.226624 -7.362500 2.750000  -0.707107 -0.707107 0.000000  -0.218750 -0.164062 0
0  -7.362500 -3.226624 1.250000  -0.707107 -0.707107 0.000000  0.281250 -0.210938 0
0  -3.226625 -7.362500 1.250000  -0.707107 -0.707107 0.000000  -0.218750 -0.210938 0
drkmtlt_bord13.vmt
0  -7.362500 -3.226624 1.250000  -1.000000 0.000000 0.000000  0.281250 -0.210938 0
0  -7.362500 3.226623 2.750000  -1.000000 0.000000 0.000000  0.718750 -0.164062 0
0  -7.362500 3.226624 1.250000  -1.000000 0.000000 0.000000  0.718750 -0.210938 0
drkmtlt_bord13.vmt
0  -3.226626 7.362500 1.250000  0.000000 1.000000 0.000000  -0.218750 -0.210938 0
0  3.226625 7.362500 2.750000  0.000000 1.000000 0.000000  0.218750 -0.164062 0
0  3.226625 7.362500 1.250000  0.000000 1.000000 0.000000  0.218750 -0.210938 0
+0~light3a.vmt
0  -3.000000 3.000000 -1.600000  0.000000 0.000000 -1.000000  0.312500 0.687500 0
0  3.000000 -3.000000 -1.600000  0.000000 0.000000 -1.000000  0.687500 0.312500 0
0  -3.000000 -3.000000 -1.600000  0.000000 0.000000 -1.000000  0.312500 0.312500 0
drkmtlt_bord13.vmt
0  7.362500 3.226624 1.250000  1.000000 0.000000 0.000000  0.718750 -0.210938 0
0  7.362500 -3.226625 2.750000  1.000000 0.000000 0.000000  0.281250 -0.164062 0
0  7.362500 -3.226625 1.250000  1.000000 0.000000 0.000000  0.281250 -0.210938 0
drkmtlt_bord13.vmt
0  3.226626 -7.362500 1.250000  0.000000 -1.000000 0.000001  0.218750 -0.210938 0
0  -3.226624 -7.362500 2.750000  0.000000 -1.000000 0.000000  -0.218750 -0.164062 0
0  -3.226625 -7.362500 1.250000  0.000000 -1.000000 0.000000  -0.218750 -0.210938 0
drkmtlt_bord13.vmt
0  -7.600000 3.324999 4.000000  0.000000 0.000000 1.000000  -0.500000 0.359375 0
0  -3.325000 -7.600000 4.000000  0.000000 0.000000 1.000000  -0.218750 0.000000 0
0  3.325001 7.600000 4.000000  0.000000 0.000000 1.000000  0.218750 0.500000 0
+0~light3a.vmt
0  3.812737 3.812737 -1.249561  0.376288 0.376288 -0.846649  0.747703 0.747703 0
0  3.812737 6.787562 0.072584  0.376288 0.376288 -0.846649  0.747703 0.933630 0
0  6.787562 3.812736 0.072583  0.376288 0.376288 -0.846649  0.933630 0.747703 0
+0~light3a.vmt
0  -3.000000 -3.794451 -1.431406  0.000000 -0.406139 -0.913812  0.312500 0.252693 0
0  3.000001 -7.380639 0.162455  0.000000 -0.406139 -0.913812  0.687500 0.028557 0
0  -3.000001 -7.380639 0.162455  0.000000 -0.406139 -0.913812  0.312500 0.028557 0
+0~light3a.vmt
0  -3.812737 3.812736 -1.249561  -0.376288 0.376288 -0.846649  0.252297 0.747703 0
0  -6.787562 3.812736 0.072583  -0.376288 0.376288 -0.846649  0.066370 0.747703 0
0  -3.812737 6.787562 0.072583  -0.376288 0.376288 -0.846649  0.252297 0.933630 0
+0~light3a.vmt
0  -6.787562 -3.812736 0.072583  -0.376289 -0.376288 -0.846649  0.066370 0.252297 0
0  -3.812737 -3.812737 -1.249561  -0.376289 -0.376288 -0.846649  0.252297 0.252297 0
0  -3.812737 -6.787562 0.072584  -0.376289 -0.376288 -0.846649  0.252297 0.066370 0
+0~light3a.vmt
0  3.812737 -3.812737 -1.249561  0.376288 -0.376288 -0.846649  0.747703 0.252297 0
0  6.787562 -3.812737 0.072583  0.376288 -0.376288 -0.846649  0.933630 0.252297 0
0  3.812737 -6.787562 0.072583  0.376288 -0.376288 -0.846649  0.747703 0.066370 0
+0~light3a.vmt
0  -7.380639 2.999999 0.162455  -0.406139 0.000000 -0.913812  0.028557 0.687500 0
0  -3.794451 -3.000000 -1.431406  -0.406139 0.000000 -0.913812  0.252693 0.312500 0
0  -7.380639 -2.999999 0.162455  -0.406139 0.000000 -0.913812  0.028557 0.312500 0
+0~light3a.vmt
0  3.000001 7.380639 0.162455  0.000000 0.406139 -0.913812  0.687500 0.971443 0
0  -3.000000 3.794451 -1.431406  0.000000 0.406139 -0.913812  0.312500 0.747307 0
0  -3.000002 7.380639 0.162455  0.000000 0.406139 -0.913812  0.312500 0.971443 0
+0~light3a.vmt
0  7.380639 -3.000001 0.162455  0.406139 -0.000000 -0.913812  0.971443 0.312500 0
0  3.794451 3.000000 -1.431406  0.406139 -0.000000 -0.913812  0.747307 0.687500 0
0  7.380639 2.999999 0.162455  0.406138 -0.000000 -0.913812  0.971443 0.687500 0
drkmtlt_bord13.vmt
0  -7.600000 -3.324999 1.000000  -1.000000 0.000000 0.000000  0.281250 -0.218750 0
0  -7.600000 3.324999 0.000000  -0.990137 0.000000 0.140105  0.718750 -0.250000 0
0  -7.600000 -3.324999 0.000000  -0.990137 0.000000 0.140105  0.281250 -0.250000 0
drkmtlt_bord13.vmt
0  -3.325002 7.600000 1.000000  0.000000 1.000000 0.000000  -0.218750 -0.218750 0
0  3.325001 7.600000 0.000000  0.000000 0.990137 0.140104  0.218750 -0.250000 0
0  -3.325002 7.600000 0.000000  -0.000000 0.990137 0.140105  -0.218750 -0.250000 0
drkmtlt_bord13.vmt
0  7.600000 3.324999 1.000000  1.000000 0.000000 0.000000  0.718750 -0.218750 0
0  7.600000 -3.325001 0.000000  0.990137 0.000000 0.140105  0.281250 -0.250000 0
0  7.600000 3.324999 0.000000  0.990137 -0.000000 0.140106  0.718750 -0.250000 0
drkmtlt_bord13.vmt
0  3.325001 -7.600000 3.000000  0.707107 -0.707107 0.000000  0.218750 -0.156250 0
0  7.600000 -3.325001 4.000000  0.707107 -0.707107 0.000000  0.281250 -0.125000 0
0  3.325001 -7.600000 4.000000  0.707107 -0.707107 0.000000  0.218750 -0.125000 0
drkmtlt_bord13.vmt
0  7.600000 -3.325001 1.000000  0.707107 -0.707107 0.000000  0.281250 -0.218750 0
0  3.325001 -7.600000 0.000000  0.703386 -0.703385 0.102458  0.218750 -0.250000 0
0  7.600000 -3.325001 0.000000  0.703385 -0.703385 0.102458  0.281250 -0.250000 0
drkmtlt_bord13.vmt
0  7.600000 3.325000 3.000000  0.707107 0.707107 0.000000  0.718750 -0.156250 0
0  3.325001 7.600000 4.000000  0.707107 0.707107 0.000000  0.218750 -0.125000 0
0  7.600000 3.325000 4.000000  0.707107 0.707107 0.000000  0.718750 -0.125000 0
drkmtlt_bord13.vmt
0  3.325001 -7.600000 1.000000  0.000000 -1.000000 0.000000  0.218750 -0.218750 0
0  -3.325001 -7.600000 0.000000  0.000000 -0.990137 0.140104  -0.218750 -0.250000 0
0  3.325001 -7.600000 0.000000  0.000000 -0.990137 0.140105  0.218750 -0.250000 0
drkmtlt_bord13.vmt
0  3.325001 7.600000 1.000000  0.707107 0.707107 0.000000  0.218750 -0.218750 0
0  7.600000 3.324999 0.000000  0.703386 0.703385 0.102458  0.718750 -0.250000 0
0  3.325001 7.600000 0.000000  0.703386 0.703385 0.102459  0.218750 -0.250000 0
drkmtlt_bord13.vmt
0  -3.325000 -7.600000 3.000000  0.000000 -1.000000 0.000000  -0.218750 -0.156250 0
0  3.325001 -7.600000 4.000000  0.000000 -1.000000 0.000000  0.218750 -0.125000 0
0  -3.325000 -7.600000 4.000000  0.000000 -1.000000 0.000000  -0.218750 -0.125000 0
drkmtlt_bord13.vmt
0  -7.600000 3.324999 3.000000  -1.000000 0.000000 0.000000  0.718750 -0.156250 0
0  -7.600000 -3.324998 4.000000  -1.000000 0.000000 0.000000  0.281250 -0.125000 0
0  -7.600000 3.324999 4.000000  -1.000000 0.000000 0.000000  0.718750 -0.125000 0
drkmtlt_bord13.vmt
0  -3.325002 7.600000 3.000000  -0.707107 0.707107 0.000000  -0.218750 -0.156250 0
0  -7.600000 3.324999 4.000000  -0.707107 0.707107 0.000000  0.718750 -0.125000 0
0  -3.325002 7.600000 4.000000  -0.707107 0.707106 0.000000  -0.218750 -0.125000 0
drkmtlt_bord13.vmt
0  -7.600000 3.324999 1.000000  -0.707107 0.707107 0.000000  0.718750 -0.218750 0
0  -3.325002 7.600000 0.000000  -0.703386 0.703385 0.102458  -0.218750 -0.250000 0
0  -7.600000 3.324999 0.000000  -0.703386 0.703385 0.102458  0.718750 -0.250000 0
drkmtlt_bord13.vmt
0  3.325001 7.600000 3.000000  0.000000 1.000000 0.000000  0.218750 -0.156250 0
0  -3.325002 7.600000 4.000000  0.000000 1.000000 0.000000  -0.218750 -0.125000 0
0  3.325001 7.600000 4.000000  0.000000 1.000000 0.000000  0.218750 -0.125000 0
drkmtlt_bord13.vmt
0  -7.600000 -3.324998 3.000000  -0.707107 -0.707107 0.000000  0.281250 -0.156250 0
0  -3.325000 -7.600000 4.000000  -0.707107 -0.707107 0.000000  -0.218750 -0.125000 0
0  -7.600000 -3.324998 4.000000  -0.707107 -0.707107 0.000000  0.281250 -0.125000 0
drkmtlt_bord13.vmt
0  7.600000 -3.325001 3.000000  1.000000 0.000000 0.000000  0.281250 -0.156250 0
0  7.600000 3.325000 4.000000  1.000000 0.000000 0.000000  0.718750 -0.125000 0
0  7.600000 -3.325001 4.000000  1.000000 0.000000 0.000000  0.281250 -0.125000 0
drkmtlt_bord13.vmt
0  -3.325001 -7.600000 1.000000  -0.707107 -0.707107 0.000000  -0.218750 -0.218750 0
0  -7.600000 -3.324999 0.000000  -0.703386 -0.703385 0.102458  0.281250 -0.250000 0
0  -3.325001 -7.600000 0.000000  -0.703386 -0.703385 0.102459  -0.218750 -0.250000 0
drkmtlt_bord13.vmt
0  -7.362500 -3.226624 1.250000  -0.724999 0.000000 0.688750  0.281250 -0.210938 0
0  -7.600000 3.324999 1.000000  -0.724999 0.000000 0.688750  0.718750 -0.218750 0
0  -7.600000 -3.324999 1.000000  -0.724999 0.000000 0.688750  0.281250 -0.218750 0
drkmtlt_bord13.vmt
0  -3.226626 7.362500 1.250000  0.000000 0.724998 0.688751  -0.218750 -0.210938 0
0  3.325001 7.600000 1.000000  0.000000 0.725000 0.688749  0.218750 -0.218750 0
0  -3.325002 7.600000 1.000000  0.000000 0.724998 0.688751  -0.218750 -0.218750 0
drkmtlt_bord13.vmt
0  7.362500 3.226624 1.250000  0.724999 0.000000 0.688750  0.718750 -0.210938 0
0  7.600000 -3.325001 1.000000  0.724999 0.000000 0.688750  0.281250 -0.218750 0
0  7.600000 3.324999 1.000000  0.724999 0.000000 0.688750  0.718750 -0.218750 0
drkmtlt_bord13.vmt
0  3.226625 -7.362500 2.750000  0.512653 -0.512653 -0.688748  0.218750 -0.164062 0
0  7.600000 -3.325001 3.000000  0.512653 -0.512652 -0.688749  0.281250 -0.156250 0
0  3.325001 -7.600000 3.000000  0.512653 -0.512653 -0.688748  0.218750 -0.156250 0
drkmtlt_bord13.vmt
0  7.362500 -3.226625 1.250000  0.512652 -0.512651 0.688750  0.281250 -0.210938 0
0  3.325001 -7.600000 1.000000  0.512652 -0.512651 0.688750  0.218750 -0.218750 0
0  7.600000 -3.325001 1.000000  0.512652 -0.512651 0.688750  0.281250 -0.218750 0
drkmtlt_bord13.vmt
0  7.362500 3.226624 2.750000  0.512650 0.512652 -0.688751  0.718750 -0.164062 0
0  3.325001 7.600000 3.000000  0.512652 0.512652 -0.688750  0.218750 -0.156250 0
0  7.600000 3.325000 3.000000  0.512650 0.512652 -0.688751  0.718750 -0.156250 0
drkmtlt_bord13.vmt
0  3.226626 -7.362500 1.250000  0.000000 -0.724998 0.688751  0.218750 -0.210938 0
0  -3.325001 -7.600000 1.000000  0.000000 -0.725001 0.688747  -0.218750 -0.218750 0
0  3.325001 -7.600000 1.000000  0.000000 -0.724998 0.688751  0.218750 -0.218750 0
drkmtlt_bord13.vmt
0  3.226625 7.362500 1.250000  0.512652 0.512652 0.688749  0.218750 -0.210938 0
0  7.600000 3.324999 1.000000  0.512652 0.512651 0.688750  0.718750 -0.218750 0
0  3.325001 7.600000 1.000000  0.512652 0.512652 0.688749  0.218750 -0.218750 0
drkmtlt_bord13.vmt
0  -3.226624 -7.362500 2.750000  0.000000 -0.725001 -0.688748  -0.218750 -0.164062 0
0  3.325001 -7.600000 3.000000  0.000000 -0.724997 -0.688752  0.218750 -0.156250 0
0  -3.325000 -7.600000 3.000000  0.000000 -0.725001 -0.688748  -0.218750 -0.156250 0
drkmtlt_bord13.vmt
0  -7.362500 3.226623 2.750000  -0.724999 0.000000 -0.688750  0.718750 -0.164062 0
0  -7.600000 -3.324998 3.000000  -0.724999 0.000000 -0.688750  0.281250 -0.156250 0
0  -7.600000 3.324999 3.000000  -0.724999 0.000000 -0.688750  0.718750 -0.156250 0
drkmtlt_bord13.vmt
0  -3.226626 7.362500 2.750000  -0.512652 0.512651 -0.688750  -0.218750 -0.164062 0
0  -7.600000 3.324999 3.000000  -0.512653 0.512652 -0.688748  0.718750 -0.156250 0
0  -3.325002 7.600000 3.000000  -0.512652 0.512651 -0.688750  -0.218750 -0.156250 0
drkmtlt_bord13.vmt
0  -7.362500 3.226624 1.250000  -0.512652 0.512651 0.688750  0.718750 -0.210938 0
0  -3.325002 7.600000 1.000000  -0.512652 0.512652 0.688750  -0.218750 -0.218750 0
0  -7.600000 3.324999 1.000000  -0.512652 0.512651 0.688750  0.718750 -0.218750 0
drkmtlt_bord13.vmt
0  3.226625 7.362500 2.750000  0.000000 0.724998 -0.688751  0.218750 -0.164062 0
0  -3.325002 7.600000 3.000000  0.000000 0.725000 -0.688749  -0.218750 -0.156250 0
0  3.325001 7.600000 3.000000  0.000000 0.724998 -0.688751  0.218750 -0.156250 0
drkmtlt_bord13.vmt
0  -7.362500 -3.226623 2.750000  -0.512650 -0.512651 -0.688751  0.281250 -0.164062 0
0  -3.325000 -7.600000 3.000000  -0.512653 -0.512653 -0.688748  -0.218750 -0.156250 0
0  -7.600000 -3.324998 3.000000  -0.512650 -0.512651 -0.688751  0.281250 -0.156250 0
drkmtlt_bord13.vmt
0  7.362500 -3.226625 2.750000  0.724999 0.000000 -0.688750  0.281250 -0.164062 0
0  7.600000 3.325000 3.000000  0.724999 0.000000 -0.688750  0.718750 -0.156250 0
0  7.600000 -3.325001 3.000000  0.724999 0.000000 -0.688750  0.281250 -0.156250 0
drkmtlt_bord13.vmt
0  -3.226625 -7.362500 1.250000  -0.512652 -0.512652 0.688749  -0.218750 -0.210938 0
0  -7.600000 -3.324999 1.000000  -0.512652 -0.512651 0.688750  0.281250 -0.218750 0
0  -3.325001 -7.600000 1.000000  -0.512652 -0.512652 0.688749  -0.218750 -0.218750 0
galvanized_metal
0  -3.500000 3.500000 -2.000000  -0.201820 0.203898 -0.957964  0.281250 0.718750 0
0  3.125000 3.125000 -2.100000  0.131024 0.131024 -0.982683  0.695312 0.695312 0
0  -3.125000 3.125000 -2.100000  -0.131024 0.131024 -0.982683  0.304687 0.695312 0
galvanized_metal
0  3.500000 3.500000 -2.000000  0.203898 0.201820 -0.957964  0.718750 0.718750 0
0  3.125000 -3.125000 -2.100000  0.131024 -0.131024 -0.982683  0.695312 0.304688 0
0  3.125000 3.125000 -2.100000  0.131024 0.131024 -0.982683  0.695312 0.695312 0
galvanized_metal
0  3.500000 -3.500000 -2.000000  0.201820 -0.203898 -0.957964  0.718750 0.281250 0
0  -3.125000 -3.125000 -2.100000  -0.131024 -0.131024 -0.982683  0.304687 0.304687 0
0  3.125000 -3.125000 -2.100000  0.131024 -0.131024 -0.982683  0.695312 0.304688 0
galvanized_metal
0  -3.500000 -3.500000 -2.000000  -0.203898 -0.201820 -0.957964  0.281250 0.281250 0
0  -3.125000 3.125000 -2.100000  -0.131024 0.131024 -0.982683  0.304687 0.695312 0
0  -3.125000 -3.125000 -2.100000  -0.131024 -0.131024 -0.982683  0.304687 0.304687 0
galvanized_metal
0  3.500000 3.500000 -2.000000  0.203898 0.201820 -0.957964  0.718750 0.718750 0
0  3.885068 7.241187 -0.284222  -0.165447 0.425143 -0.889877  0.740465 0.950222 0
0  3.885068 3.885068 -1.775831  0.289429 0.240491 -0.926496  0.740465 0.740465 0
galvanized_metal
0  3.325001 7.600000 0.000000  0.703386 0.703385 0.102459  0.718750 1.000000 0
0  7.241187 3.885067 -0.284222  0.632280 0.632280 0.447709  0.950222 0.740465 0
0  3.885068 7.241187 -0.284222  0.632279 0.632279 0.447713  0.740465 0.950222 0
galvanized_metal
0  7.600000 3.324999 0.000000  0.404259 -0.168822 -0.898929  1.000000 0.718750 0
0  3.885068 3.885068 -1.775831  0.289429 0.240491 -0.926496  0.740465 0.740465 0
0  7.241187 3.885067 -0.284222  0.397978 -0.199454 -0.895450  0.950222 0.740465 0
galvanized_metal
0  -3.500000 -3.500000 -2.000000  -0.203898 -0.201820 -0.957964  0.281250 0.281250 0
0  3.125000 -3.883294 -1.939079  0.131024 -0.279374 -0.951201  0.695312 0.259833 0
0  -3.125000 -3.883294 -1.939079  -0.151217 -0.297760 -0.942588  0.304687 0.259833 0
galvanized_metal
0  3.500000 -3.500000 -2.000000  0.201820 -0.203898 -0.957964  0.718750 0.281250 0
0  3.125001 -7.697934 -0.243683  0.257663 -0.392425 -0.882957  0.695313 0.021417 0
0  3.125000 -3.883294 -1.939079  0.131024 -0.279374 -0.951201  0.695312 0.259833 0
galvanized_metal
0  3.325001 -7.600000 0.000000  0.000000 -0.990137 0.140105  0.718750 0.000000 0
0  -3.125001 -7.697934 -0.243683  0.000000 -0.927871 0.372901  0.304687 0.021417 0
0  3.125001 -7.697934 -0.243683  0.000000 -0.927870 0.372904  0.695313 0.021417 0
galvanized_metal
0  -3.325001 -7.600000 0.000000  -0.795382 -0.246164 -0.553868  0.281250 0.000000 0
0  -3.125000 -3.883294 -1.939079  -0.795382 -0.246164 -0.553868  0.304687 0.259833 0
0  -3.125001 -7.697934 -0.243683  -0.795382 -0.246164 -0.553868  0.304687 0.021417 0
galvanized_metal
0  -3.500000 3.500000 -2.000000  -0.201820 0.203898 -0.957964  0.281250 0.718750 0
0  -7.241187 3.885067 -0.284222  -0.425143 -0.165448 -0.889877  0.049778 0.740465 0
0  -3.885068 3.885068 -1.775831  -0.240491 0.289429 -0.926496  0.259535 0.740465 0
galvanized_metal
0  -7.600000 3.324999 0.000000  -0.703386 0.703385 0.102458  0.000000 0.718750 0
0  -3.885069 7.241187 -0.284222  -0.632281 0.632280 0.447709  0.259535 0.950222 0
0  -7.241187 3.885067 -0.284222  -0.632280 0.632279 0.447711  0.049778 0.740465 0
galvanized_metal
0  -3.325002 7.600000 0.000000  0.168820 0.404259 -0.898929  0.281250 1.000000 0
0  -3.885068 3.885068 -1.775831  -0.240491 0.289429 -0.926496  0.259535 0.740465 0
0  -3.885069 7.241187 -0.284222  0.199453 0.397978 -0.895451  0.259535 0.950222 0
galvanized_metal
0  -7.600000 -3.324999 0.000000  -0.404259 0.168822 -0.898929  0.000000 0.281250 0
0  -3.885068 -3.885068 -1.775831  -0.289429 -0.240491 -0.926496  0.259535 0.259535 0
0  -7.241187 -3.885067 -0.284222  -0.397978 0.199454 -0.895450  0.049778 0.259535 0
galvanized_metal
0  -3.500000 -3.500000 -2.000000  -0.203898 -0.201820 -0.957964  0.281250 0.281250 0
0  -3.885068 -7.241187 -0.284222  0.165447 -0.425143 -0.889877  0.259535 0.049778 0
0  -3.885068 -3.885068 -1.775831  -0.289429 -0.240491 -0.926496  0.259535 0.259535 0
galvanized_metal
0  -3.325001 -7.600000 0.000000  -0.703386 -0.703385 0.102459  0.281250 0.000000 0
0  -7.241187 -3.885067 -0.284222  -0.632280 -0.632280 0.447709  0.049778 0.259535 0
0  -3.885068 -7.241187 -0.284222  -0.632279 -0.632279 0.447713  0.259535 0.049778 0
galvanized_metal
0  3.500000 -3.500000 -2.000000  0.201820 -0.203898 -0.957964  0.718750 0.281250 0
0  7.241187 -3.885068 -0.284222  0.425143 0.165448 -0.889877  0.950222 0.259535 0
0  3.885068 -3.885068 -1.775831  0.240491 -0.289429 -0.926496  0.740465 0.259535 0
galvanized_metal
0  7.600000 -3.325001 0.000000  0.703385 -0.703385 0.102458  1.000000 0.281250 0
0  3.885069 -7.241187 -0.284222  0.632280 -0.632280 0.447711  0.740465 0.049778 0
0  7.241187 -3.885068 -0.284222  0.632280 -0.632280 0.447711  0.950222 0.259535 0
galvanized_metal
0  3.325001 -7.600000 0.000000  -0.168821 -0.404259 -0.898929  0.718750 0.000000 0
0  3.885068 -3.885068 -1.775831  0.240491 -0.289429 -0.926496  0.740465 0.259535 0
0  3.885069 -7.241187 -0.284222  -0.199453 -0.397978 -0.895451  0.740465 0.049778 0
galvanized_metal
0  -7.600000 3.324999 0.000000  -0.246164 0.795381 -0.553870  0.000000 0.718750 0
0  -3.883294 3.125000 -1.939079  -0.246164 0.795381 -0.553870  0.259833 0.695312 0
0  -7.697934 3.124999 -0.243683  -0.246164 0.795381 -0.553870  0.021417 0.695312 0
galvanized_metal
0  -3.500000 3.500000 -2.000000  -0.201820 0.203898 -0.957964  0.281250 0.718750 0
0  -3.883294 -3.125000 -1.939079  -0.279374 -0.131024 -0.951201  0.259833 0.304687 0
0  -3.883294 3.125000 -1.939079  -0.297760 0.151217 -0.942588  0.259833 0.695312 0
galvanized_metal
0  -3.500000 -3.500000 -2.000000  -0.203898 -0.201820 -0.957964  0.281250 0.281250 0
0  -7.697934 -3.124999 -0.243683  -0.392426 -0.257663 -0.882957  0.021417 0.304688 0
0  -3.883294 -3.125000 -1.939079  -0.279374 -0.131024 -0.951201  0.259833 0.304687 0
galvanized_metal
0  -7.600000 -3.324999 0.000000  -0.990137 0.000000 0.140105  0.000000 0.281250 0
0  -7.697934 3.124999 -0.243683  -0.927870 0.000000 0.372903  0.021417 0.695312 0
0  -7.697934 -3.124999 -0.243683  -0.927870 0.000000 0.372903  0.021417 0.304688 0
galvanized_metal
0  3.325001 7.600000 0.000000  0.795382 0.246164 -0.553868  0.718750 1.000000 0
0  3.125000 3.883294 -1.939079  0.795382 0.246164 -0.553868  0.695312 0.740167 0
0  3.125001 7.697934 -0.243683  0.795382 0.246164 -0.553868  0.695313 0.978583 0
galvanized_metal
0  3.500000 3.500000 -2.000000  0.203898 0.201820 -0.957964  0.718750 0.718750 0
0  -3.125000 3.883294 -1.939079  -0.131024 0.279374 -0.951201  0.304687 0.740167 0
0  3.125000 3.883294 -1.939079  0.151217 0.297760 -0.942588  0.695312 0.740167 0
galvanized_metal
0  -3.500000 3.500000 -2.000000  -0.201820 0.203898 -0.957964  0.281250 0.718750 0
0  -3.125002 7.697934 -0.243683  -0.257663 0.392425 -0.882957  0.304687 0.978583 0
0  -3.125000 3.883294 -1.939079  -0.131024 0.279374 -0.951201  0.304687 0.740167 0
galvanized_metal
0  -3.325002 7.600000 0.000000  -0.000000 0.990137 0.140105  0.281250 1.000000 0
0  3.125001 7.697934 -0.243683  -0.000000 0.927871 0.372901  0.695313 0.978583 0
0  -3.125002 7.697934 -0.243683  -0.000000 0.927870 0.372904  0.304687 0.978583 0
galvanized_metal
0  7.600000 -3.325001 0.000000  0.246164 -0.795382 -0.553868  1.000000 0.281250 0
0  3.883294 -3.125000 -1.939079  0.246164 -0.795382 -0.553868  0.740167 0.304687 0
0  7.697934 -3.125001 -0.243683  0.246164 -0.795382 -0.553868  0.978582 0.304687 0
galvanized_metal
0  3.500000 -3.500000 -2.000000  0.201820 -0.203898 -0.957964  0.718750 0.281250 0
0  3.883294 3.125000 -1.939079  0.279374 0.131024 -0.951201  0.740167 0.695313 0
0  3.883294 -3.125000 -1.939079  0.297760 -0.151217 -0.942588  0.740167 0.304687 0
galvanized_metal
0  3.500000 3.500000 -2.000000  0.203898 0.201820 -0.957964  0.718750 0.718750 0
0  7.697935 3.124999 -0.243683  0.392426 0.257663 -0.882957  0.978583 0.695312 0
0  3.883294 3.125000 -1.939079  0.279374 0.131024 -0.951201  0.740167 0.695313 0
galvanized_metal
0  7.600000 3.324999 0.000000  0.990137 -0.000000 0.140106  1.000000 0.718750 0
0  7.697934 -3.125001 -0.243683  0.927870 -0.000000 0.372903  0.978582 0.304687 0
0  7.697935 3.124999 -0.243683  0.927869 -0.000000 0.372905  0.978583 0.695312 0
galvanized_metal
0  -3.125000 3.125000 -2.100000  0.000000 -0.970142 -0.242536  0.304687 0.695312 0
0  3.000000 3.000000 -1.600000  0.000000 -0.970142 -0.242536  0.687500 0.687500 0
0  -3.000000 3.000000 -1.600000  0.000000 -0.970142 -0.242536  0.312500 0.687500 0
galvanized_metal
0  3.125000 3.125000 -2.100000  -0.970142 0.000000 -0.242536  0.695312 0.695312 0
0  3.000000 -3.000000 -1.600000  -0.970142 0.000000 -0.242536  0.687500 0.312500 0
0  3.000000 3.000000 -1.600000  -0.970142 0.000000 -0.242536  0.687500 0.687500 0
galvanized_metal
0  3.125000 -3.125000 -2.100000  0.000000 0.970142 -0.242536  0.695312 0.304688 0
0  -3.000000 -3.000000 -1.600000  0.000000 0.970142 -0.242536  0.312500 0.312500 0
0  3.000000 -3.000000 -1.600000  0.000000 0.970142 -0.242536  0.687500 0.312500 0
galvanized_metal
0  -3.125000 -3.125000 -2.100000  0.970142 0.000000 -0.242536  0.304687 0.304687 0
0  -3.000000 3.000000 -1.600000  0.970142 0.000000 -0.242536  0.312500 0.687500 0
0  -3.000000 -3.000000 -1.600000  0.970142 0.000000 -0.242536  0.312500 0.312500 0
galvanized_metal
0  3.885068 3.885068 -1.775831  0.990103 -0.056999 0.128248  0.740465 0.740465 0
0  3.812737 6.787562 0.072584  0.990103 -0.056999 0.128247  0.747703 0.933630 0
0  3.812737 3.812737 -1.249561  0.990103 -0.056999 0.128248  0.747703 0.747703 0
galvanized_metal
0  3.885068 7.241187 -0.284222  -0.489533 -0.489533 -0.721606  0.740465 0.950222 0
0  6.787562 3.812736 0.072583  -0.489533 -0.489533 -0.721606  0.933630 0.747703 0
0  3.812737 6.787562 0.072584  -0.489533 -0.489533 -0.721606  0.747703 0.933630 0
galvanized_metal
0  7.241187 3.885067 -0.284222  -0.056999 0.990103 0.128248  0.950222 0.740465 0
0  3.812737 3.812737 -1.249561  -0.056998 0.990103 0.128247  0.747703 0.747703 0
0  6.787562 3.812736 0.072583  -0.056999 0.990103 0.128248  0.933630 0.747703 0
galvanized_metal
0  -3.125000 -3.883294 -1.939079  0.000000 -0.985030 0.172381  0.304687 0.259833 0
0  3.000000 -3.794451 -1.431406  0.000000 -0.985030 0.172381  0.687500 0.252693 0
0  -3.000000 -3.794451 -1.431406  0.000000 -0.985030 0.172381  0.312500 0.252693 0
galvanized_metal
0  3.125000 -3.883294 -1.939079  -0.970143 -0.098503 -0.221632  0.695312 0.259833 0
0  3.000001 -7.380639 0.162455  -0.970143 -0.098503 -0.221632  0.687500 0.028557 0
0  3.000000 -3.794451 -1.431406  -0.970142 -0.098503 -0.221632  0.687500 0.252693 0
galvanized_metal
0  3.125001 -7.697934 -0.243683  0.000000 0.788023 -0.615646  0.695313 0.021417 0
0  -3.000001 -7.380639 0.162455  0.000000 0.788025 -0.615643  0.312500 0.028557 0
0  3.000001 -7.380639 0.162455  0.000000 0.788023 -0.615646  0.687500 0.028557 0
galvanized_metal
0  -3.125001 -7.697934 -0.243683  0.970142 -0.098503 -0.221632  0.304687 0.021417 0
0  -3.000000 -3.794451 -1.431406  0.970142 -0.098503 -0.221632  0.312500 0.252693 0
0  -3.000001 -7.380639 0.162455  0.970142 -0.098503 -0.221632  0.312500 0.028557 0
galvanized_metal
0  -3.885068 3.885068 -1.775831  0.056999 0.990103 0.128249  0.259535 0.740465 0
0  -6.787562 3.812736 0.072583  0.056999 0.990103 0.128247  0.066370 0.747703 0
0  -3.812737 3.812736 -1.249561  0.056999 0.990103 0.128249  0.252297 0.747703 0
galvanized_metal
0  -7.241187 3.885067 -0.284222  0.489533 -0.489533 -0.721605  0.049778 0.740465 0
0  -3.812737 6.787562 0.072583  0.489533 -0.489533 -0.721606  0.252297 0.933630 0
0  -6.787562 3.812736 0.072583  0.489533 -0.489533 -0.721605  0.066370 0.747703 0
galvanized_metal
0  -3.885069 7.241187 -0.284222  -0.990103 -0.056999 0.128247  0.259535 0.950222 0
0  -3.812737 3.812736 -1.249561  -0.990103 -0.056999 0.128248  0.252297 0.747703 0
0  -3.812737 6.787562 0.072583  -0.990103 -0.056999 0.128247  0.252297 0.933630 0
galvanized_metal
0  -7.241187 -3.885067 -0.284222  0.056999 -0.990103 0.128248  0.049778 0.259535 0
0  -3.812737 -3.812737 -1.249561  0.056998 -0.990103 0.128247  0.252297 0.252297 0
0  -6.787562 -3.812736 0.072583  0.056999 -0.990103 0.128248  0.066370 0.252297 0
galvanized_metal
0  -3.885068 -3.885068 -1.775831  -0.990103 0.056999 0.128248  0.259535 0.259535 0
0  -3.812737 -6.787562 0.072584  -0.990103 0.056999 0.128247  0.252297 0.066370 0
0  -3.812737 -3.812737 -1.249561  -0.990103 0.056999 0.128248  0.252297 0.252297 0
galvanized_metal
0  -3.885068 -7.241187 -0.284222  0.489533 0.489533 -0.721606  0.259535 0.049778 0
0  -6.787562 -3.812736 0.072583  0.489533 0.489533 -0.721606  0.066370 0.252297 0
0  -3.812737 -6.787562 0.072584  0.489533 0.489533 -0.721606  0.252297 0.066370 0
galvanized_metal
0  3.885068 -3.885068 -1.775831  -0.056999 -0.990103 0.128248  0.740465 0.259535 0
0  6.787562 -3.812737 0.072583  -0.056999 -0.990103 0.128246  0.933630 0.252297 0
0  3.812737 -3.812737 -1.249561  -0.056999 -0.990103 0.128248  0.747703 0.252297 0
galvanized_metal
0  7.241187 -3.885068 -0.284222  -0.489534 0.489533 -0.721605  0.950222 0.259535 0
0  3.812737 -6.787562 0.072583  -0.489533 0.489533 -0.721606  0.747703 0.066370 0
0  6.787562 -3.812737 0.072583  -0.489534 0.489534 -0.721605  0.933630 0.252297 0
galvanized_metal
0  3.885069 -7.241187 -0.284222  0.990103 0.056999 0.128248  0.740465 0.049778 0
0  3.812737 -3.812737 -1.249561  0.990103 0.056999 0.128248  0.747703 0.252297 0
0  3.812737 -6.787562 0.072583  0.990103 0.056999 0.128248  0.747703 0.066370 0
galvanized_metal
0  -7.697934 3.124999 -0.243683  -0.098503 -0.970142 -0.221632  0.021417 0.695312 0
0  -3.794451 3.000000 -1.431406  -0.098503 -0.970143 -0.221632  0.252693 0.687500 0
0  -7.380639 2.999999 0.162455  -0.098503 -0.970142 -0.221632  0.028557 0.687500 0
galvanized_metal
0  -3.883294 3.125000 -1.939079  -0.985030 0.000000 0.172380  0.259833 0.695312 0
0  -3.794451 -3.000000 -1.431406  -0.985030 0.000000 0.172381  0.252693 0.312500 0
0  -3.794451 3.000000 -1.431406  -0.985030 0.000000 0.172380  0.252693 0.687500 0
galvanized_metal
0  -3.883294 -3.125000 -1.939079  -0.098503 0.970143 -0.221631  0.259833 0.304687 0
0  -7.380639 -2.999999 0.162455  -0.098503 0.970142 -0.221632  0.028557 0.312500 0
0  -3.794451 -3.000000 -1.431406  -0.098503 0.970143 -0.221631  0.252693 0.312500 0
galvanized_metal
0  -7.697934 -3.124999 -0.243683  0.788024 0.000000 -0.615644  0.021417 0.304688 0
0  -7.380639 2.999999 0.162455  0.788024 0.000000 -0.615644  0.028557 0.687500 0
0  -7.380639 -2.999999 0.162455  0.788024 0.000000 -0.615644  0.028557 0.312500 0
galvanized_metal
0  3.125001 7.697934 -0.243683  -0.970142 0.098503 -0.221632  0.695313 0.978583 0
0  3.000000 3.794451 -1.431406  -0.970142 0.098503 -0.221632  0.687500 0.747307 0
0  3.000001 7.380639 0.162455  -0.970142 0.098503 -0.221632  0.687500 0.971443 0
galvanized_metal
0  3.125000 3.883294 -1.939079  0.000000 0.985030 0.172381  0.695312 0.740167 0
0  -3.000000 3.794451 -1.431406  0.000000 0.985030 0.172381  0.312500 0.747307 0
0  3.000000 3.794451 -1.431406  0.000000 0.985030 0.172381  0.687500 0.747307 0
galvanized_metal
0  -3.125000 3.883294 -1.939079  0.970142 0.098503 -0.221632  0.304687 0.740167 0
0  -3.000002 7.380639 0.162455  0.970143 0.098504 -0.221632  0.312500 0.971443 0
0  -3.000000 3.794451 -1.431406  0.970142 0.098503 -0.221632  0.312500 0.747307 0
galvanized_metal
0  -3.125002 7.697934 -0.243683  0.000000 -0.788024 -0.615645  0.304687 0.978583 0
0  3.000001 7.380639 0.162455  0.000000 -0.788024 -0.615644  0.687500 0.971443 0
0  -3.000002 7.380639 0.162455  0.000000 -0.788024 -0.615645  0.312500 0.971443 0
galvanized_metal
0  7.697934 -3.125001 -0.243683  0.098503 0.970142 -0.221632  0.978582 0.304687 0
0  3.794451 -3.000000 -1.431406  0.098503 0.970143 -0.221632  0.747307 0.312500 0
0  7.380639 -3.000001 0.162455  0.098503 0.970142 -0.221632  0.971443 0.312500 0
galvanized_metal
0  3.883294 -3.125000 -1.939079  0.985030 0.000000 0.172380  0.740167 0.304687 0
0  3.794451 3.000000 -1.431406  0.985030 0.000000 0.172381  0.747307 0.687500 0
0  3.794451 -3.000000 -1.431406  0.985030 0.000000 0.172380  0.747307 0.312500 0
galvanized_metal
0  3.883294 3.125000 -1.939079  0.098503 -0.970142 -0.221632  0.740167 0.695313 0
0  7.380639 2.999999 0.162455  0.098503 -0.970142 -0.221632  0.971443 0.687500 0
0  3.794451 3.000000 -1.431406  0.098503 -0.970142 -0.221632  0.747307 0.687500 0
galvanized_metal
0  7.697935 3.124999 -0.243683  -0.788024 0.000000 -0.615644  0.978583 0.695312 0
0  7.380639 -3.000001 0.162455  -0.788024 0.000000 -0.615644  0.971443 0.312500 0
0  7.380639 2.999999 0.162455  -0.788024 0.000000 -0.615644  0.971443 0.687500 0
drkmtlt_bord13.vmt
0  7.362500 -3.226625 2.750000  0.707107 -0.707107 -0.000000  0.281250 -0.164062 0
0  3.226625 -7.362500 2.750000  0.707107 -0.707107 -0.000000  0.218750 -0.164062 0
0  3.226626 -7.362500 1.250000  0.707107 -0.707107 -0.000000  0.218750 -0.210938 0
drkmtlt_bord13.vmt
0  7.362500 3.226624 2.750000  0.707107 0.707107 -0.000000  0.718750 -0.164062 0
0  7.362500 3.226624 1.250000  0.707107 0.707107 -0.000000  0.718750 -0.210938 0
0  3.226625 7.362500 1.250000  0.707107 0.707107 -0.000000  0.218750 -0.210938 0
drkmtlt_bord13.vmt
0  -3.226626 7.362500 2.750000  -0.707107 0.707107 0.000000  -0.218750 -0.164062 0
0  -3.226626 7.362500 1.250000  -0.707107 0.707106 0.000000  -0.218750 -0.210938 0
0  -7.362500 3.226624 1.250000  -0.707107 0.707107 0.000000  0.718750 -0.210938 0
drkmtlt_bord13.vmt
0  -3.226624 -7.362500 2.750000  -0.707107 -0.707107 0.000000  -0.218750 -0.164062 0
0  -7.362500 -3.226623 2.750000  -0.707107 -0.707107 0.000000  0.281250 -0.164062 0
0  -7.362500 -3.226624 1.250000  -0.707107 -0.707107 0.000000  0.281250 -0.210938 0
drkmtlt_bord13.vmt
0  -7.362500 -3.226624 1.250000  -1.000000 0.000000 0.000000  0.281250 -0.210938 0
0  -7.362500 -3.226623 2.750000  -1.000000 0.000000 0.000000  0.281250 -0.164062 0
0  -7.362500 3.226623 2.750000  -1.000000 0.000000 0.000000  0.718750 -0.164062 0
drkmtlt_bord13.vmt
0  -3.226626 7.362500 1.250000  0.000000 1.000000 0.000000  -0.218750 -0.210938 0
0  -3.226626 7.362500 2.750000  0.000000 1.000000 0.000000  -0.218750 -0.164062 0
0  3.226625 7.362500 2.750000  0.000000 1.000000 0.000000  0.218750 -0.164062 0
+0~light3a.vmt
0  -3.000000 3.000000 -1.600000  0.000000 0.000000 -1.000000  0.312500 0.687500 0
0  3.000000 3.000000 -1.600000  0.000000 0.000000 -1.000000  0.687500 0.687500 0
0  3.000000 -3.000000 -1.600000  0.000000 0.000000 -1.000000  0.687500 0.312500 0
drkmtlt_bord13.vmt
0  7.362500 3.226624 1.250000  1.000000 0.000000 0.000000  0.718750 -0.210938 0
0  7.362500 3.226624 2.750000  1.000000 0.000000 0.000000  0.718750 -0.164062 0
0  7.362500 -3.226625 2.750000  1.000000 0.000000 0.000000  0.281250 -0.164062 0
drkmtlt_bord13.vmt
0  3.226626 -7.362500 1.250000  0.000000 -1.000000 0.000001  0.218750 -0.210938 0
0  3.226625 -7.362500 2.750000  0.000000 -1.000000 0.000001  0.218750 -0.164062 0
0  -3.226624 -7.362500 2.750000  0.000000 -1.000000 0.000000  -0.218750 -0.164062 0
drkmtlt_bord13.vmt
0  7.600000 -3.325001 4.000000  0.000000 0.000000 1.000000  0.500000 0.140625 0
0  7.600000 3.325000 4.000000  0.000000 0.000000 1.000000  0.500000 0.359375 0
0  3.325001 7.600000 4.000000  0.000000 0.000000 1.000000  0.218750 0.500000 0
drkmtlt_bord13.vmt
0  3.325001 7.600000 4.000000  0.000000 0.000000 1.000000  0.218750 0.500000 0
0  -3.325002 7.600000 4.000000  0.000000 0.000000 1.000000  -0.218750 0.500000 0
0  -7.600000 3.324999 4.000000  0.000000 0.000000 1.000000  -0.500000 0.359375 0
drkmtlt_bord13.vmt
0  -7.600000 3.324999 4.000000  0.000000 0.000000 1.000000  -0.500000 0.359375 0
0  -7.600000 -3.324998 4.000000  0.000000 0.000000 1.000000  -0.500000 0.140625 0
0  -3.325000 -7.600000 4.000000  0.000000 0.000000 1.000000  -0.218750 0.000000 0
drkmtlt_bord13.vmt
0  -3.325000 -7.600000 4.000000  0.000000 0.000000 1.000000  -0.218750 0.000000 0
0  3.325001 -7.600000 4.000000  0.000000 0.000000 1.000000  0.218750 0.000000 0
0  7.600000 -3.325001 4.000000  0.000000 0.000000 1.000000  0.500000 0.140625 0
drkmtlt_bord13.vmt
0  7.600000 -3.325001 4.000000  0.000000 0.000000 1.000000  0.500000 0.140625 0
0  3.325001 7.600000 4.000000  0.000000 0.000000 1.000000  0.218750 0.500000 0
0  -3.325000 -7.600000 4.000000  0.000000 0.000000 1.000000  -0.218750 0.000000 0
+0~light3a.vmt
0  -3.000000 -3.794451 -1.431406  0.000000 -0.406139 -0.913812  0.312500 0.252693 0
0  3.000000 -3.794451 -1.431406  0.000000 -0.406139 -0.913812  0.687500 0.252693 0
0  3.000001 -7.380639 0.162455  0.000000 -0.406139 -0.913812  0.687500 0.028557 0
+0~light3a.vmt
0  -7.380639 2.999999 0.162455  -0.406139 0.000000 -0.913812  0.028557 0.687500 0
0  -3.794451 3.000000 -1.431406  -0.406139 0.000000 -0.913812  0.252693 0.687500 0
0  -3.794451 -3.000000 -1.431406  -0.406139 0.000000 -0.913812  0.252693 0.312500 0
+0~light3a.vmt
0  3.000001 7.380639 0.162455  0.000000 0.406139 -0.913812  0.687500 0.971443 0
0  3.000000 3.794451 -1.431406  0.000000 0.406139 -0.913812  0.687500 0.747307 0
0  -3.000000 3.794451 -1.431406  0.000000 0.406139 -0.913812  0.312500 0.747307 0
+0~light3a.vmt
0  7.380639 -3.000001 0.162455  0.406139 -0.000000 -0.913812  0.971443 0.312500 0
0  3.794451 -3.000000 -1.431406  0.406139 0.000000 -0.913812  0.747307 0.312500 0
0  3.794451 3.000000 -1.431406  0.406139 -0.000000 -0.913812  0.747307 0.687500 0
drkmtlt_bord13.vmt
0  -7.600000 -3.324999 1.000000  -1.000000 0.000000 0.000000  0.281250 -0.218750 0
0  -7.600000 3.324999 1.000000  -1.000000 0.000000 0.000000  0.718750 -0.218750 0
0  -7.600000 3.324999 0.000000  -0.990137 0.000000 0.140105  0.718750 -0.250000 0
drkmtlt_bord13.vmt
0  -3.325002 7.600000 1.000000  0.000000 1.000000 0.000000  -0.218750 -0.218750 0
0  3.325001 7.600000 1.000000  0.000000 1.000000 0.000000  0.218750 -0.218750 0
0  3.325001 7.600000 0.000000  0.000000 0.990137 0.140104  0.218750 -0.250000 0
drkmtlt_bord13.vmt
0  7.600000 3.324999 1.000000  1.000000 0.000000 0.000000  0.718750 -0.218750 0
0  7.600000 -3.325001 1.000000  1.000000 0.000000 0.000000  0.281250 -0.218750 0
0  7.600000 -3.325001 0.000000  0.990137 0.000000 0.140105  0.281250 -0.250000 0
drkmtlt_bord13.vmt
0  3.325001 -7.600000 3.000000  0.707107 -0.707107 0.000000  0.218750 -0.156250 0
0  7.600000 -3.325001 3.000000  0.707107 -0.707107 0.000000  0.281250 -0.156250 0
0  7.600000 -3.325001 4.000000  0.707107 -0.707107 0.000000  0.281250 -0.125000 0
drkmtlt_bord13.vmt
0  7.600000 -3.325001 1.000000  0.707107 -0.707107 0.000000  0.281250 -0.218750 0
0  3.325001 -7.600000 1.000000  0.707107 -0.707107 0.000000  0.218750 -0.218750 0
0  3.325001 -7.600000 0.000000  0.703386 -0.703385 0.102458  0.218750 -0.250000 0
drkmtlt_bord13.vmt
0  7.600000 3.325000 3.000000  0.707107 0.707107 0.000000  0.718750 -0.156250 0
0  3.325001 7.600000 3.000000  0.707107 0.707107 0.000000  0.218750 -0.156250 0
0  3.325001 7.600000 4.000000  0.707107 0.707107 0.000000  0.218750 -0.125000 0
drkmtlt_bord13.vmt
0  3.325001 -7.600000 1.000000  0.000000 -1.000000 0.000000  0.218750 -0.218750 0
0  -3.325001 -7.600000 1.000000  0.000000 -1.000000 0.000000  -0.218750 -0.218750 0
0  -3.325001 -7.600000 0.000000  0.000000 -0.990137 0.140104  -0.218750 -0.250000 0
drkmtlt_bord13.vmt
0  3.325001 7.600000 1.000000  0.707107 0.707107 0.000000  0.218750 -0.218750 0
0  7.600000 3.324999 1.000000  0.707107 0.707107 0.000000  0.718750 -0.218750 0
0  7.600000 3.324999 0.000000  0.703386 0.703385 0.102458  0.718750 -0.250000 0
drkmtlt_bord13.vmt
0  -3.325000 -7.600000 3.000000  0.000000 -1.000000 0.000000  -0.218750 -0.156250 0
0  3.325001 -7.600000 3.000000  0.000000 -1.000000 0.000000  0.218750 -0.156250 0
0  3.325001 -7.600000 4.000000  0.000000 -1.000000 0.000000  0.218750 -0.125000 0
drkmtlt_bord13.vmt
0  -7.600000 3.324999 3.000000  -1.000000 0.000000 0.000000  0.718750 -0.156250 0
0  -7.600000 -3.324998 3.000000  -1.000000 0.000000 0.000000  0.281250 -0.156250 0
0  -7.600000 -3.324998 4.000000  -1.000000 0.000000 0.000000  0.281250 -0.125000 0
drkmtlt_bord13.vmt
0  -3.325002 7.600000 3.000000  -0.707107 0.707107 0.000000  -0.218750 -0.156250 0
0  -7.600000 3.324999 3.000000  -0.707107 0.707106 0.000000  0.718750 -0.156250 0
0  -7.600000 3.324999 4.000000  -0.707107 0.707107 0.000000  0.718750 -0.125000 0
drkmtlt_bord13.vmt
0  -7.600000 3.324999 1.000000  -0.707107 0.707107 0.000000  0.718750 -0.218750 0
0  -3.325002 7.600000 1.000000  -0.707107 0.707107 0.000000  -0.218750 -0.218750 0
0  -3.325002 7.600000 0.000000  -0.703386 0.703385 0.102458  -0.218750 -0.250000 0
drkmtlt_bord13.vmt
0  3.325001 7.600000 3.000000  0.000000 1.000000 0.000000  0.218750 -0.156250 0
0  -3.325002 7.600000 3.000000  0.000000 1.000000 0.000000  -0.218750 -0.156250 0
0  -3.325002 7.600000 4.000000  0.000000 1.000000 0.000000  -0.218750 -0.125000 0
drkmtlt_bord13.vmt
0  -7.600000 -3.324998 3.000000  -0.707107 -0.707107 0.000000  0.281250 -0.156250 0
0  -3.325000 -7.600000 3.000000  -0.707107 -0.707107 0.000000  -0.218750 -0.156250 0
0  -3.325000 -7.600000 4.000000  -0.707107 -0.707107 0.000000  -0.218750 -0.125000 0
drkmtlt_bord13.vmt
0  7.600000 -3.325001 3.000000  1.000000 0.000000 0.000000  0.281250 -0.156250 0
0  7.600000 3.325000 3.000000  1.000000 0.000000 0.000000  0.718750 -0.156250 0
0  7.600000 3.325000 4.000000  1.000000 0.000000 0.000000  0.718750 -0.125000 0
drkmtlt_bord13.vmt
0  -3.325001 -7.600000 1.000000  -0.707107 -0.707107 0.000000  -0.218750 -0.218750 0
0  -7.600000 -3.324999 1.000000  -0.707107 -0.707107 0.000000  0.281250 -0.218750 0
0  -7.600000 -3.324999 0.000000  -0.703386 -0.703385 0.102458  0.281250 -0.250000 0
drkmtlt_bord13.vmt
0  -7.362500 -3.226624 1.250000  -0.724999 0.000000 0.688750  0.281250 -0.210938 0
0  -7.362500 3.226624 1.250000  -0.724999 0.000000 0.688749  0.718750 -0.210938 0
0  -7.600000 3.324999 1.000000  -0.724999 0.000000 0.688750  0.718750 -0.218750 0
drkmtlt_bord13.vmt
0  -3.226626 7.362500 1.250000  0.000000 0.724998 0.688751  -0.218750 -0.210938 0
0  3.226625 7.362500 1.250000  0.000000 0.725000 0.688749  0.218750 -0.210938 0
0  3.325001 7.600000 1.000000  0.000000 0.725000 0.688749  0.218750 -0.218750 0
drkmtlt_bord13.vmt
0  7.362500 3.226624 1.250000  0.724999 0.000000 0.688750  0.718750 -0.210938 0
0  7.362500 -3.226625 1.250000  0.724999 0.000000 0.688750  0.281250 -0.210938 0
0  7.600000 -3.325001 1.000000  0.724999 0.000000 0.688750  0.281250 -0.218750 0
drkmtlt_bord13.vmt
0  3.226625 -7.362500 2.750000  0.512653 -0.512653 -0.688748  0.218750 -0.164062 0
0  7.362500 -3.226625 2.750000  0.512653 -0.512652 -0.688749  0.281250 -0.164062 0
0  7.600000 -3.325001 3.000000  0.512653 -0.512652 -0.688749  0.281250 -0.156250 0
drkmtlt_bord13.vmt
0  7.362500 -3.226625 1.250000  0.512652 -0.512651 0.688750  0.281250 -0.210938 0
0  3.226626 -7.362500 1.250000  0.512652 -0.512651 0.688750  0.218750 -0.210938 0
0  3.325001 -7.600000 1.000000  0.512652 -0.512651 0.688750  0.218750 -0.218750 0
drkmtlt_bord13.vmt
0  7.362500 3.226624 2.750000  0.512650 0.512652 -0.688751  0.718750 -0.164062 0
0  3.226625 7.362500 2.750000  0.512652 0.512652 -0.688750  0.218750 -0.164062 0
0  3.325001 7.600000 3.000000  0.512652 0.512652 -0.688750  0.218750 -0.156250 0
drkmtlt_bord13.vmt
0  3.226626 -7.362500 1.250000  0.000000 -0.724998 0.688751  0.218750 -0.210938 0
0  -3.226625 -7.362500 1.250000  0.000000 -0.725002 0.688747  -0.218750 -0.210938 0
0  -3.325001 -7.600000 1.000000  0.000000 -0.725001 0.688747  -0.218750 -0.218750 0
drkmtlt_bord13.vmt
0  3.226625 7.362500 1.250000  0.512652 0.512652 0.688749  0.218750 -0.210938 0
0  7.362500 3.226624 1.250000  0.512652 0.512651 0.688751  0.718750 -0.210938 0
0  7.600000 3.324999 1.000000  0.512652 0.512651 0.688750  0.718750 -0.218750 0
drkmtlt_bord13.vmt
0  -3.226624 -7.362500 2.750000  0.000000 -0.725001 -0.688748  -0.218750 -0.164062 0
0  3.226625 -7.362500 2.750000  0.000000 -0.724997 -0.688752  0.218750 -0.164062 0
0  3.325001 -7.600000 3.000000  0.000000 -0.724997 -0.688752  0.218750 -0.156250 0
drkmtlt_bord13.vmt
0  -7.362500 3.226623 2.750000  -0.724999 0.000000 -0.688750  0.718750 -0.164062 0
0  -7.362500 -3.226623 2.750000  -0.724999 0.000000 -0.688750  0.281250 -0.164062 0
0  -7.600000 -3.324998 3.000000  -0.724999 0.000000 -0.688750  0.281250 -0.156250 0
drkmtlt_bord13.vmt
0  -3.226626 7.362500 2.750000  -0.512652 0.512651 -0.688750  -0.218750 -0.164062 0
0  -7.362500 3.226623 2.750000  -0.512653 0.512652 -0.688748  0.718750 -0.164062 0
0  -7.600000 3.324999 3.000000  -0.512653 0.512652 -0.688748  0.718750 -0.156250 0
drkmtlt_bord13.vmt
0  -7.362500 3.226624 1.250000  -0.512652 0.512651 0.688750  0.718750 -0.210938 0
0  -3.226626 7.362500 1.250000  -0.512652 0.512652 0.688750  -0.218750 -0.210938 0
0  -3.325002 7.600000 1.000000  -0.512652 0.512652 0.688750  -0.218750 -0.218750 0
drkmtlt_bord13.vmt
0  3.226625 7.362500 2.750000  0.000000 0.724998 -0.688751  0.218750 -0.164062 0
0  -3.226626 7.362500 2.750000  0.000000 0.725000 -0.688749  -0.218750 -0.164062 0
0  -3.325002 7.600000 3.000000  0.000000 0.725000 -0.688749  -0.218750 -0.156250 0
drkmtlt_bord13.vmt
0  -7.362500 -3.226623 2.750000  -0.512650 -0.512651 -0.688751  0.281250 -0.164062 0
0  -3.226624 -7.362500 2.750000  -0.512653 -0.512653 -0.688748  -0.218750 -0.164062 0
0  -3.325000 -7.600000 3.000000  -0.512653 -0.512653 -0.688748  -0.218750 -0.156250 0
drkmtlt_bord13.vmt
0  7.362500 -3.226625 2.750000  0.724999 0.000000 -0.688750  0.281250 -0.164062 0
0  7.362500 3.226624 2.750000  0.724999 0.000000 -0.688750  0.718750 -0.164062 0
0  7.600000 3.325000 3.000000  0.724999 0.000000 -0.688750  0.718750 -0.156250 0
drkmtlt_bord13.vmt
0  -3.226625 -7.362500 1.250000  -0.512652 -0.512652 0.688749  -0.218750 -0.210938 0
0  -7.362500 -3.226624 1.250000  -0.512652 -0.512651 0.688751  0.281250 -0.210938 0
0  -7.600000 -3.324999 1.000000  -0.512652 -0.512651 0.688750  0.281250 -0.218750 0
galvanized_metal
0  -3.500000 3.500000 -2.000000  -0.201820 0.203898 -0.957964  0.281250 0.718750 0
0  3.500000 3.500000 -2.000000  0.203898 0.201820 -0.957964  0.718750 0.718750 0
0  3.125000 3.125000 -2.100000  0.131024 0.131024 -0.982683  0.695312 0.695312 0
galvanized_metal
0  3.500000 3.500000 -2.000000  0.203898 0.201820 -0.957964  0.718750 0.718750 0
0  3.500000 -3.500000 -2.000000  0.201820 -0.203898 -0.957964  0.718750 0.281250 0
0  3.125000 -3.125000 -2.100000  0.131024 -0.131024 -0.982683  0.695312 0.304688 0
galvanized_metal
0  3.500000 -3.500000 -2.000000  0.201820 -0.203898 -0.957964  0.718750 0.281250 0
0  -3.500000 -3.500000 -2.000000  -0.203898 -0.201820 -0.957964  0.281250 0.281250 0
0  -3.125000 -3.125000 -2.100000  -0.131024 -0.131024 -0.982683  0.304687 0.304687 0
galvanized_metal
0  -3.500000 -3.500000 -2.000000  -0.203898 -0.201820 -0.957964  0.281250 0.281250 0
0  -3.500000 3.500000 -2.000000  -0.201820 0.203898 -0.957964  0.281250 0.718750 0
0  -3.125000 3.125000 -2.100000  -0.131024 0.131024 -0.982683  0.304687 0.695312 0
galvanized_metal
0  3.500000 3.500000 -2.000000  0.203898 0.201820 -0.957964  0.718750 0.718750 0
0  3.325001 7.600000 0.000000  -0.134204 0.429825 -0.892883  0.718750 1.000000 0
0  3.885068 7.241187 -0.284222  -0.165447 0.425143 -0.889877  0.740465 0.950222 0
galvanized_metal
0  3.325001 7.600000 0.000000  0.703386 0.703385 0.102459  0.718750 1.000000 0
0  7.600000 3.324999 0.000000  0.703386 0.703385 0.102458  1.000000 0.718750 0
0  7.241187 3.885067 -0.284222  0.632280 0.632280 0.447709  0.950222 0.740465 0
galvanized_metal
0  7.600000 3.324999 0.000000  0.404259 -0.168822 -0.898929  1.000000 0.718750 0
0  3.500000 3.500000 -2.000000  0.203898 0.201820 -0.957964  0.718750 0.718750 0
0  3.885068 3.885068 -1.775831  0.289429 0.240491 -0.926496  0.740465 0.740465 0
galvanized_metal
0  -3.500000 -3.500000 -2.000000  -0.203898 -0.201820 -0.957964  0.281250 0.281250 0
0  3.500000 -3.500000 -2.000000  0.201820 -0.203898 -0.957964  0.718750 0.281250 0
0  3.125000 -3.883294 -1.939079  0.131024 -0.279374 -0.951201  0.695312 0.259833 0
galvanized_metal
0  3.500000 -3.500000 -2.000000  0.793396 -0.293892 -0.533057  0.718750 0.281250 0
0  3.325001 -7.600000 0.000000  0.793396 -0.293892 -0.533057  0.718750 0.000000 0
0  3.125001 -7.697934 -0.243683  0.793396 -0.293892 -0.533057  0.695313 0.021417 0
galvanized_metal
0  3.325001 -7.600000 0.000000  0.000000 -0.990137 0.140105  0.718750 0.000000 0
0  -3.325001 -7.600000 0.000000  0.000000 -0.990137 0.140104  0.281250 0.000000 0
0  -3.125001 -7.697934 -0.243683  0.000000 -0.927871 0.372901  0.304687 0.021417 0
galvanized_metal
0  -3.325001 -7.600000 0.000000  0.134204 -0.429825 -0.892883  0.281250 0.000000 0
0  -3.500000 -3.500000 -2.000000  -0.203898 -0.201820 -0.957964  0.281250 0.281250 0
0  -3.125000 -3.883294 -1.939079  -0.151217 -0.297760 -0.942588  0.304687 0.259833 0
galvanized_metal
0  -3.500000 3.500000 -2.000000  -0.201820 0.203898 -0.957964  0.281250 0.718750 0
0  -7.600000 3.324999 0.000000  -0.429825 -0.134204 -0.892883  0.000000 0.718750 0
0  -7.241187 3.885067 -0.284222  -0.425143 -0.165448 -0.889877  0.049778 0.740465 0
galvanized_metal
0  -7.600000 3.324999 0.000000  -0.703386 0.703385 0.102458  0.000000 0.718750 0
0  -3.325002 7.600000 0.000000  -0.703386 0.703385 0.102458  0.281250 1.000000 0
0  -3.885069 7.241187 -0.284222  -0.632281 0.632280 0.447709  0.259535 0.950222 0
galvanized_metal
0  -3.325002 7.600000 0.000000  0.168820 0.404259 -0.898929  0.281250 1.000000 0
0  -3.500000 3.500000 -2.000000  -0.201820 0.203898 -0.957964  0.281250 0.718750 0
0  -3.885068 3.885068 -1.775831  -0.240491 0.289429 -0.926496  0.259535 0.740465 0
galvanized_metal
0  -7.600000 -3.324999 0.000000  -0.404259 0.168822 -0.898929  0.000000 0.281250 0
0  -3.500000 -3.500000 -2.000000  -0.203898 -0.201820 -0.957964  0.281250 0.281250 0
0  -3.885068 -3.885068 -1.775831  -0.289429 -0.240491 -0.926496  0.259535 0.259535 0
galvanized_metal
0  -3.500000 -3.500000 -2.000000  -0.203898 -0.201820 -0.957964  0.281250 0.281250 0
0  -3.325001 -7.600000 0.000000  0.134204 -0.429825 -0.892883  0.281250 0.000000 0
0  -3.885068 -7.241187 -0.284222  0.165447 -0.425143 -0.889877  0.259535 0.049778 0
galvanized_metal
0  -3.325001 -7.600000 0.000000  -0.703386 -0.703385 0.102459  0.281250 0.000000 0
0  -7.600000 -3.324999 0.000000  -0.703386 -0.703385 0.102458  0.000000 0.281250 0
0  -7.241187 -3.885067 -0.284222  -0.632280 -0.632280 0.447709  0.049778 0.259535 0
galvanized_metal
0  3.500000 -3.500000 -2.000000  0.201820 -0.203898 -0.957964  0.718750 0.281250 0
0  7.600000 -3.325001 0.000000  0.429824 0.134204 -0.892883  1.000000 0.281250 0
0  7.241187 -3.885068 -0.284222  0.425143 0.165448 -0.889877  0.950222 0.259535 0
galvanized_metal
0  7.600000 -3.325001 0.000000  0.703385 -0.703385 0.102458  1.000000 0.281250 0
0  3.325001 -7.600000 0.000000  0.703386 -0.703385 0.102458  0.718750 0.000000 0
0  3.885069 -7.241187 -0.284222  0.632280 -0.632280 0.447711  0.740465 0.049778 0
galvanized_metal
0  3.325001 -7.600000 0.000000  -0.168821 -0.404259 -0.898929  0.718750 0.000000 0
0  3.500000 -3.500000 -2.000000  0.201820 -0.203898 -0.957964  0.718750 0.281250 0
0  3.885068 -3.885068 -1.775831  0.240491 -0.289429 -0.926496  0.740465 0.259535 0
galvanized_metal
0  -7.600000 3.324999 0.000000  -0.429825 -0.134204 -0.892883  0.000000 0.718750 0
0  -3.500000 3.500000 -2.000000  -0.201820 0.203898 -0.957964  0.281250 0.718750 0
0  -3.883294 3.125000 -1.939079  -0.297760 0.151217 -0.942588  0.259833 0.695312 0
galvanized_metal
0  -3.500000 3.500000 -2.000000  -0.201820 0.203898 -0.957964  0.281250 0.718750 0
0  -3.500000 -3.500000 -2.000000  -0.203898 -0.201820 -0.957964  0.281250 0.281250 0
0  -3.883294 -3.125000 -1.939079  -0.279374 -0.131024 -0.951201  0.259833 0.304687 0
galvanized_metal
0  -3.500000 -3.500000 -2.000000  -0.293893 -0.793395 -0.533059  0.281250 0.281250 0
0  -7.600000 -3.324999 0.000000  -0.293893 -0.793395 -0.533059  0.000000 0.281250 0
0  -7.697934 -3.124999 -0.243683  -0.293893 -0.793395 -0.533059  0.021417 0.304688 0
galvanized_metal
0  -7.600000 -3.324999 0.000000  -0.990137 0.000000 0.140105  0.000000 0.281250 0
0  -7.600000 3.324999 0.000000  -0.990137 0.000000 0.140105  0.000000 0.718750 0
0  -7.697934 3.124999 -0.243683  -0.927870 0.000000 0.372903  0.021417 0.695312 0
galvanized_metal
0  3.325001 7.600000 0.000000  -0.134204 0.429825 -0.892883  0.718750 1.000000 0
0  3.500000 3.500000 -2.000000  0.203898 0.201820 -0.957964  0.718750 0.718750 0
0  3.125000 3.883294 -1.939079  0.151217 0.297760 -0.942588  0.695312 0.740167 0
galvanized_metal
0  3.500000 3.500000 -2.000000  0.203898 0.201820 -0.957964  0.718750 0.718750 0
0  -3.500000 3.500000 -2.000000  -0.201820 0.203898 -0.957964  0.281250 0.718750 0
0  -3.125000 3.883294 -1.939079  -0.131024 0.279374 -0.951201  0.304687 0.740167 0
galvanized_metal
0  -3.500000 3.500000 -2.000000  -0.793396 0.293892 -0.533057  0.281250 0.718750 0
0  -3.325002 7.600000 0.000000  -0.793396 0.293892 -0.533057  0.281250 1.000000 0
0  -3.125002 7.697934 -0.243683  -0.793396 0.293892 -0.533057  0.304687 0.978583 0
galvanized_metal
0  -3.325002 7.600000 0.000000  -0.000000 0.990137 0.140105  0.281250 1.000000 0
0  3.325001 7.600000 0.000000  0.000000 0.990137 0.140104  0.718750 1.000000 0
0  3.125001 7.697934 -0.243683  -0.000000 0.927871 0.372901  0.695313 0.978583 0
galvanized_metal
0  7.600000 -3.325001 0.000000  0.429824 0.134204 -0.892883  1.000000 0.281250 0
0  3.500000 -3.500000 -2.000000  0.201820 -0.203898 -0.957964  0.718750 0.281250 0
0  3.883294 -3.125000 -1.939079  0.297760 -0.151217 -0.942588  0.740167 0.304687 0
galvanized_metal
0  3.500000 -3.500000 -2.000000  0.201820 -0.203898 -0.957964  0.718750 0.281250 0
0  3.500000 3.500000 -2.000000  0.203898 0.201820 -0.957964  0.718750 0.718750 0
0  3.883294 3.125000 -1.939079  0.279374 0.131024 -0.951201  0.740167 0.695313 0
galvanized_metal
0  3.500000 3.500000 -2.000000  0.293893 0.793395 -0.533058  0.718750 0.718750 0
0  7.600000 3.324999 0.000000  0.293893 0.793395 -0.533058  1.000000 0.718750 0
0  7.697935 3.124999 -0.243683  0.293893 0.793395 -0.533058  0.978583 0.695312 0
galvanized_metal
0  7.600000 3.324999 0.000000  0.990137 -0.000000 0.140106  1.000000 0.718750 0
0  7.600000 -3.325001 0.000000  0.990137 0.000000 0.140105  1.000000 0.281250 0
0  7.697934 -3.125001 -0.243683  0.927870 -0.000000 0.372903  0.978582 0.304687 0
galvanized_metal
0  -3.125000 3.125000 -2.100000  0.000000 -0.970142 -0.242536  0.304687 0.695312 0
0  3.125000 3.125000 -2.100000  0.000000 -0.970143 -0.242536  0.695312 0.695312 0
0  3.000000 3.000000 -1.600000  0.000000 -0.970142 -0.242536  0.687500 0.687500 0
galvanized_metal
0  3.125000 3.125000 -2.100000  -0.970142 0.000000 -0.242536  0.695312 0.695312 0
0  3.125000 -3.125000 -2.100000  -0.970142 0.000000 -0.242536  0.695312 0.304688 0
0  3.000000 -3.000000 -1.600000  -0.970142 0.000000 -0.242536  0.687500 0.312500 0
galvanized_metal
0  3.125000 -3.125000 -2.100000  0.000000 0.970142 -0.242536  0.695312 0.304688 0
0  -3.125000 -3.125000 -2.100000  0.000000 0.970143 -0.242536  0.304687 0.304687 0
0  -3.000000 -3.000000 -1.600000  0.000000 0.970142 -0.242536  0.312500 0.312500 0
galvanized_metal
0  -3.125000 -3.125000 -2.100000  0.970142 0.000000 -0.242536  0.304687 0.304687 0
0  -3.125000 3.125000 -2.100000  0.970142 0.000000 -0.242536  0.304687 0.695312 0
0  -3.000000 3.000000 -1.600000  0.970142 0.000000 -0.242536  0.312500 0.687500 0
galvanized_metal
0  3.885068 3.885068 -1.775831  0.990103 -0.056999 0.128248  0.740465 0.740465 0
0  3.885068 7.241187 -0.284222  0.990103 -0.056999 0.128247  0.740465 0.950222 0
0  3.812737 6.787562 0.072584  0.990103 -0.056999 0.128247  0.747703 0.933630 0
galvanized_metal
0  3.885068 7.241187 -0.284222  -0.489533 -0.489533 -0.721606  0.740465 0.950222 0
0  7.241187 3.885067 -0.284222  -0.489533 -0.489533 -0.721606  0.950222 0.740465 0
0  6.787562 3.812736 0.072583  -0.489533 -0.489533 -0.721606  0.933630 0.747703 0
galvanized_metal
0  7.241187 3.885067 -0.284222  -0.056999 0.990103 0.128248  0.950222 0.740465 0
0  3.885068 3.885068 -1.775831  -0.056998 0.990103 0.128247  0.740465 0.740465 0
0  3.812737 3.812737 -1.249561  -0.056998 0.990103 0.128247  0.747703 0.747703 0
galvanized_metal
0  -3.125000 -3.883294 -1.939079  0.000000 -0.985030 0.172381  0.304687 0.259833 0
0  3.125000 -3.883294 -1.939079  0.000000 -0.985030 0.172381  0.695312 0.259833 0
0  3.000000 -3.794451 -1.431406  0.000000 -0.985030 0.172381  0.687500 0.252693 0
galvanized_metal
0  3.125000 -3.883294 -1.939079  -0.970143 -0.098503 -0.221632  0.695312 0.259833 0
0  3.125001 -7.697934 -0.243683  -0.970143 -0.098503 -0.221632  0.695313 0.021417 0
0  3.000001 -7.380639 0.162455  -0.970143 -0.098503 -0.221632  0.687500 0.028557 0
galvanized_metal
0  3.125001 -7.697934 -0.243683  0.000000 0.788023 -0.615646  0.695313 0.021417 0
0  -3.125001 -7.697934 -0.243683  0.000000 0.788026 -0.615643  0.304687 0.021417 0
0  -3.000001 -7.380639 0.162455  0.000000 0.788025 -0.615643  0.312500 0.028557 0
galvanized_metal
0  -3.125001 -7.697934 -0.243683  0.970142 -0.098503 -0.221632  0.304687 0.021417 0
0  -3.125000 -3.883294 -1.939079  0.970142 -0.098503 -0.221632  0.304687 0.259833 0
0  -3.000000 -3.794451 -1.431406  0.970142 -0.098503 -0.221632  0.312500 0.252693 0
galvanized_metal
0  -3.885068 3.885068 -1.775831  0.056999 0.990103 0.128249  0.259535 0.740465 0
0  -7.241187 3.885067 -0.284222  0.056999 0.990103 0.128247  0.049778 0.740465 0
0  -6.787562 3.812736 0.072583  0.056999 0.990103 0.128247  0.066370 0.747703 0
galvanized_metal
0  -7.241187 3.885067 -0.284222  0.489533 -0.489533 -0.721605  0.049778 0.740465 0
0  -3.885069 7.241187 -0.284222  0.489533 -0.489533 -0.721606  0.259535 0.950222 0
0  -3.812737 6.787562 0.072583  0.489533 -0.489533 -0.721606  0.252297 0.933630 0
galvanized_metal
0  -3.885069 7.241187 -0.284222  -0.990103 -0.056999 0.128247  0.259535 0.950222 0
0  -3.885068 3.885068 -1.775831  -0.990103 -0.056999 0.128248  0.259535 0.740465 0
0  -3.812737 3.812736 -1.249561  -0.990103 -0.056999 0.128248  0.252297 0.747703 0
galvanized_metal
0  -7.241187 -3.885067 -0.284222  0.056999 -0.990103 0.128248  0.049778 0.259535 0
0  -3.885068 -3.885068 -1.775831  0.056998 -0.990103 0.128247  0.259535 0.259535 0
0  -3.812737 -3.812737 -1.249561  0.056998 -0.990103 0.128247  0.252297 0.252297 0
galvanized_metal
0  -3.885068 -3.885068 -1.775831  -0.990103 0.056999 0.128248  0.259535 0.259535 0
0  -3.885068 -7.241187 -0.284222  -0.990103 0.056999 0.128247  0.259535 0.049778 0
0  -3.812737 -6.787562 0.072584  -0.990103 0.056999 0.128247  0.252297 0.066370 0
galvanized_metal
0  -3.885068 -7.241187 -0.284222  0.489533 0.489533 -0.721606  0.259535 0.049778 0
0  -7.241187 -3.885067 -0.284222  0.489533 0.489533 -0.721606  0.049778 0.259535 0
0  -6.787562 -3.812736 0.072583  0.489533 0.489533 -0.721606  0.066370 0.252297 0
galvanized_metal
0  3.885068 -3.885068 -1.775831  -0.056999 -0.990103 0.128248  0.740465 0.259535 0
0  7.241187 -3.885068 -0.284222  -0.056999 -0.990103 0.128246  0.950222 0.259535 0
0  6.787562 -3.812737 0.072583  -0.056999 -0.990103 0.128246  0.933630 0.252297 0
galvanized_metal
0  7.241187 -3.885068 -0.284222  -0.489534 0.489533 -0.721605  0.950222 0.259535 0
0  3.885069 -7.241187 -0.284222  -0.489533 0.489533 -0.721606  0.740465 0.049778 0
0  3.812737 -6.787562 0.072583  -0.489533 0.489533 -0.721606  0.747703 0.066370 0
galvanized_metal
0  3.885069 -7.241187 -0.284222  0.990103 0.056999 0.128248  0.740465 0.049778 0
0  3.885068 -3.885068 -1.775831  0.990103 0.056999 0.128248  0.740465 0.259535 0
0  3.812737 -3.812737 -1.249561  0.990103 0.056999 0.128248  0.747703 0.252297 0
galvanized_metal
0  -7.697934 3.124999 -0.243683  -0.098503 -0.970142 -0.221632  0.021417 0.695312 0
0  -3.883294 3.125000 -1.939079  -0.098503 -0.970143 -0.221632  0.259833 0.695312 0
0  -3.794451 3.000000 -1.431406  -0.098503 -0.970143 -0.221632  0.252693 0.687500 0
galvanized_metal
0  -3.883294 3.125000 -1.939079  -0.985030 0.000000 0.172380  0.259833 0.695312 0
0  -3.883294 -3.125000 -1.939079  -0.985030 0.000000 0.172381  0.259833 0.304687 0
0  -3.794451 -3.000000 -1.431406  -0.985030 0.000000 0.172381  0.252693 0.312500 0
galvanized_metal
0  -3.883294 -3.125000 -1.939079  -0.098503 0.970143 -0.221631  0.259833 0.304687 0
0  -7.697934 -3.124999 -0.243683  -0.098503 0.970142 -0.221632  0.021417 0.304688 0
0  -7.380639 -2.999999 0.162455  -0.098503 0.970142 -0.221632  0.028557 0.312500 0
galvanized_metal
0  -7.697934 -3.124999 -0.243683  0.788024 0.000000 -0.615644  0.021417 0.304688 0
0  -7.697934 3.124999 -0.243683  0.788024 0.000000 -0.615644  0.021417 0.695312 0
0  -7.380639 2.999999 0.162455  0.788024 0.000000 -0.615644  0.028557 0.687500 0
galvanized_metal
0  3.125001 7.697934 -0.243683  -0.970142 0.098503 -0.221632  0.695313 0.978583 0
0  3.125000 3.883294 -1.939079  -0.970142 0.098503 -0.221632  0.695312 0.740167 0
0  3.000000 3.794451 -1.431406  -0.970142 0.098503 -0.221632  0.687500 0.747307 0
galvanized_metal
0  3.125000 3.883294 -1.939079  0.000000 0.985030 0.172381  0.695312 0.740167 0
0  -3.125000 3.883294 -1.939079  0.000000 0.985030 0.172381  0.304687 0.740167 0
0  -3.000000 3.794451 -1.431406  0.000000 0.985030 0.172381  0.312500 0.747307 0
galvanized_metal
0  -3.125000 3.883294 -1.939079  0.970142 0.098503 -0.221632  0.304687 0.740167 0
0  -3.125002 7.697934 -0.243683  0.970143 0.098504 -0.221632  0.304687 0.978583 0
0  -3.000002 7.380639 0.162455  0.970143 0.098504 -0.221632  0.312500 0.971443 0
galvanized_metal
0  -3.125002 7.697934 -0.243683  0.000000 -0.788024 -0.615645  0.304687 0.978583 0
0  3.125001 7.697934 -0.243683  0.000000 -0.788024 -0.615644  0.695313 0.978583 0
0  3.000001 7.380639 0.162455  0.000000 -0.788024 -0.615644  0.687500 0.971443 0
galvanized_metal
0  7.697934 -3.125001 -0.243683  0.098503 0.970142 -0.221632  0.978582 0.304687 0
0  3.883294 -3.125000 -1.939079  0.098503 0.970143 -0.221632  0.740167 0.304687 0
0  3.794451 -3.000000 -1.431406  0.098503 0.970143 -0.221632  0.747307 0.312500 0
galvanized_metal
0  3.883294 -3.125000 -1.939079  0.985030 0.000000 0.172380  0.740167 0.304687 0
0  3.883294 3.125000 -1.939079  0.985030 0.000000 0.172381  0.740167 0.695313 0
0  3.794451 3.000000 -1.431406  0.985030 0.000000 0.172381  0.747307 0.687500 0
galvanized_metal
0  3.883294 3.125000 -1.939079  0.098503 -0.970142 -0.221632  0.740167 0.695313 0
0  7.697935 3.124999 -0.243683  0.098503 -0.970142 -0.221632  0.978583 0.695312 0
0  7.380639 2.999999 0.162455  0.098503 -0.970142 -0.221632  0.971443 0.687500 0
galvanized_metal
0  7.697935 3.124999 -0.243683  -0.788024 0.000000 -0.615644  0.978583 0.695312 0
0  7.697934 -3.125001 -0.243683  -0.788024 0.000000 -0.615644  0.978582 0.304687 0
0  7.380639 -3.000001 0.162455  -0.788024 0.000000 -0.615644  0.971443 0.312500 0
end
