// Created by Crowbar 0.42.0.0
version 1
nodes
  0 "Dummy01" -1
  1 "Bone01" 0
  2 "Bone02" 1
  3 "Bone03" 2
  4 "Bone04" 3
  5 "Bone05" 4
  6 "Bone06" 5
  7 "Bone07" 6
  8 "Bone08" 7
  9 "Bone09" 8
  10 "Bone10" 9
  11 "Dummy04" 10
  12 "Dummy05" 11
  13 "Bone19" 12
  14 "Bone20" 13
  15 "Bone21" 14
  16 "Bone22" 15
  17 "Dummy03" 11
  18 "Bone11" 17
  19 "Bone12" 18
  20 "Bone13" 19
  21 "Dummy02" 11
  22 "Bone15" 21
  23 "Bone16" 22
  24 "Bone17" 23
end
skeleton
  time 0
    0 -5.806530 -1.410199 -39.840301 1.570796 0.000000 -1.596107
    1 6.265787 -16.913279 0.000000 3.132145 -0.035059 3.019587
    2 -1.211985 121.072578 2.116671 0.019844 0.006978 -0.157285
    3 -2.423956 108.889275 3.327682 0.048598 0.012620 -0.573969
    4 -8.483835 103.017944 0.000000 0.005956 -0.013483 -0.279086
    5 -7.271858 79.990417 0.000000 -0.064130 -0.010358 0.016611
    6 -6.059879 73.930542 0.000000 -0.054280 -0.022201 0.409583
    7 -7.271858 77.566437 0.000000 -0.066059 0.006136 0.224598
    8 -7.271864 68.661316 0.902174 0.104448 0.048979 0.178476
    9 -10.228978 63.176211 -0.324228 -0.078153 -0.074052 0.656988
    10 -4.847914 27.875425 0.000000 0.000000 0.000000 0.000000
    11 -10.884169 43.721066 -0.263436 0.000000 -1.570796 0.287833
    12 1.645461 3.130692 15.347058 -1.570797 1.282964 -1.570797
    13 -1.061229 0.200707 -0.378920 0.000000 0.000000 0.000000
    14 -4.349673 0.059656 0.000000 0.000000 0.000000 0.000000
    15 -6.183695 -1.485476 0.007813 0.000000 0.000000 0.000000
    16 -3.694255 -0.655429 0.000000 0.000000 0.000000 0.000000
    17 13.641458 7.020348 16.879305 -0.287833 0.000000 0.000000
    18 4.472665 2.448845 0.720848 2.357101 -0.723839 -0.868496
    19 15.242571 6.789905 0.000000 -0.227577 -0.278390 -0.059518
    20 8.366559 3.675034 14.276474 -0.210042 0.176457 -0.012931
    21 -15.633809 7.069125 16.813112 -0.287833 0.000000 0.000000
    22 -6.249312 1.413335 0.936005 0.246226 1.001122 -0.932051
    23 -13.856888 6.374216 0.000000 0.065418 -0.487160 -0.578218
    24 -5.687840 2.494701 12.855103 0.206405 -0.277604 -0.208306
  time 1
    0 -5.806530 -1.410199 -39.840301 1.570796 0.000000 -1.596107
    1 6.265787 -18.895439 0.000000 3.131857 -0.034982 3.027256
    2 -1.211985 121.072578 2.116671 0.019174 0.006697 -0.144294
    3 -2.423956 108.889275 3.327682 0.048262 0.010750 -0.536652
    4 -8.483835 103.017944 0.000000 0.005501 -0.013609 -0.256662
    5 -7.271858 79.990417 0.000000 -0.049532 -0.010358 0.016611
    6 -6.059879 73.930542 0.000000 -0.054626 -0.115135 0.414681
    7 -7.271858 77.566437 0.000000 -0.066335 -0.091047 0.231043
    8 -7.271864 68.661316 0.902174 0.104512 -0.059502 0.167098
    9 -10.228978 63.176211 -0.324228 -0.198728 -0.068488 0.651232
    10 -4.847914 27.875425 0.000000 0.000000 0.000000 0.000000
    11 -10.884169 43.721066 -0.263436 0.000000 -1.570796 0.287833
    12 1.645461 3.130692 15.347058 -1.570797 1.282964 -1.570797
    13 -1.061229 0.200707 -0.378920 0.000000 0.000000 0.000000
    14 -4.349673 0.059656 0.000000 0.000000 0.000000 0.000000
    15 -6.183695 -1.485476 0.007813 0.000000 0.000000 0.000000
    16 -3.694255 -0.655429 0.000000 0.000000 0.000000 0.000000
    17 13.641458 7.020348 16.879305 -0.287833 0.000000 0.000000
    18 4.472665 2.448845 0.720848 2.357101 -0.723839 -0.868496
    19 15.242571 6.789905 0.000000 -0.227577 -0.278390 -0.059518
    20 8.366559 3.675034 14.276474 -0.210042 0.176457 -0.012931
    21 -15.633809 7.069125 16.813112 -0.287833 0.000000 0.000000
    22 -6.249312 1.413335 0.936005 0.246226 1.001122 -0.932051
    23 -13.856888 6.374216 0.000000 0.065418 -0.487160 -0.578218
    24 -5.687840 2.494701 12.855103 0.206405 -0.277604 -0.208306
  time 2
    0 -5.806530 -1.410199 -39.840301 1.570796 0.000000 -1.596107
    1 6.265787 -20.733441 0.000000 3.131762 -0.034957 3.031954
    2 -1.211985 121.072578 2.116671 0.017692 0.006416 -0.130282
    3 -2.423956 108.889275 3.327682 0.047099 0.008725 -0.496831
    4 -8.483835 103.017944 0.000000 0.004866 -0.013749 -0.232743
    5 -7.271858 79.990417 0.000000 -0.033377 -0.010358 0.016611
    6 -6.059879 73.930542 0.000000 -0.055626 -0.220891 0.420591
    7 -7.271858 77.566437 0.000000 -0.067509 -0.207126 0.238910
    8 -7.271864 68.661316 0.902174 0.106234 -0.189727 0.153238
    9 -10.228978 63.176211 -0.324228 -0.340438 -0.058651 0.638621
    10 -4.847914 27.875425 0.000000 0.000000 0.000000 0.000000
    11 -10.884169 43.721066 -0.263436 0.000000 -1.570796 0.287833
    12 1.645461 3.130692 15.347058 -1.570797 1.282964 -1.570797
    13 -1.061229 0.200707 -0.378920 0.000000 0.000000 0.000000
    14 -4.349673 0.059656 0.000000 0.000000 0.000000 0.000000
    15 -6.183695 -1.485476 0.007813 0.000000 0.000000 0.000000
    16 -3.694255 -0.655429 0.000000 0.000000 0.000000 0.000000
    17 13.641458 7.020348 16.879305 -0.287833 0.000000 0.000000
    18 4.472665 2.448845 0.720848 2.357101 -0.723839 -0.868496
    19 15.242571 6.789905 0.000000 -0.227577 -0.278390 -0.059518
    20 8.366559 3.675034 14.276474 -0.210042 0.176457 -0.012931
    21 -15.633809 7.069125 16.813112 -0.287833 0.000000 0.000000
    22 -6.249312 1.413335 0.936005 0.246226 1.001122 -0.932051
    23 -13.856888 6.374216 0.000000 0.065418 -0.487160 -0.578218
    24 -5.687840 2.494701 12.855103 0.206405 -0.277604 -0.208306
  time 3
    0 -5.806530 -1.410199 -39.840301 1.570796 0.000000 -1.596107
    1 6.265787 -22.427286 0.000000 3.131570 -0.034880 3.038185
    2 -1.211985 121.072578 2.116671 0.016640 0.006135 -0.116827
    3 -2.423956 108.889275 3.327682 0.046237 0.006819 -0.458286
    4 -8.483835 103.017944 0.000000 0.004314 -0.013875 -0.209584
    5 -7.271858 79.990417 0.000000 -0.016455 -0.010358 0.016611
    6 -6.059879 73.930542 0.000000 -0.057190 -0.320249 0.426404
    7 -7.271858 77.566437 0.000000 -0.069463 -0.313749 0.246465
    8 -7.271864 68.661316 0.902174 0.109531 -0.309041 0.139910
    9 -10.228978 63.176211 -0.324228 -0.471605 -0.052915 0.628120
    10 -4.847914 27.875425 0.000000 0.000000 0.000000 0.000000
    11 -10.884169 43.721066 -0.263436 0.000000 -1.570796 0.287833
    12 1.645461 3.130692 15.347058 -1.570797 1.282964 -1.570797
    13 -1.061229 0.200707 -0.378920 0.000000 0.000000 0.000000
    14 -4.349673 0.059656 0.000000 0.000000 0.000000 0.000000
    15 -6.183695 -1.485476 0.007813 0.000000 0.000000 0.000000
    16 -3.694255 -0.655429 0.000000 0.000000 0.000000 0.000000
    17 13.641458 7.020348 16.879305 -0.287833 0.000000 0.000000
    18 4.472665 2.448845 0.720848 2.357101 -0.723839 -0.868496
    19 15.242571 6.789905 0.000000 -0.227577 -0.278390 -0.059518
    20 8.366559 3.675034 14.276474 -0.210042 0.176457 -0.012931
    21 -15.633809 7.069125 16.813112 -0.287833 0.000000 0.000000
    22 -6.249312 1.413335 0.936005 0.246226 1.001122 -0.932051
    23 -13.856888 6.374216 0.000000 0.065418 -0.487160 -0.578218
    24 -5.687840 2.494701 12.855103 0.206405 -0.277604 -0.208306
  time 4
    0 -5.806530 -1.410199 -39.840301 1.570796 0.000000 -1.596107
    1 6.265787 -24.013013 0.000000 3.131091 -0.034777 3.050072
    2 -1.211985 121.072578 2.116671 0.017071 0.005919 -0.105042
    3 -2.423956 108.889275 3.327682 0.046836 0.005201 -0.424657
    4 -8.483835 103.017944 0.000000 0.004111 -0.013964 -0.189387
    5 -7.271858 79.990417 0.000000 0.000455 -0.010358 0.016611
    6 -6.059879 73.930542 0.000000 -0.058773 -0.393934 0.430983
    7 -7.271858 77.566437 0.000000 -0.071224 -0.382612 0.251628
    8 -7.271864 68.661316 0.902174 0.112594 -0.384869 0.130906
    9 -10.228978 63.176211 -0.324228 -0.560427 -0.056529 0.630712
    10 -4.847914 27.875425 0.000000 0.000000 0.000000 0.000000
    11 -10.884169 43.721066 -0.263436 0.000000 -1.570796 0.287833
    12 1.645461 3.130692 15.347058 -1.570797 1.282964 -1.570797
    13 -1.061229 0.200707 -0.378920 0.000000 0.000000 0.000000
    14 -4.349673 0.059656 0.000000 0.000000 0.000000 0.000000
    15 -6.183695 -1.485476 0.007813 0.000000 0.000000 0.000000
    16 -3.694255 -0.655429 0.000000 0.000000 0.000000 0.000000
    17 13.641458 7.020348 16.879305 -0.287833 0.000000 0.000000
    18 4.472665 2.448845 0.720848 2.357101 -0.723839 -0.868496
    19 15.242571 6.789905 0.000000 -0.227577 -0.278390 -0.059518
    20 8.366559 3.675034 14.276474 -0.210042 0.176457 -0.012931
    21 -15.633809 7.069125 16.813112 -0.287833 0.000000 0.000000
    22 -6.249312 1.413335 0.936005 0.246226 1.001122 -0.932051
    23 -13.856888 6.374216 0.000000 0.065418 -0.487160 -0.578218
    24 -5.687840 2.494701 12.855103 0.206405 -0.277604 -0.208306
  time 5
    0 -5.806530 -1.410199 -39.840301 1.570796 0.000000 -1.596107
    1 6.265787 -25.454584 0.000000 3.130324 -0.034521 3.071930
    2 -1.211985 121.072578 2.116671 0.020226 0.005768 -0.096319
    3 -2.423956 108.889275 3.327682 0.050048 0.004003 -0.399724
    4 -8.483835 103.017944 0.000000 0.004518 -0.014027 -0.174405
    5 -7.271858 79.990417 0.000000 0.016599 -0.010358 0.016611
    6 -6.059879 73.930542 0.000000 -0.059519 -0.422780 0.432833
    7 -7.271858 77.566437 0.000000 -0.071296 -0.385444 0.251836
    8 -7.271864 68.661316 0.902174 0.112594 -0.384637 0.130942
    9 -10.228978 63.180118 -0.324228 -0.575328 -0.074052 0.656988
    10 -4.847914 27.875425 0.000000 0.000000 0.000000 0.000000
    11 -10.884169 43.721066 -0.263436 0.000000 -1.570796 0.287833
    12 1.645461 3.130692 15.347058 -1.570797 1.282964 -1.570797
    13 -1.061229 0.200707 -0.378920 0.000000 0.000000 0.000000
    14 -4.349673 0.059656 0.000000 0.000000 0.000000 0.000000
    15 -6.183695 -1.485476 0.007813 0.000000 0.000000 0.000000
    16 -3.694255 -0.655429 0.000000 0.000000 0.000000 0.000000
    17 13.641458 7.020348 16.879305 -0.287833 0.000000 0.000000
    18 4.472665 2.448845 0.720848 2.357101 -0.723839 -0.868496
    19 15.242571 6.789905 0.000000 -0.227577 -0.278390 -0.059518
    20 8.366559 3.675034 14.276474 -0.210042 0.176457 -0.012931
    21 -15.633809 7.069125 16.813112 -0.287833 0.000000 0.000000
    22 -6.249312 1.413335 0.936005 0.246226 1.001122 -0.932051
    23 -13.856888 6.374216 0.000000 0.065418 -0.487160 -0.578218
    24 -5.687840 2.494701 12.855103 0.206405 -0.277604 -0.208306
  time 6
    0 -5.806530 -1.410199 -39.840301 1.570796 0.000000 -1.596107
    1 6.265787 -26.751997 0.000000 3.128599 -0.033907 3.122547
    2 -1.211985 121.072578 2.116671 0.031224 0.005660 -0.092515
    3 -2.423956 108.889275 3.327682 0.060354 0.003392 -0.388853
    4 -8.483835 103.017944 0.000000 0.007251 -0.014065 -0.167868
    5 -7.271858 79.990417 0.000000 0.031208 -0.010358 0.016611
    6 -6.059879 73.930542 0.000000 -0.057409 -0.368562 0.429229
    7 -7.271858 77.566437 0.000000 -0.068072 -0.243144 0.241405
    8 -7.271864 68.661316 0.902174 0.107064 -0.226506 0.149232
    9 -10.228978 63.180118 -0.324228 -0.435646 -0.127713 0.735025
    10 -4.847914 27.875425 0.000000 0.000000 0.000000 0.000000
    11 -10.884169 43.721066 -0.263436 0.000000 -1.570796 0.287833
    12 1.645461 3.130692 15.347058 -1.570797 1.282964 -1.570797
    13 -1.061229 0.200707 -0.378920 0.000000 0.000000 0.000000
    14 -4.349673 0.059656 0.000000 0.000000 0.000000 0.000000
    15 -6.183695 -1.485476 0.007813 0.000000 0.000000 0.000000
    16 -3.694255 -0.655429 0.000000 0.000000 0.000000 0.000000
    17 13.641458 7.020348 16.879305 -0.287833 0.000000 0.000000
    18 4.472665 2.448845 0.720848 2.357101 -0.723839 -0.868496
    19 15.242571 6.789905 0.000000 -0.227577 -0.278390 -0.059518
    20 8.366559 3.675034 14.276474 -0.210042 0.176457 -0.012931
    21 -15.633809 7.069125 16.813112 -0.287833 0.000000 0.000000
    22 -6.249312 1.413335 0.936005 0.246226 1.001122 -0.932051
    23 -13.856888 6.374216 0.000000 0.065418 -0.487160 -0.578218
    24 -5.687840 2.494701 12.855103 0.206405 -0.277604 -0.208306
  time 7
    0 -5.806530 -1.410199 -39.840301 1.570796 0.000000 -1.596107
    1 6.265787 -27.905253 0.000000 3.126299 -0.032935 -3.090048
    2 -1.211985 121.072578 2.116671 0.048343 0.005639 -0.092886
    3 -2.423956 108.889275 3.327682 0.076258 0.003392 -0.390059
    4 -8.483835 103.017944 0.000000 0.011709 -0.014078 -0.168602
    5 -7.271858 79.990417 0.000000 0.043480 -0.010358 0.016611
    6 -6.059879 73.930542 0.000000 -0.053934 -0.244760 0.421728
    7 -7.271858 77.566437 0.000000 -0.066071 0.016780 0.223870
    8 -7.271864 68.661316 0.902174 0.104533 0.061024 0.179752
    9 -10.228978 63.176211 -0.324228 -0.174704 -0.233284 0.835208
    10 -4.847914 27.875425 0.000000 0.000000 0.000000 0.000000
    11 -10.884169 43.721066 -0.263436 0.000000 -1.570796 0.287833
    12 1.645461 3.130692 15.347058 -1.570797 1.282964 -1.570797
    13 -1.061229 0.200707 -0.378920 0.000000 0.000000 0.000000
    14 -4.349673 0.059656 0.000000 0.000000 0.000000 0.000000
    15 -6.183695 -1.485476 0.007813 0.000000 0.000000 0.000000
    16 -3.694255 -0.655429 0.000000 0.000000 0.000000 0.000000
    17 13.641458 7.020348 16.879305 -0.287833 0.000000 0.000000
    18 4.472665 2.448845 0.720848 2.357101 -0.723839 -0.868496
    19 15.242571 6.789905 0.000000 -0.227577 -0.278390 -0.059518
    20 8.366559 3.675034 14.276474 -0.210042 0.176457 -0.012931
    21 -15.633809 7.069125 16.813112 -0.287833 0.000000 0.000000
    22 -6.249312 1.413335 0.936005 0.246226 1.001122 -0.932051
    23 -13.856888 6.374216 0.000000 0.065418 -0.487160 -0.578218
    24 -5.687840 2.494701 12.855103 0.206405 -0.277604 -0.208306
  time 8
    0 -5.806530 -1.410199 -39.840301 1.570796 0.000000 -1.596107
    1 6.265787 -28.914353 0.000000 3.124479 -0.032065 -3.036555
    2 -1.211985 121.072578 2.116671 0.062305 0.005703 -0.095020
    3 -2.423956 108.889275 3.327682 0.089956 0.003739 -0.396109
    4 -8.483835 103.017944 0.000000 0.014765 -0.014053 -0.172226
    5 -7.271858 79.990417 0.000000 0.052660 -0.010358 0.016611
    6 -6.059879 73.930542 0.000000 -0.052388 -0.109830 0.414291
    7 -7.271858 77.566437 0.000000 -0.068408 0.262692 0.207201
    8 -7.271864 68.661316 0.902174 0.110871 0.344659 0.210946
    9 -10.228978 63.180118 -0.324228 0.076430 -0.355949 0.896943
    10 -4.847914 27.875425 0.000000 0.000000 0.000000 0.000000
    11 -10.884169 43.721066 -0.263436 0.000000 -1.570796 0.287833
    12 1.645461 3.130692 15.347058 -1.570797 1.282964 -1.570797
    13 -1.061229 0.200707 -0.378920 0.000000 0.000000 0.000000
    14 -4.349673 0.059656 0.000000 0.000000 0.000000 0.000000
    15 -6.183695 -1.485476 0.007813 0.000000 0.000000 0.000000
    16 -3.694255 -0.655429 0.000000 0.000000 0.000000 0.000000
    17 13.641458 7.020348 16.879305 -0.287833 0.000000 0.000000
    18 4.472665 2.448845 0.720848 2.357101 -0.723839 -0.868496
    19 15.242571 6.789905 0.000000 -0.227577 -0.278390 -0.059518
    20 8.366559 3.675034 14.276474 -0.210042 0.176457 -0.012931
    21 -15.633809 7.069125 16.813112 -0.287833 0.000000 0.000000
    22 -6.249312 1.413335 0.936005 0.246226 1.001122 -0.932051
    23 -13.856888 6.374216 0.000000 0.065418 -0.487160 -0.578218
    24 -5.687840 2.494701 12.855103 0.206405 -0.277604 -0.208306
  time 9
    0 -5.806530 -1.410199 -39.840301 1.570796 0.000000 -1.596107
    1 6.265787 -29.815334 0.000000 3.123616 -0.031579 -3.009425
    2 -1.211985 121.072578 2.116671 0.063835 0.005768 -0.096319
    3 -2.423956 108.889275 3.327682 0.093660 0.004003 -0.399724
    4 -8.483835 103.017944 0.000000 0.013255 -0.014027 -0.174405
    5 -7.271858 79.990417 0.000000 0.057969 -0.010358 0.016611
    6 -6.059879 73.930542 0.000000 -0.054280 -0.022201 0.409583
    7 -7.271858 77.566437 0.000000 -0.070673 0.362934 0.199854
    8 -7.271864 68.661316 0.902174 0.118379 0.491133 0.229378
    9 -10.228978 63.180118 -0.324228 0.189884 -0.426990 0.907357
    10 -4.847914 27.875425 0.000000 0.000000 0.000000 0.000000
    11 -10.884169 43.721066 -0.263436 0.000000 -1.570796 0.287833
    12 1.645461 3.130692 15.347058 -1.570797 1.282964 -1.570797
    13 -1.061229 0.200707 -0.378920 0.000000 0.000000 0.000000
    14 -4.349673 0.059656 0.000000 0.000000 0.000000 0.000000
    15 -6.183695 -1.485476 0.007813 0.000000 0.000000 0.000000
    16 -3.694255 -0.655429 0.000000 0.000000 0.000000 0.000000
    17 13.641458 7.020348 16.879305 -0.287833 0.000000 0.000000
    18 4.472665 2.448845 0.720848 2.357101 -0.723839 -0.868496
    19 15.242571 6.789905 0.000000 -0.227577 -0.278390 -0.059518
    20 8.366559 3.675034 14.276474 -0.210042 0.176457 -0.012931
    21 -15.633809 7.069125 16.813112 -0.287833 0.000000 0.000000
    22 -6.249312 1.413335 0.936005 0.246226 1.001122 -0.932051
    23 -13.856888 6.374216 0.000000 0.065418 -0.487160 -0.578218
    24 -5.687840 2.494701 12.855103 0.206405 -0.277604 -0.208306
  time 10
    0 -5.806530 -1.410199 -39.840301 1.570796 0.000000 -1.596107
    1 6.265787 -30.536119 0.000000 3.123329 -0.031399 -2.999263
    2 -1.211985 121.072578 2.116671 0.049347 0.005725 -0.093536
    3 -2.423956 108.889275 3.327682 0.084983 0.003919 -0.398306
    4 -8.483835 103.017944 0.000000 0.005681 -0.013977 -0.169973
    5 -7.271858 79.990417 0.000000 0.053403 -0.010231 0.011718
    6 -6.059879 73.930542 0.000000 -0.059683 0.006179 0.406790
    7 -7.271858 77.566437 0.000000 -0.068648 0.276738 0.203389
    8 -7.271864 68.661316 0.902174 0.116103 0.453244 0.224380
    9 -10.228978 63.176211 -0.324228 0.107118 -0.418701 0.880334
    10 -4.847914 27.875425 0.000000 0.000000 0.000000 0.000000
    11 -10.884169 43.721066 -0.263436 0.000000 -1.570796 0.287833
    12 1.645461 3.130692 15.347058 -1.570797 1.282964 -1.570797
    13 -1.061229 0.200707 -0.378920 0.000000 0.000000 0.000000
    14 -4.349673 0.059656 0.000000 0.000000 0.000000 0.000000
    15 -6.183695 -1.485476 0.007813 0.000000 0.000000 0.000000
    16 -3.694255 -0.655429 0.000000 0.000000 0.000000 0.000000
    17 13.641458 7.020348 16.879305 -0.287833 0.000000 0.000000
    18 4.472665 2.448845 0.720848 2.357101 -0.723839 -0.868496
    19 15.242571 6.789905 0.000000 -0.227577 -0.278390 -0.059518
    20 8.366559 3.675034 14.276474 -0.210042 0.176457 -0.012931
    21 -15.633809 7.069125 16.813112 -0.287833 0.000000 0.000000
    22 -6.249312 1.413335 0.936005 0.246226 1.001122 -0.932051
    23 -13.856888 6.374216 0.000000 0.065418 -0.487160 -0.578218
    24 -5.687840 2.494701 12.855103 0.206405 -0.277604 -0.208306
  time 11
    0 -5.806530 -1.410199 -39.840301 1.570796 0.000000 -1.596107
    1 6.265787 -31.148787 0.000000 3.123808 -0.031681 -3.014506
    2 -1.211985 121.072578 2.116671 0.025104 0.005747 -0.087875
    3 -2.423956 108.889275 3.327682 0.069127 0.003775 -0.395494
    4 -8.483835 103.017944 0.000000 -0.005717 -0.013825 -0.161136
    5 -7.271858 79.990417 0.000000 0.037392 -0.010083 0.001931
    6 -6.059879 73.930542 0.000000 -0.067268 0.009569 0.404160
    7 -7.271858 77.566437 0.000000 -0.065436 0.088215 0.210944
    8 -7.271864 68.661316 0.902174 0.109722 0.314096 0.207365
    9 -10.228978 63.176211 -0.324228 -0.087048 -0.373272 0.823740
    10 -4.847914 27.875425 0.000000 0.000000 0.000000 0.000000
    11 -10.884169 43.721066 -0.263436 0.000000 -1.570796 0.287833
    12 1.645461 3.130692 15.347058 -1.570797 1.282964 -1.570797
    13 -1.061229 0.200707 -0.378920 0.000000 0.000000 0.000000
    14 -4.349673 0.059656 0.000000 0.000000 0.000000 0.000000
    15 -6.183695 -1.485476 0.007813 0.000000 0.000000 0.000000
    16 -3.694255 -0.655429 0.000000 0.000000 0.000000 0.000000
    17 13.641458 7.020348 16.879305 -0.287833 0.000000 0.000000
    18 4.472665 2.448845 0.720848 2.357101 -0.723839 -0.868496
    19 15.242571 6.789905 0.000000 -0.227577 -0.278390 -0.059518
    20 8.366559 3.675034 14.276474 -0.210042 0.176457 -0.012931
    21 -15.633809 7.069125 16.813112 -0.287833 0.000000 0.000000
    22 -6.249312 1.413335 0.936005 0.246226 1.001122 -0.932051
    23 -13.856888 6.374216 0.000000 0.065418 -0.487160 -0.578218
    24 -5.687840 2.494701 12.855103 0.206405 -0.277604 -0.208306
  time 12
    0 -5.806530 -1.410199 -39.840301 1.570796 0.000000 -1.596107
    1 6.265787 -31.653336 0.000000 3.125533 -0.032602 -3.068766
    2 -1.211985 121.072578 2.116671 -0.003156 0.005898 -0.083700
    3 -2.423956 108.889275 3.327682 0.049760 0.003727 -0.393367
    4 -8.483835 103.017944 0.000000 -0.018588 -0.013584 -0.154526
    5 -7.271858 79.990417 0.000000 0.015820 -0.010189 -0.005344
    6 -6.059879 73.930542 0.000000 -0.075581 -0.001230 0.402991
    7 -7.271858 77.566437 0.000000 -0.064034 -0.146857 0.222414
    8 -7.271864 68.661316 0.902174 0.105320 0.136569 0.187728
    9 -10.228978 63.180118 -0.324228 -0.317428 -0.324745 0.748163
    10 -4.847914 27.875425 0.000000 0.000000 0.000000 0.000000
    11 -10.884169 43.721066 -0.263436 0.000000 -1.570796 0.287833
    12 1.645461 3.130692 15.347058 -1.570797 1.282964 -1.570797
    13 -1.061229 0.200707 -0.378920 0.000000 0.000000 0.000000
    14 -4.349673 0.059656 0.000000 0.000000 0.000000 0.000000
    15 -6.183695 -1.485476 0.007813 0.000000 0.000000 0.000000
    16 -3.694255 -0.655429 0.000000 0.000000 0.000000 0.000000
    17 13.641458 7.020348 16.879305 -0.287833 0.000000 0.000000
    18 4.472665 2.448845 0.720848 2.357101 -0.723839 -0.868496
    19 15.242571 6.789905 0.000000 -0.227577 -0.278390 -0.059518
    20 8.366559 3.675034 14.276474 -0.210042 0.176457 -0.012931
    21 -15.633809 7.069125 16.813112 -0.287833 0.000000 0.000000
    22 -6.249312 1.413335 0.936005 0.246226 1.001122 -0.932051
    23 -13.856888 6.374216 0.000000 0.065418 -0.487160 -0.578218
    24 -5.687840 2.494701 12.855103 0.206405 -0.277604 -0.208306
  time 13
    0 -5.806530 -1.410199 -39.840301 1.570796 0.000000 -1.596107
    1 6.265787 -31.977690 0.000000 3.128216 -0.033754 3.135010
    2 -1.211985 121.072578 2.116671 -0.029933 0.006049 -0.085091
    3 -2.423956 108.889275 3.327682 0.030549 0.003811 -0.394076
    4 -8.483835 103.017944 0.000000 -0.030501 -0.013534 -0.156729
    5 -7.271858 79.990417 0.000000 -0.005441 -0.010421 -0.002897
    6 -6.059879 73.930542 0.000000 -0.083312 -0.015448 0.404452
    7 -7.271858 77.566437 0.000000 -0.067174 -0.372667 0.239464
    8 -7.271864 68.661316 0.902174 0.104342 -0.016172 0.171670
    9 -10.228978 63.176211 -0.324228 -0.510276 -0.294086 0.678255
    10 -4.847914 27.875425 0.000000 0.000000 0.000000 0.000000
    11 -10.884169 43.721066 -0.263436 0.000000 -1.570796 0.287833
    12 1.645461 3.130692 15.347058 -1.570797 1.282964 -1.570797
    13 -1.061229 0.200707 -0.378920 0.000000 0.000000 0.000000
    14 -4.349673 0.059656 0.000000 0.000000 0.000000 0.000000
    15 -6.183695 -1.485476 0.007813 0.000000 0.000000 0.000000
    16 -3.694255 -0.655429 0.000000 0.000000 0.000000 0.000000
    17 13.641458 7.020348 16.879305 -0.287833 0.000000 0.000000
    18 4.472665 2.448845 0.720848 2.357101 -0.723839 -0.868496
    19 15.242571 6.789905 0.000000 -0.227577 -0.278390 -0.059518
    20 8.366559 3.675034 14.276474 -0.210042 0.176457 -0.012931
    21 -15.633809 7.069125 16.813112 -0.287833 0.000000 0.000000
    22 -6.249312 1.413335 0.936005 0.246226 1.001122 -0.932051
    23 -13.856888 6.374216 0.000000 0.065418 -0.487160 -0.578218
    24 -5.687840 2.494701 12.855103 0.206405 -0.277604 -0.208306
  time 14
    0 -5.806530 -1.410199 -39.840301 1.570796 0.000000 -1.596107
    1 6.265787 -32.193925 0.000000 3.130612 -0.034624 3.063206
    2 -1.211985 121.072578 2.116671 -0.049490 0.005768 -0.096319
    3 -2.423956 108.889275 3.327682 0.015161 0.004003 -0.399724
    4 -8.483835 103.017944 0.000000 -0.039070 -0.014027 -0.174405
    5 -7.271858 79.990417 0.000000 -0.020518 -0.010358 0.016611
    6 -6.059879 73.930542 0.000000 -0.089169 -0.022201 0.409583
    7 -7.271858 77.566437 0.000000 -0.076737 -0.533310 0.264069
    8 -7.271864 68.661316 0.902174 0.104682 -0.081116 0.164829
    9 -10.228978 63.180118 -0.324228 -0.591192 -0.284364 0.647541
    10 -4.847914 27.875425 0.000000 0.000000 0.000000 0.000000
    11 -10.884169 43.721066 -0.263436 0.000000 -1.570796 0.287833
    12 1.645461 3.130692 15.347058 -1.570797 1.282964 -1.570797
    13 -1.061229 0.200707 -0.378920 0.000000 0.000000 0.000000
    14 -4.349673 0.059656 0.000000 0.000000 0.000000 0.000000
    15 -6.183695 -1.485476 0.007813 0.000000 0.000000 0.000000
    16 -3.694255 -0.655429 0.000000 0.000000 0.000000 0.000000
    17 13.641458 7.020348 16.879305 -0.287833 0.000000 0.000000
    18 4.472665 2.448845 0.720848 2.357101 -0.723839 -0.868496
    19 15.242571 6.789905 0.000000 -0.227577 -0.278390 -0.059518
    20 8.366559 3.675034 14.276474 -0.210042 0.176457 -0.012931
    21 -15.633809 7.069125 16.813112 -0.287833 0.000000 0.000000
    22 -6.249312 1.413335 0.936005 0.246226 1.001122 -0.932051
    23 -13.856888 6.374216 0.000000 0.065418 -0.487160 -0.578218
    24 -5.687840 2.494701 12.855103 0.206405 -0.277604 -0.208306
  time 15
    0 -5.806530 -1.410199 -39.840301 1.570796 0.000000 -1.596107
    1 6.265787 -32.266004 0.000000 3.131762 -0.034957 3.031666
    2 -1.211985 121.072578 2.116671 -0.020609 0.003629 -0.200898
    3 -2.423956 108.889275 3.327682 0.020050 0.005477 -0.452780
    4 -8.483835 103.017944 0.000000 -0.022843 -0.018040 -0.340094
    5 -7.271858 79.990417 0.000000 -0.002049 -0.010147 0.199781
    6 -6.059879 73.930542 0.000000 -0.081020 -0.018674 0.453064
    7 -7.271858 77.566437 0.000000 -0.098465 -0.292981 0.345508
    8 -7.271864 68.661316 0.902174 0.104342 0.008305 0.174222
    9 -10.228978 63.176211 -0.324228 -0.469046 -0.293283 0.694029
    10 -4.847914 27.875425 0.000000 0.000000 0.000000 0.000000
    11 -10.884169 43.721066 -0.263436 0.000000 -1.570796 0.287833
    12 1.645461 3.130692 15.347058 -1.570797 1.282964 -1.570797
    13 -1.061229 0.200707 -0.378920 0.000000 0.000000 0.000000
    14 -4.349673 0.059656 0.000000 0.000000 0.000000 0.000000
    15 -6.183695 -1.485476 0.007813 0.000000 0.000000 0.000000
    16 -3.694255 -0.655429 0.000000 0.000000 0.000000 0.000000
    17 13.641458 7.020348 16.879305 -0.287833 0.000000 0.000000
    18 4.472665 2.448845 0.720848 2.357101 -0.723839 -0.868496
    19 15.242571 6.789905 0.000000 -0.227577 -0.278390 -0.059518
    20 8.366559 3.675034 14.276474 -0.210042 0.176457 -0.012931
    21 -15.633809 7.069125 16.813112 -0.287833 0.000000 0.000000
    22 -6.249312 1.413335 0.936005 0.246226 1.001122 -0.932051
    23 -13.856888 6.374216 0.000000 0.065418 -0.487160 -0.578218
    24 -5.687840 2.494701 12.855103 0.206405 -0.277604 -0.208306
  time 16
    0 -5.806530 -1.410199 -39.840301 1.570796 0.000000 -1.596107
    1 6.265787 -32.193925 0.000000 3.130995 -0.034726 3.053715
    2 -1.211985 121.072578 2.116671 0.014632 0.005531 -0.176771
    3 -2.423956 108.889275 3.327682 0.042797 0.005477 -0.440751
    4 -8.483835 103.017944 0.000000 -0.007275 -0.016116 -0.301781
    5 -7.271858 79.990417 0.000000 0.022735 -0.011943 0.157385
    6 -6.059879 73.930542 0.000000 -0.069996 -0.019686 0.443030
    7 -7.271858 77.566437 0.000000 -0.077960 -0.017122 0.300388
    8 -7.271864 68.661316 0.902174 0.106575 0.205099 0.195136
    9 -10.228978 63.180118 -0.324228 -0.200755 -0.331456 0.790785
    10 -4.847914 27.875425 0.000000 0.000000 0.000000 0.000000
    11 -10.884169 43.721066 -0.263436 0.000000 -1.570796 0.287833
    12 1.645461 3.130692 15.347058 -1.570797 1.282964 -1.570797
    13 -1.061229 0.200707 -0.378920 0.000000 0.000000 0.000000
    14 -4.349673 0.059656 0.000000 0.000000 0.000000 0.000000
    15 -6.183695 -1.485476 0.007813 0.000000 0.000000 0.000000
    16 -3.694255 -0.655429 0.000000 0.000000 0.000000 0.000000
    17 13.641458 7.020348 16.879305 -0.287833 0.000000 0.000000
    18 4.472665 2.448845 0.720848 2.357101 -0.723839 -0.868496
    19 15.242571 6.789905 0.000000 -0.227577 -0.278390 -0.059518
    20 8.366559 3.675034 14.276474 -0.210042 0.176457 -0.012931
    21 -15.633809 7.069125 16.813112 -0.287833 0.000000 0.000000
    22 -6.249312 1.413335 0.936005 0.246226 1.001122 -0.932051
    23 -13.856888 6.374216 0.000000 0.065418 -0.487160 -0.578218
    24 -5.687840 2.494701 12.855103 0.206405 -0.277604 -0.208306
  time 17
    0 -5.806530 -1.410199 -39.840301 1.570796 0.000000 -1.596107
    1 6.265787 -31.977690 0.000000 3.129078 -0.034112 3.107688
    2 -1.211985 121.072578 2.116671 0.049825 0.006243 -0.129261
    3 -2.423956 108.889275 3.327682 0.067965 0.004614 -0.416976
    4 -8.483835 103.017944 0.000000 0.007646 -0.014496 -0.226574
    5 -7.271858 79.990417 0.000000 0.047831 -0.011732 0.074266
    6 -6.059879 73.930542 0.000000 -0.058828 -0.021244 0.423286
    7 -7.271858 77.566437 0.000000 -0.069007 0.255823 0.238563
    8 -7.271864 68.661316 0.902174 0.113402 0.401789 0.217858
    9 -10.228978 63.180118 -0.324228 0.067434 -0.392660 0.874930
    10 -4.847914 27.875425 0.000000 0.000000 0.000000 0.000000
    11 -10.884169 43.721066 -0.263436 0.000000 -1.570796 0.287833
    12 1.645461 3.130692 15.347058 -1.570797 1.282964 -1.570797
    13 -1.061229 0.200707 -0.378920 0.000000 0.000000 0.000000
    14 -4.349673 0.059656 0.000000 0.000000 0.000000 0.000000
    15 -6.183695 -1.485476 0.007813 0.000000 0.000000 0.000000
    16 -3.694255 -0.655429 0.000000 0.000000 0.000000 0.000000
    17 13.641458 7.020348 16.879305 -0.287833 0.000000 0.000000
    18 4.472665 2.448845 0.720848 2.357101 -0.723839 -0.868496
    19 15.242571 6.789905 0.000000 -0.227577 -0.278390 -0.059518
    20 8.366559 3.675034 14.276474 -0.210042 0.176457 -0.012931
    21 -15.633809 7.069125 16.813112 -0.287833 0.000000 0.000000
    22 -6.249312 1.413335 0.936005 0.246226 1.001122 -0.932051
    23 -13.856888 6.374216 0.000000 0.065418 -0.487160 -0.578218
    24 -5.687840 2.494701 12.855103 0.206405 -0.277604 -0.208306
  time 18
    0 -5.806530 -1.410199 -39.840301 1.570796 0.000000 -1.596107
    1 6.265787 -31.653336 0.000000 3.126874 -0.033216 -3.109222
    2 -1.211985 121.072578 2.116671 0.063835 0.005768 -0.096319
    3 -2.423956 108.889275 3.327682 0.078451 0.003667 -0.400504
    4 -8.483835 103.017944 0.000000 0.013255 -0.014027 -0.174405
    5 -7.271858 79.990417 0.000000 0.057969 -0.010358 0.016611
    6 -6.059879 73.930542 0.000000 -0.054280 -0.022201 0.409583
    7 -7.271858 77.566437 0.000000 -0.070673 0.362934 0.199854
    8 -7.271864 68.661316 0.902174 0.118379 0.491133 0.229378
    9 -10.228978 63.180118 -0.324228 0.189884 -0.426990 0.907357
    10 -4.847914 27.875425 0.000000 0.000000 0.000000 0.000000
    11 -10.884169 43.721066 -0.263436 0.000000 -1.570796 0.287833
    12 1.645461 3.130692 15.347058 -1.570797 1.282964 -1.570797
    13 -1.061229 0.200707 -0.378920 0.000000 0.000000 0.000000
    14 -4.349673 0.059656 0.000000 0.000000 0.000000 0.000000
    15 -6.183695 -1.485476 0.007813 0.000000 0.000000 0.000000
    16 -3.694255 -0.655429 0.000000 0.000000 0.000000 0.000000
    17 13.641458 7.020348 16.879305 -0.287833 0.000000 0.000000
    18 4.472665 2.448845 0.720848 2.357101 -0.723839 -0.868496
    19 15.242571 6.789905 0.000000 -0.227577 -0.278390 -0.059518
    20 8.366559 3.675034 14.276474 -0.210042 0.176457 -0.012931
    21 -15.633809 7.069125 16.813112 -0.287833 0.000000 0.000000
    22 -6.249312 1.413335 0.936005 0.246226 1.001122 -0.932051
    23 -13.856888 6.374216 0.000000 0.065418 -0.487160 -0.578218
    24 -5.687840 2.494701 12.855103 0.206405 -0.277604 -0.208306
  time 19
    0 -5.806530 -1.410199 -39.840301 1.570796 0.000000 -1.596107
    1 6.265787 -31.148787 0.000000 3.124958 -0.032295 -3.050360
    2 -1.211985 121.072578 2.116671 0.049729 0.005639 -0.087875
    3 -2.423956 108.889275 3.327682 0.068684 0.003404 -0.396321
    4 -8.483835 103.017944 0.000000 0.006532 -0.013901 -0.161136
    5 -7.271858 79.990417 0.000000 0.048310 -0.009999 0.001964
    6 -6.059879 73.930542 0.000000 -0.058555 -0.022420 0.406108
    7 -7.271858 77.566437 0.000000 -0.067977 0.250550 0.199923
    8 -7.271864 68.661316 0.902174 0.114912 0.431682 0.221615
    9 -10.228978 63.180118 -0.324228 0.108310 -0.403730 0.886222
    10 -4.847914 27.875425 0.000000 0.000000 0.000000 0.000000
    11 -10.884169 43.721066 -0.263436 0.000000 -1.570796 0.287833
    12 1.645461 3.130692 15.347058 -1.570797 1.282964 -1.570797
    13 -1.061229 0.200707 -0.378920 0.000000 0.000000 0.000000
    14 -4.349673 0.059656 0.000000 0.000000 0.000000 0.000000
    15 -6.183695 -1.485476 0.007813 0.000000 0.000000 0.000000
    16 -3.694255 -0.655429 0.000000 0.000000 0.000000 0.000000
    17 13.641458 7.020348 16.879305 -0.287833 0.000000 0.000000
    18 4.472665 2.448845 0.720848 2.357101 -0.723839 -0.868496
    19 15.242571 6.789905 0.000000 -0.227577 -0.278390 -0.059518
    20 8.366559 3.675034 14.276474 -0.210042 0.176457 -0.012931
    21 -15.633809 7.069125 16.813112 -0.287833 0.000000 0.000000
    22 -6.249312 1.413335 0.936005 0.246226 1.001122 -0.932051
    23 -13.856888 6.374216 0.000000 0.065418 -0.487160 -0.578218
    24 -5.687840 2.494701 12.855103 0.206405 -0.277604 -0.208306
  time 20
    0 -5.806530 -1.410199 -39.840301 1.570796 0.000000 -1.596107
    1 6.265787 -30.536119 0.000000 3.123904 -0.031732 -3.018341
    2 -1.211985 121.072578 2.116671 0.021326 0.005747 -0.086855
    3 -2.423956 108.889275 3.327682 0.049005 0.003404 -0.395778
    4 -8.483835 103.017944 0.000000 -0.006592 -0.013787 -0.159495
    5 -7.271858 79.990417 0.000000 0.028655 -0.010125 0.000129
    6 -6.059879 73.930542 0.000000 -0.067286 -0.022475 0.405686
    7 -7.271858 77.566437 0.000000 -0.064777 0.025830 0.213889
    8 -7.271864 68.661316 0.902174 0.108893 0.289800 0.204601
    9 -10.228978 63.180118 -0.324228 -0.085350 -0.355203 0.828925
    10 -4.847914 27.875425 0.000000 0.000000 0.000000 0.000000
    11 -10.884169 43.721066 -0.263436 0.000000 -1.570796 0.287833
    12 1.645461 3.130692 15.347058 -1.570797 1.282964 -1.570797
    13 -1.061229 0.200707 -0.378920 0.000000 0.000000 0.000000
    14 -4.349673 0.059656 0.000000 0.000000 0.000000 0.000000
    15 -6.183695 -1.485476 0.007813 0.000000 0.000000 0.000000
    16 -3.694255 -0.655429 0.000000 0.000000 0.000000 0.000000
    17 13.641458 7.020348 16.879305 -0.287833 0.000000 0.000000
    18 4.472665 2.448845 0.720848 2.357101 -0.723839 -0.868496
    19 15.242571 6.789905 0.000000 -0.227577 -0.278390 -0.059518
    20 8.366559 3.675034 14.276474 -0.210042 0.176457 -0.012931
    21 -15.633809 7.069125 16.813112 -0.287833 0.000000 0.000000
    22 -6.249312 1.413335 0.936005 0.246226 1.001122 -0.932051
    23 -13.856888 6.374216 0.000000 0.065418 -0.487160 -0.578218
    24 -5.687840 2.494701 12.855103 0.206405 -0.277604 -0.208306
  time 21
    0 -5.806530 -1.410199 -39.840301 1.570796 0.000000 -1.596107
    1 6.265787 -29.815334 0.000000 3.124862 -0.032244 -3.046717
    2 -1.211985 121.072578 2.116671 -0.011333 0.005855 -0.090010
    3 -2.423956 108.889275 3.327682 0.026378 0.003500 -0.397337
    4 -8.483835 103.017944 0.000000 -0.021608 -0.013787 -0.164465
    5 -7.271858 79.990417 0.000000 0.005980 -0.010337 0.005601
    6 -6.059879 73.930542 0.000000 -0.077382 -0.022393 0.406985
    7 -7.271858 77.566437 0.000000 -0.066131 -0.232321 0.233954
    8 -7.271864 68.661316 0.902174 0.105086 0.120372 0.186026
    9 -10.228978 63.176211 -0.324228 -0.316211 -0.311982 0.750316
    10 -4.847914 27.875425 0.000000 0.000000 0.000000 0.000000
    11 -10.884169 43.721066 -0.263436 0.000000 -1.570796 0.287833
    12 1.645461 3.130692 15.347058 -1.570797 1.282964 -1.570797
    13 -1.061229 0.200707 -0.378920 0.000000 0.000000 0.000000
    14 -4.349673 0.059656 0.000000 0.000000 0.000000 0.000000
    15 -6.183695 -1.485476 0.007813 0.000000 0.000000 0.000000
    16 -3.694255 -0.655429 0.000000 0.000000 0.000000 0.000000
    17 13.641458 7.020348 16.879305 -0.287833 0.000000 0.000000
    18 4.472665 2.448845 0.720848 2.357101 -0.723839 -0.868496
    19 15.242571 6.789905 0.000000 -0.227577 -0.278390 -0.059518
    20 8.366559 3.675034 14.276474 -0.210042 0.176457 -0.012931
    21 -15.633809 7.069125 16.813112 -0.287833 0.000000 0.000000
    22 -6.249312 1.413335 0.936005 0.246226 1.001122 -0.932051
    23 -13.856888 6.374216 0.000000 0.065418 -0.487160 -0.578218
    24 -5.687840 2.494701 12.855103 0.206405 -0.277604 -0.208306
  time 22
    0 -5.806530 -1.410199 -39.840301 1.570796 0.000000 -1.596107
    1 6.265787 -28.914353 0.000000 3.127066 -0.033268 -3.113631
    2 -1.211985 121.072578 2.116671 -0.038301 0.005833 -0.094185
    3 -2.423956 108.889275 3.327682 0.007718 0.003583 -0.399417
    4 -8.483835 103.017944 0.000000 -0.033940 -0.013926 -0.171100
    5 -7.271858 79.990417 0.000000 -0.012728 -0.010379 0.012941
    6 -6.059879 73.930542 0.000000 -0.085713 -0.022256 0.408738
    7 -7.271858 77.566437 0.000000 -0.072315 -0.444965 0.254123
    8 -7.271864 68.661316 0.902174 0.104363 -0.021588 0.171103
    9 -10.228978 63.180118 -0.324228 -0.509896 -0.289698 0.678606
    10 -4.847914 27.875425 0.000000 0.000000 0.000000 0.000000
    11 -10.884169 43.721066 -0.263436 0.000000 -1.570796 0.287833
    12 1.645461 3.130692 15.347058 -1.570797 1.282964 -1.570797
    13 -1.061229 0.200707 -0.378920 0.000000 0.000000 0.000000
    14 -4.349673 0.059656 0.000000 0.000000 0.000000 0.000000
    15 -6.183695 -1.485476 0.007813 0.000000 0.000000 0.000000
    16 -3.694255 -0.655429 0.000000 0.000000 0.000000 0.000000
    17 13.641458 7.020348 16.879305 -0.287833 0.000000 0.000000
    18 4.472665 2.448845 0.720848 2.357101 -0.723839 -0.868496
    19 15.242571 6.789905 0.000000 -0.227577 -0.278390 -0.059518
    20 8.366559 3.675034 14.276474 -0.210042 0.176457 -0.012931
    21 -15.633809 7.069125 16.813112 -0.287833 0.000000 0.000000
    22 -6.249312 1.413335 0.936005 0.246226 1.001122 -0.932051
    23 -13.856888 6.374216 0.000000 0.065418 -0.487160 -0.578218
    24 -5.687840 2.494701 12.855103 0.206405 -0.277604 -0.208306
  time 23
    0 -5.806530 -1.410199 -39.840301 1.570796 0.000000 -1.596107
    1 6.265787 -27.905253 0.000000 3.128408 -0.033856 3.128011
    2 -1.211985 121.072578 2.116671 -0.049490 0.005768 -0.096319
    3 -2.423956 108.889275 3.327682 -0.000036 0.003607 -0.400481
    4 -8.483835 103.017944 0.000000 -0.039058 -0.014027 -0.174405
    5 -7.271858 79.990417 0.000000 -0.020518 -0.010358 0.016611
    6 -6.059879 73.930542 0.000000 -0.089169 -0.022201 0.409583
    7 -7.271858 77.566437 0.000000 -0.076737 -0.533326 0.264069
    8 -7.271864 68.661316 0.902174 0.104682 -0.081116 0.164829
    9 -10.228978 63.180118 -0.324228 -0.591192 -0.284364 0.647541
    10 -4.847914 27.875425 0.000000 0.000000 0.000000 0.000000
    11 -10.884169 43.721066 -0.263436 0.000000 -1.570796 0.287833
    12 1.645461 3.130692 15.347058 -1.570797 1.282964 -1.570797
    13 -1.061229 0.200707 -0.378920 0.000000 0.000000 0.000000
    14 -4.349673 0.059656 0.000000 0.000000 0.000000 0.000000
    15 -6.183695 -1.485476 0.007813 0.000000 0.000000 0.000000
    16 -3.694255 -0.655429 0.000000 0.000000 0.000000 0.000000
    17 13.641458 7.020348 16.879305 -0.287833 0.000000 0.000000
    18 4.472665 2.448845 0.720848 2.357101 -0.723839 -0.868496
    19 15.242571 6.789905 0.000000 -0.227577 -0.278390 -0.059518
    20 8.366559 3.675034 14.276474 -0.210042 0.176457 -0.012931
    21 -15.633809 7.069125 16.813112 -0.287833 0.000000 0.000000
    22 -6.249312 1.413335 0.936005 0.246226 1.001122 -0.932051
    23 -13.856888 6.374216 0.000000 0.065418 -0.487160 -0.578218
    24 -5.687840 2.494701 12.855103 0.206405 -0.277604 -0.208306
  time 24
    0 -5.806530 -1.410199 -39.840301 1.570796 0.000000 -1.596107
    1 6.265787 -26.751997 0.000000 3.126683 -0.033114 -3.103278
    2 -1.211985 121.072578 2.116671 -0.033663 0.005768 -0.094649
    3 -2.423956 108.889275 3.327682 0.010894 0.003464 -0.395825
    4 -8.483835 103.017944 0.000000 -0.032095 -0.013989 -0.171589
    5 -7.271858 79.990417 0.000000 -0.007083 -0.010358 0.016611
    6 -6.059879 73.930542 0.000000 -0.084658 -0.022201 0.409583
    7 -7.271858 77.566437 0.000000 -0.071967 -0.407774 0.253569
    8 -7.271864 68.661316 0.902174 0.104320 0.004823 0.173868
    9 -10.228978 63.176211 -0.324228 -0.483870 -0.299335 0.695611
    10 -4.847914 27.875425 0.000000 0.000000 0.000000 0.000000
    11 -10.884169 43.721066 -0.263436 0.000000 -1.570796 0.287833
    12 1.645461 3.130692 15.347058 -1.570797 1.282964 -1.570797
    13 -1.061229 0.200707 -0.378920 0.000000 0.000000 0.000000
    14 -4.349673 0.059656 0.000000 0.000000 0.000000 0.000000
    15 -6.183695 -1.485476 0.007813 0.000000 0.000000 0.000000
    16 -3.694255 -0.655429 0.000000 0.000000 0.000000 0.000000
    17 13.641458 7.020348 16.879305 -0.287833 0.000000 0.000000
    18 4.472665 2.448845 0.720848 2.357101 -0.723839 -0.868496
    19 15.242571 6.789905 0.000000 -0.227577 -0.278390 -0.059518
    20 8.366559 3.675034 14.276474 -0.210042 0.176457 -0.012931
    21 -15.633809 7.069125 16.813112 -0.287833 0.000000 0.000000
    22 -6.249312 1.413335 0.936005 0.246226 1.001122 -0.932051
    23 -13.856888 6.374216 0.000000 0.065418 -0.487160 -0.578218
    24 -5.687840 2.494701 12.855103 0.206405 -0.277604 -0.208306
  time 25
    0 -5.806530 -1.410199 -39.840301 1.570796 0.000000 -1.596107
    1 6.265787 -25.454584 0.000000 3.125149 -0.032372 -3.055632
    2 -1.211985 121.072578 2.116671 0.002200 0.005703 -0.091958
    3 -2.423956 108.889275 3.327682 0.035666 0.003068 -0.388073
    4 -8.483835 103.017944 0.000000 -0.016119 -0.013989 -0.166938
    5 -7.271858 79.990417 0.000000 0.021836 -0.010358 0.016611
    6 -6.059879 73.930542 0.000000 -0.074217 -0.022201 0.409583
    7 -7.271858 77.566437 0.000000 -0.066574 -0.123778 0.233227
    8 -7.271864 68.661316 0.902174 0.106362 0.195813 0.194144
    9 -10.228978 63.176211 -0.324228 -0.240465 -0.345682 0.793729
    10 -4.847914 27.875425 0.000000 0.000000 0.000000 0.000000
    11 -10.884169 43.721066 -0.263436 0.000000 -1.570796 0.287833
    12 1.645461 3.130692 15.347058 -1.570797 1.282964 -1.570797
    13 -1.061229 0.200707 -0.378920 0.000000 0.000000 0.000000
    14 -4.349673 0.059656 0.000000 0.000000 0.000000 0.000000
    15 -6.183695 -1.485476 0.007813 0.000000 0.000000 0.000000
    16 -3.694255 -0.655429 0.000000 0.000000 0.000000 0.000000
    17 13.641458 7.020348 16.879305 -0.287833 0.000000 0.000000
    18 4.472665 2.448845 0.720848 2.357101 -0.723839 -0.868496
    19 15.242571 6.789905 0.000000 -0.227577 -0.278390 -0.059518
    20 8.366559 3.675034 14.276474 -0.210042 0.176457 -0.012931
    21 -15.633809 7.069125 16.813112 -0.287833 0.000000 0.000000
    22 -6.249312 1.413335 0.936005 0.246226 1.001122 -0.932051
    23 -13.856888 6.374216 0.000000 0.065418 -0.487160 -0.578218
    24 -5.687840 2.494701 12.855103 0.206405 -0.277604 -0.208306
  time 26
    0 -5.806530 -1.410199 -39.840301 1.570796 0.000000 -1.596107
    1 6.265787 -24.013013 0.000000 3.125916 -0.032781 -3.080462
    2 -1.211985 121.072578 2.116671 0.040549 0.005617 -0.091401
    3 -2.423956 108.889275 3.327682 0.062200 0.002840 -0.386561
    4 -8.483835 103.017944 0.000000 0.001450 -0.014053 -0.165983
    5 -7.271858 79.990417 0.000000 0.049209 -0.010358 0.016611
    6 -6.059879 73.930542 0.000000 -0.062538 -0.022201 0.409583
    7 -7.271858 77.566437 0.000000 -0.067138 0.179539 0.212988
    8 -7.271864 68.661316 0.902174 0.112891 0.391343 0.216582
    9 -10.228978 63.176211 -0.324228 0.022782 -0.406426 0.877346
    10 -4.847914 27.875425 0.000000 0.000000 0.000000 0.000000
    11 -10.884169 43.721066 -0.263436 0.000000 -1.570796 0.287833
    12 1.645461 3.130692 15.347058 -1.570797 1.282964 -1.570797
    13 -1.061229 0.200707 -0.378920 0.000000 0.000000 0.000000
    14 -4.349673 0.059656 0.000000 0.000000 0.000000 0.000000
    15 -6.183695 -1.485476 0.007813 0.000000 0.000000 0.000000
    16 -3.694255 -0.655429 0.000000 0.000000 0.000000 0.000000
    17 13.641458 7.020348 16.879305 -0.287833 0.000000 0.000000
    18 4.472665 2.448845 0.720848 2.357101 -0.723839 -0.868496
    19 15.242571 6.789905 0.000000 -0.227577 -0.278390 -0.059518
    20 8.366559 3.675034 14.276474 -0.210042 0.176457 -0.012931
    21 -15.633809 7.069125 16.813112 -0.287833 0.000000 0.000000
    22 -6.249312 1.413335 0.936005 0.246226 1.001122 -0.932051
    23 -13.856888 6.374216 0.000000 0.065418 -0.487160 -0.578218
    24 -5.687840 2.494701 12.855103 0.206405 -0.277604 -0.208306
  time 27
    0 -5.806530 -1.410199 -39.840301 1.570796 0.000000 -1.596107
    1 6.265787 -22.427286 0.000000 3.127258 -0.033370 -3.119959
    2 -1.211985 121.072578 2.116671 0.063835 0.005768 -0.096319
    3 -2.423956 108.889275 3.327682 0.078451 0.003667 -0.400504
    4 -8.483835 103.017944 0.000000 0.013243 -0.014027 -0.174405
    5 -7.271858 79.990417 0.000000 0.057969 -0.010358 0.016611
    6 -6.059879 73.930542 0.000000 -0.054280 -0.022201 0.409583
    7 -7.271858 77.566437 0.000000 -0.070673 0.362934 0.199854
    8 -7.271864 68.661316 0.902174 0.118379 0.491158 0.229378
    9 -10.228978 63.180118 -0.324228 0.189884 -0.426990 0.907357
    10 -4.847914 27.875425 0.000000 0.000000 0.000000 0.000000
    11 -10.884169 43.721066 -0.263436 0.000000 -1.570796 0.287833
    12 1.645461 3.130692 15.347058 -1.570797 1.282964 -1.570797
    13 -1.061229 0.200707 -0.378920 0.000000 0.000000 0.000000
    14 -4.349673 0.059656 0.000000 0.000000 0.000000 0.000000
    15 -6.183695 -1.485476 0.007813 0.000000 0.000000 0.000000
    16 -3.694255 -0.655429 0.000000 0.000000 0.000000 0.000000
    17 13.641458 7.020348 16.879305 -0.287833 0.000000 0.000000
    18 4.472665 2.448845 0.720848 2.357101 -0.723839 -0.868496
    19 15.242571 6.789905 0.000000 -0.227577 -0.278390 -0.059518
    20 8.366559 3.675034 14.276474 -0.210042 0.176457 -0.012931
    21 -15.633809 7.069125 16.813112 -0.287833 0.000000 0.000000
    22 -6.249312 1.413335 0.936005 0.246226 1.001122 -0.932051
    23 -13.856888 6.374216 0.000000 0.065418 -0.487160 -0.578218
    24 -5.687840 2.494701 12.855103 0.206405 -0.277604 -0.208306
  time 28
    0 -5.806530 -1.410199 -39.840301 1.570796 0.000000 -1.596107
    1 6.265787 -20.733441 0.000000 3.128887 -0.034010 3.115261
    2 -1.211985 121.072578 2.116671 0.060106 0.006373 -0.111445
    3 -2.423956 108.889275 3.327682 0.076174 0.006484 -0.443610
    4 -8.483835 103.017944 0.000000 0.014765 -0.013774 -0.200428
    5 -7.271858 79.990417 0.000000 0.032586 -0.010358 0.016611
    6 -6.059879 73.930542 0.000000 -0.052061 -0.022201 0.409583
    7 -7.271858 77.566437 0.000000 -0.069858 0.331115 0.202245
    8 -7.271864 68.661316 0.902174 0.114189 0.417574 0.219843
    9 -10.228978 63.180118 -0.324228 0.179519 -0.346485 0.866405
    10 -4.847914 27.875425 0.000000 0.000000 0.000000 0.000000
    11 -10.884169 43.721066 -0.263436 0.000000 -1.570796 0.287833
    12 1.645461 3.130692 15.347058 -1.570797 1.282964 -1.570797
    13 -1.061229 0.200707 -0.378920 0.000000 0.000000 0.000000
    14 -4.349673 0.059656 0.000000 0.000000 0.000000 0.000000
    15 -6.183695 -1.485476 0.007813 0.000000 0.000000 0.000000
    16 -3.694255 -0.655429 0.000000 0.000000 0.000000 0.000000
    17 13.641458 7.020348 16.879305 -0.287833 0.000000 0.000000
    18 4.472665 2.448845 0.720848 2.357101 -0.723839 -0.868496
    19 15.242571 6.789905 0.000000 -0.227577 -0.278390 -0.059518
    20 8.366559 3.675034 14.276474 -0.210042 0.176457 -0.012931
    21 -15.633809 7.069125 16.813112 -0.287833 0.000000 0.000000
    22 -6.249312 1.413335 0.936005 0.246226 1.001122 -0.932051
    23 -13.856888 6.374216 0.000000 0.065418 -0.487160 -0.578218
    24 -5.687840 2.494701 12.855103 0.206405 -0.277604 -0.208306
  time 29
    0 -5.806530 -1.410199 -39.840301 1.570796 0.000000 -1.596107
    1 6.265787 -18.895439 0.000000 3.130612 -0.034598 3.065411
    2 -1.211985 121.072578 2.116671 0.039975 0.006913 -0.134365
    3 -2.423956 108.889275 3.327682 0.062488 0.010007 -0.508766
    4 -8.483835 103.017944 0.000000 0.010367 -0.013534 -0.239745
    5 -7.271858 79.990417 0.000000 -0.015760 -0.010358 0.016611
    6 -6.059879 73.930542 0.000000 -0.053170 -0.022201 0.409583
    7 -7.271858 77.566437 0.000000 -0.067018 0.168650 0.213716
    8 -7.271864 68.661316 0.902174 0.107255 0.233315 0.198256
    9 -10.228978 63.180118 -0.324228 0.056157 -0.203629 0.769166
    10 -4.847914 27.875425 0.000000 0.000000 0.000000 0.000000
    11 -10.884169 43.721066 -0.263436 0.000000 -1.570796 0.287833
    12 1.645461 3.130692 15.347058 -1.570797 1.282964 -1.570797
    13 -1.061229 0.200707 -0.378920 0.000000 0.000000 0.000000
    14 -4.349673 0.059656 0.000000 0.000000 0.000000 0.000000
    15 -6.183695 -1.485476 0.007813 0.000000 0.000000 0.000000
    16 -3.694255 -0.655429 0.000000 0.000000 0.000000 0.000000
    17 13.641458 7.020348 16.879305 -0.287833 0.000000 0.000000
    18 4.472665 2.448845 0.720848 2.357101 -0.723839 -0.868496
    19 15.242571 6.789905 0.000000 -0.227577 -0.278390 -0.059518
    20 8.366559 3.675034 14.276474 -0.210042 0.176457 -0.012931
    21 -15.633809 7.069125 16.813112 -0.287833 0.000000 0.000000
    22 -6.249312 1.413335 0.936005 0.246226 1.001122 -0.932051
    23 -13.856888 6.374216 0.000000 0.065418 -0.487160 -0.578218
    24 -5.687840 2.494701 12.855103 0.206405 -0.277604 -0.208306
  time 30
    0 -5.806530 -1.410199 -39.840301 1.570796 0.000000 -1.596107
    1 6.265787 -16.913279 0.000000 3.132145 -0.035059 3.019587
    2 -1.211985 121.072578 2.116671 0.019844 0.006978 -0.157285
    3 -2.423956 108.889275 3.327682 0.048598 0.012620 -0.573969
    4 -8.483835 103.017944 0.000000 0.005956 -0.013483 -0.279086
    5 -7.271858 79.990417 0.000000 -0.064130 -0.010358 0.016611
    6 -6.059879 73.930542 0.000000 -0.054280 -0.022201 0.409583
    7 -7.271858 77.566437 0.000000 -0.066059 0.006136 0.224598
    8 -7.271864 68.661316 0.902174 0.104448 0.048979 0.178476
    9 -10.228978 63.176211 -0.324228 -0.078153 -0.074052 0.656988
    10 -4.847914 27.875425 0.000000 0.000000 0.000000 0.000000
    11 -10.884169 43.721066 -0.263436 0.000000 -1.570796 0.287833
    12 1.645461 3.130692 15.347058 -1.570797 1.282964 -1.570797
    13 -1.061229 0.200707 -0.378920 0.000000 0.000000 0.000000
    14 -4.349673 0.059656 0.000000 0.000000 0.000000 0.000000
    15 -6.183695 -1.485476 0.007813 0.000000 0.000000 0.000000
    16 -3.694255 -0.655429 0.000000 0.000000 0.000000 0.000000
    17 13.641458 7.020348 16.879305 -0.287833 0.000000 0.000000
    18 4.472665 2.448845 0.720848 2.357101 -0.723839 -0.868496
    19 15.242571 6.789905 0.000000 -0.227577 -0.278390 -0.059518
    20 8.366559 3.675034 14.276474 -0.210042 0.176457 -0.012931
    21 -15.633809 7.069125 16.813112 -0.287833 0.000000 0.000000
    22 -6.249312 1.413335 0.936005 0.246226 1.001122 -0.932051
    23 -13.856888 6.374216 0.000000 0.065418 -0.487160 -0.578218
    24 -5.687840 2.494701 12.855103 0.206405 -0.277604 -0.208306
end
