// Created by Crowbar 0.42.0.0
version 1
nodes
  0 "Dummy01" -1
  1 "Bone01" 0
  2 "Bone02" 1
  3 "Bone03" 2
  4 "Bone04" 3
  5 "Bone05" 4
  6 "Bone06" 5
  7 "Bone07" 6
  8 "Bone08" 7
  9 "Bone09" 8
  10 "Bone10" 9
  11 "Dummy04" 10
  12 "Dummy05" 11
  13 "Bone19" 12
  14 "Bone20" 13
  15 "Bone21" 14
  16 "Bone22" 15
  17 "Dummy03" 11
  18 "Bone11" 17
  19 "Bone12" 18
  20 "Bone13" 19
  21 "Dummy02" 11
  22 "Bone15" 21
  23 "Bone16" 22
  24 "Bone17" 23
end
skeleton
  time 0
    0 5.807106 1.410199 -495.482777 1.570796 0.000000 1.545389
    1 6.265787 -2.137183 0.000000 0.001917 -0.000077 0.078418
    2 -1.211985 121.072578 2.116671 -0.000861 0.000000 -0.034797
    3 -2.423956 108.889275 3.327682 -0.000875 -0.000060 -0.087205
    4 -8.483835 103.017944 0.000000 0.055321 0.007583 -0.088377
    5 -7.271858 79.990417 0.000000 -0.004626 -0.011288 -0.043201
    6 -6.059879 73.930542 0.000000 -0.003111 0.008421 0.348761
    7 -7.271858 77.566437 0.000000 -0.054494 0.005371 0.573329
    8 -7.271864 68.661316 0.902174 0.036326 0.004565 0.799580
    9 -10.228978 63.176211 -0.324228 -0.057905 -0.042217 -0.029132
    10 -4.847914 27.875425 0.000000 0.000000 0.000000 0.000000
    11 -10.884169 43.721066 -0.263436 0.000000 -1.570796 0.287833
    12 1.645461 3.130692 15.347058 -1.570797 1.282964 -1.570797
    13 -1.061229 0.200707 -0.378920 0.000000 0.000000 0.000000
    14 -4.349673 0.059656 0.000000 0.000000 0.000000 0.000000
    15 -4.230510 -0.536228 0.000000 0.000000 0.000000 0.000000
    16 -3.694255 -0.655429 0.000000 0.000000 0.000000 0.000000
    17 13.641458 7.020348 16.879305 -0.287833 0.000000 0.000000
    18 4.472665 2.448845 0.720848 0.932864 -0.324546 0.463191
    19 15.242571 6.789905 0.000000 -0.799476 0.040391 0.087229
    20 8.366559 3.675034 14.276474 0.000000 0.000000 0.000000
    21 -15.633809 7.069125 16.813112 -0.287833 0.000000 0.000000
    22 -6.249312 1.413335 0.936005 0.892618 0.856716 -0.282261
    23 -13.856888 6.374216 0.000000 -0.169365 -0.550185 -0.617689
    24 -5.687840 2.494701 12.855103 0.072682 -0.223608 0.215467
  time 1
    0 5.807106 1.410199 -495.482777 1.570796 0.000000 1.545389
    1 6.265787 -2.137183 0.000000 0.001917 -0.000077 0.078418
    2 -1.211985 121.072578 2.116671 -0.000861 0.000000 -0.034797
    3 -2.423956 108.889275 3.327682 -0.000875 -0.000060 -0.087205
    4 -8.483835 103.017944 0.000000 0.055321 0.007583 -0.088377
    5 -7.271858 79.990417 0.000000 -0.003967 -0.011816 -0.054887
    6 -6.059879 73.930542 0.000000 -0.007931 0.003855 0.271702
    7 -7.271858 77.566437 0.000000 -0.061817 0.000716 0.482810
    8 -7.271864 68.661316 0.902174 0.032774 0.002089 0.789655
    9 -10.228978 63.176211 -0.324228 -0.105573 -0.073106 0.131951
    10 -4.847914 27.875425 0.000000 0.000000 0.000000 0.000000
    11 -10.884169 43.721066 -0.263436 0.000000 -1.570796 0.287833
    12 1.645461 3.130692 15.347058 -1.570797 1.282964 -1.570797
    13 -1.061229 0.200707 -0.378920 0.000000 0.000000 0.000000
    14 -4.349673 0.059656 0.000000 0.000000 0.000000 0.000000
    15 -4.230510 -0.536228 0.000000 0.000000 0.000000 0.000000
    16 -3.694255 -0.655429 0.000000 0.000000 0.000000 0.000000
    17 13.641458 7.020348 16.879305 -0.287833 0.000000 0.000000
    18 4.472665 2.448845 0.720848 1.374263 -0.614393 0.206355
    19 15.242571 6.789905 0.000000 -0.706757 -0.078942 0.140760
    20 8.366559 3.675034 14.276474 0.055561 -0.070716 -0.027169
    21 -15.633809 7.069125 16.813112 -0.287833 0.000000 0.000000
    22 -6.249312 1.413335 0.936005 1.293631 0.818461 -0.013601
    23 -13.856888 6.374216 0.000000 -0.044444 -0.253318 -0.514865
    24 -5.687840 2.494701 12.855103 0.180459 -0.110869 0.256664
  time 2
    0 5.807106 1.410199 -495.482777 1.570796 0.000000 1.545389
    1 6.265787 -2.137183 0.000000 0.001917 -0.000077 0.078418
    2 -1.211985 121.072578 2.116671 -0.000861 0.000000 -0.034797
    3 -2.423956 108.889275 3.327682 -0.000875 -0.000060 -0.087205
    4 -8.483835 103.017944 0.000000 0.055321 0.007583 -0.088377
    5 -7.271858 79.990417 0.000000 -0.002481 -0.012218 -0.067828
    6 -6.059879 73.930542 0.000000 -0.014098 -0.002543 0.189026
    7 -7.271858 77.566437 0.000000 -0.071620 -0.008024 0.385396
    8 -7.271864 68.661316 0.902174 0.025734 -0.003405 0.778525
    9 -10.228978 63.176211 -0.324228 -0.167862 -0.101958 0.308897
    10 -4.847914 27.875425 0.000000 0.000000 0.000000 0.000000
    11 -10.884169 43.721066 -0.263436 0.000000 -1.570796 0.287833
    12 1.645461 3.130692 15.347058 -1.570797 1.282964 -1.570797
    13 -1.061229 0.200707 -0.378920 0.000000 0.000000 0.000000
    14 -4.349673 0.059656 0.000000 0.000000 0.000000 0.000000
    15 -4.230510 -0.536228 0.000000 0.000000 0.000000 0.000000
    16 -3.694255 -0.655429 0.000000 0.000000 0.000000 0.000000
    17 13.641458 7.020348 16.879305 -0.287833 0.000000 0.000000
    18 4.472665 2.448845 0.720848 1.980987 -0.751544 -0.236946
    19 15.242571 6.789905 0.000000 -0.619023 -0.202623 0.183733
    20 8.366559 3.675034 14.276474 0.113446 -0.139788 -0.058473
    21 -15.633809 7.069125 16.813112 -0.287833 0.000000 0.000000
    22 -6.249312 1.413335 0.936005 1.642798 0.716905 0.199290
    23 -13.856888 6.374216 0.000000 0.105752 0.027802 -0.379718
    24 -5.687840 2.494701 12.855103 0.292082 -0.003226 0.309464
  time 3
    0 5.807106 1.410199 -495.482777 1.570796 0.000000 1.545389
    1 6.265787 -2.137183 0.000000 0.001917 -0.000077 0.078418
    2 -1.211985 121.072578 2.116671 -0.000861 0.000000 -0.034797
    3 -2.423956 108.889275 3.327682 -0.000875 -0.000060 -0.087205
    4 -8.483835 103.017944 0.000000 0.055321 0.007583 -0.088377
    5 -7.271858 79.990417 0.000000 -0.001390 -0.012662 -0.080125
    6 -6.059879 73.930542 0.000000 -0.018900 -0.008640 0.109174
    7 -7.271858 77.566437 0.000000 -0.079170 -0.015869 0.291516
    8 -7.271864 68.661316 0.902174 0.020503 -0.007480 0.768032
    9 -10.228978 63.176211 -0.324228 -0.228986 -0.117044 0.480526
    10 -4.847914 27.875425 0.000000 0.000000 0.000000 0.000000
    11 -10.884169 43.721066 -0.263436 0.000000 -1.570796 0.287833
    12 1.645461 3.130692 15.347058 -1.570797 1.282964 -1.570797
    13 -1.061229 0.200707 -0.378920 0.000000 0.000000 0.000000
    14 -4.349673 0.059656 0.000000 0.000000 0.000000 0.000000
    15 -4.230510 -0.536228 0.000000 0.000000 0.000000 0.000000
    16 -3.694255 -0.655429 0.000000 0.000000 0.000000 0.000000
    17 13.641458 7.020348 16.879305 -0.287833 0.000000 0.000000
    18 4.472665 2.448845 0.720848 2.194782 -0.746286 -0.401198
    19 15.242571 6.789905 0.000000 -0.595495 -0.237946 0.193239
    20 8.366559 3.675034 14.276474 0.122195 -0.149671 -0.064405
    21 -15.633809 7.069125 16.813112 -0.287833 0.000000 0.000000
    22 -6.249312 1.413335 0.936005 1.668250 0.707805 0.209786
    23 -13.856888 6.374216 0.000000 0.178200 0.135212 -0.312779
    24 -5.687840 2.494701 12.855103 0.333351 0.033798 0.330814
  time 4
    0 5.807106 1.410199 -495.482777 1.570796 0.000000 1.545389
    1 6.265787 -2.137183 0.000000 0.001917 -0.000077 0.078418
    2 -1.211985 121.072578 2.116671 -0.000861 0.000000 -0.034797
    3 -2.423956 108.889275 3.327682 -0.000875 -0.000060 -0.087205
    4 -8.483835 103.017944 0.000000 0.055321 0.007583 -0.088377
    5 -7.271858 79.990417 0.000000 -0.001942 -0.013338 -0.089943
    6 -6.059879 73.930542 0.000000 -0.020046 -0.011811 0.040624
    7 -7.271858 77.566437 0.000000 -0.080872 -0.016894 0.211359
    8 -7.271864 68.661316 0.902174 0.022246 -0.005494 0.759915
    9 -10.228978 63.176211 -0.324228 -0.269659 -0.114778 0.623726
    10 -4.847914 27.875425 0.000000 0.000000 0.000000 0.000000
    11 -10.884169 43.721066 -0.263436 0.000000 -1.570796 0.287833
    12 1.645461 3.130692 15.347058 -1.570797 1.282964 -1.570797
    13 -1.061229 0.200707 -0.378920 0.000000 0.000000 0.000000
    14 -4.349673 0.059656 0.000000 0.000000 0.000000 0.000000
    15 -4.230510 -0.536228 0.000000 0.000000 0.000000 0.000000
    16 -3.694255 -0.655429 0.000000 0.000000 0.000000 0.000000
    17 13.641458 7.020348 16.879305 -0.287833 0.000000 0.000000
    18 4.472665 2.448845 0.720848 1.145626 -0.492236 0.329854
    19 15.242571 6.789905 0.000000 -0.777310 0.012646 0.100945
    20 8.366559 3.675034 14.276474 -0.023981 0.031682 0.004974
    21 -15.633809 7.069125 16.813112 -0.287833 0.000000 0.000000
    22 -6.249312 1.413335 0.936005 0.560608 0.843773 -0.549679
    23 -13.856888 6.374216 0.000000 -0.027274 -0.241995 -0.531600
    24 -5.687840 2.494701 12.855103 0.146085 -0.142926 0.242497
  time 5
    0 5.807106 1.410199 -495.482777 1.570796 0.000000 1.545389
    1 6.265787 -2.137183 0.000000 0.001917 -0.000077 0.078418
    2 -1.211985 121.072578 2.116671 -0.000861 0.000000 -0.034797
    3 -2.423956 108.889275 3.327682 -0.000875 -0.000060 -0.087205
    4 -8.483835 103.017944 0.000000 0.055321 0.007583 -0.088377
    5 -7.271858 79.990417 0.000000 -0.005333 -0.014438 -0.095416
    6 -6.059879 73.930542 0.000000 -0.015626 -0.009241 -0.008151
    7 -7.271858 77.566437 0.000000 -0.073945 -0.004769 0.155219
    8 -7.271864 68.661316 0.902174 0.036156 0.007196 0.756051
    9 -10.228978 63.176211 -0.324228 -0.271078 -0.097512 0.715516
    10 -4.847914 27.875425 0.000000 0.000000 0.000000 0.000000
    11 -10.884169 43.721066 -0.263436 0.000000 -1.570796 0.287833
    12 1.645461 3.130692 15.347058 -1.570797 1.282964 -1.570797
    13 -1.061229 0.200707 -0.378920 0.000000 0.000000 0.000000
    14 -4.349673 0.059656 0.000000 0.000000 0.000000 0.000000
    15 -4.230510 -0.536228 0.000000 0.000000 0.000000 0.000000
    16 -3.694255 -0.655429 0.000000 0.000000 0.000000 0.000000
    17 13.641458 7.020348 16.879305 -0.287833 0.000000 0.000000
    18 4.472665 2.448845 0.720848 0.521431 0.105424 0.558855
    19 15.242571 6.789905 0.000000 -0.969594 0.216469 -0.030228
    20 8.366559 3.675034 14.276474 -0.150119 0.205811 0.047016
    21 -15.633809 7.069125 16.813112 -0.287833 0.000000 0.000000
    22 -6.249312 1.413335 0.936005 -0.252071 0.496254 -0.979870
    23 -13.856888 6.374216 0.000000 -0.217420 -0.685257 -0.659675
    24 -5.687840 2.494701 12.855103 -0.021364 -0.326706 0.184724
  time 6
    0 5.807106 1.410199 -495.482777 1.570796 0.000000 1.545389
    1 6.265787 -2.137183 0.000000 0.001917 -0.000077 0.078418
    2 -1.211985 121.072578 2.116671 -0.000861 0.000000 -0.034797
    3 -2.423956 108.889275 3.327682 -0.000875 -0.000060 -0.087205
    4 -8.483835 103.017944 0.000000 0.055321 0.007583 -0.088377
    5 -7.271858 79.990417 0.000000 -0.011361 -0.015960 -0.097669
    6 -6.059879 73.930542 0.000000 -0.000127 0.000656 -0.033058
    7 -7.271858 77.566437 0.000000 -0.052313 0.034163 0.128396
    8 -7.271864 68.661316 0.902174 0.078905 0.050088 0.760376
    9 -10.228978 63.176211 -0.324228 -0.221510 -0.065333 0.741484
    10 -4.847914 27.875425 0.000000 0.000000 0.000000 0.000000
    11 -10.884169 43.721066 -0.263436 0.000000 -1.570796 0.287833
    12 1.645461 3.130692 15.347058 -1.570797 1.282964 -1.570797
    13 -1.061229 0.200707 -0.378920 0.000000 0.000000 0.000000
    14 -4.349673 0.059656 0.000000 0.000000 0.000000 0.000000
    15 -4.230510 -0.536228 0.000000 0.000000 0.000000 0.000000
    16 -3.694255 -0.655429 0.000000 0.000000 0.000000 0.000000
    17 13.641458 7.020348 16.879305 -0.287833 0.000000 0.000000
    18 4.472665 2.448845 0.720848 0.552899 0.096966 0.597986
    19 15.242571 6.789905 0.000000 -0.969428 0.199609 -0.039487
    20 8.366559 3.675034 14.276474 -0.158556 0.216932 0.050431
    21 -15.633809 7.069125 16.813112 -0.287833 0.000000 0.000000
    22 -6.249312 1.413335 0.936005 -0.205597 0.502615 -0.849825
    23 -13.856888 6.374216 0.000000 -0.329588 -0.739328 -0.554635
    24 -5.687840 2.494701 12.855103 -0.016561 -0.334624 0.176546
  time 7
    0 5.807106 1.410199 -495.482777 1.570796 0.000000 1.545389
    1 6.265787 -2.137183 0.000000 0.001917 -0.000077 0.078418
    2 -1.211985 121.072578 2.116671 -0.000861 0.000000 -0.034797
    3 -2.423956 108.889275 3.327682 -0.000875 -0.000060 -0.087205
    4 -8.483835 103.017944 0.000000 0.055321 0.007583 -0.088377
    5 -7.271858 79.990417 0.000000 -0.018768 -0.017778 -0.099021
    6 -6.059879 73.930542 0.000000 0.024939 0.016241 -0.039357
    7 -7.271858 77.566437 0.000000 -0.018001 0.095979 0.125554
    8 -7.271864 68.661316 0.902174 0.147984 0.119417 0.775192
    9 -10.228978 63.176211 -0.324228 -0.133879 -0.019445 0.719251
    10 -4.847914 27.875425 0.000000 0.000000 0.000000 0.000000
    11 -10.884169 43.721066 -0.263436 0.000000 -1.570796 0.287833
    12 1.645461 3.130692 15.347058 -1.570797 1.282964 -1.570797
    13 -1.061229 0.200707 -0.378920 0.000000 0.000000 0.000000
    14 -4.349673 0.059656 0.000000 0.000000 0.000000 0.000000
    15 -4.230510 -0.536228 0.000000 0.000000 0.000000 0.000000
    16 -3.694255 -0.655429 0.000000 0.000000 0.000000 0.000000
    17 13.641458 7.020348 16.879305 -0.287833 0.000000 0.000000
    18 4.472665 2.448845 0.720848 0.678490 -0.033831 0.636847
    19 15.242571 6.789905 0.000000 -0.966736 0.179813 -0.047594
    20 8.366559 3.675034 14.276474 -0.166502 0.227370 0.053739
    21 -15.633809 7.069125 16.813112 -0.287833 0.000000 0.000000
    22 -6.249312 1.413335 0.936005 -0.013292 0.558451 -0.620663
    23 -13.856888 6.374216 0.000000 -0.445174 -0.722953 -0.403027
    24 -5.687840 2.494701 12.855103 -0.009651 -0.340929 0.168391
  time 8
    0 5.807106 1.410199 -495.482777 1.570796 0.000000 1.545389
    1 6.265787 -2.137183 0.000000 0.001917 -0.000077 0.078418
    2 -1.211985 121.072578 2.116671 -0.000861 0.000000 -0.034797
    3 -2.423956 108.889275 3.327682 -0.000875 -0.000060 -0.087205
    4 -8.483835 103.017944 0.000000 0.055321 0.007583 -0.088377
    5 -7.271858 79.990417 0.000000 -0.027241 -0.019807 -0.099633
    6 -6.059879 73.930542 0.000000 0.051078 0.035079 -0.033090
    7 -7.271858 77.566437 0.000000 0.020410 0.160008 0.140213
    8 -7.271864 68.661316 0.902174 0.219339 0.185213 0.796461
    9 -10.228978 63.176211 -0.324228 -0.027774 0.036280 0.674520
    10 -4.847914 27.875425 0.000000 0.000000 0.000000 0.000000
    11 -10.884169 43.721066 -0.263436 0.000000 -1.570796 0.287833
    12 1.645461 3.130692 15.347058 -1.570797 1.282964 -1.570797
    13 -1.061229 0.200707 -0.378920 0.000000 0.000000 0.000000
    14 -4.349673 0.059656 0.000000 0.000000 0.000000 0.000000
    15 -4.230510 -0.536228 0.000000 0.000000 0.000000 0.000000
    16 -3.694255 -0.655429 0.000000 0.000000 0.000000 0.000000
    17 13.641458 7.020348 16.879305 -0.287833 0.000000 0.000000
    18 4.472665 2.448845 0.720848 0.859783 -0.234117 0.638792
    19 15.242571 6.789905 0.000000 -0.961618 0.157323 -0.054666
    20 8.366559 3.675034 14.276474 -0.173980 0.237105 0.056927
    21 -15.633809 7.069125 16.813112 -0.287833 0.000000 0.000000
    22 -6.249312 1.413335 0.936005 0.284405 0.591980 -0.325236
    23 -13.856888 6.374216 0.000000 -0.531297 -0.656305 -0.252838
    24 -5.687840 2.494701 12.855103 -0.000796 -0.345713 0.160279
  time 9
    0 5.807106 1.410199 -495.482777 1.570796 0.000000 1.545389
    1 6.265787 -2.137183 0.000000 0.001917 -0.000077 0.078418
    2 -1.211985 121.072578 2.116671 -0.000861 0.000000 -0.034797
    3 -2.423956 108.889275 3.327682 -0.000875 -0.000060 -0.087205
    4 -8.483835 103.017944 0.000000 0.055321 0.007583 -0.088377
    5 -7.271858 79.990417 0.000000 -0.036445 -0.021984 -0.099633
    6 -6.059879 73.930542 0.000000 0.069669 0.055066 -0.020685
    7 -7.271858 77.566437 0.000000 0.053212 0.206036 0.163293
    8 -7.271864 68.661316 0.902174 0.266129 0.219336 0.813121
    9 -10.228978 63.176211 -0.324228 0.079750 0.094329 0.630800
    10 -4.847914 27.875425 0.000000 0.000000 0.000000 0.000000
    11 -10.884169 43.721066 -0.263436 0.000000 -1.570796 0.287833
    12 1.645461 3.130692 15.347058 -1.570797 1.282964 -1.570797
    13 -1.061229 0.200707 -0.378920 0.000000 0.000000 0.000000
    14 -4.349673 0.059656 0.000000 0.000000 0.000000 0.000000
    15 -4.230510 -0.536228 0.000000 0.000000 0.000000 0.000000
    16 -3.694255 -0.655429 0.000000 0.000000 0.000000 0.000000
    17 13.641458 7.020348 16.879305 -0.287833 0.000000 0.000000
    18 4.472665 2.448845 0.720848 1.078275 -0.439387 0.580799
    19 15.242571 6.789905 0.000000 -0.954274 0.132405 -0.060850
    20 8.366559 3.675034 14.276474 -0.180991 0.246194 0.060019
    21 -15.633809 7.069125 16.813112 -0.287833 0.000000 0.000000
    22 -6.249312 1.413335 0.936005 0.603500 0.563752 -0.034840
    23 -13.856888 6.374216 0.000000 -0.576011 -0.568301 -0.130939
    24 -5.687840 2.494701 12.855103 0.009827 -0.349030 0.152212
  time 10
    0 5.807106 1.410199 -495.482777 1.570796 0.000000 1.545389
    1 6.265787 -2.137183 0.000000 0.001917 -0.000077 0.078418
    2 -1.211985 121.072578 2.116671 -0.000861 0.000000 -0.034797
    3 -2.423956 108.889275 3.327682 -0.000875 -0.000060 -0.087205
    4 -8.483835 103.017944 0.000000 0.055321 0.007583 -0.088377
    5 -7.271858 79.990417 0.000000 -0.046069 -0.024204 -0.099086
    6 -6.059879 73.930542 0.000000 0.071834 0.074560 -0.008995
    7 -7.271858 77.566437 0.000000 0.068156 0.215036 0.183220
    8 -7.271864 68.661316 0.902174 0.259344 0.195349 0.810746
    9 -10.228978 63.176211 -0.324228 0.174755 0.141450 0.607863
    10 -4.847914 27.875425 0.000000 0.000000 0.000000 0.000000
    11 -10.884169 43.721066 -0.263436 0.000000 -1.570796 0.287833
    12 1.645461 3.130692 15.347058 -1.570797 1.282964 -1.570797
    13 -1.061229 0.200707 -0.378920 0.000000 0.000000 0.000000
    14 -4.349673 0.059656 0.000000 0.000000 0.000000 0.000000
    15 -4.230510 -0.536228 0.000000 0.000000 0.000000 0.000000
    16 -3.694255 -0.655429 0.000000 0.000000 0.000000 0.000000
    17 13.641458 7.020348 16.879305 -0.287833 0.000000 0.000000
    18 4.472665 2.448845 0.720848 1.308509 -0.584311 0.472054
    19 15.242571 6.789905 0.000000 -0.944869 0.105273 -0.066310
    20 8.366559 3.675034 14.276474 -0.187535 0.254600 0.063015
    21 -15.633809 7.069125 16.813112 -0.287833 0.000000 0.000000
    22 -6.249312 1.413335 0.936005 0.852931 0.500583 0.173828
    23 -13.856888 6.374216 0.000000 -0.586651 -0.489041 -0.047490
    24 -5.687840 2.494701 12.855103 0.022086 -0.350955 0.144256
  time 11
    0 5.807106 1.410199 -495.482777 1.570796 0.000000 1.545389
    1 6.265787 -2.137183 0.000000 0.001917 -0.000077 0.078418
    2 -1.211985 121.072578 2.116671 -0.000861 0.000000 -0.034797
    3 -2.423956 108.889275 3.327682 -0.000875 -0.000060 -0.087205
    4 -8.483835 103.017944 0.000000 0.055321 0.007583 -0.088377
    5 -7.271858 79.990417 0.000000 -0.055776 -0.026402 -0.098152
    6 -6.059879 73.930542 0.000000 0.056172 0.095996 0.002533
    7 -7.271858 77.566437 0.000000 0.063614 0.185089 0.200339
    8 -7.271864 68.661316 0.902174 0.194646 0.104432 0.790399
    9 -10.228978 63.176211 -0.324228 0.277464 0.172999 0.604656
    10 -4.847914 27.875425 0.000000 0.000000 0.000000 0.000000
    11 -10.884169 43.721066 -0.263436 0.000000 -1.570796 0.287833
    12 1.645461 3.130692 15.347058 -1.570797 1.282964 -1.570797
    13 -1.061229 0.200707 -0.378920 0.000000 0.000000 0.000000
    14 -4.349673 0.059656 0.000000 0.000000 0.000000 0.000000
    15 -4.230510 -0.536228 0.000000 0.000000 0.000000 0.000000
    16 -3.694255 -0.655429 0.000000 0.000000 0.000000 0.000000
    17 13.641458 7.020348 16.879305 -0.287833 0.000000 0.000000
    18 4.472665 2.448845 0.720848 1.475337 -0.624496 0.377363
    19 15.242571 6.789905 0.000000 -0.933603 0.076140 -0.071194
    20 8.366559 3.675034 14.276474 -0.193623 0.262377 0.065927
    21 -15.633809 7.069125 16.813112 -0.287833 0.000000 0.000000
    22 -6.249312 1.413335 0.936005 0.981606 0.469175 0.269033
    23 -13.856888 6.374216 0.000000 -0.577125 -0.446049 -0.009936
    24 -5.687840 2.494701 12.855103 0.035788 -0.351541 0.136410
  time 12
    0 5.807106 1.410199 -495.482777 1.570796 0.000000 1.545389
    1 6.265787 -2.137183 0.000000 0.001917 -0.000077 0.078418
    2 -1.211985 121.072578 2.116671 -0.000861 0.000000 -0.034797
    3 -2.423956 108.889275 3.327682 -0.000875 -0.000060 -0.087205
    4 -8.483835 103.017944 0.000000 0.055321 0.007583 -0.088377
    5 -7.271858 79.990417 0.000000 -0.065244 -0.028516 -0.096929
    6 -6.059879 73.930542 0.000000 0.030050 0.121478 0.017828
    7 -7.271858 77.566437 0.000000 0.048478 0.132208 0.222137
    8 -7.271864 68.661316 0.902174 0.096855 -0.033323 0.770230
    9 -10.228978 63.176211 -0.324228 0.391349 0.194738 0.606941
    10 -4.847914 27.875425 0.000000 0.000000 0.000000 0.000000
    11 -10.884169 43.721066 -0.263436 0.000000 -1.570796 0.287833
    12 1.645461 3.130692 15.347058 -1.570797 1.282964 -1.570797
    13 -1.061229 0.200707 -0.378920 0.000000 0.000000 0.000000
    14 -4.349673 0.059656 0.000000 0.000000 0.000000 0.000000
    15 -4.230510 -0.536228 0.000000 0.000000 0.000000 0.000000
    16 -3.694255 -0.655429 0.000000 0.000000 0.000000 0.000000
    17 13.641458 7.020348 16.879305 -0.287833 0.000000 0.000000
    18 4.472665 2.448845 0.720848 1.550109 -0.559303 0.333205
    19 15.242571 6.789905 0.000000 -0.920675 0.045247 -0.075684
    20 8.366559 3.675034 14.276474 -0.199280 0.269508 0.068756
    21 -15.633809 7.069125 16.813112 -0.287833 0.000000 0.000000
    22 -6.249312 1.413335 0.936005 1.009792 0.517193 0.263133
    23 -13.856888 6.374216 0.000000 -0.560031 -0.430093 -0.000249
    24 -5.687840 2.494701 12.855103 0.050787 -0.350863 0.128719
  time 13
    0 5.807106 1.410199 -495.482777 1.570796 0.000000 1.545389
    1 6.265787 -2.137183 0.000000 0.001917 -0.000077 0.078418
    2 -1.211985 121.072578 2.116671 -0.000861 0.000000 -0.034797
    3 -2.423956 108.889275 3.327682 -0.000875 -0.000060 -0.087205
    4 -8.483835 103.017944 0.000000 0.055321 0.007583 -0.088377
    5 -7.271858 79.990417 0.000000 -0.074161 -0.030482 -0.095545
    6 -6.059879 73.930542 0.000000 -0.002456 0.149229 0.034714
    7 -7.271858 77.566437 0.000000 0.025240 0.065103 0.247435
    8 -7.271864 68.661316 0.902174 -0.021566 -0.200404 0.763460
    9 -10.228978 63.176211 -0.324228 0.478245 0.206325 0.610544
    10 -4.847914 27.875425 0.000000 0.000000 0.000000 0.000000
    11 -10.884169 43.721066 -0.263436 0.000000 -1.570796 0.287833
    12 1.645461 3.130692 15.347058 -1.570797 1.282964 -1.570797
    13 -1.061229 0.200707 -0.378920 0.000000 0.000000 0.000000
    14 -4.349673 0.059656 0.000000 0.000000 0.000000 0.000000
    15 -4.230510 -0.536228 0.000000 0.000000 0.000000 0.000000
    16 -3.694255 -0.655429 0.000000 0.000000 0.000000 0.000000
    17 13.641458 7.020348 16.879305 -0.287833 0.000000 0.000000
    18 4.472665 2.448845 0.720848 1.579416 -0.424209 0.313262
    19 15.242571 6.789905 0.000000 -0.906186 0.012806 -0.079911
    20 8.366559 3.675034 14.276474 -0.204493 0.276010 0.071512
    21 -15.633809 7.069125 16.813112 -0.287833 0.000000 0.000000
    22 -6.249312 1.413335 0.936005 0.983397 0.629837 0.187553
    23 -13.856888 6.374216 0.000000 -0.539249 -0.415077 0.006624
    24 -5.687840 2.494701 12.855103 0.066906 -0.349012 0.121226
  time 14
    0 5.807106 1.410199 -495.482777 1.570796 0.000000 1.545389
    1 6.265787 -2.137183 0.000000 0.001917 -0.000077 0.078418
    2 -1.211985 121.072578 2.116671 -0.000861 0.000000 -0.034797
    3 -2.423956 108.889275 3.327682 -0.000875 -0.000060 -0.087205
    4 -8.483835 103.017944 0.000000 0.055321 0.007583 -0.088377
    5 -7.271858 79.990417 0.000000 -0.082190 -0.032215 -0.094128
    6 -6.059879 73.930542 0.000000 -0.037472 0.177281 0.051340
    7 -7.271858 77.566437 0.000000 -0.003260 -0.007617 0.274951
    8 -7.271864 68.661316 0.902174 -0.153939 -0.376925 0.778985
    9 -10.228978 63.176211 -0.324228 0.499709 0.208419 0.610807
    10 -4.847914 27.875425 0.000000 0.000000 0.000000 0.000000
    11 -10.884169 43.721066 -0.263436 0.000000 -1.570796 0.287833
    12 1.645461 3.130692 15.347058 -1.570797 1.282964 -1.570797
    13 -1.061229 0.200707 -0.378920 0.000000 0.000000 0.000000
    14 -4.349673 0.059656 0.000000 0.000000 0.000000 0.000000
    15 -4.230510 -0.536228 0.000000 0.000000 0.000000 0.000000
    16 -3.694255 -0.655429 0.000000 0.000000 0.000000 0.000000
    17 13.641458 7.020348 16.879305 -0.287833 0.000000 0.000000
    18 4.472665 2.448845 0.720848 1.576598 -0.251901 0.308289
    19 15.242571 6.789905 0.000000 -0.890334 -0.020943 -0.084022
    20 8.366559 3.675034 14.276474 -0.209275 0.281903 0.074197
    21 -15.633809 7.069125 16.813112 -0.287833 0.000000 0.000000
    22 -6.249312 1.413335 0.936005 0.893183 0.772873 0.044031
    23 -13.856888 6.374216 0.000000 -0.515240 -0.401002 0.011082
    24 -5.687840 2.494701 12.855103 0.084012 -0.346061 0.113977
  time 15
    0 5.807106 1.410199 -495.482777 1.570796 0.000000 1.545389
    1 6.265787 -2.137183 0.000000 0.001917 -0.000077 0.078418
    2 -1.211985 121.072578 2.116671 -0.000861 0.000000 -0.034797
    3 -2.423956 108.889275 3.327682 -0.000875 -0.000060 -0.087205
    4 -8.483835 103.017944 0.000000 0.055321 0.007583 -0.088377
    5 -7.271858 79.990417 0.000000 -0.088998 -0.033674 -0.092808
    6 -6.059879 73.930542 0.000000 -0.071215 0.203392 0.066148
    7 -7.271858 77.566437 0.000000 -0.033689 -0.077652 0.302779
    8 -7.271864 68.661316 0.902174 -0.295436 -0.541866 0.820317
    9 -10.228978 63.176211 -0.324228 0.458124 0.203170 0.606985
    10 -4.847914 27.875425 0.000000 0.000000 0.000000 0.000000
    11 -10.884169 43.721066 -0.263436 0.000000 -1.570796 0.287833
    12 1.645461 3.130692 15.347058 -1.570797 1.282964 -1.570797
    13 -1.061229 0.200707 -0.378920 0.000000 0.000000 0.000000
    14 -4.349673 0.059656 0.000000 0.000000 0.000000 0.000000
    15 -4.230510 -0.536228 0.000000 0.000000 0.000000 0.000000
    16 -3.694255 -0.655429 0.000000 0.000000 0.000000 0.000000
    17 13.641458 7.020348 16.879305 -0.287833 0.000000 0.000000
    18 4.472665 2.448845 0.720848 1.555651 -0.073056 0.307965
    19 15.242571 6.789905 0.000000 -0.873253 -0.055811 -0.088166
    20 8.366559 3.675034 14.276474 -0.213649 0.287205 0.076809
    21 -15.633809 7.069125 16.813112 -0.287833 0.000000 0.000000
    22 -6.249312 1.413335 0.936005 0.726519 0.907163 -0.172275
    23 -13.856888 6.374216 0.000000 -0.488466 -0.387798 0.013273
    24 -5.687840 2.494701 12.855103 0.101928 -0.342084 0.106993
  time 16
    0 5.807106 1.410199 -495.482777 1.570796 0.000000 1.545389
    1 6.265787 -2.137183 0.000000 0.001917 -0.000077 0.078418
    2 -1.211985 121.072578 2.116671 -0.000861 0.000000 -0.034797
    3 -2.423956 108.889275 3.327682 -0.000875 -0.000060 -0.087205
    4 -8.483835 103.017944 0.000000 0.055321 0.007583 -0.088377
    5 -7.271858 79.990417 0.000000 -0.094271 -0.034773 -0.091714
    6 -6.059879 73.930542 0.000000 -0.099920 0.225211 0.077903
    7 -7.271858 77.566437 0.000000 -0.061888 -0.136994 0.327834
    8 -7.271864 68.661316 0.902174 -0.435508 -0.675623 0.882030
    9 -10.228978 63.176211 -0.324228 0.387877 0.192845 0.601844
    10 -4.847914 27.875425 0.000000 0.000000 0.000000 0.000000
    11 -10.884169 43.721066 -0.263436 0.000000 -1.570796 0.287833
    12 1.645461 3.130692 15.347058 -1.570797 1.282964 -1.570797
    13 -1.061229 0.200707 -0.378920 0.000000 0.000000 0.000000
    14 -4.349673 0.059656 0.000000 0.000000 0.000000 0.000000
    15 -4.230510 -0.536228 0.000000 0.000000 0.000000 0.000000
    16 -3.694255 -0.655429 0.000000 0.000000 0.000000 0.000000
    17 13.641458 7.020348 16.879305 -0.287833 0.000000 0.000000
    18 4.472665 2.448845 0.720848 1.527658 0.082108 0.306992
    19 15.242571 6.789905 0.000000 -0.855074 -0.091587 -0.092442
    20 8.366559 3.675034 14.276474 -0.217604 0.291916 0.079350
    21 -15.633809 7.069125 16.813112 -0.287833 0.000000 0.000000
    22 -6.249312 1.413335 0.936005 0.499617 0.997191 -0.439631
    23 -13.856888 6.374216 0.000000 -0.459349 -0.375360 0.013472
    24 -5.687840 2.494701 12.855103 0.120507 -0.337190 0.100296
  time 17
    0 5.807106 1.410199 -495.482777 1.570796 0.000000 1.545389
    1 6.265787 -2.137183 0.000000 0.001917 -0.000077 0.078418
    2 -1.211985 121.072578 2.116671 -0.000861 0.000000 -0.034797
    3 -2.423956 108.889275 3.327682 -0.000875 -0.000060 -0.087205
    4 -8.483835 103.017944 0.000000 0.055321 0.007583 -0.088377
    5 -7.271858 79.990417 0.000000 -0.097674 -0.035492 -0.090941
    6 -6.059879 73.930542 0.000000 -0.119911 0.240139 0.085664
    7 -7.271858 77.566437 0.000000 -0.082814 -0.178041 0.346236
    8 -7.271864 68.661316 0.902174 -0.549016 -0.762981 0.943885
    9 -10.228978 63.176211 -0.324228 0.298472 0.178677 0.596834
    10 -4.847914 27.875425 0.000000 0.000000 0.000000 0.000000
    11 -10.884169 43.721066 -0.263436 0.000000 -1.570796 0.287833
    12 1.645461 3.130692 15.347058 -1.570797 1.282964 -1.570797
    13 -1.061229 0.200707 -0.378920 0.000000 0.000000 0.000000
    14 -4.349673 0.059656 0.000000 0.000000 0.000000 0.000000
    15 -4.230510 -0.536228 0.000000 0.000000 0.000000 0.000000
    16 -3.694255 -0.655429 0.000000 0.000000 0.000000 0.000000
    17 13.641458 7.020348 16.879305 -0.287833 0.000000 0.000000
    18 4.472665 2.448845 0.720848 1.502484 0.183600 0.305155
    19 15.242571 6.789905 0.000000 -0.835932 -0.128030 -0.096998
    20 8.366559 3.675034 14.276474 -0.221164 0.296054 0.081819
    21 -15.633809 7.069125 16.813112 -0.287833 0.000000 0.000000
    22 -6.249312 1.413335 0.936005 0.296754 1.032928 -0.668980
    23 -13.856888 6.374216 0.000000 -0.428195 -0.363584 0.011879
    24 -5.687840 2.494701 12.855103 0.139602 -0.331453 0.093931
  time 18
    0 5.807106 1.410199 -495.482777 1.570796 0.000000 1.545389
    1 6.265787 -2.137183 0.000000 0.001917 -0.000077 0.078418
    2 -1.211985 121.072578 2.116671 -0.000861 0.000000 -0.034797
    3 -2.423956 108.889275 3.327682 -0.000875 -0.000060 -0.087205
    4 -8.483835 103.017944 0.000000 0.055321 0.007583 -0.088377
    5 -7.271858 79.990417 0.000000 -0.098885 -0.035745 -0.090684
    6 -6.059879 73.930542 0.000000 -0.127405 0.245662 0.088457
    7 -7.271858 77.566437 0.000000 -0.090975 -0.193373 0.353305
    8 -7.271864 68.661316 0.902174 -0.595955 -0.794112 0.971924
    9 -10.228978 63.176211 -0.324228 0.199412 0.162100 0.593144
    10 -4.847914 27.875425 0.000000 0.000000 0.000000 0.000000
    11 -10.884169 43.721066 -0.263436 0.000000 -1.570796 0.287833
    12 1.645461 3.130692 15.347058 -1.570797 1.282964 -1.570797
    13 -1.061229 0.200707 -0.378920 0.000000 0.000000 0.000000
    14 -4.349673 0.059656 0.000000 0.000000 0.000000 0.000000
    15 -4.230510 -0.536228 0.000000 0.000000 0.000000 0.000000
    16 -3.694255 -0.655429 0.000000 0.000000 0.000000 0.000000
    17 13.641458 7.020348 16.879305 -0.287833 0.000000 0.000000
    18 4.472665 2.448845 0.720848 1.491775 0.201293 0.305641
    19 15.242571 6.789905 0.000000 -0.815960 -0.164953 -0.101915
    20 8.366559 3.675034 14.276474 -0.224328 0.299619 0.084216
    21 -15.633809 7.069125 16.813112 -0.287833 0.000000 0.000000
    22 -6.249312 1.413335 0.936005 0.229258 1.036815 -0.743504
    23 -13.856888 6.374216 0.000000 -0.395467 -0.352401 0.008691
    24 -5.687840 2.494701 12.855103 0.159066 -0.324983 0.087919
  time 19
    0 5.807106 1.410199 -495.482777 1.570796 0.000000 1.545389
    1 6.265787 -2.137183 0.000000 0.001917 -0.000077 0.078418
    2 -1.211985 121.072578 2.116671 -0.000861 0.000000 -0.034797
    3 -2.423956 108.889275 3.327682 -0.000875 -0.000060 -0.087205
    4 -8.483835 103.017944 0.000000 0.055321 0.007583 -0.088377
    5 -7.271858 79.990417 0.000000 -0.097303 -0.035407 -0.090909
    6 -6.059879 73.930542 0.000000 -0.117673 0.238389 0.084787
    7 -7.271858 77.566437 0.000000 -0.080453 -0.173468 0.344053
    8 -7.271864 68.661316 0.902174 -0.535362 -0.753335 0.935945
    9 -10.228978 63.176211 -0.324228 0.099947 0.144806 0.591430
    10 -4.847914 27.875425 0.000000 0.000000 0.000000 0.000000
    11 -10.884169 43.721066 -0.263436 0.000000 -1.570796 0.287833
    12 1.645461 3.130692 15.347058 -1.570797 1.282964 -1.570797
    13 -1.061229 0.200707 -0.378920 0.000000 0.000000 0.000000
    14 -4.349673 0.059656 0.000000 0.000000 0.000000 0.000000
    15 -4.230510 -0.536228 0.000000 0.000000 0.000000 0.000000
    16 -3.694255 -0.655429 0.000000 0.000000 0.000000 0.000000
    17 13.641458 7.020348 16.879305 -0.287833 0.000000 0.000000
    18 4.472665 2.448845 0.720848 1.492902 0.107710 0.313100
    19 15.242571 6.789905 0.000000 -0.795256 -0.202090 -0.107293
    20 8.366559 3.675034 14.276474 -0.227096 0.302649 0.086541
    21 -15.633809 7.069125 16.813112 -0.287833 0.000000 0.000000
    22 -6.249312 1.413335 0.936005 0.346150 1.015832 -0.606814
    23 -13.856888 6.374216 0.000000 -0.361510 -0.341740 0.004109
    24 -5.687840 2.494701 12.855103 0.178750 -0.317872 0.082284
  time 20
    0 5.807106 1.410199 -495.482777 1.570796 0.000000 1.545389
    1 6.265787 -2.137183 0.000000 0.001917 -0.000077 0.078418
    2 -1.211985 121.072578 2.116671 -0.000861 0.000000 -0.034797
    3 -2.423956 108.889275 3.327682 -0.000875 -0.000060 -0.087205
    4 -8.483835 103.017944 0.000000 0.055321 0.007583 -0.088377
    5 -7.271858 79.990417 0.000000 -0.092905 -0.034456 -0.091553
    6 -6.059879 73.930542 0.000000 -0.092261 0.219086 0.074753
    7 -7.271858 77.566437 0.000000 -0.054290 -0.121222 0.320799
    8 -7.271864 68.661316 0.902174 -0.395375 -0.640108 0.862463
    9 -10.228978 63.176211 -0.324228 0.009300 0.128630 0.591737
    10 -4.847914 27.875425 0.000000 0.000000 0.000000 0.000000
    11 -10.884169 43.721066 -0.263436 0.000000 -1.570796 0.287833
    12 1.645461 3.130692 15.347058 -1.570797 1.282964 -1.570797
    13 -1.061229 0.200707 -0.378920 0.000000 0.000000 0.000000
    14 -4.349673 0.059656 0.000000 0.000000 0.000000 0.000000
    15 -4.230510 -0.536228 0.000000 0.000000 0.000000 0.000000
    16 -3.694255 -0.655429 0.000000 0.000000 0.000000 0.000000
    17 13.641458 7.020348 16.879305 -0.287833 0.000000 0.000000
    18 4.472665 2.448845 0.720848 1.493184 -0.079594 0.327638
    19 15.242571 6.789905 0.000000 -0.773954 -0.239226 -0.113181
    20 8.366559 3.675034 14.276474 -0.229505 0.305161 0.088794
    21 -15.633809 7.069125 16.813112 -0.287833 0.000000 0.000000
    22 -6.249312 1.413335 0.936005 0.564756 0.943740 -0.344240
    23 -13.856888 6.374216 0.000000 -0.326630 -0.331497 -0.001668
    24 -5.687840 2.494701 12.855103 0.198537 -0.310192 0.077023
  time 21
    0 5.807106 1.410199 -495.482777 1.570796 0.000000 1.545389
    1 6.265787 -2.137183 0.000000 0.001917 -0.000077 0.078418
    2 -1.211985 121.072578 2.116671 -0.000861 0.000000 -0.034797
    3 -2.423956 108.889275 3.327682 -0.000875 -0.000060 -0.087205
    4 -8.483835 103.017944 0.000000 0.055321 0.007583 -0.088377
    5 -7.271858 79.990417 0.000000 -0.086205 -0.032997 -0.092519
    6 -6.059879 73.930542 0.000000 -0.056790 0.191718 0.059783
    7 -7.271858 77.566437 0.000000 -0.020613 -0.047835 0.290338
    8 -7.271864 68.661316 0.902174 -0.232099 -0.471170 0.798800
    9 -10.228978 63.176211 -0.324228 -0.063404 0.115323 0.593451
    10 -4.847914 27.875425 0.000000 0.000000 0.000000 0.000000
    11 -10.884169 43.721066 -0.263436 0.000000 -1.570796 0.287833
    12 1.645461 3.130692 15.347058 -1.570797 1.282964 -1.570797
    13 -1.061229 0.200707 -0.378920 0.000000 0.000000 0.000000
    14 -4.349673 0.059656 0.000000 0.000000 0.000000 0.000000
    15 -4.230510 -0.536228 0.000000 0.000000 0.000000 0.000000
    16 -3.694255 -0.655429 0.000000 0.000000 0.000000 0.000000
    17 13.641458 7.020348 16.879305 -0.287833 0.000000 0.000000
    18 4.472665 2.448845 0.720848 1.489145 -0.322900 0.347420
    19 15.242571 6.789905 0.000000 -0.752153 -0.276176 -0.119644
    20 8.366559 3.675034 14.276474 -0.231530 0.307138 0.090975
    21 -15.633809 7.069125 16.813112 -0.287833 0.000000 0.000000
    22 -6.249312 1.413335 0.936005 0.769599 0.809141 -0.078996
    23 -13.856888 6.374216 0.000000 -0.291213 -0.321603 -0.008517
    24 -5.687840 2.494701 12.855103 0.218281 -0.302072 0.072161
  time 22
    0 5.807106 1.410199 -495.482777 1.570796 0.000000 1.545389
    1 6.265787 -2.137183 0.000000 0.001917 -0.000077 0.078418
    2 -1.211985 121.072578 2.116671 -0.000861 0.000000 -0.034797
    3 -2.423956 108.889275 3.327682 -0.000875 -0.000060 -0.087205
    4 -8.483835 103.017944 0.000000 0.055321 0.007583 -0.088377
    5 -7.271858 79.990417 0.000000 -0.077696 -0.031116 -0.093645
    6 -6.059879 73.930542 0.000000 -0.016899 0.160193 0.041533
    7 -7.271858 77.566437 0.000000 0.013507 0.035026 0.258213
    8 -7.271864 68.661316 0.902174 -0.074502 -0.272364 0.766756
    9 -10.228978 63.176211 -0.324228 -0.109146 0.106489 0.595692
    10 -4.847914 27.875425 0.000000 0.000000 0.000000 0.000000
    11 -10.884169 43.721066 -0.263436 0.000000 -1.570796 0.287833
    12 1.645461 3.130692 15.347058 -1.570797 1.282964 -1.570797
    13 -1.061229 0.200707 -0.378920 0.000000 0.000000 0.000000
    14 -4.349673 0.059656 0.000000 0.000000 0.000000 0.000000
    15 -4.230510 -0.536228 0.000000 0.000000 0.000000 0.000000
    16 -3.694255 -0.655429 0.000000 0.000000 0.000000 0.000000
    17 13.641458 7.020348 16.879305 -0.287833 0.000000 0.000000
    18 4.472665 2.448845 0.720848 1.477967 -0.584448 0.372768
    19 15.242571 6.789905 0.000000 -0.729987 -0.312645 -0.126715
    20 8.366559 3.675034 14.276474 -0.233196 0.308597 0.093072
    21 -15.633809 7.069125 16.813112 -0.287833 0.000000 0.000000
    22 -6.249312 1.413335 0.936005 0.907701 0.634829 0.128679
    23 -13.856888 6.374216 0.000000 -0.255604 -0.311987 -0.016237
    24 -5.687840 2.494701 12.855103 0.237862 -0.293623 0.067675
  time 23
    0 5.807106 1.410199 -495.482777 1.570796 0.000000 1.545389
    1 6.265787 -2.137183 0.000000 0.001917 -0.000077 0.078418
    2 -1.211985 121.072578 2.116671 -0.000861 0.000000 -0.034797
    3 -2.423956 108.889275 3.327682 -0.000875 -0.000060 -0.087205
    4 -8.483835 103.017944 0.000000 0.055321 0.007583 -0.088377
    5 -7.271858 79.990417 0.000000 -0.067893 -0.028939 -0.094804
    6 -6.059879 73.930542 0.000000 0.021756 0.128094 0.022082
    7 -7.271858 77.566437 0.000000 0.042509 0.115037 0.228167
    8 -7.271864 68.661316 0.902174 0.067101 -0.075003 0.766650
    9 -10.228978 63.176211 -0.324228 -0.044525 0.119252 0.595956
    10 -4.847914 27.875425 0.000000 0.000000 0.000000 0.000000
    11 -10.884169 43.721066 -0.263436 0.000000 -1.570796 0.287833
    12 1.645461 3.130692 15.347058 -1.570797 1.282964 -1.570797
    13 -1.061229 0.200707 -0.378920 0.000000 0.000000 0.000000
    14 -4.349673 0.059656 0.000000 0.000000 0.000000 0.000000
    15 -4.230510 -0.536228 0.000000 0.000000 0.000000 0.000000
    16 -3.694255 -0.655429 0.000000 0.000000 0.000000 0.000000
    17 13.641458 7.020348 16.879305 -0.287833 0.000000 0.000000
    18 4.472665 2.448845 0.720848 1.456456 -0.826291 0.405684
    19 15.242571 6.789905 0.000000 -0.707555 -0.348501 -0.134429
    20 8.366559 3.675034 14.276474 -0.234514 0.309576 0.095074
    21 -15.633809 7.069125 16.813112 -0.287833 0.000000 0.000000
    22 -6.249312 1.413335 0.936005 0.984717 0.459899 0.275926
    23 -13.856888 6.374216 0.000000 -0.220148 -0.302615 -0.024629
    24 -5.687840 2.494701 12.855103 0.257148 -0.284917 0.063564
  time 24
    0 5.807106 1.410199 -495.482777 1.570796 0.000000 1.545389
    1 6.265787 -2.137183 0.000000 0.001917 -0.000077 0.078418
    2 -1.211985 121.072578 2.116671 -0.000861 0.000000 -0.034797
    3 -2.423956 108.889275 3.327682 -0.000875 -0.000060 -0.087205
    4 -8.483835 103.017944 0.000000 0.055321 0.007583 -0.088377
    5 -7.271858 79.990417 0.000000 -0.057298 -0.026571 -0.095931
    6 -6.059879 73.930542 0.000000 0.053370 0.098593 0.004157
    7 -7.271858 77.566437 0.000000 0.061996 0.179408 0.202557
    8 -7.271864 68.661316 0.902174 0.184097 0.090014 0.787634
    9 -10.228978 63.176211 -0.324228 0.102861 0.143860 0.599559
    10 -4.847914 27.875425 0.000000 0.000000 0.000000 0.000000
    11 -10.884169 43.721066 -0.263436 0.000000 -1.570796 0.287833
    12 1.645461 3.130692 15.347058 -1.570797 1.282964 -1.570797
    13 -1.061229 0.200707 -0.378920 0.000000 0.000000 0.000000
    14 -4.349673 0.059656 0.000000 0.000000 0.000000 0.000000
    15 -4.230510 -0.536228 0.000000 0.000000 0.000000 0.000000
    16 -3.694255 -0.655429 0.000000 0.000000 0.000000 0.000000
    17 13.641458 7.020348 16.879305 -0.287833 0.000000 0.000000
    18 4.472665 2.448845 0.720848 1.424800 -1.010669 0.445409
    19 15.242571 6.789905 0.000000 -0.685023 -0.383450 -0.142750
    20 8.366559 3.675034 14.276474 -0.235485 0.310075 0.096991
    21 -15.633809 7.069125 16.813112 -0.287833 0.000000 0.000000
    22 -6.249312 1.413335 0.936005 1.020633 0.323842 0.369765
    23 -13.856888 6.374216 0.000000 -0.185153 -0.293487 -0.033569
    24 -5.687840 2.494701 12.855103 0.276008 -0.276083 0.059806
  time 25
    0 5.807106 1.410199 -495.482777 1.570796 0.000000 1.545389
    1 6.265787 -2.137183 0.000000 0.001917 -0.000077 0.078418
    2 -1.211985 121.072578 2.116671 -0.000861 0.000000 -0.034797
    3 -2.423956 108.889275 3.327682 -0.000875 -0.000060 -0.087205
    4 -8.483835 103.017944 0.000000 0.055321 0.007583 -0.088377
    5 -7.271858 79.990417 0.000000 -0.046416 -0.024098 -0.096864
    6 -6.059879 73.930542 0.000000 0.071834 0.074560 -0.008995
    7 -7.271858 77.566437 0.000000 0.068156 0.215036 0.183220
    8 -7.271864 68.661316 0.902174 0.259344 0.195349 0.810746
    9 -10.228978 63.176211 -0.324228 0.174755 0.141450 0.607863
    10 -4.847914 27.875425 0.000000 0.000000 0.000000 0.000000
    11 -10.884169 43.721066 -0.263436 0.000000 -1.570796 0.287833
    12 1.645461 3.130692 15.347058 -1.570797 1.282964 -1.570797
    13 -1.061229 0.200707 -0.378920 0.000000 0.000000 0.000000
    14 -4.349673 0.059656 0.000000 0.000000 0.000000 0.000000
    15 -4.230510 -0.536228 0.000000 0.000000 0.000000 0.000000
    16 -3.694255 -0.655429 0.000000 0.000000 0.000000 0.000000
    17 13.641458 7.020348 16.879305 -0.287833 0.000000 0.000000
    18 4.472665 2.448845 0.720848 1.399438 -1.100457 0.474541
    19 15.242571 6.789905 0.000000 -0.662558 -0.417332 -0.151697
    20 8.366559 3.675034 14.276474 -0.236120 0.310093 0.098825
    21 -15.633809 7.069125 16.813112 -0.287833 0.000000 0.000000
    22 -6.249312 1.413335 0.936005 1.031851 0.262439 0.408579
    23 -13.856888 6.374216 0.000000 -0.150927 -0.284569 -0.042883
    24 -5.687840 2.494701 12.855103 0.294336 -0.267193 0.056403
  time 26
    0 5.807106 1.410199 -495.482777 1.570796 0.000000 1.545389
    1 6.265787 -2.137183 0.000000 0.001917 -0.000077 0.078418
    2 -1.211985 121.072578 2.116671 -0.000861 0.000000 -0.034797
    3 -2.423956 108.889275 3.327682 -0.000875 -0.000060 -0.087205
    4 -8.483835 103.017944 0.000000 0.055321 0.007583 -0.088377
    5 -7.271858 79.990417 0.000000 -0.035762 -0.021667 -0.097541
    6 -6.059879 73.930542 0.000000 0.070342 0.054081 -0.018087
    7 -7.271858 77.566437 0.000000 0.053511 0.206345 0.165788
    8 -7.271864 68.661316 0.902174 0.266192 0.221941 0.812589
    9 -10.228978 63.176211 -0.324228 0.115532 0.099520 0.626582
    10 -4.847914 27.875425 0.000000 0.000000 0.000000 0.000000
    11 -10.884169 43.721066 -0.263436 0.000000 -1.570796 0.287833
    12 1.645461 3.130692 15.347058 -1.570797 1.282964 -1.570797
    13 -1.061229 0.200707 -0.378920 0.000000 0.000000 0.000000
    14 -4.349673 0.059656 0.000000 0.000000 0.000000 0.000000
    15 -4.230510 -0.536228 0.000000 0.000000 0.000000 0.000000
    16 -3.694255 -0.655429 0.000000 0.000000 0.000000 0.000000
    17 13.641458 7.020348 16.879305 -0.287833 0.000000 0.000000
    18 4.472665 2.448845 0.720848 1.383750 -1.086468 0.487620
    19 15.242571 6.789905 0.000000 -0.640292 -0.449880 -0.161186
    20 8.366559 3.675034 14.276474 -0.236420 0.309669 0.100551
    21 -15.633809 7.069125 16.813112 -0.287833 0.000000 0.000000
    22 -6.249312 1.413335 0.936005 1.025818 0.285852 0.393302
    23 -13.856888 6.374216 0.000000 -0.117853 -0.275859 -0.052396
    24 -5.687840 2.494701 12.855103 0.312017 -0.258396 0.053309
  time 27
    0 5.807106 1.410199 -495.482777 1.570796 0.000000 1.545389
    1 6.265787 -2.137183 0.000000 0.001917 -0.000077 0.078418
    2 -1.211985 121.072578 2.116671 -0.000861 0.000000 -0.034797
    3 -2.423956 108.889275 3.327682 -0.000875 -0.000060 -0.087205
    4 -8.483835 103.017944 0.000000 0.055321 0.007583 -0.088377
    5 -7.271858 79.990417 0.000000 -0.025815 -0.019363 -0.097830
    6 -6.059879 73.930542 0.000000 0.052079 0.034149 -0.024387
    7 -7.271858 77.566437 0.000000 0.021273 0.159519 0.149119
    8 -7.271864 68.661316 0.902174 0.215319 0.186657 0.793306
    9 -10.228978 63.176211 -0.324228 0.001597 0.041902 0.660415
    10 -4.847914 27.875425 0.000000 0.000000 0.000000 0.000000
    11 -10.884169 43.721066 -0.263436 0.000000 -1.570796 0.287833
    12 1.645461 3.130692 15.347058 -1.570797 1.282964 -1.570797
    13 -1.061229 0.200707 -0.378920 0.000000 0.000000 0.000000
    14 -4.349673 0.059656 0.000000 0.000000 0.000000 0.000000
    15 -4.230510 -0.536228 0.000000 0.000000 0.000000 0.000000
    16 -3.694255 -0.655429 0.000000 0.000000 0.000000 0.000000
    17 13.641458 7.020348 16.879305 -0.287833 0.000000 0.000000
    18 4.472665 2.448845 0.720848 1.368251 -0.999377 0.494484
    19 15.242571 6.789905 0.000000 -0.618458 -0.480933 -0.171152
    20 8.366559 3.675034 14.276474 -0.236420 0.308800 0.102157
    21 -15.633809 7.069125 16.813112 -0.287833 0.000000 0.000000
    22 -6.249312 1.413335 0.936005 1.003382 0.368502 0.337471
    23 -13.856888 6.374216 0.000000 -0.086238 -0.267393 -0.061983
    24 -5.687840 2.494701 12.855103 0.328916 -0.249744 0.050502
  time 28
    0 5.807106 1.410199 -495.482777 1.570796 0.000000 1.545389
    1 6.265787 -2.137183 0.000000 0.001917 -0.000077 0.078418
    2 -1.211985 121.072578 2.116671 -0.000861 0.000000 -0.034797
    3 -2.423956 108.889275 3.327682 -0.000875 -0.000060 -0.087205
    4 -8.483835 103.017944 0.000000 0.055321 0.007583 -0.088377
    5 -7.271858 79.990417 0.000000 -0.017090 -0.017313 -0.097637
    6 -6.059879 73.930542 0.000000 0.025848 0.015967 -0.025881
    7 -7.271858 77.566437 0.000000 -0.017090 0.094774 0.139589
    8 -7.271864 68.661316 0.902174 0.140136 0.118153 0.770124
    9 -10.228978 63.176211 -0.324228 -0.128304 -0.015831 0.698775
    10 -4.847914 27.875425 0.000000 0.000000 0.000000 0.000000
    11 -10.884169 43.721066 -0.263436 0.000000 -1.570796 0.287833
    12 1.645461 3.130692 15.347058 -1.570797 1.282964 -1.570797
    13 -1.061229 0.200707 -0.378920 0.000000 0.000000 0.000000
    14 -4.349673 0.059656 0.000000 0.000000 0.000000 0.000000
    15 -4.230510 -0.536228 0.000000 0.000000 0.000000 0.000000
    16 -3.694255 -0.655429 0.000000 0.000000 0.000000 0.000000
    17 13.641458 7.020348 16.879305 -0.287833 0.000000 0.000000
    18 4.472665 2.448845 0.720848 1.361394 -0.863002 0.489188
    19 15.242571 6.789905 0.000000 -0.597223 -0.510280 -0.181480
    20 8.366559 3.675034 14.276474 -0.236096 0.307507 0.103667
    21 -15.633809 7.069125 16.813112 -0.287833 0.000000 0.000000
    22 -6.249312 1.413335 0.936005 0.960302 0.488744 0.247359
    23 -13.856888 6.374216 0.000000 -0.056353 -0.259205 -0.071496
    24 -5.687840 2.494701 12.855103 0.344932 -0.241368 0.047916
  time 29
    0 5.807106 1.410199 -495.482777 1.570796 0.000000 1.545389
    1 6.265787 -2.137183 0.000000 0.001917 -0.000077 0.078418
    2 -1.211985 121.072578 2.116671 -0.000861 0.000000 -0.034797
    3 -2.423956 108.889275 3.327682 -0.000875 -0.000060 -0.087205
    4 -8.483835 103.017944 0.000000 0.055321 0.007583 -0.088377
    5 -7.271858 79.990417 0.000000 -0.010103 -0.015621 -0.096864
    6 -6.059879 73.930542 0.000000 0.000364 0.000984 -0.020913
    7 -7.271858 77.566437 0.000000 -0.051869 0.032991 0.141149
    8 -7.271864 68.661316 0.902174 0.071270 0.047328 0.756051
    9 -10.228978 63.176211 -0.324228 -0.233598 -0.063928 0.724611
    10 -4.847914 27.875425 0.000000 0.000000 0.000000 0.000000
    11 -10.884169 43.721066 -0.263436 0.000000 -1.570796 0.287833
    12 1.645461 3.130692 15.347058 -1.570797 1.282964 -1.570797
    13 -1.061229 0.200707 -0.378920 0.000000 0.000000 0.000000
    14 -4.349673 0.059656 0.000000 0.000000 0.000000 0.000000
    15 -4.230510 -0.536228 0.000000 0.000000 0.000000 0.000000
    16 -3.694255 -0.655429 0.000000 0.000000 0.000000 0.000000
    17 13.641458 7.020348 16.879305 -0.287833 0.000000 0.000000
    18 4.472665 2.448845 0.720848 1.363836 -0.700981 0.473352
    19 15.242571 6.789905 0.000000 -0.576884 -0.537758 -0.192055
    20 8.366559 3.675034 14.276474 -0.235473 0.305808 0.105045
    21 -15.633809 7.069125 16.813112 -0.287833 0.000000 0.000000
    22 -6.249312 1.413335 0.936005 0.891110 0.624094 0.126132
    23 -13.856888 6.374216 0.000000 -0.028503 -0.251332 -0.080810
    24 -5.687840 2.494701 12.855103 0.359946 -0.233377 0.045529
  time 30
    0 5.807106 1.410199 -495.482777 1.570796 0.000000 1.545389
    1 6.265787 -2.137183 0.000000 0.001917 -0.000077 0.078418
    2 -1.211985 121.072578 2.116671 -0.000861 0.000000 -0.034797
    3 -2.423956 108.889275 3.327682 -0.000875 -0.000060 -0.087205
    4 -8.483835 103.017944 0.000000 0.055321 0.007583 -0.088377
    5 -7.271858 79.990417 0.000000 -0.005333 -0.014438 -0.095416
    6 -6.059879 73.930542 0.000000 -0.015626 -0.009241 -0.008151
    7 -7.271858 77.566437 0.000000 -0.073945 -0.004769 0.155219
    8 -7.271864 68.661316 0.902174 0.036156 0.007196 0.756051
    9 -10.228978 63.176211 -0.324228 -0.271078 -0.097512 0.715516
    10 -4.847914 27.875425 0.000000 0.000000 0.000000 0.000000
    11 -10.884169 43.721066 -0.263436 0.000000 -1.570796 0.287833
    12 1.645461 3.130692 15.347058 -1.570797 1.282964 -1.570797
    13 -1.061229 0.200707 -0.378920 0.000000 0.000000 0.000000
    14 -4.349673 0.059656 0.000000 0.000000 0.000000 0.000000
    15 -4.230510 -0.536228 0.000000 0.000000 0.000000 0.000000
    16 -3.694255 -0.655429 0.000000 0.000000 0.000000 0.000000
    17 13.641458 7.020348 16.879305 -0.287833 0.000000 0.000000
    18 4.472665 2.448845 0.720848 1.375390 -0.536719 0.449895
    19 15.242571 6.789905 0.000000 -0.557676 -0.563130 -0.202712
    20 8.366559 3.675034 14.276474 -0.234550 0.303720 0.106303
    21 -15.633809 7.069125 16.813112 -0.287833 0.000000 0.000000
    22 -6.249312 1.413335 0.936005 0.793920 0.752421 -0.021550
    23 -13.856888 6.374216 0.000000 -0.003073 -0.243911 -0.089750
    24 -5.687840 2.494701 12.855103 0.373840 -0.225844 0.043297
  time 31
    0 5.807106 1.410199 -495.482777 1.570796 0.000000 1.545389
    1 6.265787 -2.137183 0.000000 0.001917 -0.000077 0.078418
    2 -1.211985 121.072578 2.116671 -0.000861 0.000000 -0.034797
    3 -2.423956 108.889275 3.327682 -0.000875 -0.000060 -0.087205
    4 -8.483835 103.017944 0.000000 0.055321 0.007583 -0.088377
    5 -7.271858 79.990417 0.000000 -0.002289 -0.013613 -0.093420
    6 -6.059879 73.930542 0.000000 -0.020664 -0.013206 0.016074
    7 -7.271858 77.566437 0.000000 -0.080800 -0.013444 0.186408
    8 -7.271864 68.661316 0.902174 0.042090 0.003611 0.768741
    9 -10.228978 63.176211 -0.324228 -0.211525 -0.112742 0.655846
    10 -4.847914 27.875425 0.000000 0.000000 0.000000 0.000000
    11 -10.884169 43.721066 -0.263436 0.000000 -1.570796 0.287833
    12 1.645461 3.130692 15.347058 -1.570797 1.282964 -1.570797
    13 -1.061229 0.200707 -0.378920 0.000000 0.000000 0.000000
    14 -4.349673 0.059656 0.000000 0.000000 0.000000 0.000000
    15 -4.230510 -0.536228 0.000000 0.000000 0.000000 0.000000
    16 -3.694255 -0.655429 0.000000 0.000000 0.000000 0.000000
    17 13.641458 7.020348 16.879305 -0.287833 0.000000 0.000000
    18 4.472665 2.448845 0.720848 1.397465 -0.393350 0.420493
    19 15.242571 6.789905 0.000000 -0.539930 -0.586260 -0.213237
    20 8.366559 3.675034 14.276474 -0.233352 0.301245 0.107418
    21 -15.633809 7.069125 16.813112 -0.287833 0.000000 0.000000
    22 -6.249312 1.413335 0.936005 0.679856 0.854993 -0.179852
    23 -13.856888 6.374216 0.000000 0.019668 -0.236943 -0.098242
    24 -5.687840 2.494701 12.855103 0.386511 -0.218898 0.041153
  time 32
    0 5.807106 1.410199 -495.482777 1.570796 0.000000 1.545389
    1 6.265787 -2.137183 0.000000 0.001917 -0.000077 0.078418
    2 -1.211985 121.072578 2.116671 -0.000861 0.000000 -0.034797
    3 -2.423956 108.889275 3.327682 -0.000875 -0.000060 -0.087205
    4 -8.483835 103.017944 0.000000 0.055321 0.007583 -0.088377
    5 -7.271858 79.990417 0.000000 -0.000072 -0.012958 -0.091006
    6 -6.059879 73.930542 0.000000 -0.020501 -0.011893 0.050853
    7 -7.271858 77.566437 0.000000 -0.078679 -0.007015 0.232845
    8 -7.271864 68.661316 0.902174 0.070227 0.014727 0.789619
    9 -10.228978 63.176211 -0.324228 -0.083272 -0.105772 0.558036
    10 -4.847914 27.875425 0.000000 0.000000 0.000000 0.000000
    11 -10.884169 43.721066 -0.263436 0.000000 -1.570796 0.287833
    12 1.645461 3.130692 15.347058 -1.570797 1.282964 -1.570797
    13 -1.061229 0.200707 -0.378920 0.000000 0.000000 0.000000
    14 -4.349673 0.059656 0.000000 0.000000 0.000000 0.000000
    15 -4.230510 -0.536228 0.000000 0.000000 0.000000 0.000000
    16 -3.694255 -0.655429 0.000000 0.000000 0.000000 0.000000
    17 13.641458 7.020348 16.879305 -0.287833 0.000000 0.000000
    18 4.472665 2.448845 0.720848 1.433912 -0.293504 0.385254
    19 15.242571 6.789905 0.000000 -0.523978 -0.606962 -0.223450
    20 8.366559 3.675034 14.276474 -0.231866 0.298400 0.108401
    21 -15.633809 7.069125 16.813112 -0.287833 0.000000 0.000000
    22 -6.249312 1.413335 0.936005 0.582384 0.921255 -0.311015
    23 -13.856888 6.374216 0.000000 0.039489 -0.230567 -0.106111
    24 -5.687840 2.494701 12.855103 0.397826 -0.212611 0.039031
  time 33
    0 5.807106 1.410199 -495.482777 1.570796 0.000000 1.545389
    1 6.265787 -2.137183 0.000000 0.001917 -0.000077 0.078418
    2 -1.211985 121.072578 2.116671 -0.000861 0.000000 -0.034797
    3 -2.423956 108.889275 3.327682 -0.000875 -0.000060 -0.087205
    4 -8.483835 103.017944 0.000000 0.055321 0.007583 -0.088377
    5 -7.271858 79.990417 0.000000 0.001402 -0.012472 -0.088205
    6 -6.059879 73.930542 0.000000 -0.017226 -0.007765 0.089983
    7 -7.271858 77.566437 0.000000 -0.071009 0.006689 0.285382
    8 -7.271864 68.661316 0.902174 0.108404 0.032189 0.815638
    9 -10.228978 63.176211 -0.324228 0.069740 -0.074282 0.442869
    10 -4.847914 27.875425 0.000000 0.000000 0.000000 0.000000
    11 -10.884169 43.721066 -0.263436 0.000000 -1.570796 0.287833
    12 1.645461 3.130692 15.347058 -1.570797 1.282964 -1.570797
    13 -1.061229 0.200707 -0.378920 0.000000 0.000000 0.000000
    14 -4.349673 0.059656 0.000000 0.000000 0.000000 0.000000
    15 -4.230510 -0.536228 0.000000 0.000000 0.000000 0.000000
    16 -3.694255 -0.655429 0.000000 0.000000 0.000000 0.000000
    17 13.641458 7.020348 16.879305 -0.287833 0.000000 0.000000
    18 4.472665 2.448845 0.720848 1.490742 -0.259536 0.342069
    19 15.242571 6.789905 0.000000 -0.510153 -0.625077 -0.233104
    20 8.366559 3.675034 14.276474 -0.230116 0.295204 0.109216
    21 -15.633809 7.069125 16.813112 -0.287833 0.000000 0.000000
    22 -6.249312 1.413335 0.936005 0.553444 0.948864 -0.358213
    23 -13.856888 6.374216 0.000000 0.056045 -0.224854 -0.113258
    24 -5.687840 2.494701 12.855103 0.407683 -0.207094 0.036931
  time 34
    0 5.807106 1.410199 -495.482777 1.570796 0.000000 1.545389
    1 6.265787 -2.137183 0.000000 0.001917 -0.000077 0.078418
    2 -1.211985 121.072578 2.116671 -0.000861 0.000000 -0.034797
    3 -2.423956 108.889275 3.327682 -0.000875 -0.000060 -0.087205
    4 -8.483835 103.017944 0.000000 0.055321 0.007583 -0.088377
    5 -7.271858 79.990417 0.000000 0.002241 -0.012112 -0.085115
    6 -6.059879 73.930542 0.000000 -0.013115 -0.003254 0.127489
    7 -7.271858 77.566437 0.000000 -0.061936 0.020166 0.334904
    8 -7.271864 68.661316 0.902174 0.144198 0.048180 0.843145
    9 -10.228978 63.176211 -0.324228 0.204937 -0.027963 0.329241
    10 -4.847914 27.875425 0.000000 0.000000 0.000000 0.000000
    11 -10.884169 43.721066 -0.263436 0.000000 -1.570796 0.287833
    12 1.645461 3.130692 15.347058 -1.570797 1.282964 -1.570797
    13 -1.061229 0.200707 -0.378920 0.000000 0.000000 0.000000
    14 -4.349673 0.059656 0.000000 0.000000 0.000000 0.000000
    15 -4.230510 -0.536228 0.000000 0.000000 0.000000 0.000000
    16 -3.694255 -0.655429 0.000000 0.000000 0.000000 0.000000
    17 13.641458 7.020348 16.879305 -0.287833 0.000000 0.000000
    18 4.472665 2.448845 0.720848 1.738166 -0.447982 0.169116
    19 15.242571 6.789905 0.000000 -0.498788 -0.640444 -0.241952
    20 8.366559 3.675034 14.276474 -0.228091 0.291657 0.109887
    21 -15.633809 7.069125 16.813112 -0.287833 0.000000 0.000000
    22 -6.249312 1.413335 0.936005 0.838697 0.837766 -0.051235
    23 -13.856888 6.374216 0.000000 0.068991 -0.219907 -0.119533
    24 -5.687840 2.494701 12.855103 0.415949 -0.202439 0.034766
  time 35
    0 5.807106 1.410199 -495.482777 1.570796 0.000000 1.545389
    1 6.265787 -2.137183 0.000000 0.001917 -0.000077 0.078418
    2 -1.211985 121.072578 2.116671 -0.000861 0.000000 -0.034797
    3 -2.423956 108.889275 3.327682 -0.000875 -0.000060 -0.087205
    4 -8.483835 103.017944 0.000000 0.055321 0.007583 -0.088377
    5 -7.271858 79.990417 0.000000 0.002529 -0.011859 -0.081767
    6 -6.059879 73.930542 0.000000 -0.010623 -0.000492 0.157202
    7 -7.271858 77.566437 0.000000 -0.056579 0.026497 0.372123
    8 -7.271864 68.661316 0.902174 0.164658 0.055891 0.867639
    9 -10.228978 63.176211 -0.324228 0.284965 0.010583 0.228751
    10 -4.847914 27.875425 0.000000 0.000000 0.000000 0.000000
    11 -10.884169 43.721066 -0.263436 0.000000 -1.570796 0.287833
    12 1.645461 3.130692 15.347058 -1.570797 1.282964 -1.570797
    13 -1.061229 0.200707 -0.378920 0.000000 0.000000 0.000000
    14 -4.349673 0.059656 0.000000 0.000000 0.000000 0.000000
    15 -4.230510 -0.536228 0.000000 0.000000 0.000000 0.000000
    16 -3.694255 -0.655429 0.000000 0.000000 0.000000 0.000000
    17 13.641458 7.020348 16.879305 -0.287833 0.000000 0.000000
    18 4.472665 2.448845 0.720848 2.283268 -0.705690 -0.274834
    19 15.242571 6.789905 0.000000 -0.490313 -0.652930 -0.249747
    20 8.366559 3.675034 14.276474 -0.225814 0.287796 0.110390
    21 -15.633809 7.069125 16.813112 -0.287833 0.000000 0.000000
    22 -6.249312 1.413335 0.936005 1.133377 0.512113 0.311387
    23 -13.856888 6.374216 0.000000 0.078133 -0.215830 -0.124813
    24 -5.687840 2.494701 12.855103 0.422549 -0.198755 0.032467
  time 36
    0 5.807106 1.410199 -495.482777 1.570796 0.000000 1.545389
    1 6.265787 -2.137183 0.000000 0.001917 -0.000077 0.078418
    2 -1.211985 121.072578 2.116671 -0.000861 0.000000 -0.034797
    3 -2.423956 108.889275 3.327682 -0.000875 -0.000060 -0.087205
    4 -8.483835 103.017944 0.000000 0.055321 0.007583 -0.088377
    5 -7.271858 79.990417 0.000000 0.002373 -0.011711 -0.078161
    6 -6.059879 73.930542 0.000000 -0.009805 0.000629 0.180128
    7 -7.271858 77.566437 0.000000 -0.055153 0.026546 0.398530
    8 -7.271864 68.661316 0.902174 0.167104 0.054808 0.892735
    9 -10.228978 63.176211 -0.324228 0.305644 0.028910 0.125228
    10 -4.847914 27.875425 0.000000 0.000000 0.000000 0.000000
    11 -10.884169 43.721066 -0.263436 0.000000 -1.570796 0.287833
    12 1.645461 3.130692 15.347058 -1.570797 1.282964 -1.570797
    13 -1.061229 0.200707 -0.378920 0.000000 0.000000 0.000000
    14 -4.349673 0.059656 0.000000 0.000000 0.000000 0.000000
    15 -4.230510 -0.536228 0.000000 0.000000 0.000000 0.000000
    16 -3.694255 -0.655429 0.000000 0.000000 0.000000 0.000000
    17 13.641458 7.020348 16.879305 -0.287833 0.000000 0.000000
    18 4.472665 2.448845 0.720848 2.734624 -0.779066 -0.676464
    19 15.242571 6.789905 0.000000 -0.485030 -0.662374 -0.256293
    20 8.366559 3.675034 14.276474 -0.223297 0.283640 0.110714
    21 -15.633809 7.069125 16.813112 -0.287833 0.000000 0.000000
    22 -6.249312 1.413335 0.936005 1.203983 0.252324 0.465653
    23 -13.856888 6.374216 0.000000 0.083050 -0.212695 -0.128972
    24 -5.687840 2.494701 12.855103 0.427323 -0.196134 0.030014
  time 37
    0 5.807106 1.410199 -495.482777 1.570796 0.000000 1.545389
    1 6.265787 -2.137183 0.000000 0.001917 -0.000077 0.078418
    2 -1.211985 121.072578 2.116671 -0.000861 0.000000 -0.034797
    3 -2.423956 108.889275 3.327682 -0.000875 -0.000060 -0.087205
    4 -8.483835 103.017944 0.000000 0.055321 0.007583 -0.088377
    5 -7.271858 79.990417 0.000000 0.001834 -0.011626 -0.074395
    6 -6.059879 73.930542 0.000000 -0.009041 0.001668 0.201463
    7 -7.271858 77.566437 0.000000 -0.054170 0.025667 0.422303
    8 -7.271864 68.661316 0.902174 0.159937 0.050037 0.921199
    9 -10.228978 63.176211 -0.324228 0.293125 0.033814 0.009008
    10 -4.847914 27.875425 0.000000 0.000000 0.000000 0.000000
    11 -10.884169 43.721066 -0.263436 0.000000 -1.570796 0.287833
    12 1.645461 3.130692 15.347058 -1.570797 1.282964 -1.570797
    13 -1.061229 0.200707 -0.378920 0.000000 0.000000 0.000000
    14 -4.349673 0.059656 0.000000 0.000000 0.000000 0.000000
    15 -4.230510 -0.536228 0.000000 0.000000 0.000000 0.000000
    16 -3.694255 -0.655429 0.000000 0.000000 0.000000 0.000000
    17 13.641458 7.020348 16.879305 -0.287833 0.000000 0.000000
    18 4.472665 2.448845 0.720848 2.793239 -0.868717 -0.748672
    19 15.242571 6.789905 0.000000 -0.564356 -0.596878 -0.221460
    20 8.366559 3.675034 14.276474 -0.220528 0.279169 0.110857
    21 -15.633809 7.069125 16.813112 -0.287833 0.000000 0.000000
    22 -6.249312 1.413335 0.936005 1.130643 0.191849 0.488693
    23 -13.856888 6.374216 0.000000 0.006223 -0.234400 -0.130167
    24 -5.687840 2.494701 12.855103 0.390430 -0.207699 0.029837
  time 38
    0 5.807106 1.410199 -495.482777 1.570796 0.000000 1.545389
    1 6.265787 -2.137183 0.000000 0.001917 -0.000077 0.078418
    2 -1.211985 121.072578 2.116671 -0.000861 0.000000 -0.034797
    3 -2.423956 108.889275 3.327682 -0.000875 -0.000060 -0.087205
    4 -8.483835 103.017944 0.000000 0.055321 0.007583 -0.088377
    5 -7.271858 79.990417 0.000000 0.001019 -0.011605 -0.070500
    6 -6.059879 73.930542 0.000000 -0.008295 0.002625 0.221499
    7 -7.271858 77.566437 0.000000 -0.053571 0.024039 0.443928
    8 -7.271864 68.661316 0.902174 0.146559 0.043563 0.947111
    9 -10.228978 63.176211 -0.324228 0.260460 0.026271 -0.102775
    10 -4.847914 27.875425 0.000000 0.000000 0.000000 0.000000
    11 -10.884169 43.721066 -0.263436 0.000000 -1.570796 0.287833
    12 1.645461 3.130692 15.347058 -1.570797 1.282964 -1.570797
    13 -1.061229 0.200707 -0.378920 0.000000 0.000000 0.000000
    14 -4.349673 0.059656 0.000000 0.000000 0.000000 0.000000
    15 -4.230510 -0.536228 0.000000 0.000000 0.000000 0.000000
    16 -3.694255 -0.655429 0.000000 0.000000 0.000000 0.000000
    17 13.641458 7.020348 16.879305 -0.287833 0.000000 0.000000
    18 4.472665 2.448845 0.720848 2.655625 -1.011354 -0.650359
    19 15.242571 6.789905 0.000000 -0.725700 -0.427710 -0.160923
    20 8.366559 3.675034 14.276474 -0.217520 0.274440 0.110810
    21 -15.633809 7.069125 16.813112 -0.287833 0.000000 0.000000
    22 -6.249312 1.413335 0.936005 0.999423 0.203732 0.468013
    23 -13.856888 6.374216 0.000000 -0.171785 -0.288680 -0.126955
    24 -5.687840 2.494701 12.855103 0.299876 -0.236090 0.036688
  time 39
    0 5.807106 1.410199 -495.482777 1.570796 0.000000 1.545389
    1 6.265787 -2.137183 0.000000 0.001917 -0.000077 0.078418
    2 -1.211985 121.072578 2.116671 -0.000861 0.000000 -0.034797
    3 -2.423956 108.889275 3.327682 -0.000875 -0.000060 -0.087205
    4 -8.483835 103.017944 0.000000 0.055321 0.007583 -0.088377
    5 -7.271858 79.990417 0.000000 0.000024 -0.011605 -0.066508
    6 -6.059879 73.930542 0.000000 -0.007567 0.003527 0.240496
    7 -7.271858 77.566437 0.000000 -0.053319 0.021826 0.463820
    8 -7.271864 68.661316 0.902174 0.130544 0.037089 0.964374
    9 -10.228978 63.176211 -0.324228 0.219964 0.010956 -0.192588
    10 -4.847914 27.875425 0.000000 0.000000 0.000000 0.000000
    11 -10.884169 43.721066 -0.263436 0.000000 -1.570796 0.287833
    12 1.645461 3.130692 15.347058 -1.570797 1.282964 -1.570797
    13 -1.061229 0.200707 -0.378920 0.000000 0.000000 0.000000
    14 -4.349673 0.059656 0.000000 0.000000 0.000000 0.000000
    15 -4.230510 -0.536228 0.000000 0.000000 0.000000 0.000000
    16 -3.694255 -0.655429 0.000000 0.000000 0.000000 0.000000
    17 13.641458 7.020348 16.879305 -0.287833 0.000000 0.000000
    18 4.472665 2.448845 0.720848 2.287965 -1.125053 -0.337799
    19 15.242571 6.789905 0.000000 -0.874781 -0.229969 -0.124726
    20 8.366559 3.675034 14.276474 -0.214284 0.269434 0.110558
    21 -15.633809 7.069125 16.813112 -0.287833 0.000000 0.000000
    22 -6.249312 1.413335 0.936005 0.869711 0.253781 0.409759
    23 -13.856888 6.374216 0.000000 -0.363008 -0.352540 -0.124414
    24 -5.687840 2.494701 12.855103 0.197418 -0.265177 0.052491
  time 40
    0 5.807106 1.410199 -495.482777 1.570796 0.000000 1.545389
    1 6.265787 -2.137183 0.000000 0.001917 -0.000077 0.078418
    2 -1.211985 121.072578 2.116671 -0.000861 0.000000 -0.034797
    3 -2.423956 108.889275 3.327682 -0.000875 -0.000060 -0.087205
    4 -8.483835 103.017944 0.000000 0.055321 0.007583 -0.088377
    5 -7.271858 79.990417 0.000000 -0.001043 -0.011626 -0.062484
    6 -6.059879 73.930542 0.000000 -0.006858 0.004402 0.258778
    7 -7.271858 77.566437 0.000000 -0.053319 0.019205 0.482464
    8 -7.271864 68.661316 0.902174 0.115592 0.031853 0.966926
    9 -10.228978 63.176211 -0.324228 0.182205 -0.003356 -0.243558
    10 -4.847914 27.875425 0.000000 0.000000 0.000000 0.000000
    11 -10.884169 43.721066 -0.263436 0.000000 -1.570796 0.287833
    12 1.645461 3.130692 15.347058 -1.570797 1.282964 -1.570797
    13 -1.061229 0.200707 -0.378920 0.000000 0.000000 0.000000
    14 -4.349673 0.059656 0.000000 0.000000 0.000000 0.000000
    15 -4.230510 -0.536228 0.000000 0.000000 0.000000 0.000000
    16 -3.694255 -0.655429 0.000000 0.000000 0.000000 0.000000
    17 13.641458 7.020348 16.879305 -0.287833 0.000000 0.000000
    18 4.472665 2.448845 0.720848 1.835858 -1.127064 0.050859
    19 15.242571 6.789905 0.000000 -0.955271 -0.090040 -0.105517
    20 8.366559 3.675034 14.276474 -0.210833 0.264206 0.110102
    21 -15.633809 7.069125 16.813112 -0.287833 0.000000 0.000000
    22 -6.249312 1.413335 0.936005 0.800519 0.314168 0.330764
    23 -13.856888 6.374216 0.000000 -0.473178 -0.407134 -0.144461
    24 -5.687840 2.494701 12.855103 0.126327 -0.279657 0.074084
  time 41
    0 5.807106 1.410199 -495.482777 1.570796 0.000000 1.545389
    1 6.265787 -2.137183 0.000000 0.001917 -0.000077 0.078418
    2 -1.211985 121.072578 2.116671 -0.000861 0.000000 -0.034797
    3 -2.423956 108.889275 3.327682 -0.000875 -0.000060 -0.087205
    4 -8.483835 103.017944 0.000000 0.055321 0.007583 -0.088377
    5 -7.271858 79.990417 0.000000 -0.002133 -0.011626 -0.058460
    6 -6.059879 73.930542 0.000000 -0.006148 0.005222 0.276573
    7 -7.271858 77.566437 0.000000 -0.053511 0.016325 0.500311
    8 -7.271864 68.661316 0.902174 0.101343 0.027572 0.950443
    9 -10.228978 63.176211 -0.324228 0.143940 -0.014570 -0.245184
    10 -4.847914 27.875425 0.000000 0.000000 0.000000 0.000000
    11 -10.884169 43.721066 -0.263436 0.000000 -1.570796 0.287833
    12 1.645461 3.130692 15.347058 -1.570797 1.282964 -1.570797
    13 -1.061229 0.200707 -0.378920 0.000000 0.000000 0.000000
    14 -4.349673 0.059656 0.000000 0.000000 0.000000 0.000000
    15 -4.230510 -0.536228 0.000000 0.000000 0.000000 0.000000
    16 -3.694255 -0.655429 0.000000 0.000000 0.000000 0.000000
    17 13.641458 7.020348 16.879305 -0.287833 0.000000 0.000000
    18 4.472665 2.448845 0.720848 1.518265 -1.032659 0.295480
    19 15.242571 6.789905 0.000000 -0.962416 -0.026972 -0.079203
    20 8.366559 3.675034 14.276474 -0.193983 0.241059 0.103499
    21 -15.633809 7.069125 16.813112 -0.287833 0.000000 0.000000
    22 -6.249312 1.413335 0.936005 0.803629 0.388866 0.237360
    23 -13.856888 6.374216 0.000000 -0.477134 -0.450021 -0.203282
    24 -5.687840 2.494701 12.855103 0.096270 -0.277256 0.098727
  time 42
    0 5.807106 1.410199 -495.482777 1.570796 0.000000 1.545389
    1 6.265787 -2.137183 0.000000 0.001917 -0.000077 0.078418
    2 -1.211985 121.072578 2.116671 -0.000861 0.000000 -0.034797
    3 -2.423956 108.889275 3.327682 -0.000875 -0.000060 -0.087205
    4 -8.483835 103.017944 0.000000 0.055321 0.007583 -0.088377
    5 -7.271858 79.990417 0.000000 -0.003128 -0.011605 -0.054468
    6 -6.059879 73.930542 0.000000 -0.005421 0.006015 0.294206
    7 -7.271858 77.566437 0.000000 -0.053799 0.013362 0.517881
    8 -7.271864 68.661316 0.902174 0.085477 0.022826 0.919037
    9 -10.228978 63.176211 -0.324228 0.097565 -0.025726 -0.208187
    10 -4.847914 27.875425 0.000000 0.000000 0.000000 0.000000
    11 -10.884169 43.721066 -0.263436 0.000000 -1.570796 0.287833
    12 1.645461 3.130692 15.347058 -1.570797 1.282964 -1.570797
    13 -1.061229 0.200707 -0.378920 0.000000 0.000000 0.000000
    14 -4.349673 0.059656 0.000000 0.000000 0.000000 0.000000
    15 -4.230510 -0.536228 0.000000 0.000000 0.000000 0.000000
    16 -3.694255 -0.655429 0.000000 0.000000 0.000000 0.000000
    17 13.641458 7.020348 16.879305 -0.287833 0.000000 0.000000
    18 4.472665 2.448845 0.720848 1.305503 -0.878272 0.421033
    19 15.242571 6.789905 0.000000 -0.936228 0.005656 -0.042809
    20 8.366559 3.675034 14.276474 -0.156171 0.190663 0.086289
    21 -15.633809 7.069125 16.813112 -0.287833 0.000000 0.000000
    22 -6.249312 1.413335 0.936005 0.834172 0.489849 0.123400
    23 -13.856888 6.374216 0.000000 -0.428157 -0.487961 -0.289844
    24 -5.687840 2.494701 12.855103 0.082701 -0.267102 0.126707
  time 43
    0 5.807106 1.410199 -495.482777 1.570796 0.000000 1.545389
    1 6.265787 -2.137183 0.000000 0.001917 -0.000077 0.078418
    2 -1.211985 121.072578 2.116671 -0.000861 0.000000 -0.034797
    3 -2.423956 108.889275 3.327682 -0.000875 -0.000060 -0.087205
    4 -8.483835 103.017944 0.000000 0.055321 0.007583 -0.088377
    5 -7.271858 79.990417 0.000000 -0.003931 -0.011563 -0.050541
    6 -6.059879 73.930542 0.000000 -0.004693 0.006808 0.311936
    7 -7.271858 77.566437 0.000000 -0.054122 0.010433 0.535590
    8 -7.271864 68.661316 0.902174 0.068866 0.017384 0.879123
    9 -10.228978 63.176211 -0.324228 0.046071 -0.034301 -0.148824
    10 -4.847914 27.875425 0.000000 0.000000 0.000000 0.000000
    11 -10.884169 43.721066 -0.263436 0.000000 -1.570796 0.287833
    12 1.645461 3.130692 15.347058 -1.570797 1.282964 -1.570797
    13 -1.061229 0.200707 -0.378920 0.000000 0.000000 0.000000
    14 -4.349673 0.059656 0.000000 0.000000 0.000000 0.000000
    15 -4.230510 -0.536228 0.000000 0.000000 0.000000 0.000000
    16 -3.694255 -0.655429 0.000000 0.000000 0.000000 0.000000
    17 13.641458 7.020348 16.879305 -0.287833 0.000000 0.000000
    18 4.472665 2.448845 0.720848 1.159341 -0.695358 0.467244
    19 15.242571 6.789905 0.000000 -0.891165 0.019209 0.000000
    20 8.366559 3.675034 14.276474 -0.105572 0.125656 0.060666
    21 -15.633809 7.069125 16.813112 -0.287833 0.000000 0.000000
    22 -6.249312 1.413335 0.936005 0.872162 0.609694 -0.002733
    23 -13.856888 6.374216 0.000000 -0.345760 -0.516808 -0.395581
    24 -5.687840 2.494701 12.855103 0.078899 -0.252695 0.156456
  time 44
    0 5.807106 1.410199 -495.482777 1.570796 0.000000 1.545389
    1 6.265787 -2.137183 0.000000 0.001917 -0.000077 0.078418
    2 -1.211985 121.072578 2.116671 -0.000861 0.000000 -0.034797
    3 -2.423956 108.889275 3.327682 -0.000875 -0.000060 -0.087205
    4 -8.483835 103.017944 0.000000 0.055321 0.007583 -0.088377
    5 -7.271858 79.990417 0.000000 -0.004470 -0.011457 -0.046774
    6 -6.059879 73.930542 0.000000 -0.003929 0.007601 0.330024
    7 -7.271858 77.566437 0.000000 -0.054374 0.007731 0.553922
    8 -7.271864 68.661316 0.902174 0.052235 0.011220 0.837154
    9 -10.228978 63.176211 -0.324228 -0.006944 -0.039407 -0.083617
    10 -4.847914 27.875425 0.000000 0.000000 0.000000 0.000000
    11 -10.884169 43.721066 -0.263436 0.000000 -1.570796 0.287833
    12 1.645461 3.130692 15.347058 -1.570797 1.282964 -1.570797
    13 -1.061229 0.200707 -0.378920 0.000000 0.000000 0.000000
    14 -4.349673 0.059656 0.000000 0.000000 0.000000 0.000000
    15 -4.230510 -0.536228 0.000000 0.000000 0.000000 0.000000
    16 -3.694255 -0.655429 0.000000 0.000000 0.000000 0.000000
    17 13.641458 7.020348 16.879305 -0.287833 0.000000 0.000000
    18 4.472665 2.448845 0.720848 1.042110 -0.505449 0.473406
    19 15.242571 6.789905 0.000000 -0.841250 0.026145 0.044618
    20 8.366559 3.675034 14.276474 -0.050479 0.058302 0.030057
    21 -15.633809 7.069125 16.813112 -0.287833 0.000000 0.000000
    22 -6.249312 1.413335 0.936005 0.898180 0.737004 -0.137559
    23 -13.856888 6.374216 0.000000 -0.251916 -0.535900 -0.509038
    24 -5.687840 2.494701 12.855103 0.077942 -0.237263 0.186558
  time 45
    0 5.807106 1.410199 -495.482777 1.570796 0.000000 1.545389
    1 6.265787 -2.137183 0.000000 0.001917 -0.000077 0.078418
    2 -1.211985 121.072578 2.116671 -0.000861 0.000000 -0.034797
    3 -2.423956 108.889275 3.327682 -0.000875 -0.000060 -0.087205
    4 -8.483835 103.017944 0.000000 0.055321 0.007583 -0.088377
    5 -7.271858 79.990417 0.000000 -0.004626 -0.011288 -0.043201
    6 -6.059879 73.930542 0.000000 -0.003111 0.008421 0.348761
    7 -7.271858 77.566437 0.000000 -0.054494 0.005371 0.573329
    8 -7.271864 68.661316 0.902174 0.036326 0.004565 0.799580
    9 -10.228978 63.176211 -0.324228 -0.057905 -0.042217 -0.029132
    10 -4.847914 27.875425 0.000000 0.000000 0.000000 0.000000
    11 -10.884169 43.721066 -0.263436 0.000000 -1.570796 0.287833
    12 1.645461 3.130692 15.347058 -1.570797 1.282964 -1.570797
    13 -1.061229 0.200707 -0.378920 0.000000 0.000000 0.000000
    14 -4.349673 0.059656 0.000000 0.000000 0.000000 0.000000
    15 -4.230510 -0.536228 0.000000 0.000000 0.000000 0.000000
    16 -3.694255 -0.655429 0.000000 0.000000 0.000000 0.000000
    17 13.641458 7.020348 16.879305 -0.287833 0.000000 0.000000
    18 4.472665 2.448845 0.720848 0.932864 -0.324546 0.463191
    19 15.242571 6.789905 0.000000 -0.799476 0.040391 0.087229
    20 8.366559 3.675034 14.276474 0.000000 0.000000 0.000000
    21 -15.633809 7.069125 16.813112 -0.287833 0.000000 0.000000
    22 -6.249312 1.413335 0.936005 0.892618 0.856716 -0.282261
    23 -13.856888 6.374216 0.000000 -0.169365 -0.550185 -0.617689
    24 -5.687840 2.494701 12.855103 0.072682 -0.223608 0.215467
end
