// Created by Crowbar 0.42.0.0
version 1
nodes
  0 "Dummy01" -1
  1 "Bone01" 0
  2 "Bone02" 1
  3 "Bone03" 2
  4 "Bone04" 3
  5 "Bone05" 4
  6 "Bone06" 5
  7 "Bone07" 6
  8 "Bone08" 7
  9 "Bone09" 8
  10 "Bone10" 9
  11 "Dummy04" 10
  12 "Dummy05" 11
  13 "Bone19" 12
  14 "Bone20" 13
  15 "Bone21" 14
  16 "Bone22" 15
  17 "Dummy03" 11
  18 "Bone11" 17
  19 "Bone12" 18
  20 "Bone13" 19
  21 "Dummy02" 11
  22 "Bone15" 21
  23 "Bone16" 22
  24 "Bone17" 23
end
skeleton
  time 0
    0 5.807106 1.410199 -495.482777 1.570796 0.000000 1.545389
    1 6.265787 -0.443338 0.000000 0.001917 -0.000077 0.078418
    2 -1.211985 121.072578 2.116671 -0.000861 0.000000 -0.034797
    3 -2.423956 108.889275 3.327682 -0.000875 -0.000060 -0.087205
    4 -8.483835 103.017944 0.000000 0.054446 0.007444 -0.123263
    5 -7.271858 79.990417 0.000000 -0.038806 -0.020420 -0.059104
    6 -6.059879 73.930542 0.000000 0.007767 -0.010171 -0.358243
    7 -7.271858 77.566437 0.000000 -0.080441 -0.002165 0.207859
    8 -7.271864 68.661316 0.902174 0.077352 0.039797 0.260075
    9 -10.228978 63.176211 -0.324228 -0.014090 -0.004302 1.164361
    10 -4.847914 27.875425 0.000000 0.000000 0.000000 0.000000
    11 -10.884169 43.721066 -0.263436 0.000000 -1.570796 0.287833
    12 1.645461 3.130692 15.347058 -1.570797 1.282964 -1.570797
    13 -1.061229 0.200707 -0.378920 0.000000 0.000000 0.000000
    14 -4.349673 0.059656 0.000000 0.000000 0.000000 0.000000
    15 -4.230510 -0.536228 0.000000 0.000000 0.000000 0.000000
    16 -3.694255 -0.655429 0.000000 0.000000 0.000000 0.000000
    17 13.641458 7.020348 16.879305 -0.287833 0.000000 0.000000
    18 4.472665 2.448845 0.720848 0.897639 -0.313482 0.464488
    19 15.242571 6.789905 0.000000 -0.313416 -0.316834 0.102030
    20 8.366559 3.675034 14.276474 0.329301 -0.189518 -0.137116
    21 -15.633809 7.069125 16.813112 -0.287833 0.000000 0.000000
    22 -6.249312 1.413335 0.936005 0.526955 0.759268 -0.553467
    23 -13.856888 6.374216 0.000000 -0.037107 0.168065 -0.467276
    24 -5.687840 2.494701 12.855103 0.314787 0.232571 0.381934
  time 1
    0 5.807106 1.410199 -495.482777 1.570796 0.000000 1.545389
    1 6.265787 -0.443338 0.000000 0.001917 -0.000077 0.078418
    2 -1.211985 121.072578 2.116671 -0.000861 0.000000 -0.034797
    3 -2.423956 108.889275 3.327682 -0.000875 -0.000060 -0.087205
    4 -8.483835 103.017944 0.000000 0.054446 0.007444 -0.123263
    5 -7.271858 79.990417 0.000000 -0.038830 -0.020547 -0.060939
    6 -6.059879 73.930542 0.000000 0.007695 -0.010253 -0.361328
    7 -7.271858 77.566437 0.000000 -0.080644 -0.002327 0.202904
    8 -7.271864 68.661316 0.902174 0.077522 0.039462 0.265605
    9 -10.228978 63.176211 -0.324228 -0.014014 -0.004216 1.169282
    10 -4.847914 27.875425 0.000000 0.000000 0.000000 0.000000
    11 -10.884169 43.721066 -0.263436 0.000000 -1.570796 0.287833
    12 1.645461 3.130692 15.347058 -1.570797 1.282964 -1.570797
    13 -1.061229 0.200707 -0.378920 0.000000 0.000000 0.000000
    14 -4.349673 0.059656 0.000000 0.000000 0.000000 0.000000
    15 -4.230510 -0.536228 0.000000 0.000000 0.000000 0.000000
    16 -3.694255 -0.655429 0.000000 0.000000 0.000000 0.000000
    17 13.641458 7.020348 16.879305 -0.287833 0.000000 0.000000
    18 4.472665 2.448845 0.720848 0.750819 -0.239009 0.507456
    19 15.242571 6.789905 0.000000 -0.428567 -0.233090 0.109875
    20 8.366559 3.675034 14.276474 0.208520 -0.127466 -0.080908
    21 -15.633809 7.069125 16.813112 -0.287833 0.000000 0.000000
    22 -6.249312 1.413335 0.936005 0.961056 0.885385 -0.238167
    23 -13.856888 6.374216 0.000000 -0.021704 0.228895 -0.449471
    24 -5.687840 2.494701 12.855103 0.377891 0.320914 0.432790
  time 2
    0 5.807106 1.410199 -495.482777 1.570796 0.000000 1.545389
    1 6.265787 -0.443338 0.000000 0.001917 -0.000077 0.078418
    2 -1.211985 121.072578 2.116671 -0.000861 0.000000 -0.034797
    3 -2.423956 108.889275 3.327682 -0.000875 -0.000060 -0.087205
    4 -8.483835 103.017944 0.000000 0.054446 0.007444 -0.123263
    5 -7.271858 79.990417 0.000000 -0.038866 -0.020652 -0.062967
    6 -6.059879 73.930542 0.000000 0.007604 -0.010362 -0.364705
    7 -7.271858 77.566437 0.000000 -0.080872 -0.002490 0.197498
    8 -7.271864 68.661316 0.902174 0.077714 0.039101 0.271737
    9 -10.228978 63.176211 -0.324228 -0.013963 -0.004130 1.174731
    10 -4.847914 27.875425 0.000000 0.000000 0.000000 0.000000
    11 -10.884169 43.721066 -0.263436 0.000000 -1.570796 0.287833
    12 1.645461 3.130692 15.347058 -1.570797 1.282964 -1.570797
    13 -1.061229 0.200707 -0.378920 0.000000 0.000000 0.000000
    14 -4.349673 0.059656 0.000000 0.000000 0.000000 0.000000
    15 -4.230510 -0.536228 0.000000 0.000000 0.000000 0.000000
    16 -3.694255 -0.655429 0.000000 0.000000 0.000000 0.000000
    17 13.641458 7.020348 16.879305 -0.287833 0.000000 0.000000
    18 4.472665 2.448845 0.720848 0.609542 -0.159370 0.538317
    19 15.242571 6.789905 0.000000 -0.541226 -0.149053 0.107836
    20 8.366559 3.675034 14.276474 0.092126 -0.059281 -0.032934
    21 -15.633809 7.069125 16.813112 -0.287833 0.000000 0.000000
    22 -6.249312 1.413335 0.936005 1.472551 0.899124 0.157743
    23 -13.856888 6.374216 0.000000 -0.004917 0.289446 -0.430370
    24 -5.687840 2.494701 12.855103 0.447892 0.405812 0.491314
  time 3
    0 5.807106 1.410199 -495.482777 1.570796 0.000000 1.545389
    1 6.265787 -0.443338 0.000000 0.001917 -0.000077 0.078418
    2 -1.211985 121.072578 2.116671 -0.000861 0.000000 -0.034797
    3 -2.423956 108.889275 3.327682 -0.000875 -0.000060 -0.087205
    4 -8.483835 103.017944 0.000000 0.054446 0.007444 -0.123263
    5 -7.271858 79.990417 0.000000 -0.038890 -0.020800 -0.065156
    6 -6.059879 73.930542 0.000000 0.007513 -0.010472 -0.368342
    7 -7.271858 77.566437 0.000000 -0.081124 -0.002686 0.191676
    8 -7.271864 68.661316 0.902174 0.077905 0.038714 0.278260
    9 -10.228978 63.176211 -0.324228 -0.013862 -0.004044 1.180531
    10 -4.847914 27.875425 0.000000 0.000000 0.000000 0.000000
    11 -10.884169 43.721066 -0.263436 0.000000 -1.570796 0.287833
    12 1.645461 3.130692 15.347058 -1.570797 1.282964 -1.570797
    13 -1.061229 0.200707 -0.378920 0.000000 0.000000 0.000000
    14 -4.349673 0.059656 0.000000 0.000000 0.000000 0.000000
    15 -4.230510 -0.536228 0.000000 0.000000 0.000000 0.000000
    16 -3.694255 -0.655429 0.000000 0.000000 0.000000 0.000000
    17 13.641458 7.020348 16.879305 -0.287833 0.000000 0.000000
    18 4.472665 2.448845 0.720848 0.606630 -0.157678 0.538858
    19 15.242571 6.789905 0.000000 -0.594564 -0.109142 0.103510
    20 8.366559 3.675034 14.276474 0.028068 -0.018529 -0.009528
    21 -15.633809 7.069125 16.813112 -0.287833 0.000000 0.000000
    22 -6.249312 1.413335 0.936005 1.683710 0.866744 0.318654
    23 -13.856888 6.374216 0.000000 -0.006722 0.283175 -0.432412
    24 -5.687840 2.494701 12.855103 0.443575 0.400955 0.487668
  time 4
    0 5.807106 1.410199 -495.482777 1.570796 0.000000 1.545389
    1 6.265787 -0.443338 0.000000 0.001917 -0.000077 0.078418
    2 -1.211985 121.072578 2.116671 -0.000861 0.000000 -0.034797
    3 -2.423956 108.889275 3.327682 -0.000875 -0.000060 -0.087205
    4 -8.483835 103.017944 0.000000 0.054446 0.007444 -0.123263
    5 -7.271858 79.990417 0.000000 -0.038926 -0.020927 -0.067409
    6 -6.059879 73.930542 0.000000 0.007422 -0.010608 -0.372109
    7 -7.271858 77.566437 0.000000 -0.081375 -0.002881 0.185646
    8 -7.271864 68.661316 0.902174 0.078097 0.038301 0.285066
    9 -10.228978 63.176211 -0.324228 -0.013786 -0.003958 1.186595
    10 -4.847914 27.875425 0.000000 0.000000 0.000000 0.000000
    11 -10.884169 43.721066 -0.263436 0.000000 -1.570796 0.287833
    12 1.645461 3.130692 15.347058 -1.570797 1.282964 -1.570797
    13 -1.061229 0.200707 -0.378920 0.000000 0.000000 0.000000
    14 -4.349673 0.059656 0.000000 0.000000 0.000000 0.000000
    15 -4.230510 -0.536228 0.000000 0.000000 0.000000 0.000000
    16 -3.694255 -0.655429 0.000000 0.000000 0.000000 0.000000
    17 13.641458 7.020348 16.879305 -0.287833 0.000000 0.000000
    18 4.472665 2.448845 0.720848 0.776557 -0.252770 0.500700
    19 15.242571 6.789905 0.000000 -0.575788 -0.123201 0.105287
    20 8.366559 3.675034 14.276474 0.021752 -0.014391 -0.007335
    21 -15.633809 7.069125 16.813112 -0.287833 0.000000 0.000000
    22 -6.249312 1.413335 0.936005 1.558994 0.888787 0.224132
    23 -13.856888 6.374216 0.000000 -0.030961 0.192941 -0.460129
    24 -5.687840 2.494701 12.855103 0.349735 0.282956 0.409849
  time 5
    0 5.807106 1.410199 -495.482777 1.570796 0.000000 1.545389
    1 6.265787 -0.443338 0.000000 0.001917 -0.000077 0.078418
    2 -1.211985 121.072578 2.116671 -0.000861 0.000000 -0.034797
    3 -2.423956 108.889275 3.327682 -0.000875 -0.000060 -0.087205
    4 -8.483835 103.017944 0.000000 0.054446 0.007444 -0.123263
    5 -7.271858 79.990417 0.000000 -0.038950 -0.021075 -0.069727
    6 -6.059879 73.930542 0.000000 0.007331 -0.010718 -0.375973
    7 -7.271858 77.566437 0.000000 -0.081627 -0.003076 0.179477
    8 -7.271864 68.661316 0.902174 0.078309 0.037889 0.292013
    9 -10.228978 63.176211 -0.324228 -0.013710 -0.003843 1.192746
    10 -4.847914 27.875425 0.000000 0.000000 0.000000 0.000000
    11 -10.884169 43.721066 -0.263436 0.000000 -1.570796 0.287833
    12 1.645461 3.130692 15.347058 -1.570797 1.282964 -1.570797
    13 -1.061229 0.200707 -0.378920 0.000000 0.000000 0.000000
    14 -4.349673 0.059656 0.000000 0.000000 0.000000 0.000000
    15 -4.230510 -0.536228 0.000000 0.000000 0.000000 0.000000
    16 -3.694255 -0.655429 0.000000 0.000000 0.000000 0.000000
    17 13.641458 7.020348 16.879305 -0.287833 0.000000 0.000000
    18 4.472665 2.448845 0.720848 1.045586 -0.378492 0.411467
    19 15.242571 6.789905 0.000000 -0.522981 -0.162712 0.108822
    20 8.366559 3.675034 14.276474 0.039993 -0.026269 -0.013710
    21 -15.633809 7.069125 16.813112 -0.287833 0.000000 0.000000
    22 -6.249312 1.413335 0.936005 1.265068 0.908886 -0.003167
    23 -13.856888 6.374216 0.000000 -0.061193 0.061213 -0.495865
    24 -5.687840 2.494701 12.855103 0.233766 0.100862 0.320095
  time 6
    0 5.807106 1.410199 -495.482777 1.570796 0.000000 1.545389
    1 6.265787 -0.443338 0.000000 0.001917 -0.000077 0.078418
    2 -1.211985 121.072578 2.116671 -0.000861 0.000000 -0.034797
    3 -2.423956 108.889275 3.327682 -0.000875 -0.000060 -0.087205
    4 -8.483835 103.017944 0.000000 0.054446 0.007444 -0.123263
    5 -7.271858 79.990417 0.000000 -0.038986 -0.021202 -0.072045
    6 -6.059879 73.930542 0.000000 0.007240 -0.010855 -0.379837
    7 -7.271858 77.566437 0.000000 -0.081891 -0.003288 0.173274
    8 -7.271864 68.661316 0.902174 0.078501 0.037476 0.298961
    9 -10.228978 63.176211 -0.324228 -0.013608 -0.003757 1.198942
    10 -4.847914 27.875425 0.000000 0.000000 0.000000 0.000000
    11 -10.884169 43.721066 -0.263436 0.000000 -1.570796 0.287833
    12 1.645461 3.130692 15.347058 -1.570797 1.282964 -1.570797
    13 -1.061229 0.200707 -0.378920 0.000000 0.000000 0.000000
    14 -4.349673 0.059656 0.000000 0.000000 0.000000 0.000000
    15 -4.230510 -0.536228 0.000000 0.000000 0.000000 0.000000
    16 -3.694255 -0.655429 0.000000 0.000000 0.000000 0.000000
    17 13.641458 7.020348 16.879305 -0.287833 0.000000 0.000000
    18 4.472665 2.448845 0.720848 1.382341 -0.486247 0.263213
    19 15.242571 6.789905 0.000000 -0.455187 -0.213375 0.110270
    20 8.366559 3.675034 14.276474 0.070685 -0.045888 -0.024856
    21 -15.633809 7.069125 16.813112 -0.287833 0.000000 0.000000
    22 -6.249312 1.413335 0.936005 0.902893 0.875446 -0.282323
    23 -13.856888 6.374216 0.000000 -0.089696 -0.088492 -0.531451
    24 -5.687840 2.494701 12.855103 0.122393 -0.115213 0.244375
  time 7
    0 5.807106 1.410199 -495.482777 1.570796 0.000000 1.545389
    1 6.265787 -0.443338 0.000000 0.001917 -0.000077 0.078418
    2 -1.211985 121.072578 2.116671 -0.000861 0.000000 -0.034797
    3 -2.423956 108.889275 3.327682 -0.000875 -0.000060 -0.087205
    4 -8.483835 103.017944 0.000000 0.054446 0.007444 -0.123263
    5 -7.271858 79.990417 0.000000 -0.039010 -0.021350 -0.074330
    6 -6.059879 73.930542 0.000000 0.007149 -0.010964 -0.383604
    7 -7.271858 77.566437 0.000000 -0.082130 -0.003483 0.167244
    8 -7.271864 68.661316 0.902174 0.078692 0.037063 0.305767
    9 -10.228978 63.176211 -0.324228 -0.013532 -0.003671 1.205005
    10 -4.847914 27.875425 0.000000 0.000000 0.000000 0.000000
    11 -10.884169 43.721066 -0.263436 0.000000 -1.570796 0.287833
    12 1.645461 3.130692 15.347058 -1.570797 1.282964 -1.570797
    13 -1.061229 0.200707 -0.378920 0.000000 0.000000 0.000000
    14 -4.349673 0.059656 0.000000 0.000000 0.000000 0.000000
    15 -4.230510 -0.536228 0.000000 0.000000 0.000000 0.000000
    16 -3.694255 -0.655429 0.000000 0.000000 0.000000 0.000000
    17 13.641458 7.020348 16.879305 -0.287833 0.000000 0.000000
    18 4.472665 2.448845 0.720848 1.731872 -0.539782 0.084693
    19 15.242571 6.789905 0.000000 -0.391447 -0.260462 0.108444
    20 8.366559 3.675034 14.276474 0.101593 -0.065119 -0.036589
    21 -15.633809 7.069125 16.813112 -0.287833 0.000000 0.000000
    22 -6.249312 1.413335 0.936005 0.601992 0.790676 -0.502045
    23 -13.856888 6.374216 0.000000 -0.112398 -0.231891 -0.562081
    24 -5.687840 2.494701 12.855103 0.026874 -0.328264 0.192371
  time 8
    0 5.807106 1.410199 -495.482777 1.570796 0.000000 1.545389
    1 6.265787 -0.443338 0.000000 0.001917 -0.000077 0.078418
    2 -1.211985 121.072578 2.116671 -0.000861 0.000000 -0.034797
    3 -2.423956 108.889275 3.327682 -0.000875 -0.000060 -0.087205
    4 -8.483835 103.017944 0.000000 0.054446 0.007444 -0.123263
    5 -7.271858 79.990417 0.000000 -0.039046 -0.021477 -0.076487
    6 -6.059879 73.930542 0.000000 0.007058 -0.011101 -0.387241
    7 -7.271858 77.566437 0.000000 -0.082370 -0.003678 0.161457
    8 -7.271864 68.661316 0.902174 0.078884 0.036676 0.312289
    9 -10.228978 63.176211 -0.324228 -0.013456 -0.003585 1.210806
    10 -4.847914 27.875425 0.000000 0.000000 0.000000 0.000000
    11 -10.884169 43.721066 -0.263436 0.000000 -1.570796 0.287833
    12 1.645461 3.130692 15.347058 -1.570797 1.282964 -1.570797
    13 -1.061229 0.200707 -0.378920 0.000000 0.000000 0.000000
    14 -4.349673 0.059656 0.000000 0.000000 0.000000 0.000000
    15 -4.230510 -0.536228 0.000000 0.000000 0.000000 0.000000
    16 -3.694255 -0.655429 0.000000 0.000000 0.000000 0.000000
    17 13.641458 7.020348 16.879305 -0.287833 0.000000 0.000000
    18 4.472665 2.448845 0.720848 2.011797 -0.541839 -0.064317
    19 15.242571 6.789905 0.000000 -0.351700 -0.289382 0.105747
    20 8.366559 3.675034 14.276474 0.120122 -0.076406 -0.043864
    21 -15.633809 7.069125 16.813112 -0.287833 0.000000 0.000000
    22 -6.249312 1.413335 0.936005 0.425240 0.708821 -0.620042
    23 -13.856888 6.374216 0.000000 -0.127571 -0.344249 -0.584494
    24 -5.687840 2.494701 12.855103 -0.045881 -0.498756 0.164213
  time 9
    0 5.807106 1.410199 -495.482777 1.570796 0.000000 1.545389
    1 6.265787 -0.443338 0.000000 0.001917 -0.000077 0.078418
    2 -1.211985 121.072578 2.116671 -0.000861 0.000000 -0.034797
    3 -2.423956 108.889275 3.327682 -0.000875 -0.000060 -0.087205
    4 -8.483835 103.017944 0.000000 0.054446 0.007444 -0.123263
    5 -7.271858 79.990417 0.000000 -0.039070 -0.021604 -0.078515
    6 -6.059879 73.930542 0.000000 0.006985 -0.011210 -0.390651
    7 -7.271858 77.566437 0.000000 -0.082598 -0.003857 0.156016
    8 -7.271864 68.661316 0.902174 0.079032 0.036315 0.318421
    9 -10.228978 63.176211 -0.324228 -0.013380 -0.003499 1.216254
    10 -4.847914 27.875425 0.000000 0.000000 0.000000 0.000000
    11 -10.884169 43.721066 -0.263436 0.000000 -1.570796 0.287833
    12 1.645461 3.130692 15.347058 -1.570797 1.282964 -1.570797
    13 -1.061229 0.200707 -0.378920 0.000000 0.000000 0.000000
    14 -4.349673 0.059656 0.000000 0.000000 0.000000 0.000000
    15 -4.230510 -0.536228 0.000000 0.000000 0.000000 0.000000
    16 -3.694255 -0.655429 0.000000 0.000000 0.000000 0.000000
    17 13.641458 7.020348 16.879305 -0.287833 0.000000 0.000000
    18 4.472665 2.448845 0.720848 2.146781 -0.529999 -0.135390
    19 15.242571 6.789905 0.000000 -0.356619 -0.285833 0.106142
    20 8.366559 3.675034 14.276474 0.113494 -0.072379 -0.041239
    21 -15.633809 7.069125 16.813112 -0.287833 0.000000 0.000000
    22 -6.249312 1.413335 0.936005 0.392247 0.690312 -0.640723
    23 -13.856888 6.374216 0.000000 -0.134370 -0.400793 -0.595426
    24 -5.687840 2.494701 12.855103 -0.084189 -0.587521 0.154378
  time 10
    0 5.807106 1.410199 -495.482777 1.570796 0.000000 1.545389
    1 6.265787 -0.443338 0.000000 0.001917 -0.000077 0.078418
    2 -1.211985 121.072578 2.116671 -0.000861 0.000000 -0.034797
    3 -2.423956 108.889275 3.327682 -0.000875 -0.000060 -0.087205
    4 -8.483835 103.017944 0.000000 0.054446 0.007444 -0.123263
    5 -7.271858 79.990417 0.000000 -0.039094 -0.021709 -0.080382
    6 -6.059879 73.930542 0.000000 0.006912 -0.011292 -0.393736
    7 -7.271858 77.566437 0.000000 -0.082802 -0.004020 0.151060
    8 -7.271864 68.661316 0.902174 0.079181 0.035980 0.323951
    9 -10.228978 63.176211 -0.324228 -0.013304 -0.003413 1.221175
    10 -4.847914 27.875425 0.000000 0.000000 0.000000 0.000000
    11 -10.884169 43.721066 -0.263436 0.000000 -1.570796 0.287833
    12 1.645461 3.130692 15.347058 -1.570797 1.282964 -1.570797
    13 -1.061229 0.200707 -0.378920 0.000000 0.000000 0.000000
    14 -4.349673 0.059656 0.000000 0.000000 0.000000 0.000000
    15 -4.230510 -0.536228 0.000000 0.000000 0.000000 0.000000
    16 -3.694255 -0.655429 0.000000 0.000000 0.000000 0.000000
    17 13.641458 7.020348 16.879305 -0.287833 0.000000 0.000000
    18 4.472665 2.448845 0.720848 2.080933 -0.536856 -0.100853
    19 15.242571 6.789905 0.000000 -0.426341 -0.234744 0.109826
    20 8.366559 3.675034 14.276474 0.071033 -0.046109 -0.024976
    21 -15.633809 7.069125 16.813112 -0.287833 0.000000 0.000000
    22 -6.249312 1.413335 0.936005 0.548165 0.768633 -0.539121
    23 -13.856888 6.374216 0.000000 -0.132104 -0.381457 -0.591716
    24 -5.687840 2.494701 12.855103 -0.076660 -0.570237 0.156014
  time 11
    0 5.807106 1.410199 -495.482777 1.570796 0.000000 1.545389
    1 6.265787 -0.443338 0.000000 0.001917 -0.000077 0.078418
    2 -1.211985 121.072578 2.116671 -0.000861 0.000000 -0.034797
    3 -2.423956 108.889275 3.327682 -0.000875 -0.000060 -0.087205
    4 -8.483835 103.017944 0.000000 0.054446 0.007444 -0.123263
    5 -7.271858 79.990417 0.000000 -0.039118 -0.021794 -0.081992
    6 -6.059879 73.930542 0.000000 0.006840 -0.011401 -0.396431
    7 -7.271858 77.566437 0.000000 -0.082969 -0.004167 0.146763
    8 -7.271864 68.661316 0.902174 0.079330 0.035670 0.328807
    9 -10.228978 63.176211 -0.324228 -0.013228 -0.003356 1.225481
    10 -4.847914 27.875425 0.000000 0.000000 0.000000 0.000000
    11 -10.884169 43.721066 -0.263436 0.000000 -1.570796 0.287833
    12 1.645461 3.130692 15.347058 -1.570797 1.282964 -1.570797
    13 -1.061229 0.200707 -0.378920 0.000000 0.000000 0.000000
    14 -4.349673 0.059656 0.000000 0.000000 0.000000 0.000000
    15 -4.230510 -0.536228 0.000000 0.000000 0.000000 0.000000
    16 -3.694255 -0.655429 0.000000 0.000000 0.000000 0.000000
    17 13.641458 7.020348 16.879305 -0.287833 0.000000 0.000000
    18 4.472665 2.448845 0.720848 1.850324 -0.545040 0.021727
    19 15.242571 6.789905 0.000000 -0.547141 -0.144624 0.107457
    20 8.366559 3.675034 14.276474 0.001546 -0.001035 -0.000515
    21 -15.633809 7.069125 16.813112 -0.287833 0.000000 0.000000
    22 -6.249312 1.413335 0.936005 0.923915 0.879245 -0.266362
    23 -13.856888 6.374216 0.000000 -0.122078 -0.301814 -0.576151
    24 -5.687840 2.494701 12.855103 -0.034300 -0.471630 0.167904
  time 12
    0 5.807106 1.410199 -495.482777 1.570796 0.000000 1.545389
    1 6.265787 -0.443338 0.000000 0.001917 -0.000077 0.078418
    2 -1.211985 121.072578 2.116671 -0.000861 0.000000 -0.034797
    3 -2.423956 108.889275 3.327682 -0.000875 -0.000060 -0.087205
    4 -8.483835 103.017944 0.000000 0.054446 0.007444 -0.123263
    5 -7.271858 79.990417 0.000000 -0.039130 -0.021878 -0.083344
    6 -6.059879 73.930542 0.000000 0.006785 -0.011456 -0.398639
    7 -7.271858 77.566437 0.000000 -0.083113 -0.004297 0.143194
    8 -7.271864 68.661316 0.902174 0.079437 0.035438 0.332848
    9 -10.228978 63.176211 -0.324228 -0.013178 -0.003298 1.229084
    10 -4.847914 27.875425 0.000000 0.000000 0.000000 0.000000
    11 -10.884169 43.721066 -0.263436 0.000000 -1.570796 0.287833
    12 1.645461 3.130692 15.347058 -1.570797 1.282964 -1.570797
    13 -1.061229 0.200707 -0.378920 0.000000 0.000000 0.000000
    14 -4.349673 0.059656 0.000000 0.000000 0.000000 0.000000
    15 -4.230510 -0.536228 0.000000 0.000000 0.000000 0.000000
    16 -3.694255 -0.655429 0.000000 0.000000 0.000000 0.000000
    17 13.641458 7.020348 16.879305 -0.287833 0.000000 0.000000
    18 4.472665 2.448845 0.720848 1.542124 -0.517884 0.183655
    19 15.242571 6.789905 0.000000 -0.691138 -0.037777 0.090354
    20 8.366559 3.675034 14.276474 -0.078942 0.054053 0.024233
    21 -15.633809 7.069125 16.813112 -0.287833 0.000000 0.000000
    22 -6.249312 1.413335 0.936005 1.471420 0.899256 0.156812
    23 -13.856888 6.374216 0.000000 -0.106329 -0.190816 -0.553589
    24 -5.687840 2.494701 12.855103 0.027140 -0.327659 0.192481
  time 13
    0 5.807106 1.410199 -495.482777 1.570796 0.000000 1.545389
    1 6.265787 -0.443338 0.000000 0.001917 -0.000077 0.078418
    2 -1.211985 121.072578 2.116671 -0.000861 0.000000 -0.034797
    3 -2.423956 108.889275 3.327682 -0.000875 -0.000060 -0.087205
    4 -8.483835 103.017944 0.000000 0.054446 0.007444 -0.123263
    5 -7.271858 79.990417 0.000000 -0.039142 -0.021942 -0.084342
    6 -6.059879 73.930542 0.000000 0.006749 -0.011511 -0.400328
    7 -7.271858 77.566437 0.000000 -0.083221 -0.004378 0.140490
    8 -7.271864 68.661316 0.902174 0.079500 0.035258 0.335861
    9 -10.228978 63.176211 -0.324228 -0.013152 -0.003270 1.231809
    10 -4.847914 27.875425 0.000000 0.000000 0.000000 0.000000
    11 -10.884169 43.721066 -0.263436 0.000000 -1.570796 0.287833
    12 1.645461 3.130692 15.347058 -1.570797 1.282964 -1.570797
    13 -1.061229 0.200707 -0.378920 0.000000 0.000000 0.000000
    14 -4.349673 0.059656 0.000000 0.000000 0.000000 0.000000
    15 -4.230510 -0.536228 0.000000 0.000000 0.000000 0.000000
    16 -3.694255 -0.655429 0.000000 0.000000 0.000000 0.000000
    17 13.641458 7.020348 16.879305 -0.287833 0.000000 0.000000
    18 4.472665 2.448845 0.720848 1.252712 -0.451457 0.324017
    19 15.242571 6.789905 0.000000 -0.833340 0.062828 0.059090
    20 8.366559 3.675034 14.276474 -0.155572 0.108863 0.043924
    21 -15.633809 7.069125 16.813112 -0.287833 0.000000 0.000000
    22 -6.249312 1.413335 0.936005 1.953220 0.785817 0.514031
    23 -13.856888 6.374216 0.000000 -0.087775 -0.077309 -0.528960
    24 -5.687840 2.494701 12.855103 0.094944 -0.174286 0.227976
  time 14
    0 5.807106 1.410199 -495.482777 1.570796 0.000000 1.545389
    1 6.265787 -0.443338 0.000000 0.001917 -0.000077 0.078418
    2 -1.211985 121.072578 2.116671 -0.000861 0.000000 -0.034797
    3 -2.423956 108.889275 3.327682 -0.000875 -0.000060 -0.087205
    4 -8.483835 103.017944 0.000000 0.054446 0.007444 -0.123263
    5 -7.271858 79.990417 0.000000 -0.039154 -0.021984 -0.084986
    6 -6.059879 73.930542 0.000000 0.006730 -0.011565 -0.401400
    7 -7.271858 77.566437 0.000000 -0.083293 -0.004443 0.138758
    8 -7.271864 68.661316 0.902174 0.079564 0.035129 0.337811
    9 -10.228978 63.176211 -0.324228 -0.013127 -0.003241 1.233522
    10 -4.847914 27.875425 0.000000 0.000000 0.000000 0.000000
    11 -10.884169 43.721066 -0.263436 0.000000 -1.570796 0.287833
    12 1.645461 3.130692 15.347058 -1.570797 1.282964 -1.570797
    13 -1.061229 0.200707 -0.378920 0.000000 0.000000 0.000000
    14 -4.349673 0.059656 0.000000 0.000000 0.000000 0.000000
    15 -4.230510 -0.536228 0.000000 0.000000 0.000000 0.000000
    16 -3.694255 -0.655429 0.000000 0.000000 0.000000 0.000000
    17 13.641458 7.020348 16.879305 -0.287833 0.000000 0.000000
    18 4.472665 2.448845 0.720848 1.058361 -0.383612 0.406494
    19 15.242571 6.789905 0.000000 -0.946597 0.137154 0.024948
    20 8.366559 3.675034 14.276474 -0.214129 0.151943 0.056232
    21 -15.633809 7.069125 16.813112 -0.287833 0.000000 0.000000
    22 -6.249312 1.413335 0.936005 2.237719 0.636110 0.696243
    23 -13.856888 6.374216 0.000000 -0.071526 0.010208 -0.508490
    24 -5.687840 2.494701 12.855103 0.155809 -0.046206 0.265703
  time 15
    0 5.807106 1.410199 -495.482777 1.570796 0.000000 1.545389
    1 6.265787 -0.443338 0.000000 0.001917 -0.000077 0.078418
    2 -1.211985 121.072578 2.116671 -0.000861 0.000000 -0.034797
    3 -2.423956 108.889275 3.327682 -0.000875 -0.000060 -0.087205
    4 -8.483835 103.017944 0.000000 0.054446 0.007444 -0.123263
    5 -7.271858 79.990417 0.000000 -0.039154 -0.022005 -0.085211
    6 -6.059879 73.930542 0.000000 0.006712 -0.011565 -0.401789
    7 -7.271858 77.566437 0.000000 -0.083317 -0.004460 0.138169
    8 -7.271864 68.661316 0.902174 0.079564 0.035103 0.338484
    9 -10.228978 63.176211 -0.324228 -0.013127 -0.003212 1.234094
    10 -4.847914 27.875425 0.000000 0.000000 0.000000 0.000000
    11 -10.884169 43.721066 -0.263436 0.000000 -1.570796 0.287833
    12 1.645461 3.130692 15.347058 -1.570797 1.282964 -1.570797
    13 -1.061229 0.200707 -0.378920 0.000000 0.000000 0.000000
    14 -4.349673 0.059656 0.000000 0.000000 0.000000 0.000000
    15 -4.230510 -0.536228 0.000000 0.000000 0.000000 0.000000
    16 -3.694255 -0.655429 0.000000 0.000000 0.000000 0.000000
    17 13.641458 7.020348 16.879305 -0.287833 0.000000 0.000000
    18 4.472665 2.448845 0.720848 1.014681 -0.365829 0.423249
    19 15.242571 6.789905 0.000000 -0.999237 0.169488 0.006562
    20 8.366559 3.675034 14.276474 -0.240291 0.171433 0.060942
    21 -15.633809 7.069125 16.813112 -0.287833 0.000000 0.000000
    22 -6.249312 1.413335 0.936005 2.341696 0.560174 0.752882
    23 -13.856888 6.374216 0.000000 -0.064804 0.043758 -0.500248
    24 -5.687840 2.494701 12.855103 0.191819 0.024194 0.290103
  time 16
    0 5.807106 1.410199 -495.482777 1.570796 0.000000 1.545389
    1 6.265787 -0.443338 0.000000 0.001917 -0.000077 0.078418
    2 -1.211985 121.072578 2.116671 -0.000861 0.000000 -0.034797
    3 -2.423956 108.889275 3.327682 -0.000875 -0.000060 -0.087205
    4 -8.483835 103.017944 0.000000 0.054446 0.007444 -0.123263
    5 -7.271858 79.990417 0.000000 -0.039154 -0.021984 -0.084986
    6 -6.059879 73.930542 0.000000 0.006730 -0.011565 -0.401400
    7 -7.271858 77.566437 0.000000 -0.083293 -0.004443 0.138758
    8 -7.271864 68.661316 0.902174 0.079564 0.035129 0.337811
    9 -10.228978 63.176211 -0.324228 -0.013127 -0.003241 1.233522
    10 -4.847914 27.875425 0.000000 0.000000 0.000000 0.000000
    11 -10.884169 43.721066 -0.263436 0.000000 -1.570796 0.287833
    12 1.645461 3.130692 15.347058 -1.570797 1.282964 -1.570797
    13 -1.061229 0.200707 -0.378920 0.000000 0.000000 0.000000
    14 -4.349673 0.059656 0.000000 0.000000 0.000000 0.000000
    15 -4.230510 -0.536228 0.000000 0.000000 0.000000 0.000000
    16 -3.694255 -0.655429 0.000000 0.000000 0.000000 0.000000
    17 13.641458 7.020348 16.879305 -0.287833 0.000000 0.000000
    18 4.472665 2.448845 0.720848 1.176813 -0.427227 0.357581
    19 15.242571 6.789905 0.000000 -0.968165 0.150573 0.017597
    20 8.366559 3.675034 14.276474 -0.222254 0.157984 0.057742
    21 -15.633809 7.069125 16.813112 -0.287833 0.000000 0.000000
    22 -6.249312 1.413335 0.936005 2.267791 0.615436 0.713322
    23 -13.856888 6.374216 0.000000 -0.072333 0.006132 -0.509486
    24 -5.687840 2.494701 12.855103 0.194103 0.028519 0.291694
  time 17
    0 5.807106 1.410199 -495.482777 1.570796 0.000000 1.545389
    1 6.265787 -0.443338 0.000000 0.001917 -0.000077 0.078418
    2 -1.211985 121.072578 2.116671 -0.000861 0.000000 -0.034797
    3 -2.423956 108.889275 3.327682 -0.000875 -0.000060 -0.087205
    4 -8.483835 103.017944 0.000000 0.054446 0.007444 -0.123263
    5 -7.271858 79.990417 0.000000 -0.039142 -0.021942 -0.084342
    6 -6.059879 73.930542 0.000000 0.006749 -0.011511 -0.400328
    7 -7.271858 77.566437 0.000000 -0.083221 -0.004378 0.140490
    8 -7.271864 68.661316 0.902174 0.079500 0.035258 0.335861
    9 -10.228978 63.176211 -0.324228 -0.013152 -0.003270 1.231809
    10 -4.847914 27.875425 0.000000 0.000000 0.000000 0.000000
    11 -10.884169 43.721066 -0.263436 0.000000 -1.570796 0.287833
    12 1.645461 3.130692 15.347058 -1.570797 1.282964 -1.570797
    13 -1.061229 0.200707 -0.378920 0.000000 0.000000 0.000000
    14 -4.349673 0.059656 0.000000 0.000000 0.000000 0.000000
    15 -4.230510 -0.536228 0.000000 0.000000 0.000000 0.000000
    16 -3.694255 -0.655429 0.000000 0.000000 0.000000 0.000000
    17 13.641458 7.020348 16.879305 -0.287833 0.000000 0.000000
    18 4.472665 2.448845 0.720848 1.525498 -0.515186 0.192086
    19 15.242571 6.789905 0.000000 -0.874715 0.090680 0.047512
    20 8.366559 3.675034 14.276474 -0.169354 0.118931 0.047040
    21 -15.633809 7.069125 16.813112 -0.287833 0.000000 0.000000
    22 -6.249312 1.413335 0.936005 2.025618 0.754895 0.563404
    23 -13.856888 6.374216 0.000000 -0.088850 -0.083650 -0.530380
    24 -5.687840 2.494701 12.855103 0.174831 -0.008486 0.278411
  time 18
    0 5.807106 1.410199 -495.482777 1.570796 0.000000 1.545389
    1 6.265787 -0.443338 0.000000 0.001917 -0.000077 0.078418
    2 -1.211985 121.072578 2.116671 -0.000861 0.000000 -0.034797
    3 -2.423956 108.889275 3.327682 -0.000875 -0.000060 -0.087205
    4 -8.483835 103.017944 0.000000 0.054446 0.007444 -0.123263
    5 -7.271858 79.990417 0.000000 -0.039130 -0.021878 -0.083344
    6 -6.059879 73.930542 0.000000 0.006785 -0.011456 -0.398639
    7 -7.271858 77.566437 0.000000 -0.083113 -0.004297 0.143194
    8 -7.271864 68.661316 0.902174 0.079437 0.035438 0.332848
    9 -10.228978 63.176211 -0.324228 -0.013178 -0.003298 1.229084
    10 -4.847914 27.875425 0.000000 0.000000 0.000000 0.000000
    11 -10.884169 43.721066 -0.263436 0.000000 -1.570796 0.287833
    12 1.645461 3.130692 15.347058 -1.570797 1.282964 -1.570797
    13 -1.061229 0.200707 -0.378920 0.000000 0.000000 0.000000
    14 -4.349673 0.059656 0.000000 0.000000 0.000000 0.000000
    15 -4.230510 -0.536228 0.000000 0.000000 0.000000 0.000000
    16 -3.694255 -0.655429 0.000000 0.000000 0.000000 0.000000
    17 13.641458 7.020348 16.879305 -0.287833 0.000000 0.000000
    18 4.472665 2.448845 0.720848 1.984838 -0.543211 -0.049994
    19 15.242571 6.789905 0.000000 -0.751422 0.005683 0.078776
    20 8.366559 3.675034 14.276474 -0.098525 0.067853 0.029638
    21 -15.633809 7.069125 16.813112 -0.287833 0.000000 0.000000
    22 -6.249312 1.413335 0.936005 1.609710 0.880835 0.262760
    23 -13.856888 6.374216 0.000000 -0.107635 -0.199456 -0.555382
    24 -5.687840 2.494701 12.855103 0.144892 -0.068384 0.258587
  time 19
    0 5.807106 1.410199 -495.482777 1.570796 0.000000 1.545389
    1 6.265787 -0.443338 0.000000 0.001917 -0.000077 0.078418
    2 -1.211985 121.072578 2.116671 -0.000861 0.000000 -0.034797
    3 -2.423956 108.889275 3.327682 -0.000875 -0.000060 -0.087205
    4 -8.483835 103.017944 0.000000 0.054446 0.007444 -0.123263
    5 -7.271858 79.990417 0.000000 -0.039118 -0.021794 -0.081992
    6 -6.059879 73.930542 0.000000 0.006840 -0.011401 -0.396431
    7 -7.271858 77.566437 0.000000 -0.082969 -0.004167 0.146763
    8 -7.271864 68.661316 0.902174 0.079330 0.035670 0.328807
    9 -10.228978 63.176211 -0.324228 -0.013228 -0.003356 1.225481
    10 -4.847914 27.875425 0.000000 0.000000 0.000000 0.000000
    11 -10.884169 43.721066 -0.263436 0.000000 -1.570796 0.287833
    12 1.645461 3.130692 15.347058 -1.570797 1.282964 -1.570797
    13 -1.061229 0.200707 -0.378920 0.000000 0.000000 0.000000
    14 -4.349673 0.059656 0.000000 0.000000 0.000000 0.000000
    15 -4.230510 -0.536228 0.000000 0.000000 0.000000 0.000000
    16 -3.694255 -0.655429 0.000000 0.000000 0.000000 0.000000
    17 13.641458 7.020348 16.879305 -0.287833 0.000000 0.000000
    18 4.472665 2.448845 0.720848 2.420131 -0.479756 -0.272672
    19 15.242571 6.789905 0.000000 -0.627265 -0.084838 0.099826
    20 8.366559 3.675034 14.276474 -0.026630 0.017919 0.008605
    21 -15.633809 7.069125 16.813112 -0.287833 0.000000 0.000000
    22 -6.249312 1.413335 0.936005 1.112732 0.902834 -0.121537
    23 -13.856888 6.374216 0.000000 -0.123768 -0.314565 -0.578691
    24 -5.687840 2.494701 12.855103 0.114378 -0.132240 0.239491
  time 20
    0 5.807106 1.410199 -495.482777 1.570796 0.000000 1.545389
    1 6.265787 -0.443338 0.000000 0.001917 -0.000077 0.078418
    2 -1.211985 121.072578 2.116671 -0.000861 0.000000 -0.034797
    3 -2.423956 108.889275 3.327682 -0.000875 -0.000060 -0.087205
    4 -8.483835 103.017944 0.000000 0.054446 0.007444 -0.123263
    5 -7.271858 79.990417 0.000000 -0.039094 -0.021709 -0.080382
    6 -6.059879 73.930542 0.000000 0.006912 -0.011292 -0.393736
    7 -7.271858 77.566437 0.000000 -0.082802 -0.004020 0.151060
    8 -7.271864 68.661316 0.902174 0.079181 0.035980 0.323951
    9 -10.228978 63.176211 -0.324228 -0.013304 -0.003413 1.221175
    10 -4.847914 27.875425 0.000000 0.000000 0.000000 0.000000
    11 -10.884169 43.721066 -0.263436 0.000000 -1.570796 0.287833
    12 1.645461 3.130692 15.347058 -1.570797 1.282964 -1.570797
    13 -1.061229 0.200707 -0.378920 0.000000 0.000000 0.000000
    14 -4.349673 0.059656 0.000000 0.000000 0.000000 0.000000
    15 -4.230510 -0.536228 0.000000 0.000000 0.000000 0.000000
    16 -3.694255 -0.655429 0.000000 0.000000 0.000000 0.000000
    17 13.641458 7.020348 16.879305 -0.287833 0.000000 0.000000
    18 4.472665 2.448845 0.720848 2.715931 -0.384207 -0.402495
    19 15.242571 6.789905 0.000000 -0.528764 -0.158390 0.108526
    20 8.366559 3.675034 14.276474 0.028775 -0.018991 -0.009767
    21 -15.633809 7.069125 16.813112 -0.287833 0.000000 0.000000
    22 -6.249312 1.413335 0.936005 0.754139 0.841034 -0.393178
    23 -13.856888 6.374216 0.000000 -0.134524 -0.401978 -0.595650
    24 -5.687840 2.494701 12.855103 0.092115 -0.180481 0.226341
  time 21
    0 5.807106 1.410199 -495.482777 1.570796 0.000000 1.545389
    1 6.265787 -0.443338 0.000000 0.001917 -0.000077 0.078418
    2 -1.211985 121.072578 2.116671 -0.000861 0.000000 -0.034797
    3 -2.423956 108.889275 3.327682 -0.000875 -0.000060 -0.087205
    4 -8.483835 103.017944 0.000000 0.054446 0.007444 -0.123263
    5 -7.271858 79.990417 0.000000 -0.039070 -0.021604 -0.078515
    6 -6.059879 73.930542 0.000000 0.006985 -0.011210 -0.390651
    7 -7.271858 77.566437 0.000000 -0.082598 -0.003857 0.156016
    8 -7.271864 68.661316 0.902174 0.079032 0.036315 0.318421
    9 -10.228978 63.176211 -0.324228 -0.013380 -0.003499 1.216254
    10 -4.847914 27.875425 0.000000 0.000000 0.000000 0.000000
    11 -10.884169 43.721066 -0.263436 0.000000 -1.570796 0.287833
    12 1.645461 3.130692 15.347058 -1.570797 1.282964 -1.570797
    13 -1.061229 0.200707 -0.378920 0.000000 0.000000 0.000000
    14 -4.349673 0.059656 0.000000 0.000000 0.000000 0.000000
    15 -4.230510 -0.536228 0.000000 0.000000 0.000000 0.000000
    16 -3.694255 -0.655429 0.000000 0.000000 0.000000 0.000000
    17 13.641458 7.020348 16.879305 -0.287833 0.000000 0.000000
    18 4.472665 2.448845 0.720848 2.812402 -0.343656 -0.438599
    19 15.242571 6.789905 0.000000 -0.483567 -0.192192 0.110089
    20 8.366559 3.675034 14.276474 0.049245 -0.032236 -0.017018
    21 -15.633809 7.069125 16.813112 -0.287833 0.000000 0.000000
    22 -6.249312 1.413335 0.936005 0.633571 0.802514 -0.479874
    23 -13.856888 6.374216 0.000000 -0.138212 -0.434587 -0.601876
    24 -5.687840 2.494701 12.855103 0.086369 -0.193128 0.223070
  time 22
    0 5.807106 1.410199 -495.482777 1.570796 0.000000 1.545389
    1 6.265787 -0.443338 0.000000 0.001917 -0.000077 0.078418
    2 -1.211985 121.072578 2.116671 -0.000861 0.000000 -0.034797
    3 -2.423956 108.889275 3.327682 -0.000875 -0.000060 -0.087205
    4 -8.483835 103.017944 0.000000 0.054446 0.007444 -0.123263
    5 -7.271858 79.990417 0.000000 -0.039046 -0.021477 -0.076487
    6 -6.059879 73.930542 0.000000 0.007058 -0.011101 -0.387241
    7 -7.271858 77.566437 0.000000 -0.082370 -0.003678 0.161457
    8 -7.271864 68.661316 0.902174 0.078884 0.036676 0.312289
    9 -10.228978 63.176211 -0.324228 -0.013456 -0.003585 1.210806
    10 -4.847914 27.875425 0.000000 0.000000 0.000000 0.000000
    11 -10.884169 43.721066 -0.263436 0.000000 -1.570796 0.287833
    12 1.645461 3.130692 15.347058 -1.570797 1.282964 -1.570797
    13 -1.061229 0.200707 -0.378920 0.000000 0.000000 0.000000
    14 -4.349673 0.059656 0.000000 0.000000 0.000000 0.000000
    15 -4.230510 -0.536228 0.000000 0.000000 0.000000 0.000000
    16 -3.694255 -0.655429 0.000000 0.000000 0.000000 0.000000
    17 13.641458 7.020348 16.879305 -0.287833 0.000000 0.000000
    18 4.472665 2.448845 0.720848 2.633362 -0.415249 -0.368877
    19 15.242571 6.789905 0.000000 -0.523546 -0.162285 0.108789
    20 8.366559 3.675034 14.276474 0.008018 -0.005320 -0.002673
    21 -15.633809 7.069125 16.813112 -0.287833 0.000000 0.000000
    22 -6.249312 1.413335 0.936005 0.834361 0.861266 -0.333807
    23 -13.856888 6.374216 0.000000 -0.132949 -0.388495 -0.593060
    24 -5.687840 2.494701 12.855103 0.102812 -0.157130 0.232573
  time 23
    0 5.807106 1.410199 -495.482777 1.570796 0.000000 1.545389
    1 6.265787 -0.443338 0.000000 0.001917 -0.000077 0.078418
    2 -1.211985 121.072578 2.116671 -0.000861 0.000000 -0.034797
    3 -2.423956 108.889275 3.327682 -0.000875 -0.000060 -0.087205
    4 -8.483835 103.017944 0.000000 0.054446 0.007444 -0.123263
    5 -7.271858 79.990417 0.000000 -0.039010 -0.021350 -0.074330
    6 -6.059879 73.930542 0.000000 0.007149 -0.010964 -0.383604
    7 -7.271858 77.566437 0.000000 -0.082130 -0.003483 0.167244
    8 -7.271864 68.661316 0.902174 0.078692 0.037063 0.305767
    9 -10.228978 63.176211 -0.324228 -0.013532 -0.003671 1.205005
    10 -4.847914 27.875425 0.000000 0.000000 0.000000 0.000000
    11 -10.884169 43.721066 -0.263436 0.000000 -1.570796 0.287833
    12 1.645461 3.130692 15.347058 -1.570797 1.282964 -1.570797
    13 -1.061229 0.200707 -0.378920 0.000000 0.000000 0.000000
    14 -4.349673 0.059656 0.000000 0.000000 0.000000 0.000000
    15 -4.230510 -0.536228 0.000000 0.000000 0.000000 0.000000
    16 -3.694255 -0.655429 0.000000 0.000000 0.000000 0.000000
    17 13.641458 7.020348 16.879305 -0.287833 0.000000 0.000000
    18 4.472665 2.448845 0.720848 2.188582 -0.524604 -0.157117
    19 15.242571 6.789905 0.000000 -0.630090 -0.082730 0.099465
    20 8.366559 3.675034 14.276474 -0.082538 0.056565 0.025252
    21 -15.633809 7.069125 16.813112 -0.287833 0.000000 0.000000
    22 -6.249312 1.413335 0.936005 1.368197 0.906677 0.076884
    23 -13.856888 6.374216 0.000000 -0.119197 -0.280144 -0.571868
    24 -5.687840 2.494701 12.855103 0.136464 -0.085741 0.253194
  time 24
    0 5.807106 1.410199 -495.482777 1.570796 0.000000 1.545389
    1 6.265787 -0.443338 0.000000 0.001917 -0.000077 0.078418
    2 -1.211985 121.072578 2.116671 -0.000861 0.000000 -0.034797
    3 -2.423956 108.889275 3.327682 -0.000875 -0.000060 -0.087205
    4 -8.483835 103.017944 0.000000 0.054446 0.007444 -0.123263
    5 -7.271858 79.990417 0.000000 -0.038986 -0.021202 -0.072045
    6 -6.059879 73.930542 0.000000 0.007240 -0.010855 -0.379837
    7 -7.271858 77.566437 0.000000 -0.081891 -0.003288 0.173274
    8 -7.271864 68.661316 0.902174 0.078501 0.037476 0.298961
    9 -10.228978 63.176211 -0.324228 -0.013608 -0.003757 1.198942
    10 -4.847914 27.875425 0.000000 0.000000 0.000000 0.000000
    11 -10.884169 43.721066 -0.263436 0.000000 -1.570796 0.287833
    12 1.645461 3.130692 15.347058 -1.570797 1.282964 -1.570797
    13 -1.061229 0.200707 -0.378920 0.000000 0.000000 0.000000
    14 -4.349673 0.059656 0.000000 0.000000 0.000000 0.000000
    15 -4.230510 -0.536228 0.000000 0.000000 0.000000 0.000000
    16 -3.694255 -0.655429 0.000000 0.000000 0.000000 0.000000
    17 13.641458 7.020348 16.879305 -0.287833 0.000000 0.000000
    18 4.472665 2.448845 0.720848 1.596888 -0.525930 0.155442
    19 15.242571 6.789905 0.000000 -0.758168 0.010485 0.077312
    20 8.366559 3.675034 14.276474 -0.183928 0.129609 0.050191
    21 -15.633809 7.069125 16.813112 -0.287833 0.000000 0.000000
    22 -6.249312 1.413335 0.936005 1.951335 0.786568 0.512727
    23 -13.856888 6.374216 0.000000 -0.098800 -0.143016 -0.543429
    24 -5.687840 2.494701 12.855103 0.179929 0.001393 0.281881
  time 25
    0 5.807106 1.410199 -495.482777 1.570796 0.000000 1.545389
    1 6.265787 -0.443338 0.000000 0.001917 -0.000077 0.078418
    2 -1.211985 121.072578 2.116671 -0.000861 0.000000 -0.034797
    3 -2.423956 108.889275 3.327682 -0.000875 -0.000060 -0.087205
    4 -8.483835 103.017944 0.000000 0.054446 0.007444 -0.123263
    5 -7.271858 79.990417 0.000000 -0.038950 -0.021075 -0.069727
    6 -6.059879 73.930542 0.000000 0.007331 -0.010718 -0.375973
    7 -7.271858 77.566437 0.000000 -0.081627 -0.003076 0.179477
    8 -7.271864 68.661316 0.902174 0.078309 0.037889 0.292013
    9 -10.228978 63.176211 -0.324228 -0.013710 -0.003843 1.192746
    10 -4.847914 27.875425 0.000000 0.000000 0.000000 0.000000
    11 -10.884169 43.721066 -0.263436 0.000000 -1.570796 0.287833
    12 1.645461 3.130692 15.347058 -1.570797 1.282964 -1.570797
    13 -1.061229 0.200707 -0.378920 0.000000 0.000000 0.000000
    14 -4.349673 0.059656 0.000000 0.000000 0.000000 0.000000
    15 -4.230510 -0.536228 0.000000 0.000000 0.000000 0.000000
    16 -3.694255 -0.655429 0.000000 0.000000 0.000000 0.000000
    17 13.641458 7.020348 16.879305 -0.287833 0.000000 0.000000
    18 4.472665 2.448845 0.720848 1.080905 -0.392436 0.397522
    19 15.242571 6.789905 0.000000 -0.863183 0.083023 0.050851
    20 8.366559 3.675034 14.276474 -0.259922 0.186156 0.064142
    21 -15.633809 7.069125 16.813112 -0.287833 0.000000 0.000000
    22 -6.249312 1.413335 0.936005 2.301350 0.591140 0.731704
    23 -13.856888 6.374216 0.000000 -0.075521 -0.010312 -0.513421
    24 -5.687840 2.494701 12.855103 0.224940 0.085209 0.313663
  time 26
    0 5.807106 1.410199 -495.482777 1.570796 0.000000 1.545389
    1 6.265787 -0.443338 0.000000 0.001917 -0.000077 0.078418
    2 -1.211985 121.072578 2.116671 -0.000861 0.000000 -0.034797
    3 -2.423956 108.889275 3.327682 -0.000875 -0.000060 -0.087205
    4 -8.483835 103.017944 0.000000 0.054446 0.007444 -0.123263
    5 -7.271858 79.990417 0.000000 -0.038926 -0.020927 -0.067409
    6 -6.059879 73.930542 0.000000 0.007422 -0.010608 -0.372109
    7 -7.271858 77.566437 0.000000 -0.081375 -0.002881 0.185646
    8 -7.271864 68.661316 0.902174 0.078097 0.038301 0.285066
    9 -10.228978 63.176211 -0.324228 -0.013786 -0.003958 1.186595
    10 -4.847914 27.875425 0.000000 0.000000 0.000000 0.000000
    11 -10.884169 43.721066 -0.263436 0.000000 -1.570796 0.287833
    12 1.645461 3.130692 15.347058 -1.570797 1.282964 -1.570797
    13 -1.061229 0.200707 -0.378920 0.000000 0.000000 0.000000
    14 -4.349673 0.059656 0.000000 0.000000 0.000000 0.000000
    15 -4.230510 -0.536228 0.000000 0.000000 0.000000 0.000000
    16 -3.694255 -0.655429 0.000000 0.000000 0.000000 0.000000
    17 13.641458 7.020348 16.879305 -0.287833 0.000000 0.000000
    18 4.472665 2.448845 0.720848 0.776839 -0.252907 0.500592
    19 15.242571 6.789905 0.000000 -0.896515 0.105060 0.040983
    20 8.366559 3.675034 14.276474 -0.274291 0.196944 0.066299
    21 -15.633809 7.069125 16.813112 -0.287833 0.000000 0.000000
    22 -6.249312 1.413335 0.936005 2.414376 0.499523 0.788032
    23 -13.856888 6.374216 0.000000 -0.056084 0.085287 -0.489689
    24 -5.687840 2.494701 12.855103 0.261126 0.147710 0.340450
  time 27
    0 5.807106 1.410199 -495.482777 1.570796 0.000000 1.545389
    1 6.265787 -0.443338 0.000000 0.001917 -0.000077 0.078418
    2 -1.211985 121.072578 2.116671 -0.000861 0.000000 -0.034797
    3 -2.423956 108.889275 3.327682 -0.000875 -0.000060 -0.087205
    4 -8.483835 103.017944 0.000000 0.054446 0.007444 -0.123263
    5 -7.271858 79.990417 0.000000 -0.038890 -0.020800 -0.065156
    6 -6.059879 73.930542 0.000000 0.007513 -0.010472 -0.368342
    7 -7.271858 77.566437 0.000000 -0.081124 -0.002686 0.191676
    8 -7.271864 68.661316 0.902174 0.077905 0.038714 0.278260
    9 -10.228978 63.176211 -0.324228 -0.013862 -0.004044 1.180531
    10 -4.847914 27.875425 0.000000 0.000000 0.000000 0.000000
    11 -10.884169 43.721066 -0.263436 0.000000 -1.570796 0.287833
    12 1.645461 3.130692 15.347058 -1.570797 1.282964 -1.570797
    13 -1.061229 0.200707 -0.378920 0.000000 0.000000 0.000000
    14 -4.349673 0.059656 0.000000 0.000000 0.000000 0.000000
    15 -4.230510 -0.536228 0.000000 0.000000 0.000000 0.000000
    16 -3.694255 -0.655429 0.000000 0.000000 0.000000 0.000000
    17 13.641458 7.020348 16.879305 -0.287833 0.000000 0.000000
    18 4.472665 2.448845 0.720848 0.690513 -0.205910 0.521995
    19 15.242571 6.789905 0.000000 -0.820811 0.054264 0.062396
    20 8.366559 3.675034 14.276474 -0.194917 0.137719 0.052457
    21 -15.633809 7.069125 16.813112 -0.287833 0.000000 0.000000
    22 -6.249312 1.413335 0.936005 2.274295 0.610798 0.716924
    23 -13.856888 6.374216 0.000000 -0.045712 0.131658 -0.477387
    24 -5.687840 2.494701 12.855103 0.282667 0.182882 0.356894
  time 28
    0 5.807106 1.410199 -495.482777 1.570796 0.000000 1.545389
    1 6.265787 -0.443338 0.000000 0.001917 -0.000077 0.078418
    2 -1.211985 121.072578 2.116671 -0.000861 0.000000 -0.034797
    3 -2.423956 108.889275 3.327682 -0.000875 -0.000060 -0.087205
    4 -8.483835 103.017944 0.000000 0.054446 0.007444 -0.123263
    5 -7.271858 79.990417 0.000000 -0.038866 -0.020652 -0.062967
    6 -6.059879 73.930542 0.000000 0.007604 -0.010362 -0.364705
    7 -7.271858 77.566437 0.000000 -0.080872 -0.002490 0.197498
    8 -7.271864 68.661316 0.902174 0.077714 0.039101 0.271737
    9 -10.228978 63.176211 -0.324228 -0.013963 -0.004130 1.174731
    10 -4.847914 27.875425 0.000000 0.000000 0.000000 0.000000
    11 -10.884169 43.721066 -0.263436 0.000000 -1.570796 0.287833
    12 1.645461 3.130692 15.347058 -1.570797 1.282964 -1.570797
    13 -1.061229 0.200707 -0.378920 0.000000 0.000000 0.000000
    14 -4.349673 0.059656 0.000000 0.000000 0.000000 0.000000
    15 -4.230510 -0.536228 0.000000 0.000000 0.000000 0.000000
    16 -3.694255 -0.655429 0.000000 0.000000 0.000000 0.000000
    17 13.641458 7.020348 16.879305 -0.287833 0.000000 0.000000
    18 4.472665 2.448845 0.720848 0.732408 -0.229089 0.512104
    19 15.242571 6.789905 0.000000 -0.667576 -0.055038 0.094186
    20 8.366559 3.675034 14.276474 -0.041874 0.028338 0.013339
    21 -15.633809 7.069125 16.813112 -0.287833 0.000000 0.000000
    22 -6.249312 1.413335 0.936005 1.849432 0.822923 0.440687
    23 -13.856888 6.374216 0.000000 -0.041563 0.149496 -0.472481
    24 -5.687840 2.494701 12.855103 0.295147 0.202567 0.366530
  time 29
    0 5.807106 1.410199 -495.482777 1.570796 0.000000 1.545389
    1 6.265787 -0.443338 0.000000 0.001917 -0.000077 0.078418
    2 -1.211985 121.072578 2.116671 -0.000861 0.000000 -0.034797
    3 -2.423956 108.889275 3.327682 -0.000875 -0.000060 -0.087205
    4 -8.483835 103.017944 0.000000 0.054446 0.007444 -0.123263
    5 -7.271858 79.990417 0.000000 -0.038830 -0.020547 -0.060939
    6 -6.059879 73.930542 0.000000 0.007695 -0.010253 -0.361328
    7 -7.271858 77.566437 0.000000 -0.080644 -0.002327 0.202904
    8 -7.271864 68.661316 0.902174 0.077522 0.039462 0.265605
    9 -10.228978 63.176211 -0.324228 -0.014014 -0.004216 1.169282
    10 -4.847914 27.875425 0.000000 0.000000 0.000000 0.000000
    11 -10.884169 43.721066 -0.263436 0.000000 -1.570796 0.287833
    12 1.645461 3.130692 15.347058 -1.570797 1.282964 -1.570797
    13 -1.061229 0.200707 -0.378920 0.000000 0.000000 0.000000
    14 -4.349673 0.059656 0.000000 0.000000 0.000000 0.000000
    15 -4.230510 -0.536228 0.000000 0.000000 0.000000 0.000000
    16 -3.694255 -0.655429 0.000000 0.000000 0.000000 0.000000
    17 13.641458 7.020348 16.879305 -0.287833 0.000000 0.000000
    18 4.472665 2.448845 0.720848 0.827188 -0.278920 0.486377
    19 15.242571 6.789905 0.000000 -0.484531 -0.191472 0.110072
    20 8.366559 3.675034 14.276474 0.146464 -0.092090 -0.054506
    21 -15.633809 7.069125 16.813112 -0.287833 0.000000 0.000000
    22 -6.249312 1.413335 0.936005 1.128098 0.903983 -0.109551
    23 -13.856888 6.374216 0.000000 -0.040027 0.155941 -0.470688
    24 -5.687840 2.494701 12.855103 0.303899 0.216093 0.373381
  time 30
    0 5.807106 1.410199 -495.482777 1.570796 0.000000 1.545389
    1 6.265787 -0.443338 0.000000 0.001917 -0.000077 0.078418
    2 -1.211985 121.072578 2.116671 -0.000861 0.000000 -0.034797
    3 -2.423956 108.889275 3.327682 -0.000875 -0.000060 -0.087205
    4 -8.483835 103.017944 0.000000 0.054446 0.007444 -0.123263
    5 -7.271858 79.990417 0.000000 -0.038806 -0.020420 -0.059104
    6 -6.059879 73.930542 0.000000 0.007767 -0.010171 -0.358243
    7 -7.271858 77.566437 0.000000 -0.080441 -0.002165 0.207859
    8 -7.271864 68.661316 0.902174 0.077352 0.039797 0.260075
    9 -10.228978 63.176211 -0.324228 -0.014090 -0.004302 1.164361
    10 -4.847914 27.875425 0.000000 0.000000 0.000000 0.000000
    11 -10.884169 43.721066 -0.263436 0.000000 -1.570796 0.287833
    12 1.645461 3.130692 15.347058 -1.570797 1.282964 -1.570797
    13 -1.061229 0.200707 -0.378920 0.000000 0.000000 0.000000
    14 -4.349673 0.059656 0.000000 0.000000 0.000000 0.000000
    15 -4.230510 -0.536228 0.000000 0.000000 0.000000 0.000000
    16 -3.694255 -0.655429 0.000000 0.000000 0.000000 0.000000
    17 13.641458 7.020348 16.879305 -0.287833 0.000000 0.000000
    18 4.472665 2.448845 0.720848 0.897639 -0.313482 0.464488
    19 15.242571 6.789905 0.000000 -0.313416 -0.316834 0.102030
    20 8.366559 3.675034 14.276474 0.329301 -0.189518 -0.137116
    21 -15.633809 7.069125 16.813112 -0.287833 0.000000 0.000000
    22 -6.249312 1.413335 0.936005 0.526955 0.759268 -0.553467
    23 -13.856888 6.374216 0.000000 -0.037107 0.168065 -0.467276
    24 -5.687840 2.494701 12.855103 0.314787 0.232571 0.381934
end
