// Created by Crowbar 0.42.0.0
version 1
nodes
  0 "Dummy01" -1
  1 "Bone01" 0
  2 "Bone02" 1
  3 "Bone03" 2
  4 "Bone04" 3
  5 "Bone05" 4
  6 "Bone06" 5
  7 "Bone07" 6
  8 "Bone08" 7
  9 "Bone09" 8
  10 "Bone10" 9
  11 "Dummy04" 10
  12 "Dummy05" 11
  13 "Bone19" 12
  14 "Bone20" 13
  15 "Bone21" 14
  16 "Bone22" 15
  17 "Dummy03" 11
  18 "Bone11" 17
  19 "Bone12" 18
  20 "Bone13" 19
  21 "Dummy02" 11
  22 "Bone15" 21
  23 "Bone16" 22
  24 "Bone17" 23
end
skeleton
  time 0
    0 5.807106 1.410199 -318.830465 1.570796 0.000000 1.545389
    1 6.265787 -2.137183 0.000000 0.001917 -0.000077 0.078418
    2 -1.211985 121.072578 2.116671 -0.000861 0.000000 -0.034797
    3 -2.423956 108.889275 3.327682 -0.000875 -0.000060 -0.087205
    4 -8.483835 103.017944 0.000000 -0.002301 -0.000772 -0.322688
    5 -7.271858 79.990417 0.000000 -0.005633 -0.001839 -0.052215
    6 -6.059879 73.930542 0.000000 -0.006858 0.002242 0.279171
    7 -7.271858 77.566437 0.000000 -0.068971 0.008219 0.076414
    8 -7.271864 68.661316 0.902174 0.047449 0.021150 0.573747
    9 -10.228978 63.176211 -0.324228 -0.085908 -0.050735 0.647014
    10 -4.847914 27.875425 0.000000 0.000000 0.000000 0.000000
    11 -10.884169 43.721066 -0.263436 0.000000 -1.570796 0.287833
    12 1.645461 3.130692 15.347058 -1.570797 1.282964 -1.570797
    13 -1.061229 0.200707 -0.378920 0.000000 0.000000 0.000000
    14 -4.349673 0.059656 0.000000 0.000000 0.000000 0.000000
    15 -4.230510 -0.536228 0.000000 0.000000 0.000000 0.000000
    16 -3.694255 -0.655429 0.000000 0.000000 0.000000 0.000000
    17 13.641458 7.020348 16.879305 -0.287833 0.000000 0.000000
    18 4.472665 2.448845 0.720848 0.181857 -0.371726 0.953189
    19 15.242571 6.789905 0.000000 -0.443057 0.380195 -0.072181
    20 8.366559 3.675034 14.276474 0.000000 0.000000 0.000000
    21 -15.633809 7.069125 16.813112 -0.287833 0.000000 0.000000
    22 -6.249312 1.413335 0.936005 0.111141 0.711383 -0.904601
    23 -13.856888 6.374216 0.000000 -0.197753 -0.862520 -0.415528
    24 -5.687840 2.494701 12.855103 0.000000 0.000000 0.000000
  time 1
    0 5.807106 1.410199 -297.570000 1.570796 0.000000 1.545389
    1 6.265787 -4.083303 0.000000 0.001917 -0.000051 0.077556
    2 -1.211985 121.072578 2.116671 -0.001674 -0.000022 -0.046489
    3 -2.423956 108.889275 3.327682 -0.001115 -0.000072 -0.096493
    4 -8.483835 103.017944 0.000000 -0.001810 -0.000595 -0.302295
    5 -7.271858 79.990417 0.000000 -0.005285 -0.001712 -0.037922
    6 -6.059879 73.930542 0.000000 -0.007021 0.002269 0.272254
    7 -7.271858 77.566437 0.000000 -0.068648 0.008024 0.090588
    8 -7.271864 68.661316 0.902174 0.047003 0.020144 0.586898
    9 -10.228978 63.176211 -0.324228 -0.088721 -0.050248 0.693590
    10 -4.847914 27.875425 0.000000 0.000000 0.000000 0.000000
    11 -10.884169 43.721066 -0.263436 0.000000 -1.570796 0.287833
    12 1.645461 3.130692 15.347058 -1.570797 1.282964 -1.570797
    13 -1.061229 0.200707 -0.378920 0.000000 0.000000 0.000000
    14 -4.349673 0.059656 0.000000 0.000000 0.000000 0.000000
    15 -4.230510 -0.536228 0.000000 0.000000 0.000000 0.000000
    16 -3.694255 -0.655429 0.000000 0.000000 0.000000 0.000000
    17 13.641458 7.020348 16.879305 -0.287833 0.000000 0.000000
    18 4.472665 2.448845 0.720848 0.252684 -0.480350 0.921949
    19 15.242571 6.789905 0.000000 -0.443057 0.380195 -0.072181
    20 8.366559 3.675034 14.276474 0.000000 0.000000 0.000000
    21 -15.633809 7.069125 16.813112 -0.287833 0.000000 0.000000
    22 -6.249312 1.413335 0.936005 0.236140 0.799025 -0.820637
    23 -13.856888 6.374216 0.000000 -0.197753 -0.862520 -0.415528
    24 -5.687840 2.494701 12.855103 0.000000 0.000000 0.000000
  time 2
    0 5.807106 1.410199 -277.164617 1.570796 0.000000 1.545389
    1 6.265787 -5.813187 0.000000 0.001917 -0.000051 0.077172
    2 -1.211985 121.072578 2.116671 -0.003252 -0.000065 -0.058738
    3 -2.423956 108.889275 3.327682 -0.001366 -0.000108 -0.106536
    4 -8.483835 103.017944 0.000000 -0.001318 -0.000418 -0.281339
    5 -7.271858 79.990417 0.000000 -0.004926 -0.001607 -0.022792
    6 -6.059879 73.930542 0.000000 -0.007222 0.002297 0.264428
    7 -7.271858 77.566437 0.000000 -0.068324 0.007829 0.105385
    8 -7.271864 68.661316 0.902174 0.046577 0.019189 0.599304
    9 -10.228978 63.176211 -0.324228 -0.091559 -0.049645 0.740825
    10 -4.847914 27.875425 0.000000 0.000000 0.000000 0.000000
    11 -10.884169 43.721066 -0.263436 0.000000 -1.570796 0.287833
    12 1.645461 3.130692 15.347058 -1.570797 1.282964 -1.570797
    13 -1.061229 0.200707 -0.378920 0.000000 0.000000 0.000000
    14 -4.349673 0.059656 0.000000 0.000000 0.000000 0.000000
    15 -4.230510 -0.536228 0.000000 0.000000 0.000000 0.000000
    16 -3.694255 -0.655429 0.000000 0.000000 0.000000 0.000000
    17 13.641458 7.020348 16.879305 -0.287833 0.000000 0.000000
    18 4.472665 2.448845 0.720848 0.339574 -0.594963 0.875414
    19 15.242571 6.789905 0.000000 -0.443057 0.380195 -0.072181
    20 8.366559 3.675034 14.276474 0.000000 0.000000 0.000000
    21 -15.633809 7.069125 16.813112 -0.287833 0.000000 0.000000
    22 -6.249312 1.413335 0.936005 0.397431 0.883839 -0.702143
    23 -13.856888 6.374216 0.000000 -0.197753 -0.862520 -0.415528
    24 -5.687840 2.494701 12.855103 0.000000 0.000000 0.000000
  time 3
    0 5.807106 1.410199 -257.653185 1.570796 0.000000 1.545389
    1 6.265787 -7.362876 0.000000 0.001917 -0.000051 0.077076
    2 -1.211985 121.072578 2.116671 -0.004973 -0.000130 -0.071172
    3 -2.423956 108.889275 3.327682 -0.001618 -0.000132 -0.116769
    4 -8.483835 103.017944 0.000000 -0.000803 -0.000241 -0.260211
    5 -7.271858 79.990417 0.000000 -0.004554 -0.001480 -0.007468
    6 -6.059879 73.930542 0.000000 -0.007440 0.002351 0.256342
    7 -7.271858 77.566437 0.000000 -0.068001 0.007617 0.120356
    8 -7.271864 68.661316 0.902174 0.046152 0.018261 0.611569
    9 -10.228978 63.176211 -0.324228 -0.094346 -0.048871 0.788148
    10 -4.847914 27.875425 0.000000 0.000000 0.000000 0.000000
    11 -10.884169 43.721066 -0.263436 0.000000 -1.570796 0.287833
    12 1.645461 3.130692 15.347058 -1.570797 1.282964 -1.570797
    13 -1.061229 0.200707 -0.378920 0.000000 0.000000 0.000000
    14 -4.349673 0.059656 0.000000 0.000000 0.000000 0.000000
    15 -4.230510 -0.536228 0.000000 0.000000 0.000000 0.000000
    16 -3.694255 -0.655429 0.000000 0.000000 0.000000 0.000000
    17 13.641458 7.020348 16.879305 -0.287833 0.000000 0.000000
    18 4.472665 2.448845 0.720848 0.446847 -0.710673 0.808016
    19 15.242571 6.789905 0.000000 -0.443057 0.380195 -0.072181
    20 8.366559 3.675034 14.276474 0.000000 0.000000 0.000000
    21 -15.633809 7.069125 16.813112 -0.287833 0.000000 0.000000
    22 -6.249312 1.413335 0.936005 0.602463 0.956594 -0.540736
    23 -13.856888 6.374216 0.000000 -0.197753 -0.862520 -0.415528
    24 -5.687840 2.494701 12.855103 0.000000 0.000000 0.000000
  time 4
    0 5.807106 1.410199 -238.957968 1.570796 0.000000 1.545389
    1 6.265787 -8.696328 0.000000 0.001917 -0.000051 0.076980
    2 -1.211985 121.072578 2.116671 -0.006360 -0.000194 -0.083236
    3 -2.423956 108.889275 3.327682 -0.001870 -0.000168 -0.126624
    4 -8.483835 103.017944 0.000000 -0.000300 -0.000089 -0.239378
    5 -7.271858 79.990417 0.000000 -0.004195 -0.001374 0.007436
    6 -6.059879 73.930542 0.000000 -0.007640 0.002379 0.248744
    7 -7.271858 77.566437 0.000000 -0.067689 0.007405 0.134980
    8 -7.271864 68.661316 0.902174 0.045705 0.017306 0.624152
    9 -10.228978 63.180118 -0.324228 -0.097083 -0.047982 0.835208
    10 -4.847914 27.875425 0.000000 0.000000 0.000000 0.000000
    11 -10.884169 43.721066 -0.263436 0.000000 -1.570796 0.287833
    12 1.645461 3.130692 15.347058 -1.570797 1.282964 -1.570797
    13 -1.061229 0.200707 -0.378920 0.000000 0.000000 0.000000
    14 -4.349673 0.059656 0.000000 0.000000 0.000000 0.000000
    15 -4.230510 -0.536228 0.000000 0.000000 0.000000 0.000000
    16 -3.694255 -0.655429 0.000000 0.000000 0.000000 0.000000
    17 13.641458 7.020348 16.879305 -0.287833 0.000000 0.000000
    18 4.472665 2.448845 0.720848 0.581173 -0.821674 0.712622
    19 15.242571 6.789905 0.000000 -0.443057 0.380195 -0.072181
    20 8.366559 3.675034 14.276474 0.000000 0.000000 0.000000
    21 -15.633809 7.069125 16.813112 -0.287833 0.000000 0.000000
    22 -6.249312 1.413335 0.936005 0.851989 1.006732 -0.334863
    23 -13.856888 6.374216 0.000000 -0.197753 -0.862520 -0.415528
    24 -5.687840 2.494701 12.855103 0.000000 0.000000 0.000000
  time 5
    0 5.807106 1.410199 -221.195568 1.570796 0.000000 1.545389
    1 6.265787 -9.813545 0.000000 0.001917 -0.000051 0.076885
    2 -1.211985 121.072578 2.116671 -0.006838 -0.000259 -0.094556
    3 -2.423956 108.889275 3.327682 -0.002097 -0.000192 -0.135534
    4 -8.483835 103.017944 0.000000 0.000180 0.000051 -0.219303
    5 -7.271858 79.990417 0.000000 -0.003847 -0.001289 0.021311
    6 -6.059879 73.930542 0.000000 -0.007804 0.002406 0.242282
    7 -7.271858 77.566437 0.000000 -0.067389 0.007210 0.148842
    8 -7.271864 68.661316 0.902174 0.045195 0.016301 0.637622
    9 -10.228978 63.176211 -0.324228 -0.099744 -0.046978 0.881477
    10 -4.847914 27.875425 0.000000 0.000000 0.000000 0.000000
    11 -10.884169 43.721066 -0.263436 0.000000 -1.570796 0.287833
    12 1.645461 3.130692 15.347058 -1.570797 1.282964 -1.570797
    13 -1.061229 0.200707 -0.378920 0.000000 0.000000 0.000000
    14 -4.349673 0.059656 0.000000 0.000000 0.000000 0.000000
    15 -4.230510 -0.536228 0.000000 0.000000 0.000000 0.000000
    16 -3.694255 -0.655429 0.000000 0.000000 0.000000 0.000000
    17 13.641458 7.020348 16.879305 -0.287833 0.000000 0.000000
    18 4.472665 2.448845 0.720848 0.750068 -0.921109 0.581069
    19 15.242571 6.789905 0.000000 -0.443057 0.380195 -0.072181
    20 8.366559 3.675034 14.276474 0.000000 0.000000 0.000000
    21 -15.633809 7.069125 16.813112 -0.287833 0.000000 0.000000
    22 -6.249312 1.413335 0.936005 1.129795 1.025241 -0.100359
    23 -13.856888 6.374216 0.000000 -0.197753 -0.862520 -0.415528
    24 -5.687840 2.494701 12.855103 0.000000 0.000000 0.000000
  time 6
    0 5.807106 1.410199 -204.249384 1.570796 0.000000 1.545389
    1 6.265787 -10.714527 0.000000 0.001917 -0.000051 0.076309
    2 -1.211985 121.072578 2.116671 -0.005834 -0.000259 -0.104764
    3 -2.423956 108.889275 3.327682 -0.002277 -0.000216 -0.142931
    4 -8.483835 103.017944 0.000000 0.000635 0.000165 -0.200428
    5 -7.271858 79.990417 0.000000 -0.003547 -0.001205 0.033608
    6 -6.059879 73.930542 0.000000 -0.007913 0.002406 0.237670
    7 -7.271858 77.566437 0.000000 -0.067114 0.007015 0.161457
    8 -7.271864 68.661316 0.902174 0.044621 0.015192 0.652510
    9 -10.228978 63.176211 -0.324228 -0.102278 -0.045917 0.926559
    10 -4.847914 27.875425 0.000000 0.000000 0.000000 0.000000
    11 -10.884169 43.721066 -0.263436 0.000000 -1.570796 0.287833
    12 1.645461 3.130692 15.347058 -1.570797 1.282964 -1.570797
    13 -1.061229 0.200707 -0.378920 0.000000 0.000000 0.000000
    14 -4.349673 0.059656 0.000000 0.000000 0.000000 0.000000
    15 -4.230510 -0.536228 0.000000 0.000000 0.000000 0.000000
    16 -3.694255 -0.655429 0.000000 0.000000 0.000000 0.000000
    17 13.641458 7.020348 16.879305 -0.287833 0.000000 0.000000
    18 4.472665 2.448845 0.720848 0.959072 -1.001114 0.407305
    19 15.242571 6.789905 0.000000 -0.443057 0.380195 -0.072181
    20 8.366559 3.675034 14.276474 0.000000 0.000000 0.000000
    21 -15.633809 7.069125 16.813112 -0.287833 0.000000 0.000000
    22 -6.249312 1.413335 0.936005 1.402133 1.009648 0.129610
    23 -13.856888 6.374216 0.000000 -0.197753 -0.862520 -0.415528
    24 -5.687840 2.494701 12.855103 0.000000 0.000000 0.000000
  time 7
    0 5.807106 1.410199 -188.197149 1.570796 0.000000 1.545389
    1 6.265787 -11.399273 0.000000 0.001821 -0.000051 0.075255
    2 -1.211985 121.072578 2.116671 -0.002869 -0.000151 -0.113301
    3 -2.423956 108.889275 3.327682 -0.002421 -0.000240 -0.148225
    4 -8.483835 103.017944 0.000000 0.001067 0.000279 -0.183169
    5 -7.271858 79.990417 0.000000 -0.003296 -0.001141 0.043652
    6 -6.059879 73.930542 0.000000 -0.007967 0.002433 0.235592
    7 -7.271858 77.566437 0.000000 -0.066886 0.006852 0.172373
    8 -7.271864 68.661316 0.902174 0.043961 0.013954 0.669312
    9 -10.228978 63.180118 -0.324228 -0.104686 -0.044741 0.970015
    10 -4.847914 27.875425 0.000000 0.000000 0.000000 0.000000
    11 -10.884169 43.721066 -0.263436 0.000000 -1.570796 0.287833
    12 1.645461 3.130692 15.347058 -1.570797 1.282964 -1.570797
    13 -1.061229 0.200707 -0.378920 0.000000 0.000000 0.000000
    14 -4.349673 0.059656 0.000000 0.000000 0.000000 0.000000
    15 -4.230510 -0.536228 0.000000 0.000000 0.000000 0.000000
    16 -3.694255 -0.655429 0.000000 0.000000 0.000000 0.000000
    17 13.641458 7.020348 16.879305 -0.287833 0.000000 0.000000
    18 4.472665 2.448845 0.720848 1.203584 -1.054191 0.195599
    19 15.242571 6.789905 0.000000 -0.443057 0.380195 -0.072181
    20 8.366559 3.675034 14.276474 0.000000 0.000000 0.000000
    21 -15.633809 7.069125 16.813112 -0.287833 0.000000 0.000000
    22 -6.249312 1.413335 0.936005 1.638084 0.966136 0.324926
    23 -13.856888 6.374216 0.000000 -0.197753 -0.862520 -0.415528
    24 -5.687840 2.494701 12.855103 0.000000 0.000000 0.000000
  time 8
    0 5.807106 1.410199 -172.999998 1.570796 0.000000 1.545389
    1 6.265787 -11.687587 0.000000 0.001821 -0.000051 0.073433
    2 -1.211985 121.072578 2.116671 0.010233 0.000432 -0.116920
    3 -2.423956 108.889275 3.327682 -0.002517 -0.000252 -0.152479
    4 -8.483835 103.017944 0.000000 0.001462 0.000367 -0.167232
    5 -7.271858 79.990417 0.000000 -0.003068 -0.001099 0.053020
    6 -6.059879 73.930542 0.000000 -0.007895 0.002406 0.238677
    7 -7.271858 77.566437 0.000000 -0.066646 0.006673 0.183948
    8 -7.271864 68.661316 0.902174 0.043132 0.012483 0.689588
    9 -10.228978 63.176211 -0.324228 -0.107144 -0.043422 1.015932
    10 -4.847914 27.875425 0.000000 0.000000 0.000000 0.000000
    11 -10.884169 43.721066 -0.263436 0.000000 -1.570796 0.287833
    12 1.645461 3.130692 15.347058 -1.570797 1.282964 -1.570797
    13 -1.061229 0.200707 -0.378920 0.000000 0.000000 0.000000
    14 -4.349673 0.059656 0.000000 0.000000 0.000000 0.000000
    15 -4.230510 -0.536228 0.000000 0.000000 0.000000 0.000000
    16 -3.694255 -0.655429 0.000000 0.000000 0.000000 0.000000
    17 13.641458 7.020348 16.879305 -0.287833 0.000000 0.000000
    18 4.472665 2.448845 0.720848 1.460871 -1.076776 -0.031834
    19 15.242571 6.789905 0.000000 -0.443057 0.380195 -0.072181
    20 8.366559 3.675034 14.276474 0.000000 0.000000 0.000000
    21 -15.633809 7.069125 16.813112 -0.287833 0.000000 0.000000
    22 -6.249312 1.413335 0.936005 1.825582 0.905838 0.474037
    23 -13.856888 6.374216 0.000000 -0.197753 -0.862520 -0.415528
    24 -5.687840 2.494701 12.855103 0.000000 0.000000 0.000000
  time 9
    0 5.807106 1.410199 -158.696796 1.570796 0.000000 1.545389
    1 6.265787 -11.399273 0.000000 0.001725 -0.000051 0.070557
    2 -1.211985 121.072578 2.116671 0.030316 0.001339 -0.114878
    3 -2.423956 108.889275 3.327682 -0.002625 -0.000276 -0.156685
    4 -8.483835 103.017944 0.000000 0.001834 0.000443 -0.151980
    5 -7.271858 79.990417 0.000000 -0.002816 -0.001036 0.062999
    6 -6.059879 73.930542 0.000000 -0.007676 0.002379 0.247315
    7 -7.271858 77.566437 0.000000 -0.066359 0.006462 0.197775
    8 -7.271864 68.661316 0.902174 0.042132 0.010755 0.713408
    9 -10.228978 63.176211 -0.324228 -0.109805 -0.041816 1.066463
    10 -4.847914 27.875425 0.000000 0.000000 0.000000 0.000000
    11 -10.884169 43.721066 -0.263436 0.000000 -1.570796 0.287833
    12 1.645461 3.130692 15.347058 -1.570797 1.282964 -1.570797
    13 -1.061229 0.200707 -0.378920 0.000000 0.000000 0.000000
    14 -4.349673 0.059656 0.000000 0.000000 0.000000 0.000000
    15 -4.230510 -0.536228 0.000000 0.000000 0.000000 0.000000
    16 -3.694255 -0.655429 0.000000 0.000000 0.000000 0.000000
    17 13.641458 7.020348 16.879305 -0.287833 0.000000 0.000000
    18 4.472665 2.448845 0.720848 1.697210 -1.072478 -0.241973
    19 15.242571 6.789905 0.000000 -0.443057 0.380195 -0.072181
    20 8.366559 3.675034 14.276474 0.000000 0.000000 0.000000
    21 -15.633809 7.069125 16.813112 -0.287833 0.000000 0.000000
    22 -6.249312 1.413335 0.936005 1.967266 0.839798 0.580669
    23 -13.856888 6.374216 0.000000 -0.197753 -0.862520 -0.415528
    24 -5.687840 2.494701 12.855103 0.000000 0.000000 0.000000
  time 10
    0 5.807106 1.410199 -145.248678 1.570796 0.000000 1.545389
    1 6.265787 -10.642448 0.000000 0.001629 -0.000051 0.066627
    2 -1.211985 121.072578 2.116671 0.040740 0.001728 -0.110610
    3 -2.423956 108.889275 3.327682 -0.002721 -0.000288 -0.160277
    4 -8.483835 103.017944 0.000000 0.002193 0.000519 -0.137511
    5 -7.271858 79.990417 0.000000 -0.002589 -0.000994 0.072560
    6 -6.059879 73.930542 0.000000 -0.007367 0.002324 0.258973
    7 -7.271858 77.566437 0.000000 -0.066071 0.006234 0.211983
    8 -7.271864 68.661316 0.902174 0.040984 0.008924 0.739214
    9 -10.228978 63.176211 -0.324228 -0.112440 -0.040037 1.118400
    10 -4.847914 27.875425 0.000000 0.000000 0.000000 0.000000
    11 -10.884169 43.721066 -0.263436 0.000000 -1.570796 0.287833
    12 1.645461 3.130692 15.347058 -1.570797 1.282964 -1.570797
    13 -1.061229 0.200707 -0.378920 0.000000 0.000000 0.000000
    14 -4.349673 0.059656 0.000000 0.000000 0.000000 0.000000
    15 -4.230510 -0.536228 0.000000 0.000000 0.000000 0.000000
    16 -3.694255 -0.655429 0.000000 0.000000 0.000000 0.000000
    17 13.641458 7.020348 16.879305 -0.287833 0.000000 0.000000
    18 4.472665 2.448845 0.720848 1.887710 -1.051448 -0.410602
    19 15.242571 6.789905 0.000000 -0.443057 0.380195 -0.072181
    20 8.366559 3.675034 14.276474 0.000000 0.000000 0.000000
    21 -15.633809 7.069125 16.813112 -0.287833 0.000000 0.000000
    22 -6.249312 1.413335 0.936005 2.070677 0.777026 0.653330
    23 -13.856888 6.374216 0.000000 -0.197753 -0.862520 -0.415528
    24 -5.687840 2.494701 12.855103 0.000000 0.000000 0.000000
  time 11
    0 5.807106 1.410199 -132.655641 1.570796 0.000000 1.545389
    1 6.265787 -9.453153 0.000000 0.001437 -0.000026 0.058766
    2 -1.211985 121.072578 2.116671 0.037919 0.001555 -0.105413
    3 -2.423956 108.889275 3.327682 -0.002780 -0.000300 -0.162664
    4 -8.483835 103.017944 0.000000 0.002541 0.000582 -0.123851
    5 -7.271858 79.990417 0.000000 -0.002385 -0.000951 0.080704
    6 -6.059879 73.930542 0.000000 -0.007058 0.002269 0.270955
    7 -7.271858 77.566437 0.000000 -0.065807 0.006022 0.224736
    8 -7.271864 68.661316 0.902174 0.039793 0.007093 0.765445
    9 -10.228978 63.176211 -0.324228 -0.114898 -0.038202 1.168448
    10 -4.847914 27.875425 0.000000 0.000000 0.000000 0.000000
    11 -10.884169 43.721066 -0.263436 0.000000 -1.570796 0.287833
    12 1.645461 3.130692 15.347058 -1.570797 1.282964 -1.570797
    13 -1.061229 0.200707 -0.378920 0.000000 0.000000 0.000000
    14 -4.349673 0.059656 0.000000 0.000000 0.000000 0.000000
    15 -4.230510 -0.536228 0.000000 0.000000 0.000000 0.000000
    16 -3.694255 -0.655429 0.000000 0.000000 0.000000 0.000000
    17 13.641458 7.020348 16.879305 -0.287833 0.000000 0.000000
    18 4.472665 2.448845 0.720848 2.024572 -1.025252 -0.530750
    19 15.242571 6.789905 0.000000 -0.443057 0.380195 -0.072181
    20 8.366559 3.675034 14.276474 0.000000 0.000000 0.000000
    21 -15.633809 7.069125 16.813112 -0.287833 0.000000 0.000000
    22 -6.249312 1.413335 0.936005 2.142226 0.724414 0.699970
    23 -13.856888 6.374216 0.000000 -0.197753 -0.862520 -0.415528
    24 -5.687840 2.494701 12.855103 0.000000 0.000000 0.000000
  time 12
    0 5.807106 1.410199 -120.956555 1.570796 0.000000 1.545389
    1 6.265787 -7.939504 0.000000 0.001150 -0.000026 0.046303
    2 -1.211985 121.072578 2.116671 0.030411 0.001231 -0.098918
    3 -2.423956 108.889275 3.327682 -0.002792 -0.000300 -0.163231
    4 -8.483835 103.017944 0.000000 0.002852 0.000633 -0.111047
    5 -7.271858 79.990417 0.000000 -0.002241 -0.000909 0.086402
    6 -6.059879 73.930542 0.000000 -0.006803 0.002242 0.280730
    7 -7.271858 77.566437 0.000000 -0.065616 0.005859 0.234232
    8 -7.271864 68.661316 0.902174 0.038580 0.005365 0.790541
    9 -10.228978 63.180118 -0.324228 -0.117002 -0.036452 1.213266
    10 -4.847914 27.875425 0.000000 0.000000 0.000000 0.000000
    11 -10.884169 43.721066 -0.263436 0.000000 -1.570796 0.287833
    12 1.645461 3.130692 15.347058 -1.570797 1.282964 -1.570797
    13 -1.061229 0.200707 -0.378920 0.000000 0.000000 0.000000
    14 -4.349673 0.059656 0.000000 0.000000 0.000000 0.000000
    15 -4.230510 -0.536228 0.000000 0.000000 0.000000 0.000000
    16 -3.694255 -0.655429 0.000000 0.000000 0.000000 0.000000
    17 13.641458 7.020348 16.879305 -0.287833 0.000000 0.000000
    18 4.472665 2.448845 0.720848 2.109959 -1.003903 -0.605607
    19 15.242571 6.789905 0.000000 -0.443057 0.380195 -0.072181
    20 8.366559 3.675034 14.276474 0.000000 0.000000 0.000000
    21 -15.633809 7.069125 16.813112 -0.287833 0.000000 0.000000
    22 -6.249312 1.413335 0.936005 2.185966 0.687264 0.726115
    23 -13.856888 6.374216 0.000000 -0.197753 -0.862520 -0.415528
    24 -5.687840 2.494701 12.855103 0.000000 0.000000 0.000000
  time 13
    0 5.807106 1.410199 -110.112552 1.570796 0.000000 1.545389
    1 6.265787 -6.209619 0.000000 0.000767 0.000000 0.032019
    2 -1.211985 121.072578 2.116671 0.020035 0.000843 -0.091865
    3 -2.423956 108.889275 3.327682 -0.002744 -0.000288 -0.161412
    4 -8.483835 103.017944 0.000000 0.003152 0.000684 -0.099198
    5 -7.271858 79.990417 0.000000 -0.002181 -0.000909 0.088591
    6 -6.059879 73.930542 0.000000 -0.006694 0.002215 0.285633
    7 -7.271858 77.566437 0.000000 -0.065532 0.005794 0.238598
    8 -7.271864 68.661316 0.902174 0.037475 0.003869 0.812908
    9 -10.228978 63.176211 -0.324228 -0.118674 -0.034961 1.249692
    10 -4.847914 27.875425 0.000000 0.000000 0.000000 0.000000
    11 -10.884169 43.721066 -0.263436 0.000000 -1.570796 0.287833
    12 1.645461 3.130692 15.347058 -1.570797 1.282964 -1.570797
    13 -1.061229 0.200707 -0.378920 0.000000 0.000000 0.000000
    14 -4.349673 0.059656 0.000000 0.000000 0.000000 0.000000
    15 -4.230510 -0.536228 0.000000 0.000000 0.000000 0.000000
    16 -3.694255 -0.655429 0.000000 0.000000 0.000000 0.000000
    17 13.641458 7.020348 16.879305 -0.287833 0.000000 0.000000
    18 4.472665 2.448845 0.720848 1.987750 -1.039470 -0.504375
    19 15.242571 6.789905 0.000000 -0.443057 0.380195 -0.072181
    20 8.366559 3.675034 14.276474 0.000000 0.000000 0.000000
    21 -15.633809 7.069125 16.813112 -0.287833 0.000000 0.000000
    22 -6.249312 1.413335 0.936005 2.070395 0.766645 0.644076
    23 -13.856888 6.374216 0.000000 -0.197753 -0.862520 -0.415528
    24 -5.687840 2.494701 12.855103 0.000000 0.000000 0.000000
  time 14
    0 5.807106 1.410199 -100.123632 1.570796 0.000000 1.545389
    1 6.265787 -4.335578 0.000000 0.000383 0.000000 0.018502
    2 -1.211985 121.072578 2.116671 0.008655 0.000410 -0.084813
    3 -2.423956 108.889275 3.327682 -0.002625 -0.000276 -0.156614
    4 -8.483835 103.017944 0.000000 0.003428 0.000722 -0.088353
    5 -7.271858 79.990417 0.000000 -0.002241 -0.000930 0.086306
    6 -6.059879 73.930542 0.000000 -0.006749 0.002215 0.283068
    7 -7.271858 77.566437 0.000000 -0.065580 0.005827 0.236034
    8 -7.271864 68.661316 0.902174 0.036560 0.002657 0.830951
    9 -10.228978 63.176211 -0.324228 -0.119764 -0.033900 1.274342
    10 -4.847914 27.875425 0.000000 0.000000 0.000000 0.000000
    11 -10.884169 43.721066 -0.263436 0.000000 -1.570796 0.287833
    12 1.645461 3.130692 15.347058 -1.570797 1.282964 -1.570797
    13 -1.061229 0.200707 -0.378920 0.000000 0.000000 0.000000
    14 -4.349673 0.059656 0.000000 0.000000 0.000000 0.000000
    15 -4.230510 -0.536228 0.000000 0.000000 0.000000 0.000000
    16 -3.694255 -0.655429 0.000000 0.000000 0.000000 0.000000
    17 13.641458 7.020348 16.879305 -0.287833 0.000000 0.000000
    18 4.472665 2.448845 0.720848 1.522774 -1.093600 -0.099664
    19 15.242571 6.789905 0.000000 -0.443057 0.380195 -0.072181
    20 8.366559 3.675034 14.276474 0.000000 0.000000 0.000000
    21 -15.633809 7.069125 16.813112 -0.287833 0.000000 0.000000
    22 -6.249312 1.413335 0.936005 1.681824 0.931548 0.342129
    23 -13.856888 6.374216 0.000000 -0.197753 -0.862520 -0.415528
    24 -5.687840 2.494701 12.855103 0.000000 0.000000 0.000000
  time 15
    0 5.807106 1.410199 -90.989794 1.570796 0.000000 1.545389
    1 6.265787 -2.353419 0.000000 0.000192 0.000000 0.008724
    2 -1.211985 121.072578 2.116671 -0.001960 -0.000065 -0.078410
    3 -2.423956 108.889275 3.327682 -0.002421 -0.000240 -0.148225
    4 -8.483835 103.017944 0.000000 0.003667 0.000760 -0.078536
    5 -7.271858 79.990417 0.000000 -0.002433 -0.000951 0.078515
    6 -6.059879 73.930542 0.000000 -0.007076 0.002269 0.270468
    7 -7.271858 77.566437 0.000000 -0.065807 0.006022 0.224667
    8 -7.271864 68.661316 0.902174 0.035943 0.001857 0.843109
    9 -10.228978 63.176211 -0.324228 -0.120169 -0.033498 1.284053
    10 -4.847914 27.875425 0.000000 0.000000 0.000000 0.000000
    11 -10.884169 43.721066 -0.263436 0.000000 -1.570796 0.287833
    12 1.645461 3.130692 15.347058 -1.570797 1.282964 -1.570797
    13 -1.061229 0.200707 -0.378920 0.000000 0.000000 0.000000
    14 -4.349673 0.059656 0.000000 0.000000 0.000000 0.000000
    15 -4.230510 -0.536228 0.000000 0.000000 0.000000 0.000000
    16 -3.694255 -0.655429 0.000000 0.000000 0.000000 0.000000
    17 13.641458 7.020348 16.879305 -0.287833 0.000000 0.000000
    18 4.472665 2.448845 0.720848 0.935776 -1.024887 0.411197
    19 15.242571 6.789905 0.000000 -0.443057 0.380195 -0.072181
    20 8.366559 3.675034 14.276474 0.000000 0.000000 0.000000
    21 -15.633809 7.069125 16.813112 -0.287833 0.000000 0.000000
    22 -6.249312 1.413335 0.936005 1.151570 0.992685 -0.101726
    23 -13.856888 6.374216 0.000000 -0.197753 -0.862520 -0.415528
    24 -5.687840 2.494701 12.855103 0.000000 0.000000 0.000000
  time 16
    0 5.807106 1.410199 -82.749906 1.570796 0.000000 1.545389
    1 6.265787 -0.443338 0.000000 0.000000 0.000000 0.002493
    2 -1.211985 121.072578 2.116671 -0.013771 -0.000821 -0.072936
    3 -2.423956 108.889275 3.327682 -0.002085 -0.000192 -0.134967
    4 -8.483835 103.017944 0.000000 0.003907 0.000785 -0.069453
    5 -7.271858 79.990417 0.000000 -0.002780 -0.001036 0.064480
    6 -6.059879 73.930542 0.000000 -0.007713 0.002379 0.245269
    7 -7.271858 77.566437 0.000000 -0.066335 0.006429 0.198918
    8 -7.271864 68.661316 0.902174 0.035645 0.001496 0.848745
    9 -10.228978 63.176211 -0.324228 -0.119916 -0.033757 1.277946
    10 -4.847914 27.875425 0.000000 0.000000 0.000000 0.000000
    11 -10.884169 43.721066 -0.263436 0.000000 -1.570796 0.287833
    12 1.645461 3.130692 15.347058 -1.570797 1.282964 -1.570797
    13 -1.061229 0.200707 -0.378920 0.000000 0.000000 0.000000
    14 -4.349673 0.059656 0.000000 0.000000 0.000000 0.000000
    15 -4.230510 -0.536228 0.000000 0.000000 0.000000 0.000000
    16 -3.694255 -0.655429 0.000000 0.000000 0.000000 0.000000
    17 13.641458 7.020348 16.879305 -0.287833 0.000000 0.000000
    18 4.472665 2.448845 0.720848 0.573752 -0.869494 0.702569
    19 15.242571 6.789905 0.000000 -0.443057 0.380195 -0.072181
    20 8.366559 3.675034 14.276474 0.000000 0.000000 0.000000
    21 -15.633809 7.069125 16.813112 -0.287833 0.000000 0.000000
    22 -6.249312 1.413335 0.936005 0.921935 0.977533 -0.291949
    23 -13.856888 6.374216 0.000000 -0.197753 -0.862520 -0.415528
    24 -5.687840 2.494701 12.855103 0.000000 0.000000 0.000000
  time 17
    0 5.807106 1.410199 -75.403968 1.570796 0.000000 1.545389
    1 6.265787 1.394664 0.000000 0.000000 0.000000 -0.002109
    2 -1.211985 121.072578 2.116671 -0.027973 -0.001815 -0.067925
    3 -2.423956 108.889275 3.327682 -0.001630 -0.000132 -0.116793
    4 -8.483835 103.017944 0.000000 0.004123 0.000810 -0.060860
    5 -7.271858 79.990417 0.000000 -0.003272 -0.001141 0.044907
    6 -6.059879 73.930542 0.000000 -0.008659 0.002515 0.208964
    7 -7.271858 77.566437 0.000000 -0.067186 0.007064 0.158095
    8 -7.271864 68.661316 0.902174 0.035624 0.001470 0.849171
    9 -10.228978 63.176211 -0.324228 -0.119080 -0.034560 1.258832
    10 -4.847914 27.875425 0.000000 0.000000 0.000000 0.000000
    11 -10.884169 43.721066 -0.263436 0.000000 -1.570796 0.287833
    12 1.645461 3.130692 15.347058 -1.570797 1.282964 -1.570797
    13 -1.061229 0.200707 -0.378920 0.000000 0.000000 0.000000
    14 -4.349673 0.059656 0.000000 0.000000 0.000000 0.000000
    15 -4.230510 -0.536228 0.000000 0.000000 0.000000 0.000000
    16 -3.694255 -0.655429 0.000000 0.000000 0.000000 0.000000
    17 13.641458 7.020348 16.879305 -0.287833 0.000000 0.000000
    18 4.472665 2.448845 0.720848 0.573752 -0.869494 0.702569
    19 15.242571 6.789905 0.000000 -0.443057 0.380195 -0.072181
    20 8.366559 3.675034 14.276474 0.000000 0.000000 0.000000
    21 -15.633809 7.069125 16.813112 -0.287833 0.000000 0.000000
    22 -6.249312 1.413335 0.936005 1.258470 0.992022 0.002049
    23 -13.856888 6.374216 0.000000 -0.197753 -0.862520 -0.415528
    24 -5.687840 2.494701 12.855103 0.000000 0.000000 0.000000
  time 18
    0 5.807106 1.410199 -68.874246 1.570796 0.000000 1.545389
    1 6.265787 3.088510 0.000000 -0.000096 0.000000 -0.005752
    2 -1.211985 121.072578 2.116671 -0.041648 -0.002765 -0.063007
    3 -2.423956 108.889275 3.327682 -0.001079 -0.000072 -0.095122
    4 -8.483835 103.017944 0.000000 0.004314 0.000836 -0.053075
    5 -7.271858 79.990417 0.000000 -0.003859 -0.001289 0.020796
    6 -6.059879 73.930542 0.000000 -0.009805 0.002597 0.164736
    7 -7.271858 77.566437 0.000000 -0.068276 0.007796 0.107811
    8 -7.271864 68.661316 0.902174 0.035816 0.001702 0.845520
    9 -10.228978 63.176211 -0.324228 -0.117711 -0.035821 1.228821
    10 -4.847914 27.875425 0.000000 0.000000 0.000000 0.000000
    11 -10.884169 43.721066 -0.263436 0.000000 -1.570796 0.287833
    12 1.645461 3.130692 15.347058 -1.570797 1.282964 -1.570797
    13 -1.061229 0.200707 -0.378920 0.000000 0.000000 0.000000
    14 -4.349673 0.059656 0.000000 0.000000 0.000000 0.000000
    15 -4.230510 -0.536228 0.000000 0.000000 0.000000 0.000000
    16 -3.694255 -0.655429 0.000000 0.000000 0.000000 0.000000
    17 13.641458 7.020348 16.879305 -0.287833 0.000000 0.000000
    18 4.472665 2.448845 0.720848 0.573752 -0.869494 0.702569
    19 15.242571 6.789905 0.000000 -0.443057 0.380195 -0.072181
    20 8.366559 3.675034 14.276474 0.000000 0.000000 0.000000
    21 -15.633809 7.069125 16.813112 -0.287833 0.000000 0.000000
    22 -6.249312 1.413335 0.936005 1.857162 0.868599 0.508815
    23 -13.856888 6.374216 0.000000 -0.197753 -0.862520 -0.415528
    24 -5.687840 2.494701 12.855103 0.000000 0.000000 0.000000
  time 19
    0 5.807106 1.410199 -63.238473 1.570796 0.000000 1.545389
    1 6.265787 4.494041 0.000000 -0.000192 0.000000 -0.008820
    2 -1.211985 121.072578 2.116671 -0.051929 -0.003435 -0.057717
    3 -2.423956 108.889275 3.327682 -0.000479 -0.000024 -0.071324
    4 -8.483835 103.017944 0.000000 0.004482 0.000848 -0.046319
    5 -7.271858 79.990417 0.000000 -0.004530 -0.001480 -0.006760
    6 -6.059879 73.930542 0.000000 -0.011060 0.002652 0.115896
    7 -7.271858 77.566437 0.000000 -0.069487 0.008512 0.053680
    8 -7.271864 68.661316 0.902174 0.036156 0.002141 0.839033
    9 -10.228978 63.176211 -0.324228 -0.115912 -0.037370 1.189934
    10 -4.847914 27.875425 0.000000 0.000000 0.000000 0.000000
    11 -10.884169 43.721066 -0.263436 0.000000 -1.570796 0.287833
    12 1.645461 3.130692 15.347058 -1.570797 1.282964 -1.570797
    13 -1.061229 0.200707 -0.378920 0.000000 0.000000 0.000000
    14 -4.349673 0.059656 0.000000 0.000000 0.000000 0.000000
    15 -4.230510 -0.536228 0.000000 0.000000 0.000000 0.000000
    16 -3.694255 -0.655429 0.000000 0.000000 0.000000 0.000000
    17 13.641458 7.020348 16.879305 -0.287833 0.000000 0.000000
    18 4.472665 2.448845 0.720848 0.573752 -0.869494 0.702569
    19 15.242571 6.789905 0.000000 -0.443057 0.380195 -0.072181
    20 8.366559 3.675034 14.276474 0.000000 0.000000 0.000000
    21 -15.633809 7.069125 16.813112 -0.287833 0.000000 0.000000
    22 -6.249312 1.413335 0.936005 2.223956 0.635624 0.783375
    23 -13.856888 6.374216 0.000000 -0.197753 -0.862520 -0.415528
    24 -5.687840 2.494701 12.855103 0.000000 0.000000 0.000000
  time 20
    0 5.807106 1.410199 -58.457784 1.570796 0.000000 1.545389
    1 6.265787 5.575219 0.000000 -0.000287 0.000000 -0.011887
    2 -1.211985 121.072578 2.116671 -0.055898 -0.003565 -0.051686
    3 -2.423956 108.889275 3.327682 0.000132 0.000000 -0.046769
    4 -8.483835 103.017944 0.000000 0.004626 0.000861 -0.040859
    5 -7.271858 79.990417 0.000000 -0.005261 -0.001712 -0.036731
    6 -6.059879 73.930542 0.000000 -0.012369 0.002652 0.065661
    7 -7.271858 77.566437 0.000000 -0.070685 0.009147 0.001282
    8 -7.271864 68.661316 0.902174 0.036581 0.002682 0.830880
    9 -10.228978 63.176211 -0.324228 -0.113707 -0.039091 1.144281
    10 -4.847914 27.875425 0.000000 0.000000 0.000000 0.000000
    11 -10.884169 43.721066 -0.263436 0.000000 -1.570796 0.287833
    12 1.645461 3.130692 15.347058 -1.570797 1.282964 -1.570797
    13 -1.061229 0.200707 -0.378920 0.000000 0.000000 0.000000
    14 -4.349673 0.059656 0.000000 0.000000 0.000000 0.000000
    15 -4.230510 -0.536228 0.000000 0.000000 0.000000 0.000000
    16 -3.694255 -0.655429 0.000000 0.000000 0.000000 0.000000
    17 13.641458 7.020348 16.879305 -0.287833 0.000000 0.000000
    18 4.472665 2.448845 0.720848 0.573752 -0.869494 0.702569
    19 15.242571 6.789905 0.000000 -0.443057 0.380195 -0.072181
    20 8.366559 3.675034 14.276474 0.000000 0.000000 0.000000
    21 -15.633809 7.069125 16.813112 -0.287833 0.000000 0.000000
    22 -6.249312 1.413335 0.936005 2.320109 0.541886 0.849763
    23 -13.856888 6.374216 0.000000 -0.197753 -0.862520 -0.415528
    24 -5.687840 2.494701 12.855103 0.000000 0.000000 0.000000
  time 21
    0 5.807106 1.410199 -54.571044 1.570796 0.000000 1.545389
    1 6.265787 6.223925 0.000000 -0.000383 0.000000 -0.015434
    2 -1.211985 121.072578 2.116671 -0.042796 -0.002614 -0.046397
    3 -2.423956 108.889275 3.327682 0.000743 0.000024 -0.022877
    4 -8.483835 103.017944 0.000000 0.004722 0.000874 -0.036967
    5 -7.271858 79.990417 0.000000 -0.006016 -0.001966 -0.068085
    6 -6.059879 73.930542 0.000000 -0.013625 0.002570 0.017276
    7 -7.271858 77.566437 0.000000 -0.071740 0.009635 -0.043700
    8 -7.271864 68.661316 0.902174 0.037007 0.003250 0.822231
    9 -10.228978 63.176211 -0.324228 -0.111198 -0.040898 1.093970
    10 -4.847914 27.875425 0.000000 0.000000 0.000000 0.000000
    11 -10.884169 43.721066 -0.263436 0.000000 -1.570796 0.287833
    12 1.645461 3.130692 15.347058 -1.570797 1.282964 -1.570797
    13 -1.061229 0.200707 -0.378920 0.000000 0.000000 0.000000
    14 -4.349673 0.059656 0.000000 0.000000 0.000000 0.000000
    15 -4.230510 -0.536228 0.000000 0.000000 0.000000 0.000000
    16 -3.694255 -0.655429 0.000000 0.000000 0.000000 0.000000
    17 13.641458 7.020348 16.879305 -0.287833 0.000000 0.000000
    18 4.472665 2.448845 0.720848 0.573752 -0.869494 0.702569
    19 15.242571 6.789905 0.000000 -0.443057 0.380195 -0.072181
    20 8.366559 3.675034 14.276474 0.000000 0.000000 0.000000
    21 -15.633809 7.069125 16.813112 -0.287833 0.000000 0.000000
    22 -6.249312 1.413335 0.936005 2.204349 0.662305 0.787908
    23 -13.856888 6.374216 0.000000 -0.197753 -0.862520 -0.415528
    24 -5.687840 2.494701 12.855103 0.000000 0.000000 0.000000
  time 22
    0 5.807106 1.410199 -51.539387 1.570796 0.000000 1.545389
    1 6.265787 6.368082 0.000000 -0.000479 0.000000 -0.020036
    2 -1.211985 121.072578 2.116671 -0.017549 -0.000994 -0.039808
    3 -2.423956 108.889275 3.327682 0.001294 0.000024 -0.001016
    4 -8.483835 103.017944 0.000000 0.004770 0.000874 -0.034910
    5 -7.271858 79.990417 0.000000 -0.006771 -0.002241 -0.099762
    6 -6.059879 73.930542 0.000000 -0.014734 0.002433 -0.025946
    7 -7.271858 77.566437 0.000000 -0.072507 0.009961 -0.075755
    8 -7.271864 68.661316 0.902174 0.037411 0.003766 0.814326
    9 -10.228978 63.176211 -0.324228 -0.108487 -0.042647 1.040978
    10 -4.847914 27.875425 0.000000 0.000000 0.000000 0.000000
    11 -10.884169 43.721066 -0.263436 0.000000 -1.570796 0.287833
    12 1.645461 3.130692 15.347058 -1.570797 1.282964 -1.570797
    13 -1.061229 0.200707 -0.378920 0.000000 0.000000 0.000000
    14 -4.349673 0.059656 0.000000 0.000000 0.000000 0.000000
    15 -4.230510 -0.536228 0.000000 0.000000 0.000000 0.000000
    16 -3.694255 -0.655429 0.000000 0.000000 0.000000 0.000000
    17 13.641458 7.020348 16.879305 -0.287833 0.000000 0.000000
    18 4.472665 2.448845 0.720848 0.573752 -0.869494 0.702569
    19 15.242571 6.789905 0.000000 -0.443057 0.380195 -0.072181
    20 8.366559 3.675034 14.276474 0.000000 0.000000 0.000000
    21 -15.633809 7.069125 16.813112 -0.287833 0.000000 0.000000
    22 -6.249312 1.413335 0.936005 1.904861 0.868069 0.578246
    23 -13.856888 6.374216 0.000000 -0.197753 -0.862520 -0.415528
    24 -5.687840 2.494701 12.855103 0.000000 0.000000 0.000000
  time 23
    0 5.807106 1.410199 -49.362813 1.570796 0.000000 1.545389
    1 6.265787 5.935611 0.000000 -0.000575 0.000000 -0.026076
    2 -1.211985 121.072578 2.116671 -0.000622 0.000000 -0.026075
    3 -2.423956 108.889275 3.327682 0.001762 0.000024 0.017417
    4 -8.483835 103.017944 0.000000 0.004770 0.000874 -0.034935
    5 -7.271858 79.990417 0.000000 -0.007490 -0.002558 -0.130698
    6 -6.059879 73.930542 0.000000 -0.015644 0.002324 -0.060855
    7 -7.271858 77.566437 0.000000 -0.072842 0.010091 -0.089236
    8 -7.271864 68.661316 0.902174 0.037708 0.004178 0.808336
    9 -10.228978 63.176211 -0.324228 -0.105623 -0.044253 0.987459
    10 -4.847914 27.875425 0.000000 0.000000 0.000000 0.000000
    11 -10.884169 43.721066 -0.263436 0.000000 -1.570796 0.287833
    12 1.645461 3.130692 15.347058 -1.570797 1.282964 -1.570797
    13 -1.061229 0.200707 -0.378920 0.000000 0.000000 0.000000
    14 -4.349673 0.059656 0.000000 0.000000 0.000000 0.000000
    15 -4.230510 -0.536228 0.000000 0.000000 0.000000 0.000000
    16 -3.694255 -0.655429 0.000000 0.000000 0.000000 0.000000
    17 13.641458 7.020348 16.879305 -0.287833 0.000000 0.000000
    18 4.472665 2.448845 0.720848 0.573752 -0.869494 0.702569
    19 15.242571 6.789905 0.000000 -0.443057 0.380195 -0.072181
    20 8.366559 3.675034 14.276474 0.000000 0.000000 0.000000
    21 -15.633809 7.069125 16.813112 -0.287833 0.000000 0.000000
    22 -6.249312 1.413335 0.936005 1.303529 1.021884 0.081604
    23 -13.856888 6.374216 0.000000 -0.197753 -0.862520 -0.415528
    24 -5.687840 2.494701 12.855103 0.000000 0.000000 0.000000
  time 24
    0 5.807106 1.410199 -48.041322 1.570796 0.000000 1.545389
    1 6.265787 5.034630 0.000000 -0.000862 0.000000 -0.034032
    2 -1.211985 121.072578 2.116671 0.003873 0.000151 -0.005011
    3 -2.423956 108.889275 3.327682 0.002145 0.000012 0.032377
    4 -8.483835 103.017944 0.000000 0.004674 0.000874 -0.038827
    5 -7.271858 79.990417 0.000000 -0.008245 -0.002896 -0.163244
    6 -6.059879 73.930542 0.000000 -0.016317 0.002187 -0.087158
    7 -7.271858 77.566437 0.000000 -0.072603 0.009993 -0.079325
    8 -7.271864 68.661316 0.902174 0.038027 0.004591 0.802097
    9 -10.228978 63.180118 -0.324228 -0.098528 -0.047466 0.860429
    10 -4.847914 27.875425 0.000000 0.000000 0.000000 0.000000
    11 -10.884169 43.721066 -0.263436 0.000000 -1.570796 0.287833
    12 1.645461 3.130692 15.347058 -1.570797 1.282964 -1.570797
    13 -1.061229 0.200707 -0.378920 0.000000 0.000000 0.000000
    14 -4.349673 0.059656 0.000000 0.000000 0.000000 0.000000
    15 -4.230510 -0.536228 0.000000 0.000000 0.000000 0.000000
    16 -3.694255 -0.655429 0.000000 0.000000 0.000000 0.000000
    17 13.641458 7.020348 16.879305 -0.287833 0.000000 0.000000
    18 4.472665 2.448845 0.720848 0.573752 -0.869494 0.702569
    19 15.242571 6.789905 0.000000 -0.443057 0.380195 -0.072181
    20 8.366559 3.675034 14.276474 0.000000 0.000000 0.000000
    21 -15.633809 7.069125 16.813112 -0.287833 0.000000 0.000000
    22 -6.249312 1.413335 0.936005 0.575314 0.954651 -0.538376
    23 -13.856888 6.374216 0.000000 -0.197753 -0.862520 -0.415528
    24 -5.687840 2.494701 12.855103 0.000000 0.000000 0.000000
  time 25
    0 5.807106 1.410199 -47.613780 1.570796 0.000000 1.545389
    1 6.265787 3.917413 0.000000 -0.001054 0.000000 -0.043523
    2 -1.211985 121.072578 2.116671 0.006073 0.000151 0.019023
    3 -2.423956 108.889275 3.327682 0.002469 0.000000 0.045139
    4 -8.483835 103.017944 0.000000 0.004470 0.000848 -0.047053
    5 -7.271858 79.990417 0.000000 -0.009060 -0.003298 -0.199266
    6 -6.059879 73.930542 0.000000 -0.016826 0.002105 -0.107648
    7 -7.271858 77.566437 0.000000 -0.071872 0.009700 -0.049037
    8 -7.271864 68.661316 0.902174 0.038432 0.005158 0.793767
    9 -10.228978 63.180118 -0.324228 -0.092268 -0.049445 0.753084
    10 -4.847914 27.875425 0.000000 0.000000 0.000000 0.000000
    11 -10.884169 43.721066 -0.263436 0.000000 -1.570796 0.287833
    12 1.645461 3.130692 15.347058 -1.570797 1.282964 -1.570797
    13 -1.061229 0.200707 -0.378920 0.000000 0.000000 0.000000
    14 -4.349673 0.059656 0.000000 0.000000 0.000000 0.000000
    15 -4.230510 -0.536228 0.000000 0.000000 0.000000 0.000000
    16 -3.694255 -0.655429 0.000000 0.000000 0.000000 0.000000
    17 13.641458 7.020348 16.879305 -0.287833 0.000000 0.000000
    18 4.472665 2.448845 0.720848 0.573752 -0.869494 0.702569
    19 15.242571 6.789905 0.000000 -0.443057 0.380195 -0.072181
    20 8.366559 3.675034 14.276474 0.000000 0.000000 0.000000
    21 -15.633809 7.069125 16.813112 -0.287833 0.000000 0.000000
    22 -6.249312 1.413335 0.936005 0.138385 0.737887 -0.872183
    23 -13.856888 6.374216 0.000000 -0.197753 -0.862520 -0.415528
    24 -5.687840 2.494701 12.855103 0.000000 0.000000 0.000000
  time 26
    0 5.807106 1.410199 -48.041322 1.570796 0.000000 1.545389
    1 6.265787 2.547921 0.000000 -0.001342 -0.000026 -0.053973
    2 -1.211985 121.072578 2.116671 0.006503 0.000043 0.044912
    3 -2.423956 108.889275 3.327682 0.002744 0.000000 0.056222
    4 -8.483835 103.017944 0.000000 0.004195 0.000823 -0.057972
    5 -7.271858 79.990417 0.000000 -0.009911 -0.003763 -0.237188
    6 -6.059879 73.930542 0.000000 -0.017244 0.001996 -0.123852
    7 -7.271858 77.566437 0.000000 -0.070829 0.009212 -0.004644
    8 -7.271864 68.661316 0.902174 0.038857 0.005777 0.784799
    9 -10.228978 63.176211 -0.324228 -0.092420 -0.049416 0.755369
    10 -4.847914 27.875425 0.000000 0.000000 0.000000 0.000000
    11 -10.884169 43.721066 -0.263436 0.000000 -1.570796 0.287833
    12 1.645461 3.130692 15.347058 -1.570797 1.282964 -1.570797
    13 -1.061229 0.200707 -0.378920 0.000000 0.000000 0.000000
    14 -4.349673 0.059656 0.000000 0.000000 0.000000 0.000000
    15 -4.230510 -0.536228 0.000000 0.000000 0.000000 0.000000
    16 -3.694255 -0.655429 0.000000 0.000000 0.000000 0.000000
    17 13.641458 7.020348 16.879305 -0.287833 0.000000 0.000000
    18 4.472665 2.448845 0.720848 0.573752 -0.869494 0.702569
    19 15.242571 6.789905 0.000000 -0.443057 0.380195 -0.072181
    20 8.366559 3.675034 14.276474 0.000000 0.000000 0.000000
    21 -15.633809 7.069125 16.813112 -0.287833 0.000000 0.000000
    22 -6.249312 1.413335 0.936005 0.138385 0.737887 -0.872183
    23 -13.856888 6.374216 0.000000 -0.197753 -0.862520 -0.415528
    24 -5.687840 2.494701 12.855103 0.000000 0.000000 0.000000
  time 27
    0 5.807106 1.410199 -49.362813 1.570796 0.000000 1.545389
    1 6.265787 0.962193 0.000000 -0.001629 -0.000051 -0.064997
    2 -1.211985 121.072578 2.116671 0.005834 -0.000043 0.071265
    3 -2.423956 108.889275 3.327682 0.002996 -0.000012 0.066290
    4 -8.483835 103.017944 0.000000 0.003895 0.000785 -0.069967
    5 -7.271858 79.990417 0.000000 -0.010738 -0.004249 -0.275335
    6 -6.059879 73.930542 0.000000 -0.017572 0.001914 -0.137134
    7 -7.271858 77.566437 0.000000 -0.069618 0.008594 0.047650
    8 -7.271864 68.661316 0.902174 0.039240 0.006319 0.776752
    9 -10.228978 63.180118 -0.324228 -0.093992 -0.048986 0.781909
    10 -4.847914 27.875425 0.000000 0.000000 0.000000 0.000000
    11 -10.884169 43.721066 -0.263436 0.000000 -1.570796 0.287833
    12 1.645461 3.130692 15.347058 -1.570797 1.282964 -1.570797
    13 -1.061229 0.200707 -0.378920 0.000000 0.000000 0.000000
    14 -4.349673 0.059656 0.000000 0.000000 0.000000 0.000000
    15 -4.230510 -0.536228 0.000000 0.000000 0.000000 0.000000
    16 -3.694255 -0.655429 0.000000 0.000000 0.000000 0.000000
    17 13.641458 7.020348 16.879305 -0.287833 0.000000 0.000000
    18 4.472665 2.448845 0.720848 0.573752 -0.869494 0.702569
    19 15.242571 6.789905 0.000000 -0.443057 0.380195 -0.072181
    20 8.366559 3.675034 14.276474 0.000000 0.000000 0.000000
    21 -15.633809 7.069125 16.813112 -0.287833 0.000000 0.000000
    22 -6.249312 1.413335 0.936005 0.138385 0.737887 -0.872183
    23 -13.856888 6.374216 0.000000 -0.197753 -0.862520 -0.415528
    24 -5.687840 2.494701 12.855103 0.000000 0.000000 0.000000
  time 28
    0 5.807106 1.410199 -51.539387 1.570796 0.000000 1.545389
    1 6.265787 -0.839770 0.000000 -0.001917 -0.000051 -0.075926
    2 -1.211985 121.072578 2.116671 0.004686 -0.000130 0.096598
    3 -2.423956 108.889275 3.327682 0.003248 -0.000036 0.075837
    4 -8.483835 103.017944 0.000000 0.003607 0.000747 -0.081376
    5 -7.271858 79.990417 0.000000 -0.011529 -0.004756 -0.312065
    6 -6.059879 73.930542 0.000000 -0.017881 0.001859 -0.149019
    7 -7.271858 77.566437 0.000000 -0.068408 0.007877 0.101642
    8 -7.271864 68.661316 0.902174 0.039516 0.006706 0.771187
    9 -10.228978 63.176211 -0.324228 -0.096272 -0.048269 0.821191
    10 -4.847914 27.875425 0.000000 0.000000 0.000000 0.000000
    11 -10.884169 43.721066 -0.263436 0.000000 -1.570796 0.287833
    12 1.645461 3.130692 15.347058 -1.570797 1.282964 -1.570797
    13 -1.061229 0.200707 -0.378920 0.000000 0.000000 0.000000
    14 -4.349673 0.059656 0.000000 0.000000 0.000000 0.000000
    15 -4.230510 -0.536228 0.000000 0.000000 0.000000 0.000000
    16 -3.694255 -0.655429 0.000000 0.000000 0.000000 0.000000
    17 13.641458 7.020348 16.879305 -0.287833 0.000000 0.000000
    18 4.472665 2.448845 0.720848 0.573752 -0.869494 0.702569
    19 15.242571 6.789905 0.000000 -0.443057 0.380195 -0.072181
    20 8.366559 3.675034 14.276474 0.000000 0.000000 0.000000
    21 -15.633809 7.069125 16.813112 -0.287833 0.000000 0.000000
    22 -6.249312 1.413335 0.936005 0.138385 0.737887 -0.872183
    23 -13.856888 6.374216 0.000000 -0.197753 -0.862520 -0.415528
    24 -5.687840 2.494701 12.855103 0.000000 0.000000 0.000000
  time 29
    0 5.807106 1.410199 -54.571044 1.570796 0.000000 1.545389
    1 6.265787 -2.857968 0.000000 -0.002108 -0.000077 -0.086471
    2 -1.211985 121.072578 2.116671 0.003682 -0.000194 0.119796
    3 -2.423956 108.889275 3.327682 0.003488 -0.000048 0.085527
    4 -8.483835 103.017944 0.000000 0.003368 0.000722 -0.090605
    5 -7.271858 79.990417 0.000000 -0.012224 -0.005242 -0.345802
    6 -6.059879 73.930542 0.000000 -0.018172 0.001777 -0.160904
    7 -7.271858 77.566437 0.000000 -0.067341 0.007178 0.151095
    8 -7.271864 68.661316 0.902174 0.039580 0.006809 0.769592
    9 -10.228978 63.180118 -0.324228 -0.098604 -0.047437 0.861528
    10 -4.847914 27.875425 0.000000 0.000000 0.000000 0.000000
    11 -10.884169 43.721066 -0.263436 0.000000 -1.570796 0.287833
    12 1.645461 3.130692 15.347058 -1.570797 1.282964 -1.570797
    13 -1.061229 0.200707 -0.378920 0.000000 0.000000 0.000000
    14 -4.349673 0.059656 0.000000 0.000000 0.000000 0.000000
    15 -4.230510 -0.536228 0.000000 0.000000 0.000000 0.000000
    16 -3.694255 -0.655429 0.000000 0.000000 0.000000 0.000000
    17 13.641458 7.020348 16.879305 -0.287833 0.000000 0.000000
    18 4.472665 2.448845 0.720848 0.573752 -0.869494 0.702569
    19 15.242571 6.789905 0.000000 -0.443057 0.380195 -0.072181
    20 8.366559 3.675034 14.276474 0.000000 0.000000 0.000000
    21 -15.633809 7.069125 16.813112 -0.287833 0.000000 0.000000
    22 -6.249312 1.413335 0.936005 0.138385 0.737887 -0.872183
    23 -13.856888 6.374216 0.000000 -0.197753 -0.862520 -0.415528
    24 -5.687840 2.494701 12.855103 0.000000 0.000000 0.000000
  time 30
    0 5.807106 1.410199 -58.457784 1.570796 0.000000 1.545389
    1 6.265787 -5.164481 0.000000 -0.002396 -0.000102 -0.095866
    2 -1.211985 121.072578 2.116671 0.003491 -0.000238 0.139468
    3 -2.423956 108.889275 3.327682 0.003751 -0.000072 0.095878
    4 -8.483835 103.017944 0.000000 0.003236 0.000696 -0.095967
    5 -7.271858 79.990417 0.000000 -0.012812 -0.005686 -0.374839
    6 -6.059879 73.930542 0.000000 -0.018518 0.001668 -0.174218
    7 -7.271858 77.566437 0.000000 -0.066526 0.006575 0.189804
    8 -7.271864 68.661316 0.902174 0.039410 0.006525 0.773562
    9 -10.228978 63.176211 -0.324228 -0.100302 -0.046749 0.891451
    10 -4.847914 27.875425 0.000000 0.000000 0.000000 0.000000
    11 -10.884169 43.721066 -0.263436 0.000000 -1.570796 0.287833
    12 1.645461 3.130692 15.347058 -1.570797 1.282964 -1.570797
    13 -1.061229 0.200707 -0.378920 0.000000 0.000000 0.000000
    14 -4.349673 0.059656 0.000000 0.000000 0.000000 0.000000
    15 -4.230510 -0.536228 0.000000 0.000000 0.000000 0.000000
    16 -3.694255 -0.655429 0.000000 0.000000 0.000000 0.000000
    17 13.641458 7.020348 16.879305 -0.287833 0.000000 0.000000
    18 4.472665 2.448845 0.720848 0.573752 -0.869494 0.702569
    19 15.242571 6.789905 0.000000 -0.443057 0.380195 -0.072181
    20 8.366559 3.675034 14.276474 0.000000 0.000000 0.000000
    21 -15.633809 7.069125 16.813112 -0.287833 0.000000 0.000000
    22 -6.249312 1.413335 0.936005 0.138385 0.737887 -0.872183
    23 -13.856888 6.374216 0.000000 -0.197753 -0.862520 -0.415528
    24 -5.687840 2.494701 12.855103 0.000000 0.000000 0.000000
  time 31
    0 5.807106 1.410199 -63.238473 1.570796 0.000000 1.545389
    1 6.265787 -5.164481 0.000000 -0.002587 -0.000128 -0.103919
    2 -1.211985 121.072578 2.116671 0.003873 -0.000281 0.153759
    3 -2.423956 108.889275 3.327682 0.004027 -0.000108 0.106631
    4 -8.483835 103.017944 0.000000 0.003236 0.000696 -0.095967
    5 -7.271858 79.990417 0.000000 -0.013255 -0.006025 -0.396600
    6 -6.059879 73.930542 0.000000 -0.018845 0.001586 -0.187922
    7 -7.271858 77.566437 0.000000 -0.065975 0.006152 0.216696
    8 -7.271864 68.661316 0.902174 0.038751 0.005623 0.786961
    9 -10.228978 63.180118 -0.324228 -0.101341 -0.046318 0.909818
    10 -4.847914 27.875425 0.000000 0.000000 0.000000 0.000000
    11 -10.884169 43.721066 -0.263436 0.000000 -1.570796 0.287833
    12 1.645461 3.130692 15.347058 -1.570797 1.282964 -1.570797
    13 -1.061229 0.200707 -0.378920 0.000000 0.000000 0.000000
    14 -4.349673 0.059656 0.000000 0.000000 0.000000 0.000000
    15 -4.230510 -0.536228 0.000000 0.000000 0.000000 0.000000
    16 -3.694255 -0.655429 0.000000 0.000000 0.000000 0.000000
    17 13.641458 7.020348 16.879305 -0.287833 0.000000 0.000000
    18 4.472665 2.448845 0.720848 0.573752 -0.869494 0.702569
    19 15.242571 6.789905 0.000000 -0.443057 0.380195 -0.072181
    20 8.366559 3.675034 14.276474 0.000000 0.000000 0.000000
    21 -15.633809 7.069125 16.813112 -0.287833 0.000000 0.000000
    22 -6.249312 1.413335 0.936005 0.138385 0.737887 -0.872183
    23 -13.856888 6.374216 0.000000 -0.197753 -0.862520 -0.415528
    24 -5.687840 2.494701 12.855103 0.000000 0.000000 0.000000
  time 32
    0 5.807106 1.410199 -68.874246 1.570796 0.000000 1.545389
    1 6.265787 -5.164481 0.000000 -0.002779 -0.000154 -0.111013
    2 -1.211985 121.072578 2.116671 0.004112 -0.000324 0.163131
    3 -2.423956 108.889275 3.327682 0.004290 -0.000132 0.117124
    4 -8.483835 103.017944 0.000000 0.003356 0.000709 -0.091389
    5 -7.271858 79.990417 0.000000 -0.013543 -0.006257 -0.411505
    6 -6.059879 73.930542 0.000000 -0.019154 0.001476 -0.200294
    7 -7.271858 77.566437 0.000000 -0.065568 0.005827 0.236865
    8 -7.271864 68.661316 0.902174 0.037623 0.004075 0.809931
    9 -10.228978 63.180118 -0.324228 -0.102152 -0.045974 0.924318
    10 -4.847914 27.875425 0.000000 0.000000 0.000000 0.000000
    11 -10.884169 43.721066 -0.263436 0.000000 -1.570796 0.287833
    12 1.645461 3.130692 15.347058 -1.570797 1.282964 -1.570797
    13 -1.061229 0.200707 -0.378920 0.000000 0.000000 0.000000
    14 -4.349673 0.059656 0.000000 0.000000 0.000000 0.000000
    15 -4.230510 -0.536228 0.000000 0.000000 0.000000 0.000000
    16 -3.694255 -0.655429 0.000000 0.000000 0.000000 0.000000
    17 13.641458 7.020348 16.879305 -0.287833 0.000000 0.000000
    18 4.472665 2.448845 0.720848 0.573752 -0.869494 0.702569
    19 15.242571 6.789905 0.000000 -0.443057 0.380195 -0.072181
    20 8.366559 3.675034 14.276474 0.000000 0.000000 0.000000
    21 -15.633809 7.069125 16.813112 -0.287833 0.000000 0.000000
    22 -6.249312 1.413335 0.936005 0.138385 0.737887 -0.872183
    23 -13.856888 6.374216 0.000000 -0.197753 -0.862520 -0.415528
    24 -5.687840 2.494701 12.855103 0.000000 0.000000 0.000000
  time 33
    0 5.807106 1.410199 -75.403968 1.570796 0.000000 1.545389
    1 6.265787 -5.164481 0.000000 -0.002971 -0.000154 -0.117628
    2 -1.211985 121.072578 2.116671 0.004256 -0.000346 0.169812
    3 -2.423956 108.889275 3.327682 0.004542 -0.000168 0.127475
    4 -8.483835 103.017944 0.000000 0.003535 0.000734 -0.084191
    5 -7.271858 79.990417 0.000000 -0.013758 -0.006447 -0.422547
    6 -6.059879 73.930542 0.000000 -0.019445 0.001394 -0.211952
    7 -7.271858 77.566437 0.000000 -0.065244 0.005550 0.253153
    8 -7.271864 68.661316 0.902174 0.036177 0.002167 0.838359
    9 -10.228978 63.176211 -0.324228 -0.102836 -0.045659 0.936621
    10 -4.847914 27.875425 0.000000 0.000000 0.000000 0.000000
    11 -10.884169 43.721066 -0.263436 0.000000 -1.570796 0.287833
    12 1.645461 3.130692 15.347058 -1.570797 1.282964 -1.570797
    13 -1.061229 0.200707 -0.378920 0.000000 0.000000 0.000000
    14 -4.349673 0.059656 0.000000 0.000000 0.000000 0.000000
    15 -4.230510 -0.536228 0.000000 0.000000 0.000000 0.000000
    16 -3.694255 -0.655429 0.000000 0.000000 0.000000 0.000000
    17 13.641458 7.020348 16.879305 -0.287833 0.000000 0.000000
    18 4.472665 2.448845 0.720848 0.573752 -0.869494 0.702569
    19 15.242571 6.789905 0.000000 -0.443057 0.380195 -0.072181
    20 8.366559 3.675034 14.276474 0.000000 0.000000 0.000000
    21 -15.633809 7.069125 16.813112 -0.287833 0.000000 0.000000
    22 -6.249312 1.413335 0.936005 0.138385 0.737887 -0.872183
    23 -13.856888 6.374216 0.000000 -0.197753 -0.862520 -0.415528
    24 -5.687840 2.494701 12.855103 0.000000 0.000000 0.000000
  time 34
    0 5.807106 1.410199 -82.749906 1.570796 0.000000 1.545389
    1 6.265787 -5.164481 0.000000 -0.003067 -0.000179 -0.124051
    2 -1.211985 121.072578 2.116671 0.004399 -0.000389 0.175751
    3 -2.423956 108.889275 3.327682 0.004806 -0.000204 0.137803
    4 -8.483835 103.017944 0.000000 0.003727 0.000760 -0.076357
    5 -7.271858 79.990417 0.000000 -0.013950 -0.006616 -0.432591
    6 -6.059879 73.930542 0.000000 -0.019737 0.001312 -0.223415
    7 -7.271858 77.566437 0.000000 -0.064944 0.005290 0.268471
    8 -7.271864 68.661316 0.902174 0.034625 0.000258 0.868170
    9 -10.228978 63.176211 -0.324228 -0.103495 -0.045343 0.948397
    10 -4.847914 27.875425 0.000000 0.000000 0.000000 0.000000
    11 -10.884169 43.721066 -0.263436 0.000000 -1.570796 0.287833
    12 1.645461 3.130692 15.347058 -1.570797 1.282964 -1.570797
    13 -1.061229 0.200707 -0.378920 0.000000 0.000000 0.000000
    14 -4.349673 0.059656 0.000000 0.000000 0.000000 0.000000
    15 -4.230510 -0.536228 0.000000 0.000000 0.000000 0.000000
    16 -3.694255 -0.655429 0.000000 0.000000 0.000000 0.000000
    17 13.641458 7.020348 16.879305 -0.287833 0.000000 0.000000
    18 4.472665 2.448845 0.720848 0.573752 -0.869494 0.702569
    19 15.242571 6.789905 0.000000 -0.443057 0.380195 -0.072181
    20 8.366559 3.675034 14.276474 0.000000 0.000000 0.000000
    21 -15.633809 7.069125 16.813112 -0.287833 0.000000 0.000000
    22 -6.249312 1.413335 0.936005 0.138385 0.737887 -0.872183
    23 -13.856888 6.374216 0.000000 -0.197753 -0.862520 -0.415528
    24 -5.687840 2.494701 12.855103 0.000000 0.000000 0.000000
  time 35
    0 5.807106 1.410199 -90.989794 1.570796 0.000000 1.545389
    1 6.265787 -5.164481 0.000000 -0.003258 -0.000205 -0.130761
    2 -1.211985 121.072578 2.116671 0.004590 -0.000410 0.183081
    3 -2.423956 108.889275 3.327682 0.005069 -0.000240 0.148201
    4 -8.483835 103.017944 0.000000 0.003895 0.000785 -0.069821
    5 -7.271858 79.990417 0.000000 -0.014178 -0.006807 -0.444566
    6 -6.059879 73.930542 0.000000 -0.020028 0.001203 -0.235267
    7 -7.271858 77.566437 0.000000 -0.064609 0.004980 0.285729
    8 -7.271864 68.661316 0.902174 0.033136 -0.001444 0.895252
    9 -10.228978 63.180118 -0.324228 -0.104204 -0.044999 0.961271
    10 -4.847914 27.875425 0.000000 0.000000 0.000000 0.000000
    11 -10.884169 43.721066 -0.263436 0.000000 -1.570796 0.287833
    12 1.645461 3.130692 15.347058 -1.570797 1.282964 -1.570797
    13 -1.061229 0.200707 -0.378920 0.000000 0.000000 0.000000
    14 -4.349673 0.059656 0.000000 0.000000 0.000000 0.000000
    15 -4.230510 -0.536228 0.000000 0.000000 0.000000 0.000000
    16 -3.694255 -0.655429 0.000000 0.000000 0.000000 0.000000
    17 13.641458 7.020348 16.879305 -0.287833 0.000000 0.000000
    18 4.472665 2.448845 0.720848 0.573752 -0.869494 0.702569
    19 15.242571 6.789905 0.000000 -0.443057 0.380195 -0.072181
    20 8.366559 3.675034 14.276474 0.000000 0.000000 0.000000
    21 -15.633809 7.069125 16.813112 -0.287833 0.000000 0.000000
    22 -6.249312 1.413335 0.936005 0.138385 0.737887 -0.872183
    23 -13.856888 6.374216 0.000000 -0.197753 -0.862520 -0.415528
    24 -5.687840 2.494701 12.855103 0.000000 0.000000 0.000000
end
