// Created by Crowbar 0.42.0.0
version 1
nodes
  0 "Dummy01" -1
  1 "Bone01" 0
  2 "Bone02" 1
  3 "Bone03" 2
  4 "Bone04" 3
  5 "Bone05" 4
  6 "Bone06" 5
  7 "Bone07" 6
  8 "Bone08" 7
  9 "Bone09" 8
  10 "Bone10" 9
  11 "Dummy04" 10
  12 "Dummy05" 11
  13 "Bone19" 12
  14 "Bone20" 13
  15 "Bone21" 14
  16 "Bone22" 15
  17 "Dummy03" 11
  18 "Bone11" 17
  19 "Bone12" 18
  20 "Bone13" 19
  21 "Dummy02" 11
  22 "Bone15" 21
  23 "Bone16" 22
  24 "Bone17" 23
end
skeleton
  time 0
    0 5.807106 1.410199 -90.989794 1.570796 0.000000 1.545389
    1 6.265787 -2.137183 0.000000 -0.003258 -0.000205 -0.130761
    2 -1.211985 121.072578 2.116671 0.004590 -0.000410 0.183081
    3 -2.423956 108.889275 3.327682 0.005069 -0.000240 0.148201
    4 -8.483835 103.017944 0.000000 0.003895 0.000785 -0.069821
    5 -7.271858 79.990417 0.000000 -0.014178 -0.006807 -0.444566
    6 -6.059879 73.930542 0.000000 -0.020028 0.001203 -0.235267
    7 -7.271858 77.566437 0.000000 -0.064609 0.004980 0.285729
    8 -7.271864 68.661316 0.902174 0.033136 -0.001444 0.895252
    9 -10.228978 63.176211 -0.324228 -0.104204 -0.044999 0.961271
    10 -4.847914 27.875425 0.000000 0.000000 0.000000 0.000000
    11 -10.884169 43.721066 -0.263436 0.000000 -1.570796 0.287833
    12 1.645461 3.130692 15.347058 -1.570797 1.282964 -1.570797
    13 -1.061229 0.200707 -0.378920 0.000000 0.000000 0.000000
    14 -4.349673 0.059656 0.000000 0.000000 0.000000 0.000000
    15 -4.230510 -0.536228 0.000000 0.000000 0.000000 0.000000
    16 -3.694255 -0.655429 0.000000 0.000000 0.000000 0.000000
    17 13.641458 7.020348 16.879305 -0.287833 0.000000 0.000000
    18 4.472665 2.448845 0.720848 0.181857 -0.371726 0.953189
    19 15.242571 6.789905 0.000000 -0.443057 0.380195 -0.072181
    20 8.366559 3.675034 14.276474 0.000000 0.000000 0.000000
    21 -15.633809 7.069125 16.813112 -0.287833 0.000000 0.000000
    22 -6.249312 1.413335 0.936005 0.111141 0.711383 -0.904601
    23 -13.856888 6.374216 0.000000 -0.197753 -0.862520 -0.415528
    24 -5.687840 2.494701 12.855103 0.000000 0.000000 0.000000
  time 1
    0 5.807106 1.410199 -90.989794 1.570796 0.000000 1.545389
    1 6.265787 -2.137183 0.000000 -0.003258 -0.000205 -0.129036
    2 -1.211985 121.072578 2.116671 0.005260 -0.000540 0.208507
    3 -2.423956 108.889275 3.327682 0.004986 -0.000228 0.144751
    4 -8.483835 103.017944 0.000000 0.002661 0.000608 -0.118710
    5 -7.271858 79.990417 0.000000 -0.013027 -0.005855 -0.385430
    6 -6.059879 73.930542 0.000000 -0.020428 0.001066 -0.251569
    7 -7.271858 77.566437 0.000000 -0.065460 0.005729 0.242098
    8 -7.271864 68.661316 0.902174 0.035603 0.001444 0.849525
    9 -9.580521 62.461346 -0.312509 -0.102734 -0.045687 0.934995
    10 -4.847914 27.875425 0.000000 0.000000 0.000000 0.000000
    11 -10.884169 43.721066 -0.263436 0.000000 -1.570796 0.287833
    12 1.645461 3.130692 15.347058 -1.570797 1.282964 -1.570797
    13 -1.061229 0.200707 -0.378920 0.000000 0.000000 0.000000
    14 -4.349673 0.059656 0.000000 0.000000 0.000000 0.000000
    15 -4.230510 -0.536228 0.000000 0.000000 0.000000 0.000000
    16 -3.694255 -0.655429 0.000000 0.000000 0.000000 0.000000
    17 13.641458 7.020348 16.879305 -0.287833 0.000000 0.000000
    18 4.472665 2.448845 0.720848 0.104737 -0.246187 0.975241
    19 15.242571 6.789905 0.000000 -0.392543 0.305762 -0.056936
    20 8.366559 3.675034 14.276474 0.035666 -0.057157 -0.014286
    21 -15.633809 7.069125 16.813112 -0.287833 0.000000 0.000000
    22 -6.249312 1.413335 0.936005 -0.000094 0.608501 -0.974343
    23 -13.856888 6.374216 0.000000 -0.156381 -0.698008 -0.379145
    24 -5.687840 2.494701 12.855103 0.031737 0.071994 0.026212
  time 2
    0 5.807106 1.410199 -90.989794 1.570796 0.000000 1.545389
    1 6.265787 -2.137183 0.000000 -0.003162 -0.000179 -0.126831
    2 -1.211985 121.072578 2.116671 0.005834 -0.000670 0.233190
    3 -2.423956 108.889275 3.327682 0.004830 -0.000204 0.138866
    4 -8.483835 103.017944 0.000000 0.001426 0.000354 -0.168382
    5 -7.271858 79.990417 0.000000 -0.011709 -0.004883 -0.321111
    6 -6.059879 73.930542 0.000000 -0.020792 0.000930 -0.266701
    7 -7.271858 77.566437 0.000000 -0.066395 0.006478 0.196354
    8 -7.271864 68.661316 0.902174 0.038176 0.004797 0.799013
    9 -9.252385 62.570724 -0.289071 -0.100910 -0.046490 0.902348
    10 -4.847914 27.875425 0.000000 0.000000 0.000000 0.000000
    11 -10.884169 43.721066 -0.263436 0.000000 -1.570796 0.287833
    12 1.645461 3.130692 15.347058 -1.570797 1.282964 -1.570797
    13 -1.061229 0.200707 -0.378920 0.000000 0.000000 0.000000
    14 -4.349673 0.059656 0.000000 0.000000 0.000000 0.000000
    15 -4.230510 -0.536228 0.000000 0.000000 0.000000 0.000000
    16 -3.694255 -0.655429 0.000000 0.000000 0.000000 0.000000
    17 13.641458 7.020348 16.879305 -0.287833 0.000000 0.000000
    18 4.472665 2.448845 0.720848 0.022544 -0.102041 0.987888
    19 15.242571 6.789905 0.000000 -0.341498 0.226394 -0.045341
    20 8.366559 3.675034 14.276474 0.079050 -0.123882 -0.033880
    21 -15.633809 7.069125 16.813112 -0.287833 0.000000 0.000000
    22 -6.249312 1.413335 0.936005 -0.108502 0.485034 -1.032348
    23 -13.856888 6.374216 0.000000 -0.109248 -0.522557 -0.335740
    24 -5.687840 2.494701 12.855103 0.071120 0.154088 0.059630
  time 3
    0 5.807106 1.410199 -90.989794 1.570796 0.000000 1.545389
    1 6.265787 -2.137183 0.000000 -0.003067 -0.000179 -0.124434
    2 -1.211985 121.072578 2.116671 0.006455 -0.000821 0.257501
    3 -2.423956 108.889275 3.327682 0.004806 -0.000204 0.137873
    4 -8.483835 103.017944 0.000000 0.000252 0.000063 -0.216439
    5 -7.271858 79.990417 0.000000 -0.010558 -0.004143 -0.267158
    6 -6.059879 73.930542 0.000000 -0.021210 0.000766 -0.284172
    7 -7.271858 77.566437 0.000000 -0.067258 0.007113 0.154803
    8 -7.271864 68.661316 0.902174 0.040133 0.007609 0.758142
    9 -9.248479 63.508253 -0.261726 -0.099795 -0.046978 0.882355
    10 -4.847914 27.875425 0.000000 0.000000 0.000000 0.000000
    11 -10.884169 43.721066 -0.263436 0.000000 -1.570796 0.287833
    12 1.645461 3.130692 15.347058 -1.570797 1.282964 -1.570797
    13 -1.061229 0.200707 -0.378920 0.000000 0.000000 0.000000
    14 -4.349673 0.059656 0.000000 0.000000 0.000000 0.000000
    15 -4.230510 -0.536228 0.000000 0.000000 0.000000 0.000000
    16 -3.694255 -0.655429 0.000000 0.000000 0.000000 0.000000
    17 13.641458 7.020348 16.879305 -0.287833 0.000000 0.000000
    18 4.472665 2.448845 0.720848 -0.038137 0.007772 0.989509
    19 15.242571 6.789905 0.000000 -0.297465 0.155269 -0.038648
    20 8.366559 3.675034 14.276474 0.110246 -0.169733 -0.049329
    21 -15.633809 7.069125 16.813112 -0.287833 0.000000 0.000000
    22 -6.249312 1.413335 0.936005 -0.180899 0.388911 -1.064207
    23 -13.856888 6.374216 0.000000 -0.065303 -0.373235 -0.294202
    24 -5.687840 2.494701 12.855103 0.102002 0.213142 0.086439
  time 4
    0 5.807106 1.410199 -90.989794 1.570796 0.000000 1.545389
    1 6.265787 -2.137183 0.000000 -0.003067 -0.000179 -0.122421
    2 -1.211985 121.072578 2.116671 0.007029 -0.000994 0.282370
    3 -2.423956 108.889275 3.327682 0.005093 -0.000240 0.149170
    4 -8.483835 103.017944 0.000000 -0.000815 -0.000241 -0.260407
    5 -7.271858 79.990417 0.000000 -0.009947 -0.003784 -0.239055
    6 -6.059879 73.930542 0.000000 -0.021774 0.000519 -0.307487
    7 -7.271858 77.566437 0.000000 -0.067929 0.007568 0.123787
    8 -7.271864 68.661316 0.902174 0.040899 0.008795 0.741305
    9 -9.568801 65.273932 -0.226569 -0.100454 -0.046691 0.893956
    10 -4.847914 27.875425 0.000000 0.000000 0.000000 0.000000
    11 -10.884169 43.721066 -0.263436 0.000000 -1.570796 0.287833
    12 1.645461 3.130692 15.347058 -1.570797 1.282964 -1.570797
    13 -1.061229 0.200707 -0.378920 0.000000 0.000000 0.000000
    14 -4.349673 0.059656 0.000000 0.000000 0.000000 0.000000
    15 -4.230510 -0.536228 0.000000 0.000000 0.000000 0.000000
    16 -3.694255 -0.655429 0.000000 0.000000 0.000000 0.000000
    17 13.641458 7.020348 16.879305 -0.287833 0.000000 0.000000
    18 4.472665 2.448845 0.720848 -0.050725 0.030585 0.989023
    19 15.242571 6.789905 0.000000 -0.267456 0.105807 -0.035885
    20 8.366559 3.675034 14.276474 0.107214 -0.165355 -0.047783
    21 -15.633809 7.069125 16.813112 -0.287833 0.000000 0.000000
    22 -6.249312 1.413335 0.936005 -0.193625 0.370932 -1.069113
    23 -13.856888 6.374216 0.000000 -0.037261 -0.285544 -0.267381
    24 -5.687840 2.494701 12.855103 0.104403 0.217541 0.088538
  time 5
    0 5.807106 1.410199 -90.989794 1.570796 0.000000 1.545389
    1 6.265787 -2.137183 0.000000 -0.002971 -0.000179 -0.120983
    2 -1.211985 121.072578 2.116671 0.007698 -0.001188 0.308259
    3 -2.423956 108.889275 3.327682 0.005944 -0.000384 0.183272
    4 -8.483835 103.017944 0.000000 -0.001498 -0.000481 -0.289271
    5 -7.271858 79.990417 0.000000 -0.010343 -0.004016 -0.256953
    6 -6.059879 73.930542 0.000000 -0.022720 0.000082 -0.347916
    7 -7.271858 77.566437 0.000000 -0.068348 0.007845 0.104242
    8 -7.271864 68.661316 0.902174 0.039516 0.006706 0.771187
    9 -10.213352 67.867761 -0.187505 -0.105193 -0.044483 0.979375
    10 -4.847914 27.875425 0.000000 0.000000 0.000000 0.000000
    11 -10.884169 43.721066 -0.263436 0.000000 -1.570796 0.287833
    12 1.645461 3.130692 15.347058 -1.570797 1.282964 -1.570797
    13 -1.061229 0.200707 -0.378920 0.000000 0.000000 0.000000
    14 -4.349673 0.059656 0.000000 0.000000 0.000000 0.000000
    15 -4.230510 -0.536228 0.000000 0.000000 0.000000 0.000000
    16 -3.694255 -0.655429 0.000000 0.000000 0.000000 0.000000
    17 13.641458 7.020348 16.879305 -0.287833 0.000000 0.000000
    18 4.472665 2.448845 0.720848 0.025081 -0.106658 0.987672
    19 15.242571 6.789905 0.000000 -0.259879 0.093241 -0.035408
    20 8.366559 3.675034 14.276474 0.023226 -0.037427 -0.009108
    21 -15.633809 7.069125 16.813112 -0.287833 0.000000 0.000000
    22 -6.249312 1.413335 0.936005 -0.097850 0.498198 -1.027193
    23 -13.856888 6.374216 0.000000 -0.045520 -0.310733 -0.275276
    24 -5.687840 2.494701 12.855103 0.039501 0.088802 0.032710
  time 6
    0 5.807106 1.410199 -90.989794 1.570796 0.000000 1.545389
    1 6.265787 -2.137183 0.000000 -0.002971 -0.000179 -0.120695
    2 -1.211985 121.072578 2.116671 0.008368 -0.001404 0.336005
    3 -2.423956 108.889275 3.327682 0.007227 -0.000659 0.234839
    4 -8.483835 103.017944 0.000000 -0.002049 -0.000684 -0.312307
    5 -7.271858 79.990417 0.000000 -0.011517 -0.004756 -0.311679
    6 -6.059879 73.930542 0.000000 -0.023848 -0.000465 -0.396626
    7 -7.271858 77.566437 0.000000 -0.068456 0.007910 0.099702
    8 -7.271864 68.661316 0.902174 0.036347 0.002373 0.835311
    9 -10.775869 70.094391 -0.152348 -0.112009 -0.040353 1.109612
    10 -4.847914 27.875425 0.000000 0.000000 0.000000 0.000000
    11 -10.884169 43.721066 -0.263436 0.000000 -1.570796 0.287833
    12 1.645461 3.130692 15.347058 -1.570797 1.282964 -1.570797
    13 -1.061229 0.200707 -0.378920 0.000000 0.000000 0.000000
    14 -4.349673 0.059656 0.000000 0.000000 0.000000 0.000000
    15 -4.230510 -0.536228 0.000000 0.000000 0.000000 0.000000
    16 -3.694255 -0.655429 0.000000 0.000000 0.000000 0.000000
    17 13.641458 7.020348 16.879305 -0.287833 0.000000 0.000000
    18 4.472665 2.448845 0.720848 0.177912 -0.365646 0.954486
    19 15.242571 6.789905 0.000000 -0.271078 0.111783 -0.036132
    20 8.366559 3.675034 14.276474 -0.099676 0.167664 0.030105
    21 -15.633809 7.069125 16.813112 -0.287833 0.000000 0.000000
    22 -6.249312 1.413335 0.936005 0.125093 0.722691 -0.895285
    23 -13.856888 6.374216 0.000000 -0.080092 -0.421975 -0.308297
    24 -5.687840 2.494701 12.855103 -0.050021 -0.124322 -0.039606
  time 7
    0 5.807106 1.410199 -90.989794 1.570796 0.000000 1.545389
    1 6.265787 -2.137183 0.000000 -0.003067 -0.000179 -0.122037
    2 -1.211985 121.072578 2.116671 0.009085 -0.001663 0.366162
    3 -2.423956 108.889275 3.327682 0.008521 -0.000995 0.287422
    4 -8.483835 103.017944 0.000000 -0.003116 -0.001114 -0.357573
    5 -7.271858 79.990417 0.000000 -0.012812 -0.005686 -0.374839
    6 -6.059879 73.930542 0.000000 -0.024539 -0.000848 -0.427086
    7 -7.271858 77.566437 0.000000 -0.068013 0.007617 0.120044
    8 -7.271864 68.661316 0.902174 0.033136 -0.001444 0.895252
    9 -11.260259 71.965542 -0.121097 -0.116241 -0.037112 1.196833
    10 -4.847914 27.875425 0.000000 0.000000 0.000000 0.000000
    11 -10.884169 43.721066 -0.263436 0.000000 -1.570796 0.287833
    12 1.645461 3.130692 15.347058 -1.570797 1.282964 -1.570797
    13 -1.061229 0.200707 -0.378920 0.000000 0.000000 0.000000
    14 -4.349673 0.059656 0.000000 0.000000 0.000000 0.000000
    15 -4.230510 -0.536228 0.000000 0.000000 0.000000 0.000000
    16 -3.694255 -0.655429 0.000000 0.000000 0.000000 0.000000
    17 13.641458 7.020348 16.879305 -0.287833 0.000000 0.000000
    18 4.472665 2.448845 0.720848 0.373578 -0.627010 0.863415
    19 15.242571 6.789905 0.000000 -0.290087 0.143183 -0.037826
    20 8.366559 3.675034 14.276474 -0.169858 0.288627 0.041599
    21 -15.633809 7.069125 16.813112 -0.287833 0.000000 0.000000
    22 -6.249312 1.413335 0.936005 0.461910 0.915689 -0.644014
    23 -13.856888 6.374216 0.000000 -0.112974 -0.535970 -0.339226
    24 -5.687840 2.494701 12.855103 -0.095475 -0.248498 -0.073266
  time 8
    0 5.807106 1.410199 -90.989794 1.570796 0.000000 1.545389
    1 6.265787 -2.137183 0.000000 -0.003737 -0.000256 -0.148209
    2 -1.211985 121.072578 2.116671 0.010711 -0.002355 0.435943
    3 -2.423956 108.889275 3.327682 0.009779 -0.001414 0.339744
    4 -8.483835 103.017944 0.000000 -0.006819 -0.003102 -0.523238
    5 -7.271858 79.990417 0.000000 -0.014669 -0.007251 -0.470738
    6 -6.059879 73.930542 0.000000 -0.022938 0.000000 -0.357334
    7 -7.271858 77.566437 0.000000 -0.064944 0.005290 0.268297
    8 -7.271864 68.661316 0.902174 0.031668 -0.003043 0.921305
    9 -11.662615 73.469494 -0.101565 -0.108411 -0.042676 1.039836
    10 -4.847914 27.875425 0.000000 0.000000 0.000000 0.000000
    11 -10.884169 43.721066 -0.263436 0.000000 -1.570796 0.287833
    12 1.645461 3.130692 15.347058 -1.570797 1.282964 -1.570797
    13 -1.061229 0.200707 -0.378920 0.000000 0.000000 0.000000
    14 -4.349673 0.059656 0.000000 0.000000 0.000000 0.000000
    15 -4.230510 -0.536228 0.000000 0.000000 0.000000 0.000000
    16 -3.694255 -0.655429 0.000000 0.000000 0.000000 0.000000
    17 13.641458 7.020348 16.879305 -0.287833 0.000000 0.000000
    18 4.472665 2.448845 0.720848 0.687225 -0.881381 0.649332
    19 15.242571 6.789905 0.000000 -0.345419 0.232636 -0.046098
    20 8.366559 3.675034 14.276474 -0.149328 0.253288 0.039118
    21 -15.633809 7.069125 16.813112 -0.287833 0.000000 0.000000
    22 -6.249312 1.413335 0.936005 0.972085 1.024534 -0.216555
    23 -13.856888 6.374216 0.000000 -0.138826 -0.631012 -0.363183
    24 -5.687840 2.494701 12.855103 -0.082097 -0.210888 -0.063630
  time 9
    0 5.807106 1.410199 -90.989794 1.570796 0.000000 1.545389
    1 6.265787 -2.137183 0.000000 -0.003450 -0.000230 -0.136513
    2 -1.211985 121.072578 2.116671 0.010567 -0.002312 0.430375
    3 -2.423956 108.889275 3.327682 0.009480 -0.001306 0.327077
    4 -8.483835 103.017944 0.000000 -0.006975 -0.003203 -0.530778
    5 -7.271858 79.990417 0.000000 -0.014693 -0.007272 -0.471575
    6 -6.059879 73.930542 0.000000 -0.021774 0.000519 -0.307617
    7 -7.271858 77.566437 0.000000 -0.066035 0.006201 0.213716
    8 -7.271864 68.661316 0.902174 0.035433 0.001238 0.852857
    9 -11.986844 74.610154 -0.085940 -0.105345 -0.044397 0.982406
    10 -4.847914 27.875425 0.000000 0.000000 0.000000 0.000000
    11 -10.884169 43.721066 -0.263436 0.000000 -1.570796 0.287833
    12 1.645461 3.130692 15.347058 -1.570797 1.282964 -1.570797
    13 -1.061229 0.200707 -0.378920 0.000000 0.000000 0.000000
    14 -4.349673 0.059656 0.000000 0.000000 0.000000 0.000000
    15 -4.230510 -0.536228 0.000000 0.000000 0.000000 0.000000
    16 -3.694255 -0.655429 0.000000 0.000000 0.000000 0.000000
    17 13.641458 7.020348 16.879305 -0.287833 0.000000 0.000000
    18 4.472665 2.448845 0.720848 0.408991 -0.664910 0.842553
    19 15.242571 6.789905 0.000000 -0.235519 0.052663 -0.034586
    20 8.366559 3.675034 14.276474 -0.087308 0.146438 0.027217
    21 -15.633809 7.069125 16.813112 -0.287833 0.000000 0.000000
    22 -6.249312 1.413335 0.936005 0.483026 0.923685 -0.627060
    23 -13.856888 6.374216 0.000000 -0.073831 -0.401072 -0.302320
    24 -5.687840 2.494701 12.855103 -0.041078 -0.101118 -0.032710
  time 10
    0 5.807106 1.410199 -90.989794 1.570796 0.000000 1.545389
    1 6.265787 -2.137183 0.000000 -0.002971 -0.000154 -0.118011
    2 -1.211985 121.072578 2.116671 0.010137 -0.002096 0.411260
    3 -2.423956 108.889275 3.327682 0.008905 -0.001115 0.303279
    4 -8.483835 103.017944 0.000000 -0.006520 -0.002912 -0.509284
    5 -7.271858 79.990417 0.000000 -0.014393 -0.006997 -0.455929
    6 -6.059879 73.930542 0.000000 -0.020737 0.000930 -0.264655
    7 -7.271858 77.566437 0.000000 -0.067893 0.007552 0.125208
    8 -7.271864 68.661316 0.902174 0.039623 0.006861 0.768989
    9 -12.229039 75.387522 -0.074221 -0.103317 -0.045429 0.945365
    10 -4.847914 27.875425 0.000000 0.000000 0.000000 0.000000
    11 -10.884169 43.721066 -0.263436 0.000000 -1.570796 0.287833
    12 1.645461 3.130692 15.347058 -1.570797 1.282964 -1.570797
    13 -1.061229 0.200707 -0.378920 0.000000 0.000000 0.000000
    14 -4.349673 0.059656 0.000000 0.000000 0.000000 0.000000
    15 -4.230510 -0.536228 0.000000 0.000000 0.000000 0.000000
    16 -3.694255 -0.655429 0.000000 0.000000 0.000000 0.000000
    17 13.641458 7.020348 16.879305 -0.287833 0.000000 0.000000
    18 4.472665 2.448845 0.720848 0.156589 -0.331861 0.961404
    19 15.242571 6.789905 0.000000 -0.100628 -0.169995 -0.047742
    20 8.366559 3.675034 14.276474 -0.022639 0.037205 0.008150
    21 -15.633809 7.069125 16.813112 -0.287833 0.000000 0.000000
    22 -6.249312 1.413335 0.936005 0.058446 0.665486 -0.938696
    23 -13.856888 6.374216 0.000000 0.020282 -0.123332 -0.211699
    24 -5.687840 2.494701 12.855103 0.008236 0.019190 0.006719
  time 11
    0 5.807106 1.410199 -90.989794 1.570796 0.000000 1.545389
    1 6.265787 -2.137183 0.000000 -0.002587 -0.000128 -0.104590
    2 -1.211985 121.072578 2.116671 0.009898 -0.002009 0.401053
    3 -2.423956 108.889275 3.327682 0.008725 -0.001067 0.296142
    4 -8.483835 103.017944 0.000000 -0.006256 -0.002747 -0.497068
    5 -7.271858 79.990417 0.000000 -0.014513 -0.007103 -0.461982
    6 -6.059879 73.930542 0.000000 -0.020864 0.000875 -0.270143
    7 -7.271858 77.566437 0.000000 -0.068384 0.007861 0.102613
    8 -7.271864 68.661316 0.902174 0.041771 0.010188 0.721419
    9 -12.389200 75.801597 -0.070314 -0.102760 -0.045687 0.935127
    10 -4.847914 27.875425 0.000000 0.000000 0.000000 0.000000
    11 -10.884169 43.721066 -0.263436 0.000000 -1.570796 0.287833
    12 1.645461 3.130692 15.347058 -1.570797 1.282964 -1.570797
    13 -1.061229 0.200707 -0.378920 0.000000 0.000000 0.000000
    14 -4.349673 0.059656 0.000000 0.000000 0.000000 0.000000
    15 -4.230510 -0.536228 0.000000 0.000000 0.000000 0.000000
    16 -3.694255 -0.655429 0.000000 0.000000 0.000000 0.000000
    17 13.641458 7.020348 16.879305 -0.287833 0.000000 0.000000
    18 4.472665 2.448845 0.720848 0.055140 -0.160147 0.984267
    19 15.242571 6.789905 0.000000 -0.038649 -0.266598 -0.063448
    20 8.366559 3.675034 14.276474 0.004482 -0.007278 -0.001702
    21 -15.633809 7.069125 16.813112 -0.287833 0.000000 0.000000
    22 -6.249312 1.413335 0.936005 -0.095870 0.500627 -1.026200
    23 -13.856888 6.374216 0.000000 0.088735 0.040414 -0.144835
    24 -5.687840 2.494701 12.855103 0.040577 0.091111 0.033638
  time 12
    0 5.807106 1.410199 -90.989794 1.570796 0.000000 1.545389
    1 6.265787 -2.137183 0.000000 -0.002683 -0.000128 -0.106411
    2 -1.211985 121.072578 2.116671 0.010376 -0.002204 0.421838
    3 -2.423956 108.889275 3.327682 0.009648 -0.001366 0.334380
    4 -8.483835 103.017944 0.000000 -0.006651 -0.003000 -0.515820
    5 -7.271858 79.990417 0.000000 -0.015736 -0.008307 -0.529713
    6 -6.059879 73.930542 0.000000 -0.024266 -0.000684 -0.414746
    7 -7.271858 77.566437 0.000000 -0.064849 0.005208 0.273357
    8 -7.271864 68.661316 0.902174 0.039963 0.007351 0.761829
    9 -12.471234 75.852379 -0.074221 -0.106789 -0.043622 1.009122
    10 -4.847914 27.875425 0.000000 0.000000 0.000000 0.000000
    11 -10.884169 43.721066 -0.263436 0.000000 -1.570796 0.287833
    12 1.645461 3.130692 15.347058 -1.570797 1.282964 -1.570797
    13 -1.061229 0.200707 -0.378920 0.000000 0.000000 0.000000
    14 -4.349673 0.059656 0.000000 0.000000 0.000000 0.000000
    15 -4.230510 -0.536228 0.000000 0.000000 0.000000 0.000000
    16 -3.694255 -0.655429 0.000000 0.000000 0.000000 0.000000
    17 13.641458 7.020348 16.879305 -0.287833 0.000000 0.000000
    18 4.472665 2.448845 0.720848 0.253623 -0.477333 0.924760
    19 15.242571 6.789905 0.000000 -0.212622 0.014406 -0.034701
    20 8.366559 3.675034 14.276474 -0.097794 0.164450 0.029686
    21 -15.633809 7.069125 16.813112 -0.287833 0.000000 0.000000
    22 -6.249312 1.413335 0.936005 0.127355 0.724458 -0.893795
    23 -13.856888 6.374216 0.000000 0.029502 -0.099536 -0.202734
    24 -5.687840 2.494701 12.855103 0.006394 0.014956 0.005216
  time 13
    0 5.807106 1.410199 -90.989794 1.570796 0.000000 1.545389
    1 6.265787 -2.137183 0.000000 -0.002779 -0.000154 -0.113314
    2 -1.211985 121.072578 2.116671 0.010902 -0.002463 0.444666
    3 -2.423956 108.889275 3.327682 0.011014 -0.001882 0.392067
    4 -8.483835 103.017944 0.000000 -0.007371 -0.003469 -0.549384
    5 -7.271858 79.990417 0.000000 -0.017222 -0.010020 -0.618916
    6 -6.059879 73.930542 0.000000 -0.027704 -0.003035 -0.575293
    7 -7.271858 77.566437 0.000000 -0.061157 0.001107 0.486276
    8 -7.271864 68.661316 0.902174 0.035029 0.000748 0.860443
    9 -12.471234 75.539870 -0.082033 -0.109779 -0.041844 1.066024
    10 -4.847914 27.875425 0.000000 0.000000 0.000000 0.000000
    11 -10.884169 43.721066 -0.263436 0.000000 -1.570796 0.287833
    12 1.645461 3.130692 15.347058 -1.570797 1.282964 -1.570797
    13 -1.061229 0.200707 -0.378920 0.000000 0.000000 0.000000
    14 -4.349673 0.059656 0.000000 0.000000 0.000000 0.000000
    15 -4.230510 -0.536228 0.000000 0.000000 0.000000 0.000000
    16 -3.694255 -0.655429 0.000000 0.000000 0.000000 0.000000
    17 13.641458 7.020348 16.879305 -0.287833 0.000000 0.000000
    18 4.472665 2.448845 0.720848 0.718600 -0.898525 0.625172
    19 15.242571 6.789905 0.000000 -0.412815 0.336176 -0.062609
    20 8.366559 3.675034 14.276474 -0.204913 0.348444 0.044103
    21 -15.633809 7.069125 16.813112 -0.287833 0.000000 0.000000
    22 -6.249312 1.413335 0.936005 0.748483 0.995910 -0.407462
    23 -13.856888 6.374216 0.000000 -0.049899 -0.324320 -0.279484
    24 -5.687840 2.494701 12.855103 -0.028480 -0.069154 -0.022831
  time 14
    0 5.807106 1.410199 -90.989794 1.570796 0.000000 1.545389
    1 6.265787 -2.137183 0.000000 -0.002875 -0.000154 -0.116094
    2 -1.211985 121.072578 2.116671 0.010281 -0.002182 0.418498
    3 -2.423956 108.889275 3.327682 0.012236 -0.002421 0.444367
    4 -8.483835 103.017944 0.000000 -0.008437 -0.004254 -0.601700
    5 -7.271858 79.990417 0.000000 -0.018157 -0.011246 -0.679919
    6 -6.059879 73.930542 0.000000 -0.026067 -0.001832 -0.496838
    7 -7.271858 77.566437 0.000000 -0.061157 0.001107 0.486276
    8 -7.271864 68.661316 0.902174 0.024862 -0.009569 1.034346
    9 -12.393106 74.864068 -0.097659 -0.097818 -0.047724 0.847819
    10 -4.847914 27.875425 0.000000 0.000000 0.000000 0.000000
    11 -10.884169 43.721066 -0.263436 0.000000 -1.570796 0.287833
    12 1.645461 3.130692 15.347058 -1.570797 1.282964 -1.570797
    13 -1.061229 0.200707 -0.378920 0.000000 0.000000 0.000000
    14 -4.349673 0.059656 0.000000 0.000000 0.000000 0.000000
    15 -4.230510 -0.536228 0.000000 0.000000 0.000000 0.000000
    16 -3.694255 -0.655429 0.000000 0.000000 0.000000 0.000000
    17 13.641458 7.020348 16.879305 -0.287833 0.000000 0.000000
    18 4.472665 2.448845 0.720848 0.965460 -0.998005 0.425789
    19 15.242571 6.789905 0.000000 -0.227045 0.038470 -0.034520
    20 8.366559 3.675034 14.276474 -0.048610 0.080636 0.016587
    21 -15.633809 7.069125 16.813112 -0.287833 0.000000 0.000000
    22 -6.249312 1.413335 0.936005 1.325305 1.022193 0.087628
    23 -13.856888 6.374216 0.000000 -0.029540 -0.262341 -0.259935
    24 -5.687840 2.494701 12.855103 0.062176 0.136126 0.051960
  time 15
    0 5.807106 1.410199 -90.989794 1.570796 0.000000 1.545389
    1 6.265787 -2.137183 0.000000 -0.002971 -0.000154 -0.118682
    2 -1.211985 121.072578 2.116671 0.009420 -0.001815 0.380545
    3 -2.423956 108.889275 3.327682 0.011325 -0.002013 0.405113
    4 -8.483835 103.017944 0.000000 -0.006891 -0.003152 -0.527033
    5 -7.271858 79.990417 0.000000 -0.017713 -0.010654 -0.650656
    6 -6.059879 73.930542 0.000000 -0.025048 -0.001148 -0.449784
    7 -7.271858 77.566437 0.000000 -0.061625 0.001725 0.456161
    8 -7.271864 68.661316 0.902174 0.025075 -0.009388 1.030731
    9 -12.232945 73.821067 -0.121097 -0.097539 -0.047838 0.843205
    10 -4.847914 27.875425 0.000000 0.000000 0.000000 0.000000
    11 -10.884169 43.721066 -0.263436 0.000000 -1.570796 0.287833
    12 1.645461 3.130692 15.347058 -1.570797 1.282964 -1.570797
    13 -1.061229 0.200707 -0.378920 0.000000 0.000000 0.000000
    14 -4.349673 0.059656 0.000000 0.000000 0.000000 0.000000
    15 -4.230510 -0.536228 0.000000 0.000000 0.000000 0.000000
    16 -3.694255 -0.655429 0.000000 0.000000 0.000000 0.000000
    17 13.641458 7.020348 16.879305 -0.287833 0.000000 0.000000
    18 4.472665 2.448845 0.720848 0.800511 -0.937933 0.560693
    19 15.242571 6.789905 0.000000 -0.156957 -0.078275 -0.038615
    20 8.366559 3.675034 14.276474 0.001031 -0.001681 -0.000384
    21 -15.633809 7.069125 16.813112 -0.287833 0.000000 0.000000
    22 -6.249312 1.413335 0.936005 1.210110 1.029129 -0.011427
    23 -13.856888 6.374216 0.000000 0.000192 -0.177263 -0.231198
    24 -5.687840 2.494701 12.855103 0.112522 0.232222 0.095655
  time 16
    0 5.807106 1.410199 -90.989794 1.570796 0.000000 1.545389
    1 6.265787 -2.137183 0.000000 -0.003067 -0.000179 -0.121175
    2 -1.211985 121.072578 2.116671 0.008464 -0.001447 0.341665
    3 -2.423956 108.889275 3.327682 0.010223 -0.001570 0.358556
    4 -8.483835 103.017944 0.000000 -0.005046 -0.002051 -0.442303
    5 -7.271858 79.990417 0.000000 -0.017150 -0.009914 -0.614216
    6 -6.059879 73.930542 0.000000 -0.024048 -0.000574 -0.405231
    7 -7.271858 77.566437 0.000000 -0.062152 0.002393 0.423689
    8 -7.271864 68.661316 0.902174 0.026202 -0.008408 1.013007
    9 -11.994657 72.418681 -0.148442 -0.098249 -0.047552 0.855508
    10 -4.847914 27.875425 0.000000 0.000000 0.000000 0.000000
    11 -10.884169 43.721066 -0.263436 0.000000 -1.570796 0.287833
    12 1.645461 3.130692 15.347058 -1.570797 1.282964 -1.570797
    13 -1.061229 0.200707 -0.378920 0.000000 0.000000 0.000000
    14 -4.349673 0.059656 0.000000 0.000000 0.000000 0.000000
    15 -4.230510 -0.536228 0.000000 0.000000 0.000000 0.000000
    16 -3.694255 -0.655429 0.000000 0.000000 0.000000 0.000000
    17 13.641458 7.020348 16.879305 -0.287833 0.000000 0.000000
    18 4.472665 2.448845 0.720848 0.617714 -0.838909 0.701434
    19 15.242571 6.789905 0.000000 -0.093616 -0.181147 -0.049223
    20 8.366559 3.675034 14.276474 0.038471 -0.061572 -0.015484
    21 -15.633809 7.069125 16.813112 -0.287833 0.000000 0.000000
    22 -6.249312 1.413335 0.936005 0.998292 1.026257 -0.194074
    23 -13.856888 6.374216 0.000000 0.039220 -0.075009 -0.193246
    24 -5.687840 2.494701 12.855103 0.164930 0.320144 0.142267
  time 17
    0 5.807106 1.410199 -90.989794 1.570796 0.000000 1.545389
    1 6.265787 -2.137183 0.000000 -0.003067 -0.000179 -0.123571
    2 -1.211985 121.072578 2.116671 0.007555 -0.001145 0.302135
    3 -2.423956 108.889275 3.327682 0.009000 -0.001151 0.307178
    4 -8.483835 103.017944 0.000000 -0.002960 -0.001051 -0.350865
    5 -7.271858 79.990417 0.000000 -0.016479 -0.009111 -0.572978
    6 -6.059879 73.930542 0.000000 -0.023065 -0.000055 -0.362302
    7 -7.271858 77.566437 0.000000 -0.062727 0.003060 0.389589
    8 -7.271864 68.661316 0.902174 0.027861 -0.006886 0.985890
    9 -11.674334 70.653002 -0.183599 -0.099617 -0.047035 0.879148
    10 -4.847914 27.875425 0.000000 0.000000 0.000000 0.000000
    11 -10.884169 43.721066 -0.263436 0.000000 -1.570796 0.287833
    12 1.645461 3.130692 15.347058 -1.570797 1.282964 -1.570797
    13 -1.061229 0.200707 -0.378920 0.000000 0.000000 0.000000
    14 -4.349673 0.059656 0.000000 0.000000 0.000000 0.000000
    15 -4.230510 -0.536228 0.000000 0.000000 0.000000 0.000000
    16 -3.694255 -0.655429 0.000000 0.000000 0.000000 0.000000
    17 13.641458 7.020348 16.879305 -0.287833 0.000000 0.000000
    18 4.472665 2.448845 0.720848 0.460655 -0.715473 0.810286
    19 15.242571 6.789905 0.000000 -0.055365 -0.241094 -0.058646
    20 8.366559 3.675034 14.276474 0.064082 -0.101215 -0.026857
    21 -15.633809 7.069125 16.813112 -0.287833 0.000000 0.000000
    22 -6.249312 1.413335 0.936005 0.748389 0.995865 -0.407524
    23 -13.856888 6.374216 0.000000 0.065610 -0.011636 -0.167496
    24 -5.687840 2.494701 12.855103 0.204254 0.378814 0.177828
  time 18
    0 5.807106 1.410199 -90.989794 1.570796 0.000000 1.545389
    1 6.265787 -2.137183 0.000000 -0.003162 -0.000179 -0.125872
    2 -1.211985 121.072578 2.116671 0.006551 -0.000864 0.262327
    3 -2.423956 108.889275 3.327682 0.007682 -0.000767 0.253390
    4 -8.483835 103.017944 0.000000 -0.000707 -0.000215 -0.256074
    5 -7.271858 79.990417 0.000000 -0.015736 -0.008307 -0.529391
    6 -6.059879 73.930542 0.000000 -0.022065 0.000383 -0.320249
    7 -7.271858 77.566437 0.000000 -0.063339 0.003727 0.354692
    8 -7.271864 68.661316 0.902174 0.029775 -0.005029 0.954094
    9 -11.271978 68.527937 -0.222663 -0.101265 -0.046347 0.908412
    10 -4.847914 27.875425 0.000000 0.000000 0.000000 0.000000
    11 -10.884169 43.721066 -0.263436 0.000000 -1.570796 0.287833
    12 1.645461 3.130692 15.347058 -1.570797 1.282964 -1.570797
    13 -1.061229 0.200707 -0.378920 0.000000 0.000000 0.000000
    14 -4.349673 0.059656 0.000000 0.000000 0.000000 0.000000
    15 -4.230510 -0.536228 0.000000 0.000000 0.000000 0.000000
    16 -3.694255 -0.655429 0.000000 0.000000 0.000000 0.000000
    17 13.641458 7.020348 16.879305 -0.287833 0.000000 0.000000
    18 4.472665 2.448845 0.720848 0.342579 -0.591580 0.880711
    19 15.242571 6.789905 0.000000 -0.062710 -0.229755 -0.056672
    20 8.366559 3.675034 14.276474 0.078295 -0.122737 -0.033509
    21 -15.633809 7.069125 16.813112 -0.287833 0.000000 0.000000
    22 -6.249312 1.413335 0.936005 0.524127 0.938174 -0.593834
    23 -13.856888 6.374216 0.000000 0.052972 -0.041424 -0.179848
    24 -5.687840 2.494701 12.855103 0.211444 0.388931 0.184392
  time 19
    0 5.807106 1.410199 -90.989794 1.570796 0.000000 1.545389
    1 6.265787 -2.137183 0.000000 -0.003162 -0.000205 -0.128269
    2 -1.211985 121.072578 2.116671 0.005595 -0.000605 0.222518
    3 -2.423956 108.889275 3.327682 0.006352 -0.000467 0.199579
    4 -8.483835 103.017944 0.000000 0.001606 0.000392 -0.161283
    5 -7.271858 79.990417 0.000000 -0.014957 -0.007525 -0.485771
    6 -6.059879 73.930542 0.000000 -0.021064 0.000820 -0.278164
    7 -7.271858 77.566437 0.000000 -0.063974 0.004378 0.319829
    8 -7.271864 68.661316 0.902174 0.031604 -0.003121 0.922333
    9 -10.791495 66.035674 -0.273445 -0.102886 -0.045630 0.937676
    10 -4.847914 27.875425 0.000000 0.000000 0.000000 0.000000
    11 -10.884169 43.721066 -0.263436 0.000000 -1.570796 0.287833
    12 1.645461 3.130692 15.347058 -1.570797 1.282964 -1.570797
    13 -1.061229 0.200707 -0.378920 0.000000 0.000000 0.000000
    14 -4.349673 0.059656 0.000000 0.000000 0.000000 0.000000
    15 -4.230510 -0.536228 0.000000 0.000000 0.000000 0.000000
    16 -3.694255 -0.655429 0.000000 0.000000 0.000000 0.000000
    17 13.641458 7.020348 16.879305 -0.287833 0.000000 0.000000
    18 4.472665 2.448845 0.720848 0.256066 -0.480807 0.923679
    19 15.242571 6.789905 0.000000 -0.212124 0.013526 -0.034701
    20 8.366559 3.675034 14.276474 0.050491 -0.080322 -0.020721
    21 -15.633809 7.069125 16.813112 -0.287833 0.000000 0.000000
    22 -6.249312 1.413335 0.936005 0.304672 0.842625 -0.766545
    23 -13.856888 6.374216 0.000000 -0.063498 -0.367486 -0.292483
    24 -5.687840 2.494701 12.855103 0.118135 0.242211 0.100606
  time 20
    0 5.807106 1.410199 -90.989794 1.570796 0.000000 1.545389
    1 6.265787 -2.137183 0.000000 -0.003258 -0.000205 -0.130761
    2 -1.211985 121.072578 2.116671 0.004590 -0.000410 0.183081
    3 -2.423956 108.889275 3.327682 0.005069 -0.000240 0.148201
    4 -8.483835 103.017944 0.000000 0.003895 0.000785 -0.069821
    5 -7.271858 79.990417 0.000000 -0.014178 -0.006807 -0.444566
    6 -6.059879 73.930542 0.000000 -0.020028 0.001203 -0.235267
    7 -7.271858 77.566437 0.000000 -0.064609 0.004980 0.285729
    8 -7.271864 68.661316 0.902174 0.033136 -0.001444 0.895252
    9 -10.228978 63.176211 -0.324228 -0.104204 -0.044999 0.961271
    10 -4.847914 27.875425 0.000000 0.000000 0.000000 0.000000
    11 -10.884169 43.721066 -0.263436 0.000000 -1.570796 0.287833
    12 1.645461 3.130692 15.347058 -1.570797 1.282964 -1.570797
    13 -1.061229 0.200707 -0.378920 0.000000 0.000000 0.000000
    14 -4.349673 0.059656 0.000000 0.000000 0.000000 0.000000
    15 -4.230510 -0.536228 0.000000 0.000000 0.000000 0.000000
    16 -3.694255 -0.655429 0.000000 0.000000 0.000000 0.000000
    17 13.641458 7.020348 16.879305 -0.287833 0.000000 0.000000
    18 4.472665 2.448845 0.720848 0.181857 -0.371726 0.953189
    19 15.242571 6.789905 0.000000 -0.443057 0.380195 -0.072181
    20 8.366559 3.675034 14.276474 0.000000 0.000000 0.000000
    21 -15.633809 7.069125 16.813112 -0.287833 0.000000 0.000000
    22 -6.249312 1.413335 0.936005 0.111141 0.711383 -0.904601
    23 -13.856888 6.374216 0.000000 -0.197753 -0.862520 -0.415528
    24 -5.687840 2.494701 12.855103 0.000000 0.000000 0.000000
end
