// Created by Crowbar 0.42.0.0
version 1
nodes
  0 "Dummy01" -1
  1 "Bone01" 0
  2 "Bone02" 1
  3 "Bone03" 2
  4 "Bone04" 3
  5 "Bone05" 4
  6 "Bone06" 5
  7 "Bone07" 6
  8 "Bone08" 7
  9 "Bone09" 8
  10 "Bone10" 9
  11 "Dummy04" 10
  12 "Dummy05" 11
  13 "Bone19" 12
  14 "Bone20" 13
  15 "Bone21" 14
  16 "Bone22" 15
  17 "Dummy03" 11
  18 "Bone11" 17
  19 "Bone12" 18
  20 "Bone13" 19
  21 "Dummy02" 11
  22 "Bone15" 21
  23 "Bone16" 22
  24 "Bone17" 23
end
skeleton
  time 0
    0 5.807106 1.410199 -67.125213 1.570796 0.000000 1.545389
    1 6.265787 -2.137183 0.000000 -0.013128 0.094710 -0.026459
    2 -1.211985 121.072578 2.116671 0.020848 0.009117 -0.305568
    3 -2.423956 108.889275 3.327682 0.047075 0.012404 -0.478043
    4 -8.483835 103.017944 0.000000 -0.005237 0.000798 0.060665
    5 -7.271858 79.990417 0.000000 -0.067533 -0.008160 0.304114
    6 -6.059879 73.930542 0.000000 -0.052079 -0.019440 0.243873
    7 -7.271858 77.566437 0.000000 -0.066071 0.000391 0.302883
    8 -7.271864 68.661316 0.902174 0.083073 0.005648 0.532274
    9 -10.228978 63.176211 -0.324228 -0.083703 -0.072561 0.726940
    10 -4.847914 27.875425 0.000000 0.000000 0.000000 0.000000
    11 -10.884169 43.721066 -0.263436 0.000000 -1.570796 0.287833
    12 1.645461 3.130692 15.347058 -1.570797 1.282964 -1.570797
    13 -1.061229 0.200707 -0.378920 0.000000 0.000000 0.000000
    14 -4.349673 0.059656 0.000000 0.000000 0.000000 0.000000
    15 -4.230510 -0.536228 0.000000 0.000000 0.000000 0.000000
    16 -3.694255 -0.655429 0.000000 0.000000 0.000000 0.000000
    17 13.641458 7.020348 16.879305 -0.287833 0.000000 0.000000
    18 4.472665 2.448845 0.720848 0.181857 -0.371726 0.953189
    19 15.242571 6.789905 0.000000 -0.443057 0.380195 -0.072181
    20 8.366559 3.675034 14.276474 0.000000 0.000000 0.000000
    21 -15.633809 7.069125 16.813112 -0.287833 0.000000 0.000000
    22 -6.249312 1.413335 0.936005 0.111141 0.711383 -0.904601
    23 -13.856888 6.374216 0.000000 -0.197753 -0.862485 -0.415528
    24 -5.687840 2.494701 12.855103 0.000000 0.000000 0.000000
  time 1
    0 5.807106 1.410199 -65.764854 1.570796 0.000000 1.545389
    1 6.265787 2.619999 0.000000 -0.013128 0.094710 -0.026459
    2 -1.211985 121.072578 2.116671 0.024626 0.009786 -0.303527
    3 -2.423956 108.889275 3.327682 0.052576 0.017018 -0.492577
    4 -8.483835 103.017944 0.000000 0.004866 0.010546 0.026391
    5 -7.271858 79.990417 0.000000 -0.055105 0.001226 0.302794
    6 -6.059879 73.930542 0.000000 -0.060537 -0.023814 0.269526
    7 -7.271858 77.566437 0.000000 -0.077349 -0.001188 0.328527
    8 -7.271864 68.661316 0.902174 0.081691 0.004359 0.534861
    9 -10.228978 63.176211 -0.324228 -0.087251 0.003327 0.727511
    10 -4.847914 27.875425 0.000000 0.000000 0.000000 0.000000
    11 -10.884169 43.721066 -0.263436 0.000000 -1.570796 0.287833
    12 1.645461 3.130692 15.347058 -1.570797 1.282964 -1.570797
    13 -1.061229 0.200707 -0.378920 0.000000 0.000000 0.000000
    14 -4.349673 0.059656 0.000000 0.000000 0.000000 0.000000
    15 -5.109443 -0.598730 -0.203131 0.000000 0.000000 0.000000
    16 -3.694255 -0.655429 0.000000 0.000000 0.000000 0.000000
    17 13.641458 7.020348 16.879305 -0.287833 0.000000 0.000000
    18 4.472665 2.448845 0.720848 0.118076 -0.314488 0.969133
    19 15.242571 6.789905 0.000000 -0.470640 0.388946 -0.078233
    20 8.366559 3.675034 14.276474 -0.071392 0.071806 0.025839
    21 -15.633809 7.069125 16.813112 -0.287833 0.000000 0.000000
    22 -6.249312 1.413335 0.936005 0.057409 0.627805 -0.942857
    23 -13.856888 6.374216 0.000000 -0.178892 -0.864820 -0.427058
    24 -5.687840 2.494701 12.855103 -0.002313 -0.056122 -0.016311
  time 2
    0 5.807106 1.410199 -64.404495 1.570796 0.000000 1.545389
    1 6.265787 6.800553 0.000000 -0.013128 0.094710 -0.026459
    2 -1.211985 121.072578 2.116671 0.028738 0.010521 -0.301949
    3 -2.423956 108.889275 3.327682 0.058689 0.022303 -0.508482
    4 -8.483835 103.017944 0.000000 0.015280 0.021598 -0.008054
    5 -7.271858 79.990417 0.000000 -0.041802 0.011436 0.303213
    6 -6.059879 73.930542 0.000000 -0.069724 -0.028380 0.296284
    7 -7.271858 77.566437 0.000000 -0.089561 -0.002734 0.355419
    8 -7.271864 68.661316 0.902174 0.080117 0.002863 0.537130
    9 -10.228978 63.176211 -0.324228 -0.091027 0.090744 0.726721
    10 -4.847914 27.875425 0.000000 0.000000 0.000000 0.000000
    11 -10.884169 43.721066 -0.263436 0.000000 -1.570796 0.287833
    12 1.645461 3.130692 15.347058 -1.570797 1.282964 -1.570797
    13 -1.061229 0.200707 -0.378920 0.000000 0.000000 0.000000
    14 -4.349673 0.059656 0.000000 0.000000 0.000000 0.000000
    15 -5.882904 -0.653420 -0.390637 0.000000 0.000000 0.000000
    16 -3.694255 -0.655429 0.000000 0.000000 0.000000 0.000000
    17 13.641458 7.020348 16.879305 -0.287833 0.000000 0.000000
    18 4.472665 2.448845 0.720848 0.043398 -0.240746 0.984591
    19 15.242571 6.789905 0.000000 -0.508392 0.407407 -0.086209
    20 8.366559 3.675034 14.276474 -0.149640 0.154234 0.049305
    21 -15.633809 7.069125 16.813112 -0.287833 0.000000 0.000000
    22 -6.249312 1.413335 0.936005 -0.001225 0.524481 -0.979436
    23 -13.856888 6.374216 0.000000 -0.160108 -0.877118 -0.440556
    24 -5.687840 2.494701 12.855103 -0.005098 -0.124377 -0.035561
  time 3
    0 5.807106 1.410199 -63.044136 1.570796 0.000000 1.545389
    1 6.265787 10.440519 0.000000 -0.013128 0.094710 -0.026459
    2 -1.211985 121.072578 2.116671 0.033041 0.011299 -0.300650
    3 -2.423956 108.889275 3.327682 0.065100 0.028044 -0.525191
    4 -8.483835 103.017944 0.000000 0.025659 0.033562 -0.042622
    5 -7.271858 79.990417 0.000000 -0.027960 0.022111 0.304661
    6 -6.059879 73.930542 0.000000 -0.079383 -0.032919 0.323692
    7 -7.271858 77.566437 0.000000 -0.102336 -0.004069 0.383039
    8 -7.271864 68.661316 0.902174 0.078416 0.001315 0.539257
    9 -10.228978 63.176211 -0.324228 -0.094296 0.155217 0.727907
    10 -4.847914 27.875425 0.000000 0.000000 0.000000 0.000000
    11 -10.884169 43.721066 -0.263436 0.000000 -1.570796 0.287833
    12 1.645461 3.130692 15.347058 -1.570797 1.282964 -1.570797
    13 -1.061229 0.200707 -0.378920 0.000000 0.000000 0.000000
    14 -4.349673 0.059656 0.000000 0.000000 0.000000 0.000000
    15 -6.546987 -0.700296 -0.558611 0.000000 0.000000 0.000000
    16 -3.694255 -0.655429 0.000000 0.000000 0.000000 0.000000
    17 13.641458 7.020348 16.879305 -0.287833 0.000000 0.000000
    18 4.472665 2.448845 0.720848 -0.022638 -0.174045 0.993022
    19 15.242571 6.789905 0.000000 -0.541525 0.420693 -0.094005
    20 8.366559 3.675034 14.276474 -0.223129 0.233669 0.065484
    21 -15.633809 7.069125 16.813112 -0.287833 0.000000 0.000000
    22 -6.249312 1.413335 0.936005 -0.047511 0.428932 -1.005333
    23 -13.856888 6.374216 0.000000 -0.140824 -0.884225 -0.453580
    24 -5.687840 2.494701 12.855103 -0.005997 -0.186621 -0.053353
  time 4
    0 5.807106 1.410199 -61.683777 1.570796 0.000000 1.545389
    1 6.265787 13.539895 0.000000 -0.013128 0.094710 -0.026459
    2 -1.211985 121.072578 2.116671 0.037393 0.012098 -0.299444
    3 -2.423956 108.889275 3.327682 0.071512 0.033988 -0.542041
    4 -8.483835 103.017944 0.000000 0.035714 0.046019 -0.077091
    5 -7.271858 79.990417 0.000000 -0.013962 0.032871 0.306496
    6 -6.059879 73.930542 0.000000 -0.089278 -0.037239 0.351326
    7 -7.271858 77.566437 0.000000 -0.115268 -0.005078 0.410832
    8 -7.271864 68.661316 0.902174 0.076693 -0.000258 0.541313
    9 -10.228978 63.176211 -0.324228 -0.096095 0.162358 0.734806
    10 -4.847914 27.875425 0.000000 0.000000 0.000000 0.000000
    11 -10.884169 43.721066 -0.263436 0.000000 -1.570796 0.287833
    12 1.645461 3.130692 15.347058 -1.570797 1.282964 -1.570797
    13 -1.061229 0.200707 -0.378920 0.000000 0.000000 0.000000
    14 -4.349673 0.059656 0.000000 0.000000 0.000000 0.000000
    15 -6.875122 -0.688577 -0.714865 0.000000 0.000000 0.000000
    16 -3.694255 -0.655429 0.000000 0.000000 0.000000 0.000000
    17 13.641458 7.020348 16.879305 -0.287833 0.000000 0.000000
    18 4.472665 2.448845 0.720848 -0.062748 -0.138660 0.993563
    19 15.242571 6.789905 0.000000 -0.554452 0.414184 -0.098067
    20 8.366559 3.675034 14.276474 -0.280559 0.295573 0.073082
    21 -15.633809 7.069125 16.813112 -0.287833 0.000000 0.000000
    22 -6.249312 1.413335 0.936005 -0.069475 0.369916 -1.019058
    23 -13.856888 6.374216 0.000000 -0.121771 -0.870951 -0.462196
    24 -5.687840 2.494701 12.855103 -0.003772 -0.224671 -0.065376
  time 5
    0 5.807106 1.410199 -60.284551 1.570796 0.000000 1.545389
    1 6.265787 16.062643 0.000000 -0.013128 0.094710 -0.026459
    2 -1.211985 121.072578 2.116671 0.041648 0.012854 -0.298052
    3 -2.423956 108.889275 3.327682 0.077648 0.039849 -0.558466
    4 -8.483835 103.017944 0.000000 0.045170 0.058527 -0.111390
    5 -7.271858 79.990417 0.000000 -0.000216 0.043376 0.308009
    6 -6.059879 73.930542 0.000000 -0.099083 -0.041176 0.378668
    7 -7.271858 77.566437 0.000000 -0.127959 -0.005697 0.438279
    8 -7.271864 68.661316 0.902174 0.075034 -0.001805 0.543475
    9 -10.228978 63.180118 -0.324228 -0.095867 -0.053661 0.763674
    10 -4.847914 27.875425 0.000000 0.000000 0.000000 0.000000
    11 -10.884169 43.721066 -0.263436 0.000000 -1.570796 0.287833
    12 1.645461 3.130692 15.347058 -1.570797 1.282964 -1.570797
    13 -1.061229 0.200707 -0.378920 0.000000 0.000000 0.000000
    14 -4.349673 0.059656 0.000000 0.000000 0.000000 0.000000
    15 -6.714961 -0.583105 -0.863307 0.000000 0.000000 0.000000
    16 -3.694255 -0.655429 0.000000 0.000000 0.000000 0.000000
    17 13.641458 7.020348 16.879305 -0.287833 0.000000 0.000000
    18 4.472665 2.448845 0.720848 -0.058897 -0.158638 0.986699
    19 15.242571 6.789905 0.000000 -0.531921 0.373446 -0.095518
    20 8.366559 3.675034 14.276474 -0.309778 0.325426 0.073334
    21 -15.633809 7.069125 16.813112 -0.287833 0.000000 0.000000
    22 -6.249312 1.413335 0.936005 -0.055618 0.376232 -1.019679
    23 -13.856888 6.374216 0.000000 -0.104293 -0.822281 -0.461798
    24 -5.687840 2.494701 12.855103 0.002313 -0.220346 -0.067011
  time 6
    0 5.807106 1.410199 -58.924192 1.570796 0.000000 1.545389
    1 6.265787 18.008763 0.000000 -0.013128 0.094710 -0.026459
    2 -1.211985 121.072578 2.116671 0.045713 0.013545 -0.296382
    3 -2.423956 108.889275 3.327682 0.083209 0.045350 -0.573850
    4 -8.483835 103.017944 0.000000 0.053799 0.070630 -0.145394
    5 -7.271858 79.990417 0.000000 0.012871 0.053312 0.308524
    6 -6.059879 73.930542 0.000000 -0.108542 -0.044621 0.405296
    7 -7.271858 77.566437 0.000000 -0.140016 -0.005827 0.464859
    8 -7.271864 68.661316 0.902174 0.073482 -0.003198 0.545885
    9 -10.228978 63.176211 -0.324228 -0.102582 -0.270368 0.794124
    10 -4.847914 27.875425 0.000000 0.000000 0.000000 0.000000
    11 -10.884169 43.721066 -0.263436 0.000000 -1.570796 0.287833
    12 1.645461 3.130692 15.347058 -1.570797 1.282964 -1.570797
    13 -1.061229 0.200707 -0.378920 0.000000 0.000000 0.000000
    14 -4.349673 0.059656 0.000000 0.000000 0.000000 0.000000
    15 -6.156350 -0.411225 -1.007843 0.000000 0.000000 0.000000
    16 -3.694255 -0.655429 0.000000 0.000000 0.000000 0.000000
    17 13.641458 7.020348 16.879305 -0.287833 0.000000 0.000000
    18 4.472665 2.448845 0.720848 0.005636 -0.251444 0.966431
    19 15.242571 6.789905 0.000000 -0.460936 0.283032 -0.090617
    20 8.366559 3.675034 14.276474 -0.318395 0.331984 0.070110
    21 -15.633809 7.069125 16.813112 -0.287833 0.000000 0.000000
    22 -6.249312 1.413335 0.936005 0.005090 0.460738 -1.001482
    23 -13.856888 6.374216 0.000000 -0.086699 -0.728284 -0.449645
    24 -5.687840 2.494701 12.855103 0.013747 -0.164828 -0.054988
  time 7
    0 5.807106 1.410199 -57.563834 1.570796 0.000000 1.545389
    1 6.265787 19.414294 0.000000 -0.013128 0.094710 -0.026459
    2 -1.211985 121.072578 2.116671 0.049299 0.014129 -0.294155
    3 -2.423956 108.889275 3.327682 0.087967 0.050191 -0.587628
    4 -8.483835 103.017944 0.000000 0.061397 0.081847 -0.179007
    5 -7.271858 79.990417 0.000000 0.024904 0.062401 0.307301
    6 -6.059879 73.930542 0.000000 -0.117328 -0.047410 0.430723
    7 -7.271858 77.566437 0.000000 -0.151030 -0.005485 0.490053
    8 -7.271864 68.661316 0.902174 0.072163 -0.004410 0.548615
    9 -10.228978 63.176211 -0.324228 -0.104610 -0.131527 0.787665
    10 -4.847914 27.875425 0.000000 0.000000 0.000000 0.000000
    11 -10.884169 43.721066 -0.263436 0.000000 -1.570796 0.287833
    12 1.645461 3.130692 15.347058 -1.570797 1.282964 -1.570797
    13 -1.061229 0.200707 -0.378920 0.000000 0.000000 0.000000
    14 -4.349673 0.059656 0.000000 0.000000 0.000000 0.000000
    15 -5.296949 -0.180749 -1.140660 0.000000 0.000000 0.000000
    16 -3.694255 -0.655429 0.000000 0.000000 0.000000 0.000000
    17 13.641458 7.020348 16.879305 -0.287833 0.000000 0.000000
    18 4.472665 2.448845 0.720848 0.125591 -0.396825 0.920544
    19 15.242571 6.789905 0.000000 -0.353960 0.152708 -0.095304
    20 8.366559 3.675034 14.276474 -0.322913 0.333906 0.066275
    21 -15.633809 7.069125 16.813112 -0.287833 0.000000 0.000000
    22 -6.249312 1.413335 0.936005 0.111518 0.599003 -0.954532
    23 -13.856888 6.374216 0.000000 -0.066724 -0.600353 -0.428577
    24 -5.687840 2.494701 12.855103 0.030911 -0.072379 -0.031848
  time 8
    0 5.807106 1.410199 -56.203475 1.570796 0.000000 1.545389
    1 6.265787 20.243197 0.000000 -0.013128 0.094710 -0.026459
    2 -1.211985 121.072578 2.116671 0.052407 0.014561 -0.291185
    3 -2.423956 108.889275 3.327682 0.091646 0.054062 -0.599185
    4 -8.483835 103.017944 0.000000 0.067809 0.091671 -0.212155
    5 -7.271858 79.990417 0.000000 0.035438 0.070307 0.303567
    6 -6.059879 73.930542 0.000000 -0.125150 -0.049488 0.454493
    7 -7.271858 77.566437 0.000000 -0.160594 -0.004671 0.513307
    8 -7.271864 68.661316 0.902174 0.071121 -0.005313 0.551805
    9 -10.228978 63.176211 -0.324228 -0.105750 0.024694 0.782129
    10 -4.847914 27.875425 0.000000 0.000000 0.000000 0.000000
    11 -10.884169 43.721066 -0.263436 0.000000 -1.570796 0.287833
    12 1.645461 3.130692 15.347058 -1.570797 1.282964 -1.570797
    13 -1.061229 0.200707 -0.378920 0.000000 0.000000 0.000000
    14 -4.349673 0.059656 0.000000 0.000000 0.000000 0.000000
    15 -4.234417 0.080978 -1.253944 0.000000 0.000000 0.000000
    16 -3.694255 -0.655429 0.000000 0.000000 0.000000 0.000000
    17 13.641458 7.020348 16.879305 -0.287833 0.000000 0.000000
    18 4.472665 2.448845 0.720848 0.291291 -0.559806 0.836554
    19 15.242571 6.789905 0.000000 -0.231099 0.006776 -0.116519
    20 8.366559 3.675034 14.276474 -0.323752 0.331707 0.061948
    21 -15.633809 7.069125 16.813112 -0.287833 0.000000 0.000000
    22 -6.249312 1.413335 0.936005 0.267437 0.761123 -0.862681
    23 -13.856888 6.374216 0.000000 -0.044521 -0.455352 -0.402280
    24 -5.687840 2.494701 12.855103 0.053218 0.040414 -0.001238
  time 9
    0 5.807106 1.410199 -54.843116 1.570796 0.000000 1.545389
    1 6.265787 20.531511 0.000000 -0.013128 0.094710 -0.026459
    2 -1.211985 121.072578 2.116671 0.054846 0.014798 -0.287288
    3 -2.423956 108.889275 3.327682 0.094019 0.056639 -0.607953
    4 -8.483835 103.017944 0.000000 0.072878 0.099634 -0.244690
    5 -7.271858 79.990417 0.000000 0.044031 0.076775 0.296646
    6 -6.059879 73.930542 0.000000 -0.131680 -0.050773 0.476088
    7 -7.271858 77.566437 0.000000 -0.168300 -0.003434 0.534065
    8 -7.271864 68.661316 0.902174 0.070461 -0.005855 0.555633
    9 -10.228978 63.176211 -0.324228 -0.104660 -0.121546 0.810470
    10 -4.847914 27.875425 0.000000 0.000000 0.000000 0.000000
    11 -10.884169 43.721066 -0.263436 0.000000 -1.570796 0.287833
    12 1.645461 3.130692 15.347058 -1.570797 1.282964 -1.570797
    13 -1.061229 0.200707 -0.378920 0.000000 0.000000 0.000000
    14 -4.349673 0.059656 0.000000 0.000000 0.000000 0.000000
    15 -3.066412 0.350517 -1.347697 0.000000 0.000000 0.000000
    16 -3.694255 -0.655429 0.000000 0.000000 0.000000 0.000000
    17 13.641458 7.020348 16.879305 -0.287833 0.000000 0.000000
    18 4.472665 2.448845 0.720848 0.490808 -0.705553 0.711054
    19 15.242571 6.789905 0.000000 -0.109900 -0.130404 -0.151894
    20 8.366559 3.675034 14.276474 -0.321331 0.325962 0.057202
    21 -15.633809 7.069125 16.813112 -0.287833 0.000000 0.000000
    22 -6.249312 1.413335 0.936005 0.482366 0.914673 -0.707608
    23 -13.856888 6.374216 0.000000 -0.021319 -0.310106 -0.374264
    24 -5.687840 2.494701 12.855103 0.079076 0.157149 0.032887
  time 10
    0 5.807106 1.410199 -53.482757 1.570796 0.000000 1.545389
    1 6.265787 20.279236 0.000000 -0.013128 0.094710 -0.026459
    2 -1.211985 121.072578 2.116671 0.056424 0.014842 -0.282277
    3 -2.423956 108.889275 3.327682 0.094858 0.057634 -0.613341
    4 -8.483835 103.017944 0.000000 0.076510 0.105205 -0.276589
    5 -7.271858 79.990417 0.000000 0.050263 0.081489 0.285733
    6 -6.059879 73.930542 0.000000 -0.136591 -0.051210 0.495052
    7 -7.271858 77.566437 0.000000 -0.173777 -0.001774 0.551843
    8 -7.271864 68.661316 0.902174 0.070270 -0.005932 0.560206
    9 -10.228978 63.176211 -0.324228 -0.109855 -0.268245 0.853004
    10 -4.847914 27.875425 0.000000 0.000000 0.000000 0.000000
    11 -10.884169 43.721066 -0.263436 0.000000 -1.570796 0.287833
    12 1.645461 3.130692 15.347058 -1.570797 1.282964 -1.570797
    13 -1.061229 0.200707 -0.378920 0.000000 0.000000 0.000000
    14 -4.349673 0.059656 0.000000 0.000000 0.000000 0.000000
    15 -1.878876 0.604431 -1.421918 0.000000 0.000000 0.000000
    16 -3.694255 -0.655429 0.000000 0.000000 0.000000 0.000000
    17 13.641458 7.020348 16.879305 -0.287833 0.000000 0.000000
    18 4.472665 2.448845 0.720848 0.689668 -0.807685 0.567449
    19 15.242571 6.789905 0.000000 -0.011432 -0.237332 -0.188864
    20 8.366559 3.675034 14.276474 -0.316094 0.317150 0.052073
    21 -15.633809 7.069125 16.813112 -0.287833 0.000000 0.000000
    22 -6.249312 1.413335 0.936005 0.750934 1.028908 -0.488445
    23 -13.856888 6.374216 0.000000 0.000230 -0.181165 -0.348515
    24 -5.687840 2.494701 12.855103 0.104963 0.261768 0.065288
  time 11
    0 5.807106 1.410199 -52.122398 1.570796 0.000000 1.545389
    1 6.265787 19.450333 0.000000 -0.013128 0.094710 -0.026459
    2 -1.211985 121.072578 2.116671 0.056854 0.014561 -0.275596
    3 -2.423956 108.889275 3.327682 0.093839 0.056675 -0.614593
    4 -8.483835 103.017944 0.000000 0.077385 0.104204 -0.311573
    5 -7.271858 79.990417 0.000000 0.050899 0.081510 0.263456
    6 -6.059879 73.930542 0.000000 -0.137610 -0.049379 0.509340
    7 -7.271858 77.566437 0.000000 -0.173633 0.001188 0.567576
    8 -7.271864 68.661316 0.902174 0.071142 -0.005081 0.572967
    9 -10.228978 63.176211 -0.324228 -0.113403 -0.128401 0.895010
    10 -4.847914 27.875425 0.000000 0.000000 0.000000 0.000000
    11 -10.884169 43.721066 -0.263436 0.000000 -1.570796 0.287833
    12 1.645461 3.130692 15.347058 -1.570797 1.282964 -1.570797
    13 -1.061229 0.200707 -0.378920 0.000000 0.000000 0.000000
    14 -4.349673 0.059656 0.000000 0.000000 0.000000 0.000000
    15 -0.777280 0.827094 -1.468795 0.000000 0.000000 0.000000
    16 -3.694255 -0.655429 0.000000 0.000000 0.000000 0.000000
    17 13.641458 7.020348 16.879305 -0.287833 0.000000 0.000000
    18 4.472665 2.448845 0.720848 0.816573 -0.858934 0.466379
    19 15.242571 6.789905 0.000000 0.036190 -0.296425 -0.206346
    20 8.366559 3.675034 14.276474 -0.308519 0.305826 0.046572
    21 -15.633809 7.069125 16.813112 -0.287833 0.000000 0.000000
    22 -6.249312 1.413335 0.936005 1.008284 1.089912 -0.264127
    23 -13.856888 6.374216 0.000000 0.015942 -0.084764 -0.330087
    24 -5.687840 2.494701 12.855103 0.124692 0.338803 0.088472
  time 12
    0 5.807106 1.410199 -50.762039 1.570796 0.000000 1.545389
    1 6.265787 18.044802 0.000000 -0.013128 0.094710 -0.026459
    2 -1.211985 121.072578 2.116671 0.056137 0.013977 -0.267245
    3 -2.423956 108.889275 3.327682 0.091083 0.053883 -0.611899
    4 -8.483835 103.017944 0.000000 0.075179 0.094899 -0.349225
    5 -7.271858 79.990417 0.000000 0.044703 0.075507 0.227305
    6 -6.059879 73.930542 0.000000 -0.133699 -0.044922 0.517328
    7 -7.271858 77.566437 0.000000 -0.166466 0.005534 0.579462
    8 -7.271864 68.661316 0.902174 0.073439 -0.002992 0.594412
    9 -10.228978 63.176211 -0.324228 -0.104762 0.022973 0.943695
    10 -4.847914 27.875425 0.000000 0.000000 0.000000 0.000000
    11 -10.884169 43.721066 -0.263436 0.000000 -1.570796 0.287833
    12 1.645461 3.130692 15.347058 -1.570797 1.282964 -1.570797
    13 -1.061229 0.200707 -0.378920 0.000000 0.000000 0.000000
    14 -4.349673 0.059656 0.000000 0.000000 0.000000 0.000000
    15 0.148530 0.991162 -1.480514 0.000000 0.000000 0.000000
    16 -3.694255 -0.655429 0.000000 0.000000 0.000000 0.000000
    17 13.641458 7.020348 16.879305 -0.287833 0.000000 0.000000
    18 4.472665 2.448845 0.720848 0.810843 -0.867345 0.463677
    19 15.242571 6.789905 0.000000 0.021236 -0.305335 -0.190772
    20 8.366559 3.675034 14.276474 -0.299028 0.292544 0.040712
    21 -15.633809 7.069125 16.813112 -0.287833 0.000000 0.000000
    22 -6.249312 1.413335 0.936005 1.227079 1.118051 -0.064588
    23 -13.856888 6.374216 0.000000 0.023663 -0.010870 -0.317212
    24 -5.687840 2.494701 12.855103 0.136066 0.401541 0.104407
  time 13
    0 5.807106 1.410199 -49.401681 1.570796 0.000000 1.545389
    1 6.265787 16.098682 0.000000 -0.013128 0.094710 -0.026459
    2 -1.211985 121.072578 2.116671 0.054463 0.013178 -0.257594
    3 -2.423956 108.889275 3.327682 0.086924 0.049652 -0.606109
    4 -8.483835 103.017944 0.000000 0.071093 0.080492 -0.383107
    5 -7.271858 79.990417 0.000000 0.034276 0.065530 0.184039
    6 -6.059879 73.930542 0.000000 -0.126459 -0.039317 0.519212
    7 -7.271858 77.566437 0.000000 -0.154949 0.009896 0.582824
    8 -7.271864 68.661316 0.902174 0.076736 -0.000077 0.614156
    9 -10.228978 63.176211 -0.324228 -0.090621 -0.065133 1.012769
    10 -4.847914 27.875425 0.000000 0.000000 0.000000 0.000000
    11 -10.884169 43.721066 -0.263436 0.000000 -1.570796 0.287833
    12 1.645461 3.130692 15.347058 -1.570797 1.282964 -1.570797
    13 -1.061229 0.200707 -0.378920 0.000000 0.000000 0.000000
    14 -4.349673 0.059656 0.000000 0.000000 0.000000 0.000000
    15 0.796987 1.077102 -1.460982 0.000000 0.000000 0.000000
    16 -3.694255 -0.655429 0.000000 0.000000 0.000000 0.000000
    17 13.641458 7.020348 16.879305 -0.287833 0.000000 0.000000
    18 4.472665 2.448845 0.720848 0.703194 -0.844075 0.538263
    19 15.242571 6.789905 0.000000 -0.036024 -0.278870 -0.151384
    20 8.366559 3.675034 14.276474 -0.288110 0.277784 0.034504
    21 -15.633809 7.069125 16.813112 -0.287833 0.000000 0.000000
    22 -6.249312 1.413335 0.936005 1.441160 1.127770 0.136628
    23 -13.856888 6.374216 0.000000 0.025891 0.058077 -0.305707
    24 -5.687840 2.494701 12.855103 0.143035 0.467652 0.119613
  time 14
    0 5.807106 1.410199 -48.041322 1.570796 0.000000 1.545389
    1 6.265787 13.575934 0.000000 -0.013128 0.094710 -0.026459
    2 -1.211985 121.072578 2.116671 0.052120 0.012228 -0.247109
    3 -2.423956 108.889275 3.327682 0.081711 0.044403 -0.598027
    4 -8.483835 103.017944 0.000000 0.065903 0.064351 -0.406805
    5 -7.271858 79.990417 0.000000 0.022004 0.053903 0.140355
    6 -6.059879 73.930542 0.000000 -0.117564 -0.033931 0.515088
    7 -7.271858 77.566437 0.000000 -0.141802 0.013216 0.572843
    8 -7.271864 68.661316 0.902174 0.080564 0.003405 0.621777
    9 -10.228978 63.176211 -0.324228 -0.084742 -0.178505 1.073054
    10 -4.847914 27.875425 0.000000 0.000000 0.000000 0.000000
    11 -10.884169 43.721066 -0.263436 0.000000 -1.570796 0.287833
    12 1.645461 3.130692 15.347058 -1.570797 1.282964 -1.570797
    13 -1.061229 0.200707 -0.378920 0.000000 0.000000 0.000000
    14 -4.349673 0.059656 0.000000 0.000000 0.000000 0.000000
    15 1.074339 1.065383 -1.406293 0.000000 0.000000 0.000000
    16 -3.694255 -0.655429 0.000000 0.000000 0.000000 0.000000
    17 13.641458 7.020348 16.879305 -0.287833 0.000000 0.000000
    18 4.472665 2.448845 0.720848 0.551584 -0.794472 0.642089
    19 15.242571 6.789905 0.000000 -0.117743 -0.226074 -0.101093
    20 8.366559 3.675034 14.276474 -0.276209 0.262081 0.027972
    21 -15.633809 7.069125 16.813112 -0.287833 0.000000 0.000000
    22 -6.249312 1.413335 0.936005 1.625830 1.123927 0.314368
    23 -13.856888 6.374216 0.000000 0.023970 0.117304 -0.297589
    24 -5.687840 2.494701 12.855103 0.146350 0.528576 0.131304
  time 15
    0 5.807106 1.410199 -46.680963 1.570796 0.000000 1.545389
    1 6.265787 10.512597 0.000000 -0.013128 0.094710 -0.026459
    2 -1.211985 121.072578 2.116671 0.049299 0.011212 -0.236066
    3 -2.423956 108.889275 3.327682 0.075767 0.038506 -0.588455
    4 -8.483835 103.017944 0.000000 0.059959 0.049969 -0.414003
    5 -7.271858 79.990417 0.000000 0.009971 0.043228 0.102884
    6 -6.059879 73.930542 0.000000 -0.108633 -0.030130 0.505119
    7 -7.271858 77.566437 0.000000 -0.129709 0.014518 0.544773
    8 -7.271864 68.661316 0.902174 0.084328 0.007325 0.606925
    9 -10.228978 63.176211 -0.324228 -0.078964 -0.058393 1.060795
    10 -4.847914 27.875425 0.000000 0.000000 0.000000 0.000000
    11 -10.884169 43.721066 -0.263436 0.000000 -1.570796 0.287833
    12 1.645461 3.130692 15.347058 -1.570797 1.282964 -1.570797
    13 -1.061229 0.200707 -0.378920 0.000000 0.000000 0.000000
    14 -4.349673 0.059656 0.000000 0.000000 0.000000 0.000000
    15 0.890740 0.932566 -1.304727 0.000000 0.000000 0.000000
    16 -3.694255 -0.655429 0.000000 0.000000 0.000000 0.000000
    17 13.641458 7.020348 16.879305 -0.287833 0.000000 0.000000
    18 4.472665 2.448845 0.720848 0.406455 -0.731794 0.734889
    19 15.242571 6.789905 0.000000 -0.207371 -0.157803 -0.051624
    20 8.366559 3.675034 14.276474 -0.263781 0.245972 0.021201
    21 -15.633809 7.069125 16.813112 -0.287833 0.000000 0.000000
    22 -6.249312 1.413335 0.936005 1.765911 1.115268 0.452549
    23 -13.856888 6.374216 0.000000 0.019053 0.161969 -0.294750
    24 -5.687840 2.494701 12.855103 0.146188 0.575754 0.136520
  time 16
    0 5.807106 1.410199 -45.320604 1.570796 0.000000 1.545389
    1 6.265787 6.872632 0.000000 -0.013128 0.094710 -0.026459
    2 -1.211985 121.072578 2.116671 0.046287 0.010218 -0.224838
    3 -2.423956 108.889275 3.327682 0.069451 0.032382 -0.578246
    4 -8.483835 103.017944 0.000000 0.051414 0.036296 -0.396572
    5 -7.271858 79.990417 0.000000 -0.003811 0.032617 0.069083
    6 -6.059879 73.930542 0.000000 -0.098355 -0.027970 0.483914
    7 -7.271858 77.566437 0.000000 -0.117269 0.013460 0.485479
    8 -7.271864 68.661316 0.902174 0.088178 0.012354 0.559284
    9 -10.228978 63.180118 -0.324228 -0.078787 0.124586 0.952615
    10 -4.847914 27.875425 0.000000 0.000000 0.000000 0.000000
    11 -10.884169 43.721066 -0.263436 0.000000 -1.570796 0.287833
    12 1.645461 3.130692 15.347058 -1.570797 1.282964 -1.570797
    13 -1.061229 0.200707 -0.378920 0.000000 0.000000 0.000000
    14 -4.349673 0.059656 0.000000 0.000000 0.000000 0.000000
    15 0.140717 0.655214 -1.160191 0.000000 0.000000 0.000000
    16 -3.694255 -0.655429 0.000000 0.000000 0.000000 0.000000
    17 13.641458 7.020348 16.879305 -0.287833 0.000000 0.000000
    18 4.472665 2.448845 0.720848 0.299088 -0.679951 0.796450
    19 15.242571 6.789905 0.000000 -0.291682 -0.087639 -0.010525
    20 8.366559 3.675034 14.276474 -0.251293 0.229938 0.014250
    21 -15.633809 7.069125 16.813112 -0.287833 0.000000 0.000000
    22 -6.249312 1.413335 0.936005 1.855842 1.110939 0.545021
    23 -13.856888 6.374216 0.000000 0.012215 0.187088 -0.298709
    24 -5.687840 2.494701 12.855103 0.142579 0.600571 0.132321
  time 17
    0 5.807106 1.410199 -43.921378 1.570796 0.000000 1.545389
    1 6.265787 2.692078 0.000000 -0.013128 0.094710 -0.026459
    2 -1.211985 121.072578 2.116671 0.043322 0.009290 -0.214074
    3 -2.423956 108.889275 3.327682 0.063147 0.026366 -0.568226
    4 -8.483835 103.017944 0.000000 0.039429 0.021383 -0.358651
    5 -7.271858 79.990417 0.000000 -0.020637 0.020103 0.034767
    6 -6.059879 73.930542 0.000000 -0.085658 -0.026275 0.451408
    7 -7.271858 77.566437 0.000000 -0.102552 0.011572 0.398114
    8 -7.271864 68.661316 0.902174 0.092155 0.018802 0.485767
    9 -10.228978 63.176211 -0.324228 -0.096171 -0.067857 0.859463
    10 -4.847914 27.875425 0.000000 0.000000 0.000000 0.000000
    11 -10.884169 43.721066 -0.263436 0.000000 -1.570796 0.287833
    12 1.645461 3.130692 15.347058 -1.570797 1.282964 -1.570797
    13 -1.061229 0.200707 -0.378920 0.000000 0.000000 0.000000
    14 -4.349673 0.059656 0.000000 0.000000 0.000000 0.000000
    15 -1.265576 0.213794 -0.964873 0.000000 0.000000 0.000000
    16 -3.694255 -0.655429 0.000000 0.000000 0.000000 0.000000
    17 13.641458 7.020348 16.879305 -0.287833 0.000000 0.000000
    18 4.472665 2.448845 0.720848 0.249302 -0.667699 0.819637
    19 15.242571 6.789905 0.000000 -0.360009 -0.031080 0.018913
    20 8.366559 3.675034 14.276474 -0.239200 0.214475 0.007215
    21 -15.633809 7.069125 16.813112 -0.287833 0.000000 0.000000
    22 -6.249312 1.413335 0.936005 1.892889 1.118758 0.588307
    23 -13.856888 6.374216 0.000000 0.005032 0.187715 -0.310712
    24 -5.687840 2.494701 12.855103 0.136287 0.594266 0.116364
  time 18
    0 5.807106 1.410199 -42.561019 1.570796 0.000000 1.545389
    1 6.265787 -2.065104 0.000000 -0.013128 0.094710 -0.026459
    2 -1.211985 121.072578 2.116671 0.040596 0.008490 -0.203960
    3 -2.423956 108.889275 3.327682 0.057226 0.020841 -0.559245
    4 -8.483835 103.017944 0.000000 0.025947 0.007330 -0.312430
    5 -7.271858 79.990417 0.000000 -0.037751 0.007187 0.003509
    6 -6.059879 73.930542 0.000000 -0.072579 -0.024607 0.415623
    7 -7.271858 77.566437 0.000000 -0.087535 0.010237 0.302294
    8 -7.271864 68.661316 0.902174 0.095622 0.025921 0.401828
    9 -10.228978 63.176211 -0.324228 -0.089227 -0.253934 0.763894
    10 -4.847914 27.875425 0.000000 0.000000 0.000000 0.000000
    11 -10.884169 43.721066 -0.263436 0.000000 -1.570796 0.287833
    12 1.645461 3.130692 15.347058 -1.570797 1.282964 -1.570797
    13 -1.061229 0.200707 -0.378920 0.000000 0.000000 0.000000
    14 -4.349673 0.059656 0.000000 0.000000 0.000000 0.000000
    15 -3.429705 -0.411225 -0.714865 0.000000 0.000000 0.000000
    16 -3.694255 -0.655429 0.000000 0.000000 0.000000 0.000000
    17 13.641458 7.020348 16.879305 -0.287833 0.000000 0.000000
    18 4.472665 2.448845 0.720848 0.282273 -0.721645 0.792396
    19 15.242571 6.789905 0.000000 -0.402579 -0.004402 0.036280
    20 8.366559 3.675034 14.276474 -0.227983 0.200085 0.000240
    21 -15.633809 7.069125 16.813112 -0.287833 0.000000 0.000000
    22 -6.249312 1.413335 0.936005 1.868285 1.143673 0.573092
    23 -13.856888 6.374216 0.000000 -0.000269 0.158868 -0.331755
    24 -5.687840 2.494701 12.855103 0.129804 0.548060 0.087610
  time 19
    0 5.807106 1.410199 -41.200660 1.570796 0.000000 1.545389
    1 6.265787 -7.831386 0.000000 -0.013128 0.094710 -0.026459
    2 -1.211985 121.072578 2.116671 0.034285 0.007777 -0.195794
    3 -2.423956 108.889275 3.327682 0.052109 0.016119 -0.552156
    4 -8.483835 103.017944 0.000000 0.013387 -0.004241 -0.270175
    5 -7.271858 79.990417 0.000000 -0.052576 -0.004333 -0.021085
    6 -6.059879 73.930542 0.000000 -0.061138 -0.022967 0.384481
    7 -7.271858 77.566437 0.000000 -0.074352 0.009896 0.217597
    8 -7.271864 68.661316 0.902174 0.098238 0.032730 0.322994
    9 -10.228978 63.180118 -0.324228 -0.072147 -0.027934 0.643235
    10 -4.847914 27.875425 0.000000 0.000000 0.000000 0.000000
    11 -10.884169 43.721066 -0.263436 0.000000 -1.570796 0.287833
    12 1.645461 3.130692 15.347058 -1.570797 1.282964 -1.570797
    13 -1.061229 0.200707 -0.378920 0.000000 0.000000 0.000000
    14 -4.349673 0.059656 0.000000 0.000000 0.000000 0.000000
    15 -6.898560 -1.391723 -0.386730 0.000000 0.000000 0.000000
    16 -3.694255 -0.655429 0.000000 0.000000 0.000000 0.000000
    17 13.641458 7.020348 16.879305 -0.287833 0.000000 0.000000
    18 4.472665 2.448845 0.720848 1.030462 -1.028407 0.206517
    19 15.242571 6.789905 0.000000 -0.347546 -0.107648 0.009637
    20 8.366559 3.675034 14.276474 -0.218096 0.187264 -0.006520
    21 -15.633809 7.069125 16.813112 -0.287833 0.000000 0.000000
    22 -6.249312 1.413335 0.936005 1.144406 1.227206 -0.104645
    23 -13.856888 6.374216 0.000000 0.005301 -0.096227 -0.423522
    24 -5.687840 2.494701 12.855103 0.131366 0.218971 -0.029572
  time 20
    0 5.807106 1.410199 -39.840301 1.570796 0.000000 1.545389
    1 6.265787 -13.201236 0.000000 -0.013128 0.094710 -0.026459
    2 -1.211985 121.072578 2.116671 0.019700 0.006740 -0.139932
    3 -2.423956 108.889275 3.327682 0.048190 0.012548 -0.547807
    4 -8.483835 103.017944 0.000000 0.004590 -0.012192 -0.244225
    5 -7.271858 79.990417 0.000000 -0.062727 -0.012535 -0.035636
    6 -6.059879 73.930542 0.000000 -0.053316 -0.021572 0.365971
    7 -7.271858 77.566437 0.000000 -0.065232 0.010221 0.163675
    8 -7.271864 68.661316 0.902174 0.100067 0.038146 0.264719
    9 -10.228978 63.176211 -0.324228 -0.073313 -0.207071 0.596659
    10 -4.847914 27.875425 0.000000 0.000000 0.000000 0.000000
    11 -10.884169 43.721066 -0.263436 0.000000 -1.570796 0.287833
    12 1.645461 3.130692 15.347058 -1.570797 1.282964 -1.570797
    13 -1.061229 0.200707 -0.378920 0.000000 0.000000 0.000000
    14 -4.349673 0.059656 0.000000 0.000000 0.000000 0.000000
    15 -9.304884 -2.055806 -0.089846 0.000000 0.000000 0.000000
    16 -3.694255 -0.655429 0.000000 0.000000 0.000000 0.000000
    17 13.641458 7.020348 16.879305 -0.287833 0.000000 0.000000
    18 4.472665 2.448845 0.720848 2.357101 -0.723839 -0.868496
    19 15.242571 6.789905 0.000000 -0.227577 -0.278390 -0.059518
    20 8.366559 3.675034 14.276474 -0.210042 0.176457 -0.012931
    21 -15.633809 7.069125 16.813112 -0.287833 0.000000 0.000000
    22 -6.249312 1.413335 0.936005 0.246226 1.001122 -0.932051
    23 -13.856888 6.374216 0.000000 0.065418 -0.487160 -0.578218
    24 -5.687840 2.494701 12.855103 0.206405 -0.277604 -0.208306
  time 21
    0 5.807106 1.410199 -39.840301 1.570796 0.000000 1.545389
    1 6.265787 -16.697044 0.000000 -0.013128 0.094710 -0.026459
    2 -1.211985 121.072578 2.116671 0.018170 0.006719 -0.137056
    3 -2.423956 108.889275 3.327682 0.046189 0.010702 -0.547973
    4 -8.483835 103.017944 0.000000 0.000887 -0.016028 -0.237982
    5 -7.271858 79.990417 0.000000 -0.067329 -0.016150 -0.037278
    6 -6.059879 73.930542 0.000000 -0.049951 -0.020861 0.363016
    7 -7.271858 77.566437 0.000000 -0.061205 0.010205 0.147560
    8 -7.271864 68.661316 0.902174 0.101322 0.041757 0.231115
    9 -10.228978 63.176211 -0.324228 -0.073997 -0.135944 0.594066
    10 -4.847914 27.875425 0.000000 0.000000 0.000000 0.000000
    11 -10.884169 43.721066 -0.263436 0.000000 -1.570796 0.287833
    12 1.645461 3.130692 15.347058 -1.570797 1.282964 -1.570797
    13 -1.061229 0.200707 -0.378920 0.000000 0.000000 0.000000
    14 -4.349673 0.059656 0.000000 0.000000 0.000000 0.000000
    15 -6.851684 -1.200311 0.121098 0.000000 0.000000 0.000000
    16 -3.694255 -0.655429 0.000000 0.000000 0.000000 0.000000
    17 13.641458 7.020348 16.879305 -0.287833 0.000000 0.000000
    18 4.472665 2.448845 0.720848 2.357101 -0.723839 -0.868496
    19 15.242571 6.789905 0.000000 -0.227577 -0.278390 -0.059518
    20 8.366559 3.675034 14.276474 -0.210042 0.176457 -0.012931
    21 -15.633809 7.069125 16.813112 -0.287833 0.000000 0.000000
    22 -6.249312 1.413335 0.936005 0.246226 1.001122 -0.932051
    23 -13.856888 6.374216 0.000000 0.065418 -0.487160 -0.578218
    24 -5.687840 2.494701 12.855103 0.206405 -0.277604 -0.208306
  time 22
    0 5.807106 1.410199 -39.840301 1.570796 0.000000 1.545389
    1 6.265787 -18.859399 0.000000 -0.013128 0.094710 -0.026459
    2 -1.211985 121.072578 2.116671 0.017979 0.006762 -0.139747
    3 -2.423956 108.889275 3.327682 0.046009 0.010475 -0.552557
    4 -8.483835 103.017944 0.000000 0.000671 -0.016749 -0.243295
    5 -7.271858 79.990417 0.000000 -0.068180 -0.016192 -0.028329
    6 -6.059879 73.930542 0.000000 -0.049696 -0.020889 0.370290
    7 -7.271858 77.566437 0.000000 -0.060822 0.009473 0.156224
    8 -7.271864 68.661316 0.902174 0.102257 0.044079 0.211796
    9 -10.228978 63.180118 -0.324228 -0.074935 -0.048125 0.604041
    10 -4.847914 27.875425 0.000000 0.000000 0.000000 0.000000
    11 -10.884169 43.721066 -0.263436 0.000000 -1.570796 0.287833
    12 1.645461 3.130692 15.347058 -1.570797 1.282964 -1.570797
    13 -1.061229 0.200707 -0.378920 0.000000 0.000000 0.000000
    14 -4.349673 0.059656 0.000000 0.000000 0.000000 0.000000
    15 -5.191477 -0.747172 0.152349 0.000000 0.000000 0.000000
    16 -3.694255 -0.655429 0.000000 0.000000 0.000000 0.000000
    17 13.641458 7.020348 16.879305 -0.287833 0.000000 0.000000
    18 4.472665 2.448845 0.720848 2.357101 -0.723839 -0.868496
    19 15.242571 6.789905 0.000000 -0.227577 -0.278390 -0.059518
    20 8.366559 3.675034 14.276474 -0.210042 0.176457 -0.012931
    21 -15.633809 7.069125 16.813112 -0.287833 0.000000 0.000000
    22 -6.249312 1.413335 0.936005 0.246226 1.001122 -0.932051
    23 -13.856888 6.374216 0.000000 0.065418 -0.487160 -0.578218
    24 -5.687840 2.494701 12.855103 0.206405 -0.277604 -0.208306
  time 23
    0 5.807106 1.410199 -39.840301 1.570796 0.000000 1.545389
    1 6.265787 -19.580184 0.000000 -0.013128 0.094710 -0.026459
    2 -1.211985 121.072578 2.116671 0.018601 0.006827 -0.145593
    3 -2.423956 108.889275 3.327682 0.046884 0.011182 -0.559694
    4 -8.483835 103.017944 0.000000 0.002445 -0.015686 -0.255217
    5 -7.271858 79.990417 0.000000 -0.066850 -0.014226 -0.013327
    6 -6.059879 73.930542 0.000000 -0.051206 -0.021354 0.383377
    7 -7.271858 77.566437 0.000000 -0.062536 0.008317 0.178992
    8 -7.271864 68.661316 0.902174 0.103002 0.045704 0.200701
    9 -10.228978 63.180118 -0.324228 -0.075670 -0.041127 0.619156
    10 -4.847914 27.875425 0.000000 0.000000 0.000000 0.000000
    11 -10.884169 43.721066 -0.263436 0.000000 -1.570796 0.287833
    12 1.645461 3.130692 15.347058 -1.570797 1.282964 -1.570797
    13 -1.061229 0.200707 -0.378920 0.000000 0.000000 0.000000
    14 -4.349673 0.059656 0.000000 0.000000 0.000000 0.000000
    15 -9.254101 -2.423005 -0.125004 0.000000 0.000000 0.000000
    16 -3.694255 -0.655429 0.000000 0.000000 0.000000 0.000000
    17 13.641458 7.020348 16.879305 -0.287833 0.000000 0.000000
    18 4.472665 2.448845 0.720848 2.357101 -0.723839 -0.868496
    19 15.242571 6.789905 0.000000 -0.227577 -0.278390 -0.059518
    20 8.366559 3.675034 14.276474 -0.210042 0.176457 -0.012931
    21 -15.633809 7.069125 16.813112 -0.287833 0.000000 0.000000
    22 -6.249312 1.413335 0.936005 0.246226 1.001122 -0.932051
    23 -13.856888 6.374216 0.000000 0.065418 -0.487160 -0.578218
    24 -5.687840 2.494701 12.855103 0.206405 -0.277604 -0.208306
  time 24
    0 5.807106 1.410199 -39.840301 1.570796 0.000000 1.545389
    1 6.265787 -18.931478 0.000000 -0.013128 0.094710 -0.026459
    2 -1.211985 121.072578 2.116671 0.019414 0.006913 -0.152274
    3 -2.423956 108.889275 3.327682 0.047998 0.012140 -0.567470
    4 -8.483835 103.017944 0.000000 0.004698 -0.014141 -0.268804
    5 -7.271858 79.990417 0.000000 -0.064956 -0.011795 0.003123
    6 -6.059879 73.930542 0.000000 -0.053189 -0.021873 0.397957
    7 -7.271858 77.566437 0.000000 -0.064813 0.007129 0.205330
    8 -7.271864 68.661316 0.902174 0.103704 0.047148 0.191627
    9 -10.228978 63.180118 -0.324228 -0.076759 -0.057590 0.638050
    10 -4.847914 27.875425 0.000000 0.000000 0.000000 0.000000
    11 -10.884169 43.721066 -0.263436 0.000000 -1.570796 0.287833
    12 1.645461 3.130692 15.347058 -1.570797 1.282964 -1.570797
    13 -1.061229 0.200707 -0.378920 0.000000 0.000000 0.000000
    14 -4.349673 0.059656 0.000000 0.000000 0.000000 0.000000
    15 -6.183695 -1.485476 0.007813 0.000000 0.000000 0.000000
    16 -3.694255 -0.655429 0.000000 0.000000 0.000000 0.000000
    17 13.641458 7.020348 16.879305 -0.287833 0.000000 0.000000
    18 4.472665 2.448845 0.720848 2.357101 -0.723839 -0.868496
    19 15.242571 6.789905 0.000000 -0.227577 -0.278390 -0.059518
    20 8.366559 3.675034 14.276474 -0.210042 0.176457 -0.012931
    21 -15.633809 7.069125 16.813112 -0.287833 0.000000 0.000000
    22 -6.249312 1.413335 0.936005 0.246226 1.001122 -0.932051
    23 -13.856888 6.374216 0.000000 0.065418 -0.487160 -0.578218
    24 -5.687840 2.494701 12.855103 0.206405 -0.277604 -0.208306
  time 25
    0 5.807106 1.410199 -39.840301 1.570796 0.000000 1.545389
    1 6.265787 -16.913279 0.000000 -0.013128 0.094710 -0.026459
    2 -1.211985 121.072578 2.116671 0.019844 0.006978 -0.157377
    3 -2.423956 108.889275 3.327682 0.048598 0.012620 -0.573969
    4 -8.483835 103.017944 0.000000 0.005956 -0.013483 -0.279086
    5 -7.271858 79.990417 0.000000 -0.064130 -0.010358 0.016611
    6 -6.059879 73.930542 0.000000 -0.054280 -0.022201 0.409583
    7 -7.271858 77.566437 0.000000 -0.066059 0.006136 0.224598
    8 -7.271864 68.661316 0.902174 0.104448 0.048979 0.178476
    9 -10.228978 63.176211 -0.324228 -0.078153 -0.074052 0.656988
    10 -4.847914 27.875425 0.000000 0.000000 0.000000 0.000000
    11 -10.884169 43.721066 -0.263436 0.000000 -1.570796 0.287833
    12 1.645461 3.130692 15.347058 -1.570797 1.282964 -1.570797
    13 -1.061229 0.200707 -0.378920 0.000000 0.000000 0.000000
    14 -4.349673 0.059656 0.000000 0.000000 0.000000 0.000000
    15 -6.183695 -1.485476 0.007813 0.000000 0.000000 0.000000
    16 -3.694255 -0.655429 0.000000 0.000000 0.000000 0.000000
    17 13.641458 7.020348 16.879305 -0.287833 0.000000 0.000000
    18 4.472665 2.448845 0.720848 2.357101 -0.723839 -0.868496
    19 15.242571 6.789905 0.000000 -0.227577 -0.278390 -0.059518
    20 8.366559 3.675034 14.276474 -0.210042 0.176457 -0.012931
    21 -15.633809 7.069125 16.813112 -0.287833 0.000000 0.000000
    22 -6.249312 1.413335 0.936005 0.246226 1.001122 -0.932051
    23 -13.856888 6.374216 0.000000 0.065418 -0.487160 -0.578218
    24 -5.687840 2.494701 12.855103 0.206405 -0.277604 -0.208306
end
