// Created by Crowbar 0.42.0.0
version 1
nodes
  0 "Dummy01" -1
  1 "Bone01" 0
  2 "Bone02" 1
  3 "Bone03" 2
  4 "Bone04" 3
  5 "Bone05" 4
  6 "Bone06" 5
  7 "Bone07" 6
  8 "Bone08" 7
  9 "Bone09" 8
  10 "Bone10" 9
  11 "Dummy04" 10
  12 "Dummy05" 11
  13 "Bone19" 12
  14 "Bone20" 13
  15 "Bone21" 14
  16 "Bone22" 15
  17 "Dummy03" 11
  18 "Bone11" 17
  19 "Bone12" 18
  20 "Bone13" 19
  21 "Dummy02" 11
  22 "Bone15" 21
  23 "Bone16" 22
  24 "Bone17" 23
end
skeleton
  time 0
    0 5.807106 1.410199 -16.714201 1.570796 0.000000 1.545389
    1 6.265787 -2.137183 0.000000 -0.007091 0.094173 0.209467
    2 -1.211985 121.072578 2.116671 -0.010950 0.001037 0.164059
    3 -2.423956 108.889275 3.327682 0.029434 0.002673 -0.199791
    4 -8.483835 103.017944 0.000000 0.016143 0.001696 -0.243833
    5 -7.271858 79.990417 0.000000 -0.015652 -0.006363 -0.444630
    6 -6.059879 73.930542 0.000000 -0.025357 -0.000219 -0.208737
    7 -7.271858 77.566437 0.000000 -0.064861 0.001481 0.285521
    8 -7.271864 68.661316 0.902174 0.079777 0.003740 0.558150
    9 -10.228978 63.180118 -0.324228 -0.105725 -0.043393 1.004947
    10 -4.847914 27.875425 0.000000 0.000000 0.000000 0.000000
    11 -10.884169 43.721066 -0.263436 0.000000 -1.570796 0.287833
    12 1.645461 3.130692 15.347058 -1.570797 1.282964 -1.570797
    13 -1.061229 0.200707 -0.378920 0.000000 0.000000 0.000000
    14 -4.349673 0.059656 0.000000 0.000000 0.000000 0.000000
    15 -4.230510 -0.536228 0.000000 0.000000 0.000000 0.000000
    16 -3.694255 -0.655429 0.000000 0.000000 0.000000 0.000000
    17 13.641458 7.020348 16.879305 -0.287833 0.000000 0.000000
    18 4.472665 2.448845 0.720848 0.181857 -0.371726 0.953189
    19 15.242571 6.789905 0.000000 -0.443057 0.380195 -0.072181
    20 8.366559 3.675034 14.276474 0.000000 0.000000 0.000000
    21 -15.633809 7.069125 16.813112 -0.287833 0.000000 0.000000
    22 -6.249312 1.413335 0.936005 0.111141 0.711383 -0.904601
    23 -13.856888 6.374216 0.000000 -0.197753 -0.862520 -0.415528
    24 -5.687840 2.494701 12.855103 0.000000 0.000000 0.000000
  time 1
    0 5.807106 1.410199 -16.714201 1.570796 0.000000 1.545389
    1 6.265787 -1.704712 0.000000 -0.007091 0.094173 0.209467
    2 -1.211985 121.072578 2.116671 -0.011572 0.001037 0.172410
    3 -2.423956 108.889275 3.327682 0.028511 0.002337 -0.186510
    4 -8.483835 103.017944 0.000000 0.018744 0.022218 -0.258914
    5 -7.271858 79.990417 0.000000 -0.032191 0.021287 -0.461756
    6 -6.059879 73.930542 0.000000 -0.043675 0.016760 -0.216855
    7 -7.271858 77.566437 0.000000 -0.082394 0.027799 0.313106
    8 -7.271864 68.661316 0.902174 0.087838 0.037914 0.573144
    9 -10.228978 63.180118 -0.324228 -0.123869 -0.018097 0.994666
    10 -4.847914 27.875425 0.000000 0.000000 0.000000 0.000000
    11 -10.884169 43.721066 -0.263436 0.000000 -1.570796 0.287833
    12 1.645461 3.130692 15.347058 -1.570797 1.282964 -1.570797
    13 -1.061229 0.200707 -0.378920 0.000000 0.000000 0.000000
    14 -4.349673 0.059656 0.000000 0.000000 0.000000 0.000000
    15 -4.230510 -0.536228 0.000000 0.000000 0.000000 0.000000
    16 -3.694255 -0.655429 0.000000 0.000000 0.000000 0.000000
    17 13.641458 7.020348 16.879305 -0.287833 0.000000 0.000000
    18 4.472665 2.448845 0.720848 0.183548 -0.402219 0.948703
    19 15.242571 6.789905 0.000000 -0.443057 0.380195 -0.072181
    20 8.366559 3.675034 14.276474 0.000000 0.000000 0.000000
    21 -15.633809 7.069125 16.813112 -0.287833 0.000000 0.000000
    22 -6.249312 1.413335 0.936005 0.134048 0.708070 -0.869388
    23 -13.856888 6.374216 0.000000 -0.191299 -0.833638 -0.424120
    24 -5.687840 2.494701 12.855103 0.000000 0.000000 0.000000
  time 2
    0 5.807106 1.410199 -16.714201 1.570796 0.000000 1.545389
    1 6.265787 -1.272241 0.000000 -0.007091 0.094173 0.209467
    2 -1.211985 121.072578 2.116671 -0.012337 0.001059 0.182524
    3 -2.423956 108.889275 3.327682 0.027409 0.001977 -0.171125
    4 -8.483835 103.017944 0.000000 0.021093 0.044285 -0.275341
    5 -7.271858 79.990417 0.000000 -0.053691 0.053967 -0.484226
    6 -6.059879 73.930542 0.000000 -0.066176 0.039590 -0.226402
    7 -7.271858 77.566437 0.000000 -0.102169 0.056282 0.343567
    8 -7.271864 68.661316 0.902174 0.094643 0.075029 0.589592
    9 -10.228978 63.176211 -0.324228 -0.143509 0.008719 0.983241
    10 -4.847914 27.875425 0.000000 0.000000 0.000000 0.000000
    11 -10.884169 43.721066 -0.263436 0.000000 -1.570796 0.287833
    12 1.645461 3.130692 15.347058 -1.570797 1.282964 -1.570797
    13 -1.061229 0.200707 -0.378920 0.000000 0.000000 0.000000
    14 -4.349673 0.059656 0.000000 0.000000 0.000000 0.000000
    15 -4.230510 -0.536228 0.000000 0.000000 0.000000 0.000000
    16 -3.694255 -0.655429 0.000000 0.000000 0.000000 0.000000
    17 13.641458 7.020348 16.879305 -0.287833 0.000000 0.000000
    18 4.472665 2.448845 0.720848 0.184769 -0.436279 0.946271
    19 15.242571 6.789905 0.000000 -0.443057 0.380195 -0.072181
    20 8.366559 3.675034 14.276474 0.000000 0.000000 0.000000
    21 -15.633809 7.069125 16.813112 -0.287833 0.000000 0.000000
    22 -6.249312 1.413335 0.936005 0.158463 0.703873 -0.831815
    23 -13.856888 6.374216 0.000000 -0.184884 -0.801934 -0.432960
    24 -5.687840 2.494701 12.855103 0.000000 0.000000 0.000000
  time 3
    0 5.807106 1.410199 -16.714201 1.570796 0.000000 1.545389
    1 6.265787 -0.839770 0.000000 -0.007091 0.094173 0.209467
    2 -1.211985 121.072578 2.116671 -0.013197 0.001102 0.193752
    3 -2.423956 108.889275 3.327682 0.026162 0.001618 -0.154298
    4 -8.483835 103.017944 0.000000 0.023094 0.067440 -0.292747
    5 -7.271858 79.990417 0.000000 -0.079242 0.089818 -0.510977
    6 -6.059879 73.930542 0.000000 -0.091770 0.066358 -0.237411
    7 -7.271858 77.566437 0.000000 -0.123130 0.086620 0.375831
    8 -7.271864 68.661316 0.902174 0.100896 0.114182 0.607138
    9 -10.228978 63.176211 -0.324228 -0.164593 0.036739 0.970587
    10 -4.847914 27.875425 0.000000 0.000000 0.000000 0.000000
    11 -10.884169 43.721066 -0.263436 0.000000 -1.570796 0.287833
    12 1.645461 3.130692 15.347058 -1.570797 1.282964 -1.570797
    13 -1.061229 0.200707 -0.378920 0.000000 0.000000 0.000000
    14 -4.349673 0.059656 0.000000 0.000000 0.000000 0.000000
    15 -4.230510 -0.536228 0.000000 0.000000 0.000000 0.000000
    16 -3.694255 -0.655429 0.000000 0.000000 0.000000 0.000000
    17 13.641458 7.020348 16.879305 -0.287833 0.000000 0.000000
    18 4.472665 2.448845 0.720848 0.185427 -0.473127 0.945406
    19 15.242571 6.789905 0.000000 -0.443057 0.380195 -0.072181
    20 8.366559 3.675034 14.276474 0.000000 0.000000 0.000000
    21 -15.633809 7.069125 16.813112 -0.287833 0.000000 0.000000
    22 -6.249312 1.413335 0.936005 0.183916 0.698661 -0.792318
    23 -13.856888 6.374216 0.000000 -0.178661 -0.768070 -0.441751
    24 -5.687840 2.494701 12.855103 0.000000 0.000000 0.000000
  time 4
    0 5.807106 1.410199 -16.714201 1.570796 0.000000 1.545389
    1 6.265787 -0.479377 0.000000 -0.007091 0.094173 0.209467
    2 -1.211985 121.072578 2.116671 -0.014106 0.001167 0.205630
    3 -2.423956 108.889275 3.327682 0.024856 0.001270 -0.136621
    4 -8.483835 103.017944 0.000000 0.024712 0.091215 -0.310692
    5 -7.271858 79.990417 0.000000 -0.107777 0.126959 -0.540819
    6 -6.059879 73.930542 0.000000 -0.119401 0.095230 -0.249685
    7 -7.271858 77.566437 0.000000 -0.144271 0.118358 0.408822
    8 -7.271864 68.661316 0.902174 0.107192 0.154443 0.625429
    9 -10.228978 63.176211 -0.324228 -0.187020 0.065735 0.956702
    10 -4.847914 27.875425 0.000000 0.000000 0.000000 0.000000
    11 -10.884169 43.721066 -0.263436 0.000000 -1.570796 0.287833
    12 1.645461 3.130692 15.347058 -1.570797 1.282964 -1.570797
    13 -1.061229 0.200707 -0.378920 0.000000 0.000000 0.000000
    14 -4.349673 0.059656 0.000000 0.000000 0.000000 0.000000
    15 -4.230510 -0.536228 0.000000 0.000000 0.000000 0.000000
    16 -3.694255 -0.655429 0.000000 0.000000 0.000000 0.000000
    17 13.641458 7.020348 16.879305 -0.287833 0.000000 0.000000
    18 4.472665 2.448845 0.720848 0.185709 -0.511895 0.945730
    19 15.242571 6.789905 0.000000 -0.443057 0.380195 -0.072181
    20 8.366559 3.675034 14.276474 0.000000 0.000000 0.000000
    21 -15.633809 7.069125 16.813112 -0.287833 0.000000 0.000000
    22 -6.249312 1.413335 0.936005 0.210122 0.692388 -0.751453
    23 -13.856888 6.374216 0.000000 -0.172784 -0.732674 -0.450342
    24 -5.687840 2.494701 12.855103 0.000000 0.000000 0.000000
  time 5
    0 5.807106 1.410199 -16.714201 1.570796 0.000000 1.545389
    1 6.265787 -0.082945 0.000000 -0.007091 0.094173 0.209467
    2 -1.211985 121.072578 2.116671 -0.015062 0.001231 0.217786
    3 -2.423956 108.889275 3.327682 0.023514 0.000935 -0.118755
    4 -8.483835 103.017944 0.000000 0.025887 0.115168 -0.328783
    5 -7.271858 79.990417 0.000000 -0.138086 0.163719 -0.572431
    6 -6.059879 73.930542 0.000000 -0.147887 0.124321 -0.262967
    7 -7.271858 77.566437 0.000000 -0.164716 0.150974 0.441571
    8 -7.271864 68.661316 0.902174 0.114125 0.194911 0.644215
    9 -10.228978 63.176211 -0.324228 -0.210664 0.095361 0.941674
    10 -4.847914 27.875425 0.000000 0.000000 0.000000 0.000000
    11 -10.884169 43.721066 -0.263436 0.000000 -1.570796 0.287833
    12 1.645461 3.130692 15.347058 -1.570797 1.282964 -1.570797
    13 -1.061229 0.200707 -0.378920 0.000000 0.000000 0.000000
    14 -4.349673 0.059656 0.000000 0.000000 0.000000 0.000000
    15 -4.230510 -0.536228 0.000000 0.000000 0.000000 0.000000
    16 -3.694255 -0.655429 0.000000 0.000000 0.000000 0.000000
    17 13.641458 7.020348 16.879305 -0.287833 0.000000 0.000000
    18 4.472665 2.448845 0.720848 0.185709 -0.551806 0.946649
    19 15.242571 6.789905 0.000000 -0.443057 0.380195 -0.072181
    20 8.366559 3.675034 14.276474 0.000000 0.000000 0.000000
    21 -15.633809 7.069125 16.813112 -0.287833 0.000000 0.000000
    22 -6.249312 1.413335 0.936005 0.236705 0.685055 -0.709658
    23 -13.856888 6.374216 0.000000 -0.167368 -0.696406 -0.458585
    24 -5.687840 2.494701 12.855103 0.000000 0.000000 0.000000
  time 6
    0 5.807106 1.410199 -16.714201 1.570796 0.000000 1.545389
    1 6.265787 0.241408 0.000000 -0.007091 0.094173 0.209467
    2 -1.211985 121.072578 2.116671 -0.015971 0.001318 0.229571
    3 -2.423956 108.889275 3.327682 0.022207 0.000623 -0.101290
    4 -8.483835 103.017944 0.000000 0.026654 0.138842 -0.346606
    5 -7.271858 79.990417 0.000000 -0.168707 0.198555 -0.604268
    6 -6.059879 73.930542 0.000000 -0.176010 0.151854 -0.276768
    7 -7.271858 77.566437 0.000000 -0.183640 0.183819 0.473211
    8 -7.271864 68.661316 0.902174 0.122249 0.234605 0.663251
    9 -10.228978 63.176211 -0.324228 -0.235473 0.125361 0.925460
    10 -4.847914 27.875425 0.000000 0.000000 0.000000 0.000000
    11 -10.884169 43.721066 -0.263436 0.000000 -1.570796 0.287833
    12 1.645461 3.130692 15.347058 -1.570797 1.282964 -1.570797
    13 -1.061229 0.200707 -0.378920 0.000000 0.000000 0.000000
    14 -4.349673 0.059656 0.000000 0.000000 0.000000 0.000000
    15 -4.230510 -0.536228 0.000000 0.000000 0.000000 0.000000
    16 -3.694255 -0.655429 0.000000 0.000000 0.000000 0.000000
    17 13.641458 7.020348 16.879305 -0.287833 0.000000 0.000000
    18 4.472665 2.448845 0.720848 0.185521 -0.591945 0.947838
    19 15.242571 6.789905 0.000000 -0.443057 0.380195 -0.072181
    20 8.366559 3.675034 14.276474 0.000000 0.000000 0.000000
    21 -15.633809 7.069125 16.813112 -0.287833 0.000000 0.000000
    22 -6.249312 1.413335 0.936005 0.263289 0.676662 -0.667551
    23 -13.856888 6.374216 0.000000 -0.162489 -0.659859 -0.466405
    24 -5.687840 2.494701 12.855103 0.000000 0.000000 0.000000
  time 7
    0 5.807106 1.410199 -16.714201 1.570796 0.000000 1.545389
    1 6.265787 0.565761 0.000000 -0.007091 0.094173 0.209467
    2 -1.211985 121.072578 2.116671 -0.016784 0.001383 0.240427
    3 -2.423956 108.889275 3.327682 0.020985 0.000360 -0.084889
    4 -8.483835 103.017944 0.000000 0.027025 0.161782 -0.363767
    5 -7.271858 79.990417 0.000000 -0.197949 0.230115 -0.634496
    6 -6.059879 73.930542 0.000000 -0.202440 0.176106 -0.290504
    7 -7.271858 77.566437 0.000000 -0.200310 0.216192 0.502910
    8 -7.271864 68.661316 0.902174 0.131990 0.272596 0.682286
    9 -10.228978 63.180118 -0.324228 -0.261321 0.155446 0.908148
    10 -4.847914 27.875425 0.000000 0.000000 0.000000 0.000000
    11 -10.884169 43.721066 -0.263436 0.000000 -1.570796 0.287833
    12 1.645461 3.130692 15.347058 -1.570797 1.282964 -1.570797
    13 -1.061229 0.200707 -0.378920 0.000000 0.000000 0.000000
    14 -4.349673 0.059656 0.000000 0.000000 0.000000 0.000000
    15 -4.230510 -0.536228 0.000000 0.000000 0.000000 0.000000
    16 -3.694255 -0.655429 0.000000 0.000000 0.000000 0.000000
    17 13.641458 7.020348 16.879305 -0.287833 0.000000 0.000000
    18 4.472665 2.448845 0.720848 0.185521 -0.631536 0.948649
    19 15.242571 6.789905 0.000000 -0.443057 0.380195 -0.072181
    20 8.366559 3.675034 14.276474 0.000000 0.000000 0.000000
    21 -15.633809 7.069125 16.813112 -0.287833 0.000000 0.000000
    22 -6.249312 1.413335 0.936005 0.289495 0.667341 -0.625445
    23 -13.856888 6.374216 0.000000 -0.158110 -0.623731 -0.473701
    24 -5.687840 2.494701 12.855103 0.000000 0.000000 0.000000
  time 8
    0 5.807106 1.410199 -16.714201 1.570796 0.000000 1.545389
    1 6.265787 0.854076 0.000000 -0.007091 0.094173 0.209467
    2 -1.211985 121.072578 2.116671 -0.017501 0.001447 0.249985
    3 -2.423956 108.889275 3.327682 0.019906 0.000120 -0.070142
    4 -8.483835 103.017944 0.000000 0.027109 0.183519 -0.379876
    5 -7.271858 79.990417 0.000000 -0.223872 0.257278 -0.661087
    6 -6.059879 73.930542 0.000000 -0.225760 0.195409 -0.303331
    7 -7.271858 77.566437 0.000000 -0.214117 0.247327 0.529837
    8 -7.271864 68.661316 0.902174 0.143794 0.307906 0.701108
    9 -10.228978 63.180118 -0.324228 -0.288082 0.185360 0.889737
    10 -4.847914 27.875425 0.000000 0.000000 0.000000 0.000000
    11 -10.884169 43.721066 -0.263436 0.000000 -1.570796 0.287833
    12 1.645461 3.130692 15.347058 -1.570797 1.282964 -1.570797
    13 -1.061229 0.200707 -0.378920 0.000000 0.000000 0.000000
    14 -4.349673 0.059656 0.000000 0.000000 0.000000 0.000000
    15 -4.230510 -0.536228 0.000000 0.000000 0.000000 0.000000
    16 -3.694255 -0.655429 0.000000 0.000000 0.000000 0.000000
    17 13.641458 7.020348 16.879305 -0.287833 0.000000 0.000000
    18 4.472665 2.448845 0.720848 0.185897 -0.669756 0.948595
    19 15.242571 6.789905 0.000000 -0.443057 0.380195 -0.072181
    20 8.366559 3.675034 14.276474 0.000000 0.000000 0.000000
    21 -15.633809 7.069125 16.813112 -0.287833 0.000000 0.000000
    22 -6.249312 1.413335 0.936005 0.315042 0.657093 -0.583836
    23 -13.856888 6.374216 0.000000 -0.154269 -0.588647 -0.480425
    24 -5.687840 2.494701 12.855103 0.000000 0.000000 0.000000
  time 9
    0 5.807106 1.410199 -16.714201 1.570796 0.000000 1.545389
    1 6.265787 1.106350 0.000000 -0.007091 0.094173 0.209467
    2 -1.211985 121.072578 2.116671 -0.018075 0.001512 0.257687
    3 -2.423956 108.889275 3.327682 0.019020 -0.000060 -0.057664
    4 -8.483835 103.017944 0.000000 0.026977 0.203598 -0.394467
    5 -7.271858 79.990417 0.000000 -0.244342 0.279009 -0.681818
    6 -6.059879 73.930542 0.000000 -0.244387 0.208205 -0.314307
    7 -7.271858 77.566437 0.000000 -0.224447 0.276396 0.553263
    8 -7.271864 68.661316 0.902174 0.158001 0.339527 0.719399
    9 -10.228978 63.180118 -0.324228 -0.315628 0.214843 0.870404
    10 -4.847914 27.875425 0.000000 0.000000 0.000000 0.000000
    11 -10.884169 43.721066 -0.263436 0.000000 -1.570796 0.287833
    12 1.645461 3.130692 15.347058 -1.570797 1.282964 -1.570797
    13 -1.061229 0.200707 -0.378920 0.000000 0.000000 0.000000
    14 -4.349673 0.059656 0.000000 0.000000 0.000000 0.000000
    15 -4.230510 -0.536228 0.000000 0.000000 0.000000 0.000000
    16 -3.694255 -0.655429 0.000000 0.000000 0.000000 0.000000
    17 13.641458 7.020348 16.879305 -0.287833 0.000000 0.000000
    18 4.472665 2.448845 0.720848 0.187024 -0.705781 0.946919
    19 15.242571 6.789905 0.000000 -0.443057 0.380195 -0.072181
    20 8.366559 3.675034 14.276474 0.000000 0.000000 0.000000
    21 -15.633809 7.069125 16.813112 -0.287833 0.000000 0.000000
    22 -6.249312 1.413335 0.936005 0.339645 0.646137 -0.543220
    23 -13.856888 6.374216 0.000000 -0.150965 -0.555271 -0.486526
    24 -5.687840 2.494701 12.855103 0.000000 0.000000 0.000000
  time 10
    0 5.807106 1.410199 -16.714201 1.570796 0.000000 1.545389
    1 6.265787 1.358625 0.000000 -0.007091 0.094173 0.209467
    2 -1.211985 121.072578 2.116671 -0.018409 0.001512 0.263069
    3 -2.423956 108.889275 3.327682 0.018384 -0.000228 -0.048116
    4 -8.483835 103.017944 0.000000 0.026786 0.221575 -0.407099
    5 -7.271858 79.990417 0.000000 -0.257129 0.294461 -0.694405
    6 -6.059879 73.930542 0.000000 -0.256775 0.212935 -0.322522
    7 -7.271858 77.566437 0.000000 -0.230799 0.302567 0.572428
    8 -7.271864 68.661316 0.902174 0.174931 0.366531 0.736839
    9 -10.228978 63.180118 -0.324228 -0.343783 0.243638 0.850191
    10 -4.847914 27.875425 0.000000 0.000000 0.000000 0.000000
    11 -10.884169 43.721066 -0.263436 0.000000 -1.570796 0.287833
    12 1.645461 3.130692 15.347058 -1.570797 1.282964 -1.570797
    13 -1.061229 0.200707 -0.378920 0.000000 0.000000 0.000000
    14 -4.349673 0.059656 0.000000 0.000000 0.000000 0.000000
    15 -4.230510 -0.536228 0.000000 0.000000 0.000000 0.000000
    16 -3.694255 -0.655429 0.000000 0.000000 0.000000 0.000000
    17 13.641458 7.020348 16.879305 -0.287833 0.000000 0.000000
    18 4.472665 2.448845 0.720848 0.189372 -0.738789 0.943028
    19 15.242571 6.789905 0.000000 -0.443057 0.380195 -0.072181
    20 8.366559 3.675034 14.276474 0.000000 0.000000 0.000000
    21 -15.633809 7.069125 16.813112 -0.287833 0.000000 0.000000
    22 -6.249312 1.413335 0.936005 0.363212 0.634564 -0.503846
    23 -13.856888 6.374216 0.000000 -0.148161 -0.524229 -0.491980
    24 -5.687840 2.494701 12.855103 0.000000 0.000000 0.000000
  time 11
    0 5.807106 1.410199 -16.714201 1.570796 0.000000 1.545389
    1 6.265787 1.574861 0.000000 -0.007091 0.094173 0.209467
    2 -1.211985 121.072578 2.116671 -0.018457 0.001491 0.265482
    3 -2.423956 108.889275 3.327682 0.018049 -0.000360 -0.042114
    4 -8.483835 103.017944 0.000000 0.026678 0.236995 -0.417357
    5 -7.271858 79.990417 0.000000 -0.260078 0.302599 -0.696562
    6 -6.059879 73.930542 0.000000 -0.261377 0.208040 -0.327101
    7 -7.271858 77.566437 0.000000 -0.232693 0.325012 0.586567
    8 -7.271864 68.661316 0.902174 0.194774 0.387913 0.753038
    9 -10.228978 63.176211 -0.324228 -0.372419 0.271544 0.829232
    10 -4.847914 27.875425 0.000000 0.000000 0.000000 0.000000
    11 -10.884169 43.721066 -0.263436 0.000000 -1.570796 0.287833
    12 1.645461 3.130692 15.347058 -1.570797 1.282964 -1.570797
    13 -1.061229 0.200707 -0.378920 0.000000 0.000000 0.000000
    14 -4.349673 0.059656 0.000000 0.000000 0.000000 0.000000
    15 -4.230510 -0.536228 0.000000 0.000000 0.000000 0.000000
    16 -3.694255 -0.655429 0.000000 0.000000 0.000000 0.000000
    17 13.641458 7.020348 16.879305 -0.287833 0.000000 0.000000
    18 4.472665 2.448845 0.720848 0.193317 -0.767865 0.936110
    19 15.242571 6.789905 0.000000 -0.443057 0.380195 -0.072181
    20 8.366559 3.675034 14.276474 0.000000 0.000000 0.000000
    21 -15.633809 7.069125 16.813112 -0.287833 0.000000 0.000000
    22 -6.249312 1.413335 0.936005 0.385365 0.622593 -0.466212
    23 -13.856888 6.374216 0.000000 -0.145856 -0.496218 -0.496736
    24 -5.687840 2.494701 12.855103 0.000000 0.000000 0.000000
  time 12
    0 5.807106 1.410199 -16.714201 1.570796 0.000000 1.545389
    1 6.265787 1.791096 0.000000 -0.007091 0.094173 0.209467
    2 -1.211985 121.072578 2.116671 -0.018266 0.001404 0.264554
    3 -2.423956 108.889275 3.327682 0.018085 -0.000467 -0.040270
    4 -8.483835 103.017944 0.000000 0.026810 0.249427 -0.424750
    5 -7.271858 79.990417 0.000000 -0.251197 0.302219 -0.686228
    6 -6.059879 73.930542 0.000000 -0.256739 0.191909 -0.327361
    7 -7.271858 77.566437 0.000000 -0.229637 0.342948 0.594884
    8 -7.271864 68.661316 0.902174 0.217701 0.402743 0.767465
    9 -10.228978 63.176211 -0.324228 -0.401308 0.298302 0.807746
    10 -4.847914 27.875425 0.000000 0.000000 0.000000 0.000000
    11 -10.884169 43.721066 -0.263436 0.000000 -1.570796 0.287833
    12 1.645461 3.130692 15.347058 -1.570797 1.282964 -1.570797
    13 -1.061229 0.200707 -0.378920 0.000000 0.000000 0.000000
    14 -4.349673 0.059656 0.000000 0.000000 0.000000 0.000000
    15 -4.230510 -0.536228 0.000000 0.000000 0.000000 0.000000
    16 -3.694255 -0.655429 0.000000 0.000000 0.000000 0.000000
    17 13.641458 7.020348 16.879305 -0.287833 0.000000 0.000000
    18 4.472665 2.448845 0.720848 0.199423 -0.792186 0.925462
    19 15.242571 6.789905 0.000000 -0.443057 0.380195 -0.072181
    20 8.366559 3.675034 14.276474 0.000000 0.000000 0.000000
    21 -15.633809 7.069125 16.813112 -0.287833 0.000000 0.000000
    22 -6.249312 1.413335 0.936005 0.406010 0.610400 -0.430502
    23 -13.856888 6.374216 0.000000 -0.143974 -0.471796 -0.500771
    24 -5.687840 2.494701 12.855103 0.000000 0.000000 0.000000
  time 13
    0 5.807106 1.410199 -16.714201 1.570796 0.000000 1.545389
    1 6.265787 1.971293 0.000000 -0.007091 0.094173 0.209467
    2 -1.211985 121.072578 2.116671 -0.017692 0.001275 0.259728
    3 -2.423956 108.889275 3.327682 0.018540 -0.000527 -0.043224
    4 -8.483835 103.017944 0.000000 0.027337 0.258403 -0.428838
    5 -7.271858 79.990417 0.000000 -0.228966 0.291671 -0.661730
    6 -6.059879 73.930542 0.000000 -0.241677 0.162900 -0.323010
    7 -7.271858 77.566437 0.000000 -0.221176 0.355643 0.596547
    8 -7.271864 68.661316 0.902174 0.243776 0.410094 0.779517
    9 -10.228978 63.180118 -0.324228 -0.430223 0.323741 0.785864
    10 -4.847914 27.875425 0.000000 0.000000 0.000000 0.000000
    11 -10.884169 43.721066 -0.263436 0.000000 -1.570796 0.287833
    12 1.645461 3.130692 15.347058 -1.570797 1.282964 -1.570797
    13 -1.061229 0.200707 -0.378920 0.000000 0.000000 0.000000
    14 -4.349673 0.059656 0.000000 0.000000 0.000000 0.000000
    15 -4.230510 -0.536228 0.000000 0.000000 0.000000 0.000000
    16 -3.694255 -0.655429 0.000000 0.000000 0.000000 0.000000
    17 13.641458 7.020348 16.879305 -0.287833 0.000000 0.000000
    18 4.472665 2.448845 0.720848 0.208065 -0.810931 0.910329
    19 15.242571 6.789905 0.000000 -0.443057 0.380195 -0.072181
    20 8.366559 3.675034 14.276474 0.000000 0.000000 0.000000
    21 -15.633809 7.069125 16.813112 -0.287833 0.000000 0.000000
    22 -6.249312 1.413335 0.936005 0.424957 0.598252 -0.397028
    23 -13.856888 6.374216 0.000000 -0.142553 -0.451693 -0.504008
    24 -5.687840 2.494701 12.855103 0.000000 0.000000 0.000000
  time 14
    0 5.807106 1.410199 -16.714201 1.570796 0.000000 1.545389
    1 6.265787 2.115450 0.000000 -0.007091 0.094173 0.209467
    2 -1.211985 121.072578 2.116671 -0.016592 0.001037 0.248872
    3 -2.423956 108.889275 3.327682 0.019631 -0.000551 -0.053245
    4 -8.483835 103.017944 0.000000 0.028583 0.263530 -0.428716
    5 -7.271858 79.990417 0.000000 -0.186444 0.264486 -0.615439
    6 -6.059879 73.930542 0.000000 -0.210917 0.112018 -0.312910
    7 -7.271858 77.566437 0.000000 -0.204265 0.362593 0.588993
    8 -7.271864 68.661316 0.902174 0.276869 0.407953 0.789123
    9 -10.228978 63.176211 -0.324228 -0.458884 0.347689 0.763894
    10 -4.847914 27.875425 0.000000 0.000000 0.000000 0.000000
    11 -10.884169 43.721066 -0.263436 0.000000 -1.570796 0.287833
    12 1.645461 3.130692 15.347058 -1.570797 1.282964 -1.570797
    13 -1.061229 0.200707 -0.378920 0.000000 0.000000 0.000000
    14 -4.349673 0.059656 0.000000 0.000000 0.000000 0.000000
    15 -4.230510 -0.536228 0.000000 0.000000 0.000000 0.000000
    16 -3.694255 -0.655429 0.000000 0.000000 0.000000 0.000000
    17 13.641458 7.020348 16.879305 -0.287833 0.000000 0.000000
    18 4.472665 2.448845 0.720848 0.219525 -0.823091 0.890277
    19 15.242571 6.789905 0.000000 -0.443057 0.380195 -0.072181
    20 8.366559 3.675034 14.276474 0.000000 0.000000 0.000000
    21 -15.633809 7.069125 16.813112 -0.287833 0.000000 0.000000
    22 -6.249312 1.413335 0.936005 0.442303 0.586370 -0.366101
    23 -13.856888 6.374216 0.000000 -0.141515 -0.436538 -0.506399
    24 -5.687840 2.494701 12.855103 0.000000 0.000000 0.000000
  time 15
    0 5.807106 1.410199 -16.714201 1.570796 0.000000 1.545389
    1 6.265787 2.259607 0.000000 -0.007091 0.094173 0.209467
    2 -1.211985 121.072578 2.116671 -0.014871 0.000735 0.231148
    3 -2.423956 108.889275 3.327682 0.021440 -0.000491 -0.071182
    4 -8.483835 103.017944 0.000000 0.030681 0.265024 -0.424187
    5 -7.271858 79.990417 0.000000 -0.123262 0.215783 -0.546613
    6 -6.059879 73.930542 0.000000 -0.163131 0.034997 -0.298817
    7 -7.271858 77.566437 0.000000 -0.177636 0.364497 0.571423
    8 -7.271864 68.661316 0.902174 0.318959 0.396037 0.796213
    9 -10.228978 63.176211 -0.324228 -0.487013 0.369974 0.742012
    10 -4.847914 27.875425 0.000000 0.000000 0.000000 0.000000
    11 -10.884169 43.721066 -0.263436 0.000000 -1.570796 0.287833
    12 1.645461 3.130692 15.347058 -1.570797 1.282964 -1.570797
    13 -1.061229 0.200707 -0.378920 0.000000 0.000000 0.000000
    14 -4.349673 0.059656 0.000000 0.000000 0.000000 0.000000
    15 -4.230510 -0.536228 0.000000 0.000000 0.000000 0.000000
    16 -3.694255 -0.655429 0.000000 0.000000 0.000000 0.000000
    17 13.641458 7.020348 16.879305 -0.287833 0.000000 0.000000
    18 4.472665 2.448845 0.720848 0.233803 -0.827754 0.864875
    19 15.242571 6.789905 0.000000 -0.443057 0.380195 -0.072181
    20 8.366559 3.675034 14.276474 0.000000 0.000000 0.000000
    21 -15.633809 7.069125 16.813112 -0.287833 0.000000 0.000000
    22 -6.249312 1.413335 0.936005 0.457668 0.575017 -0.337968
    23 -13.856888 6.374216 0.000000 -0.140862 -0.426992 -0.507893
    24 -5.687840 2.494701 12.855103 0.000000 0.000000 0.000000
  time 16
    0 5.807106 1.410199 -16.714201 1.570796 0.000000 1.545389
    1 6.265787 2.367724 0.000000 -0.007091 0.094173 0.209467
    2 -1.211985 121.072578 2.116671 -0.012624 0.000389 0.207950
    3 -2.423956 108.889275 3.327682 0.023825 -0.000324 -0.095429
    4 -8.483835 103.017944 0.000000 0.033449 0.263303 -0.416035
    5 -7.271858 79.990417 0.000000 -0.048334 0.145983 -0.464299
    6 -6.059879 73.930542 0.000000 -0.102739 -0.062967 -0.285211
    7 -7.271858 77.566437 0.000000 -0.143348 0.362446 0.545570
    8 -7.271864 68.661316 0.902174 0.367237 0.375919 0.800112
    9 -10.228978 63.176211 -0.324228 -0.514306 0.390480 0.720613
    10 -4.847914 27.875425 0.000000 0.000000 0.000000 0.000000
    11 -10.884169 43.721066 -0.263436 0.000000 -1.570796 0.287833
    12 1.645461 3.130692 15.347058 -1.570797 1.282964 -1.570797
    13 -1.061229 0.200707 -0.378920 0.000000 0.000000 0.000000
    14 -4.349673 0.059656 0.000000 0.000000 0.000000 0.000000
    15 -4.230510 -0.536228 0.000000 0.000000 0.000000 0.000000
    16 -3.694255 -0.655429 0.000000 0.000000 0.000000 0.000000
    17 13.641458 7.020348 16.879305 -0.287833 0.000000 0.000000
    18 4.472665 2.448845 0.720848 0.250617 -0.823868 0.834121
    19 15.242571 6.789905 0.000000 -0.443057 0.380195 -0.072181
    20 8.366559 3.675034 14.276474 0.000000 0.000000 0.000000
    21 -15.633809 7.069125 16.813112 -0.287833 0.000000 0.000000
    22 -6.249312 1.413335 0.936005 0.471243 0.564415 -0.312816
    23 -13.856888 6.374216 0.000000 -0.140670 -0.423648 -0.508416
    24 -5.687840 2.494701 12.855103 0.000000 0.000000 0.000000
  time 17
    0 5.807106 1.410199 -16.714201 1.570796 0.000000 1.545389
    1 6.265787 2.439803 0.000000 -0.007091 0.094173 0.209467
    2 -1.211985 121.072578 2.116671 -0.009994 0.000065 0.180761
    3 -2.423956 108.889275 3.327682 0.026642 -0.000048 -0.124450
    4 -8.483835 103.017944 0.000000 0.036661 0.258796 -0.404994
    5 -7.271858 79.990417 0.000000 0.030273 0.056884 -0.376706
    6 -6.059879 73.930542 0.000000 -0.033034 -0.176297 -0.276021
    7 -7.271858 77.566437 0.000000 -0.103403 0.357629 0.513133
    8 -7.271864 68.661316 0.902174 0.419068 0.349405 0.800254
    9 -10.228978 63.176211 -0.324228 -0.540357 0.409093 0.699917
    10 -4.847914 27.875425 0.000000 0.000000 0.000000 0.000000
    11 -10.884169 43.721066 -0.263436 0.000000 -1.570796 0.287833
    12 1.645461 3.130692 15.347058 -1.570797 1.282964 -1.570797
    13 -1.061229 0.200707 -0.378920 0.000000 0.000000 0.000000
    14 -4.349673 0.059656 0.000000 0.000000 0.000000 0.000000
    15 -4.230510 -0.536228 0.000000 0.000000 0.000000 0.000000
    16 -3.694255 -0.655429 0.000000 0.000000 0.000000 0.000000
    17 13.641458 7.020348 16.879305 -0.287833 0.000000 0.000000
    18 4.472665 2.448845 0.720848 0.280864 -0.773260 0.770723
    19 15.242571 6.789905 0.000000 -0.443057 0.380195 -0.072181
    20 8.366559 3.675034 14.276474 0.000000 0.000000 0.000000
    21 -15.633809 7.069125 16.813112 -0.287833 0.000000 0.000000
    22 -6.249312 1.413335 0.936005 0.482932 0.554785 -0.290893
    23 -13.856888 6.374216 0.000000 -0.140747 -0.425146 -0.508192
    24 -5.687840 2.494701 12.855103 0.000000 0.000000 0.000000
  time 18
    0 5.807106 1.410199 -16.714201 1.570796 0.000000 1.545389
    1 6.265787 2.511881 0.000000 -0.007091 0.094173 0.209467
    2 -1.211985 121.072578 2.116671 -0.007172 -0.000194 0.150975
    3 -2.423956 108.889275 3.327682 0.029710 0.000372 -0.156662
    4 -8.483835 103.017944 0.000000 0.040076 0.251947 -0.391798
    5 -7.271858 79.990417 0.000000 0.106339 -0.047858 -0.290078
    6 -6.059879 73.930542 0.000000 0.044002 -0.298951 -0.274495
    7 -7.271858 77.566437 0.000000 -0.059791 0.351086 0.475845
    8 -7.271864 68.661316 0.902174 0.472068 0.318352 0.796425
    9 -10.228978 63.180118 -0.324228 -0.564837 0.425728 0.680320
    10 -4.847914 27.875425 0.000000 0.000000 0.000000 0.000000
    11 -10.884169 43.721066 -0.263436 0.000000 -1.570796 0.287833
    12 1.645461 3.130692 15.347058 -1.570797 1.282964 -1.570797
    13 -1.061229 0.200707 -0.378920 0.000000 0.000000 0.000000
    14 -4.349673 0.059656 0.000000 0.000000 0.000000 0.000000
    15 -4.230510 -0.536228 0.000000 0.000000 0.000000 0.000000
    16 -3.694255 -0.655429 0.000000 0.000000 0.000000 0.000000
    17 13.641458 7.020348 16.879305 -0.287833 0.000000 0.000000
    18 4.472665 2.448845 0.720848 0.314493 -0.656864 0.675761
    19 15.242571 6.789905 0.000000 -0.443057 0.380195 -0.072181
    20 8.366559 3.675034 14.276474 0.000000 0.000000 0.000000
    21 -15.633809 7.069125 16.813112 -0.287833 0.000000 0.000000
    22 -6.249312 1.413335 0.936005 0.492641 0.546436 -0.272386
    23 -13.856888 6.374216 0.000000 -0.141054 -0.429501 -0.507494
    24 -5.687840 2.494701 12.855103 0.000000 0.000000 0.000000
  time 19
    0 5.807106 1.410199 -16.714201 1.570796 0.000000 1.545389
    1 6.265787 2.547921 0.000000 -0.007091 0.094173 0.209467
    2 -1.211985 121.072578 2.116671 -0.004208 -0.000367 0.120075
    3 -2.423956 108.889275 3.327682 0.032886 0.000923 -0.190433
    4 -8.483835 103.017944 0.000000 0.043480 0.243211 -0.377183
    5 -7.271858 79.990417 0.000000 0.175718 -0.162958 -0.208602
    6 -6.059879 73.930542 0.000000 0.127423 -0.424447 -0.283100
    7 -7.271858 77.566437 0.000000 -0.014501 0.343680 0.435507
    8 -7.271864 68.661316 0.902174 0.524026 0.284616 0.788662
    9 -10.228978 63.180118 -0.324228 -0.587314 0.440326 0.662173
    10 -4.847914 27.875425 0.000000 0.000000 0.000000 0.000000
    11 -10.884169 43.721066 -0.263436 0.000000 -1.570796 0.287833
    12 1.645461 3.130692 15.347058 -1.570797 1.282964 -1.570797
    13 -1.061229 0.200707 -0.378920 0.000000 0.000000 0.000000
    14 -4.349673 0.059656 0.000000 0.000000 0.000000 0.000000
    15 -4.230510 -0.536228 0.000000 0.000000 0.000000 0.000000
    16 -3.694255 -0.655429 0.000000 0.000000 0.000000 0.000000
    17 13.641458 7.020348 16.879305 -0.287833 0.000000 0.000000
    18 4.472665 2.448845 0.720848 0.331589 -0.505403 0.580529
    19 15.242571 6.789905 0.000000 -0.443057 0.380195 -0.072181
    20 8.366559 3.675034 14.276474 0.000000 0.000000 0.000000
    21 -15.633809 7.069125 16.813112 -0.287833 0.000000 0.000000
    22 -6.249312 1.413335 0.936005 0.500277 0.539545 -0.257544
    23 -13.856888 6.374216 0.000000 -0.141515 -0.436538 -0.506399
    24 -5.687840 2.494701 12.855103 0.000000 0.000000 0.000000
  time 20
    0 5.807106 1.410199 -16.714201 1.570796 0.000000 1.545389
    1 6.265787 2.547921 0.000000 -0.007091 0.094173 0.209467
    2 -1.211985 121.072578 2.116671 -0.001291 -0.000454 0.089453
    3 -2.423956 108.889275 3.327682 0.036026 0.001606 -0.224251
    4 -8.483835 103.017944 0.000000 0.046656 0.233033 -0.361882
    5 -7.271858 79.990417 0.000000 0.235989 -0.281989 -0.134786
    6 -6.059879 73.930542 0.000000 0.216592 -0.546253 -0.303461
    7 -7.271858 77.566437 0.000000 0.030441 0.335982 0.393990
    8 -7.271864 68.661316 0.902174 0.572901 0.250003 0.777390
    9 -10.228978 63.180118 -0.324228 -0.607436 0.452831 0.645827
    10 -4.847914 27.875425 0.000000 0.000000 0.000000 0.000000
    11 -10.884169 43.721066 -0.263436 0.000000 -1.570796 0.287833
    12 1.645461 3.130692 15.347058 -1.570797 1.282964 -1.570797
    13 -1.061229 0.200707 -0.378920 0.000000 0.000000 0.000000
    14 -4.349673 0.059656 0.000000 0.000000 0.000000 0.000000
    15 -4.230510 -0.536228 0.000000 0.000000 0.000000 0.000000
    16 -3.694255 -0.655429 0.000000 0.000000 0.000000 0.000000
    17 13.641458 7.020348 16.879305 -0.287833 0.000000 0.000000
    18 4.472665 2.448845 0.720848 0.329992 -0.351930 0.499943
    19 15.242571 6.789905 0.000000 -0.443057 0.380195 -0.072181
    20 8.366559 3.675034 14.276474 0.000000 0.000000 0.000000
    21 -15.633809 7.069125 16.813112 -0.287833 0.000000 0.000000
    22 -6.249312 1.413335 0.936005 0.505839 0.534376 -0.246675
    23 -13.856888 6.374216 0.000000 -0.142130 -0.446084 -0.504904
    24 -5.687840 2.494701 12.855103 0.000000 0.000000 0.000000
  time 21
    0 5.807106 1.410199 -16.714201 1.570796 0.000000 1.545389
    1 6.265787 2.547921 0.000000 -0.007091 0.094173 0.209467
    2 -1.211985 121.072578 2.116671 0.001387 -0.000454 0.060501
    3 -2.423956 108.889275 3.327682 0.038962 0.002361 -0.256510
    4 -8.483835 103.017944 0.000000 0.049436 0.221892 -0.346606
    5 -7.271858 79.990417 0.000000 0.285976 -0.397934 -0.070081
    6 -6.059879 73.930542 0.000000 0.310182 -0.657806 -0.335836
    7 -7.271858 77.566437 0.000000 0.073010 0.328267 0.353167
    8 -7.271864 68.661316 0.902174 0.616585 0.216215 0.763424
    9 -10.228978 63.176211 -0.324228 -0.624744 0.463184 0.631679
    10 -4.847914 27.875425 0.000000 0.000000 0.000000 0.000000
    11 -10.884169 43.721066 -0.263436 0.000000 -1.570796 0.287833
    12 1.645461 3.130692 15.347058 -1.570797 1.282964 -1.570797
    13 -1.061229 0.200707 -0.378920 0.000000 0.000000 0.000000
    14 -4.349673 0.059656 0.000000 0.000000 0.000000 0.000000
    15 -4.230510 -0.536228 0.000000 0.000000 0.000000 0.000000
    16 -3.694255 -0.655429 0.000000 0.000000 0.000000 0.000000
    17 13.641458 7.020348 16.879305 -0.287833 0.000000 0.000000
    18 4.472665 2.448845 0.720848 0.317969 -0.229500 0.444274
    19 15.242571 6.789905 0.000000 -0.443057 0.380195 -0.072181
    20 8.366559 3.675034 14.276474 0.000000 0.000000 0.000000
    21 -15.633809 7.069125 16.813112 -0.287833 0.000000 0.000000
    22 -6.249312 1.413335 0.936005 0.509232 0.531152 -0.239906
    23 -13.856888 6.374216 0.000000 -0.142975 -0.457895 -0.503012
    24 -5.687840 2.494701 12.855103 0.000000 0.000000 0.000000
  time 22
    0 5.807106 1.410199 -16.714201 1.570796 0.000000 1.545389
    1 6.265787 2.511881 0.000000 -0.007091 0.094173 0.209467
    2 -1.211985 121.072578 2.116671 0.003825 -0.000367 0.034705
    3 -2.423956 108.889275 3.327682 0.041575 0.003128 -0.285625
    4 -8.483835 103.017944 0.000000 0.051666 0.210245 -0.332064
    5 -7.271858 79.990417 0.000000 0.325214 -0.503522 -0.015677
    6 -6.059879 73.930542 0.000000 0.404644 -0.753036 -0.378051
    7 -7.271858 77.566437 0.000000 0.111097 0.320520 0.314977
    8 -7.271864 68.661316 0.902174 0.653060 0.184878 0.747721
    9 -10.228978 63.176211 -0.324228 -0.638859 0.471358 0.620123
    10 -4.847914 27.875425 0.000000 0.000000 0.000000 0.000000
    11 -10.884169 43.721066 -0.263436 0.000000 -1.570796 0.287833
    12 1.645461 3.130692 15.347058 -1.570797 1.282964 -1.570797
    13 -1.061229 0.200707 -0.378920 0.000000 0.000000 0.000000
    14 -4.349673 0.059656 0.000000 0.000000 0.000000 0.000000
    15 -4.230510 -0.536228 0.000000 0.000000 0.000000 0.000000
    16 -3.694255 -0.655429 0.000000 0.000000 0.000000 0.000000
    17 13.641458 7.020348 16.879305 -0.287833 0.000000 0.000000
    18 4.472665 2.448845 0.720848 0.307260 -0.169931 0.426384
    19 15.242571 6.789905 0.000000 -0.443057 0.380195 -0.072181
    20 8.366559 3.675034 14.276474 0.000000 0.000000 0.000000
    21 -15.633809 7.069125 16.813112 -0.287833 0.000000 0.000000
    22 -6.249312 1.413335 0.936005 0.510458 0.530047 -0.237608
    23 -13.856888 6.374216 0.000000 -0.143974 -0.471796 -0.500771
    24 -5.687840 2.494701 12.855103 0.000000 0.000000 0.000000
  time 23
    0 5.807106 1.410199 -16.714201 1.570796 0.000000 1.545389
    1 6.265787 2.439803 0.000000 -0.007091 0.094173 0.209467
    2 -1.211985 121.072578 2.116671 0.005786 -0.000238 0.013548
    3 -2.423956 108.889275 3.327682 0.043696 0.003835 -0.310038
    4 -8.483835 103.017944 0.000000 0.053212 0.198585 -0.318942
    5 -7.271858 79.990417 0.000000 0.353677 -0.591543 0.027073
    6 -6.059879 73.930542 0.000000 0.492376 -0.826830 -0.423871
    7 -7.271858 77.566437 0.000000 0.142629 0.312496 0.281431
    8 -7.271864 68.661316 0.902174 0.680113 0.157357 0.731522
    9 -10.228978 63.180118 -0.324228 -0.649401 0.477295 0.611466
    10 -4.847914 27.875425 0.000000 0.000000 0.000000 0.000000
    11 -10.884169 43.721066 -0.263436 0.000000 -1.570796 0.287833
    12 1.645461 3.130692 15.347058 -1.570797 1.282964 -1.570797
    13 -1.061229 0.200707 -0.378920 0.000000 0.000000 0.000000
    14 -4.349673 0.059656 0.000000 0.000000 0.000000 0.000000
    15 -4.230510 -0.536228 0.000000 0.000000 0.000000 0.000000
    16 -3.694255 -0.655429 0.000000 0.000000 0.000000 0.000000
    17 13.641458 7.020348 16.879305 -0.287833 0.000000 0.000000
    18 4.472665 2.448845 0.720848 0.301342 -0.155438 0.434978
    19 15.242571 6.789905 0.000000 -0.443057 0.380195 -0.072181
    20 8.366559 3.675034 14.276474 0.000000 0.000000 0.000000
    21 -15.633809 7.069125 16.813112 -0.287833 0.000000 0.000000
    22 -6.249312 1.413335 0.936005 0.508667 0.531726 -0.241024
    23 -13.856888 6.374216 0.000000 -0.145165 -0.487648 -0.498156
    24 -5.687840 2.494701 12.855103 0.000000 0.000000 0.000000
  time 24
    0 5.807106 1.410199 -16.714201 1.570796 0.000000 1.545389
    1 6.265787 2.367724 0.000000 -0.007091 0.094173 0.209467
    2 -1.211985 121.072578 2.116671 0.007172 -0.000130 -0.001577
    3 -2.423956 108.889275 3.327682 0.045230 0.004422 -0.328141
    4 -8.483835 103.017944 0.000000 0.054003 0.187381 -0.307901
    5 -7.271858 79.990417 0.000000 0.371618 -0.654916 0.056303
    6 -6.059879 73.930542 0.000000 0.560954 -0.875416 -0.462546
    7 -7.271858 77.566437 0.000000 0.165471 0.303723 0.254574
    8 -7.271864 68.661316 0.902174 0.695512 0.134970 0.716138
    9 -10.228978 63.176211 -0.324228 -0.655965 0.480937 0.606062
    10 -4.847914 27.875425 0.000000 0.000000 0.000000 0.000000
    11 -10.884169 43.721066 -0.263436 0.000000 -1.570796 0.287833
    12 1.645461 3.130692 15.347058 -1.570797 1.282964 -1.570797
    13 -1.061229 0.200707 -0.378920 0.000000 0.000000 0.000000
    14 -4.349673 0.059656 0.000000 0.000000 0.000000 0.000000
    15 -4.230510 -0.536228 0.000000 0.000000 0.000000 0.000000
    16 -3.694255 -0.655429 0.000000 0.000000 0.000000 0.000000
    17 13.641458 7.020348 16.879305 -0.287833 0.000000 0.000000
    18 4.472665 2.448845 0.720848 0.295988 -0.146981 0.447949
    19 15.242571 6.789905 0.000000 -0.443057 0.380195 -0.072181
    20 8.366559 3.675034 14.276474 0.000000 0.000000 0.000000
    21 -15.633809 7.069125 16.813112 -0.287833 0.000000 0.000000
    22 -6.249312 1.413335 0.936005 0.503576 0.536453 -0.251023
    23 -13.856888 6.374216 0.000000 -0.146586 -0.505172 -0.495217
    24 -5.687840 2.494701 12.855103 0.000000 0.000000 0.000000
  time 25
    0 5.807106 1.410199 -16.714201 1.570796 0.000000 1.545389
    1 6.265787 2.259607 0.000000 -0.007091 0.094173 0.209467
    2 -1.211985 121.072578 2.116671 0.007842 -0.000022 -0.009372
    3 -2.423956 108.889275 3.327682 0.046009 0.004782 -0.338397
    4 -8.483835 103.017944 0.000000 0.053979 0.177151 -0.299626
    5 -7.271858 79.990417 0.000000 0.379204 -0.686878 0.069373
    6 -6.059879 73.930542 0.000000 0.595006 -0.895922 -0.480731
    7 -7.271858 77.566437 0.000000 0.177504 0.293746 0.236450
    8 -7.271864 68.661316 0.902174 0.696873 0.118927 0.702916
    9 -10.228978 63.176211 -0.324228 -0.658220 0.482170 0.604172
    10 -4.847914 27.875425 0.000000 0.000000 0.000000 0.000000
    11 -10.884169 43.721066 -0.263436 0.000000 -1.570796 0.287833
    12 1.645461 3.130692 15.347058 -1.570797 1.282964 -1.570797
    13 -1.061229 0.200707 -0.378920 0.000000 0.000000 0.000000
    14 -4.349673 0.059656 0.000000 0.000000 0.000000 0.000000
    15 -4.230510 -0.536228 0.000000 0.000000 0.000000 0.000000
    16 -3.694255 -0.655429 0.000000 0.000000 0.000000 0.000000
    17 13.641458 7.020348 16.879305 -0.287833 0.000000 0.000000
    18 4.472665 2.448845 0.720848 0.291291 -0.144055 0.464974
    19 15.242571 6.789905 0.000000 -0.443057 0.380195 -0.072181
    20 8.366559 3.675034 14.276474 0.000000 0.000000 0.000000
    21 -15.633809 7.069125 16.813112 -0.287833 0.000000 0.000000
    22 -6.249312 1.413335 0.936005 0.495375 0.543962 -0.267045
    23 -13.856888 6.374216 0.000000 -0.148161 -0.524229 -0.491980
    24 -5.687840 2.494701 12.855103 0.000000 0.000000 0.000000
  time 26
    0 5.807106 1.410199 -16.714201 1.570796 0.000000 1.545389
    1 6.265787 2.115450 0.000000 -0.007091 0.094173 0.209467
    2 -1.211985 121.072578 2.116671 0.007890 0.000000 -0.010950
    3 -2.423956 108.889275 3.327682 0.046201 0.004950 -0.342249
    4 -8.483835 103.017944 0.000000 0.053260 0.167264 -0.293359
    5 -7.271858 79.990417 0.000000 0.379013 -0.692670 0.068858
    6 -6.059879 73.930542 0.000000 0.596043 -0.893953 -0.476964
    7 -7.271858 77.566437 0.000000 0.180632 0.281865 0.225187
    8 -7.271864 68.661316 0.902174 0.685941 0.107424 0.691218
    9 -10.228978 63.176211 -0.324228 -0.652037 0.478757 0.609269
    10 -4.847914 27.875425 0.000000 0.000000 0.000000 0.000000
    11 -10.884169 43.721066 -0.263436 0.000000 -1.570796 0.287833
    12 1.645461 3.130692 15.347058 -1.570797 1.282964 -1.570797
    13 -1.061229 0.200707 -0.378920 0.000000 0.000000 0.000000
    14 -4.349673 0.059656 0.000000 0.000000 0.000000 0.000000
    15 -4.230510 -0.536228 0.000000 0.000000 0.000000 0.000000
    16 -3.694255 -0.655429 0.000000 0.000000 0.000000 0.000000
    17 13.641458 7.020348 16.879305 -0.287833 0.000000 0.000000
    18 4.472665 2.448845 0.720848 0.286876 -0.146112 0.485620
    19 15.242571 6.789905 0.000000 -0.443057 0.380195 -0.072181
    20 8.366559 3.675034 14.276474 0.000000 0.000000 0.000000
    21 -15.633809 7.069125 16.813112 -0.287833 0.000000 0.000000
    22 -6.249312 1.413335 0.936005 0.484063 0.553813 -0.288657
    23 -13.856888 6.374216 0.000000 -0.150005 -0.544645 -0.488419
    24 -5.687840 2.494701 12.855103 0.000000 0.000000 0.000000
  time 27
    0 5.807106 1.410199 -16.714201 1.570796 0.000000 1.545389
    1 6.265787 1.971293 0.000000 -0.007091 0.094173 0.209467
    2 -1.211985 121.072578 2.116671 0.007603 0.000022 -0.008908
    3 -2.423956 108.889275 3.327682 0.046033 0.005010 -0.342509
    4 -8.483835 103.017944 0.000000 0.052061 0.156883 -0.287826
    5 -7.271858 79.990417 0.000000 0.374123 -0.682989 0.060005
    6 -6.059879 73.930542 0.000000 0.577107 -0.878095 -0.459461
    7 -7.271858 77.566437 0.000000 0.178558 0.267753 0.217320
    8 -7.271864 68.661316 0.902174 0.666651 0.097546 0.679698
    9 -10.228978 63.176211 -0.324228 -0.634551 0.468891 0.623638
    10 -4.847914 27.875425 0.000000 0.000000 0.000000 0.000000
    11 -10.884169 43.721066 -0.263436 0.000000 -1.570796 0.287833
    12 1.645461 3.130692 15.347058 -1.570797 1.282964 -1.570797
    13 -1.061229 0.200707 -0.378920 0.000000 0.000000 0.000000
    14 -4.349673 0.059656 0.000000 0.000000 0.000000 0.000000
    15 -4.230510 -0.536228 0.000000 0.000000 0.000000 0.000000
    16 -3.694255 -0.655429 0.000000 0.000000 0.000000 0.000000
    17 13.641458 7.020348 16.879305 -0.287833 0.000000 0.000000
    18 4.472665 2.448845 0.720848 0.282649 -0.152512 0.509564
    19 15.242571 6.789905 0.000000 -0.443057 0.380195 -0.072181
    20 8.366559 3.675034 14.276474 0.000000 0.000000 0.000000
    21 -15.633809 7.069125 16.813112 -0.287833 0.000000 0.000000
    22 -6.249312 1.413335 0.936005 0.469829 0.565564 -0.315486
    23 -13.856888 6.374216 0.000000 -0.152041 -0.566176 -0.484559
    24 -5.687840 2.494701 12.855103 0.000000 0.000000 0.000000
  time 28
    0 5.807106 1.410199 -16.714201 1.570796 0.000000 1.545389
    1 6.265787 1.791096 0.000000 -0.007091 0.094173 0.209467
    2 -1.211985 121.072578 2.116671 0.006933 0.000022 -0.003619
    3 -2.423956 108.889275 3.327682 0.045553 0.004974 -0.339555
    4 -8.483835 103.017944 0.000000 0.050443 0.146033 -0.282979
    5 -7.271858 79.990417 0.000000 0.364799 -0.659652 0.043716
    6 -6.059879 73.930542 0.000000 0.542291 -0.849414 -0.431697
    7 -7.271858 77.566437 0.000000 0.171883 0.251640 0.212538
    8 -7.271864 68.661316 0.902174 0.639938 0.089008 0.668390
    9 -10.228978 63.176211 -0.324228 -0.607436 0.452831 0.645827
    10 -4.847914 27.875425 0.000000 0.000000 0.000000 0.000000
    11 -10.884169 43.721066 -0.263436 0.000000 -1.570796 0.287833
    12 1.645461 3.130692 15.347058 -1.570797 1.282964 -1.570797
    13 -1.061229 0.200707 -0.378920 0.000000 0.000000 0.000000
    14 -4.349673 0.059656 0.000000 0.000000 0.000000 0.000000
    15 -4.230510 -0.536228 0.000000 0.000000 0.000000 0.000000
    16 -3.694255 -0.655429 0.000000 0.000000 0.000000 0.000000
    17 13.641458 7.020348 16.879305 -0.287833 0.000000 0.000000
    18 4.472665 2.448845 0.720848 0.278422 -0.162753 0.536426
    19 15.242571 6.789905 0.000000 -0.443057 0.380195 -0.072181
    20 8.366559 3.675034 14.276474 0.000000 0.000000 0.000000
    21 -15.633809 7.069125 16.813112 -0.287833 0.000000 0.000000
    22 -6.249312 1.413335 0.936005 0.452766 0.578772 -0.347035
    23 -13.856888 6.374216 0.000000 -0.154269 -0.588647 -0.480425
    24 -5.687840 2.494701 12.855103 0.000000 0.000000 0.000000
  time 29
    0 5.807106 1.410199 -16.714201 1.570796 0.000000 1.545389
    1 6.265787 1.574861 0.000000 -0.007091 0.094173 0.209467
    2 -1.211985 121.072578 2.116671 0.006025 0.000022 0.004361
    3 -2.423956 108.889275 3.327682 0.044798 0.004866 -0.333789
    4 -8.483835 103.017944 0.000000 0.048454 0.134804 -0.278670
    5 -7.271858 79.990417 0.000000 0.351172 -0.624519 0.020957
    6 -6.059879 73.930542 0.000000 0.496378 -0.808812 -0.397860
    7 -7.271858 77.566437 0.000000 0.161157 0.233753 0.210666
    8 -7.271864 68.661316 0.902174 0.606717 0.081503 0.657402
    9 -10.228978 63.176211 -0.324228 -0.572566 0.430833 0.674081
    10 -4.847914 27.875425 0.000000 0.000000 0.000000 0.000000
    11 -10.884169 43.721066 -0.263436 0.000000 -1.570796 0.287833
    12 1.645461 3.130692 15.347058 -1.570797 1.282964 -1.570797
    13 -1.061229 0.200707 -0.378920 0.000000 0.000000 0.000000
    14 -4.349673 0.059656 0.000000 0.000000 0.000000 0.000000
    15 -4.230510 -0.536228 0.000000 0.000000 0.000000 0.000000
    16 -3.694255 -0.655429 0.000000 0.000000 0.000000 0.000000
    17 13.641458 7.020348 16.879305 -0.287833 0.000000 0.000000
    18 4.472665 2.448845 0.720848 0.273913 -0.176285 0.565828
    19 15.242571 6.789905 0.000000 -0.443057 0.380195 -0.072181
    20 8.366559 3.675034 14.276474 0.000000 0.000000 0.000000
    21 -15.633809 7.069125 16.813112 -0.287833 0.000000 0.000000
    22 -6.249312 1.413335 0.936005 0.432876 0.592952 -0.382993
    23 -13.856888 6.374216 0.000000 -0.156766 -0.611885 -0.475992
    24 -5.687840 2.494701 12.855103 0.000000 0.000000 0.000000
  time 30
    0 5.807106 1.410199 -16.714201 1.570796 0.000000 1.545389
    1 6.265787 1.358625 0.000000 -0.007091 0.094173 0.209467
    2 -1.211985 121.072578 2.116671 0.004877 0.000022 0.014847
    3 -2.423956 108.889275 3.327682 0.043804 0.004686 -0.325612
    4 -8.483835 103.017944 0.000000 0.046153 0.123232 -0.274851
    5 -7.271858 79.990417 0.000000 0.333268 -0.579494 -0.007372
    6 -6.059879 73.930542 0.000000 0.443808 -0.757247 -0.362010
    7 -7.271858 77.566437 0.000000 0.146919 0.214401 0.211325
    8 -7.271864 68.661316 0.902174 0.567903 0.074797 0.646697
    9 -10.228978 63.176211 -0.324228 -0.531817 0.403099 0.706684
    10 -4.847914 27.875425 0.000000 0.000000 0.000000 0.000000
    11 -10.884169 43.721066 -0.263436 0.000000 -1.570796 0.287833
    12 1.645461 3.130692 15.347058 -1.570797 1.282964 -1.570797
    13 -1.061229 0.200707 -0.378920 0.000000 0.000000 0.000000
    14 -4.349673 0.059656 0.000000 0.000000 0.000000 0.000000
    15 -4.230510 -0.536228 0.000000 0.000000 0.000000 0.000000
    16 -3.694255 -0.655429 0.000000 0.000000 0.000000 0.000000
    17 13.641458 7.020348 16.879305 -0.287833 0.000000 0.000000
    18 4.472665 2.448845 0.720848 0.269029 -0.192469 0.597500
    19 15.242571 6.789905 0.000000 -0.443057 0.380195 -0.072181
    20 8.366559 3.675034 14.276474 0.000000 0.000000 0.000000
    21 -15.633809 7.069125 16.813112 -0.287833 0.000000 0.000000
    22 -6.249312 1.413335 0.936005 0.410346 0.607750 -0.422863
    23 -13.856888 6.374216 0.000000 -0.159531 -0.635715 -0.471335
    24 -5.687840 2.494701 12.855103 0.000000 0.000000 0.000000
  time 31
    0 5.807106 1.410199 -16.714201 1.570796 0.000000 1.545389
    1 6.265787 1.106350 0.000000 -0.007091 0.094173 0.209467
    2 -1.211985 121.072578 2.116671 0.003538 0.000022 0.027281
    3 -2.423956 108.889275 3.327682 0.042617 0.004470 -0.315450
    4 -8.483835 103.017944 0.000000 0.043576 0.111383 -0.271399
    5 -7.271858 79.990417 0.000000 0.311156 -0.526521 -0.040529
    6 -6.059879 73.930542 0.000000 0.388255 -0.695947 -0.327264
    7 -7.271858 77.566437 0.000000 0.129733 0.193878 0.214340
    8 -7.271864 68.661316 0.902174 0.524430 0.068581 0.636346
    9 -10.228978 63.176211 -0.324228 -0.487013 0.369974 0.742012
    10 -4.847914 27.875425 0.000000 0.000000 0.000000 0.000000
    11 -10.884169 43.721066 -0.263436 0.000000 -1.570796 0.287833
    12 1.645461 3.130692 15.347058 -1.570797 1.282964 -1.570797
    13 -1.061229 0.200707 -0.378920 0.000000 0.000000 0.000000
    14 -4.349673 0.059656 0.000000 0.000000 0.000000 0.000000
    15 -4.230510 -0.536228 0.000000 0.000000 0.000000 0.000000
    16 -3.694255 -0.655429 0.000000 0.000000 0.000000 0.000000
    17 13.641458 7.020348 16.879305 -0.287833 0.000000 0.000000
    18 4.472665 2.448845 0.720848 0.263487 -0.210710 0.631009
    19 15.242571 6.789905 0.000000 -0.443057 0.380195 -0.072181
    20 8.366559 3.675034 14.276474 0.000000 0.000000 0.000000
    21 -15.633809 7.069125 16.813112 -0.287833 0.000000 0.000000
    22 -6.249312 1.413335 0.936005 0.385271 0.622637 -0.466274
    23 -13.856888 6.374216 0.000000 -0.162489 -0.659859 -0.466405
    24 -5.687840 2.494701 12.855103 0.000000 0.000000 0.000000
  time 32
    0 5.807106 1.410199 -16.714201 1.570796 0.000000 1.545389
    1 6.265787 0.854076 0.000000 -0.007091 0.094173 0.209467
    2 -1.211985 121.072578 2.116671 0.002008 0.000022 0.041479
    3 -2.423956 108.889275 3.327682 0.041263 0.004219 -0.303657
    4 -8.483835 103.017944 0.000000 0.040784 0.099305 -0.268266
    5 -7.271858 79.990417 0.000000 0.284934 -0.467586 -0.077871
    6 -6.059879 73.930542 0.000000 0.332283 -0.626391 -0.295862
    7 -7.271858 77.566437 0.000000 0.110138 0.172475 0.219330
    8 -7.271864 68.661316 0.902174 0.477258 0.062675 0.626279
    9 -10.228978 63.176211 -0.324228 -0.439827 0.331915 0.778570
    10 -4.847914 27.875425 0.000000 0.000000 0.000000 0.000000
    11 -10.884169 43.721066 -0.263436 0.000000 -1.570796 0.287833
    12 1.645461 3.130692 15.347058 -1.570797 1.282964 -1.570797
    13 -1.061229 0.200707 -0.378920 0.000000 0.000000 0.000000
    14 -4.349673 0.059656 0.000000 0.000000 0.000000 0.000000
    15 -4.230510 -0.536228 0.000000 0.000000 0.000000 0.000000
    16 -3.694255 -0.655429 0.000000 0.000000 0.000000 0.000000
    17 13.641458 7.020348 16.879305 -0.287833 0.000000 0.000000
    18 4.472665 2.448845 0.720848 0.257287 -0.230460 0.666032
    19 15.242571 6.789905 0.000000 -0.443057 0.380195 -0.072181
    20 8.366559 3.675034 14.276474 0.000000 0.000000 0.000000
    21 -15.633809 7.069125 16.813112 -0.287833 0.000000 0.000000
    22 -6.249312 1.413335 0.936005 0.358028 0.637214 -0.512541
    23 -13.856888 6.374216 0.000000 -0.165677 -0.684212 -0.461250
    24 -5.687840 2.494701 12.855103 0.000000 0.000000 0.000000
  time 33
    0 5.807106 1.410199 -16.714201 1.570796 0.000000 1.545389
    1 6.265787 0.565761 0.000000 -0.007091 0.094173 0.209467
    2 -1.211985 121.072578 2.116671 0.000383 0.000065 0.056790
    3 -2.423956 108.889275 3.327682 0.039801 0.003967 -0.290683
    4 -8.483835 103.017944 0.000000 0.037823 0.087075 -0.265328
    5 -7.271858 79.990417 0.000000 0.254828 -0.404699 -0.118787
    6 -6.059879 73.930542 0.000000 0.277585 -0.550300 -0.269039
    7 -7.271858 77.566437 0.000000 0.088674 0.150502 0.226018
    8 -7.271864 68.661316 0.902174 0.427299 0.056846 0.616531
    9 -10.228978 63.176211 -0.324228 -0.391678 0.289526 0.814952
    10 -4.847914 27.875425 0.000000 0.000000 0.000000 0.000000
    11 -10.884169 43.721066 -0.263436 0.000000 -1.570796 0.287833
    12 1.645461 3.130692 15.347058 -1.570797 1.282964 -1.570797
    13 -1.061229 0.200707 -0.378920 0.000000 0.000000 0.000000
    14 -4.349673 0.059656 0.000000 0.000000 0.000000 0.000000
    15 -4.230510 -0.536228 0.000000 0.000000 0.000000 0.000000
    16 -3.694255 -0.655429 0.000000 0.000000 0.000000 0.000000
    17 13.641458 7.020348 16.879305 -0.287833 0.000000 0.000000
    18 4.472665 2.448845 0.720848 0.250148 -0.251124 0.702245
    19 15.242571 6.789905 0.000000 -0.443057 0.380195 -0.072181
    20 8.366559 3.675034 14.276474 0.000000 0.000000 0.000000
    21 -15.633809 7.069125 16.813112 -0.287833 0.000000 0.000000
    22 -6.249312 1.413335 0.936005 0.328805 0.651129 -0.561230
    23 -13.856888 6.374216 0.000000 -0.169135 -0.708565 -0.455896
    24 -5.687840 2.494701 12.855103 0.000000 0.000000 0.000000
  time 34
    0 5.807106 1.410199 -16.714201 1.570796 0.000000 1.545389
    1 6.265787 0.241408 0.000000 -0.007091 0.094173 0.209467
    2 -1.211985 121.072578 2.116671 -0.001291 0.000130 0.072936
    3 -2.423956 108.889275 3.327682 0.038243 0.003703 -0.276905
    4 -8.483835 103.017944 0.000000 0.034743 0.074732 -0.262513
    5 -7.271858 79.990417 0.000000 0.221164 -0.339761 -0.162696
    6 -6.059879 73.930542 0.000000 0.225087 -0.469588 -0.247315
    7 -7.271858 77.566437 0.000000 0.065903 0.128237 0.234024
    8 -7.271864 68.661316 0.902174 0.375511 0.050888 0.607102
    9 -10.228978 63.180118 -0.324228 -0.343783 0.243638 0.850191
    10 -4.847914 27.875425 0.000000 0.000000 0.000000 0.000000
    11 -10.884169 43.721066 -0.263436 0.000000 -1.570796 0.287833
    12 1.645461 3.130692 15.347058 -1.570797 1.282964 -1.570797
    13 -1.061229 0.200707 -0.378920 0.000000 0.000000 0.000000
    14 -4.349673 0.059656 0.000000 0.000000 0.000000 0.000000
    15 -4.230510 -0.536228 0.000000 0.000000 0.000000 0.000000
    16 -3.694255 -0.655429 0.000000 0.000000 0.000000 0.000000
    17 13.641458 7.020348 16.879305 -0.287833 0.000000 0.000000
    18 4.472665 2.448845 0.720848 0.242163 -0.272063 0.739213
    19 15.242571 6.789905 0.000000 -0.443057 0.380195 -0.072181
    20 8.366559 3.675034 14.276474 0.000000 0.000000 0.000000
    21 -15.633809 7.069125 16.813112 -0.287833 0.000000 0.000000
    22 -6.249312 1.413335 0.936005 0.297979 0.664072 -0.611596
    23 -13.856888 6.374216 0.000000 -0.172784 -0.732674 -0.450342
    24 -5.687840 2.494701 12.855103 0.000000 0.000000 0.000000
  time 35
    0 5.807106 1.410199 -16.714201 1.570796 0.000000 1.545389
    1 6.265787 -0.082945 0.000000 -0.007091 0.094173 0.209467
    2 -1.211985 121.072578 2.116671 -0.003012 0.000238 0.089453
    3 -2.423956 108.889275 3.327682 0.036649 0.003452 -0.262702
    4 -8.483835 103.017944 0.000000 0.031591 0.062338 -0.259771
    5 -7.271858 79.990417 0.000000 0.184407 -0.274739 -0.208988
    6 -6.059879 73.930542 0.000000 0.175264 -0.386224 -0.230786
    7 -7.271858 77.566437 0.000000 0.042401 0.105972 0.242930
    8 -7.271864 68.661316 0.902174 0.322851 0.044646 0.597992
    9 -10.228978 63.176211 -0.324228 -0.297180 0.195254 0.883410
    10 -4.847914 27.875425 0.000000 0.000000 0.000000 0.000000
    11 -10.884169 43.721066 -0.263436 0.000000 -1.570796 0.287833
    12 1.645461 3.130692 15.347058 -1.570797 1.282964 -1.570797
    13 -1.061229 0.200707 -0.378920 0.000000 0.000000 0.000000
    14 -4.349673 0.059656 0.000000 0.000000 0.000000 0.000000
    15 -4.230510 -0.536228 0.000000 0.000000 0.000000 0.000000
    16 -3.694255 -0.655429 0.000000 0.000000 0.000000 0.000000
    17 13.641458 7.020348 16.879305 -0.287833 0.000000 0.000000
    18 4.472665 2.448845 0.720848 0.233334 -0.292681 0.776560
    19 15.242571 6.789905 0.000000 -0.443057 0.380195 -0.072181
    20 8.366559 3.675034 14.276474 0.000000 0.000000 0.000000
    21 -15.633809 7.069125 16.813112 -0.287833 0.000000 0.000000
    22 -6.249312 1.413335 0.936005 0.266117 0.675734 -0.662956
    23 -13.856888 6.374216 0.000000 -0.176664 -0.756434 -0.444640
    24 -5.687840 2.494701 12.855103 0.000000 0.000000 0.000000
  time 36
    0 5.807106 1.410199 -16.714201 1.570796 0.000000 1.545389
    1 6.265787 -0.479377 0.000000 -0.007091 0.094173 0.209467
    2 -1.211985 121.072578 2.116671 -0.004782 0.000346 0.105970
    3 -2.423956 108.889275 3.327682 0.035055 0.003224 -0.248522
    4 -8.483835 103.017944 0.000000 0.028403 0.049969 -0.256955
    5 -7.271858 79.990417 0.000000 0.145205 -0.211428 -0.256953
    6 -6.059879 73.930542 0.000000 0.128351 -0.302232 -0.219096
    7 -7.271858 77.566437 0.000000 0.018756 0.083902 0.252391
    8 -7.271864 68.661316 0.902174 0.270255 0.037914 0.589272
    9 -10.228978 63.176211 -0.324228 -0.252579 0.145408 0.914036
    10 -4.847914 27.875425 0.000000 0.000000 0.000000 0.000000
    11 -10.884169 43.721066 -0.263436 0.000000 -1.570796 0.287833
    12 1.645461 3.130692 15.347058 -1.570797 1.282964 -1.570797
    13 -1.061229 0.200707 -0.378920 0.000000 0.000000 0.000000
    14 -4.349673 0.059656 0.000000 0.000000 0.000000 0.000000
    15 -4.230510 -0.536228 0.000000 0.000000 0.000000 0.000000
    16 -3.694255 -0.655429 0.000000 0.000000 0.000000 0.000000
    17 13.641458 7.020348 16.879305 -0.287833 0.000000 0.000000
    18 4.472665 2.448845 0.720848 0.223752 -0.312477 0.813908
    19 15.242571 6.789905 0.000000 -0.443057 0.380195 -0.072181
    20 8.366559 3.675034 14.276474 0.000000 0.000000 0.000000
    21 -15.633809 7.069125 16.813112 -0.287833 0.000000 0.000000
    22 -6.249312 1.413335 0.936005 0.233689 0.685983 -0.714440
    23 -13.856888 6.374216 0.000000 -0.180697 -0.779567 -0.438837
    24 -5.687840 2.494701 12.855103 0.000000 0.000000 0.000000
  time 37
    0 5.807106 1.410199 -16.714201 1.570796 0.000000 1.545389
    1 6.265787 -0.839770 0.000000 -0.007091 0.094173 0.209467
    2 -1.211985 121.072578 2.116671 -0.006503 0.000497 0.122116
    3 -2.423956 108.889275 3.327682 0.033497 0.003032 -0.234744
    4 -8.483835 103.017944 0.000000 0.025228 0.037651 -0.254042
    5 -7.271858 79.990417 0.000000 0.104386 -0.151543 -0.305724
    6 -6.059879 73.930542 0.000000 0.084549 -0.219633 -0.211757
    7 -7.271858 77.566437 0.000000 -0.004434 0.062271 0.261851
    8 -7.271864 68.661316 0.902174 0.218701 0.030589 0.580872
    9 -10.228978 63.176211 -0.324228 -0.210664 0.095361 0.941674
    10 -4.847914 27.875425 0.000000 0.000000 0.000000 0.000000
    11 -10.884169 43.721066 -0.263436 0.000000 -1.570796 0.287833
    12 1.645461 3.130692 15.347058 -1.570797 1.282964 -1.570797
    13 -1.061229 0.200707 -0.378920 0.000000 0.000000 0.000000
    14 -4.349673 0.059656 0.000000 0.000000 0.000000 0.000000
    15 -4.230510 -0.536228 0.000000 0.000000 0.000000 0.000000
    16 -3.694255 -0.655429 0.000000 0.000000 0.000000 0.000000
    17 13.641458 7.020348 16.879305 -0.287833 0.000000 0.000000
    18 4.472665 2.448845 0.720848 0.213513 -0.330763 0.850768
    19 15.242571 6.789905 0.000000 -0.443057 0.380195 -0.072181
    20 8.366559 3.675034 14.276474 0.000000 0.000000 0.000000
    21 -15.633809 7.069125 16.813112 -0.287833 0.000000 0.000000
    22 -6.249312 1.413335 0.936005 0.201261 0.694641 -0.765303
    23 -13.856888 6.374216 0.000000 -0.184884 -0.801934 -0.432960
    24 -5.687840 2.494701 12.855103 0.000000 0.000000 0.000000
  time 38
    0 5.807106 1.410199 -16.714201 1.570796 0.000000 1.545389
    1 6.265787 -1.272241 0.000000 -0.007091 0.094173 0.209467
    2 -1.211985 121.072578 2.116671 -0.008129 0.000670 0.137427
    3 -2.423956 108.889275 3.327682 0.032011 0.002876 -0.221746
    4 -8.483835 103.017944 0.000000 0.022100 0.025459 -0.250933
    5 -7.271858 79.990417 0.000000 0.063027 -0.096561 -0.354204
    6 -6.059879 73.930542 0.000000 0.044039 -0.140480 -0.208120
    7 -7.271858 77.566437 0.000000 -0.026534 0.041227 0.270896
    8 -7.271864 68.661316 0.902174 0.169124 0.022542 0.572896
    9 -10.228978 63.180118 -0.324228 -0.171942 0.046318 0.966105
    10 -4.847914 27.875425 0.000000 0.000000 0.000000 0.000000
    11 -10.884169 43.721066 -0.263436 0.000000 -1.570796 0.287833
    12 1.645461 3.130692 15.347058 -1.570797 1.282964 -1.570797
    13 -1.061229 0.200707 -0.378920 0.000000 0.000000 0.000000
    14 -4.349673 0.059656 0.000000 0.000000 0.000000 0.000000
    15 -4.230510 -0.536228 0.000000 0.000000 0.000000 0.000000
    16 -3.694255 -0.655429 0.000000 0.000000 0.000000 0.000000
    17 13.641458 7.020348 16.879305 -0.287833 0.000000 0.000000
    18 4.472665 2.448845 0.720848 0.202993 -0.347130 0.886602
    19 15.242571 6.789905 0.000000 -0.443057 0.380195 -0.072181
    20 8.366559 3.675034 14.276474 0.000000 0.000000 0.000000
    21 -15.633809 7.069125 16.813112 -0.287833 0.000000 0.000000
    22 -6.249312 1.413335 0.936005 0.169587 0.701753 -0.814613
    23 -13.856888 6.374216 0.000000 -0.189148 -0.823361 -0.427058
    24 -5.687840 2.494701 12.855103 0.000000 0.000000 0.000000
  time 39
    0 5.807106 1.410199 -16.714201 1.570796 0.000000 1.545389
    1 6.265787 -1.704712 0.000000 -0.007091 0.094173 0.209467
    2 -1.211985 121.072578 2.116671 -0.009611 0.000864 0.151531
    3 -2.423956 108.889275 3.327682 0.030645 0.002756 -0.209977
    4 -8.483835 103.017944 0.000000 0.019055 0.013458 -0.247555
    5 -7.271858 79.990417 0.000000 0.022495 -0.047816 -0.401043
    6 -6.059879 73.930542 0.000000 0.007203 -0.066686 -0.207405
    7 -7.271858 77.566437 0.000000 -0.046908 0.020931 0.278971
    8 -7.271864 68.661316 0.902174 0.122505 0.013618 0.565310
    9 -10.228978 63.180118 -0.324228 -0.136793 -0.000344 0.987196
    10 -4.847914 27.875425 0.000000 0.000000 0.000000 0.000000
    11 -10.884169 43.721066 -0.263436 0.000000 -1.570796 0.287833
    12 1.645461 3.130692 15.347058 -1.570797 1.282964 -1.570797
    13 -1.061229 0.200707 -0.378920 0.000000 0.000000 0.000000
    14 -4.349673 0.059656 0.000000 0.000000 0.000000 0.000000
    15 -4.230510 -0.536228 0.000000 0.000000 0.000000 0.000000
    16 -3.694255 -0.655429 0.000000 0.000000 0.000000 0.000000
    17 13.641458 7.020348 16.879305 -0.287833 0.000000 0.000000
    18 4.472665 2.448845 0.720848 0.192284 -0.360937 0.920922
    19 15.242571 6.789905 0.000000 -0.443057 0.380195 -0.072181
    20 8.366559 3.675034 14.276474 0.000000 0.000000 0.000000
    21 -15.633809 7.069125 16.813112 -0.287833 0.000000 0.000000
    22 -6.249312 1.413335 0.936005 0.139327 0.707275 -0.861377
    23 -13.856888 6.374216 0.000000 -0.193450 -0.843602 -0.421231
    24 -5.687840 2.494701 12.855103 0.000000 0.000000 0.000000
  time 40
    0 5.807106 1.410199 -16.714201 1.570796 0.000000 1.545389
    1 6.265787 -2.137183 0.000000 -0.007091 0.094173 0.209467
    2 -1.211985 121.072578 2.116671 -0.010950 0.001037 0.164059
    3 -2.423956 108.889275 3.327682 0.029434 0.002673 -0.199791
    4 -8.483835 103.017944 0.000000 0.016143 0.001696 -0.243833
    5 -7.271858 79.990417 0.000000 -0.015652 -0.006363 -0.444630
    6 -6.059879 73.930542 0.000000 -0.025357 -0.000219 -0.208737
    7 -7.271858 77.566437 0.000000 -0.064861 0.001481 0.285521
    8 -7.271864 68.661316 0.902174 0.079777 0.003740 0.558150
    9 -10.228978 63.180118 -0.324228 -0.105725 -0.043393 1.004947
    10 -4.847914 27.875425 0.000000 0.000000 0.000000 0.000000
    11 -10.884169 43.721066 -0.263436 0.000000 -1.570796 0.287833
    12 1.645461 3.130692 15.347058 -1.570797 1.282964 -1.570797
    13 -1.061229 0.200707 -0.378920 0.000000 0.000000 0.000000
    14 -4.349673 0.059656 0.000000 0.000000 0.000000 0.000000
    15 -4.230510 -0.536228 0.000000 0.000000 0.000000 0.000000
    16 -3.694255 -0.655429 0.000000 0.000000 0.000000 0.000000
    17 13.641458 7.020348 16.879305 -0.287833 0.000000 0.000000
    18 4.472665 2.448845 0.720848 0.181857 -0.371726 0.953189
    19 15.242571 6.789905 0.000000 -0.443057 0.380195 -0.072181
    20 8.366559 3.675034 14.276474 0.000000 0.000000 0.000000
    21 -15.633809 7.069125 16.813112 -0.287833 0.000000 0.000000
    22 -6.249312 1.413335 0.936005 0.111141 0.711383 -0.904601
    23 -13.856888 6.374216 0.000000 -0.197753 -0.862520 -0.415528
    24 -5.687840 2.494701 12.855103 0.000000 0.000000 0.000000
end
