// Created by Crowbar 0.42.0.0
version 1
nodes
  0 "Dummy01" -1
  1 "Bone01" 0
  2 "Bone02" 1
  3 "Bone03" 2
  4 "Bone04" 3
  5 "Bone05" 4
  6 "Bone06" 5
  7 "Bone07" 6
  8 "Bone08" 7
  9 "Bone09" 8
  10 "Bone10" 9
  11 "Dummy04" 10
  12 "Dummy05" 11
  13 "Bone19" 12
  14 "Bone20" 13
  15 "Bone21" 14
  16 "Bone22" 15
  17 "Dummy03" 11
  18 "Bone11" 17
  19 "Bone12" 18
  20 "Bone13" 19
  21 "Dummy02" 11
  22 "Bone15" 21
  23 "Bone16" 22
  24 "Bone17" 23
end
skeleton
  time 0
    0 5.807106 1.410199 -67.125213 1.570796 0.000000 1.545389
    1 6.265787 -2.137183 0.000000 -0.008241 0.094377 0.165752
    2 -1.211985 121.072578 2.116671 0.005403 0.003197 -0.070801
    3 -2.423956 108.889275 3.327682 0.036361 0.005741 -0.304153
    4 -8.483835 103.017944 0.000000 0.016742 0.001810 -0.252524
    5 -7.271858 79.990417 0.000000 -0.067533 -0.008160 0.304114
    6 -6.059879 73.930542 0.000000 -0.061120 -0.022557 0.374544
    7 -7.271858 77.566437 0.000000 -0.056435 0.010351 0.155288
    8 -7.271864 68.661316 0.902174 0.153237 0.107166 -0.327744
    9 -10.228978 63.176211 -0.324228 0.018651 -0.110648 -0.130633
    10 -4.847914 27.875425 0.000000 0.000000 0.000000 0.000000
    11 -10.884169 43.721066 -0.263436 0.000000 -1.570796 0.287833
    12 1.645461 3.130692 15.347058 -1.570797 1.282964 -1.570797
    13 -1.061229 0.200707 -0.378920 0.000000 0.000000 0.000000
    14 -4.349673 0.059656 0.000000 0.000000 0.000000 0.000000
    15 -4.230510 -0.536228 0.000000 0.000000 0.000000 0.000000
    16 -3.694255 -0.655429 0.000000 0.000000 0.000000 0.000000
    17 13.641458 7.020348 16.879305 -0.287833 0.000000 0.000000
    18 4.472665 2.448845 0.720848 0.181857 -0.371726 0.953189
    19 15.242571 6.789905 0.000000 -0.443057 0.380195 -0.072181
    20 8.366559 3.675034 14.276474 0.000000 0.000000 0.000000
    21 -15.633809 7.069125 16.813112 -0.287833 0.000000 0.000000
    22 -6.249312 1.413335 0.936005 0.111141 0.711383 -0.904601
    23 -13.856888 6.374216 0.000000 -0.197753 -0.862520 -0.415528
    24 -5.687840 2.494701 12.855103 0.000000 0.000000 0.000000
  time 1
    0 5.807106 1.410199 -67.125213 1.570796 0.000000 1.545389
    1 6.265787 2.079410 0.000000 -0.008720 0.094454 0.144854
    2 -1.211985 121.072578 2.116671 0.007316 0.003716 -0.098825
    3 -2.423956 108.889275 3.327682 0.037440 0.006292 -0.320744
    4 -8.483835 103.017944 0.000000 0.017126 0.001899 -0.258057
    5 -7.271858 79.990417 0.000000 -0.068072 -0.007948 0.312130
    6 -6.059879 73.930542 0.000000 -0.060283 -0.022338 0.362627
    7 -7.271858 77.566437 0.000000 -0.058353 0.008122 0.186547
    8 -7.271864 68.661316 0.902174 0.150557 0.095044 -0.243770
    9 -10.228978 63.180118 -0.324228 0.000558 -0.110705 0.007426
    10 -4.847914 27.875425 0.000000 0.000000 0.000000 0.000000
    11 -10.884169 43.721066 -0.263436 0.000000 -1.570796 0.287833
    12 1.645461 3.130692 15.347058 -1.570797 1.282964 -1.570797
    13 -1.061229 0.200707 -0.378920 0.000000 0.000000 0.000000
    14 -4.349673 0.059656 0.000000 0.000000 0.000000 0.000000
    15 -4.230510 -0.536228 0.000000 0.000000 0.000000 0.000000
    16 -3.694255 -0.655429 0.000000 0.000000 0.000000 0.000000
    17 13.641458 7.020348 16.879305 -0.287833 0.000000 0.000000
    18 4.472665 2.448845 0.720848 0.300215 -0.512626 0.906005
    19 15.242571 6.789905 0.000000 -0.388888 0.313526 -0.057462
    20 8.366559 3.675034 14.276474 0.029147 -0.039127 -0.008988
    21 -15.633809 7.069125 16.813112 -0.287833 0.000000 0.000000
    22 -6.249312 1.413335 0.936005 0.208048 0.796816 -0.835852
    23 -13.856888 6.374216 0.000000 -0.184846 -0.765144 -0.391447
    24 -5.687840 2.494701 12.855103 0.008030 0.024047 0.009150
  time 2
    0 5.807106 1.410199 -67.125213 1.570796 0.000000 1.545389
    1 6.265787 5.827493 0.000000 -0.009295 0.094531 0.122613
    2 -1.211985 121.072578 2.116671 0.009372 0.004342 -0.129539
    3 -2.423956 108.889275 3.327682 0.038638 0.006939 -0.339579
    4 -8.483835 103.017944 0.000000 0.017677 0.002013 -0.266013
    5 -7.271858 79.990417 0.000000 -0.068768 -0.007694 0.322624
    6 -6.059879 73.930542 0.000000 -0.059410 -0.022064 0.350125
    7 -7.271858 77.566437 0.000000 -0.060570 0.005713 0.221375
    8 -7.271864 68.661316 0.902174 0.146601 0.082406 -0.154443
    9 -10.228978 63.180118 -0.324228 -0.018905 -0.107923 0.157480
    10 -4.847914 27.875425 0.000000 0.000000 0.000000 0.000000
    11 -10.884169 43.721066 -0.263436 0.000000 -1.570796 0.287833
    12 1.645461 3.130692 15.347058 -1.570797 1.282964 -1.570797
    13 -1.061229 0.200707 -0.378920 0.000000 0.000000 0.000000
    14 -4.349673 0.059656 0.000000 0.000000 0.000000 0.000000
    15 -4.230510 -0.536228 0.000000 0.000000 0.000000 0.000000
    16 -3.694255 -0.655429 0.000000 0.000000 0.000000 0.000000
    17 13.641458 7.020348 16.879305 -0.287833 0.000000 0.000000
    18 4.472665 2.448845 0.720848 0.456992 -0.663127 0.822771
    19 15.242571 6.789905 0.000000 -0.331063 0.238666 -0.045818
    20 8.366559 3.675034 14.276474 0.064765 -0.085809 -0.021345
    21 -15.633809 7.069125 16.813112 -0.287833 0.000000 0.000000
    22 -6.249312 1.413335 0.936005 0.336817 0.884679 -0.737232
    23 -13.856888 6.374216 0.000000 -0.168136 -0.656689 -0.364976
    24 -5.687840 2.494701 12.855103 0.018093 0.053134 0.020532
  time 3
    0 5.807106 1.410199 -67.125213 1.570796 0.000000 1.545389
    1 6.265787 9.179144 0.000000 -0.009870 0.094582 0.100180
    2 -1.211985 121.072578 2.116671 0.011476 0.005034 -0.160996
    3 -2.423956 108.889275 3.327682 0.039861 0.007634 -0.358981
    4 -8.483835 103.017944 0.000000 0.018265 0.002140 -0.274557
    5 -7.271858 79.990417 0.000000 -0.069499 -0.007420 0.333730
    6 -6.059879 73.930542 0.000000 -0.058500 -0.021791 0.337265
    7 -7.271858 77.566437 0.000000 -0.062931 0.003320 0.257138
    8 -7.271864 68.661316 0.902174 0.141433 0.070025 -0.063734
    9 -10.228978 63.180118 -0.324228 -0.038114 -0.102159 0.310391
    10 -4.847914 27.875425 0.000000 0.000000 0.000000 0.000000
    11 -10.884169 43.721066 -0.263436 0.000000 -1.570796 0.287833
    12 1.645461 3.130692 15.347058 -1.570797 1.282964 -1.570797
    13 -1.061229 0.200707 -0.378920 0.000000 0.000000 0.000000
    14 -4.349673 0.059656 0.000000 0.000000 0.000000 0.000000
    15 -4.230510 -0.536228 0.000000 0.000000 0.000000 0.000000
    16 -3.694255 -0.655429 0.000000 0.000000 0.000000 0.000000
    17 13.641458 7.020348 16.879305 -0.287833 0.000000 0.000000
    18 4.472665 2.448845 0.720848 0.662333 -0.804850 0.688895
    19 15.242571 6.789905 0.000000 -0.272806 0.160284 -0.038549
    20 8.366559 3.675034 14.276474 0.103607 -0.135096 -0.036445
    21 -15.633809 7.069125 16.813112 -0.287833 0.000000 0.000000
    22 -6.249312 1.413335 0.936005 0.501691 0.964987 -0.602715
    23 -13.856888 6.374216 0.000000 -0.148430 -0.544088 -0.337134
    24 -5.687840 2.494701 12.855103 0.029261 0.084146 0.033064
  time 4
    0 5.807106 1.410199 -67.125213 1.570796 0.000000 1.545389
    1 6.265787 12.062285 0.000000 -0.010445 0.094633 0.078227
    2 -1.211985 121.072578 2.116671 0.013484 0.005768 -0.191061
    3 -2.423956 108.889275 3.327682 0.041011 0.008317 -0.377250
    4 -8.483835 103.017944 0.000000 0.018768 0.002266 -0.281877
    5 -7.271858 79.990417 0.000000 -0.070158 -0.007166 0.343581
    6 -6.059879 73.930542 0.000000 -0.057591 -0.021490 0.324114
    7 -7.271858 77.566437 0.000000 -0.065244 0.001123 0.291100
    8 -7.271864 68.661316 0.902174 0.135393 0.058471 0.024175
    9 -10.228978 63.176211 -0.324228 -0.055523 -0.093956 0.457106
    10 -4.847914 27.875425 0.000000 0.000000 0.000000 0.000000
    11 -10.884169 43.721066 -0.263436 0.000000 -1.570796 0.287833
    12 1.645461 3.130692 15.347058 -1.570797 1.282964 -1.570797
    13 -1.061229 0.200707 -0.378920 0.000000 0.000000 0.000000
    14 -4.349673 0.059656 0.000000 0.000000 0.000000 0.000000
    15 -4.230510 -0.536228 0.000000 0.000000 0.000000 0.000000
    16 -3.694255 -0.655429 0.000000 0.000000 0.000000 0.000000
    17 13.641458 7.020348 16.879305 -0.287833 0.000000 0.000000
    18 4.472665 2.448845 0.720848 0.923283 -0.917497 0.494322
    19 15.242571 6.789905 0.000000 -0.216743 0.083130 -0.035951
    20 8.366559 3.675034 14.276474 0.142233 -0.182221 -0.053020
    21 -15.633809 7.069125 16.813112 -0.287833 0.000000 0.000000
    22 -6.249312 1.413335 0.936005 0.701067 1.028201 -0.432551
    23 -13.856888 6.374216 0.000000 -0.126918 -0.434239 -0.309069
    24 -5.687840 2.494701 12.855103 0.040459 0.114003 0.045551
  time 5
    0 5.807106 1.410199 -67.125213 1.570796 0.000000 1.545389
    1 6.265787 14.512955 0.000000 -0.010924 0.094685 0.057999
    2 -1.211985 121.072578 2.116671 0.015254 0.006481 -0.217786
    3 -2.423956 108.889275 3.327682 0.041970 0.008905 -0.392705
    4 -8.483835 103.017944 0.000000 0.019067 0.002329 -0.286210
    5 -7.271858 79.990417 0.000000 -0.070601 -0.006976 0.350405
    6 -6.059879 73.930542 0.000000 -0.056663 -0.021190 0.310800
    7 -7.271858 77.566437 0.000000 -0.067317 -0.000700 0.320522
    8 -7.271864 68.661316 0.902174 0.128928 0.048334 0.105313
    9 -10.228978 63.176211 -0.324228 -0.069968 -0.084492 0.588574
    10 -4.847914 27.875425 0.000000 0.000000 0.000000 0.000000
    11 -10.884169 43.721066 -0.263436 0.000000 -1.570796 0.287833
    12 1.645461 3.130692 15.347058 -1.570797 1.282964 -1.570797
    13 -1.061229 0.200707 -0.378920 0.000000 0.000000 0.000000
    14 -4.349673 0.059656 0.000000 0.000000 0.000000 0.000000
    15 -4.230510 -0.536228 0.000000 0.000000 0.000000 0.000000
    16 -3.694255 -0.655429 0.000000 0.000000 0.000000 0.000000
    17 13.641458 7.020348 16.879305 -0.287833 0.000000 0.000000
    18 4.472665 2.448845 0.720848 1.222559 -0.984427 0.253863
    19 15.242571 6.789905 0.000000 -0.165465 0.012005 -0.037398
    20 8.366559 3.675034 14.276474 0.176797 -0.222678 -0.069079
    21 -15.633809 7.069125 16.813112 -0.287833 0.000000 0.000000
    22 -6.249312 1.413335 0.936005 0.919107 1.067649 -0.241024
    23 -13.856888 6.374216 0.000000 -0.105099 -0.333936 -0.282199
    24 -5.687840 2.494701 12.855103 0.050463 0.139663 0.056646
  time 6
    0 5.807106 1.410199 -67.125213 1.570796 0.000000 1.545389
    1 6.265787 16.495114 0.000000 -0.011404 0.094685 0.040168
    2 -1.211985 121.072578 2.116671 0.016640 0.007086 -0.239221
    3 -2.423956 108.889275 3.327682 0.042641 0.009324 -0.403695
    4 -8.483835 103.017944 0.000000 0.019032 0.002329 -0.285721
    5 -7.271858 79.990417 0.000000 -0.070733 -0.006933 0.352369
    6 -6.059879 73.930542 0.000000 -0.055735 -0.020861 0.297518
    7 -7.271858 77.566437 0.000000 -0.068911 -0.002034 0.342736
    8 -7.271864 68.661316 0.902174 0.122696 0.040004 0.175605
    9 -10.228978 63.180118 -0.324228 -0.080763 -0.075400 0.695963
    10 -4.847914 27.875425 0.000000 0.000000 0.000000 0.000000
    11 -10.884169 43.721066 -0.263436 0.000000 -1.570796 0.287833
    12 1.645461 3.130692 15.347058 -1.570797 1.282964 -1.570797
    13 -1.061229 0.200707 -0.378920 0.000000 0.000000 0.000000
    14 -4.349673 0.059656 0.000000 0.000000 0.000000 0.000000
    15 -4.230510 -0.536228 0.000000 0.000000 0.000000 0.000000
    16 -3.694255 -0.655429 0.000000 0.000000 0.000000 0.000000
    17 13.641458 7.020348 16.879305 -0.287833 0.000000 0.000000
    18 4.472665 2.448845 0.720848 1.504738 -1.004268 0.019998
    19 15.242571 6.789905 0.000000 -0.121731 -0.048315 -0.041493
    20 8.366559 3.675034 14.276474 0.202947 -0.252180 -0.081951
    21 -15.633809 7.069125 16.813112 -0.287833 0.000000 0.000000
    22 -6.249312 1.413335 0.936005 1.124798 1.083330 -0.057818
    23 -13.856888 6.374216 0.000000 -0.085086 -0.249764 -0.258416
    24 -5.687840 2.494701 12.855103 0.057918 0.158193 0.064868
  time 7
    0 5.807106 1.410199 -67.125213 1.570796 0.000000 1.545389
    1 6.265787 18.044802 0.000000 -0.011787 0.094710 0.025884
    2 -1.211985 121.072578 2.116671 0.017549 0.007496 -0.253419
    3 -2.423956 108.889275 3.327682 0.042929 0.009516 -0.408492
    4 -8.483835 103.017944 0.000000 0.018540 0.002203 -0.278621
    5 -7.271858 79.990417 0.000000 -0.070421 -0.007060 0.347637
    6 -6.059879 73.930542 0.000000 -0.054844 -0.020533 0.284367
    7 -7.271858 77.566437 0.000000 -0.069810 -0.002767 0.355004
    8 -7.271864 68.661316 0.902174 0.117379 0.033788 0.230867
    9 -10.228978 63.180118 -0.324228 -0.087656 -0.068431 0.770441
    10 -4.847914 27.875425 0.000000 0.000000 0.000000 0.000000
    11 -10.884169 43.721066 -0.263436 0.000000 -1.570796 0.287833
    12 1.645461 3.130692 15.347058 -1.570797 1.282964 -1.570797
    13 -1.061229 0.200707 -0.378920 0.000000 0.000000 0.000000
    14 -4.349673 0.059656 0.000000 0.000000 0.000000 0.000000
    15 -4.230510 -0.536228 0.000000 0.000000 0.000000 0.000000
    16 -3.694255 -0.655429 0.000000 0.000000 0.000000 0.000000
    17 13.641458 7.020348 16.879305 -0.287833 0.000000 0.000000
    18 4.472665 2.448845 0.720848 1.708952 -0.996085 -0.149713
    19 15.242571 6.789905 0.000000 -0.088698 -0.093375 -0.046295
    20 8.366559 3.675034 14.276474 0.216070 -0.266626 -0.088638
    21 -15.633809 7.069125 16.813112 -0.287833 0.000000 0.000000
    22 -6.249312 1.413335 0.936005 1.285053 1.083021 0.085330
    23 -13.856888 6.374216 0.000000 -0.069298 -0.188238 -0.240113
    24 -5.687840 2.494701 12.855103 0.061381 0.166625 0.068669
  time 8
    0 5.807106 1.410199 -67.125213 1.570796 0.000000 1.545389
    1 6.265787 19.162019 0.000000 -0.012074 0.094710 0.015147
    2 -1.211985 121.072578 2.116671 0.017883 0.007669 -0.258986
    3 -2.423956 108.889275 3.327682 0.042725 0.009384 -0.405065
    4 -8.483835 103.017944 0.000000 0.017593 0.001988 -0.264814
    5 -7.271858 79.990417 0.000000 -0.069511 -0.007420 0.333859
    6 -6.059879 73.930542 0.000000 -0.053953 -0.020205 0.271507
    7 -7.271858 77.566437 0.000000 -0.069870 -0.002816 0.355835
    8 -7.271864 68.661316 0.902174 0.113444 0.029584 0.269823
    9 -10.228978 63.176211 -0.324228 -0.091103 -0.064530 0.809987
    10 -4.847914 27.875425 0.000000 0.000000 0.000000 0.000000
    11 -10.884169 43.721066 -0.263436 0.000000 -1.570796 0.287833
    12 1.645461 3.130692 15.347058 -1.570797 1.282964 -1.570797
    13 -1.061229 0.200707 -0.378920 0.000000 0.000000 0.000000
    14 -4.349673 0.059656 0.000000 0.000000 0.000000 0.000000
    15 -4.230510 -0.536228 0.000000 0.000000 0.000000 0.000000
    16 -3.694255 -0.655429 0.000000 0.000000 0.000000 0.000000
    17 13.641458 7.020348 16.879305 -0.287833 0.000000 0.000000
    18 4.472665 2.448845 0.720848 1.803638 -0.985616 -0.227866
    19 15.242571 6.789905 0.000000 -0.069921 -0.118693 -0.049683
    20 8.366559 3.675034 14.276474 0.211684 -0.261823 -0.086385
    21 -15.633809 7.069125 16.813112 -0.287833 0.000000 0.000000
    22 -6.249312 1.413335 0.936005 1.378001 1.077809 0.168239
    23 -13.856888 6.374216 0.000000 -0.060540 -0.155697 -0.230102
    24 -5.687840 2.494701 12.855103 0.059465 0.161969 0.066569
  time 9
    0 5.807106 1.410199 -67.125213 1.570796 0.000000 1.545389
    1 6.265787 19.846765 0.000000 -0.012266 0.094710 0.006806
    2 -1.211985 121.072578 2.116671 0.017788 0.007626 -0.257594
    3 -2.423956 108.889275 3.327682 0.042054 0.008952 -0.394218
    4 -8.483835 103.017944 0.000000 0.016299 0.001722 -0.246110
    5 -7.271858 79.990417 0.000000 -0.068049 -0.007969 0.311872
    6 -6.059879 73.930542 0.000000 -0.053098 -0.019877 0.259038
    7 -7.271858 77.566437 0.000000 -0.069247 -0.002311 0.347379
    8 -7.271864 68.661316 0.902174 0.110701 0.026850 0.295948
    9 -10.228978 63.176211 -0.324228 -0.092192 -0.063240 0.822773
    10 -4.847914 27.875425 0.000000 0.000000 0.000000 0.000000
    11 -10.884169 43.721066 -0.263436 0.000000 -1.570796 0.287833
    12 1.645461 3.130692 15.347058 -1.570797 1.282964 -1.570797
    13 -1.061229 0.200707 -0.378920 0.000000 0.000000 0.000000
    14 -4.349673 0.059656 0.000000 0.000000 0.000000 0.000000
    15 -4.230510 -0.536228 0.000000 0.000000 0.000000 0.000000
    16 -3.694255 -0.655429 0.000000 0.000000 0.000000 0.000000
    17 13.641458 7.020348 16.879305 -0.287833 0.000000 0.000000
    18 4.472665 2.448845 0.720848 1.755074 -0.991513 -0.187816
    19 15.242571 6.789905 0.000000 -0.070320 -0.118132 -0.049601
    20 8.366559 3.675034 14.276474 0.179062 -0.225282 -0.070170
    21 -15.633809 7.069125 16.813112 -0.287833 0.000000 0.000000
    22 -6.249312 1.413335 0.936005 1.386202 1.077190 0.175505
    23 -13.856888 6.374216 0.000000 -0.062307 -0.162073 -0.232069
    24 -5.687840 2.494701 12.855103 0.048857 0.135613 0.054856
  time 10
    0 5.807106 1.410199 -67.125213 1.570796 0.000000 1.545389
    1 6.265787 20.063001 0.000000 -0.012458 0.094710 0.000575
    2 -1.211985 121.072578 2.116671 0.017405 0.007432 -0.251099
    3 -2.423956 108.889275 3.327682 0.041095 0.008365 -0.378573
    4 -8.483835 103.017944 0.000000 0.014729 0.001431 -0.223514
    5 -7.271858 79.990417 0.000000 -0.066227 -0.008603 0.284702
    6 -6.059879 73.930542 0.000000 -0.052297 -0.019522 0.247088
    7 -7.271858 77.566437 0.000000 -0.068156 -0.001416 0.332305
    8 -7.271864 68.661316 0.902174 0.108936 0.025147 0.312572
    9 -10.228978 63.176211 -0.324228 -0.091559 -0.063985 0.815347
    10 -4.847914 27.875425 0.000000 0.000000 0.000000 0.000000
    11 -10.884169 43.721066 -0.263436 0.000000 -1.570796 0.287833
    12 1.645461 3.130692 15.347058 -1.570797 1.282964 -1.570797
    13 -1.061229 0.200707 -0.378920 0.000000 0.000000 0.000000
    14 -4.349673 0.059656 0.000000 0.000000 0.000000 0.000000
    15 -4.230510 -0.536228 0.000000 0.000000 0.000000 0.000000
    16 -3.694255 -0.655429 0.000000 0.000000 0.000000 0.000000
    17 13.641458 7.020348 16.879305 -0.287833 0.000000 0.000000
    18 4.472665 2.448845 0.720848 1.561287 -1.003903 -0.027078
    19 15.242571 6.789905 0.000000 -0.089030 -0.092921 -0.046246
    20 8.366559 3.675034 14.276474 0.119654 -0.154917 -0.043145
    21 -15.633809 7.069125 16.813112 -0.287833 0.000000 0.000000
    22 -6.249312 1.413335 0.936005 1.314653 1.081740 0.111724
    23 -13.856888 6.374216 0.000000 -0.073984 -0.206006 -0.245492
    24 -5.687840 2.494701 12.855103 0.030145 0.086566 0.034058
  time 11
    0 5.807106 1.410199 -67.125213 1.570796 0.000000 1.545389
    1 6.265787 19.846765 0.000000 -0.012553 0.094710 -0.004026
    2 -1.211985 121.072578 2.116671 0.016784 0.007151 -0.241819
    3 -2.423956 108.889275 3.327682 0.039981 0.007706 -0.360825
    4 -8.483835 103.017944 0.000000 0.012955 0.001139 -0.198004
    5 -7.271858 79.990417 0.000000 -0.064237 -0.009238 0.255215
    6 -6.059879 73.930542 0.000000 -0.051533 -0.019221 0.235852
    7 -7.271858 77.566437 0.000000 -0.066802 -0.000244 0.313245
    8 -7.271864 68.661316 0.902174 0.107808 0.024090 0.322994
    9 -10.228978 63.176211 -0.324228 -0.089734 -0.066108 0.794080
    10 -4.847914 27.875425 0.000000 0.000000 0.000000 0.000000
    11 -10.884169 43.721066 -0.263436 0.000000 -1.570796 0.287833
    12 1.645461 3.130692 15.347058 -1.570797 1.282964 -1.570797
    13 -1.061229 0.200707 -0.378920 0.000000 0.000000 0.000000
    14 -4.349673 0.059656 0.000000 0.000000 0.000000 0.000000
    15 -4.230510 -0.536228 0.000000 0.000000 0.000000 0.000000
    16 -3.694255 -0.655429 0.000000 0.000000 0.000000 0.000000
    17 13.641458 7.020348 16.879305 -0.287833 0.000000 0.000000
    18 4.472665 2.448845 0.720848 1.267178 -0.990050 0.217165
    19 15.242571 6.789905 0.000000 -0.120800 -0.049622 -0.041608
    20 8.366559 3.675034 14.276474 0.046704 -0.062311 -0.014897
    21 -15.633809 7.069125 16.813112 -0.287833 0.000000 0.000000
    22 -6.249312 1.413335 0.936005 1.181830 1.084435 -0.006831
    23 -13.856888 6.374216 0.000000 -0.091731 -0.276939 -0.266236
    24 -5.687840 2.494701 12.855103 0.007824 0.023424 0.008907
  time 12
    0 5.807106 1.410199 -67.125213 1.570796 0.000000 1.545389
    1 6.265787 19.162019 0.000000 -0.012649 0.094710 -0.007765
    2 -1.211985 121.072578 2.116671 0.016162 0.006870 -0.231890
    3 -2.423956 108.889275 3.327682 0.038890 0.007083 -0.343597
    4 -8.483835 103.017944 0.000000 0.011038 0.000886 -0.170634
    5 -7.271858 79.990417 0.000000 -0.062272 -0.009787 0.226403
    6 -6.059879 73.930542 0.000000 -0.050842 -0.018893 0.225396
    7 -7.271858 77.566437 0.000000 -0.065376 0.001009 0.292937
    8 -7.271864 68.661316 0.902174 0.106979 0.023342 0.330509
    9 -10.228978 63.176211 -0.324228 -0.087225 -0.068890 0.765519
    10 -4.847914 27.875425 0.000000 0.000000 0.000000 0.000000
    11 -10.884169 43.721066 -0.263436 0.000000 -1.570796 0.287833
    12 1.645461 3.130692 15.347058 -1.570797 1.282964 -1.570797
    13 -1.061229 0.200707 -0.378920 0.000000 0.000000 0.000000
    14 -4.349673 0.059656 0.000000 0.000000 0.000000 0.000000
    15 -4.230510 -0.536228 0.000000 0.000000 0.000000 0.000000
    16 -3.694255 -0.655429 0.000000 0.000000 0.000000 0.000000
    17 13.641458 7.020348 16.879305 -0.287833 0.000000 0.000000
    18 4.472665 2.448845 0.720848 0.953906 -0.926961 0.470379
    19 15.242571 6.789905 0.000000 -0.160513 0.005149 -0.037727
    20 8.366559 3.675034 14.276474 -0.029015 0.039644 0.007898
    21 -15.633809 7.069125 16.813112 -0.287833 0.000000 0.000000
    22 -6.249312 1.413335 0.936005 1.011112 1.076969 -0.159234
    23 -13.856888 6.374216 0.000000 -0.111937 -0.364351 -0.290491
    24 -5.687840 2.494701 12.855103 -0.014395 -0.044978 -0.016532
  time 13
    0 5.807106 1.410199 -67.125213 1.570796 0.000000 1.545389
    1 6.265787 18.044802 0.000000 -0.012745 0.094710 -0.010929
    2 -1.211985 121.072578 2.116671 0.015588 0.006632 -0.223261
    3 -2.423956 108.889275 3.327682 0.038003 0.006592 -0.329559
    4 -8.483835 103.017944 0.000000 0.009060 0.000671 -0.142359
    5 -7.271858 79.990417 0.000000 -0.060534 -0.010231 0.201230
    6 -6.059879 73.930542 0.000000 -0.050205 -0.018619 0.215913
    7 -7.271858 77.566437 0.000000 -0.064070 0.002230 0.273946
    8 -7.271864 68.661316 0.902174 0.106128 0.022568 0.338413
    9 -10.228978 63.180118 -0.324228 -0.084565 -0.071700 0.736124
    10 -4.847914 27.875425 0.000000 0.000000 0.000000 0.000000
    11 -10.884169 43.721066 -0.263436 0.000000 -1.570796 0.287833
    12 1.645461 3.130692 15.347058 -1.570797 1.282964 -1.570797
    13 -1.061229 0.200707 -0.378920 0.000000 0.000000 0.000000
    14 -4.349673 0.059656 0.000000 0.000000 0.000000 0.000000
    15 -4.230510 -0.536228 0.000000 0.000000 0.000000 0.000000
    16 -3.694255 -0.655429 0.000000 0.000000 0.000000 0.000000
    17 13.641458 7.020348 16.879305 -0.287833 0.000000 0.000000
    18 4.472665 2.448845 0.720848 0.694177 -0.822131 0.666303
    19 15.242571 6.789905 0.000000 -0.203450 0.064669 -0.035984
    20 8.366559 3.675034 14.276474 -0.098765 0.136924 0.022399
    21 -15.633809 7.069125 16.813112 -0.287833 0.000000 0.000000
    22 -6.249312 1.413335 0.936005 0.832098 1.055015 -0.317846
    23 -13.856888 6.374216 0.000000 -0.131643 -0.457442 -0.315095
    24 -5.687840 2.494701 12.855103 -0.033711 -0.109495 -0.039097
  time 14
    0 5.807106 1.410199 -67.125213 1.570796 0.000000 1.545389
    1 6.265787 16.495114 0.000000 -0.012745 0.094710 -0.014092
    2 -1.211985 121.072578 2.116671 0.015254 0.006503 -0.218157
    3 -2.423956 108.889275 3.327682 0.037476 0.006316 -0.321311
    4 -8.483835 103.017944 0.000000 0.007071 0.000519 -0.114230
    5 -7.271858 79.990417 0.000000 -0.059252 -0.010527 0.182591
    6 -6.059879 73.930542 0.000000 -0.049641 -0.018373 0.207503
    7 -7.271858 77.566437 0.000000 -0.063051 0.003190 0.259044
    8 -7.271864 68.661316 0.902174 0.104831 0.021433 0.349969
    9 -10.228978 63.180118 -0.324228 -0.082335 -0.073909 0.712396
    10 -4.847914 27.875425 0.000000 0.000000 0.000000 0.000000
    11 -10.884169 43.721066 -0.263436 0.000000 -1.570796 0.287833
    12 1.645461 3.130692 15.347058 -1.570797 1.282964 -1.570797
    13 -1.061229 0.200707 -0.378920 0.000000 0.000000 0.000000
    14 -4.349673 0.059656 0.000000 0.000000 0.000000 0.000000
    15 -4.230510 -0.536228 0.000000 0.000000 0.000000 0.000000
    16 -3.694255 -0.655429 0.000000 0.000000 0.000000 0.000000
    17 13.641458 7.020348 16.879305 -0.287833 0.000000 0.000000
    18 4.472665 2.448845 0.720848 0.508562 -0.704090 0.791370
    19 15.242571 6.789905 0.000000 -0.244957 0.122107 -0.036724
    20 8.366559 3.675034 14.276474 -0.154158 0.215011 0.029147
    21 -15.633809 7.069125 16.813112 -0.287833 0.000000 0.000000
    22 -6.249312 1.413335 0.936005 0.672126 1.020868 -0.457517
    23 -13.856888 6.374216 0.000000 -0.148622 -0.545202 -0.337408
    24 -5.687840 2.494701 12.855103 -0.048032 -0.160705 -0.056160
  time 15
    0 5.807106 1.410199 -67.125213 1.570796 0.000000 1.545389
    1 6.265787 14.512955 0.000000 -0.012841 0.094710 -0.017639
    2 -1.211985 121.072578 2.116671 0.015301 0.006503 -0.218621
    3 -2.423956 108.889275 3.327682 0.037488 0.006316 -0.321547
    4 -8.483835 103.017944 0.000000 0.005177 0.000418 -0.087227
    5 -7.271858 79.990417 0.000000 -0.058617 -0.010654 0.173513
    6 -6.059879 73.930542 0.000000 -0.049168 -0.018155 0.200326
    7 -7.271858 77.566437 0.000000 -0.062500 0.003743 0.250797
    8 -7.271864 68.661316 0.902174 0.102747 0.019628 0.368543
    9 -10.228978 63.176211 -0.324228 -0.081245 -0.074970 0.700796
    10 -4.847914 27.875425 0.000000 0.000000 0.000000 0.000000
    11 -10.884169 43.721066 -0.263436 0.000000 -1.570796 0.287833
    12 1.645461 3.130692 15.347058 -1.570797 1.282964 -1.570797
    13 -1.061229 0.200707 -0.378920 0.000000 0.000000 0.000000
    14 -4.349673 0.059656 0.000000 0.000000 0.000000 0.000000
    15 -4.230510 -0.536228 0.000000 0.000000 0.000000 0.000000
    16 -3.694255 -0.655429 0.000000 0.000000 0.000000 0.000000
    17 13.641458 7.020348 16.879305 -0.287833 0.000000 0.000000
    18 4.472665 2.448845 0.720848 0.390768 -0.604472 0.860389
    19 15.242571 6.789905 0.000000 -0.280350 0.170582 -0.039240
    20 8.366559 3.675034 14.276474 -0.185857 0.259495 0.031040
    21 -15.633809 7.069125 16.813112 -0.287833 0.000000 0.000000
    22 -6.249312 1.413335 0.936005 0.547976 0.982525 -0.563776
    23 -13.856888 6.374216 0.000000 -0.161375 -0.616449 -0.355089
    24 -5.687840 2.494701 12.855103 -0.055635 -0.189169 -0.065332
  time 16
    0 5.807106 1.410199 -67.125213 1.570796 0.000000 1.545389
    1 6.265787 12.062285 0.000000 -0.012937 0.094710 -0.020899
    2 -1.211985 121.072578 2.116671 0.015875 0.006740 -0.227436
    3 -2.423956 108.889275 3.327682 0.038423 0.006831 -0.336247
    4 -8.483835 103.017944 0.000000 0.003248 0.000367 -0.059881
    5 -7.271858 79.990417 0.000000 -0.059120 -0.010548 0.180788
    6 -6.059879 73.930542 0.000000 -0.049096 -0.018100 0.199287
    7 -7.271858 77.566437 0.000000 -0.062584 0.003662 0.251975
    8 -7.271864 68.661316 0.902174 0.099705 0.017152 0.395164
    9 -10.228978 63.176211 -0.324228 -0.081219 -0.074999 0.700532
    10 -4.847914 27.875425 0.000000 0.000000 0.000000 0.000000
    11 -10.884169 43.721066 -0.263436 0.000000 -1.570796 0.287833
    12 1.645461 3.130692 15.347058 -1.570797 1.282964 -1.570797
    13 -1.061229 0.200707 -0.378920 0.000000 0.000000 0.000000
    14 -4.349673 0.059656 0.000000 0.000000 0.000000 0.000000
    15 -4.230510 -0.536228 0.000000 0.000000 0.000000 0.000000
    16 -3.694255 -0.655429 0.000000 0.000000 0.000000 0.000000
    17 13.641458 7.020348 16.879305 -0.287833 0.000000 0.000000
    18 4.472665 2.448845 0.720848 0.321632 -0.535576 0.895898
    19 15.242571 6.789905 0.000000 -0.311389 0.212494 -0.042858
    20 8.366559 3.675034 14.276474 -0.182897 0.255375 0.030920
    21 -15.633809 7.069125 16.813112 -0.287833 0.000000 0.000000
    22 -6.249312 1.413335 0.936005 0.445319 0.940913 -0.649541
    23 -13.856888 6.374216 0.000000 -0.170633 -0.672088 -0.368736
    24 -5.687840 2.494701 12.855103 -0.054368 -0.184330 -0.063785
  time 17
    0 5.807106 1.410199 -67.125213 1.570796 0.000000 1.545389
    1 6.265787 9.179144 0.000000 -0.013033 0.094710 -0.022816
    2 -1.211985 121.072578 2.116671 0.016927 0.007216 -0.243768
    3 -2.423956 108.889275 3.327682 0.040268 0.007874 -0.365480
    4 -8.483835 103.017944 0.000000 0.001174 0.000380 -0.030577
    5 -7.271858 79.990417 0.000000 -0.060762 -0.010168 0.204545
    6 -6.059879 73.930542 0.000000 -0.049587 -0.018346 0.206756
    7 -7.271858 77.566437 0.000000 -0.063207 0.003044 0.261228
    8 -7.271864 68.661316 0.902174 0.095983 0.014263 0.427137
    9 -10.228978 63.176211 -0.324228 -0.081650 -0.074568 0.705102
    10 -4.847914 27.875425 0.000000 0.000000 0.000000 0.000000
    11 -10.884169 43.721066 -0.263436 0.000000 -1.570796 0.287833
    12 1.645461 3.130692 15.347058 -1.570797 1.282964 -1.570797
    13 -1.061229 0.200707 -0.378920 0.000000 0.000000 0.000000
    14 -4.349673 0.059656 0.000000 0.000000 0.000000 0.000000
    15 -4.230510 -0.536228 0.000000 0.000000 0.000000 0.000000
    16 -3.694255 -0.655429 0.000000 0.000000 0.000000 0.000000
    17 13.641458 7.020348 16.879305 -0.287833 0.000000 0.000000
    18 4.472665 2.448845 0.720848 0.276450 -0.486202 0.916653
    19 15.242571 6.789905 0.000000 -0.343160 0.254593 -0.047890
    20 8.366559 3.675034 14.276474 -0.149975 0.209100 0.028787
    21 -15.633809 7.069125 16.813112 -0.287833 0.000000 0.000000
    22 -6.249312 1.413335 0.936005 0.347658 0.890907 -0.728661
    23 -13.856888 6.374216 0.000000 -0.178469 -0.722048 -0.380913
    24 -5.687840 2.494701 12.855103 -0.045218 -0.150386 -0.052778
  time 18
    0 5.807106 1.410199 -67.125213 1.570796 0.000000 1.545389
    1 6.265787 5.827493 0.000000 -0.013033 0.094710 -0.024062
    2 -1.211985 121.072578 2.116671 0.018218 0.007820 -0.264368
    3 -2.423956 108.889275 3.327682 0.042593 0.009300 -0.403009
    4 -8.483835 103.017944 0.000000 -0.000959 0.000456 -0.000147
    5 -7.271858 79.990417 0.000000 -0.063039 -0.009576 0.237735
    6 -6.059879 73.930542 0.000000 -0.050424 -0.018729 0.219128
    7 -7.271858 77.566437 0.000000 -0.064142 0.002148 0.275124
    8 -7.271864 68.661316 0.902174 0.091772 0.011245 0.462159
    9 -10.228978 63.180118 -0.324228 -0.082335 -0.073909 0.712352
    10 -4.847914 27.875425 0.000000 0.000000 0.000000 0.000000
    11 -10.884169 43.721066 -0.263436 0.000000 -1.570796 0.287833
    12 1.645461 3.130692 15.347058 -1.570797 1.282964 -1.570797
    13 -1.061229 0.200707 -0.378920 0.000000 0.000000 0.000000
    14 -4.349673 0.059656 0.000000 0.000000 0.000000 0.000000
    15 -4.230510 -0.536228 0.000000 0.000000 0.000000 0.000000
    16 -3.694255 -0.655429 0.000000 0.000000 0.000000 0.000000
    17 13.641458 7.020348 16.879305 -0.287833 0.000000 0.000000
    18 4.472665 2.448845 0.720848 0.243854 -0.448439 0.930381
    19 15.242571 6.789905 0.000000 -0.375661 0.296718 -0.054419
    20 8.366559 3.675034 14.276474 -0.100203 0.138956 0.022627
    21 -15.633809 7.069125 16.813112 -0.287833 0.000000 0.000000
    22 -6.249312 1.413335 0.936005 0.258575 0.834364 -0.798031
    23 -13.856888 6.374216 0.000000 -0.185345 -0.768802 -0.392344
    24 -5.687840 2.494701 12.855103 -0.030956 -0.100000 -0.035848
  time 19
    0 5.807106 1.410199 -67.125213 1.570796 0.000000 1.545389
    1 6.265787 2.079410 0.000000 -0.013033 0.094710 -0.025021
    2 -1.211985 121.072578 2.116671 0.019605 0.008490 -0.286082
    3 -2.423956 108.889275 3.327682 0.044990 0.010894 -0.442594
    4 -8.483835 103.017944 0.000000 -0.003128 0.000595 0.030528
    5 -7.271858 79.990417 0.000000 -0.065460 -0.008857 0.273274
    6 -6.059879 73.930542 0.000000 -0.051333 -0.019112 0.232702
    7 -7.271858 77.566437 0.000000 -0.065184 0.001188 0.290164
    8 -7.271864 68.661316 0.902174 0.087370 0.008305 0.497961
    9 -10.228978 63.176211 -0.324228 -0.083095 -0.073163 0.720349
    10 -4.847914 27.875425 0.000000 0.000000 0.000000 0.000000
    11 -10.884169 43.721066 -0.263436 0.000000 -1.570796 0.287833
    12 1.645461 3.130692 15.347058 -1.570797 1.282964 -1.570797
    13 -1.061229 0.200707 -0.378920 0.000000 0.000000 0.000000
    14 -4.349673 0.059656 0.000000 0.000000 0.000000 0.000000
    15 -4.230510 -0.536228 0.000000 0.000000 0.000000 0.000000
    16 -3.694255 -0.655429 0.000000 0.000000 0.000000 0.000000
    17 13.641458 7.020348 16.879305 -0.287833 0.000000 0.000000
    18 4.472665 2.448845 0.720848 0.214828 -0.413329 0.941623
    19 15.242571 6.789905 0.000000 -0.408960 0.338630 -0.062494
    20 8.366559 3.675034 14.276474 -0.046093 0.063253 0.012056
    21 -15.633809 7.069125 16.813112 -0.287833 0.000000 0.000000
    22 -6.249312 1.413335 0.936005 0.179579 0.773624 -0.856595
    23 -13.856888 6.374216 0.000000 -0.191683 -0.814825 -0.403650
    24 -5.687840 2.494701 12.855103 -0.014631 -0.045748 -0.016819
  time 20
    0 5.807106 1.410199 -67.125213 1.570796 0.000000 1.545389
    1 6.265787 -2.137183 0.000000 -0.013128 0.094710 -0.026459
    2 -1.211985 121.072578 2.116671 0.020848 0.009117 -0.305568
    3 -2.423956 108.889275 3.327682 0.047075 0.012404 -0.478043
    4 -8.483835 103.017944 0.000000 -0.005237 0.000798 0.060665
    5 -7.271858 79.990417 0.000000 -0.067533 -0.008160 0.304114
    6 -6.059879 73.930542 0.000000 -0.052079 -0.019440 0.243873
    7 -7.271858 77.566437 0.000000 -0.066071 0.000391 0.302883
    8 -7.271864 68.661316 0.902174 0.083073 0.005648 0.532274
    9 -10.228978 63.176211 -0.324228 -0.083703 -0.072561 0.726940
    10 -4.847914 27.875425 0.000000 0.000000 0.000000 0.000000
    11 -10.884169 43.721066 -0.263436 0.000000 -1.570796 0.287833
    12 1.645461 3.130692 15.347058 -1.570797 1.282964 -1.570797
    13 -1.061229 0.200707 -0.378920 0.000000 0.000000 0.000000
    14 -4.349673 0.059656 0.000000 0.000000 0.000000 0.000000
    15 -4.230510 -0.536228 0.000000 0.000000 0.000000 0.000000
    16 -3.694255 -0.655429 0.000000 0.000000 0.000000 0.000000
    17 13.641458 7.020348 16.879305 -0.287833 0.000000 0.000000
    18 4.472665 2.448845 0.720848 0.181857 -0.371726 0.953189
    19 15.242571 6.789905 0.000000 -0.443057 0.380195 -0.072181
    20 8.366559 3.675034 14.276474 0.000000 0.000000 0.000000
    21 -15.633809 7.069125 16.813112 -0.287833 0.000000 0.000000
    22 -6.249312 1.413335 0.936005 0.111141 0.711383 -0.904601
    23 -13.856888 6.374216 0.000000 -0.197753 -0.862485 -0.415528
    24 -5.687840 2.494701 12.855103 0.000000 0.000000 0.000000
end
