// Created by Crowbar 0.42.0.0
version 1
nodes
  0 "Dummy01" -1
  1 "Bone01" 0
  2 "Bone02" 1
  3 "Bone03" 2
  4 "Bone04" 3
  5 "Bone05" 4
  6 "Bone06" 5
  7 "Bone07" 6
  8 "Bone08" 7
  9 "Bone09" 8
  10 "Bone10" 9
  11 "Dummy04" 10
  12 "Dummy05" 11
  13 "Bone19" 12
  14 "Bone20" 13
  15 "Bone21" 14
  16 "Bone22" 15
  17 "Dummy03" 11
  18 "Bone11" 17
  19 "Bone12" 18
  20 "Bone13" 19
  21 "Dummy02" 11
  22 "Bone15" 21
  23 "Bone16" 22
  24 "Bone17" 23
end
skeleton
  time 0
    0 5.807106 1.410199 -16.714201 1.570796 0.000000 1.545389
    1 6.265787 -2.137183 0.000000 -0.007091 0.094173 0.209467
    2 -1.211985 121.072578 2.116671 -0.010950 0.001037 0.164059
    3 -2.423956 108.889275 3.327682 0.029434 0.002673 -0.199791
    4 -8.483835 103.017944 0.000000 0.016143 0.001696 -0.243833
    5 -7.271858 79.990417 0.000000 -0.015652 -0.006363 -0.444630
    6 -6.059879 73.930542 0.000000 -0.025357 -0.000219 -0.208737
    7 -7.271858 77.566437 0.000000 -0.064861 0.001481 0.285521
    8 -7.271864 68.661316 0.902174 0.079777 0.003740 0.558150
    9 -10.228978 63.180118 -0.324228 -0.105725 -0.043393 1.004947
    10 -4.847914 27.875425 0.000000 0.000000 0.000000 0.000000
    11 -10.884169 43.721066 -0.263436 0.000000 -1.570796 0.287833
    12 1.645461 3.130692 15.347058 -1.570797 1.282964 -1.570797
    13 -1.061229 0.200707 -0.378920 0.000000 0.000000 0.000000
    14 -4.349673 0.059656 0.000000 0.000000 0.000000 0.000000
    15 -4.230510 -0.536228 0.000000 0.000000 0.000000 0.000000
    16 -3.694255 -0.655429 0.000000 0.000000 0.000000 0.000000
    17 13.641458 7.020348 16.879305 -0.287833 0.000000 0.000000
    18 4.472665 2.448845 0.720848 0.181857 -0.371726 0.953189
    19 15.242571 6.789905 0.000000 -0.443057 0.380195 -0.072181
    20 8.366559 3.675034 14.276474 0.000000 0.000000 0.000000
    21 -15.633809 7.069125 16.813112 -0.287833 0.000000 0.000000
    22 -6.249312 1.413335 0.936005 0.111141 0.711383 -0.904601
    23 -13.856888 6.374216 0.000000 -0.197753 -0.862520 -0.415528
    24 -5.687840 2.494701 12.855103 0.000000 0.000000 0.000000
  time 1
    0 5.807106 1.410199 -19.240582 1.570796 0.000000 1.545389
    1 6.265787 -4.263499 0.000000 -0.007475 0.094224 0.196334
    2 -1.211985 121.072578 2.116671 -0.010615 0.001037 0.159419
    3 -2.423956 108.889275 3.327682 0.029662 0.002756 -0.203123
    4 -8.483835 103.017944 0.000000 0.016671 0.001798 -0.251374
    5 -7.271858 79.990417 0.000000 -0.016239 -0.006616 -0.435681
    6 -6.059879 73.930542 0.000000 -0.025503 -0.000383 -0.205684
    7 -7.271858 77.566437 0.000000 -0.065556 0.000846 0.295571
    8 -7.271864 68.661316 0.902174 0.076821 0.002115 0.580942
    9 -10.228978 63.176211 -0.324228 -0.108132 -0.038833 1.044010
    10 -4.847914 27.875425 0.000000 0.000000 0.000000 0.000000
    11 -10.884169 43.721066 -0.263436 0.000000 -1.570796 0.287833
    12 1.645461 3.130692 15.347058 -1.570797 1.282964 -1.570797
    13 -1.061229 0.200707 -0.378920 0.000000 0.000000 0.000000
    14 -4.349673 0.059656 0.000000 0.000000 0.000000 0.000000
    15 -4.230510 -0.536228 0.000000 0.000000 0.000000 0.000000
    16 -3.694255 -0.655429 0.000000 0.000000 0.000000 0.000000
    17 13.641458 7.020348 16.879305 -0.287833 0.000000 0.000000
    18 4.472665 2.448845 0.720848 0.181857 -0.371726 0.953189
    19 15.242571 6.789905 0.000000 -0.443057 0.380195 -0.072181
    20 8.366559 3.675034 14.276474 0.000000 0.000000 0.000000
    21 -15.633809 7.069125 16.813112 -0.287833 0.000000 0.000000
    22 -6.249312 1.413335 0.936005 0.111141 0.711383 -0.904601
    23 -13.856888 6.374216 0.000000 -0.197753 -0.862520 -0.415528
    24 -5.687840 2.494701 12.855103 0.000000 0.000000 0.000000
  time 2
    0 5.807106 1.410199 -21.766962 1.570796 0.000000 1.545389
    1 6.265787 -6.173580 0.000000 -0.007858 0.094301 0.181762
    2 -1.211985 121.072578 2.116671 -0.010376 0.001059 0.155707
    3 -2.423956 108.889275 3.327682 0.029866 0.002840 -0.206196
    4 -8.483835 103.017944 0.000000 0.017246 0.001924 -0.259844
    5 -7.271858 79.990417 0.000000 -0.016587 -0.006743 -0.430369
    6 -6.059879 73.930542 0.000000 -0.025503 -0.000355 -0.205944
    7 -7.271858 77.566437 0.000000 -0.066407 0.000081 0.307734
    8 -7.271864 68.661316 0.902174 0.072695 0.000000 0.612384
    9 -10.228978 63.176211 -0.324228 -0.111021 -0.032724 1.095332
    10 -4.847914 27.875425 0.000000 0.000000 0.000000 0.000000
    11 -10.884169 43.721066 -0.263436 0.000000 -1.570796 0.287833
    12 1.645461 3.130692 15.347058 -1.570797 1.282964 -1.570797
    13 -1.061229 0.200707 -0.378920 0.000000 0.000000 0.000000
    14 -4.349673 0.059656 0.000000 0.000000 0.000000 0.000000
    15 -4.230510 -0.536228 0.000000 0.000000 0.000000 0.000000
    16 -3.694255 -0.655429 0.000000 0.000000 0.000000 0.000000
    17 13.641458 7.020348 16.879305 -0.287833 0.000000 0.000000
    18 4.472665 2.448845 0.720848 0.181857 -0.371726 0.953189
    19 15.242571 6.789905 0.000000 -0.443057 0.380195 -0.072181
    20 8.366559 3.675034 14.276474 0.000000 0.000000 0.000000
    21 -15.633809 7.069125 16.813112 -0.287833 0.000000 0.000000
    22 -6.249312 1.413335 0.936005 0.111141 0.711383 -0.904601
    23 -13.856888 6.374216 0.000000 -0.197753 -0.862520 -0.415528
    24 -5.687840 2.494701 12.855103 0.000000 0.000000 0.000000
  time 3
    0 5.807106 1.410199 -24.293343 1.570796 0.000000 1.545389
    1 6.265787 -7.867425 0.000000 -0.008241 0.094377 0.166423
    2 -1.211985 121.072578 2.116671 -0.010137 0.001059 0.152459
    3 -2.423956 108.889275 3.327682 0.030069 0.002912 -0.209126
    4 -8.483835 103.017944 0.000000 0.017869 0.002051 -0.268804
    5 -7.271858 79.990417 0.000000 -0.016802 -0.006849 -0.427150
    6 -6.059879 73.930542 0.000000 -0.025394 -0.000246 -0.208152
    7 -7.271858 77.566437 0.000000 -0.067353 -0.000732 0.321146
    8 -7.271864 68.661316 0.902174 0.067824 -0.002244 0.648788
    9 -10.228978 63.176211 -0.324228 -0.113935 -0.025583 1.153640
    10 -4.847914 27.875425 0.000000 0.000000 0.000000 0.000000
    11 -10.884169 43.721066 -0.263436 0.000000 -1.570796 0.287833
    12 1.645461 3.130692 15.347058 -1.570797 1.282964 -1.570797
    13 -1.061229 0.200707 -0.378920 0.000000 0.000000 0.000000
    14 -4.349673 0.059656 0.000000 0.000000 0.000000 0.000000
    15 -4.230510 -0.536228 0.000000 0.000000 0.000000 0.000000
    16 -3.694255 -0.655429 0.000000 0.000000 0.000000 0.000000
    17 13.641458 7.020348 16.879305 -0.287833 0.000000 0.000000
    18 4.472665 2.448845 0.720848 0.181857 -0.371726 0.953189
    19 15.242571 6.789905 0.000000 -0.443057 0.380195 -0.072181
    20 8.366559 3.675034 14.276474 0.000000 0.000000 0.000000
    21 -15.633809 7.069125 16.813112 -0.287833 0.000000 0.000000
    22 -6.249312 1.413335 0.936005 0.111141 0.711383 -0.904601
    23 -13.856888 6.374216 0.000000 -0.197753 -0.862520 -0.415528
    24 -5.687840 2.494701 12.855103 0.000000 0.000000 0.000000
  time 4
    0 5.807106 1.410199 -26.819724 1.570796 0.000000 1.545389
    1 6.265787 -9.308996 0.000000 -0.008625 0.094429 0.150893
    2 -1.211985 121.072578 2.116671 -0.009946 0.001059 0.149397
    3 -2.423956 108.889275 3.327682 0.030261 0.002996 -0.212033
    4 -8.483835 103.017944 0.000000 0.018492 0.002203 -0.277936
    5 -7.271858 79.990417 0.000000 -0.016982 -0.006912 -0.424446
    6 -6.059879 73.930542 0.000000 -0.025266 -0.000109 -0.210815
    7 -7.271858 77.566437 0.000000 -0.068336 -0.001562 0.334834
    8 -7.271864 68.661316 0.902174 0.062720 -0.004410 0.686398
    9 -10.228978 63.176211 -0.324228 -0.116495 -0.018068 1.213618
    10 -4.847914 27.875425 0.000000 0.000000 0.000000 0.000000
    11 -10.884169 43.721066 -0.263436 0.000000 -1.570796 0.287833
    12 1.645461 3.130692 15.347058 -1.570797 1.282964 -1.570797
    13 -1.061229 0.200707 -0.378920 0.000000 0.000000 0.000000
    14 -4.349673 0.059656 0.000000 0.000000 0.000000 0.000000
    15 -4.230510 -0.536228 0.000000 0.000000 0.000000 0.000000
    16 -3.694255 -0.655429 0.000000 0.000000 0.000000 0.000000
    17 13.641458 7.020348 16.879305 -0.287833 0.000000 0.000000
    18 4.472665 2.448845 0.720848 0.181857 -0.371726 0.953189
    19 15.242571 6.789905 0.000000 -0.443057 0.380195 -0.072181
    20 8.366559 3.675034 14.276474 0.000000 0.000000 0.000000
    21 -15.633809 7.069125 16.813112 -0.287833 0.000000 0.000000
    22 -6.249312 1.413335 0.936005 0.111141 0.711383 -0.904601
    23 -13.856888 6.374216 0.000000 -0.197753 -0.862520 -0.415528
    24 -5.687840 2.494701 12.855103 0.000000 0.000000 0.000000
  time 5
    0 5.807106 1.410199 -29.307237 1.570796 0.000000 1.545389
    1 6.265787 -10.570370 0.000000 -0.009008 0.094480 0.135746
    2 -1.211985 121.072578 2.116671 -0.009707 0.001059 0.146057
    3 -2.423956 108.889275 3.327682 0.030465 0.003068 -0.215011
    4 -8.483835 103.017944 0.000000 0.019103 0.002342 -0.286774
    5 -7.271858 79.990417 0.000000 -0.017222 -0.007018 -0.420712
    6 -6.059879 73.930542 0.000000 -0.025175 0.000000 -0.212536
    7 -7.271858 77.566437 0.000000 -0.069295 -0.002344 0.347934
    8 -7.271864 68.661316 0.902174 0.057871 -0.006242 0.721596
    9 -10.228978 63.180118 -0.324228 -0.118497 -0.010870 1.270124
    10 -4.847914 27.875425 0.000000 0.000000 0.000000 0.000000
    11 -10.884169 43.721066 -0.263436 0.000000 -1.570796 0.287833
    12 1.645461 3.130692 15.347058 -1.570797 1.282964 -1.570797
    13 -1.061229 0.200707 -0.378920 0.000000 0.000000 0.000000
    14 -4.349673 0.059656 0.000000 0.000000 0.000000 0.000000
    15 -4.230510 -0.536228 0.000000 0.000000 0.000000 0.000000
    16 -3.694255 -0.655429 0.000000 0.000000 0.000000 0.000000
    17 13.641458 7.020348 16.879305 -0.287833 0.000000 0.000000
    18 4.472665 2.448845 0.720848 0.181857 -0.371726 0.953189
    19 15.242571 6.789905 0.000000 -0.443057 0.380195 -0.072181
    20 8.366559 3.675034 14.276474 0.000000 0.000000 0.000000
    21 -15.633809 7.069125 16.813112 -0.287833 0.000000 0.000000
    22 -6.249312 1.413335 0.936005 0.111141 0.711383 -0.904601
    23 -13.856888 6.374216 0.000000 -0.197753 -0.862520 -0.415528
    24 -5.687840 2.494701 12.855103 0.000000 0.000000 0.000000
  time 6
    0 5.807106 1.410199 -31.833618 1.570796 0.000000 1.545389
    1 6.265787 -11.579469 0.000000 -0.009295 0.094531 0.121558
    2 -1.211985 121.072578 2.116671 -0.009420 0.001080 0.142067
    3 -2.423956 108.889275 3.327682 0.030681 0.003152 -0.218154
    4 -8.483835 103.017944 0.000000 0.019667 0.002481 -0.294975
    5 -7.271858 79.990417 0.000000 -0.017641 -0.007187 -0.414338
    6 -6.059879 73.930542 0.000000 -0.025212 -0.000027 -0.211887
    7 -7.271858 77.566437 0.000000 -0.070134 -0.003027 0.359509
    8 -7.271864 68.661316 0.902174 0.053830 -0.007660 0.750592
    9 -10.228978 63.176211 -0.324228 -0.119865 -0.004704 1.317843
    10 -4.847914 27.875425 0.000000 0.000000 0.000000 0.000000
    11 -10.884169 43.721066 -0.263436 0.000000 -1.570796 0.287833
    12 1.645461 3.130692 15.347058 -1.570797 1.282964 -1.570797
    13 -1.061229 0.200707 -0.378920 0.000000 0.000000 0.000000
    14 -4.349673 0.059656 0.000000 0.000000 0.000000 0.000000
    15 -4.230510 -0.536228 0.000000 0.000000 0.000000 0.000000
    16 -3.694255 -0.655429 0.000000 0.000000 0.000000 0.000000
    17 13.641458 7.020348 16.879305 -0.287833 0.000000 0.000000
    18 4.472665 2.448845 0.720848 0.181857 -0.371726 0.953189
    19 15.242571 6.789905 0.000000 -0.443057 0.380195 -0.072181
    20 8.366559 3.675034 14.276474 0.000000 0.000000 0.000000
    21 -15.633809 7.069125 16.813112 -0.287833 0.000000 0.000000
    22 -6.249312 1.413335 0.936005 0.111141 0.711383 -0.904601
    23 -13.856888 6.374216 0.000000 -0.197753 -0.862520 -0.415528
    24 -5.687840 2.494701 12.855103 0.000000 0.000000 0.000000
  time 7
    0 5.807106 1.410199 -34.359999 1.570796 0.000000 1.545389
    1 6.265787 -12.372333 0.000000 -0.009679 0.094557 0.109000
    2 -1.211985 121.072578 2.116671 -0.009085 0.001080 0.137056
    3 -2.423956 108.889275 3.327682 0.030908 0.003248 -0.221581
    4 -8.483835 103.017944 0.000000 0.020158 0.002608 -0.302123
    5 -7.271858 79.990417 0.000000 -0.018336 -0.007462 -0.403811
    6 -6.059879 73.930542 0.000000 -0.025430 -0.000301 -0.207373
    7 -7.271858 77.566437 0.000000 -0.070817 -0.003564 0.368657
    8 -7.271864 68.661316 0.902174 0.051150 -0.008511 0.769734
    9 -10.228978 63.176211 -0.324228 -0.120651 -0.000315 1.351589
    10 -4.847914 27.875425 0.000000 0.000000 0.000000 0.000000
    11 -10.884169 43.721066 -0.263436 0.000000 -1.570796 0.287833
    12 1.645461 3.130692 15.347058 -1.570797 1.282964 -1.570797
    13 -1.061229 0.200707 -0.378920 0.000000 0.000000 0.000000
    14 -4.349673 0.059656 0.000000 0.000000 0.000000 0.000000
    15 -4.230510 -0.536228 0.000000 0.000000 0.000000 0.000000
    16 -3.694255 -0.655429 0.000000 0.000000 0.000000 0.000000
    17 13.641458 7.020348 16.879305 -0.287833 0.000000 0.000000
    18 4.472665 2.448845 0.720848 0.181857 -0.371726 0.953189
    19 15.242571 6.789905 0.000000 -0.443057 0.380195 -0.072181
    20 8.366559 3.675034 14.276474 0.000000 0.000000 0.000000
    21 -15.633809 7.069125 16.813112 -0.287833 0.000000 0.000000
    22 -6.249312 1.413335 0.936005 0.111141 0.711383 -0.904601
    23 -13.856888 6.374216 0.000000 -0.197753 -0.862520 -0.415528
    24 -5.687840 2.494701 12.855103 0.000000 0.000000 0.000000
  time 8
    0 5.807106 1.410199 -36.886379 1.570796 0.000000 1.545389
    1 6.265787 -12.912921 0.000000 -0.009966 0.094582 0.098742
    2 -1.211985 121.072578 2.116671 -0.008607 0.001102 0.130653
    3 -2.423956 108.889275 3.327682 0.031160 0.003356 -0.225409
    4 -8.483835 103.017944 0.000000 0.020554 0.002709 -0.307852
    5 -7.271858 79.990417 0.000000 -0.019415 -0.007864 -0.387555
    6 -6.059879 73.930542 0.000000 -0.025903 -0.000820 -0.197599
    7 -7.271858 77.566437 0.000000 -0.071236 -0.003890 0.374445
    8 -7.271864 68.661316 0.902174 0.050363 -0.008744 0.775263
    9 -10.228978 63.180118 -0.324228 -0.120930 0.001577 1.366133
    10 -4.847914 27.875425 0.000000 0.000000 0.000000 0.000000
    11 -10.884169 43.721066 -0.263436 0.000000 -1.570796 0.287833
    12 1.645461 3.130692 15.347058 -1.570797 1.282964 -1.570797
    13 -1.061229 0.200707 -0.378920 0.000000 0.000000 0.000000
    14 -4.349673 0.059656 0.000000 0.000000 0.000000 0.000000
    15 -4.230510 -0.536228 0.000000 0.000000 0.000000 0.000000
    16 -3.694255 -0.655429 0.000000 0.000000 0.000000 0.000000
    17 13.641458 7.020348 16.879305 -0.287833 0.000000 0.000000
    18 4.472665 2.448845 0.720848 0.181857 -0.371726 0.953189
    19 15.242571 6.789905 0.000000 -0.443057 0.380195 -0.072181
    20 8.366559 3.675034 14.276474 0.000000 0.000000 0.000000
    21 -15.633809 7.069125 16.813112 -0.287833 0.000000 0.000000
    22 -6.249312 1.413335 0.936005 0.111141 0.711383 -0.904601
    23 -13.856888 6.374216 0.000000 -0.197753 -0.862520 -0.415528
    24 -5.687840 2.494701 12.855103 0.000000 0.000000 0.000000
  time 9
    0 5.807106 1.410199 -39.412760 1.570796 0.000000 1.545389
    1 6.265787 -13.273314 0.000000 -0.010062 0.094608 0.091169
    2 -1.211985 121.072578 2.116671 -0.008033 0.001145 0.122302
    3 -2.423956 108.889275 3.327682 0.031448 0.003476 -0.229687
    4 -8.483835 103.017944 0.000000 0.020817 0.002773 -0.311744
    5 -7.271858 79.990417 0.000000 -0.020997 -0.008413 -0.363958
    6 -6.059879 73.930542 0.000000 -0.026722 -0.001723 -0.181135
    7 -7.271858 77.566437 0.000000 -0.071356 -0.003988 0.375970
    8 -7.271864 68.661316 0.902174 0.052022 -0.008228 0.763495
    9 -10.228978 63.176211 -0.324228 -0.120752 0.000258 1.356202
    10 -4.847914 27.875425 0.000000 0.000000 0.000000 0.000000
    11 -10.884169 43.721066 -0.263436 0.000000 -1.570796 0.287833
    12 1.645461 3.130692 15.347058 -1.570797 1.282964 -1.570797
    13 -1.061229 0.200707 -0.378920 0.000000 0.000000 0.000000
    14 -4.349673 0.059656 0.000000 0.000000 0.000000 0.000000
    15 -4.230510 -0.536228 0.000000 0.000000 0.000000 0.000000
    16 -3.694255 -0.655429 0.000000 0.000000 0.000000 0.000000
    17 13.641458 7.020348 16.879305 -0.287833 0.000000 0.000000
    18 4.472665 2.448845 0.720848 0.181857 -0.371726 0.953189
    19 15.242571 6.789905 0.000000 -0.443057 0.380195 -0.072181
    20 8.366559 3.675034 14.276474 0.000000 0.000000 0.000000
    21 -15.633809 7.069125 16.813112 -0.287833 0.000000 0.000000
    22 -6.249312 1.413335 0.936005 0.111141 0.711383 -0.904601
    23 -13.856888 6.374216 0.000000 -0.197753 -0.862520 -0.415528
    24 -5.687840 2.494701 12.855103 0.000000 0.000000 0.000000
  time 10
    0 5.807106 1.410199 -41.939141 1.570796 0.000000 1.545389
    1 6.265787 -13.381432 0.000000 -0.010254 0.094608 0.087142
    2 -1.211985 121.072578 2.116671 -0.007268 0.001188 0.111816
    3 -2.423956 108.889275 3.327682 0.031783 0.003607 -0.234579
    4 -8.483835 103.017944 0.000000 0.020925 0.002811 -0.313409
    5 -7.271858 79.990417 0.000000 -0.023190 -0.009132 -0.331477
    6 -6.059879 73.930542 0.000000 -0.027959 -0.003035 -0.156553
    7 -7.271858 77.566437 0.000000 -0.071093 -0.003776 0.372366
    8 -7.271864 68.661316 0.902174 0.056595 -0.006706 0.730777
    9 -10.228978 63.180118 -0.324228 -0.119815 -0.004876 1.316613
    10 -4.847914 27.875425 0.000000 0.000000 0.000000 0.000000
    11 -10.884169 43.721066 -0.263436 0.000000 -1.570796 0.287833
    12 1.645461 3.130692 15.347058 -1.570797 1.282964 -1.570797
    13 -1.061229 0.200707 -0.378920 0.000000 0.000000 0.000000
    14 -4.349673 0.059656 0.000000 0.000000 0.000000 0.000000
    15 -4.230510 -0.536228 0.000000 0.000000 0.000000 0.000000
    16 -3.694255 -0.655429 0.000000 0.000000 0.000000 0.000000
    17 13.641458 7.020348 16.879305 -0.287833 0.000000 0.000000
    18 4.472665 2.448845 0.720848 0.181857 -0.371726 0.953189
    19 15.242571 6.789905 0.000000 -0.443057 0.380195 -0.072181
    20 8.366559 3.675034 14.276474 0.000000 0.000000 0.000000
    21 -15.633809 7.069125 16.813112 -0.287833 0.000000 0.000000
    22 -6.249312 1.413335 0.936005 0.111141 0.711383 -0.904601
    23 -13.856888 6.374216 0.000000 -0.197753 -0.862520 -0.415528
    24 -5.687840 2.494701 12.855103 0.000000 0.000000 0.000000
  time 11
    0 5.807106 1.410199 -44.426654 1.570796 0.000000 1.545389
    1 6.265787 -13.273314 0.000000 -0.010254 0.094633 0.086855
    2 -1.211985 121.072578 2.116671 -0.006360 0.001253 0.098825
    3 -2.423956 108.889275 3.327682 0.032155 0.003775 -0.240132
    4 -8.483835 103.017944 0.000000 0.020877 0.002798 -0.312626
    5 -7.271858 79.990417 0.000000 -0.026090 -0.009935 -0.289080
    6 -6.059879 73.930542 0.000000 -0.029723 -0.004757 -0.122846
    7 -7.271858 77.566437 0.000000 -0.070386 -0.003223 0.362974
    8 -7.271864 68.661316 0.902174 0.064336 -0.003740 0.674558
    9 -10.228978 63.176211 -0.324228 -0.117610 -0.014254 1.243804
    10 -4.847914 27.875425 0.000000 0.000000 0.000000 0.000000
    11 -10.884169 43.721066 -0.263436 0.000000 -1.570796 0.287833
    12 1.645461 3.130692 15.347058 -1.570797 1.282964 -1.570797
    13 -1.061229 0.200707 -0.378920 0.000000 0.000000 0.000000
    14 -4.349673 0.059656 0.000000 0.000000 0.000000 0.000000
    15 -4.230510 -0.536228 0.000000 0.000000 0.000000 0.000000
    16 -3.694255 -0.655429 0.000000 0.000000 0.000000 0.000000
    17 13.641458 7.020348 16.879305 -0.287833 0.000000 0.000000
    18 4.472665 2.448845 0.720848 0.181857 -0.371726 0.953189
    19 15.242571 6.789905 0.000000 -0.443057 0.380195 -0.072181
    20 8.366559 3.675034 14.276474 0.000000 0.000000 0.000000
    21 -15.633809 7.069125 16.813112 -0.287833 0.000000 0.000000
    22 -6.249312 1.413335 0.936005 0.111141 0.711383 -0.904601
    23 -13.856888 6.374216 0.000000 -0.197753 -0.862520 -0.415528
    24 -5.687840 2.494701 12.855103 0.000000 0.000000 0.000000
  time 12
    0 5.807106 1.410199 -46.953035 1.570796 0.000000 1.545389
    1 6.265787 -12.912921 0.000000 -0.010158 0.094608 0.089922
    2 -1.211985 121.072578 2.116671 -0.005308 0.001339 0.083607
    3 -2.423956 108.889275 3.327682 0.032562 0.003943 -0.246277
    4 -8.483835 103.017944 0.000000 0.020661 0.002735 -0.309590
    5 -7.271858 79.990417 0.000000 -0.029638 -0.010760 -0.237799
    6 -6.059879 73.930542 0.000000 -0.031979 -0.006835 -0.081020
    7 -7.271858 77.566437 0.000000 -0.069319 -0.002376 0.348384
    8 -7.271864 68.661316 0.902174 0.074651 0.001006 0.597390
    9 -10.228978 63.176211 -0.324228 -0.113353 -0.027131 1.141205
    10 -4.847914 27.875425 0.000000 0.000000 0.000000 0.000000
    11 -10.884169 43.721066 -0.263436 0.000000 -1.570796 0.287833
    12 1.645461 3.130692 15.347058 -1.570797 1.282964 -1.570797
    13 -1.061229 0.200707 -0.378920 0.000000 0.000000 0.000000
    14 -4.349673 0.059656 0.000000 0.000000 0.000000 0.000000
    15 -4.230510 -0.536228 0.000000 0.000000 0.000000 0.000000
    16 -3.694255 -0.655429 0.000000 0.000000 0.000000 0.000000
    17 13.641458 7.020348 16.879305 -0.287833 0.000000 0.000000
    18 4.472665 2.448845 0.720848 0.181857 -0.371726 0.953189
    19 15.242571 6.789905 0.000000 -0.443057 0.380195 -0.072181
    20 8.366559 3.675034 14.276474 0.000000 0.000000 0.000000
    21 -15.633809 7.069125 16.813112 -0.287833 0.000000 0.000000
    22 -6.249312 1.413335 0.936005 0.111141 0.711383 -0.904601
    23 -13.856888 6.374216 0.000000 -0.197753 -0.862520 -0.415528
    24 -5.687840 2.494701 12.855103 0.000000 0.000000 0.000000
  time 13
    0 5.807106 1.410199 -49.479415 1.570796 0.000000 1.545389
    1 6.265787 -12.372333 0.000000 -0.009966 0.094608 0.095962
    2 -1.211985 121.072578 2.116671 -0.004112 0.001469 0.066626
    3 -2.423956 108.889275 3.327682 0.033006 0.004147 -0.252894
    4 -8.483835 103.017944 0.000000 0.020338 0.002646 -0.304743
    5 -7.271858 79.990417 0.000000 -0.033725 -0.011478 -0.179211
    6 -6.059879 73.930542 0.000000 -0.034707 -0.009132 -0.032473
    7 -7.271858 77.566437 0.000000 -0.067965 -0.001237 0.329567
    8 -7.271864 68.661316 0.902174 0.086753 0.007892 0.503030
    9 -10.228978 63.176211 -0.324228 -0.106282 -0.042361 1.013999
    10 -4.847914 27.875425 0.000000 0.000000 0.000000 0.000000
    11 -10.884169 43.721066 -0.263436 0.000000 -1.570796 0.287833
    12 1.645461 3.130692 15.347058 -1.570797 1.282964 -1.570797
    13 -1.061229 0.200707 -0.378920 0.000000 0.000000 0.000000
    14 -4.349673 0.059656 0.000000 0.000000 0.000000 0.000000
    15 -4.230510 -0.536228 0.000000 0.000000 0.000000 0.000000
    16 -3.694255 -0.655429 0.000000 0.000000 0.000000 0.000000
    17 13.641458 7.020348 16.879305 -0.287833 0.000000 0.000000
    18 4.472665 2.448845 0.720848 0.181857 -0.371726 0.953189
    19 15.242571 6.789905 0.000000 -0.443057 0.380195 -0.072181
    20 8.366559 3.675034 14.276474 0.000000 0.000000 0.000000
    21 -15.633809 7.069125 16.813112 -0.287833 0.000000 0.000000
    22 -6.249312 1.413335 0.936005 0.111141 0.711383 -0.904601
    23 -13.856888 6.374216 0.000000 -0.197753 -0.862520 -0.415528
    24 -5.687840 2.494701 12.855103 0.000000 0.000000 0.000000
  time 14
    0 5.807106 1.410199 -52.005796 1.570796 0.000000 1.545389
    1 6.265787 -11.579469 0.000000 -0.009774 0.094582 0.104110
    2 -1.211985 121.072578 2.116671 -0.002821 0.001620 0.048160
    3 -2.423956 108.889275 3.327682 0.033461 0.004350 -0.259913
    4 -8.483835 103.017944 0.000000 0.019906 0.002545 -0.298451
    5 -7.271858 79.990417 0.000000 -0.038267 -0.011986 -0.114860
    6 -6.059879 73.930542 0.000000 -0.037854 -0.011511 0.021302
    7 -7.271858 77.566437 0.000000 -0.066383 0.000098 0.307388
    8 -7.271864 68.661316 0.902174 0.099705 0.017152 0.395235
    9 -10.228978 63.176211 -0.324228 -0.095842 -0.058622 0.867328
    10 -4.847914 27.875425 0.000000 0.000000 0.000000 0.000000
    11 -10.884169 43.721066 -0.263436 0.000000 -1.570796 0.287833
    12 1.645461 3.130692 15.347058 -1.570797 1.282964 -1.570797
    13 -1.061229 0.200707 -0.378920 0.000000 0.000000 0.000000
    14 -4.349673 0.059656 0.000000 0.000000 0.000000 0.000000
    15 -4.230510 -0.536228 0.000000 0.000000 0.000000 0.000000
    16 -3.694255 -0.655429 0.000000 0.000000 0.000000 0.000000
    17 13.641458 7.020348 16.879305 -0.287833 0.000000 0.000000
    18 4.472665 2.448845 0.720848 0.181857 -0.371726 0.953189
    19 15.242571 6.789905 0.000000 -0.443057 0.380195 -0.072181
    20 8.366559 3.675034 14.276474 0.000000 0.000000 0.000000
    21 -15.633809 7.069125 16.813112 -0.287833 0.000000 0.000000
    22 -6.249312 1.413335 0.936005 0.111141 0.711383 -0.904601
    23 -13.856888 6.374216 0.000000 -0.197753 -0.862520 -0.415528
    24 -5.687840 2.494701 12.855103 0.000000 0.000000 0.000000
  time 15
    0 5.807106 1.410199 -54.532177 1.570796 0.000000 1.545389
    1 6.265787 -10.570370 0.000000 -0.009583 0.094557 0.113889
    2 -1.211985 121.072578 2.116671 -0.001434 0.001815 0.028673
    3 -2.423956 108.889275 3.327682 0.033952 0.004566 -0.267192
    4 -8.483835 103.017944 0.000000 0.019403 0.002418 -0.291131
    5 -7.271858 79.990417 0.000000 -0.043121 -0.012197 -0.046324
    6 -6.059879 73.930542 0.000000 -0.041365 -0.013862 0.078942
    7 -7.271858 77.566437 0.000000 -0.064669 0.001660 0.282783
    8 -7.271864 68.661316 0.902174 0.112636 0.028758 0.277657
    9 -10.228978 63.180118 -0.324228 -0.081752 -0.074454 0.706245
    10 -4.847914 27.875425 0.000000 0.000000 0.000000 0.000000
    11 -10.884169 43.721066 -0.263436 0.000000 -1.570796 0.287833
    12 1.645461 3.130692 15.347058 -1.570797 1.282964 -1.570797
    13 -1.061229 0.200707 -0.378920 0.000000 0.000000 0.000000
    14 -4.349673 0.059656 0.000000 0.000000 0.000000 0.000000
    15 -4.230510 -0.536228 0.000000 0.000000 0.000000 0.000000
    16 -3.694255 -0.655429 0.000000 0.000000 0.000000 0.000000
    17 13.641458 7.020348 16.879305 -0.287833 0.000000 0.000000
    18 4.472665 2.448845 0.720848 0.181857 -0.371726 0.953189
    19 15.242571 6.789905 0.000000 -0.443057 0.380195 -0.072181
    20 8.366559 3.675034 14.276474 0.000000 0.000000 0.000000
    21 -15.633809 7.069125 16.813112 -0.287833 0.000000 0.000000
    22 -6.249312 1.413335 0.936005 0.111141 0.711383 -0.904601
    23 -13.856888 6.374216 0.000000 -0.197753 -0.862520 -0.415528
    24 -5.687840 2.494701 12.855103 0.000000 0.000000 0.000000
  time 16
    0 5.807106 1.410199 -57.058557 1.570796 0.000000 1.545389
    1 6.265787 -9.308996 0.000000 -0.009295 0.094531 0.124626
    2 -1.211985 121.072578 2.116671 -0.000048 0.002031 0.008444
    3 -2.423956 108.889275 3.327682 0.034444 0.004794 -0.274660
    4 -8.483835 103.017944 0.000000 0.018852 0.002279 -0.283150
    5 -7.271858 79.990417 0.000000 -0.048166 -0.012070 0.024788
    6 -6.059879 73.930542 0.000000 -0.045167 -0.016104 0.139017
    7 -7.271858 77.566437 0.000000 -0.062895 0.003353 0.256688
    8 -7.271864 68.661316 0.902174 0.124674 0.042531 0.154053
    9 -10.228978 63.180118 -0.324228 -0.064342 -0.088507 0.535978
    10 -4.847914 27.875425 0.000000 0.000000 0.000000 0.000000
    11 -10.884169 43.721066 -0.263436 0.000000 -1.570796 0.287833
    12 1.645461 3.130692 15.347058 -1.570797 1.282964 -1.570797
    13 -1.061229 0.200707 -0.378920 0.000000 0.000000 0.000000
    14 -4.349673 0.059656 0.000000 0.000000 0.000000 0.000000
    15 -4.230510 -0.536228 0.000000 0.000000 0.000000 0.000000
    16 -3.694255 -0.655429 0.000000 0.000000 0.000000 0.000000
    17 13.641458 7.020348 16.879305 -0.287833 0.000000 0.000000
    18 4.472665 2.448845 0.720848 0.181857 -0.371726 0.953189
    19 15.242571 6.789905 0.000000 -0.443057 0.380195 -0.072181
    20 8.366559 3.675034 14.276474 0.000000 0.000000 0.000000
    21 -15.633809 7.069125 16.813112 -0.287833 0.000000 0.000000
    22 -6.249312 1.413335 0.936005 0.111141 0.711383 -0.904601
    23 -13.856888 6.374216 0.000000 -0.197753 -0.862520 -0.415528
    24 -5.687840 2.494701 12.855103 0.000000 0.000000 0.000000
  time 17
    0 5.807106 1.410199 -59.546071 1.570796 0.000000 1.545389
    1 6.265787 -7.867425 0.000000 -0.009008 0.094480 0.135842
    2 -1.211985 121.072578 2.116671 0.001339 0.002290 -0.011878
    3 -2.423956 108.889275 3.327682 0.034935 0.005034 -0.282199
    4 -8.483835 103.017944 0.000000 0.018288 0.002152 -0.274900
    5 -7.271858 79.990417 0.000000 -0.053272 -0.011584 0.096961
    6 -6.059879 73.930542 0.000000 -0.049150 -0.018127 0.200034
    7 -7.271858 77.566437 0.000000 -0.061121 0.005127 0.229969
    8 -7.271864 68.661316 0.902174 0.135095 0.057981 0.028074
    9 -10.228978 63.180118 -0.324228 -0.044348 -0.099577 0.361713
    10 -4.847914 27.875425 0.000000 0.000000 0.000000 0.000000
    11 -10.884169 43.721066 -0.263436 0.000000 -1.570796 0.287833
    12 1.645461 3.130692 15.347058 -1.570797 1.282964 -1.570797
    13 -1.061229 0.200707 -0.378920 0.000000 0.000000 0.000000
    14 -4.349673 0.059656 0.000000 0.000000 0.000000 0.000000
    15 -4.230510 -0.536228 0.000000 0.000000 0.000000 0.000000
    16 -3.694255 -0.655429 0.000000 0.000000 0.000000 0.000000
    17 13.641458 7.020348 16.879305 -0.287833 0.000000 0.000000
    18 4.472665 2.448845 0.720848 0.181857 -0.371726 0.953189
    19 15.242571 6.789905 0.000000 -0.443057 0.380195 -0.072181
    20 8.366559 3.675034 14.276474 0.000000 0.000000 0.000000
    21 -15.633809 7.069125 16.813112 -0.287833 0.000000 0.000000
    22 -6.249312 1.413335 0.936005 0.111141 0.711383 -0.904601
    23 -13.856888 6.374216 0.000000 -0.197753 -0.862520 -0.415528
    24 -5.687840 2.494701 12.855103 0.000000 0.000000 0.000000
  time 18
    0 5.807106 1.410199 -62.072451 1.570796 0.000000 1.545389
    1 6.265787 -6.173580 0.000000 -0.008720 0.094454 0.146771
    2 -1.211985 121.072578 2.116671 0.002726 0.002571 -0.032106
    3 -2.423956 108.889275 3.327682 0.035426 0.005273 -0.289690
    4 -8.483835 103.017944 0.000000 0.017725 0.002026 -0.266797
    5 -7.271858 79.990417 0.000000 -0.058281 -0.010738 0.168620
    6 -6.059879 73.930542 0.000000 -0.053207 -0.019905 0.260596
    7 -7.271858 77.566437 0.000000 -0.059420 0.006933 0.203562
    8 -7.271864 68.661316 0.902174 0.143433 0.074462 -0.096593
    9 -10.228978 63.176211 -0.324228 -0.022934 -0.106977 0.188897
    10 -4.847914 27.875425 0.000000 0.000000 0.000000 0.000000
    11 -10.884169 43.721066 -0.263436 0.000000 -1.570796 0.287833
    12 1.645461 3.130692 15.347058 -1.570797 1.282964 -1.570797
    13 -1.061229 0.200707 -0.378920 0.000000 0.000000 0.000000
    14 -4.349673 0.059656 0.000000 0.000000 0.000000 0.000000
    15 -4.230510 -0.536228 0.000000 0.000000 0.000000 0.000000
    16 -3.694255 -0.655429 0.000000 0.000000 0.000000 0.000000
    17 13.641458 7.020348 16.879305 -0.287833 0.000000 0.000000
    18 4.472665 2.448845 0.720848 0.181857 -0.371726 0.953189
    19 15.242571 6.789905 0.000000 -0.443057 0.380195 -0.072181
    20 8.366559 3.675034 14.276474 0.000000 0.000000 0.000000
    21 -15.633809 7.069125 16.813112 -0.287833 0.000000 0.000000
    22 -6.249312 1.413335 0.936005 0.111141 0.711383 -0.904601
    23 -13.856888 6.374216 0.000000 -0.197753 -0.862520 -0.415528
    24 -5.687840 2.494701 12.855103 0.000000 0.000000 0.000000
  time 19
    0 5.807106 1.410199 -64.598832 1.570796 0.000000 1.545389
    1 6.265787 -4.263499 0.000000 -0.008433 0.094403 0.157028
    2 -1.211985 121.072578 2.116671 0.004112 0.002895 -0.051871
    3 -2.423956 108.889275 3.327682 0.035906 0.005513 -0.297040
    4 -8.483835 103.017944 0.000000 0.017210 0.001912 -0.259208
    5 -7.271858 79.990417 0.000000 -0.063075 -0.009555 0.238186
    6 -6.059879 73.930542 0.000000 -0.057245 -0.021381 0.319243
    7 -7.271858 77.566437 0.000000 -0.057838 0.008691 0.178368
    8 -7.271864 68.661316 0.902174 0.149473 0.091149 -0.216440
    9 -10.228978 63.176211 -0.324228 -0.001444 -0.110533 0.022937
    10 -4.847914 27.875425 0.000000 0.000000 0.000000 0.000000
    11 -10.884169 43.721066 -0.263436 0.000000 -1.570796 0.287833
    12 1.645461 3.130692 15.347058 -1.570797 1.282964 -1.570797
    13 -1.061229 0.200707 -0.378920 0.000000 0.000000 0.000000
    14 -4.349673 0.059656 0.000000 0.000000 0.000000 0.000000
    15 -4.230510 -0.536228 0.000000 0.000000 0.000000 0.000000
    16 -3.694255 -0.655429 0.000000 0.000000 0.000000 0.000000
    17 13.641458 7.020348 16.879305 -0.287833 0.000000 0.000000
    18 4.472665 2.448845 0.720848 0.181857 -0.371726 0.953189
    19 15.242571 6.789905 0.000000 -0.443057 0.380195 -0.072181
    20 8.366559 3.675034 14.276474 0.000000 0.000000 0.000000
    21 -15.633809 7.069125 16.813112 -0.287833 0.000000 0.000000
    22 -6.249312 1.413335 0.936005 0.111141 0.711383 -0.904601
    23 -13.856888 6.374216 0.000000 -0.197753 -0.862520 -0.415528
    24 -5.687840 2.494701 12.855103 0.000000 0.000000 0.000000
  time 20
    0 5.807106 1.410199 -67.125213 1.570796 0.000000 1.545389
    1 6.265787 -2.137183 0.000000 -0.008241 0.094377 0.165752
    2 -1.211985 121.072578 2.116671 0.005403 0.003197 -0.070801
    3 -2.423956 108.889275 3.327682 0.036361 0.005741 -0.304153
    4 -8.483835 103.017944 0.000000 0.016742 0.001810 -0.252524
    5 -7.271858 79.990417 0.000000 -0.067533 -0.008160 0.304114
    6 -6.059879 73.930542 0.000000 -0.061120 -0.022557 0.374544
    7 -7.271858 77.566437 0.000000 -0.056435 0.010351 0.155288
    8 -7.271864 68.661316 0.902174 0.153237 0.107166 -0.327744
    9 -10.228978 63.180118 -0.324228 0.018651 -0.110648 -0.130633
    10 -4.847914 27.875425 0.000000 0.000000 0.000000 0.000000
    11 -10.884169 43.721066 -0.263436 0.000000 -1.570796 0.287833
    12 1.645461 3.130692 15.347058 -1.570797 1.282964 -1.570797
    13 -1.061229 0.200707 -0.378920 0.000000 0.000000 0.000000
    14 -4.349673 0.059656 0.000000 0.000000 0.000000 0.000000
    15 -4.230510 -0.536228 0.000000 0.000000 0.000000 0.000000
    16 -3.694255 -0.655429 0.000000 0.000000 0.000000 0.000000
    17 13.641458 7.020348 16.879305 -0.287833 0.000000 0.000000
    18 4.472665 2.448845 0.720848 0.181857 -0.371726 0.953189
    19 15.242571 6.789905 0.000000 -0.443057 0.380195 -0.072181
    20 8.366559 3.675034 14.276474 0.000000 0.000000 0.000000
    21 -15.633809 7.069125 16.813112 -0.287833 0.000000 0.000000
    22 -6.249312 1.413335 0.936005 0.111141 0.711383 -0.904601
    23 -13.856888 6.374216 0.000000 -0.197753 -0.862520 -0.415528
    24 -5.687840 2.494701 12.855103 0.000000 0.000000 0.000000
end
