// Created by Crowbar 0.42.0.0
version 1
nodes
  0 "Dummy01" -1
  1 "Bone01" 0
  2 "Bone02" 1
  3 "Bone03" 2
  4 "Bone04" 3
  5 "Bone05" 4
  6 "Bone06" 5
  7 "Bone07" 6
  8 "Bone08" 7
  9 "Bone09" 8
  10 "Bone10" 9
  11 "Dummy04" 10
  12 "Dummy05" 11
  13 "Bone19" 12
  14 "Bone20" 13
  15 "Bone21" 14
  16 "Bone22" 15
  17 "Dummy03" 11
  18 "Bone11" 17
  19 "Bone12" 18
  20 "Bone13" 19
  21 "Dummy02" 11
  22 "Bone15" 21
  23 "Bone16" 22
  24 "Bone17" 23
end
skeleton
  time 0
    0 5.808594 1.410156 -982.000000 1.570743 0.003705 1.541799
    1 6.265787 -2.137183 0.000000 0.000000 0.000000 0.000000
    2 -1.211985 121.072578 2.116671 0.000000 0.000000 0.000000
    3 -2.423956 108.889275 3.327682 0.000000 0.000000 -0.052252
    4 -8.483835 103.017944 0.000000 0.000000 0.000000 -0.034792
    5 -7.271858 79.990417 0.000000 0.002631 0.000153 0.069717
    6 -6.059879 73.930542 0.000000 -0.003024 -0.000552 -0.122023
    7 -7.271858 77.566437 0.000000 -0.074044 -0.005030 0.073740
    8 -7.271864 68.661316 0.902174 0.003029 0.009165 0.034928
    9 -7.271856 69.082642 0.000000 -0.002204 0.020337 -0.275566
    10 -4.847914 27.875425 0.000000 0.000000 0.000000 0.000000
    11 -10.884169 43.721066 -0.263436 0.000000 -1.570796 0.287833
    12 1.645461 3.130692 15.347058 -1.570797 1.282964 -1.570797
    13 -1.061229 0.200707 -0.378920 0.000000 0.000000 0.000000
    14 -4.349673 0.059656 0.000000 0.000000 0.000000 0.000000
    15 -4.230510 -0.536228 0.000000 0.000000 0.000000 0.000000
    16 -3.694255 -0.655429 0.000000 0.000000 0.000000 0.000000
    17 13.641458 7.020348 16.879305 -0.287833 0.000000 0.000000
    18 4.472665 2.448845 0.720848 0.000000 0.000000 0.749999
    19 15.242571 6.789905 0.000000 -0.443026 0.380152 -0.072220
    20 8.366559 3.675034 14.276474 0.000000 0.000000 0.000000
    21 -15.633809 7.069125 16.813112 -0.287833 0.000000 0.000000
    22 -6.249312 1.413335 0.936005 -0.097169 0.188623 -0.766413
    23 -13.856888 6.374216 0.000000 -0.197815 -0.862487 -0.415406
    24 -5.687840 2.494701 12.855103 0.000000 0.000000 0.000000
end
