version 1
nodes
0 "Rlauncher" -1
1 "Cylinder01" 0
2 "Rocket" 0
3 "muzzle" 0
4 "Bip01" -1
5 "Bip01 Pelvis" 4
6 "Bip01 Spine" 5
7 "Bip01 Spine1" 6
8 "Bip01 Spine2" 7
9 "Bip01 Spine3" 8
10 "Bip01 Neck" 9
11 "Bip01 L Arm" 10
12 "Bip01 L Arm1" 11
13 "Bip01 L Arm2" 12
14 "Bip01 L Hand" 13
15 "Bip01 L Finger0" 14
16 "Bip01 L Finger01" 15
17 "Bip01 L Finger02" 16
18 "Bip01 L Finger1" 14
19 "Bip01 L Finger11" 18
20 "Bip01 L Finger12" 19
21 "Bip01 L Finger2" 14
22 "Bip01 L Finger21" 21
23 "Bip01 L Finger22" 22
24 "Bip01 L Finger3" 14
25 "Bip01 L Finger31" 24
26 "Bip01 L Finger32" 25
27 "Bip01 L Finger4" 14
28 "Bip01 L Finger41" 27
29 "Bip01 L Finger42" 28
30 "L_Arm_bone" 13
31 "Bip01 R Arm" 10
32 "Bip01 R Arm1" 31
33 "Bip01 R Arm2" 32
34 "Bip01 R Hand" 33
35 "Bip01 R Finger0" 34
36 "Bip01 R Finger01" 35
37 "Bip01 R Finger02" 36
38 "Bip01 R Finger1" 34
39 "Bip01 R Finger11" 38
40 "Bip01 R Finger12" 39
41 "Bip01 R Finger2" 34
42 "Bip01 R Finger21" 41
43 "Bip01 R Finger22" 42
44 "Bip01 R Finger3" 34
45 "Bip01 R Finger31" 44
46 "Bip01 R Finger32" 45
47 "Bip01 R Finger4" 34
48 "Bip01 R Finger41" 47
49 "Bip01 R Finger42" 48
50 "R_Arm_bone" 33
51 "Hands biped" -1
end
skeleton
time 0
0  -9.384713 -13.418640 -4.906387  0.000000 -0.000000 -0.000059
1  0.569562 0.419444 -1.164074  1.570797 -0.000001 1.570797
2  -1.304696 14.808156 -57.135223  1.570796 0.000000 -0.000000
3  -1.304697 -11.423263 0.186836  1.570796 -0.000000 0.000000
4  -3.998632 1.621143 -23.578873  0.000000 -0.000000 -1.570795
5  0.000000 0.000000 0.000002  -1.570775 -1.570451 -0.000020
6  1.326318 -0.003921 0.000002  -0.000004 -0.000001 0.000796
7  4.926310 -0.003923 -0.000000  -0.000000 0.000000 0.000000
8  4.926314 -0.003923 0.000000  0.000000 -0.000000 -0.000000
9  4.926313 -0.003923 0.000000  0.000000 -0.000000 0.000000
10  4.926363 -0.001508 0.000000  0.000000 0.000000 0.059997
11  0.000002 0.001504 1.894737  -0.000015 -1.170800 3.110810
12  4.926316 -0.000000 0.000002  -1.068134 0.524576 -1.535695
13  11.118847 -0.432933 0.016665  0.028261 0.609803 -0.456805
14  11.368419 -0.000001 0.000001  -3.050962 0.713659 0.068336
15  1.126228 0.104085 -1.358369  0.129482 2.502867 -1.738411
16  2.373626 0.000001 -0.000000  0.383617 0.463621 -0.587320
17  1.071903 -0.000000 -0.000003  0.367762 0.624700 -0.402002
18  3.789471 -0.000905 -1.136841  0.141314 0.078771 1.479342
19  1.136844 0.000000 -0.000001  -0.000013 -0.000007 0.261782
20  1.136843 -0.000015 -0.000004  0.000006 0.000009 0.261796
21  3.789471 -0.000301 -0.378950  0.070237 0.045167 1.475765
22  1.326317 -0.000001 -0.000004  -0.000011 -0.000005 0.261781
23  1.326317 -0.000008 0.000007  -0.000004 -0.000006 0.270535
24  3.789471 0.000301 0.378946  -0.000652 0.011394 1.474588
25  1.136844 0.000000 -0.000000  -0.000009 -0.000003 0.261780
26  1.136842 -0.000008 0.000004  0.000000 0.000001 0.261806
27  3.789472 0.000906 1.136843  -0.134609 -0.052258 1.478898
28  0.947367 0.000000 -0.000001  -0.000004 0.000002 0.261780
29  0.947369 -0.000012 -0.000003  0.000003 0.000008 0.261796
30  9.964547 1.924415 0.840144  -1.196509 0.262443 0.720122
31  0.000004 0.001514 -1.894737  0.000010 1.370796 3.110774
32  4.927670 0.000032 0.000012  0.000002 -1.270802 -0.000002
33  11.368701 -0.000056 -0.000951  -0.000017 -0.000080 -0.200011
34  11.368418 -0.000001 0.000001  1.402442 0.163436 0.147737
35  1.126231 0.104083 1.358372  -2.662352 0.027542 0.801663
36  2.373624 0.000001 0.000001  0.000000 -0.000000 0.811521
37  1.071904 -0.000001 -0.000001  -0.000000 -0.000000 0.017445
38  3.789474 -0.000905 1.136842  0.316145 -0.290228 0.300536
39  1.136841 -0.000003 -0.000000  0.000000 0.000000 1.282817
40  1.136842 -0.000005 0.000001  -0.000000 -0.000000 0.514856
41  3.789474 -0.000302 0.378947  -0.093387 0.011732 1.036237
42  1.326318 0.000001 -0.000001  -0.000000 0.000000 0.802827
43  1.326315 0.000000 0.000000  -0.000000 0.000000 0.776661
44  3.789475 0.000302 -0.378948  -0.078304 0.068909 1.024229
45  1.136840 -0.000000 0.000003  -0.000000 0.000000 0.741746
46  1.136840 -0.000003 0.000001  0.000000 -0.000000 0.741746
47  3.789476 0.000906 -1.136842  0.023374 0.188898 1.037233
48  0.947369 -0.000003 -0.000001  -0.000000 0.000000 0.829007
49  0.947369 0.000001 -0.000000  -0.000000 0.000000 0.829007
50  8.551311 0.194140 -0.071738  1.257629 -1.547274 -1.282473
51  -3.724267 -0.000005 39.395706  0.000000 -0.000000 -0.000020
time 1
0  -9.384713 -13.439922 -4.868702  0.004048 -0.000000 -0.000059
1  0.569563 0.419444 -1.164075  1.570797 -0.000001 1.570797
2  -1.304695 14.405977 -57.251667  1.570796 0.000000 -0.000000
3  -1.304696 -11.423265 0.186836  1.570796 -0.000000 -0.000000
4  -3.998632 1.621143 -23.578873  0.000000 -0.000000 -1.570795
5  0.000000 0.000000 0.000002  -1.570775 -1.570451 -0.000020
6  1.326318 -0.003921 0.000002  -0.000004 -0.000001 0.000796
7  4.926310 -0.003923 -0.000000  -0.000000 0.000000 0.000000
8  4.926314 -0.003923 0.000000  0.000000 -0.000000 -0.000000
9  4.926313 -0.003923 0.000000  0.000000 -0.000000 0.000000
10  4.926363 -0.001508 0.000000  0.000000 0.000000 0.059997
11  0.000002 0.001504 1.894737  0.067814 -1.175889 3.046767
12  4.926315 -0.000000 0.000002  -1.112060 0.567895 -1.525779
13  11.119801 -0.431279 0.016601  0.028153 0.607472 -0.455067
14  11.368420 -0.000001 0.000001  -3.006098 0.784636 0.067755
15  1.126229 0.104084 -1.358366  0.097247 2.508563 -1.768134
16  2.373624 0.000000 -0.000002  0.370304 0.447533 -0.556948
17  1.071904 -0.000000 -0.000002  0.355000 0.603022 -0.387447
18  3.789472 -0.000905 -1.136840  0.139667 0.081379 1.458479
19  1.136843 0.000002 0.000002  -0.000013 -0.000007 0.279333
20  1.136844 -0.000013 -0.000002  0.000005 0.000009 0.287216
21  3.789472 -0.000302 -0.378949  0.070314 0.045541 1.454585
22  1.326316 -0.000001 -0.000002  -0.000011 -0.000005 0.279332
23  1.326317 -0.000008 0.000007  -0.000004 -0.000006 0.296257
24  3.789473 0.000301 0.378948  -0.000649 0.009207 1.453382
25  1.136845 -0.000000 -0.000001  -0.000008 -0.000003 0.279332
26  1.136841 -0.000008 0.000004  0.000000 0.000001 0.281771
27  3.789473 0.000906 1.136844  -0.132302 -0.056801 1.455564
28  0.947367 -0.000001 -0.000002  -0.000004 0.000002 0.283558
29  0.947369 -0.000012 -0.000002  0.000003 0.000007 0.262990
30  9.964547 1.924415 0.840144  -1.196509 0.262443 0.720122
31  0.000004 0.001514 -1.894737  0.000010 1.370796 3.110774
32  4.927670 0.000032 0.000012  0.000002 -1.270802 -0.000002
33  11.368701 -0.000056 -0.000951  -0.000017 -0.000080 -0.200011
34  11.368418 -0.000001 0.000001  1.403126 0.163190 0.162415
35  1.126234 0.104083 1.358372  -2.662352 0.027542 0.801663
36  2.373622 -0.000001 0.000002  0.000000 -0.000000 0.811521
37  1.071902 0.000001 -0.000001  -0.000000 -0.000000 0.017445
38  3.789475 -0.000906 1.136842  0.316145 -0.290228 0.300536
39  1.136843 0.000000 -0.000000  0.000000 0.000000 1.282817
40  1.136840 -0.000001 0.000002  -0.000000 0.000000 0.514856
41  3.789474 -0.000303 0.378947  -0.093387 0.011732 1.036237
42  1.326317 0.000001 -0.000001  -0.000000 0.000000 0.802827
43  1.326316 -0.000001 0.000000  -0.000000 0.000000 0.776661
44  3.789473 0.000300 -0.378948  -0.078304 0.068909 1.024229
45  1.136842 0.000000 0.000003  -0.000000 0.000000 0.741746
46  1.136841 -0.000003 0.000001  0.000000 -0.000000 0.741746
47  3.789475 0.000904 -1.136842  0.023374 0.188898 1.037233
48  0.947370 -0.000003 0.000000  -0.000000 0.000000 0.829007
49  0.947370 0.000001 -0.000000  -0.000000 0.000000 0.829008
50  8.551311 0.194140 -0.071738  1.257629 -1.547274 -1.282473
51  -3.631346 0.129235 39.395706  0.000000 -0.000000 -0.039212
time 2
0  -9.384713 -13.503449 -4.756214  0.017108 -0.000000 -0.000059
1  0.569564 0.419444 -1.164074  1.570797 -0.000001 1.570797
2  -1.304696 13.160057 -57.599247  1.570796 0.000000 -0.000000
3  -1.304696 -11.423263 0.186836  1.570796 -0.000000 0.000000
4  -3.998632 1.621143 -23.578873  0.000000 -0.000000 -1.570795
5  0.000000 0.000000 0.000002  -1.570775 -1.570451 -0.000020
6  1.326318 -0.003921 0.000002  -0.000004 -0.000001 0.000796
7  4.926310 -0.003923 -0.000000  -0.000000 0.000000 0.000000
8  4.926314 -0.003923 0.000000  0.000000 -0.000000 -0.000000
9  4.926313 -0.003923 0.000000  0.000000 -0.000000 0.000000
10  4.926363 -0.001508 0.000000  0.000000 0.000000 0.059997
11  0.000002 0.001504 1.894737  0.276010 -1.181321 2.848981
12  4.926315 0.000000 0.000002  -1.241088 0.697791 -1.494444
13  11.122683 -0.426279 0.016408  0.027827 0.600430 -0.449819
14  11.368421 -0.000003 0.000002  -2.873472 0.996606 0.066669
15  1.126229 0.104084 -1.358369  0.003482 2.530851 -1.853899
16  2.373625 -0.000000 0.000001  0.330568 0.399509 -0.466290
17  1.071903 -0.000002 -0.000002  0.316906 0.538314 -0.343999
18  3.789472 -0.000905 -1.136841  0.134343 0.089109 1.396168
19  1.136843 0.000002 0.000001  -0.000011 -0.000006 0.331720
20  1.136842 -0.000013 -0.000002  0.000005 0.000008 0.363094
21  3.789471 -0.000301 -0.378950  0.070338 0.046627 1.391355
22  1.326318 -0.000000 -0.000003  -0.000010 -0.000004 0.331720
23  1.326318 -0.000007 0.000007  -0.000003 -0.000005 0.373037
24  3.789472 0.000301 0.378947  -0.000639 0.002679 1.390083
25  1.136843 -0.000000 0.000001  -0.000008 -0.000002 0.331721
26  1.136842 -0.000008 0.000003  0.000000 0.000000 0.341365
27  3.789473 0.000906 1.136843  -0.124937 -0.070299 1.385871
28  0.947368 0.000000 -0.000002  -0.000003 0.000002 0.348563
29  0.947370 -0.000010 -0.000002  0.000003 0.000007 0.266555
30  9.964548 1.924415 0.840144  -1.196509 0.262443 0.720122
31  0.000004 0.001514 -1.894737  0.000010 1.370796 3.110774
32  4.927670 0.000032 0.000012  0.000002 -1.270802 -0.000002
33  11.368701 -0.000056 -0.000951  -0.000017 -0.000080 -0.200011
34  11.368418 -0.000001 0.000001  1.405150 0.162247 0.206218
35  1.126234 0.104084 1.358372  -2.662352 0.027542 0.801663
36  2.373625 0.000001 0.000001  0.000000 -0.000000 0.811521
37  1.071904 0.000001 -0.000001  -0.000000 -0.000000 0.017445
38  3.789475 -0.000904 1.136842  0.316145 -0.290228 0.300536
39  1.136841 -0.000001 -0.000000  0.000000 0.000000 1.282817
40  1.136842 -0.000005 0.000001  -0.000000 0.000000 0.514856
41  3.789474 -0.000302 0.378947  -0.093387 0.011732 1.036237
42  1.326322 0.000000 -0.000001  0.000000 0.000000 0.802827
43  1.326316 0.000002 0.000000  -0.000000 0.000000 0.776661
44  3.789474 0.000302 -0.378948  -0.078304 0.068909 1.024229
45  1.136842 0.000001 0.000003  -0.000000 0.000000 0.741746
46  1.136840 -0.000006 0.000001  0.000000 -0.000000 0.741746
47  3.789476 0.000906 -1.136842  0.023374 0.188898 1.037233
48  0.947369 -0.000002 -0.000000  -0.000000 0.000000 0.829007
49  0.947372 0.000002 -0.000000  -0.000000 0.000000 0.829010
50  8.551311 0.194140 -0.071738  1.257629 -1.547274 -1.282473
51  -3.346145 0.515004 39.395706  0.000000 -0.000000 -0.159501
time 3
0  -9.384713 -13.603460 -4.579124  0.040067 -0.000000 -0.000059
1  0.569564 0.419444 -1.164074  1.570797 -0.000001 1.570797
2  -1.304695 11.086847 -58.146442  1.570796 0.000000 -0.000000
3  -1.304695 -11.423263 0.186836  1.570796 -0.000000 -0.000000
4  -3.998632 1.621143 -23.578873  0.000000 -0.000000 -1.570795
5  0.000000 0.000000 0.000002  -1.570775 -1.570451 -0.000020
6  1.326318 -0.003921 0.000002  -0.000004 -0.000001 0.000796
7  4.926310 -0.003923 -0.000000  -0.000000 0.000000 0.000000
8  4.926314 -0.003923 0.000000  0.000000 -0.000000 -0.000000
9  4.926313 -0.003923 0.000000  0.000000 -0.000000 0.000000
10  4.926363 -0.001508 0.000000  0.000000 0.000000 0.059997
11  0.000002 0.001504 1.894737  0.592871 -1.160001 2.545794
12  4.926315 0.000000 0.000002  -1.434528 0.903418 -1.435747
13  11.127507 -0.417910 0.016086  0.027281 0.588642 -0.441033
14  11.368420 -0.000001 0.000002  -2.667644 1.330577 0.067749
15  1.126229 0.104084 -1.358367  -0.134753 2.580699 -1.977780
16  2.373625 -0.000001 -0.000001  0.268012 0.323906 -0.323566
17  1.071905 -0.000001 -0.000002  0.256935 0.436444 -0.275600
18  3.789472 -0.000906 -1.136841  0.124736 0.101043 1.297939
19  1.136843 0.000000 0.000000  -0.000009 -0.000005 0.414193
20  1.136843 -0.000011 -0.000002  0.000004 0.000007 0.482548
21  3.789471 -0.000301 -0.378949  0.069753 0.048210 1.291787
22  1.326317 -0.000001 -0.000001  -0.000008 -0.000003 0.414194
23  1.326317 -0.000005 0.000005  -0.000003 -0.000005 0.493912
24  3.789471 0.000301 0.378948  -0.000622 -0.007605 1.290433
25  1.136845 -0.000001 -0.000000  -0.000006 -0.000002 0.414197
26  1.136842 -0.000007 0.000002  0.000000 0.000000 0.435183
27  3.789472 0.000905 1.136842  -0.111896 -0.091267 1.275982
28  0.947367 -0.000000 -0.000002  -0.000003 0.000001 0.450900
29  0.947369 -0.000009 -0.000002  0.000002 0.000005 0.272167
30  9.964547 1.924416 0.840143  -1.196509 0.262443 0.720122
31  0.000004 0.001514 -1.894737  0.000010 1.370796 3.110774
32  4.927670 0.000032 0.000012  0.000002 -1.270802 -0.000002
33  11.368701 -0.000056 -0.000951  -0.000017 -0.000080 -0.200011
34  11.368418 -0.000001 0.000001  1.408260 0.160131 0.275144
35  1.126233 0.104083 1.358372  -2.662352 0.027542 0.801663
36  2.373623 -0.000001 -0.000000  0.000000 -0.000000 0.811521
37  1.071904 0.000001 -0.000001  -0.000000 -0.000000 0.017445
38  3.789472 -0.000905 1.136841  0.316145 -0.290228 0.300536
39  1.136842 -0.000002 -0.000001  0.000000 0.000000 1.282817
40  1.136841 -0.000001 0.000002  -0.000000 -0.000000 0.514856
41  3.789473 -0.000303 0.378946  -0.093387 0.011732 1.036237
42  1.326319 0.000003 -0.000001  0.000000 0.000000 0.802827
43  1.326316 0.000001 0.000000  -0.000000 0.000000 0.776661
44  3.789471 0.000301 -0.378948  -0.078304 0.068909 1.024229
45  1.136840 0.000001 0.000003  -0.000000 0.000000 0.741746
46  1.136841 -0.000004 0.000001  -0.000000 -0.000000 0.741746
47  3.789473 0.000905 -1.136842  0.023374 0.188898 1.037233
48  0.947370 -0.000001 0.000001  -0.000000 0.000000 0.829007
49  0.947371 0.000003 -0.000001  -0.000000 0.000000 0.829015
50  8.551311 0.194140 -0.071738  1.257629 -1.547274 -1.282473
51  -2.877876 1.122322 39.395706  0.000000 -0.000000 -0.357007
time 4
0  -9.384713 -13.725289 -4.363403  0.072559 -0.000000 -0.000059
1  0.569563 0.419444 -1.164074  1.570797 -0.000001 1.570797
2  -1.304695 8.350468 -58.813015  1.570796 0.000000 -0.000000
3  -1.304696 -11.423265 0.186836  1.570796 -0.000000 -0.000000
4  -3.998632 1.621143 -23.578873  0.000000 -0.000000 -1.570795
5  0.000000 0.000000 0.000002  -1.570775 -1.570451 -0.000020
6  1.326318 -0.003921 0.000002  -0.000004 -0.000001 0.000796
7  4.926310 -0.003923 -0.000000  -0.000000 0.000000 0.000000
8  4.926314 -0.003923 0.000000  0.000000 -0.000000 -0.000000
9  4.926313 -0.003923 0.000000  0.000000 -0.000000 0.000000
10  4.926363 -0.001508 0.000000  0.000000 0.000000 0.059997
11  0.000002 0.001504 1.894737  0.908495 -1.092421 2.242287
12  4.926316 0.000000 0.000002  -1.631506 1.154932 -1.324281
13  11.134263 -0.406191 0.015635  0.026516 0.572135 -0.428730
14  11.368419 -0.000001 0.000002  -2.426989 1.737720 0.068655
15  1.126229 0.104082 -1.358367  2.856371 0.479519 1.034426
16  2.373626 -0.000001 -0.000001  0.191808 0.231810 -0.149706
17  1.071903 -0.000001 -0.000001  0.183881 0.312350 -0.192279
18  3.789473 -0.000907 -1.136841  0.111045 0.115001 1.178028
19  1.136841 0.000001 -0.000001  -0.000007 -0.000004 0.514659
20  1.136842 -0.000009 -0.000002  0.000003 0.000005 0.628063
21  3.789473 -0.000301 -0.378950  0.068037 0.049831 1.170464
22  1.326318 -0.000000 -0.000002  -0.000006 -0.000002 0.514661
23  1.326316 -0.000003 0.000004  -0.000002 -0.000003 0.641156
24  3.789472 0.000299 0.378948  -0.000599 -0.020143 1.169046
25  1.136843 -0.000001 0.000000  -0.000004 -0.000001 0.514667
26  1.136842 -0.000005 0.000002  0.000000 0.000000 0.549469
27  3.789473 0.000905 1.136842  -0.093664 -0.116096 1.141736
28  0.947371 -0.000001 -0.000001  -0.000002 0.000001 0.575564
29  0.947369 -0.000005 -0.000002  0.000002 0.000004 0.279004
30  9.964548 1.924417 0.840147  -1.196509 0.262443 0.720122
31  0.000004 0.001514 -1.894737  0.000010 1.370796 3.110774
32  4.927670 0.000032 0.000012  0.000002 -1.270802 -0.000002
33  11.368701 -0.000056 -0.000951  -0.000017 -0.000080 -0.200011
34  11.368418 -0.000001 0.000001  1.411847 0.156519 0.359028
35  1.126233 0.104083 1.358371  -2.662352 0.027542 0.801663
36  2.373624 -0.000000 -0.000001  0.000000 -0.000000 0.811521
37  1.071903 -0.000000 0.000000  -0.000000 -0.000000 0.017445
38  3.789476 -0.000905 1.136841  0.316145 -0.290228 0.300536
39  1.136843 -0.000001 -0.000000  0.000000 0.000000 1.282817
40  1.136841 0.000000 0.000001  -0.000000 0.000000 0.514856
41  3.789477 -0.000302 0.378947  -0.093387 0.011732 1.036237
42  1.326318 0.000005 -0.000001  -0.000000 0.000000 0.802827
43  1.326315 0.000000 0.000001  -0.000000 0.000000 0.776661
44  3.789475 0.000301 -0.378948  -0.078304 0.068909 1.024229
45  1.136842 0.000003 0.000003  -0.000000 0.000000 0.741746
46  1.136840 -0.000005 0.000001  0.000000 -0.000000 0.741746
47  3.789476 0.000904 -1.136842  0.023374 0.188898 1.037233
48  0.947367 -0.000001 0.000000  -0.000000 0.000000 0.829007
49  0.947370 0.000001 -0.000000  -0.000000 0.000000 0.829020
50  8.551311 0.194140 -0.071738  1.257629 -1.547274 -1.282473
51  -2.271073 1.862131 39.395706  0.000000 -0.000000 -0.612943
time 5
0  -9.384713 -13.847118 -4.147678  0.112554 -0.000000 -0.000059
1  0.569563 0.419444 -1.164074  1.570797 -0.000001 1.570797
2  -1.304696 5.264502 -59.479580  1.570796 0.000000 -0.000000
3  -1.304695 -11.423265 0.186836  1.570796 -0.000000 -0.000000
4  -3.998632 1.621143 -23.578873  0.000000 -0.000000 -1.570795
5  0.000000 0.000000 0.000002  -1.570775 -1.570451 -0.000020
6  1.326318 -0.003921 0.000002  -0.000004 -0.000001 0.000796
7  4.926310 -0.003923 -0.000000  -0.000000 0.000000 0.000000
8  4.926314 -0.003923 0.000000  0.000000 -0.000000 -0.000000
9  4.926313 -0.003923 0.000000  0.000000 -0.000000 0.000000
10  4.926363 -0.001508 0.000000  0.000000 0.000000 0.059997
11  0.000002 0.001504 1.894737  1.134339 -0.994610 2.023401
12  4.926315 0.000000 0.000002  -1.602314 1.401063 -0.982540
13  11.142908 -0.391195 0.015058  0.025537 0.551013 -0.412989
14  11.368419 -0.000001 0.000002  -2.187998 2.145032 0.080835
15  1.126232 0.104084 -1.358369  2.725253 0.380467 0.929396
16  2.373626 0.000000 -0.000000  0.115604 0.139714 0.024154
17  1.071903 -0.000001 -0.000002  0.110827 0.188256 -0.108958
18  3.789474 -0.000906 -1.136842  0.095248 0.128083 1.057805
19  1.136844 0.000003 -0.000001  -0.000004 -0.000002 0.615125
20  1.136840 -0.000004 -0.000002  0.000002 0.000003 0.773577
21  3.789473 -0.000300 -0.378949  0.065267 0.050991 1.049111
22  1.326316 0.000001 -0.000001  -0.000003 -0.000001 0.615128
23  1.326316 -0.000004 0.000002  -0.000001 -0.000002 0.788400
24  3.789475 0.000303 0.378948  -0.000571 -0.032691 1.047661
25  1.136845 -0.000002 0.000000  -0.000003 -0.000001 0.615136
26  1.136843 -0.000008 0.000000  0.000000 0.000000 0.663755
27  3.789473 0.000906 1.136842  -0.072950 -0.139824 1.006954
28  0.947368 0.000000 -0.000001  -0.000001 0.000001 0.700227
29  0.947369 -0.000005 -0.000000  0.000001 0.000002 0.285840
30  9.964548 1.924416 0.840146  -1.196509 0.262443 0.720122
31  0.000004 0.001514 -1.894737  0.000010 1.370796 3.110774
32  4.927670 0.000032 0.000012  0.000002 -1.270802 -0.000002
33  11.368701 -0.000056 -0.000951  -0.000017 -0.000080 -0.200011
34  11.368418 -0.000001 0.000001  1.415120 0.151789 0.442800
35  1.126235 0.104085 1.358372  -2.662352 0.027542 0.801663
36  2.373626 -0.000001 -0.000002  0.000000 -0.000000 0.811521
37  1.071903 0.000001 0.000000  -0.000000 -0.000000 0.017445
38  3.789476 -0.000904 1.136842  0.316145 -0.290228 0.300536
39  1.136842 0.000001 -0.000001  0.000000 0.000000 1.282817
40  1.136841 -0.000001 0.000002  -0.000000 -0.000000 0.514856
41  3.789474 -0.000302 0.378946  -0.093387 0.011732 1.036237
42  1.326319 0.000002 -0.000000  -0.000000 0.000000 0.802827
43  1.326316 0.000002 0.000000  -0.000000 0.000000 0.776661
44  3.789475 0.000301 -0.378948  -0.078304 0.068909 1.024229
45  1.136842 0.000003 0.000003  -0.000000 0.000000 0.741746
46  1.136840 -0.000001 0.000000  0.000000 -0.000000 0.741746
47  3.789476 0.000907 -1.136841  0.023374 0.188898 1.037233
48  0.947368 -0.000004 0.000000  -0.000000 0.000000 0.829007
49  0.947370 0.000002 -0.000001  -0.000000 0.000000 0.829024
50  8.551311 0.194140 -0.071738  1.257629 -1.547274 -1.282473
51  -1.603967 2.601939 39.395706  0.000000 -0.000000 -0.894311
time 6
0  -9.384713 -13.947129 -3.970589  0.156880 -0.000000 -0.000059
1  0.569564 0.419444 -1.164074  1.570797 -0.000001 1.570797
2  -1.304696 2.195582 -60.026775  1.570796 0.000000 -0.000000
3  -1.304696 -11.423264 0.186836  1.570796 -0.000000 -0.000000
4  -3.998632 1.621143 -23.578873  0.000000 -0.000000 -1.570795
5  0.000000 0.000000 0.000002  -1.570775 -1.570451 -0.000020
6  1.326318 -0.003921 0.000002  -0.000004 -0.000001 0.000796
7  4.926310 -0.003923 -0.000000  -0.000000 0.000000 0.000000
8  4.926314 -0.003923 0.000000  0.000000 -0.000000 -0.000000
9  4.926313 -0.003923 0.000000  0.000000 -0.000000 0.000000
10  4.926363 -0.001508 0.000000  0.000000 0.000000 0.059997
11  0.000002 0.001504 1.894737  1.267377 -0.901000 1.892014
12  4.926316 0.000000 0.000002  -0.041785 1.463665 0.840767
13  11.153360 -0.373066 0.014360  0.024353 0.525477 -0.393957
14  11.368420 -0.000000 0.000002  -1.998835 2.479370 0.099020
15  1.126228 0.104084 -1.358369  2.630038 0.289294 0.860291
16  2.373625 -0.000002 -0.000000  0.053048 0.064111 0.166878
17  1.071904 -0.000001 -0.000001  0.050856 0.086386 -0.040559
18  3.789472 -0.000906 -1.136842  0.080783 0.137993 0.958863
19  1.136842 0.000002 -0.000001  -0.000002 -0.000001 0.697598
20  1.136841 -0.000002 -0.000001  0.000001 0.000001 0.893032
21  3.789472 -0.000300 -0.378950  0.062247 0.051511 0.949476
22  1.326318 -0.000000 -0.000000  -0.000002 -0.000001 0.697602
23  1.326316 -0.000000 0.000001  -0.000001 -0.000001 0.909275
24  3.789473 0.000302 0.378948  -0.000544 -0.043000 0.948016
25  1.136844 -0.000001 0.000001  -0.000001 -0.000000 0.697612
26  1.136841 -0.000003 0.000000  0.000000 0.000000 0.757573
27  3.789473 0.000905 1.136841  -0.054186 -0.158250 0.895840
28  0.947367 -0.000000 -0.000001  -0.000001 0.000000 0.802565
29  0.947370 -0.000002 0.000000  0.000000 0.000001 0.291452
30  9.964546 1.924416 0.840143  -1.196509 0.262443 0.720122
31  0.000004 0.001514 -1.894737  0.000010 1.370796 3.110774
32  4.927670 0.000032 0.000012  0.000002 -1.270802 -0.000002
33  11.368701 -0.000056 -0.000951  -0.000017 -0.000080 -0.200011
34  11.368418 -0.000001 0.000001  1.417506 0.147088 0.511468
35  1.126232 0.104084 1.358373  -2.662352 0.027542 0.801663
36  2.373624 0.000001 -0.000001  0.000000 0.000000 0.811521
37  1.071901 0.000001 -0.000001  0.000000 0.000000 0.017445
38  3.789474 -0.000904 1.136842  0.316145 -0.290228 0.300536
39  1.136840 -0.000001 -0.000001  0.000000 0.000000 1.282817
40  1.136841 -0.000001 0.000001  -0.000000 0.000000 0.514856
41  3.789473 -0.000302 0.378947  -0.093387 0.011732 1.036237
42  1.326320 -0.000000 0.000000  -0.000000 0.000000 0.802827
43  1.326316 -0.000001 0.000000  -0.000000 0.000000 0.776661
44  3.789472 0.000301 -0.378948  -0.078304 0.068909 1.024229
45  1.136840 0.000002 0.000002  -0.000000 0.000000 0.741746
46  1.136840 -0.000001 0.000000  0.000000 -0.000000 0.741746
47  3.789474 0.000905 -1.136842  0.023374 0.188898 1.037233
48  0.947368 -0.000003 -0.000000  -0.000000 0.000000 0.829007
49  0.947369 0.000003 -0.000001  -0.000000 0.000000 0.829029
50  8.551311 0.194140 -0.071738  1.257629 -1.547274 -1.282473
51  -0.963942 3.209258 39.395706  0.000000 -0.000000 -1.164254
time 7
0  -9.384713 -14.010656 -3.858101  0.202406 -0.000000 -0.000059
1  0.569563 0.419444 -1.164074  1.570797 -0.000001 1.570797
2  -1.304695 -0.563175 -60.374355  1.570796 0.000000 -0.000000
3  -1.304696 -11.423264 0.186836  1.570796 -0.000000 -0.000000
4  -3.998632 1.621143 -23.578873  0.000000 -0.000000 -1.570795
5  0.000000 0.000000 0.000002  -1.570775 -1.570451 -0.000020
6  1.326318 -0.003921 0.000002  -0.000004 -0.000001 0.000796
7  4.926310 -0.003923 -0.000000  -0.000000 0.000000 0.000000
8  4.926314 -0.003923 0.000000  0.000000 -0.000000 -0.000000
9  4.926313 -0.003923 0.000000  0.000000 -0.000000 0.000000
10  4.926363 -0.001508 0.000000  0.000000 0.000000 0.059997
11  0.000002 0.001504 1.894737  1.333855 -0.837624 1.824573
12  4.926316 0.000000 0.000002  0.324374 1.336438 1.380620
13  11.165492 -0.352019 0.013550  0.022980 0.495833 -0.371863
14  11.368420 -0.000000 0.000001  -1.881430 2.691772 0.123311
15  1.126230 0.104084 -1.358369  2.574278 0.227872 0.823761
16  2.373626 -0.000002 0.000001  0.013312 0.016088 0.257537
17  1.071905 0.000001 -0.000001  0.012762 0.021678 0.002888
18  3.789471 -0.000906 -1.136842  0.070930 0.143835 0.895894
19  1.136842 0.000001 -0.000001  -0.000000 -0.000000 0.749985
20  1.136841 0.000000 -0.000001  0.000000 0.000000 0.968910
21  3.789470 -0.000301 -0.378950  0.060002 0.051606 0.886184
22  1.326317 0.000002 -0.000000  -0.000000 -0.000000 0.749990
23  1.326316 -0.000002 0.000000  -0.000000 -0.000000 0.986055
24  3.789472 0.000302 0.378948  -0.000525 -0.049551 0.884722
25  1.136846 -0.000003 0.000001  -0.000000 -0.000000 0.750002
26  1.136841 -0.000005 -0.000000  0.000000 -0.000000 0.817167
27  3.789471 0.000905 1.136841  -0.041490 -0.169377 0.825020
28  0.947370 -0.000000 -0.000000  -0.000000 0.000000 0.867570
29  0.947369 -0.000002 0.000001  0.000000 0.000000 0.295017
30  9.964547 1.924416 0.840144  -1.196509 0.262443 0.720122
31  0.000004 0.001514 -1.894737  0.000010 1.370796 3.110774
32  4.927670 0.000032 0.000012  0.000002 -1.270802 -0.000002
33  11.368701 -0.000056 -0.000951  -0.000017 -0.000080 -0.200011
34  11.368418 -0.000001 0.000001  1.418855 0.143729 0.555032
35  1.126232 0.104083 1.358371  -2.662352 0.027542 0.801663
36  2.373623 -0.000001 0.000002  0.000000 -0.000000 0.811521
37  1.071901 -0.000001 0.000000  -0.000000 -0.000000 0.017445
38  3.789474 -0.000904 1.136842  0.316145 -0.290228 0.300536
39  1.136843 0.000000 0.000000  0.000000 0.000000 1.282817
40  1.136842 0.000001 0.000001  -0.000000 -0.000000 0.514856
41  3.789475 -0.000302 0.378947  -0.093387 0.011732 1.036237
42  1.326316 0.000001 -0.000002  0.000000 0.000000 0.802827
43  1.326316 -0.000000 0.000000  -0.000000 0.000000 0.776661
44  3.789473 0.000302 -0.378948  -0.078304 0.068909 1.024229
45  1.136841 0.000002 0.000004  -0.000000 0.000000 0.741746
46  1.136840 -0.000005 0.000001  0.000000 -0.000000 0.741746
47  3.789474 0.000905 -1.136842  0.023374 0.188898 1.037233
48  0.947368 -0.000001 0.000000  -0.000000 0.000000 0.829007
49  0.947371 0.000003 -0.000001  -0.000000 0.000000 0.829031
50  8.551311 0.194140 -0.071738  1.257629 -1.547274 -1.282473
51  -0.417783 3.595027 39.395706  0.000000 -0.000000 -1.394612
time 8
0  -9.384713 -14.031939 -3.820415  0.246871 -0.000000 -0.000059
1  0.569563 0.419444 -1.164074  1.570797 -0.000001 1.570797
2  -1.304696 -2.848634 -60.490799  1.570796 0.000000 -0.000000
3  -1.304696 -11.423264 0.186836  1.570796 -0.000000 -0.000000
4  -3.998632 1.621143 -23.578873  0.000000 -0.000000 -1.570795
5  0.000000 0.000000 0.000002  -1.570775 -1.570451 -0.000020
6  1.326318 -0.003921 0.000002  -0.000004 -0.000001 0.000796
7  4.926310 -0.003923 -0.000000  -0.000000 0.000000 0.000000
8  4.926314 -0.003923 0.000000  0.000000 -0.000000 -0.000000
9  4.926313 -0.003923 0.000000  0.000000 -0.000000 0.000000
10  4.926363 -0.001508 0.000000  0.000000 0.000000 0.059997
11  0.000002 0.001504 1.894737  1.353584 -0.815888 1.804157
12  4.926316 0.000000 0.000002  0.369103 1.270850 1.491262
13  11.179133 -0.328357 0.012639  0.021435 0.462504 -0.347023
14  11.368421 -0.000001 0.000002  1.304402 0.377895 -2.989916
15  1.126229 0.104084 -1.358369  2.556286 0.206793 0.812729
16  2.373625 -0.000002 0.000000  0.000000 -0.000000 0.287909
17  1.071904 0.000000 -0.000001  0.000000 0.000000 0.017444
18  3.789472 -0.000906 -1.136842  0.067518 0.145706 0.874778
19  1.136843 0.000004 -0.000001  0.000000 0.000000 0.767536
20  1.136840 -0.000001 -0.000000  0.000000 0.000000 0.994330
21  3.789472 -0.000300 -0.378949  0.059195 0.051594 0.864980
22  1.326317 -0.000000 0.000000  -0.000000 0.000000 0.767541
23  1.326316 -0.000000 -0.000001  0.000000 0.000000 1.011777
24  3.789471 0.000302 0.378948  -0.000518 -0.051747 0.863517
25  1.136846 -0.000003 0.000001  0.000000 0.000000 0.767553
26  1.136841 -0.000004 -0.000000  0.000000 -0.000000 0.837132
27  3.789470 0.000905 1.136841  -0.037108 -0.172995 0.801251
28  0.947368 0.000001 -0.000000  0.000000 0.000000 0.889348
29  0.947369 0.000002 0.000001  0.000000 -0.000000 0.296211
30  9.964547 1.924416 0.840144  -1.196509 0.262443 0.720122
31  0.000004 0.001514 -1.894737  0.000010 1.370796 3.110774
32  4.927670 0.000032 0.000012  0.000002 -1.270802 -0.000002
33  11.368701 -0.000056 -0.000951  -0.000017 -0.000080 -0.200011
34  11.368418 -0.000001 0.000001  1.419275 0.142540 0.569616
35  1.126233 0.104083 1.358371  -2.662352 0.027542 0.801663
36  2.373625 0.000001 0.000000  0.000000 -0.000000 0.811521
37  1.071905 0.000000 -0.000001  0.000000 -0.000000 0.017445
38  3.789475 -0.000904 1.136841  0.316145 -0.290228 0.300536
39  1.136843 0.000000 -0.000001  0.000000 0.000000 1.282817
40  1.136841 0.000000 0.000001  -0.000000 0.000000 0.514856
41  3.789476 -0.000303 0.378946  -0.093387 0.011732 1.036237
42  1.326319 -0.000000 -0.000000  -0.000000 0.000000 0.802827
43  1.326317 -0.000001 0.000001  -0.000000 0.000000 0.776661
44  3.789476 0.000301 -0.378948  -0.078304 0.068909 1.024229
45  1.136840 -0.000000 0.000003  -0.000000 -0.000000 0.741746
46  1.136840 -0.000001 0.000000  -0.000000 -0.000000 0.741746
47  3.789477 0.000905 -1.136842  0.023374 0.188898 1.037233
48  0.947366 -0.000002 -0.000001  -0.000000 0.000000 0.829007
49  0.947371 0.000003 -0.000002  -0.000000 0.000000 0.829032
50  8.551311 0.194140 -0.071738  1.257629 -1.547274 -1.282473
51  -0.000005 3.724267 39.395706  0.000000 -0.000000 -1.570821
time 9
0  -9.384713 -13.991405 -3.983086  0.294341 -0.000000 -0.000059
1  0.569563 0.419444 -1.164074  1.570797 -0.000001 1.570797
2  -1.304696 -4.954483 -60.194569  1.570796 0.000000 -0.000000
3  -1.304696 -11.423263 0.186836  1.570796 0.000000 0.000000
4  -3.998632 1.621143 -23.578873  0.000000 -0.000000 -1.570795
5  0.000000 0.000000 0.000002  -1.570775 -1.570451 -0.000020
6  1.326318 -0.003921 0.000002  -0.000004 -0.000001 0.000796
7  4.926310 -0.003923 -0.000000  -0.000000 0.000000 0.000000
8  4.926314 -0.003923 0.000000  0.000000 -0.000000 -0.000000
9  4.926313 -0.003923 0.000000  0.000000 -0.000000 0.000000
10  4.926363 -0.001508 0.000000  0.000000 0.000000 0.059997
11  0.000002 0.001504 1.894737  1.353584 -0.815888 1.804157
12  4.926316 0.000000 0.000002  0.410603 1.244553 1.542445
13  11.194058 -0.302467 0.011643  0.019745 0.426037 -0.319845
14  11.368421 -0.000001 0.000001  1.313121 0.379591 -2.957353
15  1.126229 0.104084 -1.358368  2.556286 0.206793 0.812729
16  2.373622 -0.000001 0.000001  0.000000 -0.000000 0.287909
17  1.071906 -0.000001 -0.000001  0.000000 0.000000 0.017444
18  3.789471 -0.000906 -1.136842  0.067518 0.145706 0.874778
19  1.136841 0.000004 -0.000002  0.000000 0.000000 0.767536
20  1.136840 -0.000000 -0.000001  0.000000 0.000000 0.994330
21  3.789472 -0.000300 -0.378949  0.059195 0.051594 0.864980
22  1.326319 -0.000001 0.000000  -0.000000 0.000000 0.767541
23  1.326316 -0.000002 -0.000000  0.000000 0.000000 1.011777
24  3.789473 0.000302 0.378949  -0.000518 -0.051747 0.863517
25  1.136846 -0.000002 0.000001  0.000000 0.000000 0.767553
26  1.136841 -0.000001 -0.000000  0.000000 -0.000000 0.837132
27  3.789470 0.000905 1.136841  -0.037108 -0.172995 0.801251
28  0.947369 -0.000000 -0.000000  0.000000 0.000000 0.889348
29  0.947369 0.000003 0.000001  0.000000 -0.000000 0.296211
30  9.964548 1.924416 0.840144  -1.196509 0.262443 0.720122
31  0.000004 0.001514 -1.894737  0.000010 1.370796 3.110774
32  4.927670 0.000032 0.000012  0.000002 -1.270802 -0.000002
33  11.368701 -0.000056 -0.000951  -0.000017 -0.000080 -0.200011
34  11.368418 -0.000001 0.000001  1.419095 0.142648 0.565469
35  1.126234 0.104084 1.358371  -2.662352 0.027542 0.801663
36  2.373625 0.000002 -0.000000  0.000000 -0.000000 0.811521
37  1.071904 0.000001 -0.000002  -0.000000 -0.000000 0.017445
38  3.789476 -0.000904 1.136841  0.316145 -0.290228 0.300536
39  1.136842 0.000001 -0.000001  0.000000 0.000000 1.282817
40  1.136842 0.000002 0.000001  -0.000000 -0.000000 0.514856
41  3.789476 -0.000302 0.378946  -0.093387 0.011732 1.036237
42  1.326319 0.000003 -0.000001  -0.000000 0.000000 0.802827
43  1.326316 -0.000001 0.000001  -0.000000 0.000000 0.776661
44  3.789475 0.000301 -0.378948  -0.078304 0.068909 1.024229
45  1.136842 -0.000000 0.000003  -0.000000 -0.000000 0.741746
46  1.136842 -0.000005 0.000001  0.000000 -0.000000 0.741746
47  3.789477 0.000906 -1.136842  0.023374 0.188898 1.037233
48  0.947365 0.000000 -0.000001  -0.000000 0.000000 0.829007
49  0.947370 0.000002 -0.000001  -0.000000 0.000000 0.829032
50  8.551311 0.194140 -0.071738  1.257629 -1.547274 -1.282473
51  0.351540 3.692145 39.395706  0.000000 -0.000000 -1.719094
time 10
0  -9.384713 -13.868861 -4.474892  0.349769 -0.000000 -0.000059
1  0.569562 0.419445 -1.164074  1.570797 -0.000001 1.570797
2  -1.304696 -7.216346 -59.298962  1.570796 0.000000 -0.000000
3  -1.304697 -11.423263 0.186836  1.570796 -0.000000 0.000000
4  -3.998632 1.621143 -23.578873  0.000000 -0.000000 -1.570795
5  0.000000 0.000000 0.000002  -1.570775 -1.570451 -0.000020
6  1.326318 -0.003921 0.000002  -0.000004 -0.000001 0.000796
7  4.926310 -0.003923 -0.000000  -0.000000 0.000000 0.000000
8  4.926314 -0.003923 0.000000  0.000000 -0.000000 -0.000000
9  4.926313 -0.003923 0.000000  0.000000 -0.000000 0.000000
10  4.926363 -0.001508 0.000000  0.000000 0.000000 0.059997
11  0.000002 0.001504 1.894737  1.353584 -0.815888 1.804157
12  4.926316 0.000000 0.000002  0.444943 1.219706 1.584944
13  11.209997 -0.274819 0.010578  0.017940 0.387093 -0.290821
14  11.368420 -0.000001 0.000002  1.317472 0.387679 -2.919824
15  1.126230 0.104084 -1.358368  2.556286 0.206793 0.812729
16  2.373623 -0.000002 0.000000  0.000000 -0.000000 0.287909
17  1.071906 0.000002 -0.000001  0.000000 0.000000 0.017444
18  3.789472 -0.000906 -1.136842  0.067518 0.145706 0.874778
19  1.136842 0.000003 -0.000001  0.000000 0.000000 0.767536
20  1.136840 0.000003 -0.000000  0.000000 -0.000000 0.994330
21  3.789472 -0.000301 -0.378950  0.059195 0.051594 0.864980
22  1.326320 -0.000001 0.000001  -0.000000 0.000000 0.767541
23  1.326316 0.000000 0.000000  0.000000 0.000000 1.011777
24  3.789474 0.000302 0.378949  -0.000518 -0.051747 0.863517
25  1.136847 -0.000002 0.000000  0.000000 0.000000 0.767553
26  1.136841 -0.000004 0.000000  0.000000 -0.000000 0.837132
27  3.789472 0.000905 1.136841  -0.037108 -0.172995 0.801251
28  0.947369 0.000001 -0.000000  0.000000 0.000000 0.889348
29  0.947369 -0.000002 0.000001  0.000000 -0.000000 0.296211
30  9.964550 1.924416 0.840145  -1.196509 0.262443 0.720122
31  0.000004 0.001514 -1.894737  0.000010 1.370796 3.110774
32  4.927670 0.000032 0.000012  0.000002 -1.270802 -0.000002
33  11.368701 -0.000056 -0.000951  -0.000017 -0.000080 -0.200011
34  11.368418 -0.000001 0.000001  1.418555 0.142950 0.552930
35  1.126231 0.104084 1.358372  -2.662352 0.027542 0.801663
36  2.373625 -0.000001 -0.000002  0.000000 -0.000000 0.811521
37  1.071902 0.000000 -0.000001  -0.000000 -0.000000 0.017445
38  3.789475 -0.000903 1.136842  0.316145 -0.290228 0.300536
39  1.136841 -0.000002 -0.000000  0.000000 0.000000 1.282817
40  1.136841 -0.000001 0.000002  -0.000000 0.000000 0.514856
41  3.789475 -0.000301 0.378947  -0.093387 0.011732 1.036237
42  1.326317 0.000003 -0.000001  0.000000 0.000000 0.802827
43  1.326316 0.000001 -0.000001  -0.000000 0.000000 0.776661
44  3.789473 0.000302 -0.378948  -0.078304 0.068909 1.024229
45  1.136844 0.000001 0.000003  -0.000000 0.000000 0.741746
46  1.136841 -0.000003 0.000001  0.000000 -0.000000 0.741746
47  3.789474 0.000907 -1.136841  0.023374 0.188898 1.037233
48  0.947369 -0.000002 -0.000000  -0.000000 0.000000 0.829007
49  0.947371 0.000001 -0.000001  -0.000000 0.000000 0.829031
50  8.551311 0.194140 -0.071738  1.257629 -1.547274 -1.282473
51  0.706313 3.595028 39.395706  0.000000 -0.000000 -1.868726
time 11
0  -9.384713 -13.664633 -5.294525  0.412757 -0.000000 -0.000059
1  0.569563 0.419444 -1.164075  1.570797 -0.000001 1.570797
2  -1.304695 -9.616573 -57.806381  1.570796 0.000000 -0.000000
3  -1.304696 -11.423264 0.186836  1.570796 -0.000000 0.000000
4  -3.998632 1.621143 -23.578873  0.000000 -0.000000 -1.570795
5  0.000000 0.000000 0.000002  -1.570775 -1.570451 -0.000020
6  1.326318 -0.003921 0.000002  -0.000004 -0.000001 0.000796
7  4.926310 -0.003923 -0.000000  -0.000000 0.000000 0.000000
8  4.926314 -0.003923 0.000000  0.000000 -0.000000 -0.000000
9  4.926313 -0.003923 0.000000  0.000000 -0.000000 0.000000
10  4.926363 -0.001508 0.000000  0.000000 0.000000 0.059997
11  0.000002 0.001504 1.894737  1.353584 -0.815888 1.804157
12  4.926316 0.000000 0.000002  0.474136 1.196698 1.620630
13  11.226638 -0.245954 0.009467  0.016056 0.346436 -0.260520
14  11.368419 -0.000001 0.000001  1.318335 0.401757 -2.877221
15  1.126228 0.104084 -1.358369  2.556286 0.206793 0.812729
16  2.373624 -0.000003 0.000000  -0.000000 -0.000000 0.287909
17  1.071905 -0.000000 -0.000001  0.000000 0.000000 0.017444
18  3.789470 -0.000907 -1.136842  0.067518 0.145706 0.874778
19  1.136843 0.000002 -0.000001  0.000000 0.000000 0.767536
20  1.136840 0.000000 -0.000001  0.000000 0.000000 0.994330
21  3.789471 -0.000301 -0.378949  0.059195 0.051594 0.864980
22  1.326320 -0.000002 0.000001  -0.000000 0.000000 0.767541
23  1.326316 -0.000001 0.000001  0.000000 0.000000 1.011777
24  3.789472 0.000302 0.378949  -0.000518 -0.051747 0.863517
25  1.136847 -0.000002 -0.000000  0.000000 0.000000 0.767553
26  1.136841 -0.000004 -0.000000  0.000000 -0.000000 0.837132
27  3.789470 0.000905 1.136841  -0.037108 -0.172995 0.801251
28  0.947369 -0.000000 -0.000001  -0.000000 0.000000 0.889348
29  0.947369 -0.000000 0.000001  0.000000 -0.000000 0.296211
30  9.964547 1.924416 0.840144  -1.196509 0.262443 0.720122
31  0.000004 0.001514 -1.894737  0.000010 1.370796 3.110774
32  4.927670 0.000032 0.000012  0.000002 -1.270802 -0.000002
33  11.368701 -0.000056 -0.000951  -0.000017 -0.000080 -0.200011
34  11.368418 -0.000001 0.000001  1.417668 0.143379 0.532030
35  1.126236 0.104083 1.358372  -2.662352 0.027542 0.801663
36  2.373625 -0.000000 0.000001  0.000000 -0.000000 0.811521
37  1.071904 0.000001 -0.000001  -0.000000 -0.000000 0.017445
38  3.789476 -0.000905 1.136842  0.316145 -0.290228 0.300536
39  1.136841 -0.000000 -0.000001  0.000000 0.000000 1.282817
40  1.136842 -0.000002 0.000001  -0.000000 0.000000 0.514856
41  3.789476 -0.000304 0.378947  -0.093387 0.011732 1.036237
42  1.326319 0.000001 -0.000001  0.000000 0.000000 0.802827
43  1.326317 0.000002 -0.000001  -0.000000 0.000000 0.776661
44  3.789475 0.000300 -0.378948  -0.078304 0.068909 1.024229
45  1.136842 0.000000 0.000002  -0.000000 0.000000 0.741746
46  1.136841 -0.000002 0.000001  0.000000 -0.000000 0.741746
47  3.789477 0.000905 -1.136841  0.023374 0.188898 1.037233
48  0.947368 -0.000001 -0.000001  -0.000000 0.000000 0.829007
49  0.947372 -0.000000 -0.000001  -0.000000 0.000000 0.829030
50  8.551311 0.194140 -0.071738  1.257629 -1.547274 -1.282473
51  1.061364 3.433176 39.395706  0.000000 -0.000000 -2.018479
time 12
0  -9.384713 -13.382090 -6.428452  0.482517 -0.000000 -0.000059
1  0.569564 0.419443 -1.164075  1.570797 -0.000001 1.570797
2  -1.304695 -12.127322 -55.741447  1.570796 0.000000 -0.000000
3  -1.304696 -11.423265 0.186837  1.570796 -0.000000 0.000000
4  -3.998632 1.621143 -23.578873  0.000000 -0.000000 -1.570795
5  0.000000 0.000000 0.000002  -1.570775 -1.570451 -0.000020
6  1.326318 -0.003921 0.000002  -0.000004 -0.000001 0.000796
7  4.926310 -0.003923 -0.000000  -0.000000 0.000000 0.000000
8  4.926314 -0.003923 0.000000  0.000000 -0.000000 -0.000000
9  4.926313 -0.003923 0.000000  0.000000 -0.000000 0.000000
10  4.926363 -0.001508 0.000000  0.000000 0.000000 0.059997
11  0.000002 0.001504 1.894737  1.353584 -0.815888 1.804157
12  4.926316 0.000000 0.000002  0.499585 1.175859 1.650796
13  11.243636 -0.216467 0.008332  0.014131 0.304902 -0.229565
14  11.368420 -0.000001 0.000001  1.316878 0.421054 -2.829582
15  1.126229 0.104084 -1.358369  2.556286 0.206793 0.812729
16  2.373624 -0.000002 0.000001  0.000000 -0.000000 0.287909
17  1.071906 0.000002 -0.000001  0.000000 0.000000 0.017444
18  3.789471 -0.000907 -1.136843  0.067518 0.145706 0.874778
19  1.136842 0.000003 -0.000003  0.000000 0.000000 0.767536
20  1.136840 0.000001 -0.000002  0.000000 0.000000 0.994330
21  3.789470 -0.000301 -0.378951  0.059195 0.051594 0.864980
22  1.326318 -0.000000 -0.000000  -0.000000 0.000000 0.767541
23  1.326316 0.000000 -0.000001  0.000000 -0.000000 1.011777
24  3.789471 0.000302 0.378948  -0.000518 -0.051747 0.863517
25  1.136845 -0.000002 0.000000  0.000000 0.000000 0.767553
26  1.136841 -0.000003 0.000001  0.000000 -0.000000 0.837132
27  3.789471 0.000905 1.136840  -0.037108 -0.172995 0.801251
28  0.947370 0.000000 -0.000000  0.000000 0.000000 0.889348
29  0.947370 -0.000001 0.000001  0.000000 -0.000000 0.296211
30  9.964546 1.924416 0.840144  -1.196509 0.262443 0.720122
31  0.000004 0.001514 -1.894737  0.000010 1.370796 3.110774
32  4.927670 0.000032 0.000012  0.000002 -1.270802 -0.000002
33  11.368701 -0.000056 -0.000951  -0.000017 -0.000080 -0.200011
34  11.368418 -0.000001 0.000001  1.416473 0.143818 0.503109
35  1.126232 0.104084 1.358371  -2.662352 0.027542 0.801663
36  2.373624 0.000002 -0.000001  0.000000 0.000000 0.811521
37  1.071901 0.000001 -0.000001  -0.000000 -0.000000 0.017445
38  3.789474 -0.000905 1.136841  0.316145 -0.290228 0.300536
39  1.136844 -0.000000 -0.000000  0.000000 0.000000 1.282817
40  1.136841 0.000001 0.000002  -0.000000 -0.000000 0.514856
41  3.789474 -0.000303 0.378946  -0.093387 0.011732 1.036237
42  1.326318 0.000004 -0.000001  0.000000 0.000000 0.802827
43  1.326316 0.000001 0.000001  -0.000000 0.000000 0.776661
44  3.789473 0.000301 -0.378949  -0.078304 0.068909 1.024229
45  1.136841 -0.000001 0.000003  -0.000000 -0.000000 0.741746
46  1.136841 -0.000005 0.000001  0.000000 -0.000000 0.741746
47  3.789473 0.000906 -1.136843  0.023374 0.188898 1.037233
48  0.947367 0.000000 -0.000000  -0.000000 0.000000 0.829007
49  0.947371 -0.000000 0.000000  -0.000000 0.000000 0.829029
50  8.551311 0.194140 -0.071738  1.257629 -1.547274 -1.282473
51  1.412863 3.209260 39.395706  0.000000 -0.000000 -2.166734
time 13
0  -9.384713 -13.028523 -7.847427  0.557793 -0.000000 -0.000059
1  0.569564 0.419445 -1.164074  1.570797 -0.000001 1.570797
2  -1.304695 -14.709049 -53.157444  1.570796 0.000000 -0.000000
3  -1.304695 -11.423265 0.186837  1.570796 -0.000000 0.000000
4  -3.998632 1.621143 -23.578873  0.000000 -0.000000 -1.570795
5  0.000000 0.000000 0.000002  -1.570775 -1.570451 -0.000020
6  1.326318 -0.003921 0.000002  -0.000004 -0.000001 0.000796
7  4.926310 -0.003923 -0.000000  -0.000000 0.000000 0.000000
8  4.926314 -0.003923 0.000000  0.000000 -0.000000 -0.000000
9  4.926313 -0.003923 0.000000  0.000000 -0.000000 0.000000
10  4.926363 -0.001508 0.000000  0.000000 0.000000 0.059997
11  0.000002 0.001504 1.894737  1.353584 -0.815888 1.804157
12  4.926316 0.000000 0.000002  0.522238 1.157452 1.676345
13  11.260634 -0.186980 0.007197  0.012206 0.263368 -0.198610
14  11.368420 -0.000000 0.000002  1.314471 0.444394 -2.777182
15  1.126231 0.104084 -1.358369  2.556286 0.206793 0.812729
16  2.373625 -0.000001 -0.000000  0.000000 -0.000000 0.287909
17  1.071903 0.000002 -0.000002  -0.000000 0.000000 0.017444
18  3.789474 -0.000906 -1.136843  0.067518 0.145706 0.874778
19  1.136842 0.000003 -0.000001  0.000000 0.000000 0.767536
20  1.136840 0.000001 -0.000001  0.000000 0.000000 0.994330
21  3.789473 -0.000300 -0.378951  0.059195 0.051594 0.864980
22  1.326317 -0.000000 -0.000001  -0.000000 0.000000 0.767541
23  1.326316 -0.000003 -0.000000  0.000000 -0.000000 1.011777
24  3.789472 0.000302 0.378946  -0.000518 -0.051747 0.863517
25  1.136846 -0.000001 -0.000000  0.000000 0.000000 0.767553
26  1.136842 -0.000003 0.000001  0.000000 -0.000000 0.837132
27  3.789473 0.000905 1.136840  -0.037108 -0.172995 0.801251
28  0.947369 0.000000 -0.000000  0.000000 0.000000 0.889348
29  0.947370 -0.000002 0.000001  0.000000 -0.000000 0.296211
30  9.964548 1.924416 0.840144  -1.196509 0.262443 0.720122
31  0.000004 0.001514 -1.894737  0.000010 1.370796 3.110774
32  4.927670 0.000032 0.000012  0.000002 -1.270802 -0.000002
33  11.368701 -0.000056 -0.000951  -0.000017 -0.000080 -0.200011
34  11.368418 -0.000001 0.000001  1.415039 0.144118 0.466910
35  1.126232 0.104083 1.358372  -2.662352 0.027542 0.801663
36  2.373625 -0.000001 0.000002  0.000000 -0.000000 0.811521
37  1.071902 0.000000 0.000000  -0.000000 -0.000000 0.017445
38  3.789475 -0.000905 1.136842  0.316145 -0.290228 0.300536
39  1.136844 -0.000001 -0.000000  0.000000 0.000000 1.282817
40  1.136840 0.000002 0.000002  -0.000000 -0.000000 0.514856
41  3.789476 -0.000303 0.378947  -0.093387 0.011732 1.036237
42  1.326319 0.000002 -0.000001  0.000000 0.000000 0.802827
43  1.326316 0.000001 0.000000  -0.000000 0.000000 0.776661
44  3.789475 0.000301 -0.378947  -0.078304 0.068909 1.024229
45  1.136841 0.000000 0.000003  -0.000000 0.000000 0.741746
46  1.136841 -0.000004 0.000001  0.000000 -0.000000 0.741746
47  3.789477 0.000905 -1.136841  0.023374 0.188898 1.037233
48  0.947367 -0.000002 -0.000001  0.000000 0.000000 0.829007
49  0.947369 -0.000001 0.000000  -0.000000 0.000000 0.829027
50  8.551311 0.194140 -0.071738  1.257629 -1.547274 -1.282473
51  1.756096 2.929057 39.395706  0.000000 -0.000000 -2.311498
time 14
0  -9.384712 -12.615765 -9.503952  0.636813 -0.000000 -0.000059
1  0.569564 0.419444 -1.164075  1.570797 -0.000001 1.570797
2  -1.304696 -17.310272 -50.140835  1.570796 0.000000 -0.000000
3  -1.304696 -11.423263 0.186836  1.570796 -0.000000 -0.000000
4  -3.998632 1.621143 -23.578873  0.000000 -0.000000 -1.570795
5  0.000000 0.000000 0.000002  -1.570775 -1.570451 -0.000020
6  1.326318 -0.003921 0.000002  -0.000004 -0.000001 0.000796
7  4.926310 -0.003923 -0.000000  -0.000000 0.000000 0.000000
8  4.926314 -0.003923 0.000000  0.000000 -0.000000 -0.000000
9  4.926313 -0.003923 0.000000  0.000000 -0.000000 0.000000
10  4.926363 -0.001508 0.000000  0.000000 0.000000 0.059997
11  0.000002 0.001504 1.894737  1.353584 -0.815888 1.804157
12  4.926316 0.000000 0.000002  0.542701 1.141655 1.697920
13  11.277275 -0.158115 0.006086  0.010322 0.222711 -0.168309
14  11.368422 -0.000002 0.000002  1.312516 0.470218 -2.720655
15  1.126230 0.104084 -1.358369  2.556286 0.206793 0.812729
16  2.373626 -0.000000 0.000000  0.000000 -0.000000 0.287909
17  1.071903 0.000001 -0.000001  0.000000 0.000000 0.017444
18  3.789473 -0.000906 -1.136842  0.067518 0.145706 0.874778
19  1.136843 0.000003 -0.000001  0.000000 -0.000000 0.767536
20  1.136840 -0.000001 0.000002  0.000000 0.000000 0.994330
21  3.789474 -0.000300 -0.378949  0.059195 0.051594 0.864980
22  1.326317 0.000000 -0.000004  -0.000000 0.000000 0.767541
23  1.326316 -0.000001 -0.000002  0.000000 0.000000 1.011777
24  3.789474 0.000302 0.378949  -0.000518 -0.051747 0.863517
25  1.136845 -0.000001 0.000001  0.000000 0.000000 0.767553
26  1.136842 -0.000004 -0.000001  0.000000 -0.000000 0.837132
27  3.789472 0.000904 1.136840  -0.037108 -0.172995 0.801251
28  0.947368 0.000000 0.000001  0.000000 0.000000 0.889348
29  0.947369 0.000001 0.000001  0.000000 -0.000000 0.296211
30  9.964548 1.924416 0.840144  -1.196509 0.262443 0.720122
31  0.000004 0.001514 -1.894737  0.000010 1.370796 3.110774
32  4.927670 0.000032 0.000012  0.000002 -1.270802 -0.000002
33  11.368701 -0.000056 -0.000951  -0.000017 -0.000080 -0.200011
34  11.368418 -0.000001 0.000001  1.413466 0.144125 0.424644
35  1.126233 0.104084 1.358371  -2.662352 0.027542 0.801663
36  2.373626 -0.000000 0.000001  0.000000 -0.000000 0.811521
37  1.071902 -0.000000 -0.000000  -0.000000 -0.000000 0.017445
38  3.789475 -0.000904 1.136841  0.316145 -0.290228 0.300536
39  1.136844 -0.000001 -0.000000  0.000000 0.000000 1.282817
40  1.136840 0.000001 0.000002  -0.000000 -0.000000 0.514856
41  3.789475 -0.000302 0.378946  -0.093387 0.011732 1.036237
42  1.326319 0.000002 -0.000001  0.000000 0.000000 0.802827
43  1.326315 -0.000001 0.000000  -0.000000 0.000000 0.776661
44  3.789475 0.000303 -0.378948  -0.078304 0.068909 1.024229
45  1.136843 0.000000 0.000003  -0.000000 0.000000 0.741746
46  1.136840 -0.000002 0.000001  0.000000 -0.000000 0.741746
47  3.789476 0.000906 -1.136842  0.023374 0.188898 1.037233
48  0.947366 0.000000 -0.000001  -0.000000 0.000000 0.829007
49  0.947371 -0.000001 0.000000  -0.000000 0.000000 0.829024
50  8.551311 0.194140 -0.071738  1.257629 -1.547274 -1.282473
51  2.085598 2.601944 39.395706  0.000000 -0.000000 -2.450475
time 15
0  -9.384712 -12.160251 -11.332062  0.717333 -0.000000 -0.000059
1  0.569562 0.419444 -1.164074  1.570797 -0.000001 1.570797
2  -1.304696 -19.869411 -46.811760  1.570796 0.000000 -0.000000
3  -1.304696 -11.423263 0.186837  1.570796 0.000000 -0.000000
4  -3.998632 1.621143 -23.578873  0.000000 -0.000000 -1.570795
5  0.000000 0.000000 0.000002  -1.570775 -1.570451 -0.000020
6  1.326318 -0.003921 0.000002  -0.000004 -0.000001 0.000796
7  4.926310 -0.003923 -0.000000  -0.000000 0.000000 0.000000
8  4.926314 -0.003923 0.000000  0.000000 -0.000000 -0.000000
9  4.926313 -0.003923 0.000000  0.000000 -0.000000 0.000000
10  4.926363 -0.001508 0.000000  0.000000 0.000000 0.059997
11  0.000002 0.001504 1.894737  1.353584 -0.815888 1.804157
12  4.926316 0.000000 0.000002  0.561307 1.128544 1.715998
13  11.293214 -0.130467 0.005022  0.008517 0.183767 -0.139285
14  11.368419 -0.000001 0.000001  1.312209 0.496721 -2.661113
15  1.126230 0.104084 -1.358368  2.556286 0.206793 0.812729
16  2.373624 -0.000003 0.000001  0.000000 0.000000 0.287909
17  1.071904 0.000000 -0.000000  0.000000 0.000000 0.017444
18  3.789472 -0.000906 -1.136842  0.067518 0.145706 0.874778
19  1.136842 0.000002 -0.000001  -0.000000 -0.000000 0.767536
20  1.136841 -0.000001 -0.000003  0.000000 0.000000 0.994330
21  3.789473 -0.000300 -0.378949  0.059195 0.051594 0.864980
22  1.326316 0.000000 -0.000002  -0.000000 0.000000 0.767541
23  1.326316 0.000000 -0.000001  -0.000000 0.000000 1.011777
24  3.789471 0.000302 0.378947  -0.000518 -0.051747 0.863517
25  1.136846 -0.000003 0.000001  0.000000 0.000000 0.767553
26  1.136841 -0.000003 0.000001  0.000000 -0.000000 0.837132
27  3.789472 0.000905 1.136841  -0.037108 -0.172995 0.801251
28  0.947371 -0.000000 0.000000  0.000000 0.000000 0.889348
29  0.947370 -0.000001 0.000001  0.000000 -0.000000 0.296211
30  9.964547 1.924415 0.840144  -1.196509 0.262443 0.720122
31  0.000004 0.001514 -1.894737  0.000010 1.370796 3.110774
32  4.927670 0.000032 0.000012  0.000002 -1.270802 -0.000002
33  11.368701 -0.000056 -0.000951  -0.000017 -0.000080 -0.200011
34  11.368418 -0.000001 0.000001  1.411877 0.143716 0.378000
35  1.126234 0.104084 1.358372  -2.662352 0.027542 0.801663
36  2.373623 -0.000001 0.000001  0.000000 -0.000000 0.811521
37  1.071903 0.000001 -0.000001  -0.000000 -0.000000 0.017445
38  3.789475 -0.000904 1.136841  0.316145 -0.290228 0.300536
39  1.136845 0.000001 -0.000001  0.000000 0.000000 1.282817
40  1.136841 -0.000002 0.000002  -0.000000 0.000000 0.514856
41  3.789474 -0.000302 0.378946  -0.093387 0.011732 1.036237
42  1.326321 0.000001 -0.000001  0.000000 0.000000 0.802827
43  1.326316 -0.000002 0.000001  -0.000000 0.000000 0.776661
44  3.789474 0.000302 -0.378948  -0.078304 0.068909 1.024229
45  1.136842 0.000001 0.000003  -0.000000 0.000000 0.741746
46  1.136840 -0.000002 0.000001  0.000000 -0.000000 0.741746
47  3.789474 0.000904 -1.136842  0.023374 0.188898 1.037233
48  0.947367 -0.000002 0.000000  -0.000000 0.000000 0.829007
49  0.947371 0.000001 -0.000002  -0.000000 0.000000 0.829022
50  8.551311 0.194140 -0.071738  1.257629 -1.547274 -1.282473
51  2.395494 2.240948 39.395706  0.000000 -0.000000 -2.581181
time 16
0  -9.384712 -11.682259 -13.250389  0.796766 -0.000000 -0.000059
1  0.569564 0.419444 -1.164075  1.570797 -0.000001 1.570797
2  -1.304696 -22.319016 -43.318401  1.570796 0.000000 -0.000000
3  -1.304695 -11.423265 0.186836  1.570796 -0.000000 -0.000000
4  -3.998632 1.621143 -23.578873  0.000000 -0.000000 -1.570795
5  0.000000 0.000000 0.000002  -1.570775 -1.570451 -0.000020
6  1.326318 -0.003921 0.000002  -0.000004 -0.000001 0.000796
7  4.926310 -0.003923 -0.000000  -0.000000 0.000000 0.000000
8  4.926314 -0.003923 0.000000  0.000000 -0.000000 -0.000000
9  4.926313 -0.003923 0.000000  0.000000 -0.000000 0.000000
10  4.926363 -0.001508 0.000000  0.000000 0.000000 0.059997
11  0.000002 0.001504 1.894737  1.353584 -0.815888 1.804157
12  4.926316 0.000000 0.000002  0.578186 1.118071 1.730958
13  11.308139 -0.104577 0.004024  0.006827 0.147300 -0.112107
14  11.368420 -0.000001 0.000001  1.314298 0.522088 -2.600209
15  1.126227 0.104084 -1.358367  2.556286 0.206793 0.812729
16  2.373624 -0.000000 0.000001  -0.000000 -0.000000 0.287909
17  1.071905 -0.000001 -0.000002  0.000000 -0.000000 0.017444
18  3.789470 -0.000906 -1.136842  0.067518 0.145706 0.874778
19  1.136842 0.000003 -0.000003  -0.000000 -0.000000 0.767536
20  1.136841 0.000001 -0.000001  0.000000 0.000000 0.994330
21  3.789471 -0.000300 -0.378948  0.059195 0.051594 0.864980
22  1.326317 0.000000 -0.000002  -0.000000 0.000000 0.767541
23  1.326316 -0.000000 -0.000003  -0.000000 0.000000 1.011777
24  3.789471 0.000302 0.378950  -0.000518 -0.051747 0.863517
25  1.136846 -0.000001 0.000001  0.000000 0.000000 0.767553
26  1.136841 -0.000003 0.000001  0.000000 -0.000000 0.837132
27  3.789469 0.000905 1.136840  -0.037108 -0.172995 0.801251
28  0.947368 -0.000001 0.000000  0.000000 -0.000000 0.889348
29  0.947369 0.000000 -0.000000  0.000000 -0.000000 0.296211
30  9.964548 1.924416 0.840144  -1.196509 0.262443 0.720122
31  0.000004 0.001514 -1.894737  0.000010 1.370796 3.110774
32  4.927670 0.000032 0.000012  0.000002 -1.270802 -0.000002
33  11.368701 -0.000056 -0.000951  -0.000017 -0.000080 -0.200011
34  11.368418 -0.000001 0.000001  1.410400 0.142830 0.329060
35  1.126232 0.104083 1.358372  -2.662352 0.027542 0.801663
36  2.373625 0.000001 0.000001  0.000000 -0.000000 0.811521
37  1.071901 0.000000 0.000000  -0.000000 -0.000000 0.017445
38  3.789474 -0.000905 1.136842  0.316145 -0.290228 0.300536
39  1.136842 0.000002 -0.000000  0.000000 0.000000 1.282817
40  1.136840 0.000000 0.000002  -0.000000 0.000000 0.514856
41  3.789475 -0.000303 0.378947  -0.093387 0.011732 1.036237
42  1.326317 0.000001 -0.000002  0.000000 0.000000 0.802827
43  1.326315 -0.000001 0.000001  -0.000000 0.000000 0.776661
44  3.789473 0.000301 -0.378948  -0.078304 0.068909 1.024229
45  1.136842 0.000000 0.000003  -0.000000 0.000000 0.741746
46  1.136840 -0.000004 0.000000  0.000000 -0.000000 0.741746
47  3.789473 0.000905 -1.136842  0.023374 0.188898 1.037233
48  0.947367 0.000001 -0.000000  -0.000000 0.000000 0.829007
49  0.947370 0.000002 -0.000000  -0.000000 0.000000 0.829020
50  8.551311 0.194140 -0.071738  1.257629 -1.547274 -1.282473
51  2.680004 1.862137 39.395706  0.000000 -0.000000 -2.701180
time 17
0  -9.384712 -11.204266 -15.168716  0.872409 -0.000000 -0.000059
1  0.569564 0.419442 -1.164075  1.570797 -0.000001 1.570797
2  -1.304696 -24.592012 -39.825039  1.570796 0.000000 -0.000000
3  -1.304696 -11.423265 0.186836  1.570796 0.000000 0.000000
4  -3.998632 1.621143 -23.578873  0.000000 -0.000000 -1.570795
5  0.000000 0.000000 0.000002  -1.570775 -1.570451 -0.000020
6  1.326318 -0.003921 0.000002  -0.000004 -0.000001 0.000796
7  4.926310 -0.003923 -0.000000  -0.000000 0.000000 0.000000
8  4.926314 -0.003923 0.000000  0.000000 -0.000000 -0.000000
9  4.926313 -0.003923 0.000000  0.000000 -0.000000 0.000000
10  4.926363 -0.001508 0.000000  0.000000 0.000000 0.059997
11  0.000002 0.001504 1.894737  1.353584 -0.815888 1.804157
12  4.926316 0.000000 0.000002  0.593319 1.110067 1.743123
13  11.321779 -0.080914 0.003114  0.005282 0.113971 -0.087267
14  11.368420 -0.000000 0.000001  1.318910 0.544789 -2.540086
15  1.126230 0.104084 -1.358369  2.556286 0.206793 0.812729
16  2.373625 -0.000001 0.000001  -0.000000 -0.000000 0.287909
17  1.071905 -0.000000 -0.000001  0.000000 0.000000 0.017444
18  3.789471 -0.000907 -1.136844  0.067518 0.145706 0.874778
19  1.136843 0.000002 0.000000  0.000000 0.000000 0.767536
20  1.136840 -0.000001 -0.000001  0.000000 0.000000 0.994330
21  3.789472 -0.000301 -0.378951  0.059195 0.051594 0.864980
22  1.326318 -0.000001 0.000000  -0.000000 0.000000 0.767541
23  1.326316 0.000001 0.000002  0.000000 0.000000 1.011777
24  3.789473 0.000302 0.378949  -0.000518 -0.051747 0.863517
25  1.136846 -0.000002 0.000000  0.000000 0.000000 0.767553
26  1.136841 -0.000004 -0.000001  -0.000000 -0.000000 0.837132
27  3.789471 0.000905 1.136840  -0.037108 -0.172995 0.801251
28  0.947368 -0.000000 -0.000001  0.000000 0.000000 0.889348
29  0.947369 0.000000 0.000001  0.000000 -0.000000 0.296211
30  9.964548 1.924415 0.840144  -1.196509 0.262443 0.720122
31  0.000004 0.001514 -1.894737  0.000010 1.370796 3.110774
32  4.927670 0.000032 0.000012  0.000002 -1.270802 -0.000002
33  11.368701 -0.000056 -0.000951  -0.000017 -0.000080 -0.200011
34  11.368418 -0.000001 0.000001  1.409145 0.141496 0.280135
35  1.126231 0.104084 1.358372  -2.662352 0.027542 0.801663
36  2.373625 -0.000001 0.000000  0.000000 -0.000000 0.811521
37  1.071903 0.000002 -0.000001  -0.000000 -0.000000 0.017445
38  3.789474 -0.000904 1.136842  0.316145 -0.290228 0.300536
39  1.136845 -0.000002 -0.000000  0.000000 0.000000 1.282817
40  1.136840 -0.000001 0.000002  -0.000000 -0.000000 0.514856
41  3.789474 -0.000301 0.378947  -0.093387 0.011732 1.036237
42  1.326319 0.000001 -0.000001  0.000000 0.000000 0.802827
43  1.326316 -0.000000 -0.000000  -0.000000 0.000000 0.776661
44  3.789473 0.000302 -0.378948  -0.078304 0.068909 1.024229
45  1.136842 0.000001 0.000003  -0.000000 0.000000 0.741746
46  1.136840 -0.000004 0.000001  0.000000 -0.000000 0.741746
47  3.789474 0.000905 -1.136842  0.023374 0.188898 1.037233
48  0.947366 -0.000001 -0.000001  -0.000000 0.000000 0.829007
49  0.947371 0.000006 -0.000001  -0.000000 0.000000 0.829017
50  8.551311 0.194140 -0.071738  1.257629 -1.547274 -1.282473
51  2.934051 1.483326 39.395706  0.000000 -0.000000 -2.808328
time 18
0  -9.384712 -10.748753 -16.996834  0.941714 -0.000000 -0.000059
1  0.569562 0.419443 -1.164074  1.570797 -0.000001 1.570797
2  -1.304696 -26.628572 -36.495964  1.570796 0.000000 -0.000000
3  -1.304696 -11.423262 0.186836  1.570796 0.000000 -0.000000
4  -3.998632 1.621143 -23.578873  0.000000 -0.000000 -1.570795
5  0.000000 0.000000 0.000002  -1.570775 -1.570451 -0.000020
6  1.326318 -0.003921 0.000002  -0.000004 -0.000001 0.000796
7  4.926310 -0.003923 -0.000000  -0.000000 0.000000 0.000000
8  4.926314 -0.003923 0.000000  0.000000 -0.000000 -0.000000
9  4.926313 -0.003923 0.000000  0.000000 -0.000000 0.000000
10  4.926363 -0.001508 0.000000  0.000000 0.000000 0.059997
11  0.000002 0.001504 1.894737  1.353584 -0.815888 1.804157
12  4.926316 0.000000 0.000002  0.606611 1.104254 1.752799
13  11.333914 -0.059868 0.002304  0.003908 0.084326 -0.065174
14  11.368420 -0.000001 0.000002  1.325561 0.563814 -2.483160
15  1.126230 0.104084 -1.358369  2.556286 0.206793 0.812729
16  2.373625 -0.000003 0.000002  -0.000000 -0.000000 0.287909
17  1.071904 0.000003 -0.000002  0.000000 0.000000 0.017444
18  3.789472 -0.000906 -1.136843  0.067518 0.145706 0.874778
19  1.136843 0.000002 -0.000000  0.000000 -0.000000 0.767536
20  1.136840 0.000001 -0.000002  0.000000 0.000000 0.994330
21  3.789472 -0.000300 -0.378951  0.059195 0.051594 0.864980
22  1.326317 0.000000 0.000001  -0.000000 0.000000 0.767541
23  1.326316 0.000000 -0.000001  0.000000 0.000000 1.011777
24  3.789473 0.000302 0.378948  -0.000518 -0.051747 0.863517
25  1.136846 -0.000002 -0.000000  0.000000 0.000000 0.767553
26  1.136841 -0.000003 -0.000002  0.000000 -0.000000 0.837132
27  3.789471 0.000905 1.136841  -0.037108 -0.172995 0.801251
28  0.947368 -0.000000 -0.000001  0.000000 0.000000 0.889348
29  0.947369 0.000001 0.000000  0.000000 -0.000000 0.296211
30  9.964548 1.924416 0.840145  -1.196509 0.262443 0.720122
31  0.000004 0.001514 -1.894737  0.000010 1.370796 3.110774
32  4.927670 0.000032 0.000012  0.000002 -1.270802 -0.000002
33  11.368701 -0.000056 -0.000951  -0.000017 -0.000080 -0.200011
34  11.368418 -0.000001 0.000001  1.408178 0.139824 0.233530
35  1.126233 0.104083 1.358372  -2.662352 0.027542 0.801663
36  2.373624 -0.000001 0.000001  0.000000 -0.000000 0.811521
37  1.071903 -0.000000 -0.000001  -0.000000 -0.000000 0.017445
38  3.789474 -0.000906 1.136841  0.316145 -0.290228 0.300536
39  1.136841 -0.000000 0.000000  0.000000 0.000000 1.282817
40  1.136842 -0.000001 0.000002  -0.000000 -0.000000 0.514856
41  3.789475 -0.000303 0.378946  -0.093387 0.011732 1.036237
42  1.326318 0.000000 -0.000001  0.000000 0.000000 0.802827
43  1.326316 0.000000 0.000001  -0.000000 0.000000 0.776661
44  3.789473 0.000301 -0.378948  -0.078304 0.068909 1.024229
45  1.136842 0.000002 0.000003  -0.000000 0.000000 0.741746
46  1.136840 0.000000 0.000001  0.000000 -0.000000 0.741746
47  3.789474 0.000904 -1.136842  0.023374 0.188898 1.037233
48  0.947368 -0.000001 0.000000  -0.000000 0.000000 0.829007
49  0.947370 0.000000 -0.000000  -0.000000 0.000000 0.829015
50  8.551311 0.194140 -0.071738  1.257629 -1.547274 -1.282473
51  3.153804 1.122330 39.395706  0.000000 -0.000000 -2.901017
time 19
0  -9.384712 -10.335993 -18.653358  1.002533 -0.000000 -0.000059
1  0.569563 0.419444 -1.164074  1.570797 -0.000001 1.570797
2  -1.304695 -28.381676 -33.479359  1.570796 0.000000 -0.000000
3  -1.304696 -11.423265 0.186836  1.570796 0.000000 -0.000000
4  -3.998632 1.621143 -23.578873  0.000000 -0.000000 -1.570795
5  0.000000 0.000000 0.000002  -1.570775 -1.570451 -0.000020
6  1.326318 -0.003921 0.000002  -0.000004 -0.000001 0.000796
7  4.926310 -0.003923 -0.000000  -0.000000 0.000000 0.000000
8  4.926314 -0.003923 0.000000  0.000000 -0.000000 -0.000000
9  4.926313 -0.003923 0.000000  0.000000 -0.000000 0.000000
10  4.926363 -0.001508 0.000000  0.000000 0.000000 0.059997
11  0.000002 0.001504 1.894737  1.353584 -0.815888 1.804157
12  4.926316 0.000000 0.000002  0.617940 1.100282 1.760277
13  11.344365 -0.041739 0.001606  0.002725 0.058790 -0.046142
14  11.368421 -0.000001 0.000001  1.333337 0.578783 -2.431800
15  1.126230 0.104084 -1.358368  2.556286 0.206793 0.812729
16  2.373625 -0.000003 0.000001  0.000000 -0.000000 0.287909
17  1.071905 0.000001 0.000000  -0.000000 0.000000 0.017444
18  3.789471 -0.000907 -1.136843  0.067518 0.145706 0.874778
19  1.136842 0.000003 0.000000  0.000000 0.000000 0.767536
20  1.136840 -0.000001 0.000001  0.000000 0.000000 0.994330
21  3.789472 -0.000301 -0.378951  0.059195 0.051594 0.864980
22  1.326317 -0.000000 0.000001  -0.000000 0.000000 0.767541
23  1.326316 0.000001 -0.000002  0.000000 -0.000000 1.011777
24  3.789472 0.000302 0.378948  -0.000518 -0.051747 0.863517
25  1.136846 -0.000002 0.000002  0.000000 0.000000 0.767553
26  1.136841 -0.000003 -0.000001  0.000000 -0.000000 0.837132
27  3.789470 0.000904 1.136840  -0.037108 -0.172995 0.801251
28  0.947369 0.000000 0.000000  0.000000 -0.000000 0.889348
29  0.947369 0.000000 0.000001  0.000000 -0.000000 0.296211
30  9.964548 1.924415 0.840144  -1.196509 0.262443 0.720122
31  0.000004 0.001514 -1.894737  0.000010 1.370796 3.110774
32  4.927670 0.000032 0.000012  0.000002 -1.270802 -0.000002
33  11.368701 -0.000056 -0.000951  -0.000017 -0.000080 -0.200011
34  11.368418 -0.000001 0.000001  1.407511 0.137986 0.191320
35  1.126234 0.104084 1.358372  -2.662352 0.027542 0.801663
36  2.373624 -0.000001 0.000001  0.000000 -0.000000 0.811521
37  1.071905 0.000001 -0.000001  -0.000000 -0.000000 0.017445
38  3.789477 -0.000904 1.136842  0.316145 -0.290228 0.300536
39  1.136841 0.000002 -0.000000  0.000000 0.000000 1.282817
40  1.136841 -0.000001 0.000002  -0.000000 -0.000000 0.514856
41  3.789475 -0.000303 0.378946  -0.093387 0.011732 1.036237
42  1.326319 0.000000 -0.000001  -0.000000 0.000000 0.802827
43  1.326316 -0.000000 0.000000  -0.000000 0.000000 0.776661
44  3.789475 0.000302 -0.378948  -0.078304 0.068909 1.024229
45  1.136842 0.000000 0.000003  -0.000000 0.000000 0.741746
46  1.136840 -0.000003 0.000001  0.000000 -0.000000 0.741746
47  3.789476 0.000905 -1.136842  0.023374 0.188898 1.037233
48  0.947368 -0.000003 -0.000000  -0.000000 0.000000 0.829007
49  0.947370 0.000002 -0.000000  -0.000000 0.000000 0.829012
50  8.551311 0.194140 -0.071738  1.257629 -1.547274 -1.282473
51  3.337009 0.795216 39.395706  0.000000 -0.000000 -2.978288
time 20
0  -9.384712 -9.982427 -20.072327  1.053273 -0.000000 -0.000059
1  0.569563 0.419443 -1.164075  1.570797 -0.000001 1.570797
2  -1.304695 -29.820112 -30.895353  1.570796 0.000000 -0.000000
3  -1.304696 -11.423265 0.186836  1.570796 0.000000 -0.000000
4  -3.998632 1.621143 -23.578873  0.000000 -0.000000 -1.570795
5  0.000000 0.000000 0.000002  -1.570775 -1.570451 -0.000020
6  1.326318 -0.003921 0.000002  -0.000004 -0.000001 0.000796
7  4.926310 -0.003923 -0.000000  -0.000000 0.000000 0.000000
8  4.926314 -0.003923 0.000000  0.000000 -0.000000 -0.000000
9  4.926313 -0.003923 0.000000  0.000000 -0.000000 0.000000
10  4.926363 -0.001508 0.000000  0.000000 0.000000 0.059997
11  0.000002 0.001504 1.894737  1.353584 -0.815888 1.804157
12  4.926316 0.000000 0.000002  0.627205 1.097769 1.765844
13  11.353009 -0.026743 0.001029  0.001746 0.037669 -0.030401
14  11.368420 -0.000001 0.000001  1.341171 0.589862 -2.388012
15  1.126228 0.104085 -1.358367  2.556286 0.206793 0.812729
16  2.373626 -0.000001 0.000000  -0.000000 -0.000000 0.287909
17  1.071905 0.000001 -0.000002  0.000000 0.000000 0.017444
18  3.789471 -0.000906 -1.136842  0.067518 0.145706 0.874778
19  1.136842 0.000003 -0.000004  0.000000 -0.000000 0.767536
20  1.136841 -0.000000 0.000000  0.000000 0.000000 0.994330
21  3.789472 -0.000300 -0.378950  0.059195 0.051594 0.864980
22  1.326318 -0.000001 0.000002  -0.000000 0.000000 0.767541
23  1.326316 0.000000 0.000000  0.000000 0.000000 1.011777
24  3.789471 0.000302 0.378946  -0.000518 -0.051747 0.863517
25  1.136847 -0.000002 0.000001  0.000000 0.000000 0.767553
26  1.136841 -0.000003 0.000002  0.000000 -0.000000 0.837132
27  3.789470 0.000906 1.136841  -0.037108 -0.172995 0.801251
28  0.947369 -0.000000 0.000001  0.000000 0.000000 0.889348
29  0.947369 0.000000 -0.000000  0.000000 -0.000000 0.296211
30  9.964546 1.924416 0.840144  -1.196509 0.262443 0.720122
31  0.000004 0.001514 -1.894737  0.000010 1.370796 3.110774
32  4.927670 0.000032 0.000012  0.000002 -1.270802 -0.000002
33  11.368701 -0.000056 -0.000951  -0.000017 -0.000080 -0.200011
34  11.368418 -0.000001 0.000001  1.407109 0.136180 0.155182
35  1.126232 0.104084 1.358372  -2.662352 0.027542 0.801663
36  2.373625 -0.000001 -0.000000  0.000000 -0.000000 0.811521
37  1.071900 0.000001 -0.000002  -0.000000 -0.000000 0.017445
38  3.789473 -0.000904 1.136841  0.316145 -0.290228 0.300536
39  1.136842 -0.000001 0.000000  0.000000 0.000000 1.282817
40  1.136841 0.000002 0.000002  -0.000000 0.000000 0.514856
41  3.789473 -0.000303 0.378946  -0.093387 0.011732 1.036237
42  1.326320 0.000001 -0.000001  -0.000000 0.000000 0.802827
43  1.326316 -0.000001 0.000000  -0.000000 0.000000 0.776661
44  3.789472 0.000301 -0.378948  -0.078304 0.068909 1.024229
45  1.136840 0.000001 0.000003  -0.000000 0.000000 0.741746
46  1.136839 -0.000002 0.000001  0.000000 -0.000000 0.741746
47  3.789476 0.000905 -1.136842  0.023374 0.188898 1.037233
48  0.947368 -0.000001 -0.000000  -0.000000 0.000000 0.829007
49  0.947370 0.000003 -0.000000  -0.000000 0.000000 0.829010
50  8.551311 0.194140 -0.071738  1.257629 -1.547274 -1.282473
51  3.483029 0.515013 39.395706  0.000000 -0.000000 -3.039876
time 21
0  -9.384712 -9.699883 -21.206261  1.092940 -0.000000 -0.000059
1  0.569563 0.419443 -1.164075  1.570797 -0.000001 1.570797
2  -1.304695 -30.928562 -28.830420  1.570796 0.000000 -0.000000
3  -1.304696 -11.423265 0.186836  1.570796 0.000000 0.000000
4  -3.998632 1.621143 -23.578873  0.000000 -0.000000 -1.570795
5  0.000000 0.000000 0.000002  -1.570775 -1.570451 -0.000020
6  1.326318 -0.003921 0.000002  -0.000004 -0.000001 0.000796
7  4.926310 -0.003923 -0.000000  -0.000000 0.000000 0.000000
8  4.926314 -0.003923 0.000000  0.000000 -0.000000 -0.000000
9  4.926313 -0.003923 0.000000  0.000000 -0.000000 0.000000
10  4.926363 -0.001508 0.000000  0.000000 0.000000 0.059997
11  0.000002 0.001504 1.894737  1.353584 -0.815888 1.804157
12  4.926316 0.000000 0.000002  0.634351 1.096340 1.769771
13  11.359764 -0.015023 0.000577  0.000981 0.021161 -0.018098
14  11.368419 -0.000001 0.000001  1.348099 0.597564 -2.353227
15  1.126229 0.104084 -1.358368  2.556286 0.206793 0.812729
16  2.373625 -0.000001 -0.000001  0.000000 -0.000000 0.287909
17  1.071904 0.000001 -0.000002  0.000000 0.000000 0.017444
18  3.789471 -0.000906 -1.136839  0.067518 0.145706 0.874778
19  1.136842 0.000003 0.000001  0.000000 -0.000000 0.767536
20  1.136840 0.000000 -0.000001  0.000000 0.000000 0.994330
21  3.789472 -0.000300 -0.378949  0.059195 0.051594 0.864980
22  1.326318 -0.000000 -0.000001  -0.000000 0.000000 0.767541
23  1.326317 0.000000 0.000003  0.000000 0.000000 1.011777
24  3.789471 0.000302 0.378948  -0.000518 -0.051747 0.863517
25  1.136845 -0.000002 0.000000  0.000000 0.000000 0.767553
26  1.136842 -0.000004 -0.000000  -0.000000 -0.000000 0.837132
27  3.789471 0.000905 1.136843  -0.037108 -0.172995 0.801251
28  0.947368 -0.000000 -0.000002  0.000000 0.000000 0.889348
29  0.947369 0.000000 0.000002  0.000000 -0.000000 0.296211
30  9.964548 1.924415 0.840144  -1.196509 0.262443 0.720122
31  0.000004 0.001514 -1.894737  0.000010 1.370796 3.110774
32  4.927670 0.000032 0.000012  0.000002 -1.270802 -0.000002
33  11.368701 -0.000056 -0.000951  -0.000017 -0.000080 -0.200011
34  11.368418 -0.000001 0.000001  1.406907 0.134589 0.126318
35  1.126233 0.104082 1.358372  -2.662352 0.027542 0.801663
36  2.373626 -0.000001 -0.000000  0.000000 -0.000000 0.811521
37  1.071901 0.000000 -0.000001  -0.000000 -0.000000 0.017445
38  3.789475 -0.000906 1.136841  0.316145 -0.290228 0.300536
39  1.136843 -0.000000 -0.000000  0.000000 0.000000 1.282817
40  1.136842 0.000004 0.000002  -0.000000 -0.000000 0.514856
41  3.789475 -0.000304 0.378946  -0.093387 0.011732 1.036237
42  1.326321 -0.000002 -0.000001  -0.000000 0.000000 0.802827
43  1.326317 0.000000 0.000000  -0.000000 0.000000 0.776661
44  3.789475 0.000301 -0.378948  -0.078304 0.068909 1.024229
45  1.136842 0.000002 0.000002  -0.000000 0.000000 0.741746
46  1.136842 0.000000 0.000001  0.000000 -0.000000 0.741746
47  3.789477 0.000904 -1.136842  0.023374 0.188898 1.037233
48  0.947368 -0.000004 0.000000  -0.000000 0.000000 0.829007
49  0.947370 -0.000000 0.000000  -0.000000 0.000000 0.829009
50  8.551311 0.194140 -0.071738  1.257629 -1.547274 -1.282473
51  3.592638 0.291097 39.395706  0.000000 -0.000000 -3.086102
time 22
0  -9.384712 -9.495655 -22.025887  1.121089 -0.000000 -0.000059
1  0.569563 0.419445 -1.164074  1.570797 -0.000001 1.570797
2  -1.304695 -31.705412 -27.337835  1.570796 0.000000 -0.000000
3  -1.304695 -11.423263 0.186837  1.570796 0.000000 0.000000
4  -3.998632 1.621143 -23.578873  0.000000 -0.000000 -1.570795
5  0.000000 0.000000 0.000002  -1.570775 -1.570451 -0.000020
6  1.326318 -0.003921 0.000002  -0.000004 -0.000001 0.000796
7  4.926310 -0.003923 -0.000000  -0.000000 0.000000 0.000000
8  4.926314 -0.003923 0.000000  0.000000 -0.000000 -0.000000
9  4.926313 -0.003923 0.000000  0.000000 -0.000000 0.000000
10  4.926363 -0.001508 0.000000  0.000000 0.000000 0.059997
11  0.000002 0.001504 1.894737  1.353584 -0.815888 1.804157
12  4.926316 0.000000 0.000002  0.639374 1.095650 1.772310
13  11.364590 -0.006655 0.000255  0.000434 0.009373 -0.009313
14  11.368422 -0.000002 0.000002  1.353410 0.602514 -2.328261
15  1.126229 0.104084 -1.358370  2.556286 0.206793 0.812729
16  2.373626 -0.000002 0.000001  -0.000000 -0.000000 0.287909
17  1.071904 0.000001 0.000001  0.000000 0.000000 0.017444
18  3.789471 -0.000906 -1.136844  0.067518 0.145706 0.874778
19  1.136843 0.000002 -0.000002  0.000000 0.000000 0.767536
20  1.136841 -0.000001 -0.000000  0.000000 0.000000 0.994330
21  3.789472 -0.000300 -0.378950  0.059195 0.051594 0.864980
22  1.326317 -0.000000 -0.000001  -0.000000 0.000000 0.767541
23  1.326316 0.000000 0.000001  0.000000 0.000000 1.011777
24  3.789472 0.000302 0.378947  -0.000518 -0.051747 0.863517
25  1.136845 -0.000002 -0.000000  0.000000 0.000000 0.767553
26  1.136842 -0.000003 -0.000001  0.000000 -0.000000 0.837132
27  3.789471 0.000905 1.136841  -0.037108 -0.172995 0.801251
28  0.947368 0.000000 0.000000  0.000000 0.000000 0.889348
29  0.947369 -0.000001 0.000002  0.000000 -0.000000 0.296211
30  9.964548 1.924415 0.840144  -1.196509 0.262443 0.720122
31  0.000004 0.001514 -1.894737  0.000010 1.370796 3.110774
32  4.927670 0.000032 0.000012  0.000002 -1.270802 -0.000002
33  11.368701 -0.000056 -0.000951  -0.000017 -0.000080 -0.200011
34  11.368418 -0.000001 0.000001  1.406829 0.133360 0.105462
35  1.126231 0.104083 1.358372  -2.662352 0.027542 0.801663
36  2.373624 0.000001 0.000000  0.000000 -0.000000 0.811521
37  1.071902 0.000001 -0.000001  -0.000000 -0.000000 0.017445
38  3.789474 -0.000905 1.136842  0.316145 -0.290228 0.300536
39  1.136841 0.000000 0.000000  0.000000 0.000000 1.282817
40  1.136840 -0.000002 0.000002  -0.000000 0.000000 0.514856
41  3.789473 -0.000303 0.378946  -0.093387 0.011732 1.036237
42  1.326319 -0.000001 -0.000001  0.000000 0.000000 0.802827
43  1.326318 -0.000001 -0.000000  -0.000000 0.000000 0.776661
44  3.789473 0.000301 -0.378948  -0.078304 0.068909 1.024229
45  1.136842 -0.000000 0.000003  -0.000000 -0.000000 0.741746
46  1.136841 -0.000002 0.000001  0.000000 -0.000000 0.741746
47  3.789471 0.000905 -1.136842  0.023374 0.188898 1.037233
48  0.947369 -0.000004 -0.000000  -0.000000 0.000000 0.829007
49  0.947371 0.000001 -0.000001  -0.000000 0.000000 0.829008
50  8.551311 0.194140 -0.071738  1.257629 -1.547274 -1.282473
51  3.667664 0.129245 39.395706  0.000000 -0.000000 -3.117749
time 23
0  -9.384712 -9.373111 -22.517693  1.137720 -0.000000 -0.000059
1  0.569564 0.419443 -1.164074  1.570797 -0.000001 1.570797
2  -1.304695 -32.159477 -26.442232  1.570796 0.000000 -0.000000
3  -1.304695 -11.423264 0.186837  1.570796 0.000000 0.000000
4  -3.998632 1.621143 -23.578873  0.000000 -0.000000 -1.570795
5  0.000000 0.000000 0.000002  -1.570775 -1.570451 -0.000020
6  1.326318 -0.003921 0.000002  -0.000004 -0.000001 0.000796
7  4.926310 -0.003923 -0.000000  -0.000000 0.000000 0.000000
8  4.926314 -0.003923 0.000000  0.000000 -0.000000 -0.000000
9  4.926313 -0.003923 0.000000  0.000000 -0.000000 0.000000
10  4.926363 -0.001508 0.000000  0.000000 0.000000 0.059997
11  0.000002 0.001504 1.894737  1.353584 -0.815888 1.804157
12  4.926316 0.000000 0.000002  0.642322 1.095407 1.773689
13  11.367472 -0.001654 0.000063  0.000108 0.002331 -0.004064
14  11.368419 -0.000002 0.000002  1.356685 0.605256 -2.313395
15  1.126229 0.104084 -1.358368  2.556286 0.206793 0.812729
16  2.373625 -0.000002 0.000001  0.000000 -0.000000 0.287909
17  1.071904 0.000000 -0.000002  0.000000 0.000000 0.017444
18  3.789471 -0.000906 -1.136841  0.067518 0.145706 0.874778
19  1.136842 0.000002 -0.000003  0.000000 0.000000 0.767536
20  1.136841 0.000000 -0.000000  0.000000 0.000000 0.994330
21  3.789472 -0.000301 -0.378948  0.059195 0.051594 0.864980
22  1.326318 -0.000000 0.000000  -0.000000 0.000000 0.767541
23  1.326316 0.000000 -0.000002  0.000000 0.000000 1.011777
24  3.789471 0.000302 0.378948  -0.000518 -0.051747 0.863517
25  1.136846 -0.000002 0.000000  0.000000 0.000000 0.767553
26  1.136842 -0.000003 0.000001  0.000000 -0.000000 0.837132
27  3.789471 0.000905 1.136841  -0.037108 -0.172995 0.801251
28  0.947369 0.000000 0.000000  0.000000 0.000000 0.889348
29  0.947369 0.000001 0.000001  0.000000 -0.000000 0.296211
30  9.964547 1.924415 0.840145  -1.196509 0.262443 0.720122
31  0.000004 0.001514 -1.894737  0.000010 1.370796 3.110774
32  4.927670 0.000032 0.000012  0.000002 -1.270802 -0.000002
33  11.368701 -0.000056 -0.000951  -0.000017 -0.000080 -0.200011
34  11.368418 -0.000001 0.000001  1.406810 0.132592 0.092951
35  1.126231 0.104083 1.358371  -2.662352 0.027542 0.801663
36  2.373625 -0.000000 -0.000000  0.000000 -0.000000 0.811521
37  1.071905 0.000002 0.000000  -0.000000 -0.000000 0.017445
38  3.789473 -0.000905 1.136841  0.316145 -0.290228 0.300536
39  1.136843 0.000001 -0.000001  0.000000 0.000000 1.282817
40  1.136841 -0.000000 0.000001  -0.000000 -0.000000 0.514856
41  3.789473 -0.000303 0.378946  -0.093387 0.011732 1.036237
42  1.326319 0.000003 -0.000001  0.000000 0.000000 0.802827
43  1.326316 0.000000 0.000001  -0.000000 0.000000 0.776661
44  3.789473 0.000301 -0.378948  -0.078304 0.068909 1.024229
45  1.136842 0.000001 0.000003  -0.000000 0.000000 0.741746
46  1.136840 -0.000001 0.000001  0.000000 -0.000000 0.741746
47  3.789472 0.000906 -1.136842  0.023374 0.188898 1.037233
48  0.947366 -0.000002 -0.000001  -0.000000 0.000000 0.829007
49  0.947370 -0.000001 -0.000000  -0.000000 0.000000 0.829007
50  8.551311 0.194140 -0.071738  1.257629 -1.547274 -1.282473
51  3.710600 0.032128 39.395706  0.000000 -0.000000 -3.135858
time 24
0  -9.384712 -9.332578 -22.680367  1.143155 -0.000000 -0.000059
1  0.569563 0.419444 -1.164075  1.570797 -0.000001 1.570797
2  -1.304696 -32.306564 -26.146000  1.570796 0.000000 -0.000000
3  -1.304696 -11.423264 0.186836  1.570796 -0.000000 -0.000000
4  -3.998632 1.621143 -23.578873  0.000000 -0.000000 -1.570795
5  0.000000 0.000000 0.000002  -1.570775 -1.570451 -0.000020
6  1.326318 -0.003921 0.000002  -0.000004 -0.000001 0.000796
7  4.926310 -0.003923 -0.000000  -0.000000 0.000000 0.000000
8  4.926314 -0.003923 0.000000  0.000000 -0.000000 -0.000000
9  4.926313 -0.003923 0.000000  0.000000 -0.000000 0.000000
10  4.926363 -0.001508 0.000000  0.000000 0.000000 0.059997
11  0.000002 0.001504 1.894737  1.353584 -0.815888 1.804157
12  4.926316 0.000000 0.000002  0.643281 1.095371 1.774108
13  11.368426 0.000000 -0.000001  -0.000000 -0.000000 -0.002327
14  11.368422 -0.000000 0.000002  1.357772 0.606134 -2.308514
15  1.126230 0.104084 -1.358369  2.556286 0.206793 0.812729
16  2.373626 -0.000001 -0.000001  0.000000 -0.000000 0.287909
17  1.071904 0.000001 0.000001  0.000000 0.000000 0.017444
18  3.789471 -0.000906 -1.136842  0.067518 0.145706 0.874778
19  1.136842 0.000002 -0.000003  0.000000 -0.000000 0.767536
20  1.136841 0.000000 0.000002  0.000000 0.000000 0.994330
21  3.789472 -0.000300 -0.378948  0.059195 0.051594 0.864980
22  1.326317 -0.000001 0.000001  -0.000000 0.000000 0.767541
23  1.326316 -0.000001 0.000002  0.000000 -0.000000 1.011777
24  3.789472 0.000302 0.378949  -0.000518 -0.051747 0.863517
25  1.136846 -0.000002 0.000000  0.000000 0.000000 0.767553
26  1.136842 -0.000003 0.000002  0.000000 -0.000000 0.837132
27  3.789471 0.000905 1.136842  -0.037108 -0.172995 0.801251
28  0.947369 0.000000 0.000002  0.000000 0.000000 0.889348
29  0.947369 0.000000 0.000001  0.000000 -0.000000 0.296211
30  9.964548 1.924416 0.840145  -1.196509 0.262443 0.720122
31  0.000004 0.001514 -1.894737  0.000010 1.370796 3.110774
32  4.927670 0.000032 0.000012  0.000002 -1.270802 -0.000002
33  11.368701 -0.000056 -0.000951  -0.000017 -0.000080 -0.200011
34  11.368418 -0.000001 0.000001  1.406809 0.132333 0.088814
35  1.126235 0.104084 1.358372  -2.662352 0.027542 0.801663
36  2.373624 0.000000 0.000000  0.000000 -0.000000 0.811521
37  1.071902 -0.000001 -0.000001  -0.000000 -0.000000 0.017445
38  3.789476 -0.000904 1.136841  0.316145 -0.290228 0.300536
39  1.136841 -0.000003 -0.000000  0.000000 0.000000 1.282817
40  1.136840 -0.000001 0.000002  -0.000000 -0.000000 0.514856
41  3.789476 -0.000302 0.378946  -0.093387 0.011732 1.036237
42  1.326316 0.000003 -0.000001  -0.000000 0.000000 0.802827
43  1.326316 -0.000001 0.000001  -0.000000 0.000000 0.776661
44  3.789476 0.000302 -0.378948  -0.078304 0.068909 1.024229
45  1.136841 0.000001 0.000003  -0.000000 0.000000 0.741746
46  1.136840 -0.000002 0.000001  0.000000 -0.000000 0.741746
47  3.789476 0.000906 -1.136842  0.023374 0.188898 1.037233
48  0.947368 -0.000002 -0.000000  -0.000000 0.000000 0.829007
49  0.947370 -0.000003 -0.000001  -0.000000 0.000000 0.829007
50  8.551311 0.194140 -0.071738  1.257629 -1.547274 -1.282473
51  3.724267 0.000005 39.395706  0.000000 -0.000000 3.141564
end
