version 1
nodes
0 "v_weapon.Hands_parent" -1
1 "v_weapon.Left_Arm" 0
2 "v_weapon.Left_Hand" 1
3 "v_weapon.Left_Thumb01" 2
4 "v_weapon.Left_Thumb02" 3
5 "v_weapon.Left_Thumb03" 4
6 "v_weapon.Left_Pinky01" 2
7 "v_weapon.Left_Pinky02" 6
8 "v_weapon.Left_Pinky03" 7
9 "v_weapon.Left_Ring01" 2
10 "v_weapon.Left_Ring02" 9
11 "v_weapon.Left_Ring03" 10
12 "v_weapon.Left_Middle01" 2
13 "v_weapon.Left_Middle02" 12
14 "v_weapon.Left_Middle03" 13
15 "v_weapon.Left_Index01" 2
16 "v_weapon.Left_Index02" 15
17 "v_weapon.Left_Index03" 16
18 "v_weapon.elite_left" 2
19 "v_weapon.magazine_left" 18
20 "v_weapon.hammer_left" 18
21 "v_weapon.slide_left" 18
22 "v_weapon.muzzleflash_left" 18
23 "v_weapon.shelleject_left" 18
24 "v_weapon.trigger_left" 18
25 "v_weapon.L_wrist_helper" 1
26 "v_weapon.Right_Arm" 0
27 "v_weapon.Right_Hand" 26
28 "v_weapon.Right_Thumb01" 27
29 "v_weapon.Right_Thumb02" 28
30 "v_weapon.Right_Thumb03" 29
31 "v_weapon.Right_Index01" 27
32 "v_weapon.Right_Index02" 31
33 "v_weapon.Right_Index03" 32
34 "v_weapon.Right_Middle01" 27
35 "v_weapon.Right_Middle02" 34
36 "v_weapon.Right_Middle03" 35
37 "v_weapon.Right_Ring01" 27
38 "v_weapon.Right_Ring02" 37
39 "v_weapon.Right_Ring03" 38
40 "v_weapon.Right_Pinky01" 27
41 "v_weapon.Right_Pinky02" 40
42 "v_weapon.Right_Pinky03" 41
43 "v_weapon.elite_right" 27
44 "v_weapon.hammer_right" 43
45 "v_weapon.magazine_right" 43
46 "v_weapon.trigger_right" 43
47 "v_weapon.slide_right" 43
48 "v_weapon.muzzleflash_right" 43
49 "v_weapon.shelleject_right" 43
50 "v_weapon.R_wrist_helper" 26
end
skeleton
time 0
0  -0.053627 2.091925 0.000000  1.570796 -0.000000 0.000000
1  8.183218 -6.951834 2.474963  -0.162364 -1.805641 -0.262418
2  8.563284 0.000000 0.000001  -2.753801 0.298968 0.417542
3  0.369252 -0.365558 -0.324765  -2.149202 0.850943 -0.736740
4  1.887209 -0.000000 0.000000  0.003877 -0.302024 -0.649208
5  1.001873 0.000000 0.000000  -0.013833 -0.193176 -0.490156
6  2.574907 1.213948 -0.058023  -1.465271 0.663224 -0.261452
7  0.963853 -0.000001 -0.000001  -0.160014 -0.003267 0.572792
8  0.632002 -0.000002 0.000001  0.002368 0.001004 1.249096
9  2.899947 0.620190 -0.039314  -1.758232 0.811069 -0.325377
10  1.208234 0.000000 -0.000000  0.000797 0.000373 1.069620
11  0.763064 -0.000001 0.000000  0.000969 0.000378 1.134731
12  3.026590 0.000000 -0.000001  -1.623757 0.704518 -0.191726
13  1.250579 -0.000001 -0.000001  0.000966 0.000326 1.166627
14  0.932635 -0.000000 -0.000001  0.002153 0.001031 0.925297
15  2.932830 -0.657726 0.062874  -1.760031 0.308919 -0.352563
16  1.280975 -0.000000 0.000000  -0.129179 -0.000236 0.921898
17  0.749372 0.000001 0.000002  -0.000324 -0.000356 0.620491
18  2.434480 -0.559886 -1.018062  2.706241 -1.441451 0.376250
19  -0.008991 -1.492956 0.024795  0.000000 0.000000 0.000000
20  -0.008990 2.134305 -0.458183  0.246847 -0.000000 0.000000
21  -0.008990 2.134305 3.061626  0.000000 -0.000000 -0.000000
22  0.032009 2.373557 6.028374  0.000000 -0.000000 -0.000000
23  0.009432 2.282211 2.543734  -0.000000 -0.000000 1.047197
24  -0.007322 1.075689 1.755355  0.616659 -0.000000 -0.000000
25  8.563285 0.000001 0.000001  0.355013 1.844853 -1.230449
26  -7.722700 -5.919322 2.861950  1.141066 -1.308653 -0.031748
27  8.543637 -0.000000 0.000002  -1.102889 -0.137174 0.389378
28  0.354513 0.316092 -0.314415  2.161662 0.932287 0.468595
29  1.978475 -0.000001 0.000001  0.000000 -0.058269 0.673980
30  0.982431 -0.000000 -0.000001  0.000000 0.000000 0.695808
31  2.924269 0.659884 0.067215  1.703342 0.485134 0.103696
32  1.292969 -0.000001 0.000001  0.000000 0.000000 -0.548780
33  0.752465 -0.000001 -0.000001  0.000000 -0.000000 -0.583144
34  3.013525 -0.000000 0.000000  1.526595 1.062784 -0.154803
35  1.261223 0.000001 0.000001  -0.000000 0.000000 -1.109675
36  0.943235 -0.000001 -0.000001  0.000000 0.000000 -1.259841
37  2.905000 -0.607961 -0.044204  1.698217 1.117589 -0.013083
38  1.208371 -0.000000 0.000001  -0.000000 0.000000 -1.130165
39  0.741940 -0.000001 -0.000001  0.148154 0.104961 -1.060420
40  2.533723 -1.191699 -0.061835  1.695211 0.943258 -0.053268
41  0.996224 0.000001 0.000001  -0.000000 0.000000 -0.789065
42  0.614692 0.000002 0.000001  -0.004866 0.000467 -1.095135
43  2.404266 0.468770 -1.040273  0.167996 1.718764 0.124780
44  -0.004071 1.904814 -0.672023  -0.000000 -0.000000 -0.000000
45  -0.004071 -1.722443 -0.189043  0.000000 -0.000000 -0.000000
46  -0.004071 0.790252 1.670743  0.000000 -0.000000 -0.000000
47  -0.004072 1.904814 4.097826  -0.000000 0.000000 0.000000
48  -0.002363 2.162466 5.854430  -0.000000 -0.000000 0.000000
49  -0.123094 2.052723 2.190506  -0.000000 -0.000000 2.094395
50  8.543637 -0.000000 0.000001  0.012160 -2.663137 -1.459338
time 1
0  -0.053627 2.091925 0.000000  1.570796 -0.000000 0.000000
1  8.183218 -6.697920 2.537465  -0.175133 -1.787415 -0.249907
2  8.563284 -0.000000 -0.000001  -2.721305 0.334612 0.166071
3  0.369252 -0.365558 -0.324765  -2.149202 0.850943 -0.736740
4  1.887210 0.000001 -0.000000  0.003877 -0.302024 -0.649208
5  1.001871 0.000000 0.000000  -0.013833 -0.193176 -0.490156
6  2.574907 1.213947 -0.058022  -1.465271 0.663224 -0.261452
7  0.963853 -0.000001 -0.000001  -0.160014 -0.003267 0.572792
8  0.632002 -0.000001 0.000001  0.002368 0.001004 1.249096
9  2.899948 0.620189 -0.039314  -1.758232 0.811069 -0.325377
10  1.208232 0.000002 -0.000000  0.000797 0.000373 1.069620
11  0.763066 -0.000001 0.000000  0.000969 0.000378 1.134731
12  3.026590 -0.000001 -0.000001  -1.623757 0.704518 -0.191726
13  1.250578 -0.000002 -0.000001  0.000966 0.000326 1.166627
14  0.932634 -0.000000 -0.000001  0.002153 0.001031 0.925297
15  2.932830 -0.657727 0.062875  -1.760031 0.308919 -0.352563
16  1.280974 0.000000 -0.000001  -0.070299 -0.000284 0.767790
17  0.749374 -0.000000 -0.000000  -0.000276 -0.000392 0.508960
18  2.434481 -0.559885 -1.018061  2.706241 -1.441451 0.376250
19  -0.008989 -1.492956 0.024796  -0.000000 0.000000 0.000000
20  -0.008989 2.134305 -0.458182  0.246847 -0.000000 0.000000
21  -0.008989 2.134305 3.061629  -0.000000 -0.000000 0.000000
22  0.032010 2.373556 6.028377  -0.000000 -0.000000 -0.000000
23  0.009432 2.282211 2.543735  -0.000000 0.000000 1.047197
24  -0.007322 1.052251 1.813951  0.351242 -0.000000 -0.000000
25  8.563284 0.000000 -0.000001  0.266218 1.936475 -1.323887
26  -7.722700 -6.489654 1.861919  1.112492 -1.322569 0.060600
27  8.543637 0.000000 0.000001  -0.907322 0.246928 0.710779
28  0.354512 0.316091 -0.314414  2.161662 0.932287 0.468595
29  1.978476 -0.000000 0.000000  0.000000 -0.058269 0.673980
30  0.982430 0.000001 -0.000000  -0.000000 -0.000000 0.695808
31  2.924268 0.659884 0.067215  1.725394 0.708696 0.142694
32  1.292970 -0.000001 -0.000001  0.000000 0.000000 -0.907798
33  0.752465 -0.000002 -0.000002  -0.000000 0.153331 -0.012887
34  3.013526 -0.000001 0.000000  1.526595 1.062784 -0.154803
35  1.261221 -0.000001 0.000000  -0.000000 0.000000 -1.109702
36  0.943234 -0.000001 -0.000001  0.000000 0.000000 -1.259841
37  2.905000 -0.607961 -0.044204  1.698217 1.117589 -0.013083
38  1.208372 0.000000 0.000000  -0.000000 0.000000 -1.130165
39  0.741941 0.000000 0.000000  0.148154 0.104961 -1.060420
40  2.533722 -1.191699 -0.061835  1.695211 0.943258 -0.053268
41  0.996224 0.000001 -0.000000  -0.000000 0.000000 -0.789065
42  0.614692 0.000002 0.000003  -0.004866 0.000467 -1.095135
43  2.404266 0.468769 -1.040272  0.167996 1.718764 0.124780
44  -0.004071 1.904815 -0.672023  -0.000000 -0.000000 -0.000000
45  -0.004072 -1.722444 -0.189044  0.000000 -0.000000 -0.000000
46  -0.031417 0.872287 1.389485  0.639384 -0.000000 -0.000000
47  -0.004073 1.904814 2.773568  0.000000 0.000000 0.000000
48  -0.002363 2.162467 5.854430  0.000000 0.000000 0.000000
49  -0.123095 2.052723 2.190507  -0.000000 -0.000000 2.094395
50  8.543637 -0.000000 0.000001  0.012891 -2.562065 -1.460800
time 2
0  -0.053627 2.091925 0.000000  1.570796 -0.000000 0.000000
1  8.183218 -6.397130 2.615592  -0.216717 -1.786126 -0.187272
2  8.563283 0.000000 0.000001  -2.713276 0.346257 0.110729
3  0.369251 -0.365559 -0.324765  -2.149202 0.850943 -0.736740
4  1.887210 0.000002 -0.000001  0.003877 -0.302024 -0.649208
5  1.001873 0.000000 0.000000  -0.013833 -0.193176 -0.490156
6  2.574905 1.213947 -0.058024  -1.465271 0.663224 -0.261452
7  0.963853 -0.000000 0.000001  -0.160014 -0.003267 0.572792
8  0.632002 0.000000 0.000001  0.002368 0.001004 1.249096
9  2.899945 0.620189 -0.039315  -1.758232 0.811069 -0.325377
10  1.208232 0.000000 -0.000000  0.000797 0.000373 1.069620
11  0.763065 -0.000001 0.000001  0.000969 0.000378 1.134731
12  3.026589 -0.000001 -0.000002  -1.623757 0.704518 -0.191726
13  1.250579 0.000000 -0.000000  0.000966 0.000326 1.166627
14  0.932635 0.000000 0.000000  0.002153 0.001031 0.925297
15  2.932828 -0.657728 0.062874  -1.760031 0.308919 -0.352563
16  1.280977 -0.000000 -0.000001  -0.020970 -0.000332 0.638708
17  0.749372 0.000001 0.000000  -0.000240 -0.000428 0.415489
18  2.434479 -0.559886 -1.018063  2.706241 -1.441451 0.376250
19  -0.008991 -1.492955 0.024799  -0.000000 0.000000 0.000000
20  -0.008990 2.134306 -0.458182  0.246847 0.000000 0.000000
21  -0.008990 2.134306 3.061629  -0.000000 -0.000000 0.000000
22  0.032009 2.373558 6.028377  -0.000000 -0.000000 -0.000000
23  0.009431 2.282212 2.543737  -0.000000 0.000000 1.047197
24  -0.007323 1.032720 1.856924  0.122911 0.000000 -0.000000
25  8.563283 0.000000 0.000001  0.252104 1.957489 -1.339059
26  -7.722700 -6.399806 2.018174  1.090658 -1.341454 0.053766
27  8.543638 0.000001 0.000001  -0.925563 0.294277 0.660335
28  0.354510 0.316091 -0.314415  2.161662 0.932287 0.468595
29  1.978475 0.000000 -0.000000  0.000000 -0.058269 0.673980
30  0.982430 0.000000 -0.000001  0.000000 0.000000 0.695808
31  2.924266 0.659885 0.067215  1.721535 0.679667 0.136510
32  1.292970 -0.000000 0.000000  -0.000000 0.000000 -0.861049
33  0.752466 -0.000001 -0.000002  -0.000000 0.133377 -0.087109
34  3.013524 -0.000000 0.000000  1.526595 1.062784 -0.154803
35  1.261222 -0.000001 0.000001  -0.000000 0.000000 -1.109702
36  0.943235 -0.000001 -0.000000  0.000000 0.000000 -1.259841
37  2.904998 -0.607962 -0.044204  1.698217 1.117589 -0.013083
38  1.208370 -0.000001 0.000000  -0.000000 0.000000 -1.130165
39  0.741941 0.000001 -0.000000  0.148154 0.104961 -1.060420
40  2.533721 -1.191700 -0.061836  1.695211 0.943258 -0.053268
41  0.996223 -0.000000 0.000001  -0.000000 0.000000 -0.789065
42  0.614691 0.000002 0.000002  -0.004866 0.000467 -1.095135
43  2.404264 0.468770 -1.040272  0.167996 1.718764 0.124780
44  -0.004071 1.904815 -0.672023  -0.000000 -0.000000 -0.000000
45  -0.004073 -1.722442 -0.189043  -0.000000 -0.000000 -0.000000
46  -0.027509 0.860567 1.428551  0.548043 -0.000000 -0.000000
47  -0.004072 1.904814 2.773569  -0.000000 0.000000 0.000000
48  -0.002364 2.162467 5.854430  -0.000000 -0.000000 0.000000
49  -0.123095 2.052724 2.190507  -0.000000 -0.000000 2.094395
50  8.543637 0.000000 0.000001  0.012592 -2.600452 -1.460225
time 3
0  -0.053627 2.091925 0.000000  1.570796 -0.000000 0.000000
1  8.183218 -6.143216 2.678094  -0.296487 -1.788516 -0.076893
2  8.563282 0.000000 0.000000  -2.711602 0.348856 0.099259
3  0.369252 -0.365558 -0.324765  -2.149202 0.850943 -0.736740
4  1.887209 0.000001 -0.000000  0.003877 -0.302024 -0.649208
5  1.001873 -0.000000 0.000001  -0.013833 -0.193176 -0.490156
6  2.574906 1.213948 -0.058023  -1.465271 0.663224 -0.261452
7  0.963853 0.000000 0.000000  -0.160014 -0.003267 0.572792
8  0.632001 -0.000001 0.000002  0.002368 0.001004 1.249096
9  2.899946 0.620190 -0.039314  -1.758232 0.811069 -0.325377
10  1.208233 0.000001 -0.000000  0.000797 0.000373 1.069620
11  0.763067 -0.000001 -0.000000  0.000969 0.000378 1.134731
12  3.026589 -0.000001 -0.000001  -1.623757 0.704518 -0.191726
13  1.250578 -0.000001 -0.000001  0.000966 0.000326 1.166627
14  0.932635 0.000001 0.000000  0.002153 0.001031 0.925297
15  2.932828 -0.657727 0.062875  -1.760031 0.308919 -0.352563
16  1.280974 -0.000000 0.000000  -0.000285 -0.000356 0.584550
17  0.749372 0.000001 -0.000000  -0.000228 -0.000440 0.376308
18  2.434478 -0.559886 -1.018061  2.706241 -1.441451 0.376250
19  -0.008990 -1.492956 0.024797  0.000000 0.000000 0.000000
20  -0.008989 2.134306 -0.458182  0.246847 0.000000 0.000000
21  -0.008989 2.134305 3.061628  0.000000 -0.000000 0.000000
22  0.032010 2.373557 6.028375  -0.000000 -0.000000 -0.000000
23  0.009433 2.282211 2.543735  -0.000000 0.000000 1.047197
24  -0.007322 1.021000 1.884267  -0.000000 0.000000 -0.000000
25  8.563282 0.000001 0.000001  0.249357 1.961882 -1.342011
26  -7.722700 -6.204488 2.361934  1.053635 -1.376520 0.037347
27  8.543638 0.000000 0.000002  -1.086234 0.000823 0.333550
28  0.354510 0.316092 -0.314414  2.161662 0.932287 0.468595
29  1.978475 -0.000001 -0.000000  0.000000 -0.058269 0.673980
30  0.982429 -0.000000 -0.000001  0.000000 0.000000 0.695808
31  2.924266 0.659885 0.067216  1.712378 0.597066 0.120942
32  1.292970 0.000000 0.000000  -0.000000 0.000000 -0.728280
33  0.752465 -0.000001 -0.000002  -0.000000 0.076665 -0.298015
34  3.013524 0.000000 0.000001  1.526595 1.062784 -0.154803
35  1.261224 0.000000 0.000000  -0.000000 0.000000 -1.109702
36  0.943236 0.000000 -0.000001  0.000000 0.000000 -1.259841
37  2.904998 -0.607961 -0.044203  1.698217 1.117589 -0.013083
38  1.208372 -0.000001 0.000001  -0.000000 0.000000 -1.130165
39  0.741942 -0.000000 0.000000  0.148154 0.104961 -1.060420
40  2.533721 -1.191698 -0.061834  1.695211 0.943258 -0.053268
41  0.996223 -0.000001 0.000001  -0.000000 0.000000 -0.789065
42  0.614691 0.000002 0.000002  -0.004866 0.000467 -1.095135
43  2.404265 0.468769 -1.040272  0.167996 1.718764 0.124780
44  -0.004071 1.904815 -0.672025  -0.000000 -0.000000 -0.000000
45  -0.004071 -1.722443 -0.189043  0.000000 -0.000000 -0.000000
46  -0.019697 0.833222 1.522302  0.342513 -0.000000 -0.000000
47  -0.004072 1.904814 2.773567  -0.000000 0.000000 0.000000
48  -0.002364 2.162467 5.854428  -0.000000 -0.000000 0.000000
49  -0.123094 2.052723 2.190507  -0.000000 -0.000000 2.094395
50  8.543638 -0.000000 0.000002  0.012112 -2.671722 -1.459230
time 4
0  -0.053627 2.091925 0.000000  1.570796 -0.000000 0.000000
1  8.183218 -6.037744 2.705439  -0.360997 -1.796012 0.000807
2  8.563284 -0.000001 0.000001  -2.703763 0.353034 0.101388
3  0.369252 -0.365558 -0.324765  -2.149202 0.850943 -0.736740
4  1.887209 0.000000 -0.000000  0.003877 -0.302024 -0.649208
5  1.001872 -0.000001 0.000001  -0.013833 -0.193176 -0.490156
6  2.574907 1.213948 -0.058023  -1.465271 0.663224 -0.261452
7  0.963854 -0.000001 0.000000  -0.160014 -0.003267 0.572792
8  0.632001 0.000000 0.000000  0.002368 0.001004 1.249096
9  2.899948 0.620190 -0.039314  -1.758232 0.811069 -0.325377
10  1.208233 -0.000000 -0.000001  0.000797 0.000373 1.069620
11  0.763067 0.000001 0.000001  0.000969 0.000378 1.134731
12  3.026591 0.000000 -0.000001  -1.623757 0.704518 -0.191726
13  1.250579 -0.000000 -0.000001  0.000966 0.000326 1.166627
14  0.932634 -0.000000 -0.000001  0.002153 0.001031 0.925297
15  2.932830 -0.657726 0.062875  -1.760031 0.308919 -0.352563
16  1.280976 0.000000 -0.000001  -0.000285 -0.000356 0.584550
17  0.749373 0.000000 0.000000  -0.000228 -0.000440 0.376308
18  2.434481 -0.559885 -1.018061  2.706241 -1.441451 0.376250
19  -0.008990 -1.492955 0.024798  -0.000000 0.000000 0.000000
20  -0.008990 2.134306 -0.458181  0.246847 0.000000 0.000000
21  -0.008989 2.134306 3.061631  0.000000 -0.000000 0.000000
22  0.032010 2.373558 6.028376  0.000000 -0.000000 -0.000000
23  0.009432 2.282212 2.543737  -0.000000 0.000000 1.047197
24  -0.007322 1.017095 1.892081  -0.038415 0.000000 -0.000000
25  8.563284 -0.000000 0.000001  0.245142 1.968848 -1.346592
26  -7.722700 -6.009170 2.705695  1.036453 -1.395369 0.025768
27  8.543638 0.000001 0.000002  -1.156439 -0.213656 0.171659
28  0.354512 0.316092 -0.314415  2.161662 0.932287 0.468595
29  1.978475 0.000001 0.000001  0.000000 -0.058269 0.673980
30  0.982430 -0.000000 -0.000000  0.000000 0.000000 0.695808
31  2.924269 0.659885 0.067214  1.705391 0.514308 0.107831
32  1.292970 -0.000002 0.000000  -0.000000 0.000000 -0.595511
33  0.752467 -0.000002 -0.000002  -0.000000 0.019954 -0.508921
34  3.013525 0.000001 0.000000  1.526595 1.062784 -0.154803
35  1.261223 0.000001 0.000001  -0.000000 0.000000 -1.109675
36  0.943233 -0.000000 -0.000000  0.000000 0.000000 -1.259841
37  2.904999 -0.607961 -0.044204  1.698217 1.117589 -0.013083
38  1.208372 0.000002 -0.000000  -0.000000 0.000000 -1.130165
39  0.741941 0.000001 0.000001  0.148154 0.104961 -1.060420
40  2.533722 -1.191698 -0.061835  1.695211 0.943258 -0.053268
41  0.996224 0.000000 0.000001  -0.000000 0.000000 -0.789065
42  0.614691 0.000002 0.000001  -0.004866 0.000467 -1.095135
43  2.404265 0.468769 -1.040272  0.167996 1.718764 0.124780
44  -0.004072 1.904814 -0.672022  -0.000000 -0.000000 -0.000000
45  -0.004073 -1.722443 -0.189041  0.000000 -0.000000 -0.000000
46  -0.007979 0.805878 1.616058  0.125586 -0.000000 -0.000000
47  -0.004073 1.904813 2.773569  -0.000000 0.000000 0.000000
48  -0.002364 2.162467 5.854431  -0.000000 -0.000000 0.000000
49  -0.123095 2.052723 2.190509  -0.000000 -0.000000 2.094395
50  8.543639 0.000000 0.000002  0.011885 -2.710109 -1.458715
time 5
0  -0.053627 2.091925 0.000000  1.570796 -0.000000 0.000000
1  8.183218 -6.037744 2.705439  -0.401711 -1.805664 0.035954
2  8.563284 0.000000 0.000000  -2.684566 0.363265 0.106615
3  0.369251 -0.365558 -0.324765  -2.149203 0.850943 -0.736740
4  1.887210 0.000000 0.000000  0.003877 -0.302024 -0.649208
5  1.001872 0.000000 0.000000  -0.013833 -0.193176 -0.490156
6  2.574906 1.213948 -0.058023  -1.465271 0.663224 -0.261452
7  0.963855 0.000001 -0.000001  -0.160014 -0.003267 0.572792
8  0.632002 -0.000000 0.000001  0.002368 0.001004 1.249096
9  2.899946 0.620189 -0.039314  -1.758232 0.811069 -0.325377
10  1.208234 0.000000 -0.000000  0.000797 0.000373 1.069620
11  0.763066 -0.000000 0.000000  0.000969 0.000378 1.134731
12  3.026589 -0.000000 -0.000001  -1.623757 0.704518 -0.191726
13  1.250578 -0.000002 -0.000001  0.000966 0.000326 1.166627
14  0.932635 0.000001 -0.000001  0.002153 0.001031 0.925297
15  2.932829 -0.657727 0.062874  -1.760031 0.308919 -0.352563
16  1.280976 0.000000 -0.000001  -0.000285 -0.000356 0.584550
17  0.749371 0.000001 0.000000  -0.000228 -0.000440 0.376308
18  2.434479 -0.559885 -1.018061  2.706241 -1.441451 0.376250
19  -0.008991 -1.492955 0.024796  -0.000000 0.000000 0.000000
20  -0.008990 2.134306 -0.458183  0.246847 -0.000000 0.000000
21  -0.008990 2.134306 3.061628  0.000000 -0.000000 0.000000
22  0.032009 2.373557 6.028375  -0.000000 -0.000000 -0.000000
23  0.009431 2.282212 2.543735  -0.000000 0.000000 1.047197
24  -0.007323 1.017094 1.895986  -0.060694 -0.000000 -0.000000
25  8.563285 0.000001 0.000000  0.235405 1.985953 -1.357184
26  -7.722700 -5.919322 2.861950  1.039300 -1.389305 0.023395
27  8.543639 0.000001 0.000002  -1.150235 -0.205463 0.193464
28  0.354511 0.316091 -0.314414  2.161662 0.932287 0.468595
29  1.978476 0.000000 0.000000  0.000000 -0.058269 0.673980
30  0.982428 -0.000001 -0.000001  0.000000 0.000000 0.695808
31  2.924266 0.659885 0.067216  1.703342 0.485134 0.103696
32  1.292970 -0.000001 -0.000000  0.000000 0.000000 -0.548780
33  0.752467 -0.000001 -0.000002  0.000000 -0.000000 -0.583144
34  3.013523 -0.000000 0.000001  1.526595 1.062784 -0.154803
35  1.261222 -0.000000 0.000001  -0.000000 0.000000 -1.109675
36  0.943234 -0.000001 -0.000001  0.000000 0.000000 -1.259841
37  2.904998 -0.607961 -0.044204  1.698217 1.117589 -0.013083
38  1.208371 0.000000 0.000000  -0.000000 0.000000 -1.130165
39  0.741941 0.000000 -0.000001  0.148154 0.104961 -1.060420
40  2.533720 -1.191699 -0.061834  1.695211 0.943258 -0.053268
41  0.996225 0.000002 0.000000  -0.000000 0.000000 -0.789065
42  0.614691 0.000002 0.000001  -0.004866 0.000467 -1.095135
43  2.404264 0.468769 -1.040271  0.167996 1.718764 0.124780
44  -0.004071 1.904814 -0.672023  -0.000000 -0.000000 -0.000000
45  -0.004072 -1.722443 -0.189043  0.000000 -0.000000 -0.000000
46  -0.004072 0.790252 1.670744  0.000000 -0.000000 -0.000000
47  -0.004073 1.904814 2.773567  -0.000000 0.000000 0.000000
48  -0.002364 2.162466 5.854429  -0.000000 -0.000000 0.000000
49  -0.123095 2.052723 2.190507  -0.000000 -0.000000 2.094395
50  8.543639 -0.000000 0.000001  0.011921 -2.705229 -1.458775
time 6
0  -0.053627 2.091925 0.000000  1.570796 -0.000000 0.000000
1  8.183218 -6.037744 2.705439  -0.425095 -1.816511 0.044890
2  8.563284 -0.000000 -0.000000  -2.660803 0.375930 0.113148
3  0.369250 -0.365558 -0.324764  -2.149202 0.850943 -0.736740
4  1.887209 0.000001 -0.000000  0.003877 -0.302024 -0.649208
5  1.001873 -0.000000 -0.000000  -0.013833 -0.193176 -0.490156
6  2.574905 1.213947 -0.058022  -1.465271 0.663224 -0.261452
7  0.963854 -0.000000 -0.000000  -0.160014 -0.003267 0.572792
8  0.632001 0.000000 0.000001  0.002368 0.001004 1.249096
9  2.899946 0.620189 -0.039314  -1.758232 0.811069 -0.325377
10  1.208233 0.000000 0.000000  0.000797 0.000373 1.069620
11  0.763066 0.000000 0.000000  0.000969 0.000378 1.134731
12  3.026589 -0.000001 -0.000001  -1.623757 0.704518 -0.191726
13  1.250577 -0.000001 0.000000  0.000966 0.000326 1.166627
14  0.932635 -0.000002 -0.000000  0.002153 0.001031 0.925297
15  2.932828 -0.657727 0.062875  -1.760031 0.308919 -0.352563
16  1.280977 -0.000001 -0.000000  -0.000285 -0.000356 0.584550
17  0.749371 0.000002 0.000001  -0.000228 -0.000440 0.376308
18  2.434480 -0.559886 -1.018061  2.706241 -1.441451 0.376250
19  -0.008990 -1.492956 0.024798  -0.000000 0.000000 0.000000
20  -0.008990 2.134306 -0.458181  0.246847 0.000000 0.000000
21  -0.008990 2.134306 3.061630  0.000000 -0.000000 0.000000
22  0.032009 2.373557 6.028377  -0.000000 -0.000000 -0.000000
23  0.009432 2.282212 2.543738  -0.000000 0.000000 1.047197
24  -0.007321 1.017094 1.895987  -0.069717 0.000000 -0.000000
25  8.563284 -0.000000 -0.000000  0.224507 2.007064 -1.369160
26  -7.722700 -5.919322 2.861950  1.046990 -1.372320 0.017510
27  8.543638 0.000001 -0.000000  -1.136033 -0.186171 0.246310
28  0.354513 0.316092 -0.314413  2.161662 0.932287 0.468595
29  1.978475 -0.000000 0.000000  0.000000 -0.058269 0.673980
30  0.982431 -0.000000 -0.000001  0.000000 0.000000 0.695808
31  2.924269 0.659885 0.067216  1.703342 0.485134 0.103696
32  1.292968 -0.000001 -0.000000  0.000000 0.000000 -0.548780
33  0.752465 -0.000001 -0.000001  0.000000 -0.000000 -0.583144
34  3.013525 -0.000000 0.000001  1.526595 1.062784 -0.154803
35  1.261222 -0.000000 0.000000  -0.000000 0.000000 -1.109675
36  0.943235 -0.000002 -0.000001  0.000000 0.000000 -1.259841
37  2.905001 -0.607961 -0.044203  1.698217 1.117589 -0.013083
38  1.208371 0.000001 0.000000  -0.000000 0.000000 -1.130165
39  0.741942 -0.000000 -0.000001  0.148154 0.104961 -1.060420
40  2.533723 -1.191699 -0.061834  1.695211 0.943258 -0.053268
41  0.996225 0.000000 0.000002  -0.000000 0.000000 -0.789065
42  0.614691 0.000002 0.000002  -0.004866 0.000467 -1.095135
43  2.404266 0.468770 -1.040272  0.167996 1.718764 0.124780
44  -0.004072 1.904815 -0.672024  -0.000000 -0.000000 -0.000000
45  -0.004073 -1.722443 -0.189043  0.000000 -0.000000 -0.000000
46  -0.004073 0.786347 1.686369  -0.036977 -0.000000 -0.000000
47  -0.004073 1.904813 2.773569  -0.000000 0.000000 0.000000
48  -0.002365 2.162466 5.854428  0.000000 -0.000000 -0.000000
49  -0.123095 2.052724 2.190507  -0.000000 -0.000000 2.094395
50  8.543638 -0.000000 -0.000001  0.011981 -2.693581 -1.458931
time 7
0  -0.053627 2.091925 0.000000  1.570796 -0.000000 0.000000
1  8.183218 -6.037744 2.705439  -0.435751 -1.828341 0.039784
2  8.563284 0.000000 -0.000000  -2.638200 0.387971 0.119440
3  0.369251 -0.365558 -0.324765  -2.149202 0.850943 -0.736740
4  1.887209 -0.000000 0.000000  0.003877 -0.302024 -0.649208
5  1.001871 -0.000000 -0.000000  -0.013833 -0.193176 -0.490156
6  2.574906 1.213947 -0.058023  -1.465271 0.663224 -0.261452
7  0.963853 -0.000001 -0.000001  -0.160014 -0.003267 0.572792
8  0.632001 -0.000000 0.000001  0.002368 0.001004 1.249096
9  2.899945 0.620189 -0.039314  -1.758232 0.811069 -0.325377
10  1.208233 0.000001 -0.000000  0.000797 0.000373 1.069620
11  0.763067 0.000000 -0.000000  0.000969 0.000378 1.134731
12  3.026590 0.000000 -0.000001  -1.623757 0.704518 -0.191726
13  1.250578 -0.000001 -0.000000  0.000966 0.000326 1.166627
14  0.932635 -0.000001 -0.000000  0.002153 0.001031 0.925297
15  2.932829 -0.657727 0.062875  -1.760031 0.308919 -0.352563
16  1.280975 0.000000 -0.000001  -0.000285 -0.000356 0.584550
17  0.749372 0.000001 -0.000000  -0.000228 -0.000440 0.376308
18  2.434480 -0.559886 -1.018062  2.706241 -1.441451 0.376250
19  -0.008990 -1.492955 0.024797  -0.000000 0.000000 0.000000
20  -0.008990 2.134306 -0.458182  0.246847 -0.000000 0.000000
21  -0.008990 2.134306 3.061630  0.000000 -0.000000 0.000000
22  0.032010 2.373557 6.028376  -0.000000 -0.000000 -0.000000
23  0.009431 2.282212 2.543736  -0.000000 0.000000 1.047197
24  -0.007322 1.017094 1.895986  -0.068305 -0.000000 -0.000000
25  8.563284 0.000000 -0.000000  0.215137 2.027111 -1.379539
26  -7.722700 -5.919322 2.861950  1.057432 -1.348358 0.010107
27  8.543637 0.000000 0.000002  -1.120203 -0.163561 0.310814
28  0.354511 0.316091 -0.314414  2.161662 0.932287 0.468595
29  1.978476 0.000000 -0.000000  0.000000 -0.058269 0.673980
30  0.982431 0.000000 -0.000001  0.000000 0.000000 0.695808
31  2.924268 0.659884 0.067216  1.703342 0.485134 0.103696
32  1.292969 -0.000000 -0.000000  -0.000000 0.000000 -0.548780
33  0.752466 -0.000002 -0.000002  0.000000 -0.000000 -0.583144
34  3.013525 0.000000 0.000000  1.526595 1.062784 -0.154803
35  1.261222 -0.000000 0.000000  -0.000000 0.000000 -1.109675
36  0.943235 -0.000001 -0.000001  0.000000 0.000000 -1.259841
37  2.904999 -0.607961 -0.044204  1.698217 1.117589 -0.013083
38  1.208372 0.000001 0.000000  -0.000000 0.000000 -1.130165
39  0.741942 -0.000000 -0.000001  0.148154 0.104961 -1.060420
40  2.533721 -1.191699 -0.061835  1.695211 0.943258 -0.053268
41  0.996224 -0.000001 0.000001  -0.000000 0.000000 -0.789065
42  0.614691 0.000001 0.000001  -0.004866 0.000467 -1.095135
43  2.404265 0.468770 -1.040272  0.167996 1.718764 0.124780
44  -0.004071 1.904815 -0.672023  -0.000000 -0.000000 -0.000000
45  -0.004071 -1.722444 -0.189042  0.000000 -0.000000 -0.000000
46  -0.004070 0.786345 1.694183  -0.058442 -0.000000 -0.000000
47  -0.004072 1.904813 2.773568  -0.000000 0.000000 0.000000
48  -0.002363 2.162466 5.854430  0.000000 -0.000000 0.000000
49  -0.123094 2.052723 2.190507  -0.000000 -0.000000 2.094395
50  8.543636 -0.000001 0.000001  0.012064 -2.679666 -1.459123
time 8
0  -0.053627 2.091925 0.000000  1.570796 -0.000000 0.000000
1  8.183218 -6.037744 2.705439  -0.437243 -1.840195 0.025486
2  8.563285 -0.000000 0.000002  -2.620468 0.397412 0.124425
3  0.369251 -0.365558 -0.324764  -2.149202 0.850943 -0.736740
4  1.887210 0.000000 -0.000000  0.003877 -0.302024 -0.649208
5  1.001872 -0.000000 0.000000  -0.013833 -0.193176 -0.490156
6  2.574905 1.213947 -0.058022  -1.465271 0.663224 -0.261452
7  0.963854 -0.000001 -0.000001  -0.160014 -0.003267 0.572792
8  0.632001 0.000000 0.000002  0.002368 0.001004 1.249096
9  2.899946 0.620189 -0.039313  -1.758232 0.811081 -0.325377
10  1.208234 0.000001 -0.000001  0.000797 0.000373 1.069620
11  0.763067 -0.000000 0.000001  0.000969 0.000378 1.134731
12  3.026589 -0.000000 -0.000000  -1.623757 0.704518 -0.191726
13  1.250576 0.000000 -0.000000  0.000966 0.000326 1.166627
14  0.932635 -0.000001 -0.000000  0.002153 0.001031 0.925297
15  2.932829 -0.657727 0.062876  -1.760031 0.308919 -0.352563
16  1.280975 -0.000000 -0.000001  -0.000285 -0.000356 0.584550
17  0.749372 0.000002 -0.000000  -0.000228 -0.000440 0.376308
18  2.434479 -0.559886 -1.018061  2.706241 -1.441451 0.376250
19  -0.008991 -1.492954 0.024797  -0.000000 0.000000 0.000000
20  -0.008990 2.134307 -0.458183  0.246847 0.000000 0.000000
21  -0.008990 2.134306 3.061627  0.000000 -0.000000 0.000000
22  0.032009 2.373558 6.028375  -0.000000 -0.000000 -0.000000
23  0.009432 2.282213 2.543736  -0.000000 0.000000 1.047197
24  -0.007322 1.017095 1.895986  -0.059283 0.000000 -0.000000
25  8.563285 0.000000 0.000001  0.208396 2.042823 -1.387087
26  -7.722700 -5.919322 2.861950  1.068444 -1.324542 0.003274
27  8.543637 0.000000 0.000001  -1.107836 -0.144932 0.365958
28  0.354511 0.316091 -0.314414  2.161662 0.932287 0.468595
29  1.978476 0.000001 -0.000000  0.000000 -0.058269 0.674000
30  0.982431 -0.000000 -0.000001  0.000000 0.000000 0.695808
31  2.924267 0.659884 0.067216  1.703342 0.485134 0.103696
32  1.292969 -0.000001 -0.000000  -0.000000 0.000000 -0.548780
33  0.752466 -0.000002 -0.000002  0.000000 -0.000000 -0.583144
34  3.013525 -0.000000 0.000001  1.526595 1.062784 -0.154803
35  1.261224 0.000000 0.000000  -0.000000 0.000000 -1.109702
36  0.943234 0.000000 -0.000001  0.000000 0.000000 -1.259841
37  2.904999 -0.607961 -0.044204  1.698217 1.117589 -0.013083
38  1.208371 -0.000001 0.000000  -0.000000 0.000000 -1.130165
39  0.741942 -0.000000 0.000001  0.148154 0.104961 -1.060420
40  2.533722 -1.191700 -0.061835  1.695211 0.943258 -0.053268
41  0.996224 0.000001 0.000001  -0.000000 0.000000 -0.789065
42  0.614691 0.000001 0.000001  -0.004866 0.000467 -1.095135
43  2.404265 0.468768 -1.040273  0.167996 1.718764 0.124780
44  -0.004072 1.904815 -0.672024  -0.000000 -0.000000 -0.000000
45  -0.004072 -1.722444 -0.189043  0.000000 -0.000000 -0.000000
46  -0.004071 0.782439 1.698089  -0.067125 -0.000000 -0.000000
47  -0.004072 1.904813 2.773566  -0.000000 0.000000 0.000000
48  -0.002364 2.162466 5.854430  0.000000 -0.000000 0.000000
49  -0.123095 2.052723 2.190507  -0.000000 -0.000000 2.094395
50  8.543637 -0.000001 0.000001  0.012136 -2.668019 -1.459278
time 9
0  -0.053627 2.091925 0.000000  1.570796 -0.000000 0.000000
1  8.183218 -6.037744 2.705439  -0.433511 -1.851042 0.007359
2  8.563284 -0.000000 0.000001  -2.609433 0.403268 0.127547
3  0.369252 -0.365558 -0.324764  -2.149202 0.850943 -0.736740
4  1.887209 -0.000000 -0.000000  0.003877 -0.302024 -0.649208
5  1.001873 0.000000 0.000000  -0.013833 -0.193176 -0.490156
6  2.574907 1.213947 -0.058022  -1.465271 0.663224 -0.261452
7  0.963853 0.000001 -0.000000  -0.160014 -0.003267 0.572792
8  0.632002 -0.000001 0.000001  0.002368 0.001004 1.249096
9  2.899946 0.620189 -0.039313  -1.758232 0.811069 -0.325377
10  1.208232 0.000001 -0.000001  0.000797 0.000373 1.069620
11  0.763065 -0.000000 0.000001  0.000969 0.000378 1.134731
12  3.026590 -0.000000 0.000000  -1.623757 0.704518 -0.191726
13  1.250579 -0.000001 -0.000001  0.000966 0.000326 1.166627
14  0.932635 -0.000001 -0.000000  0.002153 0.001031 0.925297
15  2.932830 -0.657727 0.062876  -1.760031 0.308919 -0.352563
16  1.280976 0.000001 -0.000000  -0.000285 -0.000356 0.584550
17  0.749373 0.000003 -0.000000  -0.000228 -0.000440 0.376308
18  2.434478 -0.559886 -1.018061  2.706241 -1.441451 0.376250
19  -0.008990 -1.492955 0.024797  -0.000000 0.000000 0.000000
20  -0.008990 2.134306 -0.458182  0.246847 0.000000 0.000000
21  -0.008990 2.134306 3.061629  0.000000 -0.000000 0.000000
22  0.032009 2.373557 6.028375  -0.000000 -0.000000 -0.000000
23  0.009432 2.282212 2.543735  -0.000000 0.000000 1.047197
24  -0.007323 1.017095 1.892080  -0.045528 0.000000 -0.000000
25  8.563284 0.000000 0.000001  0.204445 2.052576 -1.391530
26  -7.722700 -5.919322 2.861950  1.078981 -1.308945 -0.002421
27  8.543636 0.000000 0.000001  -1.102889 -0.137174 0.389378
28  0.354511 0.316092 -0.314415  2.161662 0.932287 0.468595
29  1.978475 -0.000000 0.000001  0.000000 -0.058269 0.673980
30  0.982430 0.000000 -0.000001  0.000000 0.000000 0.695808
31  2.924267 0.659885 0.067215  1.703342 0.485134 0.103696
32  1.292969 -0.000002 0.000000  -0.000000 0.000000 -0.548780
33  0.752466 -0.000003 -0.000001  0.000000 -0.000000 -0.583144
34  3.013524 0.000000 0.000000  1.526595 1.062784 -0.154803
35  1.261223 -0.000000 -0.000000  -0.000000 0.000000 -1.109675
36  0.943234 -0.000001 -0.000001  0.000000 0.000000 -1.259841
37  2.904999 -0.607961 -0.044204  1.698217 1.117589 -0.013083
38  1.208372 0.000000 0.000001  -0.000000 0.000000 -1.130165
39  0.741940 0.000000 -0.000001  0.148154 0.104961 -1.060420
40  2.533720 -1.191699 -0.061835  1.695211 0.943258 -0.053268
41  0.996224 0.000000 0.000001  -0.000000 0.000000 -0.789065
42  0.614690 0.000001 0.000002  -0.004866 0.000467 -1.095135
43  2.404264 0.468769 -1.040273  0.167996 1.718764 0.124780
44  -0.004071 1.904815 -0.672025  -0.000000 -0.000000 -0.000000
45  -0.004072 -1.722443 -0.189044  0.000000 -0.000000 -0.000000
46  -0.004072 0.782439 1.698089  -0.065759 -0.000000 -0.000000
47  -0.004072 1.904814 2.773567  -0.000000 0.000000 0.000000
48  -0.002364 2.162467 5.854429  0.000000 -0.000000 0.000000
49  -0.123095 2.052723 2.190506  -0.000000 -0.000000 2.094395
50  8.543637 -0.000001 0.000001  0.012160 -2.663137 -1.459338
time 10
0  -0.053627 2.091925 0.000000  1.570796 -0.000000 0.000000
1  8.183218 -6.037744 2.705439  -0.427914 -1.860014 -0.010087
2  8.563282 0.000000 0.000000  -2.605742 0.405225 0.128611
3  0.369253 -0.365558 -0.324764  -2.149202 0.850943 -0.736740
4  1.887210 -0.000000 0.000000  0.003877 -0.302024 -0.649208
5  1.001872 0.000000 0.000000  -0.013833 -0.193176 -0.490156
6  2.574907 1.213947 -0.058022  -1.465271 0.663224 -0.261452
7  0.963853 0.000000 -0.000000  -0.160014 -0.003267 0.572792
8  0.632002 -0.000001 0.000001  0.002368 0.001004 1.249096
9  2.899947 0.620189 -0.039313  -1.758232 0.811069 -0.325377
10  1.208233 -0.000001 -0.000001  0.000797 0.000373 1.069620
11  0.763066 -0.000001 0.000001  0.000969 0.000378 1.134731
12  3.026590 -0.000001 -0.000000  -1.623757 0.704518 -0.191726
13  1.250578 -0.000000 -0.000001  0.000966 0.000326 1.166627
14  0.932634 -0.000001 0.000000  0.002153 0.001031 0.925297
15  2.932830 -0.657727 0.062875  -1.760031 0.308919 -0.352563
16  1.280977 -0.000000 -0.000001  -0.000285 -0.000356 0.584550
17  0.749371 0.000001 -0.000000  -0.000228 -0.000440 0.376308
18  2.434480 -0.559885 -1.018061  2.706241 -1.441451 0.376250
19  -0.008990 -1.492955 0.024798  -0.000000 0.000000 0.000000
20  -0.008989 2.134307 -0.458182  0.246847 -0.000000 0.000000
21  -0.008989 2.134306 3.061629  -0.000000 -0.000000 0.000000
22  0.032010 2.373558 6.028377  -0.000000 -0.000000 -0.000000
23  0.009432 2.282212 2.543736  -0.000000 0.000000 1.047197
24  -0.007322 1.017095 1.888174  -0.029863 0.000000 -0.000000
25  8.563282 0.000001 0.000000  0.203182 2.055807 -1.392961
26  -7.722700 -5.919322 2.861950  1.089234 -1.301785 -0.007451
27  8.543637 0.000000 0.000001  -1.102889 -0.137174 0.389378
28  0.354513 0.316092 -0.314414  2.161662 0.932287 0.468595
29  1.978475 0.000000 0.000001  0.000000 -0.058269 0.673980
30  0.982431 0.000000 -0.000001  0.000000 0.000000 0.695808
31  2.924268 0.659884 0.067215  1.703342 0.485134 0.103696
32  1.292971 -0.000001 -0.000000  0.000000 0.000000 -0.548780
33  0.752466 -0.000001 -0.000002  0.000000 -0.000000 -0.583144
34  3.013525 -0.000000 0.000001  1.526595 1.062784 -0.154803
35  1.261223 0.000001 0.000001  -0.000000 0.000000 -1.109675
36  0.943234 -0.000001 -0.000001  0.000000 0.000000 -1.259841
37  2.905000 -0.607961 -0.044204  1.698217 1.117589 -0.013083
38  1.208371 -0.000000 0.000001  -0.000000 0.000000 -1.130165
39  0.741941 0.000000 -0.000000  0.148154 0.104961 -1.060420
40  2.533722 -1.191699 -0.061835  1.695211 0.943258 -0.053268
41  0.996223 -0.000001 0.000001  -0.000000 0.000000 -0.789065
42  0.614691 0.000001 0.000002  -0.004866 0.000467 -1.095135
43  2.404266 0.468770 -1.040272  0.167996 1.718764 0.124780
44  -0.004072 1.904814 -0.672025  -0.000000 -0.000000 -0.000000
45  -0.004072 -1.722444 -0.189044  0.000000 -0.000000 -0.000000
46  -0.004072 0.786345 1.694183  -0.057076 -0.000000 -0.000000
47  -0.004072 1.904813 2.773568  -0.000000 0.000000 0.000000
48  -0.002364 2.162466 5.854429  -0.000000 -0.000000 0.000000
49  -0.123095 2.052723 2.190506  -0.000000 -0.000000 2.094395
50  8.543637 -0.000001 0.000001  0.012160 -2.663137 -1.459338
time 11
0  -0.053627 2.091925 0.000000  1.570796 -0.000000 0.000000
1  8.183218 -6.037744 2.705439  -0.422649 -1.866550 -0.023874
2  8.563282 -0.000000 0.000001  -2.605742 0.405225 0.128611
3  0.369251 -0.365558 -0.324765  -2.149202 0.850943 -0.736740
4  1.887210 0.000001 -0.000000  0.003877 -0.302024 -0.649208
5  1.001872 0.000000 -0.000000  -0.013833 -0.193176 -0.490156
6  2.574906 1.213948 -0.058023  -1.465271 0.663224 -0.261452
7  0.963855 -0.000000 0.000000  -0.160014 -0.003267 0.572792
8  0.632002 -0.000001 0.000001  0.002368 0.001004 1.249096
9  2.899947 0.620189 -0.039314  -1.758232 0.811069 -0.325377
10  1.208233 0.000000 -0.000001  0.000797 0.000373 1.069620
11  0.763066 -0.000001 0.000001  0.000969 0.000378 1.134731
12  3.026590 0.000000 -0.000001  -1.623757 0.704518 -0.191726
13  1.250578 -0.000002 -0.000001  0.000966 0.000326 1.166627
14  0.932636 -0.000001 -0.000000  0.002153 0.001031 0.925297
15  2.932830 -0.657727 0.062874  -1.760031 0.308919 -0.352563
16  1.280975 0.000001 -0.000001  -0.000285 -0.000356 0.584550
17  0.749372 0.000002 -0.000001  -0.000228 -0.000440 0.376308
18  2.434480 -0.559885 -1.018062  2.706241 -1.441451 0.376250
19  -0.008991 -1.492956 0.024797  -0.000000 0.000000 0.000000
20  -0.008990 2.134305 -0.458182  0.246847 0.000000 0.000000
21  -0.008990 2.134305 3.061630  -0.000000 -0.000000 0.000000
22  0.032009 2.373556 6.028376  -0.000000 -0.000000 -0.000000
23  0.009431 2.282211 2.543736  -0.000000 0.000000 1.047197
24  -0.007323 1.021000 1.884267  -0.015167 0.000000 -0.000000
25  8.563282 -0.000000 0.000001  0.203182 2.055807 -1.392961
26  -7.722700 -5.919322 2.861950  1.099961 -1.298206 -0.012387
27  8.543636 0.000001 0.000001  -1.102889 -0.137174 0.389378
28  0.354512 0.316091 -0.314414  2.161662 0.932287 0.468595
29  1.978476 0.000000 0.000000  0.000000 -0.058269 0.673980
30  0.982430 0.000000 -0.000000  0.000000 0.000000 0.695808
31  2.924268 0.659884 0.067215  1.703342 0.485134 0.103696
32  1.292971 0.000000 0.000000  -0.000000 0.000000 -0.548780
33  0.752465 -0.000002 -0.000002  0.000000 -0.000000 -0.583144
34  3.013525 -0.000000 0.000000  1.526595 1.062784 -0.154803
35  1.261223 -0.000001 -0.000000  -0.000000 0.000000 -1.109702
36  0.943236 0.000001 -0.000001  0.000000 0.000000 -1.259841
37  2.904999 -0.607962 -0.044205  1.698217 1.117589 -0.013083
38  1.208372 0.000000 0.000000  -0.000000 0.000000 -1.130165
39  0.741941 -0.000001 0.000000  0.148154 0.104961 -1.060420
40  2.533722 -1.191699 -0.061836  1.695211 0.943258 -0.053268
41  0.996222 0.000001 0.000001  -0.000000 0.000000 -0.789065
42  0.614691 0.000001 0.000002  -0.004866 0.000467 -1.095135
43  2.404266 0.468768 -1.040272  0.167996 1.718764 0.124780
44  -0.004072 1.904815 -0.672025  -0.000000 -0.000000 -0.000000
45  -0.004072 -1.722443 -0.189044  0.000000 -0.000000 -0.000000
46  -0.004072 0.786347 1.686368  -0.043826 -0.000000 -0.000000
47  -0.004072 1.904814 2.773567  -0.000000 0.000000 0.000000
48  -0.002364 2.162467 5.854429  0.000000 -0.000000 0.000000
49  -0.123095 2.052724 2.190507  -0.000000 -0.000000 2.094395
50  8.543636 0.000000 0.000001  0.012160 -2.663137 -1.459338
time 12
0  -0.053627 2.091925 0.000000  1.570796 -0.000000 0.000000
1  8.183218 -6.037744 2.705439  -0.419000 -1.870439 -0.032554
2  8.563284 0.000000 0.000001  -2.605742 0.405225 0.128611
3  0.369252 -0.365558 -0.324764  -2.149202 0.850943 -0.736740
4  1.887210 0.000002 -0.000001  0.003877 -0.302024 -0.649208
5  1.001872 -0.000000 -0.000000  -0.013833 -0.193176 -0.490156
6  2.574908 1.213947 -0.058022  -1.465271 0.663224 -0.261452
7  0.963852 -0.000001 -0.000001  -0.160014 -0.003267 0.572792
8  0.632002 0.000000 0.000001  0.002368 0.001004 1.249096
9  2.899947 0.620189 -0.039313  -1.758232 0.811081 -0.325377
10  1.208234 0.000001 -0.000001  0.000797 0.000373 1.069620
11  0.763067 0.000000 0.000001  0.000969 0.000378 1.134731
12  3.026591 -0.000000 -0.000001  -1.623757 0.704518 -0.191726
13  1.250580 -0.000001 -0.000001  0.000966 0.000326 1.166627
14  0.932634 -0.000001 -0.000000  0.002153 0.001031 0.925297
15  2.932831 -0.657727 0.062875  -1.760031 0.308919 -0.352563
16  1.280974 -0.000000 -0.000000  -0.000285 -0.000356 0.584550
17  0.749371 0.000001 -0.000001  -0.000228 -0.000440 0.376308
18  2.434480 -0.559886 -1.018060  2.706241 -1.441451 0.376250
19  -0.008990 -1.492956 0.024796  -0.000000 0.000000 0.000000
20  -0.008990 2.134306 -0.458183  0.246847 0.000000 0.000000
21  -0.008990 2.134306 3.061627  -0.000000 -0.000000 0.000000
22  0.032009 2.373557 6.028376  -0.000000 -0.000000 -0.000000
23  0.009432 2.282212 2.543734  -0.000000 0.000000 1.047197
24  -0.007322 1.021001 1.884266  -0.004262 0.000000 -0.000000
25  8.563284 0.000000 0.000001  0.203182 2.055807 -1.392961
26  -7.722700 -5.919322 2.861950  1.110973 -1.297731 -0.017512
27  8.543638 0.000000 0.000000  -1.102889 -0.137174 0.389378
28  0.354512 0.316091 -0.314415  2.161662 0.932287 0.468595
29  1.978476 -0.000001 0.000000  0.000000 -0.058269 0.673980
30  0.982431 0.000001 -0.000001  0.000000 0.000000 0.695808
31  2.924268 0.659884 0.067215  1.703342 0.485134 0.103696
32  1.292971 -0.000001 0.000000  0.000000 0.000000 -0.548780
33  0.752467 -0.000001 -0.000003  0.000000 -0.000000 -0.583144
34  3.013525 0.000000 -0.000000  1.526595 1.062784 -0.154803
35  1.261223 -0.000001 0.000000  -0.000000 0.000000 -1.109702
36  0.943235 -0.000001 -0.000001  0.000000 0.000000 -1.259841
37  2.904999 -0.607961 -0.044205  1.698217 1.117589 -0.013083
38  1.208373 0.000002 0.000000  -0.000000 0.000000 -1.130165
39  0.741942 -0.000000 -0.000000  0.148154 0.104961 -1.060420
40  2.533721 -1.191699 -0.061836  1.695211 0.943258 -0.053268
41  0.996224 0.000000 0.000001  -0.000000 0.000000 -0.789065
42  0.614691 0.000001 0.000001  -0.004866 0.000467 -1.095135
43  2.404265 0.468768 -1.040273  0.167996 1.718764 0.124780
44  -0.004072 1.904815 -0.672024  -0.000000 -0.000000 -0.000000
45  -0.004072 -1.722443 -0.189043  0.000000 -0.000000 -0.000000
46  -0.004072 0.790252 1.682463  -0.028762 -0.000000 -0.000000
47  -0.004073 1.904813 2.773569  -0.000000 0.000000 0.000000
48  -0.002364 2.162466 5.854430  -0.000000 -0.000000 0.000000
49  -0.123095 2.052723 2.190507  -0.000000 -0.000000 2.094395
50  8.543638 -0.000000 0.000000  0.012160 -2.663137 -1.459338
time 13
0  -0.053627 2.091925 0.000000  1.570796 -0.000000 0.000000
1  8.183218 -6.037744 2.705439  -0.417674 -1.871704 -0.035532
2  8.563283 -0.000000 0.000001  -2.605742 0.405225 0.128611
3  0.369252 -0.365558 -0.324765  -2.149202 0.850943 -0.736740
4  1.887209 0.000002 -0.000000  0.003877 -0.302024 -0.649208
5  1.001871 0.000000 0.000000  -0.013833 -0.193176 -0.490156
6  2.574907 1.213947 -0.058023  -1.465271 0.663224 -0.261452
7  0.963854 -0.000000 -0.000001  -0.160014 -0.003267 0.572792
8  0.632001 -0.000000 0.000001  0.002368 0.001004 1.249096
9  2.899948 0.620189 -0.039314  -1.758232 0.811069 -0.325377
10  1.208232 0.000000 0.000000  0.000797 0.000373 1.069620
11  0.763066 -0.000002 -0.000000  0.000969 0.000378 1.134731
12  3.026591 -0.000000 -0.000001  -1.623757 0.704518 -0.191726
13  1.250579 -0.000001 0.000000  0.000966 0.000326 1.166627
14  0.932636 0.000001 -0.000000  0.002153 0.001031 0.925297
15  2.932831 -0.657727 0.062875  -1.760031 0.308919 -0.352563
16  1.280977 0.000000 -0.000000  -0.000285 -0.000356 0.584550
17  0.749372 -0.000001 -0.000001  -0.000228 -0.000440 0.376308
18  2.434480 -0.559886 -1.018062  2.706241 -1.441451 0.376250
19  -0.008990 -1.492955 0.024798  -0.000000 0.000000 0.000000
20  -0.008990 2.134306 -0.458181  0.246847 0.000000 0.000000
21  -0.008989 2.134305 3.061629  -0.000000 -0.000000 0.000000
22  0.032009 2.373557 6.028375  -0.000000 -0.000000 -0.000000
23  0.009432 2.282212 2.543736  -0.000000 0.000000 1.047197
24  -0.007323 1.021000 1.884268  -0.000000 0.000000 -0.000000
25  8.563283 -0.000000 0.000001  0.203182 2.055807 -1.392961
26  -7.722700 -5.919322 2.861950  1.122174 -1.299922 -0.022732
27  8.543636 0.000000 0.000002  -1.102889 -0.137174 0.389378
28  0.354514 0.316091 -0.314414  2.161662 0.932287 0.468595
29  1.978476 -0.000001 0.000000  0.000000 -0.058269 0.673980
30  0.982430 0.000000 -0.000001  0.000000 0.000000 0.695808
31  2.924269 0.659884 0.067216  1.703342 0.485134 0.103696
32  1.292971 -0.000001 0.000000  -0.000000 0.000000 -0.548780
33  0.752465 -0.000003 -0.000003  0.000000 -0.000000 -0.583144
34  3.013527 -0.000001 0.000000  1.526595 1.062784 -0.154803
35  1.261222 -0.000000 0.000001  -0.000000 0.000000 -1.109702
36  0.943234 0.000000 -0.000001  0.000000 0.000000 -1.259841
37  2.905001 -0.607962 -0.044204  1.698217 1.117589 -0.013083
38  1.208372 -0.000001 -0.000000  -0.000000 0.000000 -1.130165
39  0.741942 0.000000 -0.000000  0.148154 0.104961 -1.060420
40  2.533722 -1.191699 -0.061835  1.695211 0.943258 -0.053268
41  0.996223 0.000002 0.000002  -0.000000 0.000000 -0.789065
42  0.614691 0.000002 0.000002  -0.004866 0.000467 -1.095135
43  2.404266 0.468768 -1.040272  0.167996 1.718764 0.124780
44  -0.004071 1.904815 -0.672024  -0.000000 -0.000000 -0.000000
45  -0.004072 -1.722443 -0.189042  0.000000 -0.000000 -0.000000
46  -0.004072 0.790252 1.674652  -0.014596 -0.000000 -0.000000
47  -0.004073 1.904814 2.773569  -0.000000 0.000000 0.000000
48  -0.002364 2.162466 5.854430  -0.000000 -0.000000 0.000000
49  -0.123094 2.052723 2.190507  -0.000000 -0.000000 2.094395
50  8.543636 0.000000 0.000001  0.012160 -2.663137 -1.459338
time 14
0  -0.053627 2.091925 0.000000  1.570796 -0.000000 0.000000
1  8.183218 -6.037744 2.705439  -0.417674 -1.871704 -0.035532
2  8.563283 -0.000000 0.000001  -2.605742 0.405225 0.128611
3  0.369252 -0.365558 -0.324765  -2.149202 0.850943 -0.736740
4  1.887209 0.000002 -0.000000  0.003877 -0.302024 -0.649208
5  1.001871 0.000000 0.000000  -0.013833 -0.193176 -0.490156
6  2.574907 1.213947 -0.058023  -1.465271 0.663224 -0.261452
7  0.963854 -0.000000 -0.000001  -0.160014 -0.003267 0.572792
8  0.632001 -0.000000 0.000001  0.002368 0.001004 1.249096
9  2.899948 0.620189 -0.039314  -1.758232 0.811069 -0.325377
10  1.208232 0.000000 0.000000  0.000797 0.000373 1.069620
11  0.763066 -0.000002 -0.000000  0.000969 0.000378 1.134731
12  3.026591 -0.000000 -0.000001  -1.623757 0.704518 -0.191726
13  1.250579 -0.000001 0.000000  0.000966 0.000326 1.166627
14  0.932636 0.000001 -0.000000  0.002153 0.001031 0.925297
15  2.932831 -0.657727 0.062875  -1.760031 0.308919 -0.352563
16  1.280977 0.000000 -0.000000  -0.000285 -0.000356 0.584550
17  0.749372 -0.000001 -0.000001  -0.000228 -0.000440 0.376308
18  2.434480 -0.559886 -1.018062  2.706241 -1.441451 0.376250
19  -0.008990 -1.492955 0.024798  -0.000000 0.000000 0.000000
20  -0.008990 2.134306 -0.458181  0.246847 0.000000 0.000000
21  -0.008989 2.134305 3.061629  -0.000000 -0.000000 0.000000
22  0.032009 2.373557 6.028375  -0.000000 -0.000000 -0.000000
23  0.009432 2.282212 2.543736  -0.000000 0.000000 1.047197
24  -0.007323 1.021000 1.884268  -0.000000 0.000000 -0.000000
25  8.563283 -0.000000 0.000001  0.203182 2.055807 -1.392961
26  -7.722700 -5.919322 2.861950  1.133186 -1.304233 -0.027857
27  8.543636 0.000000 0.000000  -1.102889 -0.137174 0.389378
28  0.354512 0.316092 -0.314414  2.161662 0.932287 0.468595
29  1.978476 0.000000 0.000000  0.000000 -0.058269 0.673980
30  0.982431 0.000000 0.000000  0.000000 -0.000000 0.695808
31  2.924268 0.659885 0.067215  1.703342 0.485134 0.103696
32  1.292969 0.000000 0.000000  -0.000000 0.000000 -0.548780
33  0.752465 -0.000003 -0.000002  0.000000 -0.000000 -0.583144
34  3.013524 -0.000000 0.000000  1.526595 1.062784 -0.154803
35  1.261222 -0.000001 -0.000000  -0.000000 0.000000 -1.109702
36  0.943235 -0.000001 -0.000001  0.000000 0.000000 -1.259841
37  2.904999 -0.607961 -0.044204  1.698217 1.117589 -0.013083
38  1.208372 -0.000001 0.000000  -0.000000 0.000000 -1.130165
39  0.741942 -0.000000 -0.000001  0.148154 0.104961 -1.060420
40  2.533721 -1.191698 -0.061835  1.695211 0.943258 -0.053268
41  0.996224 -0.000000 0.000001  -0.000000 0.000000 -0.789065
42  0.614691 0.000002 0.000002  -0.004866 0.000467 -1.095135
43  2.404264 0.468769 -1.040273  0.167996 1.718764 0.124780
44  -0.004071 1.904814 -0.672025  -0.000000 -0.000000 -0.000000
45  -0.004072 -1.722444 -0.189043  0.000000 -0.000000 -0.000000
46  -0.004072 0.790252 1.670745  -0.004098 -0.000000 -0.000000
47  -0.004072 1.904813 2.773568  -0.000000 0.000000 0.000000
48  -0.002364 2.162466 5.854430  -0.000000 -0.000000 0.000000
49  -0.123095 2.052723 2.190507  -0.000000 -0.000000 2.094395
50  8.543636 -0.000000 0.000000  0.012160 -2.663137 -1.459338
time 15
0  -0.053627 2.091925 0.000000  1.570796 -0.000000 0.000000
1  8.183218 -6.037744 2.705439  -0.417674 -1.871704 -0.035532
2  8.563283 -0.000000 0.000001  -2.605742 0.405225 0.128611
3  0.369252 -0.365558 -0.324765  -2.149202 0.850943 -0.736740
4  1.887209 0.000002 -0.000000  0.003877 -0.302024 -0.649208
5  1.001871 0.000000 0.000000  -0.013833 -0.193176 -0.490156
6  2.574907 1.213947 -0.058023  -1.465271 0.663224 -0.261452
7  0.963854 -0.000000 -0.000001  -0.160014 -0.003267 0.572792
8  0.632001 -0.000000 0.000001  0.002368 0.001004 1.249096
9  2.899948 0.620189 -0.039314  -1.758232 0.811069 -0.325377
10  1.208232 0.000000 0.000000  0.000797 0.000373 1.069620
11  0.763066 -0.000002 -0.000000  0.000969 0.000378 1.134731
12  3.026591 -0.000000 -0.000001  -1.623757 0.704518 -0.191726
13  1.250579 -0.000001 0.000000  0.000966 0.000326 1.166627
14  0.932636 0.000001 -0.000000  0.002153 0.001031 0.925297
15  2.932831 -0.657727 0.062875  -1.760031 0.308919 -0.352563
16  1.280977 0.000000 -0.000000  -0.000285 -0.000356 0.584550
17  0.749372 -0.000001 -0.000001  -0.000228 -0.000440 0.376308
18  2.434480 -0.559886 -1.018062  2.706241 -1.441451 0.376250
19  -0.008990 -1.492955 0.024798  -0.000000 0.000000 0.000000
20  -0.008990 2.134306 -0.458181  0.246847 0.000000 0.000000
21  -0.008989 2.134305 3.061629  -0.000000 -0.000000 0.000000
22  0.032009 2.373557 6.028375  -0.000000 -0.000000 -0.000000
23  0.009432 2.282212 2.543736  -0.000000 0.000000 1.047197
24  -0.007323 1.021000 1.884268  -0.000000 0.000000 -0.000000
25  8.563283 -0.000000 0.000001  0.203182 2.055807 -1.392961
26  -7.722700 -5.919322 2.861950  1.141066 -1.308653 -0.031748
27  8.543637 -0.000000 0.000002  -1.102889 -0.137174 0.389378
28  0.354513 0.316092 -0.314415  2.161662 0.932287 0.468595
29  1.978475 -0.000001 0.000001  0.000000 -0.058269 0.673980
30  0.982431 -0.000000 -0.000001  0.000000 0.000000 0.695808
31  2.924269 0.659884 0.067215  1.703342 0.485134 0.103696
32  1.292969 -0.000001 0.000001  0.000000 0.000000 -0.548780
33  0.752465 -0.000001 -0.000001  0.000000 -0.000000 -0.583144
34  3.013525 -0.000000 0.000000  1.526595 1.062784 -0.154803
35  1.261223 0.000001 0.000001  -0.000000 0.000000 -1.109675
36  0.943235 -0.000001 -0.000001  0.000000 0.000000 -1.259841
37  2.905000 -0.607961 -0.044204  1.698217 1.117589 -0.013083
38  1.208371 -0.000000 0.000001  -0.000000 0.000000 -1.130165
39  0.741940 -0.000001 -0.000001  0.148154 0.104961 -1.060420
40  2.533723 -1.191699 -0.061835  1.695211 0.943258 -0.053268
41  0.996224 0.000001 0.000001  -0.000000 0.000000 -0.789065
42  0.614692 0.000002 0.000001  -0.004866 0.000467 -1.095135
43  2.404266 0.468770 -1.040273  0.167996 1.718764 0.124780
44  -0.004071 1.904814 -0.672023  -0.000000 -0.000000 -0.000000
45  -0.004071 -1.722443 -0.189043  0.000000 -0.000000 -0.000000
46  -0.004071 0.790252 1.670743  0.000000 -0.000000 -0.000000
47  -0.004072 1.904813 2.773568  -0.000000 0.000000 0.000000
48  -0.002363 2.162466 5.854430  -0.000000 -0.000000 0.000000
49  -0.123094 2.052723 2.190506  -0.000000 -0.000000 2.094395
50  8.543637 -0.000000 0.000001  0.012160 -2.663137 -1.459338
end
