version 1
nodes
0 "Hands biped" -1
1 "Bip01 Pelvis" 0
2 "Bip01 Spine" 1
3 "Bip01 Spine1" 2
4 "Bip01 Spine2" 3
5 "Bip01 Spine3" 4
6 "Bip01 Neck" 5
7 "Bip01 R Arm" 6
8 "Bip01 R Arm1" 7
9 "Bip01 R Arm2" 8
10 "Bip01 R Hand" 9
end
skeleton
time 0
0  0.001490 3.722770 -24.602341  0.000000 -0.000000 -1.570795
1  0.000000 0.000000 0.000000  -1.570795 -1.570796 0.000000
2  1.326317 -0.003921 0.000002  -0.000004 -0.000001 0.000796
3  4.926309 -0.003923 0.000000  -0.000000 0.000000 0.000000
4  4.926313 -0.003923 0.000000  0.000000 0.000000 -0.000000
5  4.926312 -0.003923 0.000000  -0.000000 0.000000 -0.000000
6  4.926317 -0.001509 -0.000000  -0.000000 -0.000000 -0.000000
7  -0.000002 0.001514 -1.894737  -0.000013 1.370797 3.140784
8  4.926314 0.000000 0.000000  0.000000 -1.078934 -0.000000
9  11.368422 0.000001 -0.000001  0.000000 -0.000000 -1.569389
10  11.368421 -0.000001 -0.000001  1.707635 -0.014376 -0.026593
time 1
0  0.001490 3.722770 -24.602341  0.000000 -0.000000 -1.570795
1  0.000000 0.000000 0.000000  -1.570795 -1.570796 0.000000
2  1.326317 -0.003921 0.000002  -0.000004 -0.000001 0.000796
3  4.926309 -0.003923 0.000000  -0.000000 0.000000 0.000000
4  4.926313 -0.003923 0.000000  0.000000 0.000000 -0.000000
5  4.926312 -0.003923 0.000000  -0.000000 0.000000 -0.000000
6  4.926317 -0.001509 -0.000000  -0.000000 -0.000000 -0.000000
7  -0.000002 0.001514 -1.894737  -0.000013 1.370797 3.140784
8  4.926314 0.000000 0.000000  0.295812 -1.029751 -0.308314
9  11.368422 0.000000 -0.000001  -0.000000 -0.000000 -1.560006
10  11.368422 -0.000001 0.000000  1.865556 0.001283 -0.138903
time 2
0  0.001490 3.722770 -24.602341  0.000000 -0.000000 -1.570795
1  0.000000 0.000000 0.000000  -1.570795 -1.570796 0.000000
2  1.326317 -0.003921 0.000002  -0.000004 -0.000001 0.000796
3  4.926309 -0.003923 0.000000  -0.000000 0.000000 0.000000
4  4.926313 -0.003923 0.000000  0.000000 0.000000 -0.000000
5  4.926312 -0.003923 0.000000  -0.000000 0.000000 -0.000000
6  4.926317 -0.001509 -0.000000  -0.000000 -0.000000 -0.000000
7  -0.000002 0.001514 -1.894737  -0.000013 1.370797 3.140784
8  4.926314 0.000000 0.000000  0.570070 -0.920257 -0.606523
9  11.368423 0.000000 -0.000000  -0.000000 -0.000000 -1.516081
10  11.368422 -0.000000 -0.000000  2.021388 0.016843 -0.251227
time 3
0  0.001490 3.722770 -24.602341  0.000000 -0.000000 -1.570795
1  0.000000 0.000000 0.000000  -1.570795 -1.570796 0.000000
2  1.326317 -0.003921 0.000002  -0.000004 -0.000001 0.000796
3  4.926309 -0.003923 0.000000  -0.000000 0.000000 0.000000
4  4.926313 -0.003923 0.000000  0.000000 0.000000 -0.000000
5  4.926312 -0.003923 0.000000  -0.000000 0.000000 -0.000000
6  4.926317 -0.001509 -0.000000  -0.000000 -0.000000 -0.000000
7  -0.000002 0.001514 -1.894737  -0.000013 1.370797 3.140784
8  4.926314 0.000000 0.000000  0.617908 -0.886079 -0.690618
9  11.368423 0.000000 -0.000001  -0.000000 -0.000000 -1.433209
10  11.368423 -0.000000 0.000000  1.998101 0.002921 -0.155145
time 4
0  0.001490 3.722770 -24.602341  0.000000 -0.000000 -1.570795
1  0.000000 0.000000 0.000000  -1.570795 -1.570796 0.000000
2  1.326317 -0.003921 0.000002  -0.000004 -0.000001 0.000796
3  4.926309 -0.003923 0.000000  -0.000000 0.000000 0.000000
4  4.926313 -0.003923 0.000000  0.000000 0.000000 -0.000000
5  4.926312 -0.003923 0.000000  -0.000000 0.000000 -0.000000
6  4.926317 -0.001509 -0.000000  -0.000000 -0.000000 -0.000000
7  -0.000002 0.001514 -1.894737  -0.000013 1.370797 3.140784
8  4.926314 0.000000 0.000000  0.627169 -0.865334 -0.752100
9  11.368423 0.000001 -0.000001  -0.000000 -0.000000 -1.311100
10  11.368423 0.000000 0.000000  1.922792 -0.036286 0.115535
time 5
0  0.001490 3.722770 -24.602341  0.000000 -0.000000 -1.570795
1  0.000000 0.000000 0.000000  -1.570795 -1.570796 0.000000
2  1.326317 -0.003921 0.000002  -0.000004 -0.000001 0.000796
3  4.926309 -0.003923 0.000000  -0.000000 0.000000 0.000000
4  4.926313 -0.003923 0.000000  0.000000 0.000000 -0.000000
5  4.926312 -0.003923 0.000000  -0.000000 0.000000 -0.000000
6  4.926317 -0.001509 -0.000000  -0.000000 -0.000000 -0.000000
7  -0.000002 0.001514 -1.894737  -0.000013 1.370797 3.140784
8  4.926314 0.000000 0.000000  0.611143 -0.858978 -0.790727
9  11.368423 -0.000000 -0.000001  -0.000000 -0.000000 -1.182238
10  11.368423 0.000001 -0.000001  1.805361 -0.081273 0.464369
time 6
0  0.001490 3.722770 -24.602341  0.000000 -0.000000 -1.570795
1  0.000000 0.000000 0.000000  -1.570795 -1.570796 0.000000
2  1.326317 -0.003921 0.000002  -0.000004 -0.000001 0.000796
3  4.926309 -0.003923 0.000000  -0.000000 0.000000 0.000000
4  4.926313 -0.003923 0.000000  0.000000 0.000000 -0.000000
5  4.926312 -0.003923 0.000000  -0.000000 0.000000 -0.000000
6  4.926317 -0.001509 -0.000000  -0.000000 -0.000000 -0.000000
7  -0.000002 0.001514 -1.894737  -0.000013 1.370797 3.140784
8  4.926314 0.000000 0.000000  0.591024 -0.860778 -0.809248
9  11.368423 0.000001 -0.000001  -0.000000 -0.000000 -1.090579
10  11.368422 0.000001 -0.000001  1.697171 -0.107346 0.737754
time 7
0  0.001490 3.722770 -24.602341  0.000000 -0.000000 -1.570795
1  0.000000 0.000000 0.000000  -1.570795 -1.570796 0.000000
2  1.326317 -0.003921 0.000002  -0.000004 -0.000001 0.000796
3  4.926309 -0.003923 0.000000  -0.000000 0.000000 0.000000
4  4.926313 -0.003923 0.000000  0.000000 0.000000 -0.000000
5  4.926312 -0.003923 0.000000  -0.000000 0.000000 -0.000000
6  4.926317 -0.001509 -0.000000  -0.000000 -0.000000 -0.000000
7  -0.000002 0.001514 -1.894737  -0.000013 1.370797 3.140784
8  4.926314 0.000000 0.000000  0.582684 -0.862621 -0.813937
9  11.368423 0.000001 -0.000000  -0.000000 0.000000 -1.059516
10  11.368421 0.000001 -0.000001  1.648636 -0.114026 0.835176
time 8
0  0.001490 3.722770 -24.602341  0.000000 -0.000000 -1.570795
1  0.000000 0.000000 0.000000  -1.570795 -1.570796 0.000000
2  1.326317 -0.003921 0.000002  -0.000004 -0.000001 0.000796
3  4.926309 -0.003923 0.000000  -0.000000 0.000000 0.000000
4  4.926313 -0.003923 0.000000  0.000000 0.000000 -0.000000
5  4.926312 -0.003923 0.000000  -0.000000 0.000000 -0.000000
6  4.926317 -0.001509 -0.000000  -0.000000 -0.000000 -0.000000
7  -0.000002 0.001514 -1.894737  -0.000013 1.370797 3.140784
8  4.926314 0.000000 0.000000  0.539919 -0.900165 -0.742518
9  11.368422 0.000001 -0.000001  -0.000000 0.000000 -1.120203
10  11.368422 -0.000001 -0.000001  1.655895 -0.105999 0.736905
time 9
0  0.001490 3.722770 -24.602341  0.000000 -0.000000 -1.570795
1  0.000000 0.000000 0.000000  -1.570795 -1.570796 0.000000
2  1.326317 -0.003921 0.000002  -0.000004 -0.000001 0.000796
3  4.926309 -0.003923 0.000000  -0.000000 0.000000 0.000000
4  4.926313 -0.003923 0.000000  0.000000 0.000000 -0.000000
5  4.926312 -0.003923 0.000000  -0.000000 0.000000 -0.000000
6  4.926317 -0.001509 -0.000000  -0.000000 -0.000000 -0.000000
7  -0.000002 0.001514 -1.894737  -0.000013 1.370797 3.140784
8  4.926314 0.000000 0.000000  0.412032 -0.978669 -0.549066
9  11.368423 0.000000 -0.000000  -0.000000 0.000000 -1.263006
10  11.368422 0.000000 0.000001  1.681806 -0.081778 0.498922
time 10
0  0.001490 3.722770 -24.602341  0.000000 -0.000000 -1.570795
1  0.000000 0.000000 0.000000  -1.570795 -1.570796 0.000000
2  1.326317 -0.003921 0.000002  -0.000004 -0.000001 0.000796
3  4.926309 -0.003923 0.000000  -0.000000 0.000000 0.000000
4  4.926313 -0.003923 0.000000  0.000000 0.000000 -0.000000
5  4.926312 -0.003923 0.000000  -0.000000 0.000000 -0.000000
6  4.926317 -0.001509 -0.000000  -0.000000 -0.000000 -0.000000
7  -0.000002 0.001514 -1.894737  -0.000013 1.370797 3.140784
8  4.926314 0.000000 0.000000  0.193016 -1.051410 -0.249669
9  11.368423 0.000000 0.000001  0.000000 0.000000 -1.441704
10  11.368422 0.000000 -0.000000  1.701304 -0.043809 0.190072
time 11
0  0.001490 3.722770 -24.602341  0.000000 -0.000000 -1.570795
1  0.000000 0.000000 0.000000  -1.570795 -1.570796 0.000000
2  1.326317 -0.003921 0.000002  -0.000004 -0.000001 0.000796
3  4.926309 -0.003923 0.000000  -0.000000 0.000000 0.000000
4  4.926313 -0.003923 0.000000  0.000000 0.000000 -0.000000
5  4.926312 -0.003923 0.000000  -0.000000 0.000000 -0.000000
6  4.926317 -0.001509 -0.000000  -0.000000 -0.000000 -0.000000
7  -0.000002 0.001514 -1.894737  -0.000013 1.370797 3.140784
8  4.926314 0.000000 0.000000  0.122233 -1.063865 -0.157444
9  11.368423 0.000000 -0.000000  0.000000 -0.000000 -1.490316
10  11.368422 -0.000001 -0.000001  1.704612 -0.032802 0.107535
time 12
0  0.001490 3.722770 -24.602341  0.000000 -0.000000 -1.570795
1  0.000000 0.000000 0.000000  -1.570795 -1.570796 0.000000
2  1.326317 -0.003921 0.000002  -0.000004 -0.000001 0.000796
3  4.926309 -0.003923 0.000000  -0.000000 0.000000 0.000000
4  4.926313 -0.003923 0.000000  0.000000 0.000000 -0.000000
5  4.926312 -0.003923 0.000000  -0.000000 0.000000 -0.000000
6  4.926317 -0.001509 -0.000000  -0.000000 -0.000000 -0.000000
7  -0.000002 0.001514 -1.894737  -0.000013 1.370797 3.140784
8  4.926314 0.000000 0.000000  0.078098 -1.069709 -0.100404
9  11.368421 0.000000 -0.000001  0.000000 -0.000000 -1.519426
10  11.368423 -0.000002 0.000001  1.706068 -0.026077 0.058142
time 13
0  0.001490 3.722770 -24.602341  0.000000 -0.000000 -1.570795
1  0.000000 0.000000 0.000000  -1.570795 -1.570796 0.000000
2  1.326317 -0.003921 0.000002  -0.000004 -0.000001 0.000796
3  4.926309 -0.003923 0.000000  -0.000000 0.000000 0.000000
4  4.926313 -0.003923 0.000000  0.000000 0.000000 -0.000000
5  4.926312 -0.003923 0.000000  -0.000000 0.000000 -0.000000
6  4.926317 -0.001509 -0.000000  -0.000000 -0.000000 -0.000000
7  -0.000002 0.001514 -1.894737  -0.000013 1.370797 3.140784
8  4.926314 0.000000 0.000000  0.048867 -1.072962 -0.062761
9  11.368423 0.000000 -0.000000  0.000000 -0.000000 -1.538331
10  11.368422 0.000002 -0.000001  1.706800 -0.021668 0.026075
time 14
0  0.001490 3.722770 -24.602341  0.000000 -0.000000 -1.570795
1  0.000000 0.000000 0.000000  -1.570795 -1.570796 0.000000
2  1.326317 -0.003921 0.000002  -0.000004 -0.000001 0.000796
3  4.926309 -0.003923 0.000000  -0.000000 0.000000 0.000000
4  4.926313 -0.003923 0.000000  0.000000 0.000000 -0.000000
5  4.926312 -0.003923 0.000000  -0.000000 0.000000 -0.000000
6  4.926317 -0.001509 -0.000000  -0.000000 -0.000000 -0.000000
7  -0.000002 0.001514 -1.894737  -0.000013 1.370797 3.140784
8  4.926314 0.000000 0.000000  0.029270 -1.074989 -0.037570
9  11.368423 0.000000 -0.000001  -0.000000 -0.000000 -1.550866
10  11.368421 -0.000001 -0.000001  1.707192 -0.018732 0.004817
time 15
0  0.001490 3.722770 -24.602341  0.000000 -0.000000 -1.570795
1  0.000000 0.000000 0.000000  -1.570795 -1.570796 0.000000
2  1.326317 -0.003921 0.000002  -0.000004 -0.000001 0.000796
3  4.926309 -0.003923 0.000000  -0.000000 0.000000 0.000000
4  4.926313 -0.003923 0.000000  0.000000 0.000000 -0.000000
5  4.926312 -0.003923 0.000000  -0.000000 0.000000 -0.000000
6  4.926317 -0.001509 -0.000000  -0.000000 -0.000000 -0.000000
7  -0.000002 0.001514 -1.894737  -0.000013 1.370797 3.140784
8  4.926314 0.000000 0.000000  0.016337 -1.076362 -0.020962
9  11.368423 0.000001 -0.000000  -0.000000 -0.000000 -1.559081
10  11.368422 -0.000001 -0.000001  1.707409 -0.016802 -0.009115
time 16
0  0.001490 3.722770 -24.602341  0.000000 -0.000000 -1.570795
1  0.000000 0.000000 0.000000  -1.570795 -1.570796 0.000000
2  1.326317 -0.003921 0.000002  -0.000004 -0.000001 0.000796
3  4.926309 -0.003923 0.000000  -0.000000 0.000000 0.000000
4  4.926313 -0.003923 0.000000  0.000000 0.000000 -0.000000
5  4.926312 -0.003923 0.000000  -0.000000 0.000000 -0.000000
6  4.926317 -0.001509 -0.000000  -0.000000 -0.000000 -0.000000
7  -0.000002 0.001514 -1.894737  -0.000013 1.370797 3.140784
8  4.926314 0.000000 0.000000  0.008161 -1.077342 -0.010468
9  11.368422 0.000001 -0.000002  -0.000000 -0.000000 -1.564252
10  11.368422 0.000001 -0.000001  1.707529 -0.015586 -0.017882
time 17
0  0.001490 3.722770 -24.602341  0.000000 -0.000000 -1.570795
1  0.000000 0.000000 0.000000  -1.570795 -1.570796 0.000000
2  1.326317 -0.003921 0.000002  -0.000004 -0.000001 0.000796
3  4.926309 -0.003923 0.000000  -0.000000 0.000000 0.000000
4  4.926313 -0.003923 0.000000  0.000000 0.000000 -0.000000
5  4.926312 -0.003923 0.000000  -0.000000 0.000000 -0.000000
6  4.926317 -0.001509 -0.000000  -0.000000 -0.000000 -0.000000
7  -0.000002 0.001514 -1.894737  -0.000013 1.370797 3.140784
8  4.926314 0.000000 0.000000  0.003392 -1.078050 -0.004351
9  11.368423 0.000001 -0.000001  0.000000 -0.000000 -1.567257
10  11.368421 -0.000000 -0.000001  1.707592 -0.014878 -0.022978
time 18
0  0.001490 3.722770 -24.602341  0.000000 -0.000000 -1.570795
1  0.000000 0.000000 0.000000  -1.570795 -1.570796 0.000000
2  1.326317 -0.003921 0.000002  -0.000004 -0.000001 0.000796
3  4.926309 -0.003923 0.000000  -0.000000 0.000000 0.000000
4  4.926313 -0.003923 0.000000  0.000000 0.000000 -0.000000
5  4.926312 -0.003923 0.000000  -0.000000 0.000000 -0.000000
6  4.926317 -0.001509 -0.000000  -0.000000 -0.000000 -0.000000
7  -0.000002 0.001514 -1.894737  -0.000013 1.370797 3.140784
8  4.926314 0.000000 0.000000  0.000999 -1.078542 -0.001281
9  11.368423 0.000001 -0.000001  -0.000000 -0.000000 -1.568762
10  11.368422 0.000001 -0.000001  1.707623 -0.014524 -0.025529
time 19
0  0.001490 3.722770 -24.602341  0.000000 -0.000000 -1.570795
1  0.000000 0.000000 0.000000  -1.570795 -1.570796 0.000000
2  1.326317 -0.003921 0.000002  -0.000004 -0.000001 0.000796
3  4.926309 -0.003923 0.000000  -0.000000 0.000000 0.000000
4  4.926313 -0.003923 0.000000  0.000000 0.000000 -0.000000
5  4.926312 -0.003923 0.000000  -0.000000 0.000000 -0.000000
6  4.926317 -0.001509 -0.000000  -0.000000 -0.000000 -0.000000
7  -0.000002 0.001514 -1.894737  -0.000013 1.370797 3.140784
8  4.926314 0.000000 0.000000  0.000125 -1.078835 -0.000161
9  11.368422 0.000001 -0.000001  0.000000 -0.000000 -1.569310
10  11.368421 -0.000003 -0.000002  1.707633 -0.014395 -0.026460
time 20
0  0.001490 3.722770 -24.602341  0.000000 -0.000000 -1.570795
1  0.000000 0.000000 0.000000  -1.570795 -1.570796 0.000000
2  1.326317 -0.003921 0.000002  -0.000004 -0.000001 0.000796
3  4.926309 -0.003923 0.000000  -0.000000 0.000000 0.000000
4  4.926313 -0.003923 0.000000  0.000000 0.000000 -0.000000
5  4.926312 -0.003923 0.000000  -0.000000 0.000000 -0.000000
6  4.926317 -0.001509 -0.000000  -0.000000 -0.000000 -0.000000
7  -0.000002 0.001514 -1.894737  -0.000013 1.370797 3.140784
8  4.926314 0.000000 0.000000  0.000000 -1.078934 -0.000000
9  11.368422 0.000001 -0.000001  0.000000 -0.000000 -1.569389
10  11.368421 -0.000001 -0.000001  1.707635 -0.014376 -0.026593
end
