version 1
nodes
0 "Hands biped" -1
1 "Bip01 Pelvis" 0
2 "Bip01 Spine" 1
3 "Bip01 Spine1" 2
4 "Bip01 Spine2" 3
5 "Bip01 Spine3" 4
6 "Bip01 Neck" 5
7 "Bip01 R Arm" 6
8 "Bip01 R Arm1" 7
9 "Bip01 R Arm2" 8
10 "Bip01 R Hand" 9
end
skeleton
time 0
0  0.001490 3.722770 -24.602341  0.000000 -0.000000 -1.570795
1  0.000000 0.000000 0.000000  -1.570795 -1.570796 0.000000
2  1.326317 -0.003921 0.000002  -0.000004 -0.000001 0.000796
3  4.926309 -0.003923 0.000000  -0.000000 0.000000 0.000000
4  4.926313 -0.003923 0.000000  0.000000 0.000000 -0.000000
5  4.926312 -0.003923 0.000000  0.000000 0.000000 -0.000000
6  4.926317 -0.001509 -0.000000  -0.000000 -0.000000 0.000000
7  -0.000003 0.001514 -1.894737  -0.000013 1.370797 3.140784
8  4.926314 -0.000001 -0.000001  0.000000 -1.078934 -0.000000
9  11.368422 0.000001 0.000002  0.000000 -0.000000 -1.569389
10  11.368421 -0.000001 -0.000002  1.707635 -0.014376 -0.026593
time 1
0  0.001490 3.722770 -24.602341  0.000000 -0.000000 -1.570795
1  0.000000 0.000000 0.000000  -1.570795 -1.570796 0.000000
2  1.326317 -0.003921 0.000002  -0.000004 -0.000001 0.000796
3  4.926309 -0.003923 0.000000  -0.000000 0.000000 0.000000
4  4.926313 -0.003923 0.000000  0.000000 0.000000 -0.000000
5  4.926312 -0.003923 0.000000  0.000000 0.000000 -0.000000
6  4.926317 -0.001509 -0.000000  -0.000000 -0.000000 0.000000
7  -0.000003 0.001514 -1.894737  -0.000013 1.370797 3.140784
8  4.926314 -0.000001 -0.000001  0.254855 -1.041061 -0.413293
9  11.368423 0.000000 0.000002  0.000000 -0.000000 -1.660266
10  11.368421 -0.000001 -0.000003  1.445148 0.000173 -0.003780
time 2
0  0.001490 3.722770 -24.602341  0.000000 -0.000000 -1.570795
1  0.000000 0.000000 0.000000  -1.570795 -1.570796 0.000000
2  1.326317 -0.003921 0.000002  -0.000004 -0.000001 0.000796
3  4.926309 -0.003923 0.000000  -0.000000 0.000000 0.000000
4  4.926313 -0.003923 0.000000  0.000000 0.000000 -0.000000
5  4.926312 -0.003923 0.000000  0.000000 0.000000 -0.000000
6  4.926317 -0.001509 -0.000000  -0.000000 -0.000000 0.000000
7  -0.000003 0.001514 -1.894737  -0.000013 1.370797 3.140784
8  4.926314 -0.000001 -0.000001  0.477318 -0.766023 -0.978753
9  11.368422 -0.000001 0.000000  0.000000 -0.000000 -1.854731
10  11.368421 0.000000 -0.000002  0.872590 0.057576 0.060893
time 3
0  0.001490 3.722770 -24.602341  0.000000 -0.000000 -1.570795
1  0.000000 0.000000 0.000000  -1.570795 -1.570796 0.000000
2  1.326317 -0.003921 0.000002  -0.000004 -0.000001 0.000796
3  4.926309 -0.003923 0.000000  -0.000000 0.000000 0.000000
4  4.926313 -0.003923 0.000000  0.000000 0.000000 -0.000000
5  4.926312 -0.003923 0.000000  0.000000 0.000000 -0.000000
6  4.926317 -0.001509 -0.000000  -0.000000 -0.000000 0.000000
7  -0.000003 0.001514 -1.894737  -0.000013 1.370797 3.140784
8  4.926314 -0.000001 -0.000001  0.460176 -0.595140 -1.124585
9  11.368423 -0.000000 0.000001  0.000000 -0.000000 -1.945608
10  11.368423 -0.000000 -0.000002  0.579915 0.152206 0.133743
time 4
0  0.001490 3.722770 -24.602341  0.000000 -0.000000 -1.570795
1  0.000000 0.000000 0.000000  -1.570795 -1.570796 0.000000
2  1.326317 -0.003921 0.000002  -0.000004 -0.000001 0.000796
3  4.926309 -0.003923 0.000000  -0.000000 0.000000 0.000000
4  4.926313 -0.003923 0.000000  0.000000 0.000000 -0.000000
5  4.926312 -0.003923 0.000000  0.000000 0.000000 -0.000000
6  4.926317 -0.001509 -0.000000  -0.000000 -0.000000 0.000000
7  -0.000003 0.001514 -1.894737  -0.000013 1.370797 3.140784
8  4.926314 -0.000001 -0.000001  0.417481 -0.597529 -0.957106
9  11.368423 0.000000 0.000002  -0.000000 -0.000001 -1.785815
10  11.368424 -0.000001 -0.000002  0.570461 0.302910 0.217930
time 5
0  0.001490 3.722770 -24.602341  0.000000 -0.000000 -1.570795
1  0.000000 0.000000 0.000000  -1.570795 -1.570796 0.000000
2  1.326317 -0.003921 0.000002  -0.000004 -0.000001 0.000796
3  4.926309 -0.003923 0.000000  -0.000000 0.000000 0.000000
4  4.926313 -0.003923 0.000000  0.000000 0.000000 -0.000000
5  4.926312 -0.003923 0.000000  0.000000 0.000000 -0.000000
6  4.926317 -0.001509 -0.000000  -0.000000 -0.000000 0.000000
7  -0.000003 0.001514 -1.894737  -0.000013 1.370797 3.140784
8  4.926314 -0.000001 -0.000001  0.292108 -0.526569 -0.535687
9  11.368423 -0.000001 0.000001  -0.000000 -0.000001 -1.367838
10  11.368421 -0.000001 -0.000003  0.638448 0.508293 0.343039
time 6
0  0.001490 3.722770 -24.602341  0.000000 -0.000000 -1.570795
1  0.000000 0.000000 0.000000  -1.570795 -1.570796 0.000000
2  1.326317 -0.003921 0.000002  -0.000004 -0.000001 0.000796
3  4.926309 -0.003923 0.000000  -0.000000 0.000000 0.000000
4  4.926313 -0.003923 0.000000  0.000000 0.000000 -0.000000
5  4.926312 -0.003923 0.000000  0.000000 0.000000 -0.000000
6  4.926317 -0.001509 -0.000000  -0.000000 -0.000000 0.000000
7  -0.000003 0.001514 -1.894737  -0.000013 1.370797 3.140784
8  4.926314 -0.000001 -0.000001  0.201756 -0.343496 -0.192302
9  11.368423 0.000000 0.000000  -0.000000 -0.000000 -0.949860
10  11.368420 0.000001 -0.000003  0.760233 0.663834 0.485278
time 7
0  0.001490 3.722770 -24.602341  0.000000 -0.000000 -1.570795
1  0.000000 0.000000 0.000000  -1.570795 -1.570796 0.000000
2  1.326317 -0.003921 0.000002  -0.000004 -0.000001 0.000796
3  4.926309 -0.003923 0.000000  -0.000000 0.000000 0.000000
4  4.926313 -0.003923 0.000000  0.000000 0.000000 -0.000000
5  4.926312 -0.003923 0.000000  0.000000 0.000000 -0.000000
6  4.926317 -0.001509 -0.000000  -0.000000 -0.000000 0.000000
7  -0.000003 0.001514 -1.894737  -0.000013 1.370797 3.140784
8  4.926314 -0.000001 -0.000001  0.177262 -0.252169 -0.051875
9  11.368424 -0.000000 0.000001  -0.000000 0.000000 -0.790067
10  11.368423 -0.000000 -0.000003  0.834433 0.704700 0.569276
time 8
0  0.001490 3.722770 -24.602341  0.000000 -0.000000 -1.570795
1  0.000000 0.000000 0.000000  -1.570795 -1.570796 0.000000
2  1.326317 -0.003921 0.000002  -0.000004 -0.000001 0.000796
3  4.926309 -0.003923 0.000000  -0.000000 0.000000 0.000000
4  4.926313 -0.003923 0.000000  0.000000 0.000000 -0.000000
5  4.926312 -0.003923 0.000000  0.000000 0.000000 -0.000000
6  4.926317 -0.001509 -0.000000  -0.000000 -0.000000 0.000000
7  -0.000003 0.001514 -1.894737  -0.000013 1.370797 3.140784
8  4.926314 -0.000001 -0.000001  0.167459 -0.299793 0.028707
9  11.368422 -0.000000 0.000002  -0.000000 -0.000000 -0.846759
10  11.368423 0.000002 -0.000002  0.849415 0.656430 0.573136
time 9
0  0.001490 3.722770 -24.602341  0.000000 -0.000000 -1.570795
1  0.000000 0.000000 0.000000  -1.570795 -1.570796 0.000000
2  1.326317 -0.003921 0.000002  -0.000004 -0.000001 0.000796
3  4.926309 -0.003923 0.000000  -0.000000 0.000000 0.000000
4  4.926313 -0.003923 0.000000  0.000000 0.000000 -0.000000
5  4.926312 -0.003923 0.000000  0.000000 0.000000 -0.000000
6  4.926317 -0.001509 -0.000000  -0.000000 -0.000000 0.000000
7  -0.000003 0.001514 -1.894737  -0.000013 1.370797 3.140784
8  4.926314 -0.000001 -0.000001  0.154854 -0.408078 0.112465
9  11.368424 -0.000000 0.000000  -0.000000 0.000000 -0.986732
10  11.368422 -0.000000 -0.000003  0.864914 0.557378 0.530199
time 10
0  0.001490 3.722770 -24.602341  0.000000 -0.000000 -1.570795
1  0.000000 0.000000 0.000000  -1.570795 -1.570796 0.000000
2  1.326317 -0.003921 0.000002  -0.000004 -0.000001 0.000796
3  4.926309 -0.003923 0.000000  -0.000000 0.000000 0.000000
4  4.926313 -0.003923 0.000000  0.000000 0.000000 -0.000000
5  4.926312 -0.003923 0.000000  0.000000 0.000000 -0.000000
6  4.926317 -0.001509 -0.000000  -0.000000 -0.000000 0.000000
7  -0.000003 0.001514 -1.894737  -0.000013 1.370797 3.140784
8  4.926314 -0.000001 -0.000001  0.142393 -0.502799 0.159318
9  11.368423 -0.000001 0.000002  -0.000000 0.000000 -1.100939
10  11.368423 0.000003 -0.000001  0.903030 0.471402 0.492412
time 11
0  0.001490 3.722770 -24.602341  0.000000 -0.000000 -1.570795
1  0.000000 0.000000 0.000000  -1.570795 -1.570796 0.000000
2  1.326317 -0.003921 0.000002  -0.000004 -0.000001 0.000796
3  4.926309 -0.003923 0.000000  -0.000000 0.000000 0.000000
4  4.926313 -0.003923 0.000000  0.000000 0.000000 -0.000000
5  4.926312 -0.003923 0.000000  0.000000 0.000000 -0.000000
6  4.926317 -0.001509 -0.000000  -0.000000 -0.000000 0.000000
7  -0.000003 0.001514 -1.894737  -0.000013 1.370797 3.140784
8  4.926314 -0.000001 -0.000001  0.129901 -0.576242 0.173884
9  11.368422 0.000000 0.000003  0.000000 -0.000000 -1.176187
10  11.368421 0.000002 -0.000002  0.957897 0.408363 0.458282
time 12
0  0.001490 3.722770 -24.602341  0.000000 -0.000000 -1.570795
1  0.000000 0.000000 0.000000  -1.570795 -1.570796 0.000000
2  1.326317 -0.003921 0.000002  -0.000004 -0.000001 0.000796
3  4.926309 -0.003923 0.000000  -0.000000 0.000000 0.000000
4  4.926313 -0.003923 0.000000  0.000000 0.000000 -0.000000
5  4.926312 -0.003923 0.000000  0.000000 0.000000 -0.000000
6  4.926317 -0.001509 -0.000000  -0.000000 -0.000000 0.000000
7  -0.000003 0.001514 -1.894737  -0.000013 1.370797 3.140784
8  4.926314 -0.000001 -0.000001  0.109453 -0.655208 0.181886
9  11.368423 -0.000000 0.000003  0.000000 -0.000000 -1.250459
10  11.368422 -0.000000 -0.000001  1.029706 0.343876 0.408192
time 13
0  0.001490 3.722770 -24.602341  0.000000 -0.000000 -1.570795
1  0.000000 0.000000 0.000000  -1.570795 -1.570796 0.000000
2  1.326317 -0.003921 0.000002  -0.000004 -0.000001 0.000796
3  4.926309 -0.003923 0.000000  -0.000000 0.000000 0.000000
4  4.926313 -0.003923 0.000000  0.000000 0.000000 -0.000000
5  4.926312 -0.003923 0.000000  0.000000 0.000000 -0.000000
6  4.926317 -0.001509 -0.000000  -0.000000 -0.000000 0.000000
7  -0.000003 0.001514 -1.894737  -0.000013 1.370797 3.140784
8  4.926314 -0.000001 -0.000001  0.083082 -0.737615 0.180761
9  11.368423 0.000000 0.000002  -0.000000 -0.000000 -1.321783
10  11.368421 0.000000 -0.000002  1.119898 0.277590 0.344544
time 14
0  0.001490 3.722770 -24.602341  0.000000 -0.000000 -1.570795
1  0.000000 0.000000 0.000000  -1.570795 -1.570796 0.000000
2  1.326317 -0.003921 0.000002  -0.000004 -0.000001 0.000796
3  4.926309 -0.003923 0.000000  -0.000000 0.000000 0.000000
4  4.926313 -0.003923 0.000000  0.000000 0.000000 -0.000000
5  4.926312 -0.003923 0.000000  0.000000 0.000000 -0.000000
6  4.926317 -0.001509 -0.000000  -0.000000 -0.000000 0.000000
7  -0.000003 0.001514 -1.894737  -0.000013 1.370797 3.140784
8  4.926314 -0.000001 -0.000001  0.054536 -0.819817 0.168278
9  11.368423 0.000000 0.000001  0.000000 -0.000000 -1.387638
10  11.368421 -0.000000 -0.000002  1.226676 0.210683 0.271509
time 15
0  0.001490 3.722770 -24.602341  0.000000 -0.000000 -1.570795
1  0.000000 0.000000 0.000000  -1.570795 -1.570796 0.000000
2  1.326317 -0.003921 0.000002  -0.000004 -0.000001 0.000796
3  4.926309 -0.003923 0.000000  -0.000000 0.000000 0.000000
4  4.926313 -0.003923 0.000000  0.000000 0.000000 -0.000000
5  4.926312 -0.003923 0.000000  0.000000 0.000000 -0.000000
6  4.926317 -0.001509 -0.000000  -0.000000 -0.000000 0.000000
7  -0.000003 0.001514 -1.894737  -0.000013 1.370797 3.140784
8  4.926314 -0.000001 -0.000001  0.028778 -0.896847 0.143655
9  11.368423 -0.000000 0.000001  -0.000000 -0.000000 -1.445311
10  11.368422 0.000003 -0.000002  1.343669 0.146327 0.195017
time 16
0  0.001490 3.722770 -24.602341  0.000000 -0.000000 -1.570795
1  0.000000 0.000000 0.000000  -1.570795 -1.570796 0.000000
2  1.326317 -0.003921 0.000002  -0.000004 -0.000001 0.000796
3  4.926309 -0.003923 0.000000  -0.000000 0.000000 0.000000
4  4.926313 -0.003923 0.000000  0.000000 0.000000 -0.000000
5  4.926312 -0.003923 0.000000  0.000000 0.000000 -0.000000
6  4.926317 -0.001509 -0.000000  -0.000000 -0.000000 0.000000
7  -0.000003 0.001514 -1.894737  -0.000013 1.370797 3.140784
8  4.926314 -0.000001 -0.000001  0.010274 -0.963480 0.108912
9  11.368423 0.000000 0.000002  -0.000000 -0.000000 -1.492537
10  11.368422 -0.000002 -0.000003  1.460137 0.089010 0.122033
time 17
0  0.001490 3.722770 -24.602341  0.000000 -0.000000 -1.570795
1  0.000000 0.000000 0.000000  -1.570795 -1.570796 0.000000
2  1.326317 -0.003921 0.000002  -0.000004 -0.000001 0.000796
3  4.926309 -0.003923 0.000000  -0.000000 0.000000 0.000000
4  4.926313 -0.003923 0.000000  0.000000 0.000000 -0.000000
5  4.926312 -0.003923 0.000000  0.000000 0.000000 -0.000000
6  4.926317 -0.001509 -0.000000  -0.000000 -0.000000 0.000000
7  -0.000003 0.001514 -1.894737  -0.000013 1.370797 3.140784
8  4.926314 -0.000001 -0.000001  0.000768 -1.015751 0.069558
9  11.368423 0.000000 0.000001  -0.000000 0.000000 -1.528104
10  11.368421 -0.000003 -0.000002  1.563484 0.042875 0.059270
time 18
0  0.001490 3.722770 -24.602341  0.000000 -0.000000 -1.570795
1  0.000000 0.000000 0.000000  -1.570795 -1.570796 0.000000
2  1.326317 -0.003921 0.000002  -0.000004 -0.000001 0.000796
3  4.926309 -0.003923 0.000000  -0.000000 0.000000 0.000000
4  4.926313 -0.003923 0.000000  0.000000 0.000000 -0.000000
5  4.926312 -0.003923 0.000000  0.000000 0.000000 -0.000000
6  4.926317 -0.001509 -0.000000  -0.000000 -0.000000 0.000000
7  -0.000003 0.001514 -1.894737  -0.000013 1.370797 3.140784
8  4.926314 -0.000001 -0.000001  -0.001580 -1.051957 0.033560
9  11.368423 0.000000 0.000002  0.000000 -0.000000 -1.552035
10  11.368422 -0.000002 -0.000002  1.642848 0.010276 0.011917
time 19
0  0.001490 3.722770 -24.602341  0.000000 -0.000000 -1.570795
1  0.000000 0.000000 0.000000  -1.570795 -1.570796 0.000000
2  1.326317 -0.003921 0.000002  -0.000004 -0.000001 0.000796
3  4.926309 -0.003923 0.000000  -0.000000 0.000000 0.000000
4  4.926313 -0.003923 0.000000  0.000000 0.000000 -0.000000
5  4.926312 -0.003923 0.000000  0.000000 0.000000 -0.000000
6  4.926317 -0.001509 -0.000000  -0.000000 -0.000000 0.000000
7  -0.000003 0.001514 -1.894737  -0.000013 1.370797 3.140784
8  4.926314 -0.000001 -0.000001  -0.000700 -1.072495 0.008720
9  11.368423 -0.000000 0.000002  0.000000 -0.000000 -1.565311
10  11.368423 -0.000002 -0.000003  1.691580 -0.008466 -0.017015
time 20
0  0.001490 3.722770 -24.602341  0.000000 -0.000000 -1.570795
1  0.000000 0.000000 0.000000  -1.570795 -1.570796 0.000000
2  1.326317 -0.003921 0.000002  -0.000004 -0.000001 0.000796
3  4.926309 -0.003923 0.000000  -0.000000 0.000000 0.000000
4  4.926313 -0.003923 0.000000  0.000000 0.000000 -0.000000
5  4.926312 -0.003923 0.000000  0.000000 0.000000 -0.000000
6  4.926317 -0.001509 -0.000000  -0.000000 -0.000000 0.000000
7  -0.000003 0.001514 -1.894737  -0.000013 1.370797 3.140784
8  4.926314 -0.000001 -0.000001  0.000000 -1.078934 -0.000000
9  11.368422 0.000001 0.000002  0.000000 -0.000000 -1.569389
10  11.368421 -0.000001 -0.000002  1.707635 -0.014376 -0.026593
end
