version 1
nodes
0 "Bip01" -1
1 "Bip01 Pelvis" 0
2 "Bip01 Spine" 1
3 "Bip01 Spine1" 2
4 "Bip01 Neck" 3
5 "Bip01 Head" 4
6 "Dummy04" 5
7 "Bone09" 6
8 "Bone10" 7
9 "Dummy05" 5
10 "Bone05" 9
11 "Bone06" 10
12 "Dummy06" 5
13 "Bone01" 12
14 "Bone02" 13
15 "Dummy10" 3
16 "Bone13" 15
17 "Dummy09" 3
18 "Bone15" 17
19 "Dummy07" 3
20 "Dummy08" 3
end
skeleton
time 0
0  -8.496743 -6.499926 -12.620350  1.570795 1.570024 0.000000
1  0.107287 -0.000001 -0.000085  -1.570795 -1.570451 -0.000000
2  0.626065 -0.004668 0.000000  -0.000004 -0.000001 0.000796
3  5.859705 -0.004661 0.000001  -0.000000 0.000000 -0.052333
4  5.859975 -0.000897 0.000001  -0.000000 -0.000000 0.026167
5  1.126918 0.000002 0.000000  -0.000001 0.000000 -0.149075
6  2.207104 1.730000 5.187452  1.746038 -1.570796 0.000000
7  0.817492 0.000001 0.000001  -0.000000 0.000000 -0.000000
8  1.226239 -5.313699 0.000000  0.000000 0.000000 -0.000000
9  2.226117 1.733434 -4.950246  1.746038 -1.570796 0.000000
10  -0.898443 -0.185044 0.000003  0.000000 0.000000 -0.000000
11  -1.430610 -4.904951 0.000002  0.000000 0.000000 -0.000000
12  4.222804 -2.892895 0.162015  -0.000004 -0.000001 -2.966351
13  -0.188326 -0.077081 0.169980  -0.000000 -0.000000 0.000000
14  -3.545668 -0.154160 -0.000002  0.000000 0.000000 -0.000000
15  3.272835 -0.112142 5.546793  -0.000003 -0.000001 -3.089259
16  -0.113937 0.090330 0.049409  -1.570796 -1.570796 0.000000
17  3.072870 -0.199781 -5.376822  -0.000003 -0.000001 -3.089259
18  -0.113822 0.013252 0.039071  -1.570796 -1.570796 0.000000
19  0.551431 -3.435103 -4.560711  -0.000003 -0.000001 -3.089259
20  0.526536 -3.436426 5.037216  -0.000003 -0.000001 -3.089259
time 1
0  -8.496743 -6.499926 -12.597576  0.617257 1.569460 -0.956815
1  0.129924 -0.010933 -0.000086  -1.570794 -1.570451 -0.000001
2  0.626066 -0.004667 0.000002  -0.000000 -0.001297 -0.002809
3  5.859707 -0.004661 0.000001  0.000011 -0.001516 -0.052236
4  5.859976 -0.000897 -0.000001  0.000005 -0.000777 0.028484
5  1.126913 0.000002 0.000001  0.000342 -0.000614 -0.144080
6  2.207104 1.730000 5.187450  1.746038 -1.570796 0.000000
7  0.817492 0.000007 0.000002  -0.000000 0.000000 -0.000000
8  1.226239 -5.313696 0.000000  0.000000 0.000000 -0.000000
9  2.226116 1.733433 -4.950248  1.746038 -1.570796 0.000000
10  -0.898441 -0.185042 0.000001  0.000000 0.000000 -0.000000
11  -1.430609 -4.904949 0.000000  0.000000 0.000000 -0.000000
12  4.222805 -2.892896 0.162013  -0.000004 -0.000001 -2.966351
13  -0.188326 -0.077082 0.169979  0.000000 -0.000000 0.000000
14  -3.545662 -0.154159 0.000001  0.000000 0.000000 -0.000000
15  3.272834 -0.112143 5.546793  -0.000003 -0.000001 -3.089259
16  -0.113932 0.090330 0.049409  -1.570796 -1.570796 0.000000
17  3.072871 -0.199781 -5.376824  -0.000003 -0.000001 -3.089259
18  -0.113820 0.013253 0.039071  -1.570796 -1.570796 0.000000
19  0.551431 -3.435103 -4.560715  -0.000003 -0.000001 -3.089259
20  0.526535 -3.436427 5.037214  -0.000003 -0.000001 -3.089259
time 2
0  -8.496743 -6.499926 -12.529598  0.182314 1.566272 -1.401802
1  0.197500 -0.044012 -0.000086  -1.570796 -1.570451 0.000001
2  0.626065 -0.004666 0.000002  0.000011 -0.005203 -0.013625
3  5.859707 -0.004661 -0.000001  0.000045 -0.006141 -0.051861
4  5.859975 -0.000895 0.000000  0.000022 -0.003097 0.035629
5  1.126915 0.000004 0.000001  0.001375 -0.002494 -0.129170
6  2.207101 1.730001 5.187449  1.746038 -1.570796 0.000000
7  0.817492 0.000004 0.000002  -0.000000 0.000000 -0.000000
8  1.226239 -5.313697 0.000002  0.000000 0.000000 -0.000000
9  2.226116 1.733435 -4.950248  1.746038 -1.570796 0.000000
10  -0.898441 -0.185044 0.000002  0.000000 0.000000 -0.000000
11  -1.430609 -4.904950 0.000002  0.000000 0.000000 -0.000000
12  4.222802 -2.892894 0.162013  -0.000004 -0.000001 -2.966351
13  -0.188323 -0.077081 0.169978  -0.000000 -0.000000 0.000000
14  -3.545665 -0.154160 -0.000001  0.000000 0.000000 -0.000000
15  3.272834 -0.112141 5.546793  -0.000003 -0.000001 -3.089259
16  -0.113933 0.090331 0.049409  -1.570796 -1.570796 0.000000
17  3.072871 -0.199779 -5.376823  -0.000003 -0.000001 -3.089259
18  -0.113820 0.013252 0.039070  -1.570796 -1.570796 0.000000
19  0.551430 -3.435102 -4.560714  -0.000003 -0.000001 -3.089259
20  0.526536 -3.436426 5.037214  -0.000003 -0.000001 -3.089259
time 3
0  -8.496743 -6.499926 -12.422581  0.102789 1.560747 -1.497080
1  0.303878 -0.097195 -0.000085  -1.570799 -1.570451 -0.000001
2  0.626065 -0.004668 0.000004  0.000029 -0.011444 -0.030792
3  5.859709 -0.004660 0.000001  0.000098 -0.013674 -0.051058
4  5.859976 -0.000898 -0.000001  0.000047 -0.006750 0.047436
5  1.126915 0.000002 0.000000  0.003020 -0.005575 -0.105698
6  2.207106 1.730000 5.187450  1.746038 -1.570796 0.000000
7  0.817492 0.000005 0.000002  -0.000000 0.000000 -0.000000
8  1.226239 -5.313697 0.000001  0.000000 0.000000 -0.000000
9  2.226120 1.733433 -4.950248  1.746038 -1.570796 0.000000
10  -0.898440 -0.185043 0.000002  0.000000 0.000000 -0.000000
11  -1.430609 -4.904949 0.000001  0.000000 0.000000 -0.000000
12  4.222808 -2.892895 0.162013  -0.000004 -0.000001 -2.966351
13  -0.188324 -0.077081 0.169980  0.000000 -0.000000 0.000000
14  -3.545666 -0.154160 0.000001  0.000000 0.000000 -0.000000
15  3.272837 -0.112142 5.546792  -0.000003 -0.000001 -3.089259
16  -0.113934 0.090331 0.049409  -1.570796 -1.570796 0.000000
17  3.072873 -0.199781 -5.376823  -0.000003 -0.000001 -3.089259
18  -0.113821 0.013251 0.039071  -1.570796 -1.570796 0.000000
19  0.551432 -3.435103 -4.560714  -0.000003 -0.000001 -3.089259
20  0.526538 -3.436427 5.037214  -0.000003 -0.000001 -3.089259
time 4
0  -8.496743 -6.499926 -12.292215  0.088868 1.553493 -1.530180
1  0.433468 -0.164068 -0.000086  -1.570814 -1.570451 0.000005
2  0.626066 -0.004668 0.000001  0.000050 -0.019219 -0.051967
3  5.859706 -0.004659 0.000002  0.000162 -0.023321 -0.049679
4  5.859975 -0.000898 -0.000001  0.000078 -0.011200 0.062874
5  1.126916 0.000000 -0.000001  0.005063 -0.009553 -0.077105
6  2.207104 1.729999 5.187451  1.746038 -1.570796 0.000000
7  0.817492 0.000002 0.000001  -0.000000 0.000000 -0.000000
8  1.226239 -5.313699 0.000002  0.000000 0.000000 -0.000000
9  2.226116 1.733432 -4.950245  1.746038 -1.570796 0.000000
10  -0.898441 -0.185047 0.000002  0.000000 0.000000 -0.000000
11  -1.430608 -4.904950 0.000003  0.000000 0.000000 -0.000000
12  4.222805 -2.892897 0.162014  -0.000004 -0.000001 -2.966351
13  -0.188325 -0.077082 0.169978  -0.000000 -0.000000 0.000000
14  -3.545665 -0.154159 -0.000001  0.000000 0.000000 -0.000000
15  3.272838 -0.112143 5.546793  -0.000003 -0.000001 -3.089259
16  -0.113933 0.090331 0.049409  -1.570796 -1.570796 0.000000
17  3.072872 -0.199781 -5.376824  -0.000003 -0.000001 -3.089259
18  -0.113821 0.013251 0.039069  -1.570796 -1.570796 0.000000
19  0.551432 -3.435104 -4.560713  -0.000003 -0.000001 -3.089259
20  0.526537 -3.436427 5.037215  -0.000003 -0.000001 -3.089259
time 5
0  -8.496743 -6.499926 -12.161850  0.092845 1.545416 -1.545378
1  0.563057 -0.234394 -0.000085  -1.570821 -1.570451 0.000016
2  0.626066 -0.004668 0.000002  0.000071 -0.027280 -0.073576
3  5.859707 -0.004660 0.000001  0.000226 -0.033751 -0.047633
4  5.859977 -0.000897 -0.000001  0.000109 -0.015649 0.080062
5  1.126915 0.000002 0.000001  0.007170 -0.013906 -0.048513
6  2.207105 1.730000 5.187450  1.746038 -1.570796 0.000000
7  0.817492 -0.000000 0.000002  -0.000000 0.000000 -0.000000
8  1.226239 -5.313699 -0.000000  0.000000 0.000000 -0.000000
9  2.226118 1.733434 -4.950246  1.746038 -1.570796 0.000000
10  -0.898441 -0.185043 0.000001  0.000000 0.000000 -0.000000
11  -1.430609 -4.904951 0.000000  0.000000 0.000000 -0.000000
12  4.222807 -2.892894 0.162013  -0.000004 -0.000001 -2.966351
13  -0.188323 -0.077082 0.169978  0.000000 -0.000000 0.000000
14  -3.545667 -0.154160 -0.000001  0.000000 0.000000 -0.000000
15  3.272836 -0.112142 5.546793  -0.000003 -0.000001 -3.089259
16  -0.113933 0.090329 0.049409  -1.570796 -1.570796 0.000000
17  3.072871 -0.199781 -5.376824  -0.000003 -0.000001 -3.089259
18  -0.113821 0.013250 0.039069  -1.570796 -1.570796 0.000000
19  0.551431 -3.435103 -4.560715  -0.000003 -0.000001 -3.089259
20  0.526536 -3.436427 5.037214  -0.000003 -0.000001 -3.089259
time 6
0  -8.496744 -6.499926 -12.054832  0.100217 1.537534 -1.553747
1  0.669437 -0.297422 -0.000085  -1.570786 -1.570451 0.000000
2  0.626065 -0.004668 0.000003  0.000089 -0.034336 -0.091981
3  5.859709 -0.004662 0.000001  0.000279 -0.043511 -0.044935
4  5.859975 -0.000898 0.000001  0.000134 -0.019302 0.096853
5  1.126916 0.000002 -0.000000  0.008997 -0.018053 -0.025041
6  2.207104 1.730000 5.187451  1.746038 -1.570796 0.000000
7  0.817492 0.000007 0.000002  -0.000000 0.000000 -0.000000
8  1.226239 -5.313697 0.000000  0.000000 0.000000 -0.000000
9  2.226117 1.733434 -4.950246  1.746038 -1.570796 0.000000
10  -0.898440 -0.185042 0.000002  0.000000 0.000000 -0.000000
11  -1.430608 -4.904950 0.000001  0.000000 0.000000 -0.000000
12  4.222806 -2.892896 0.162014  -0.000004 -0.000001 -2.966351
13  -0.188322 -0.077082 0.169979  -0.000000 -0.000000 0.000000
14  -3.545662 -0.154162 -0.000001  -0.000000 0.000000 0.000000
15  3.272834 -0.112143 5.546794  -0.000003 -0.000001 -3.089259
16  -0.113931 0.090330 0.049409  -1.570796 -1.570796 0.000000
17  3.072870 -0.199780 -5.376823  -0.000003 -0.000001 -3.089259
18  -0.113820 0.013251 0.039069  -1.570796 -1.570796 0.000000
19  0.551430 -3.435103 -4.560712  -0.000003 -0.000001 -3.089259
20  0.526536 -3.436426 5.037216  -0.000003 -0.000001 -3.089259
time 7
0  -8.496744 -6.499926 -11.986855  0.104897 1.530639 -1.559063
1  0.737009 -0.345461 -0.000085  -1.570785 -1.570451 -0.000034
2  0.626066 -0.004667 0.000002  0.000100 -0.039481 -0.104679
3  5.859705 -0.004661 0.000001  0.000313 -0.051521 -0.041680
4  5.859976 -0.000896 -0.000001  0.000151 -0.021622 0.111570
5  1.126913 0.000001 -0.000001  0.010304 -0.021554 -0.010131
6  2.207107 1.730000 5.187450  1.746038 -1.570796 0.000000
7  0.817492 0.000007 0.000001  -0.000000 0.000000 -0.000000
8  1.226239 -5.313698 0.000001  0.000000 0.000000 -0.000000
9  2.226121 1.733434 -4.950248  1.746038 -1.570796 0.000000
10  -0.898441 -0.185041 0.000001  0.000000 0.000000 -0.000000
11  -1.430609 -4.904950 -0.000000  0.000000 0.000000 -0.000000
12  4.222806 -2.892895 0.162013  -0.000004 -0.000001 -2.966351
13  -0.188325 -0.077082 0.169980  -0.000000 -0.000000 0.000000
14  -3.545665 -0.154159 0.000000  -0.000000 0.000000 -0.000000
15  3.272834 -0.112143 5.546792  -0.000003 -0.000001 -3.089259
16  -0.113933 0.090331 0.049409  -1.570796 -1.570796 0.000000
17  3.072871 -0.199781 -5.376824  -0.000003 -0.000001 -3.089259
18  -0.113820 0.013251 0.039069  -1.570796 -1.570796 0.000000
19  0.551431 -3.435102 -4.560713  -0.000003 -0.000001 -3.089259
20  0.526536 -3.436427 5.037215  -0.000003 -0.000001 -3.089259
time 8
0  -8.496744 -6.499926 -11.964081  0.104422 1.525154 -1.562886
1  0.759649 -0.375011 -0.000085  -1.570792 -1.570451 -0.000007
2  0.626065 -0.004667 0.000001  0.000104 -0.042319 -0.110625
3  5.859707 -0.004662 0.000002  0.000324 -0.057250 -0.037999
4  5.859977 -0.000895 0.000000  0.000156 -0.022399 0.123314
5  1.126918 0.000001 0.000000  0.010989 -0.024185 -0.005136
6  2.207105 1.729998 5.187451  1.746038 -1.570796 0.000000
7  0.817492 0.000006 0.000002  -0.000000 0.000000 -0.000000
8  1.226239 -5.313699 0.000000  0.000000 0.000000 -0.000000
9  2.226119 1.733433 -4.950247  1.746038 -1.570796 0.000000
10  -0.898442 -0.185044 0.000002  0.000000 0.000000 -0.000000
11  -1.430610 -4.904945 0.000001  0.000000 0.000000 -0.000000
12  4.222805 -2.892896 0.162014  -0.000004 -0.000001 -2.966351
13  -0.188323 -0.077080 0.169980  -0.000000 -0.000000 0.000000
14  -3.545662 -0.154159 -0.000001  0.000000 0.000000 -0.000000
15  3.272835 -0.112141 5.546793  -0.000003 -0.000001 -3.089259
16  -0.113931 0.090332 0.049409  -1.570796 -1.570796 0.000000
17  3.072872 -0.199780 -5.376822  -0.000003 -0.000001 -3.089259
18  -0.113819 0.013252 0.039068  -1.570796 -1.570796 0.000000
19  0.551431 -3.435102 -4.560713  -0.000003 -0.000001 -3.089259
20  0.526537 -3.436426 5.037215  -0.000003 -0.000001 -3.089259
time 9
0  -8.496743 -6.499926 -11.965546  0.099333 1.520032 -1.567909
1  0.757695 -0.388684 -0.000085  -1.570791 -1.570451 -0.000060
2  0.626065 -0.004668 0.000003  0.000038 -0.043451 -0.112344
3  5.859706 -0.004660 0.000001  0.000138 -0.060476 -0.033898
4  5.859975 -0.000897 0.000001  0.000072 -0.021779 0.134400
5  1.126912 0.000003 -0.000000  0.011133 -0.026132 -0.006909
6  2.207104 1.730001 5.187451  1.746038 -1.570796 0.000000
7  0.817492 0.000005 0.000002  -0.000000 0.000000 -0.000000
8  1.226239 -5.313693 0.000001  0.000000 0.000000 -0.000000
9  2.226117 1.733434 -4.950245  1.746038 -1.570796 0.000000
10  -0.898441 -0.185042 0.000001  0.000000 0.000000 -0.000000
11  -1.430609 -4.904951 0.000001  0.000000 0.000000 -0.000000
12  4.222803 -2.892894 0.162015  -0.000004 -0.000001 -2.966351
13  -0.188325 -0.077082 0.169979  0.000000 -0.000000 0.000000
14  -3.545662 -0.154160 -0.000001  0.000000 0.000000 0.000000
15  3.272835 -0.112143 5.546793  -0.000003 -0.000001 -3.089259
16  -0.113934 0.090330 0.049409  -1.570796 -1.570796 0.000000
17  3.072870 -0.199781 -5.376822  -0.000003 -0.000001 -3.089259
18  -0.113819 0.013253 0.039070  -1.570796 -1.570796 0.000000
19  0.551431 -3.435103 -4.560712  -0.000003 -0.000001 -3.089259
20  0.526537 -3.436427 5.037215  -0.000003 -0.000001 -3.089259
time 10
0  -8.496743 -6.499926 -11.975800  0.096010 1.517675 -1.570796
1  0.744025 -0.390637 -0.000086  -1.570763 -1.570451 0.000010
2  0.626066 -0.004667 0.000001  -0.000028 -0.043613 -0.112590
3  5.859706 -0.004660 0.000002  -0.000048 -0.061050 -0.026171
4  5.859976 -0.000897 0.000001  -0.000012 -0.017438 0.139553
5  1.126914 0.000001 0.000000  0.011276 -0.026810 -0.019318
6  2.207104 1.730000 5.187451  1.746038 -1.570796 0.000000
7  0.817492 0.000004 0.000002  -0.000000 0.000000 -0.000000
8  1.226240 -5.313697 0.000001  0.000000 0.000000 -0.000000
9  2.226119 1.733434 -4.950246  1.746038 -1.570796 0.000000
10  -0.898441 -0.185044 0.000002  0.000000 0.000000 -0.000000
11  -1.430608 -4.904953 0.000001  0.000000 0.000000 -0.000000
12  4.222805 -2.892895 0.162014  -0.000004 -0.000001 -2.966351
13  -0.188324 -0.077081 0.169979  0.000000 -0.000000 0.000000
14  -3.545663 -0.154160 -0.000001  0.000000 0.000000 0.000000
15  3.272834 -0.112143 5.546793  -0.000003 -0.000001 -3.089259
16  -0.113933 0.090331 0.049409  -1.570796 -1.570796 0.000000
17  3.072870 -0.199781 -5.376823  -0.000003 -0.000001 -3.089259
18  -0.113819 0.013252 0.039069  -1.570796 -1.570796 0.000000
19  0.551430 -3.435103 -4.560713  -0.000003 -0.000001 -3.089259
20  0.526535 -3.436426 5.037215  -0.000003 -0.000001 -3.089259
time 11
0  -8.496742 -6.499926 -12.028666  0.089948 1.517675 -1.570796
1  0.686982 -0.375748 -0.000086  -1.570784 -1.570451 -0.000015
2  0.626065 -0.004667 0.000001  -0.000027 -0.041740 -0.106929
3  5.859706 -0.004661 0.000001  -0.000046 -0.059206 -0.014920
4  5.859973 -0.000896 0.000000  -0.000011 -0.008665 0.139553
5  1.126918 0.000001 -0.000000  0.012330 -0.025839 -0.050278
6  2.207106 1.729999 5.187449  1.746038 -1.570796 0.000000
7  0.817492 0.000008 0.000002  -0.000000 0.000000 -0.000000
8  1.226239 -5.313697 -0.000000  0.000000 0.000000 -0.000000
9  2.226119 1.733434 -4.950248  1.746038 -1.570796 0.000000
10  -0.898442 -0.185047 0.000001  0.000000 0.000000 -0.000000
11  -1.430611 -4.904951 0.000001  0.000000 0.000000 -0.000000
12  4.222806 -2.892895 0.162013  -0.000004 -0.000001 -2.966351
13  -0.188326 -0.077080 0.169980  -0.000000 -0.000000 0.000000
14  -3.545661 -0.154160 -0.000001  0.000000 0.000000 -0.000000
15  3.272833 -0.112142 5.546793  -0.000003 -0.000001 -3.089259
16  -0.113933 0.090329 0.049409  -1.570796 -1.570796 0.000000
17  3.072870 -0.199779 -5.376823  -0.000003 -0.000001 -3.089259
18  -0.113820 0.013253 0.039070  -1.570796 -1.570796 0.000000
19  0.551431 -3.435102 -4.560713  -0.000003 -0.000001 -3.089259
20  0.526536 -3.436426 5.037215  -0.000003 -0.000001 -3.089259
time 12
0  -8.496742 -6.499926 -12.158552  0.072820 1.517675 -1.570796
1  0.554721 -0.330273 -0.000086  -1.570791 -1.570451 -0.000002
2  0.626066 -0.004667 0.000002  -0.000023 -0.036032 -0.089751
3  5.859706 -0.004661 0.000001  -0.000041 -0.053577 -0.001285
4  5.859972 -0.000897 0.000001  -0.000007 0.004792 0.139553
5  1.126915 0.000001 -0.000000  0.014740 -0.022942 -0.106232
6  2.207104 1.730000 5.187450  1.746038 -1.570796 0.000000
7  0.817492 0.000004 0.000001  -0.000000 0.000000 -0.000000
8  1.226239 -5.313696 0.000002  0.000000 0.000000 -0.000000
9  2.226118 1.733432 -4.950248  1.746038 -1.570796 0.000000
10  -0.898439 -0.185044 0.000002  0.000000 0.000000 -0.000000
11  -1.430605 -4.904950 0.000001  0.000000 0.000000 -0.000000
12  4.222806 -2.892897 0.162013  -0.000004 -0.000001 -2.966351
13  -0.188325 -0.077081 0.169980  -0.000000 -0.000000 0.000000
14  -3.545662 -0.154160 -0.000001  -0.000000 0.000000 -0.000000
15  3.272834 -0.112142 5.546794  -0.000003 -0.000001 -3.089259
16  -0.113935 0.090330 0.049409  -1.570796 -1.570796 0.000000
17  3.072869 -0.199781 -5.376823  -0.000003 -0.000001 -3.089259
18  -0.113821 0.013251 0.039071  -1.570796 -1.570796 0.000000
19  0.551429 -3.435103 -4.560713  -0.000003 -0.000001 -3.089259
20  0.526534 -3.436426 5.037216  -0.000003 -0.000001 -3.089259
time 13
0  -8.496742 -6.499926 -12.359018  0.045496 1.517675 -1.570796
1  0.353763 -0.256154 -0.000086  -1.570801 -1.570451 -0.000012
2  0.626065 -0.004667 0.000002  -0.000017 -0.026755 -0.062017
3  5.859707 -0.004660 0.000002  -0.000034 -0.044410 0.014380
4  5.859974 -0.000898 0.000000  0.000001 0.022034 0.139553
5  1.126915 0.000003 -0.000001  0.018302 -0.018380 -0.182887
6  2.207103 1.729999 5.187451  1.746038 -1.570796 0.000000
7  0.817493 0.000003 0.000002  -0.000000 0.000000 -0.000000
8  1.226239 -5.313699 0.000000  0.000000 0.000000 -0.000000
9  2.226116 1.733433 -4.950246  1.746038 -1.570796 0.000000
10  -0.898441 -0.185045 0.000002  0.000000 0.000000 -0.000000
11  -1.430607 -4.904950 0.000000  0.000000 0.000000 -0.000000
12  4.222806 -2.892895 0.162014  -0.000004 -0.000001 -2.966351
13  -0.188326 -0.077082 0.169978  0.000000 -0.000000 0.000000
14  -3.545661 -0.154159 0.000000  0.000000 0.000000 -0.000000
15  3.272835 -0.112143 5.546793  -0.000003 -0.000001 -3.089259
16  -0.113933 0.090330 0.049409  -1.570796 -1.570796 0.000000
17  3.072871 -0.199780 -5.376825  -0.000003 -0.000001 -3.089259
18  -0.113820 0.013252 0.039068  -1.570796 -1.570796 0.000000
19  0.551430 -3.435104 -4.560714  -0.000003 -0.000001 -3.089259
20  0.526535 -3.436427 5.037215  -0.000003 -0.000001 -3.089259
time 14
0  -8.496742 -6.499926 -12.608631  0.010987 1.517675 -1.570796
1  0.105330 -0.161090 -0.000086  -1.570793 -1.570451 -0.000001
2  0.626066 -0.004666 0.000002  -0.000010 -0.014904 -0.026930
3  5.859707 -0.004661 0.000001  -0.000024 -0.032665 0.031210
4  5.859975 -0.000895 -0.000000  0.000011 0.041100 0.139553
5  1.126913 0.000001 0.000000  0.022523 -0.012824 -0.270410
6  2.207104 1.729999 5.187450  1.746038 -1.570796 0.000000
7  0.817492 0.000005 0.000004  -0.000000 0.000000 -0.000000
8  1.226239 -5.313698 0.000001  0.000000 0.000000 -0.000000
9  2.226117 1.733433 -4.950248  1.746038 -1.570796 0.000000
10  -0.898442 -0.185042 0.000002  0.000000 0.000000 -0.000000
11  -1.430609 -4.904948 0.000001  0.000000 0.000000 -0.000000
12  4.222806 -2.892896 0.162014  -0.000004 -0.000001 -2.966351
13  -0.188324 -0.077081 0.169978  0.000000 -0.000000 0.000000
14  -3.545666 -0.154159 -0.000001  0.000000 0.000000 -0.000000
15  3.272835 -0.112141 5.546793  -0.000003 -0.000001 -3.089259
16  -0.113936 0.090331 0.049409  -1.570796 -1.570796 0.000000
17  3.072871 -0.199779 -5.376823  -0.000003 -0.000001 -3.089259
18  -0.113821 0.013252 0.039069  -1.570796 -1.570796 0.000000
19  0.551431 -3.435103 -4.560714  -0.000003 -0.000001 -3.089259
20  0.526536 -3.436425 5.037214  -0.000003 -0.000001 -3.089259
time 15
0  -8.496742 -6.499926 -12.872643  -0.025780 1.517675 -1.570796
1  -0.156345 -0.058111 -0.000086  -1.570791 -1.570451 0.000006
2  0.626066 -0.004667 0.000002  -0.000003 -0.002142 0.010315
3  5.859707 -0.004660 0.000001  -0.000014 -0.019962 0.047939
4  5.859974 -0.000897 0.000001  0.000022 0.059250 0.139553
5  1.126915 0.000002 -0.000001  0.026680 -0.007267 -0.354796
6  2.207102 1.730001 5.187450  1.746038 -1.570796 0.000000
7  0.817492 0.000003 0.000002  -0.000000 0.000000 -0.000000
8  1.226239 -5.313699 0.000002  0.000000 0.000000 -0.000000
9  2.226116 1.733435 -4.950247  1.746038 -1.570796 0.000000
10  -0.898441 -0.185047 0.000002  0.000000 0.000000 -0.000000
11  -1.430608 -4.904953 0.000001  0.000000 0.000000 -0.000000
12  4.222804 -2.892893 0.162014  -0.000004 -0.000001 -2.966351
13  -0.188324 -0.077081 0.169978  0.000000 -0.000000 0.000000
14  -3.545665 -0.154161 -0.000000  0.000000 0.000000 -0.000000
15  3.272836 -0.112143 5.546794  -0.000003 -0.000001 -3.089259
16  -0.113934 0.090331 0.049409  -1.570796 -1.570796 0.000000
17  3.072870 -0.199782 -5.376822  -0.000003 -0.000001 -3.089259
18  -0.113818 0.013251 0.039068  -1.570796 -1.570796 0.000000
19  0.551431 -3.435103 -4.560713  -0.000003 -0.000001 -3.089259
20  0.526536 -3.436427 5.037216  -0.000003 -0.000001 -3.089259
time 16
0  -8.496743 -6.499926 -13.114126  -0.059537 1.517675 -1.570796
1  -0.395041 0.038547 -0.000085  -1.570805 -1.570451 0.000005
2  0.626065 -0.004668 0.000003  0.000003 0.009730 0.044198
3  5.859706 -0.004661 0.000000  -0.000007 -0.008066 0.063315
4  5.859974 -0.000896 0.000000  0.000035 0.073883 0.139553
5  1.126915 0.000002 0.000001  0.030062 -0.002705 -0.422516
6  2.207105 1.729998 5.187450  1.746038 -1.570796 0.000000
7  0.817492 0.000002 0.000003  -0.000000 0.000000 -0.000000
8  1.226239 -5.313700 0.000001  0.000000 0.000000 -0.000000
9  2.226117 1.733432 -4.950248  1.746038 -1.570796 0.000000
10  -0.898441 -0.185042 0.000001  0.000000 0.000000 -0.000000
11  -1.430608 -4.904953 0.000001  0.000000 0.000000 -0.000000
12  4.222805 -2.892898 0.162013  -0.000004 -0.000001 -2.966351
13  -0.188326 -0.077081 0.169979  -0.000000 -0.000000 0.000000
14  -3.545665 -0.154159 -0.000001  0.000000 0.000000 -0.000000
15  3.272835 -0.112140 5.546793  -0.000003 -0.000001 -3.089259
16  -0.113933 0.090331 0.049409  -1.570796 -1.570796 0.000000
17  3.072869 -0.199779 -5.376824  -0.000003 -0.000001 -3.089259
18  -0.113821 0.013251 0.039069  -1.570796 -1.570796 0.000000
19  0.551430 -3.435102 -4.560714  -0.000003 -0.000001 -3.089259
20  0.526535 -3.436425 5.037215  -0.000003 -0.000001 -3.089259
time 17
0  -8.496743 -6.499927 -13.306334  -0.086439 1.517675 -1.570796
1  -0.584638 0.118267 -0.000086  -1.570782 -1.570451 0.000027
2  0.626065 -0.004667 0.000002  0.000007 0.019381 0.070718
3  5.859707 -0.004660 0.000001  -0.000002 0.001708 0.076511
4  5.859975 -0.000898 0.000000  0.000048 0.083375 0.139553
5  1.126917 0.000001 -0.000000  0.032197 0.000192 -0.464895
6  2.207103 1.730000 5.187450  1.746038 -1.570796 0.000000
7  0.817492 0.000003 0.000002  -0.000000 0.000000 -0.000000
8  1.226239 -5.313699 0.000002  0.000000 0.000000 -0.000000
9  2.226119 1.733433 -4.950247  1.746038 -1.570796 0.000000
10  -0.898441 -0.185044 0.000002  0.000000 0.000000 -0.000000
11  -1.430608 -4.904955 0.000002  0.000000 0.000000 -0.000000
12  4.222806 -2.892895 0.162014  -0.000004 -0.000001 -2.966351
13  -0.188323 -0.077083 0.169979  0.000000 -0.000000 0.000000
14  -3.545664 -0.154160 -0.000001  0.000000 0.000000 -0.000000
15  3.272835 -0.112143 5.546794  -0.000003 -0.000001 -3.089259
16  -0.113933 0.090330 0.049408  -1.570796 -1.570796 0.000000
17  3.072872 -0.199781 -5.376824  -0.000003 -0.000001 -3.089259
18  -0.113819 0.013252 0.039068  -1.570796 -1.570796 0.000000
19  0.551431 -3.435104 -4.560713  -0.000003 -0.000001 -3.089259
20  0.526537 -3.436426 5.037216  -0.000003 -0.000001 -3.089259
time 18
0  -8.496743 -6.499927 -13.436783  -0.104666 1.517675 -1.570796
1  -0.713052 0.175785 -0.000085  -1.570787 -1.570451 0.000014
2  0.626066 -0.004668 0.000002  0.000008 0.026161 0.088008
3  5.859709 -0.004659 0.000001  0.000000 0.008713 0.087216
4  5.859975 -0.000897 0.000000  0.000060 0.087212 0.139553
5  1.126915 0.000001 -0.000000  0.032909 0.001163 -0.478956
6  2.207105 1.730001 5.187449  1.746038 -1.570796 0.000000
7  0.817492 0.000005 0.000003  -0.000000 0.000000 -0.000000
8  1.226239 -5.313698 0.000004  0.000000 0.000000 -0.000000
9  2.226120 1.733435 -4.950247  1.746038 -1.570796 0.000000
10  -0.898439 -0.185046 -0.000000  0.000000 0.000000 -0.000000
11  -1.430610 -4.904950 0.000001  0.000000 0.000000 -0.000000
12  4.222806 -2.892893 0.162014  -0.000004 -0.000001 -2.966351
13  -0.188322 -0.077080 0.169979  0.000000 -0.000000 0.000000
14  -3.545666 -0.154159 -0.000001  -0.000000 0.000000 -0.000000
15  3.272835 -0.112142 5.546793  -0.000003 -0.000001 -3.089259
16  -0.113932 0.090332 0.049409  -1.570796 -1.570796 0.000000
17  3.072871 -0.199780 -5.376823  -0.000003 -0.000001 -3.089259
18  -0.113819 0.013253 0.039069  -1.570796 -1.570796 0.000000
19  0.551431 -3.435102 -4.560713  -0.000003 -0.000001 -3.089259
20  0.526537 -3.436426 5.037215  -0.000003 -0.000001 -3.089259
time 19
0  -8.496744 -6.499927 -13.522957  -0.119361 1.518798 -1.573003
1  -0.797620 0.218604 -0.000085  -1.570794 -1.570451 0.000005
2  0.626066 -0.004667 0.000002  -0.004323 0.030964 0.098969
3  5.859707 -0.004659 0.000002  -0.005038 0.013841 0.095732
4  5.859975 -0.000897 0.000001  0.000074 0.088167 0.142094
5  1.126916 0.000003 0.000000  0.029840 0.000549 -0.473983
6  2.207103 1.729999 5.187451  1.746038 -1.570796 0.000000
7  0.817492 0.000005 0.000002  -0.000000 0.000000 -0.000000
8  1.226239 -5.313694 0.000001  0.000000 0.000000 -0.000000
9  2.226117 1.733433 -4.950248  1.746038 -1.570796 0.000000
10  -0.898441 -0.185041 0.000003  0.000000 0.000000 -0.000000
11  -1.430608 -4.904950 0.000001  0.000000 0.000000 -0.000000
12  4.222803 -2.892896 0.162014  -0.000004 -0.000001 -2.966351
13  -0.188324 -0.077082 0.169979  0.000000 -0.000000 0.000000
14  -3.545664 -0.154160 -0.000001  0.000000 0.000000 -0.000000
15  3.272835 -0.112142 5.546794  -0.000003 -0.000001 -3.089259
16  -0.113932 0.090330 0.049409  -1.570796 -1.570796 0.000000
17  3.072871 -0.199780 -5.376823  -0.000003 -0.000001 -3.089259
18  -0.113817 0.013252 0.039068  -1.570796 -1.570796 0.000000
19  0.551431 -3.435104 -4.560714  -0.000003 -0.000001 -3.089259
20  0.526536 -3.436426 5.037215  -0.000003 -0.000001 -3.089259
time 20
0  -8.496744 -6.499927 -13.582502  -0.136341 1.522250 -1.580446
1  -0.855775 0.253624 -0.000086  -1.570755 -1.570451 -0.000011
2  0.626066 -0.004667 0.000001  -0.017306 0.034630 0.106570
3  5.859708 -0.004661 0.000000  -0.020165 0.017920 0.102186
4  5.859975 -0.000897 0.000000  0.000092 0.088896 0.149910
5  1.126914 0.000003 -0.000000  0.020479 -0.001389 -0.458515
6  2.207106 1.730001 5.187449  1.746038 -1.570796 0.000000
7  0.817492 0.000006 0.000004  -0.000000 0.000000 -0.000000
8  1.226239 -5.313695 0.000003  0.000000 0.000000 -0.000000
9  2.226121 1.733435 -4.950247  1.746038 -1.570796 0.000000
10  -0.898441 -0.185043 0.000004  0.000000 0.000000 -0.000000
11  -1.430609 -4.904947 0.000000  0.000000 0.000000 -0.000000
12  4.222807 -2.892894 0.162014  -0.000004 -0.000001 -2.966351
13  -0.188325 -0.077082 0.169978  0.000000 -0.000000 0.000000
14  -3.545665 -0.154160 -0.000001  0.000000 0.000000 -0.000000
15  3.272836 -0.112141 5.546793  -0.000003 -0.000001 -3.089259
16  -0.113936 0.090330 0.049409  -1.570796 -1.570796 0.000000
17  3.072873 -0.199779 -5.376822  -0.000003 -0.000001 -3.089259
18  -0.113820 0.013252 0.039069  -1.570796 -1.570796 0.000000
19  0.551431 -3.435102 -4.560712  -0.000003 -0.000001 -3.089259
20  0.526537 -3.436425 5.037215  -0.000003 -0.000001 -3.089259
time 21
0  -8.496743 -6.499927 -13.616430  -0.156656 1.527691 -1.594663
1  -0.888710 0.278537 -0.000086  -1.570824 -1.570451 0.000025
2  0.626066 -0.004667 0.000001  -0.036958 0.036972 0.110920
3  5.859706 -0.004661 0.000001  -0.043129 0.020704 0.106632
4  5.859976 -0.000898 -0.000000  0.000112 0.089362 0.162242
5  1.126914 0.000002 -0.000000  0.005905 -0.004565 -0.433677
6  2.207104 1.730002 5.187449  1.746038 -1.570796 0.000000
7  0.817492 0.000004 -0.000000  -0.000000 0.000000 -0.000000
8  1.226239 -5.313697 -0.000000  0.000000 0.000000 -0.000000
9  2.226119 1.733435 -4.950248  1.746038 -1.570796 0.000000
10  -0.898441 -0.185042 0.000002  0.000000 0.000000 -0.000000
11  -1.430609 -4.904951 -0.000001  0.000000 0.000000 -0.000000
12  4.222807 -2.892893 0.162013  -0.000004 -0.000001 -2.966351
13  -0.188325 -0.077082 0.169979  -0.000000 -0.000000 0.000000
14  -3.545668 -0.154161 -0.000001  -0.000000 0.000000 -0.000000
15  3.272834 -0.112144 5.546793  -0.000003 -0.000001 -3.089259
16  -0.113935 0.090330 0.049409  -1.570796 -1.570796 0.000000
17  3.072870 -0.199782 -5.376823  -0.000003 -0.000001 -3.089259
18  -0.113822 0.013251 0.039070  -1.570796 -1.570796 0.000000
19  0.551431 -3.435105 -4.560713  -0.000003 -0.000001 -3.089259
20  0.526536 -3.436428 5.037215  -0.000003 -0.000001 -3.089259
time 22
0  -8.496743 -6.499927 -13.633648  -0.181752 1.534054 -1.616787
1  -0.905461 0.293006 -0.000085  -1.570776 -1.570451 0.000057
2  0.626066 -0.004666 0.000004  -0.058527 0.038112 0.113124
3  5.859707 -0.004661 0.000001  -0.068454 0.022224 0.109729
4  5.859978 -0.000897 -0.000000  0.000129 0.089589 0.176700
5  1.126916 0.000004 -0.000000  -0.010837 -0.008500 -0.403793
6  2.207102 1.729999 5.187451  1.746038 -1.570796 0.000000
7  0.817492 0.000005 -0.000002  -0.000000 0.000000 -0.000000
8  1.226239 -5.313698 -0.000002  0.000000 0.000000 -0.000000
9  2.226117 1.733433 -4.950248  1.746038 -1.570796 0.000000
10  -0.898443 -0.185042 0.000001  0.000000 0.000000 -0.000000
11  -1.430608 -4.904951 -0.000001  0.000000 0.000000 -0.000000
12  4.222803 -2.892896 0.162014  -0.000004 -0.000001 -2.966351
13  -0.188325 -0.077080 0.169979  0.000000 -0.000000 0.000000
14  -3.545663 -0.154160 -0.000001  0.000000 0.000000 -0.000000
15  3.272835 -0.112141 5.546793  -0.000003 -0.000001 -3.089259
16  -0.113934 0.090331 0.049409  -1.570796 -1.570796 0.000000
17  3.072871 -0.199780 -5.376822  -0.000003 -0.000001 -3.089259
18  -0.113819 0.013251 0.039069  -1.570796 -1.570796 0.000000
19  0.551431 -3.435103 -4.560713  -0.000003 -0.000001 -3.089259
20  0.526536 -3.436427 5.037214  -0.000003 -0.000001 -3.089259
time 23
0  -8.496744 -6.499927 -13.647261  -0.212165 1.540043 -1.646254
1  -0.919138 0.299325 -0.000085  -1.570760 -1.570451 0.000017
2  0.626065 -0.004668 0.000002  -0.076779 0.038474 0.114825
3  5.859706 -0.004661 0.000001  -0.090070 0.022828 0.112477
4  5.859975 -0.000897 0.000001  0.000140 0.089660 0.190360
5  1.126915 0.000001 0.000001  -0.026157 -0.012523 -0.374455
6  2.207103 1.730000 5.187449  1.746038 -1.570796 0.000000
7  0.817492 0.000007 0.000002  -0.000000 0.000000 -0.000000
8  1.226239 -5.313697 0.000002  -0.000000 0.000000 -0.000000
9  2.226118 1.733434 -4.950248  1.746038 -1.570796 0.000000
10  -0.898441 -0.185045 0.000002  0.000000 0.000000 -0.000000
11  -1.430609 -4.904951 0.000001  0.000000 0.000000 -0.000000
12  4.222806 -2.892895 0.162013  -0.000004 -0.000001 -2.966351
13  -0.188325 -0.077081 0.169979  -0.000000 -0.000000 0.000000
14  -3.545664 -0.154159 -0.000001  -0.000000 0.000000 0.000000
15  3.272835 -0.112142 5.546794  -0.000003 -0.000001 -3.089259
16  -0.113934 0.090330 0.049409  -1.570796 -1.570796 0.000000
17  3.072870 -0.199780 -5.376823  -0.000003 -0.000001 -3.089259
18  -0.113817 0.013253 0.039068  -1.570796 -1.570796 0.000000
19  0.551431 -3.435103 -4.560713  -0.000003 -0.000001 -3.089259
20  0.526536 -3.436428 5.037215  -0.000003 -0.000001 -3.089259
time 24
0  -8.496744 -6.499927 -13.667259  -0.245976 1.544820 -1.679952
1  -0.939622 0.300789 -0.000085  -1.570842 -1.570451 0.000062
2  0.626066 -0.004667 0.000001  -0.088702 0.038517 0.117286
3  5.859708 -0.004660 0.000001  -0.104458 0.022950 0.115655
4  5.859977 -0.000898 0.000001  0.000144 0.089669 0.201322
5  1.126913 0.000003 0.000000  -0.037812 -0.016143 -0.349499
6  2.207103 1.730003 5.187451  1.746038 -1.570796 0.000000
7  0.817491 0.000004 0.000002  -0.000000 0.000000 -0.000000
8  1.226239 -5.313697 0.000001  0.000000 0.000000 -0.000000
9  2.226118 1.733434 -4.950248  1.746038 -1.570796 0.000000
10  -0.898442 -0.185042 0.000001  0.000000 0.000000 -0.000000
11  -1.430610 -4.904949 0.000001  0.000000 0.000000 -0.000000
12  4.222806 -2.892895 0.162014  -0.000004 -0.000001 -2.966351
13  -0.188325 -0.077082 0.169979  -0.000000 -0.000000 0.000000
14  -3.545665 -0.154160 -0.000001  0.000000 0.000000 0.000000
15  3.272835 -0.112144 5.546793  -0.000003 -0.000001 -3.089259
16  -0.113935 0.090332 0.049409  -1.570796 -1.570796 0.000000
17  3.072871 -0.199780 -5.376823  -0.000003 -0.000001 -3.089259
18  -0.113820 0.013250 0.039069  -1.570796 -1.570796 0.000000
19  0.551431 -3.435105 -4.560713  -0.000003 -0.000001 -3.089259
20  0.526536 -3.436427 5.037215  -0.000003 -0.000001 -3.089259
time 25
0  -8.496744 -6.499927 -13.683649  -0.295575 1.549610 -1.730318
1  -0.957964 0.300301 -0.000085  -1.570807 -1.570451 0.000004
2  0.626065 -0.004669 0.000002  -0.094449 0.038426 0.119168
3  5.859708 -0.004661 0.000002  -0.111536 0.022898 0.118777
4  5.859975 -0.000898 0.000000  0.000102 0.088441 0.212419
5  1.126915 0.000001 -0.000000  -0.047836 -0.020894 -0.320309
6  2.207102 1.729997 5.187450  1.746038 -1.570796 0.000000
7  0.817493 0.000005 0.000000  -0.000000 0.000000 -0.000000
8  1.226239 -5.313696 0.000002  -0.000000 0.000000 -0.000000
9  2.226117 1.733434 -4.950248  1.746038 -1.570796 0.000000
10  -0.898441 -0.185044 0.000000  0.000000 0.000000 -0.000000
11  -1.430608 -4.904952 0.000002  0.000000 0.000000 -0.000000
12  4.222806 -2.892895 0.162013  -0.000004 -0.000001 -2.966351
13  -0.188323 -0.077082 0.169979  0.000000 -0.000000 0.000000
14  -3.545662 -0.154160 -0.000001  0.000000 0.000000 0.000000
15  3.272836 -0.112142 5.546794  -0.000003 -0.000001 -3.089259
16  -0.113933 0.090330 0.049408  -1.570796 -1.570796 0.000000
17  3.072871 -0.199781 -5.376823  -0.000003 -0.000001 -3.089259
18  -0.113821 0.013252 0.039068  -1.570796 -1.570796 0.000000
19  0.551432 -3.435103 -4.560713  -0.000003 -0.000001 -3.089259
20  0.526537 -3.436426 5.037216  -0.000003 -0.000001 -3.089259
time 26
0  -8.496744 -6.499927 -13.690697  -0.325892 1.552011 -1.766001
1  -0.966966 0.296882 -0.000085  -1.570813 -1.570451 0.000022
2  0.626066 -0.004665 0.000002  -0.095270 0.037786 0.119851
3  5.859706 -0.004662 0.000001  -0.112547 0.022531 0.120341
4  5.859976 -0.000896 -0.000000  0.000060 0.087212 0.218052
5  1.126913 0.000002 0.000000  -0.052290 -0.023694 -0.304085
6  2.207099 1.730001 5.187450  1.746038 -1.570796 0.000000
7  0.817492 0.000008 0.000004  -0.000000 0.000000 -0.000000
8  1.226240 -5.313696 0.000001  -0.000000 0.000000 -0.000000
9  2.226115 1.733434 -4.950249  1.746038 -1.570796 0.000000
10  -0.898441 -0.185043 0.000001  0.000000 0.000000 -0.000000
11  -1.430609 -4.904953 -0.000000  0.000000 0.000000 -0.000000
12  4.222804 -2.892893 0.162013  -0.000004 -0.000001 -2.966351
13  -0.188328 -0.077082 0.169979  0.000000 -0.000000 0.000000
14  -3.545664 -0.154159 -0.000001  -0.000000 0.000000 -0.000000
15  3.272837 -0.112142 5.546793  -0.000003 -0.000001 -3.089259
16  -0.113933 0.090331 0.049409  -1.570796 -1.570796 0.000000
17  3.072870 -0.199780 -5.376824  -0.000003 -0.000001 -3.089259
18  -0.113820 0.013251 0.039068  -1.570796 -1.570796 0.000000
19  0.551431 -3.435103 -4.560714  -0.000003 -0.000001 -3.089259
20  0.526537 -3.436427 5.037215  -0.000003 -0.000001 -3.089259
time 27
0  -8.496744 -6.499927 -13.700090  -0.315341 1.552011 -1.766001
1  -0.976619 0.279297 -0.000085  -1.570783 -1.570451 0.000015
2  0.626065 -0.004667 0.000002  -0.084571 0.035752 0.120934
3  5.859705 -0.004661 0.000001  -0.100247 0.020605 0.121142
4  5.859977 -0.000898 -0.000000  0.000060 0.087212 0.218052
5  1.126917 0.000002 -0.000000  -0.047753 -0.021862 -0.306224
6  2.207106 1.730000 5.187450  1.746038 -1.570796 0.000000
7  0.817492 0.000010 0.000003  -0.000000 0.000000 -0.000000
8  1.226239 -5.313693 0.000003  0.000000 0.000000 -0.000000
9  2.226120 1.733433 -4.950248  1.746038 -1.570796 0.000000
10  -0.898443 -0.185044 0.000002  0.000000 0.000000 -0.000000
11  -1.430610 -4.904952 0.000000  0.000000 0.000000 -0.000000
12  4.222806 -2.892896 0.162014  -0.000004 -0.000001 -2.966351
13  -0.188322 -0.077081 0.169979  -0.000000 -0.000000 -0.000000
14  -3.545665 -0.154160 -0.000001  0.000000 0.000000 -0.000000
15  3.272836 -0.112144 5.546793  -0.000003 -0.000001 -3.089259
16  -0.113936 0.090330 0.049409  -1.570796 -1.570796 0.000000
17  3.072872 -0.199781 -5.376824  -0.000003 -0.000001 -3.089259
18  -0.113818 0.013251 0.039069  -1.570796 -1.570796 0.000000
19  0.551431 -3.435104 -4.560714  -0.000003 -0.000001 -3.089259
20  0.526537 -3.436428 5.037215  -0.000003 -0.000001 -3.089259
time 28
0  -8.496743 -6.499927 -13.709610  -0.299708 1.552011 -1.766001
1  -0.985613 0.237896 -0.000086  -1.570768 -1.570451 0.000009
2  0.626066 -0.004668 0.000003  -0.053432 0.031663 0.122064
3  5.859708 -0.004661 0.000002  -0.064451 0.016050 0.121754
4  5.859976 -0.000897 0.000000  0.000060 0.087212 0.218052
5  1.126915 0.000001 0.000000  -0.034547 -0.016529 -0.312450
6  2.207103 1.729999 5.187449  1.746038 -1.570796 0.000000
7  0.817492 0.000009 0.000002  -0.000000 0.000000 -0.000000
8  1.226239 -5.313697 -0.000001  -0.000000 0.000000 -0.000000
9  2.226117 1.733432 -4.950249  1.746038 -1.570796 0.000000
10  -0.898441 -0.185042 0.000002  0.000000 0.000000 -0.000000
11  -1.430610 -4.904951 0.000000  0.000000 0.000000 -0.000000
12  4.222804 -2.892896 0.162013  -0.000004 -0.000001 -2.966351
13  -0.188325 -0.077080 0.169979  0.000000 -0.000000 0.000000
14  -3.545664 -0.154158 -0.000000  -0.000000 0.000000 -0.000000
15  3.272836 -0.112143 5.546794  -0.000003 -0.000001 -3.089259
16  -0.113933 0.090333 0.049409  -1.570796 -1.570796 0.000000
17  3.072871 -0.199781 -5.376824  -0.000003 -0.000001 -3.089259
18  -0.113821 0.013252 0.039069  -1.570796 -1.570796 0.000000
19  0.551431 -3.435103 -4.560714  -0.000003 -0.000001 -3.089259
20  0.526536 -3.436428 5.037215  -0.000003 -0.000001 -3.089259
time 29
0  -8.496743 -6.499927 -13.718235  -0.280862 1.552011 -1.766001
1  -0.993125 0.181157 -0.000085  -1.570805 -1.570451 0.000020
2  0.626065 -0.004667 0.000001  -0.008669 0.026304 0.123114
3  5.859708 -0.004659 0.000001  -0.012991 0.009800 0.122144
4  5.859976 -0.000898 0.000001  0.000060 0.087212 0.218052
5  1.126915 0.000001 -0.000000  -0.015563 -0.008863 -0.321401
6  2.207104 1.730001 5.187450  1.746038 -1.570796 0.000000
7  0.817492 0.000006 0.000003  -0.000000 0.000000 -0.000000
8  1.226239 -5.313696 0.000000  0.000000 0.000000 -0.000000
9  2.226118 1.733433 -4.950247  1.746038 -1.570796 0.000000
10  -0.898441 -0.185044 -0.000001  0.000000 0.000000 -0.000000
11  -1.430609 -4.904954 -0.000000  0.000000 0.000000 -0.000000
12  4.222804 -2.892895 0.162014  -0.000004 -0.000001 -2.966351
13  -0.188325 -0.077081 0.169979  -0.000000 -0.000000 0.000000
14  -3.545664 -0.154158 -0.000001  -0.000000 0.000000 -0.000000
15  3.272836 -0.112142 5.546793  -0.000003 -0.000001 -3.089259
16  -0.113931 0.090331 0.049409  -1.570796 -1.570796 0.000000
17  3.072869 -0.199781 -5.376823  -0.000003 -0.000001 -3.089259
18  -0.113820 0.013252 0.039069  -1.570796 -1.570796 0.000000
19  0.551431 -3.435103 -4.560712  -0.000003 -0.000001 -3.089259
20  0.526536 -3.436427 5.037216  -0.000003 -0.000001 -3.089259
time 30
0  -8.496743 -6.499927 -13.724783  -0.262387 1.552011 -1.766001
1  -0.998409 0.125557 -0.000085  -1.570806 -1.570451 0.000030
2  0.626066 -0.004667 0.000002  0.036095 0.021158 0.123929
3  5.859706 -0.004660 0.000002  0.038469 0.003672 0.122335
4  5.859975 -0.000898 0.000000  0.000060 0.087212 0.218052
5  1.126918 0.000001 0.000000  0.003421 -0.001197 -0.330351
6  2.207102 1.729999 5.187451  1.746038 -1.570796 0.000000
7  0.817492 0.000005 0.000001  -0.000000 0.000000 -0.000000
8  1.226239 -5.313698 0.000003  -0.000000 0.000000 -0.000000
9  2.226118 1.733435 -4.950246  1.746038 -1.570796 0.000000
10  -0.898441 -0.185047 0.000001  0.000000 0.000000 -0.000000
11  -1.430610 -4.904952 0.000002  0.000000 0.000000 -0.000000
12  4.222803 -2.892896 0.162015  -0.000004 -0.000001 -2.966351
13  -0.188325 -0.077083 0.169979  -0.000000 -0.000000 0.000000
14  -3.545665 -0.154159 -0.000001  -0.000000 0.000000 -0.000000
15  3.272836 -0.112143 5.546794  -0.000003 -0.000001 -3.089259
16  -0.113934 0.090332 0.049409  -1.570796 -1.570796 0.000000
17  3.072872 -0.199781 -5.376823  -0.000003 -0.000001 -3.089259
18  -0.113818 0.013253 0.039069  -1.570796 -1.570796 0.000000
19  0.551430 -3.435104 -4.560713  -0.000003 -0.000001 -3.089259
20  0.526535 -3.436428 5.037215  -0.000003 -0.000001 -3.089259
time 31
0  -8.496744 -6.499927 -13.728592  -0.247776 1.552011 -1.766001
1  -1.001286 0.087291 -0.000086  -1.570799 -1.570451 0.000020
2  0.626066 -0.004668 0.000002  0.067233 0.017655 0.124411
3  5.859707 -0.004659 0.000001  0.074266 -0.000548 0.122395
4  5.859973 -0.000897 0.000001  0.000060 0.087212 0.218052
5  1.126914 0.000002 -0.000000  0.016627 0.004136 -0.336577
6  2.207102 1.729999 5.187451  1.746038 -1.570796 0.000000
7  0.817492 0.000004 0.000002  -0.000000 0.000000 -0.000000
8  1.226239 -5.313700 -0.000001  0.000000 0.000000 -0.000000
9  2.226116 1.733432 -4.950247  1.746038 -1.570796 0.000000
10  -0.898441 -0.185043 -0.000001  0.000000 0.000000 -0.000000
11  -1.430609 -4.904949 -0.000001  0.000000 0.000000 -0.000000
12  4.222804 -2.892897 0.162014  -0.000004 -0.000001 -2.966351
13  -0.188324 -0.077082 0.169979  0.000000 -0.000000 0.000000
14  -3.545664 -0.154161 0.000001  0.000000 0.000000 0.000000
15  3.272834 -0.112142 5.546793  -0.000003 -0.000001 -3.089259
16  -0.113934 0.090331 0.049409  -1.570796 -1.570796 0.000000
17  3.072870 -0.199782 -5.376823  -0.000003 -0.000001 -3.089259
18  -0.113821 0.013252 0.039070  -1.570796 -1.570796 0.000000
19  0.551430 -3.435103 -4.560712  -0.000003 -0.000001 -3.089259
20  0.526535 -3.436427 5.037215  -0.000003 -0.000001 -3.089259
time 32
0  -8.496743 -6.499927 -13.729761  -0.238697 1.552011 -1.766001
1  -1.002123 0.074219 -0.000085  -1.570787 -1.570451 0.000006
2  0.626065 -0.004668 0.000003  0.077932 0.016466 0.124561
3  5.859707 -0.004662 -0.000000  0.086565 -0.001989 0.122402
4  5.859974 -0.000897 -0.000001  0.000060 0.087212 0.218052
5  1.126915 0.000002 0.000000  0.021164 0.005968 -0.338716
6  2.207105 1.729999 5.187451  1.746038 -1.570796 0.000000
7  0.817492 0.000004 0.000004  -0.000000 0.000000 -0.000000
8  1.226239 -5.313695 -0.000000  -0.000000 0.000000 -0.000000
9  2.226119 1.733436 -4.950247  1.746038 -1.570796 0.000000
10  -0.898442 -0.185045 0.000001  0.000000 0.000000 -0.000000
11  -1.430609 -4.904953 0.000003  0.000000 0.000000 -0.000000
12  4.222805 -2.892895 0.162015  -0.000004 -0.000001 -2.966351
13  -0.188326 -0.077082 0.169977  -0.000000 -0.000000 0.000000
14  -3.545664 -0.154162 0.000000  0.000000 0.000000 0.000000
15  3.272834 -0.112143 5.546792  -0.000003 -0.000001 -3.089259
16  -0.113935 0.090331 0.049408  -1.570796 -1.570796 0.000000
17  3.072870 -0.199781 -5.376824  -0.000003 -0.000001 -3.089259
18  -0.113818 0.013251 0.039068  -1.570796 -1.570796 0.000000
19  0.551430 -3.435104 -4.560714  -0.000003 -0.000001 -3.089259
20  0.526536 -3.436428 5.037214  -0.000003 -0.000001 -3.089259
time 33
0  -8.496742 -6.499927 -13.727589  -0.233357 1.552110 -1.766044
1  -0.999951 0.087492 -0.000086  -1.570794 -1.570451 0.000019
2  0.626066 -0.004668 0.000001  0.067233 0.017783 0.124270
3  5.859706 -0.004660 0.000002  0.076940 -0.000801 0.122328
4  5.859977 -0.000897 0.000000  0.000060 0.087212 0.218052
5  1.126917 0.000002 -0.000000  0.017713 0.004235 -0.336760
6  2.207103 1.730000 5.187451  1.746038 -1.570796 0.000000
7  0.817492 0.000005 0.000003  -0.000000 0.000000 -0.000000
8  1.226239 -5.313698 -0.000001  -0.000000 0.000000 -0.000000
9  2.226116 1.733435 -4.950245  1.746038 -1.570796 0.000000
10  -0.898442 -0.185043 0.000002  0.000000 0.000000 -0.000000
11  -1.430609 -4.904949 0.000002  0.000000 0.000000 -0.000000
12  4.222802 -2.892894 0.162015  -0.000004 -0.000001 -2.966351
13  -0.188325 -0.077080 0.169980  -0.000000 -0.000000 0.000000
14  -3.545664 -0.154159 -0.000001  -0.000000 0.000000 0.000000
15  3.272836 -0.112143 5.546793  -0.000003 -0.000001 -3.089259
16  -0.113931 0.090331 0.049409  -1.570796 -1.570796 0.000000
17  3.072870 -0.199781 -5.376823  -0.000003 -0.000001 -3.089259
18  -0.113821 0.013252 0.039069  -1.570796 -1.570796 0.000000
19  0.551431 -3.435103 -4.560714  -0.000003 -0.000001 -3.089259
20  0.526536 -3.436427 5.037215  -0.000003 -0.000001 -3.089259
time 34
0  -8.496744 -6.499927 -13.721268  -0.229892 1.552418 -1.766175
1  -0.993631 0.126120 -0.000085  -1.570796 -1.570451 -0.000007
2  0.626065 -0.004669 0.000003  0.036095 0.021616 0.123423
3  5.859708 -0.004661 0.000002  0.048928 0.002657 0.122113
4  5.859976 -0.000895 0.000000  0.000060 0.087212 0.218052
5  1.126917 0.000001 0.000001  0.007671 -0.000809 -0.331067
6  2.207105 1.730001 5.187452  1.746038 -1.570796 0.000000
7  0.817492 0.000008 0.000002  -0.000000 0.000000 -0.000000
8  1.226239 -5.313699 0.000002  0.000000 0.000000 -0.000000
9  2.226120 1.733435 -4.950247  1.746038 -1.570796 0.000000
10  -0.898443 -0.185044 0.000001  0.000000 0.000000 -0.000000
11  -1.430610 -4.904951 0.000001  0.000000 0.000000 -0.000000
12  4.222805 -2.892895 0.162015  -0.000004 -0.000001 -2.966351
13  -0.188324 -0.077081 0.169978  0.000000 -0.000000 0.000000
14  -3.545663 -0.154160 -0.000000  -0.000000 0.000000 -0.000000
15  3.272837 -0.112142 5.546794  -0.000003 -0.000001 -3.089259
16  -0.113932 0.090331 0.049409  -1.570796 -1.570796 0.000000
17  3.072873 -0.199780 -5.376824  -0.000003 -0.000001 -3.089259
18  -0.113820 0.013252 0.039071  -1.570796 -1.570796 0.000000
19  0.551432 -3.435102 -4.560713  -0.000003 -0.000001 -3.089259
20  0.526538 -3.436426 5.037216  -0.000003 -0.000001 -3.089259
time 35
0  -8.496743 -6.499927 -13.712181  -0.228134 1.552912 -1.766376
1  -0.984545 0.181647 -0.000085  -1.570790 -1.570451 -0.000013
2  0.626065 -0.004665 0.000003  -0.008669 0.027126 0.122206
3  5.859707 -0.004662 0.000000  0.008659 0.007629 0.121803
4  5.859974 -0.000897 0.000002  0.000060 0.087212 0.218052
5  1.126916 0.000001 -0.000000  -0.006766 -0.008060 -0.322884
6  2.207103 1.730002 5.187450  1.746038 -1.570796 0.000000
7  0.817492 0.000005 0.000003  -0.000000 0.000000 -0.000000
8  1.226238 -5.313698 0.000003  -0.000000 0.000000 -0.000000
9  2.226119 1.733435 -4.950248  1.746038 -1.570796 0.000000
10  -0.898441 -0.185044 0.000003  -0.000000 0.000000 -0.000000
11  -1.430609 -4.904949 0.000002  -0.000000 0.000000 -0.000000
12  4.222805 -2.892893 0.162014  -0.000004 -0.000001 -2.966351
13  -0.188323 -0.077081 0.169980  0.000000 -0.000000 0.000000
14  -3.545662 -0.154161 -0.000001  0.000000 0.000000 0.000000
15  3.272834 -0.112143 5.546794  -0.000003 -0.000001 -3.089259
16  -0.113935 0.090332 0.049409  -1.570796 -1.570796 0.000000
17  3.072870 -0.199781 -5.376822  -0.000003 -0.000001 -3.089259
18  -0.113819 0.013254 0.039069  -1.570796 -1.570796 0.000000
19  0.551429 -3.435103 -4.560713  -0.000003 -0.000001 -3.089259
20  0.526536 -3.436427 5.037216  -0.000003 -0.000001 -3.089259
time 36
0  -8.496743 -6.499927 -13.703094  -0.227348 1.553507 -1.766603
1  -0.975460 0.237172 -0.000085  -1.570795 -1.570451 -0.000002
2  0.626065 -0.004667 0.000002  -0.053432 0.032636 0.120989
3  5.859708 -0.004661 0.000001  -0.031610 0.012600 0.121493
4  5.859975 -0.000897 0.000000  0.000060 0.087212 0.218052
5  1.126915 0.000003 0.000001  -0.021203 -0.015311 -0.314700
6  2.207103 1.730001 5.187450  1.746038 -1.570796 0.000000
7  0.817492 0.000006 0.000003  -0.000000 0.000000 -0.000000
8  1.226239 -5.313695 -0.000001  0.000000 0.000000 -0.000000
9  2.226117 1.733435 -4.950246  1.746038 -1.570796 0.000000
10  -0.898441 -0.185045 0.000001  0.000000 0.000000 -0.000000
11  -1.430609 -4.904955 -0.000001  0.000000 0.000000 -0.000000
12  4.222805 -2.892894 0.162015  -0.000004 -0.000001 -2.966351
13  -0.188324 -0.077080 0.169979  -0.000000 -0.000000 0.000000
14  -3.545664 -0.154161 -0.000001  -0.000000 0.000000 0.000000
15  3.272834 -0.112142 5.546794  -0.000003 -0.000001 -3.089259
16  -0.113932 0.090331 0.049409  -1.570796 -1.570796 0.000000
17  3.072871 -0.199782 -5.376824  -0.000003 -0.000001 -3.089259
18  -0.113819 0.013251 0.039068  -1.570796 -1.570796 0.000000
19  0.551430 -3.435103 -4.560713  -0.000003 -0.000001 -3.089259
20  0.526536 -3.436428 5.037216  -0.000003 -0.000001 -3.089259
time 37
0  -8.496743 -6.499927 -13.696774  -0.226546 1.554091 -1.766795
1  -0.969138 0.275797 -0.000085  -1.570796 -1.570451 -0.000006
2  0.626066 -0.004667 0.000003  -0.084571 0.036469 0.120142
3  5.859705 -0.004661 0.000001  -0.059622 0.016058 0.121278
4  5.859975 -0.000896 -0.000001  0.000060 0.087212 0.218052
5  1.126916 0.000001 -0.000000  -0.031245 -0.020355 -0.309007
6  2.207106 1.730001 5.187451  1.746038 -1.570796 0.000000
7  0.817492 0.000006 0.000003  -0.000000 0.000000 -0.000000
8  1.226239 -5.313697 0.000002  0.000000 0.000000 -0.000000
9  2.226121 1.733433 -4.950245  1.746038 -1.570796 0.000000
10  -0.898442 -0.185047 -0.000000  0.000000 0.000000 -0.000000
11  -1.430607 -4.904950 -0.000001  0.000000 0.000000 -0.000000
12  4.222806 -2.892895 0.162015  -0.000004 -0.000001 -2.966351
13  -0.188323 -0.077081 0.169979  -0.000000 -0.000000 0.000000
14  -3.545666 -0.154161 -0.000003  0.000000 0.000000 0.000000
15  3.272834 -0.112142 5.546793  -0.000003 -0.000001 -3.089259
16  -0.113931 0.090331 0.049409  -1.570796 -1.570796 0.000000
17  3.072870 -0.199780 -5.376823  -0.000003 -0.000001 -3.089259
18  -0.113819 0.013251 0.039069  -1.570796 -1.570796 0.000000
19  0.551430 -3.435103 -4.560715  -0.000003 -0.000001 -3.089259
20  0.526536 -3.436426 5.037215  -0.000003 -0.000001 -3.089259
time 38
0  -8.496744 -6.499927 -13.694603  -0.225029 1.554588 -1.766912
1  -0.966967 0.289069 -0.000085  -1.570797 -1.570451 0.000000
2  0.626065 -0.004667 0.000002  -0.095270 0.037786 0.119851
3  5.859709 -0.004661 0.000000  -0.069247 0.017246 0.121204
4  5.859974 -0.000897 0.000001  0.000060 0.087212 0.218052
5  1.126917 0.000001 -0.000000  -0.034696 -0.022088 -0.307051
6  2.207105 1.730000 5.187451  1.746038 -1.570796 0.000000
7  0.817492 0.000008 0.000000  -0.000000 0.000000 -0.000000
8  1.226239 -5.313701 0.000000  -0.000000 0.000000 -0.000000
9  2.226121 1.733432 -4.950247  1.746038 -1.570796 0.000000
10  -0.898442 -0.185045 0.000001  0.000000 0.000000 -0.000000
11  -1.430607 -4.904948 0.000002  0.000000 0.000000 -0.000000
12  4.222806 -2.892896 0.162014  -0.000004 -0.000001 -2.966351
13  -0.188325 -0.077082 0.169979  -0.000000 -0.000000 0.000000
14  -3.545665 -0.154161 0.000000  -0.000000 0.000000 -0.000000
15  3.272835 -0.112142 5.546793  -0.000003 -0.000001 -3.089259
16  -0.113933 0.090331 0.049409  -1.570796 -1.570796 0.000000
17  3.072870 -0.199780 -5.376824  -0.000003 -0.000001 -3.089259
18  -0.113821 0.013251 0.039069  -1.570796 -1.570796 0.000000
19  0.551430 -3.435102 -4.560714  -0.000003 -0.000001 -3.089259
20  0.526536 -3.436425 5.037215  -0.000003 -0.000001 -3.089259
time 39
0  -8.496743 -6.499927 -13.700005  -0.223052 1.555047 -1.766952
1  -0.972368 0.254498 -0.000085  -1.570797 -1.570451 -0.000001
2  0.626066 -0.004667 0.000003  -0.066533 0.034238 0.120572
3  5.859707 -0.004661 0.000001  -0.046504 0.014439 0.121366
4  5.859974 -0.000898 0.000000  0.000060 0.087212 0.218052
5  1.126915 0.000003 0.000001  -0.025684 -0.017623 -0.312182
6  2.207105 1.730001 5.187450  1.746038 -1.570796 0.000000
7  0.817492 0.000006 0.000003  -0.000000 0.000000 -0.000000
8  1.226239 -5.313698 -0.000000  0.000000 0.000000 -0.000000
9  2.226120 1.733433 -4.950248  1.746038 -1.570796 0.000000
10  -0.898442 -0.185047 0.000003  0.000000 0.000000 -0.000000
11  -1.430609 -4.904946 0.000002  0.000000 0.000000 -0.000000
12  4.222805 -2.892895 0.162013  -0.000004 -0.000001 -2.966351
13  -0.188325 -0.077078 0.169980  -0.000000 -0.000000 -0.000000
14  -3.545666 -0.154159 -0.000000  -0.000000 0.000000 -0.000000
15  3.272834 -0.112142 5.546793  -0.000003 -0.000001 -3.089259
16  -0.113931 0.090330 0.049409  -1.570796 -1.570796 0.000000
17  3.072870 -0.199780 -5.376824  -0.000003 -0.000001 -3.089259
18  -0.113819 0.013252 0.039069  -1.570796 -1.570796 0.000000
19  0.551430 -3.435102 -4.560714  -0.000003 -0.000001 -3.089259
20  0.526536 -3.436426 5.037214  -0.000003 -0.000001 -3.089259
time 40
0  -8.496743 -6.499927 -13.714134  -0.221178 1.555526 -1.766923
1  -0.986496 0.164067 -0.000085  -1.570795 -1.570451 0.000003
2  0.626066 -0.004670 0.000003  0.008637 0.024956 0.122457
3  5.859706 -0.004662 0.000002  0.012986 0.007095 0.121791
4  5.859977 -0.000897 0.000001  0.000060 0.087212 0.218052
5  1.126919 0.000002 -0.000001  -0.002110 -0.005944 -0.325603
6  2.207105 1.730000 5.187451  1.746038 -1.570796 0.000000
7  0.817492 0.000008 0.000002  -0.000000 0.000000 -0.000000
8  1.226239 -5.313697 0.000001  -0.000000 0.000000 -0.000000
9  2.226118 1.733433 -4.950247  1.746038 -1.570796 0.000000
10  -0.898439 -0.185045 -0.000000  0.000000 0.000000 -0.000000
11  -1.430608 -4.904950 0.000003  0.000000 0.000000 -0.000000
12  4.222805 -2.892896 0.162015  -0.000004 -0.000001 -2.966351
13  -0.188321 -0.077082 0.169980  -0.000000 -0.000000 -0.000000
14  -3.545664 -0.154159 -0.000002  -0.000000 0.000000 -0.000000
15  3.272835 -0.112141 5.546793  -0.000003 -0.000001 -3.089259
16  -0.113932 0.090331 0.049408  -1.570796 -1.570796 0.000000
17  3.072871 -0.199780 -5.376822  -0.000003 -0.000001 -3.089259
18  -0.113821 0.013253 0.039069  -1.570796 -1.570796 0.000000
19  0.551431 -3.435103 -4.560713  -0.000003 -0.000001 -3.089259
20  0.526536 -3.436426 5.037215  -0.000003 -0.000001 -3.089259
time 41
0  -8.496742 -6.499927 -13.728264  -0.219516 1.555987 -1.766845
1  -1.000628 0.073636 -0.000085  -1.570797 -1.570451 0.000001
2  0.626065 -0.004668 0.000003  0.083806 0.015675 0.124343
3  5.859708 -0.004661 0.000001  0.072475 -0.000248 0.122216
4  5.859976 -0.000896 -0.000000  0.000060 0.087212 0.218052
5  1.126916 0.000002 0.000001  0.021464 0.005734 -0.339024
6  2.207103 1.730000 5.187451  1.746038 -1.570796 0.000000
7  0.817492 0.000007 0.000002  -0.000000 0.000000 -0.000000
8  1.226239 -5.313700 0.000001  0.000000 0.000000 -0.000000
9  2.226119 1.733434 -4.950247  1.746038 -1.570796 0.000000
10  -0.898442 -0.185044 0.000001  0.000000 0.000000 -0.000000
11  -1.430608 -4.904953 0.000000  0.000000 0.000000 -0.000000
12  4.222805 -2.892895 0.162014  -0.000004 -0.000001 -2.966351
13  -0.188324 -0.077082 0.169979  0.000000 -0.000000 0.000000
14  -3.545666 -0.154160 -0.000002  -0.000000 0.000000 0.000000
15  3.272835 -0.112141 5.546793  -0.000003 -0.000001 -3.089259
16  -0.113934 0.090332 0.049409  -1.570796 -1.570796 0.000000
17  3.072870 -0.199780 -5.376824  -0.000003 -0.000001 -3.089259
18  -0.113819 0.013251 0.039069  -1.570796 -1.570796 0.000000
19  0.551431 -3.435102 -4.560714  -0.000003 -0.000001 -3.089259
20  0.526536 -3.436426 5.037214  -0.000003 -0.000001 -3.089259
time 42
0  -8.496742 -6.499927 -13.733665  -0.218073 1.556398 -1.766768
1  -1.006029 0.039064 -0.000086  -1.570800 -1.570451 -0.000007
2  0.626065 -0.004666 0.000003  0.112543 0.012127 0.125064
3  5.859708 -0.004660 0.000002  0.095218 -0.003056 0.122378
4  5.859976 -0.000895 -0.000001  0.000060 0.087212 0.218052
5  1.126918 0.000001 -0.000000  0.030476 0.010199 -0.344155
6  2.207104 1.729999 5.187450  1.746038 -1.570796 0.000000
7  0.817492 0.000005 0.000001  -0.000000 0.000000 -0.000000
8  1.226238 -5.313698 0.000002  -0.000000 0.000000 -0.000000
9  2.226119 1.733434 -4.950248  1.746038 -1.570796 0.000000
10  -0.898440 -0.185044 0.000001  -0.000000 0.000000 -0.000000
11  -1.430610 -4.904945 0.000003  -0.000000 0.000000 -0.000000
12  4.222805 -2.892896 0.162013  -0.000004 -0.000001 -2.966351
13  -0.188321 -0.077082 0.169981  0.000000 -0.000000 0.000000
14  -3.545663 -0.154162 -0.000002  0.000000 0.000000 0.000000
15  3.272837 -0.112142 5.546792  -0.000003 -0.000001 -3.089259
16  -0.113933 0.090332 0.049409  -1.570796 -1.570796 0.000000
17  3.072872 -0.199780 -5.376823  -0.000003 -0.000001 -3.089259
18  -0.113819 0.013252 0.039069  -1.570796 -1.570796 0.000000
19  0.551433 -3.435102 -4.560714  -0.000003 -0.000001 -3.089259
20  0.526538 -3.436426 5.037214  -0.000003 -0.000001 -3.089259
time 43
0  -8.496743 -6.499927 -13.722343  -0.216866 1.556759 -1.766691
1  -0.994704 0.106059 -0.000085  -1.570788 -1.570451 0.000003
2  0.626066 -0.004667 0.000002  0.053973 0.019327 0.123472
3  5.859707 -0.004660 0.000000  0.061764 0.001078 0.122261
4  5.859975 -0.000896 -0.000000  0.000060 0.087212 0.218052
5  1.126915 0.000002 0.000001  0.025695 0.001285 -0.334928
6  2.207104 1.729999 5.187450  1.746038 -1.570796 0.000000
7  0.817492 0.000010 0.000003  -0.000000 0.000000 -0.000000
8  1.226239 -5.313696 0.000000  0.000000 0.000000 -0.000000
9  2.226118 1.733436 -4.950247  1.746038 -1.570796 0.000000
10  -0.898443 -0.185045 0.000003  0.000000 0.000000 -0.000000
11  -1.430610 -4.904949 0.000003  0.000000 0.000000 -0.000000
12  4.222804 -2.892895 0.162013  -0.000004 -0.000001 -2.966351
13  -0.188322 -0.077083 0.169979  0.000000 -0.000000 0.000000
14  -3.545665 -0.154160 0.000000  0.000000 0.000000 0.000000
15  3.272834 -0.112142 5.546793  -0.000003 -0.000001 -3.089259
16  -0.113935 0.090331 0.049409  -1.570796 -1.570796 0.000000
17  3.072869 -0.199780 -5.376822  -0.000003 -0.000001 -3.089259
18  -0.113820 0.013252 0.039069  -1.570796 -1.570796 0.000000
19  0.551430 -3.435104 -4.560713  -0.000003 -0.000001 -3.089259
20  0.526536 -3.436427 5.037215  -0.000003 -0.000001 -3.089259
time 44
0  -8.496743 -6.499927 -13.698112  -0.215959 1.557066 -1.766590
1  -0.970477 0.249420 -0.000086  -1.570796 -1.570451 -0.000007
2  0.626065 -0.004667 0.000002  -0.071359 0.034733 0.120065
3  5.859706 -0.004662 0.000002  -0.009822 0.009924 0.121941
4  5.859976 -0.000898 0.000001  0.000060 0.087212 0.218052
5  1.126914 0.000002 -0.000000  0.014899 -0.017788 -0.315185
6  2.207104 1.730001 5.187450  1.746038 -1.570796 0.000000
7  0.817492 0.000002 0.000001  -0.000000 0.000000 -0.000000
8  1.226239 -5.313699 -0.000001  0.000000 0.000000 -0.000000
9  2.226120 1.733435 -4.950247  1.746038 -1.570796 0.000000
10  -0.898442 -0.185043 0.000001  0.000000 0.000000 -0.000000
11  -1.430611 -4.904953 -0.000001  0.000000 0.000000 -0.000000
12  4.222806 -2.892894 0.162013  -0.000004 -0.000001 -2.966351
13  -0.188324 -0.077080 0.169979  -0.000000 -0.000000 0.000000
14  -3.545667 -0.154160 -0.000001  -0.000000 0.000000 -0.000000
15  3.272836 -0.112142 5.546794  -0.000003 -0.000001 -3.089259
16  -0.113933 0.090330 0.049409  -1.570796 -1.570796 0.000000
17  3.072871 -0.199781 -5.376822  -0.000003 -0.000001 -3.089259
18  -0.113821 0.013251 0.039070  -1.570796 -1.570796 0.000000
19  0.551432 -3.435103 -4.560712  -0.000003 -0.000001 -3.089259
20  0.526536 -3.436427 5.037216  -0.000003 -0.000001 -3.089259
time 45
0  -8.496742 -6.499927 -13.686790  -0.215162 1.557344 -1.766481
1  -0.959153 0.316417 -0.000085  -1.570799 -1.570451 -0.000003
2  0.626065 -0.004666 0.000003  -0.129929 0.041933 0.118473
3  5.859707 -0.004659 0.000000  -0.043276 0.014058 0.121611
4  5.859975 -0.000899 0.000000  0.000060 0.087212 0.218052
5  1.126916 0.000001 -0.000000  0.008376 -0.026702 -0.305958
6  2.207107 1.729999 5.187450  1.746038 -1.570796 0.000000
7  0.817491 0.000003 0.000003  -0.000000 0.000000 -0.000000
8  1.226239 -5.313700 0.000002  -0.000000 0.000000 -0.000000
9  2.226120 1.733432 -4.950247  1.746038 -1.570796 0.000000
10  -0.898442 -0.185045 0.000001  0.000000 0.000000 -0.000000
11  -1.430607 -4.904952 0.000004  0.000000 0.000000 -0.000000
12  4.222806 -2.892897 0.162014  -0.000004 -0.000001 -2.966351
13  -0.188324 -0.077080 0.169978  -0.000000 -0.000000 0.000000
14  -3.545667 -0.154159 -0.000001  -0.000000 0.000000 0.000000
15  3.272836 -0.112142 5.546793  -0.000003 -0.000001 -3.089259
16  -0.113931 0.090330 0.049409  -1.570796 -1.570796 0.000000
17  3.072871 -0.199780 -5.376822  -0.000003 -0.000001 -3.089259
18  -0.113819 0.013253 0.039068  -1.570796 -1.570796 0.000000
19  0.551432 -3.435103 -4.560713  -0.000003 -0.000001 -3.089259
20  0.526538 -3.436428 5.037215  -0.000003 -0.000001 -3.089259
time 46
0  -8.496743 -6.499927 -13.690851  -0.214496 1.557553 -1.766402
1  -0.963137 0.275361 -0.000084  -1.570793 -1.570451 -0.000006
2  0.626066 -0.004666 0.000002  -0.098792 0.038111 0.119185
3  5.859705 -0.004661 0.000001  -0.002575 0.009040 0.121264
4  5.859975 -0.000897 0.000001  0.000060 0.087212 0.218052
5  1.126913 0.000001 0.000001  0.006419 -0.022042 -0.313057
6  2.207101 1.730001 5.187450  1.746038 -1.570796 0.000000
7  0.817492 0.000006 0.000003  -0.000000 0.000000 -0.000000
8  1.226239 -5.313697 0.000002  0.000000 0.000000 -0.000000
9  2.226116 1.733431 -4.950249  1.746038 -1.570796 0.000000
10  -0.898441 -0.185044 0.000003  0.000000 0.000000 -0.000000
11  -1.430609 -4.904949 0.000003  -0.000000 0.000000 -0.000000
12  4.222803 -2.892895 0.162013  -0.000004 -0.000001 -2.966351
13  -0.188323 -0.077082 0.169980  -0.000000 -0.000000 0.000000
14  -3.545664 -0.154160 -0.000001  0.000000 0.000000 0.000000
15  3.272834 -0.112142 5.546793  -0.000003 -0.000001 -3.089259
16  -0.113934 0.090330 0.049409  -1.570796 -1.570796 0.000000
17  3.072870 -0.199780 -5.376824  -0.000003 -0.000001 -3.089259
18  -0.113819 0.013252 0.039069  -1.570796 -1.570796 0.000000
19  0.551432 -3.435103 -4.560714  -0.000003 -0.000001 -3.089259
20  0.526536 -3.436427 5.037216  -0.000003 -0.000001 -3.089259
time 47
0  -8.496742 -6.499927 -13.702318  -0.214036 1.557682 -1.766349
1  -0.974451 0.167973 -0.000085  -1.570788 -1.570451 -0.000008
2  0.626065 -0.004667 0.000002  -0.017345 0.028115 0.121153
3  5.859708 -0.004662 0.000001  0.103888 -0.004086 0.120843
4  5.859975 -0.000896 -0.000001  0.000060 0.087212 0.218052
5  1.126916 0.000002 0.000001  0.005262 -0.009851 -0.331625
6  2.207104 1.730000 5.187451  1.746038 -1.570796 0.000000
7  0.817492 0.000002 0.000004  -0.000000 0.000000 -0.000000
8  1.226239 -5.313699 -0.000000  0.000000 0.000000 -0.000000
9  2.226117 1.733434 -4.950247  1.746038 -1.570796 0.000000
10  -0.898443 -0.185044 0.000001  0.000000 0.000000 -0.000000
11  -1.430611 -4.904952 0.000004  -0.000000 0.000000 -0.000000
12  4.222804 -2.892894 0.162014  -0.000004 -0.000001 -2.966351
13  -0.188324 -0.077081 0.169978  -0.000000 -0.000000 0.000000
14  -3.545662 -0.154160 -0.000002  -0.000000 0.000000 -0.000000
15  3.272834 -0.112141 5.546793  -0.000003 -0.000001 -3.089259
16  -0.113932 0.090331 0.049409  -1.570796 -1.570796 0.000000
17  3.072870 -0.199779 -5.376826  -0.000003 -0.000001 -3.089259
18  -0.113819 0.013251 0.039068  -1.570796 -1.570796 0.000000
19  0.551431 -3.435103 -4.560715  -0.000003 -0.000001 -3.089259
20  0.526536 -3.436426 5.037214  -0.000003 -0.000001 -3.089259
time 48
0  -8.496743 -6.499927 -13.716057  -0.213461 1.557888 -1.766238
1  -0.988169 0.060586 -0.000085  -1.570795 -1.570451 -0.000006
2  0.626066 -0.004667 0.000003  0.064101 0.018119 0.123402
3  5.859707 -0.004662 0.000001  0.210352 -0.017213 0.120514
4  5.859976 -0.000897 -0.000000  0.000060 0.087212 0.218052
5  1.126914 0.000001 0.000000  0.004862 0.002339 -0.350193
6  2.207102 1.729999 5.187451  1.746038 -1.570796 0.000000
7  0.817492 0.000006 0.000002  -0.000000 0.000000 -0.000000
8  1.226239 -5.313694 0.000002  0.000000 0.000000 -0.000000
9  2.226115 1.733433 -4.950247  1.746038 -1.570796 0.000000
10  -0.898442 -0.185045 0.000001  0.000000 0.000000 -0.000000
11  -1.430606 -4.904947 0.000001  0.000000 0.000000 -0.000000
12  4.222802 -2.892895 0.162014  -0.000004 -0.000001 -2.966351
13  -0.188325 -0.077080 0.169980  -0.000000 -0.000000 0.000000
14  -3.545665 -0.154159 -0.000002  -0.000000 0.000000 -0.000000
15  3.272836 -0.112141 5.546792  -0.000003 -0.000001 -3.089259
16  -0.113934 0.090329 0.049408  -1.570796 -1.570796 0.000000
17  3.072870 -0.199780 -5.376824  -0.000003 -0.000001 -3.089259
18  -0.113821 0.013251 0.039070  -1.570796 -1.570796 0.000000
19  0.551432 -3.435104 -4.560715  -0.000003 -0.000001 -3.089259
20  0.526538 -3.436425 5.037213  -0.000003 -0.000001 -3.089259
time 49
0  -8.496743 -6.499927 -13.725853  -0.212493 1.558291 -1.766001
1  -0.998215 0.019532 -0.000085  -1.570790 -1.570451 -0.000010
2  0.626065 -0.004667 0.000003  0.095238 0.014297 0.124825
3  5.859708 -0.004662 0.000002  0.251053 -0.022231 0.120401
4  5.859975 -0.000897 -0.000001  0.000060 0.087212 0.218052
5  1.126915 0.000001 0.000000  0.004817 0.006999 -0.357292
6  2.207104 1.729999 5.187450  1.746038 -1.570796 0.000000
7  0.817492 0.000005 0.000002  -0.000000 0.000000 -0.000000
8  1.226239 -5.313696 0.000001  0.000000 0.000000 -0.000000
9  2.226116 1.733433 -4.950247  1.746038 -1.570796 0.000000
10  -0.898440 -0.185043 0.000002  0.000000 0.000000 -0.000000
11  -1.430610 -4.904952 0.000000  0.000000 0.000000 -0.000000
12  4.222804 -2.892895 0.162014  -0.000004 -0.000001 -2.966351
13  -0.188323 -0.077080 0.169980  -0.000000 -0.000000 0.000000
14  -3.545663 -0.154159 -0.000002  -0.000000 0.000000 0.000000
15  3.272836 -0.112142 5.546793  -0.000003 -0.000001 -3.089259
16  -0.113932 0.090332 0.049410  -1.570796 -1.570796 0.000000
17  3.072872 -0.199781 -5.376824  -0.000003 -0.000001 -3.089259
18  -0.113818 0.013251 0.039067  -1.570796 -1.570796 0.000000
19  0.551432 -3.435103 -4.560715  -0.000003 -0.000001 -3.089259
20  0.526536 -3.436426 5.037214  -0.000003 -0.000001 -3.089259
time 50
0  -8.496743 -6.499927 -13.732491  -0.211076 1.558898 -1.765612
1  -1.005480 0.037310 -0.000086  -1.570795 -1.570451 0.000004
2  0.626065 -0.004667 0.000002  0.084575 0.015982 0.125579
3  5.859707 -0.004661 0.000002  0.219932 -0.019226 0.120952
4  5.859974 -0.000897 -0.000000  0.000085 0.085436 0.218812
5  1.126913 0.000001 0.000000  0.005696 0.005168 -0.353878
6  2.207101 1.730001 5.187449  1.746038 -1.570796 0.000000
7  0.817492 0.000006 0.000004  -0.000000 0.000000 -0.000000
8  1.226240 -5.313697 0.000002  0.000000 0.000000 -0.000000
9  2.226115 1.733435 -4.950247  1.746038 -1.570796 0.000000
10  -0.898440 -0.185046 0.000002  -0.000000 0.000000 -0.000000
11  -1.430610 -4.904948 0.000003  -0.000000 0.000000 -0.000000
12  4.222802 -2.892894 0.162013  -0.000004 -0.000001 -2.966351
13  -0.188324 -0.077083 0.169979  0.000000 -0.000000 0.000000
14  -3.545664 -0.154160 0.000000  0.000000 0.000000 -0.000000
15  3.272834 -0.112143 5.546793  -0.000003 -0.000001 -3.089259
16  -0.113933 0.090329 0.049408  -1.570796 -1.570796 0.000000
17  3.072870 -0.199780 -5.376823  -0.000003 -0.000001 -3.089259
18  -0.113818 0.013251 0.039068  -1.570796 -1.570796 0.000000
19  0.551430 -3.435104 -4.560715  -0.000003 -0.000001 -3.089259
20  0.526536 -3.436427 5.037215  -0.000003 -0.000001 -3.089259
time 51
0  -8.496743 -6.499927 -13.738285  -0.209199 1.559695 -1.765032
1  -1.012305 0.089787 -0.000085  -1.570797 -1.570451 -0.000001
2  0.626066 -0.004667 0.000003  0.053138 0.020796 0.126105
3  5.859706 -0.004661 0.000002  0.128612 -0.010221 0.122503
4  5.859975 -0.000898 0.000001  0.000154 0.080434 0.220951
5  1.126916 0.000001 0.000000  0.008381 -0.000275 -0.343749
6  2.207102 1.729998 5.187450  1.746038 -1.570796 0.000000
7  0.817492 0.000004 0.000001  -0.000000 0.000000 -0.000000
8  1.226238 -5.313696 0.000000  -0.000000 0.000000 -0.000000
9  2.226117 1.733433 -4.950245  1.746038 -1.570796 0.000000
10  -0.898442 -0.185046 0.000000  0.000000 0.000000 -0.000000
11  -1.430608 -4.904952 -0.000000  0.000000 0.000000 -0.000000
12  4.222802 -2.892896 0.162014  -0.000004 -0.000001 -2.966351
13  -0.188323 -0.077082 0.169981  -0.000000 -0.000000 0.000000
14  -3.545660 -0.154160 -0.000000  0.000000 0.000000 0.000000
15  3.272835 -0.112143 5.546794  -0.000003 -0.000001 -3.089259
16  -0.113936 0.090330 0.049410  -1.570796 -1.570796 0.000000
17  3.072870 -0.199782 -5.376822  -0.000003 -0.000001 -3.089259
18  -0.113821 0.013251 0.039070  -1.570796 -1.570796 0.000000
19  0.551431 -3.435105 -4.560712  -0.000003 -0.000001 -3.089259
20  0.526536 -3.436428 5.037217  -0.000003 -0.000001 -3.089259
time 52
0  -8.496743 -6.499927 -13.742489  -0.207007 1.560600 -1.764255
1  -1.017646 0.163605 -0.000085  -1.570793 -1.570451 0.000001
2  0.626065 -0.004666 0.000004  0.009006 0.027154 0.126379
3  5.859707 -0.004659 0.000001  0.001524 0.002795 0.124495
4  5.859975 -0.000895 -0.000000  0.000242 0.074012 0.223698
5  1.126916 0.000001 -0.000000  0.012388 -0.008027 -0.329362
6  2.207103 1.730000 5.187451  1.746038 -1.570796 0.000000
7  0.817492 0.000005 0.000001  -0.000000 0.000000 -0.000000
8  1.226239 -5.313699 0.000001  0.000000 0.000000 -0.000000
9  2.226118 1.733433 -4.950248  1.746038 -1.570796 0.000000
10  -0.898441 -0.185042 0.000003  -0.000000 0.000000 -0.000000
11  -1.430609 -4.904954 0.000001  0.000000 0.000000 -0.000000
12  4.222801 -2.892896 0.162013  -0.000004 -0.000001 -2.966351
13  -0.188326 -0.077082 0.169979  -0.000000 -0.000000 0.000000
14  -3.545667 -0.154160 -0.000002  0.000000 0.000000 0.000000
15  3.272835 -0.112140 5.546794  -0.000003 -0.000001 -3.089259
16  -0.113936 0.090330 0.049409  -1.570796 -1.570796 0.000000
17  3.072870 -0.199779 -5.376822  -0.000003 -0.000001 -3.089259
18  -0.113820 0.013251 0.039069  -1.570796 -1.570796 0.000000
19  0.551432 -3.435102 -4.560713  -0.000003 -0.000001 -3.089259
20  0.526536 -3.436425 5.037215  -0.000003 -0.000001 -3.089259
time 53
0  -8.496744 -6.499927 -13.744753  -0.204810 1.561464 -1.763358
1  -1.020738 0.233628 -0.000085  -1.570795 -1.570451 -0.000005
2  0.626065 -0.004666 0.000003  -0.032697 0.032450 0.126468
3  5.859708 -0.004661 0.000002  -0.116595 0.015761 0.126046
4  5.859975 -0.000898 0.000000  0.000311 0.069010 0.225837
5  1.126916 0.000000 0.000001  0.016598 -0.015551 -0.315471
6  2.207107 1.729999 5.187449  1.746038 -1.570796 0.000000
7  0.817492 0.000007 0.000002  -0.000000 0.000000 -0.000000
8  1.226239 -5.313697 0.000003  -0.000000 0.000000 -0.000000
9  2.226120 1.733433 -4.950248  1.746038 -1.570796 0.000000
10  -0.898442 -0.185044 0.000001  0.000000 0.000000 -0.000000
11  -1.430609 -4.904949 -0.000001  0.000000 0.000000 -0.000000
12  4.222807 -2.892897 0.162013  -0.000004 -0.000001 -2.966351
13  -0.188325 -0.077081 0.169979  0.000000 -0.000000 0.000000
14  -3.545662 -0.154159 -0.000002  0.000000 0.000000 -0.000000
15  3.272836 -0.112142 5.546793  -0.000003 -0.000001 -3.089259
16  -0.113935 0.090332 0.049409  -1.570796 -1.570796 0.000000
17  3.072872 -0.199781 -5.376822  -0.000003 -0.000001 -3.089259
18  -0.113821 0.013252 0.039070  -1.570796 -1.570796 0.000000
19  0.551433 -3.435104 -4.560714  -0.000003 -0.000001 -3.089259
20  0.526537 -3.436428 5.037214  -0.000003 -0.000001 -3.089259
time 54
0  -8.496743 -6.499927 -13.745386  -0.202873 1.562186 -1.762454
1  -1.021655 0.281258 -0.000086  -1.570799 -1.570451 0.000001
2  0.626065 -0.004668 0.000003  -0.060826 0.034958 0.126478
3  5.859707 -0.004660 0.000000  -0.193311 0.025503 0.126597
4  5.859976 -0.000895 0.000001  0.000336 0.067234 0.226597
5  1.126914 -0.000001 0.000000  0.020073 -0.020925 -0.305658
6  2.207101 1.730000 5.187450  1.746038 -1.570796 0.000000
7  0.817491 0.000005 0.000002  -0.000000 0.000000 -0.000000
8  1.226239 -5.313696 0.000002  -0.000000 0.000000 -0.000000
9  2.226115 1.733434 -4.950247  1.746038 -1.570796 0.000000
10  -0.898443 -0.185043 0.000002  0.000000 0.000000 -0.000000
11  -1.430607 -4.904950 0.000000  0.000000 0.000000 -0.000000
12  4.222801 -2.892893 0.162014  -0.000004 -0.000001 -2.966351
13  -0.188323 -0.077082 0.169978  0.000000 -0.000000 0.000000
14  -3.545665 -0.154160 -0.000001  0.000000 0.000000 0.000000
15  3.272835 -0.112140 5.546794  -0.000003 -0.000001 -3.089259
16  -0.113934 0.090331 0.049409  -1.570796 -1.570796 0.000000
17  3.072869 -0.199779 -5.376822  -0.000003 -0.000001 -3.089259
18  -0.113820 0.013253 0.039070  -1.570796 -1.570796 0.000000
19  0.551430 -3.435102 -4.560712  -0.000003 -0.000001 -3.089259
20  0.526536 -3.436424 5.037216  -0.000003 -0.000001 -3.089259
time 55
0  -8.496742 -6.499927 -13.728956  -0.201409 1.562725 -1.761647
1  -1.003558 0.306836 -0.000086  -1.570797 -1.570451 0.000001
2  0.626065 -0.004669 0.000002  -0.075205 0.035598 0.124903
3  5.859707 -0.004662 0.000001  -0.228776 0.033544 0.123785
4  5.859976 -0.000897 0.000000  0.000282 0.077223 0.224519
5  1.126917 0.000001 0.000001  0.023797 -0.024587 -0.301118
6  2.207104 1.730000 5.187451  1.746038 -1.570796 0.000000
7  0.817492 0.000008 0.000002  -0.000000 0.000000 -0.000000
8  1.226238 -5.313698 0.000002  -0.000000 0.000000 -0.000000
9  2.226119 1.733432 -4.950247  1.746038 -1.570796 0.000000
10  -0.898440 -0.185042 0.000000  0.000000 0.000000 -0.000000
11  -1.430609 -4.904952 0.000002  0.000000 0.000000 -0.000000
12  4.222805 -2.892897 0.162013  -0.000004 -0.000001 -2.966351
13  -0.188323 -0.077080 0.169979  0.000000 -0.000000 0.000000
14  -3.545665 -0.154160 -0.000001  0.000000 0.000000 -0.000000
15  3.272835 -0.112143 5.546794  -0.000003 -0.000001 -3.089259
16  -0.113934 0.090331 0.049409  -1.570796 -1.570796 0.000000
17  3.072872 -0.199781 -5.376822  -0.000003 -0.000001 -3.089259
18  -0.113821 0.013253 0.039070  -1.570796 -1.570796 0.000000
19  0.551432 -3.435104 -4.560712  -0.000003 -0.000001 -3.089259
20  0.526537 -3.436427 5.037215  -0.000003 -0.000001 -3.089259
time 56
0  -8.496742 -6.499927 -13.686790  -0.200124 1.563181 -1.760824
1  -0.959154 0.312511 -0.000085  -1.570796 -1.570451 0.000002
2  0.626066 -0.004669 0.000002  -0.077940 0.035689 0.120486
3  5.859706 -0.004661 0.000001  -0.233843 0.037092 0.116722
4  5.859975 -0.000898 -0.000000  0.000060 0.087212 0.218052
5  1.126915 0.000003 -0.000001  0.025790 -0.025887 -0.297168
6  2.207103 1.730000 5.187449  1.746038 -1.570796 0.000000
7  0.817492 0.000005 0.000004  -0.000000 0.000000 -0.000000
8  1.226241 -5.313699 0.000002  -0.000000 0.000000 -0.000000
9  2.226115 1.733431 -4.950247  1.746038 -1.570796 0.000000
10  -0.898441 -0.185047 0.000002  0.000000 0.000000 -0.000000
11  -1.430609 -4.904954 0.000002  0.000000 0.000000 -0.000000
12  4.222804 -2.892895 0.162014  -0.000004 -0.000001 -2.966351
13  -0.188322 -0.077081 0.169979  -0.000000 -0.000000 0.000000
14  -3.545662 -0.154160 0.000000  0.000000 0.000000 0.000000
15  3.272836 -0.112144 5.546794  -0.000003 -0.000001 -3.089259
16  -0.113935 0.090332 0.049408  -1.570796 -1.570796 0.000000
17  3.072870 -0.199781 -5.376824  -0.000003 -0.000001 -3.089259
18  -0.113821 0.013252 0.039068  -1.570796 -1.570796 0.000000
19  0.551431 -3.435105 -4.560713  -0.000003 -0.000001 -3.089259
20  0.526536 -3.436428 5.037215  -0.000003 -0.000001 -3.089259
time 57
0  -8.496743 -6.499927 -13.635489  -0.199664 1.563669 -1.760883
1  -0.907564 0.302604 -0.000085  -1.570794 -1.570451 0.000005
2  0.626065 -0.004667 0.000003  -0.077735 0.034525 0.114632
3  5.859707 -0.004659 0.000001  -0.232811 0.036556 0.108246
4  5.859978 -0.000900 -0.000000  -0.000462 0.086566 0.208792
5  1.126914 0.000003 -0.000000  0.025068 -0.025796 -0.289835
6  2.207102 1.729999 5.187450  1.746038 -1.570796 0.000000
7  0.817492 0.000006 0.000003  -0.000000 0.000000 -0.000000
8  1.226240 -5.313695 -0.000000  0.000000 0.000000 -0.000000
9  2.226118 1.733432 -4.950246  1.746038 -1.570796 0.000000
10  -0.898440 -0.185044 0.000005  0.000000 0.000000 -0.000000
11  -1.430608 -4.904948 0.000000  0.000000 0.000000 -0.000000
12  4.222804 -2.892896 0.162014  -0.000004 -0.000001 -2.966351
13  -0.188323 -0.077081 0.169979  -0.000000 -0.000000 0.000000
14  -3.545663 -0.154160 0.000000  0.000000 0.000000 -0.000000
15  3.272836 -0.112144 5.546793  -0.000003 -0.000001 -3.089259
16  -0.113934 0.090332 0.049409  -1.570796 -1.570796 0.000000
17  3.072871 -0.199782 -5.376824  -0.000003 -0.000001 -3.089259
18  -0.113820 0.013251 0.039071  -1.570796 -1.570796 0.000000
19  0.551432 -3.435105 -4.560714  -0.000003 -0.000001 -3.089259
20  0.526537 -3.436428 5.037215  -0.000003 -0.000001 -3.089259
time 58
0  -8.496744 -6.499927 -13.569599  -0.196730 1.564176 -1.758523
1  -0.841963 0.281259 -0.000086  -1.570799 -1.570451 0.000001
2  0.626066 -0.004669 0.000002  -0.076298 0.032046 0.107063
3  5.859708 -0.004660 0.000001  -0.225586 0.034839 0.097558
4  5.859975 -0.000898 0.000001  -0.000815 0.083317 0.196624
5  1.126915 0.000003 -0.000001  0.023429 -0.025156 -0.280538
6  2.207104 1.730000 5.187449  1.746038 -1.570796 0.000000
7  0.817493 0.000005 0.000000  -0.000000 0.000000 -0.000000
8  1.226238 -5.313696 0.000002  0.000000 0.000000 -0.000000
9  2.226120 1.733434 -4.950246  1.746038 -1.570796 0.000000
10  -0.898440 -0.185039 0.000001  0.000000 0.000000 -0.000000
11  -1.430608 -4.904952 0.000000  0.000000 0.000000 -0.000000
12  4.222806 -2.892895 0.162014  -0.000004 -0.000001 -2.966351
13  -0.188321 -0.077081 0.169979  -0.000000 -0.000000 0.000000
14  -3.545665 -0.154162 -0.000001  -0.000000 0.000000 0.000000
15  3.272835 -0.112144 5.546793  -0.000003 -0.000001 -3.089259
16  -0.113935 0.090331 0.049409  -1.570796 -1.570796 0.000000
17  3.072871 -0.199780 -5.376823  -0.000003 -0.000001 -3.089259
18  -0.113821 0.013249 0.039070  -1.570796 -1.570796 0.000000
19  0.551430 -3.435104 -4.560712  -0.000003 -0.000001 -3.089259
20  0.526535 -3.436427 5.037215  -0.000003 -0.000001 -3.089259
time 59
0  -8.496744 -6.499927 -13.491590  -0.188319 1.564765 -1.750846
1  -0.763952 0.258878 -0.000086  -1.570795 -1.570451 0.000004
2  0.626066 -0.004665 0.000003  -0.072921 0.029478 0.098266
3  5.859707 -0.004661 0.000000  -0.211927 0.032408 0.085101
4  5.859975 -0.000897 0.000001  -0.000798 0.077817 0.182535
5  1.126917 0.000001 0.000001  0.021616 -0.023838 -0.269650
6  2.207105 1.729998 5.187449  1.746038 -1.570796 0.000000
7  0.817492 0.000004 0.000003  -0.000000 0.000000 -0.000000
8  1.226239 -5.313701 0.000003  -0.000000 0.000000 -0.000000
9  2.226117 1.733432 -4.950247  1.746038 -1.570796 0.000000
10  -0.898440 -0.185043 -0.000000  0.000000 0.000000 -0.000000
11  -1.430608 -4.904952 -0.000001  0.000000 0.000000 -0.000000
12  4.222805 -2.892896 0.162014  -0.000004 -0.000001 -2.966351
13  -0.188324 -0.077081 0.169979  0.000000 -0.000000 -0.000000
14  -3.545661 -0.154162 0.000000  -0.000000 0.000000 0.000000
15  3.272835 -0.112142 5.546793  -0.000003 -0.000001 -3.089259
16  -0.113935 0.090331 0.049409  -1.570796 -1.570796 0.000000
17  3.072871 -0.199781 -5.376822  -0.000003 -0.000001 -3.089259
18  -0.113822 0.013249 0.039070  -1.570796 -1.570796 0.000000
19  0.551430 -3.435102 -4.560711  -0.000003 -0.000001 -3.089259
20  0.526537 -3.436426 5.037214  -0.000003 -0.000001 -3.089259
time 60
0  -8.496744 -6.499927 -13.397898  -0.174374 1.565454 -1.737784
1  -0.670262 0.231590 -0.000086  -1.570796 -1.570451 -0.000001
2  0.626065 -0.004667 0.000003  -0.067265 0.026358 0.087736
3  5.859707 -0.004661 0.000001  -0.192823 0.029249 0.070217
4  5.859975 -0.000896 0.000000  -0.000750 0.070466 0.165658
5  1.126916 0.000001 0.000001  0.019376 -0.021840 -0.256620
6  2.207103 1.730000 5.187451  1.746038 -1.570796 0.000000
7  0.817493 0.000003 0.000001  -0.000000 0.000000 -0.000000
8  1.226239 -5.313699 0.000002  -0.000000 0.000000 -0.000000
9  2.226118 1.733434 -4.950246  1.746038 -1.570796 0.000000
10  -0.898442 -0.185042 0.000002  0.000000 0.000000 -0.000000
11  -1.430610 -4.904953 0.000003  0.000000 0.000000 -0.000000
12  4.222806 -2.892895 0.162014  -0.000004 -0.000001 -2.966351
13  -0.188328 -0.077080 0.169979  0.000000 -0.000000 0.000000
14  -3.545662 -0.154159 0.000000  -0.000000 0.000000 0.000000
15  3.272837 -0.112141 5.546794  -0.000003 -0.000001 -3.089259
16  -0.113934 0.090330 0.049409  -1.570796 -1.570796 0.000000
17  3.072871 -0.199781 -5.376822  -0.000003 -0.000001 -3.089259
18  -0.113818 0.013250 0.039070  -1.570796 -1.570796 0.000000
19  0.551432 -3.435103 -4.560713  -0.000003 -0.000001 -3.089259
20  0.526537 -3.436427 5.037215  -0.000003 -0.000001 -3.089259
time 61
0  -8.496744 -6.499927 -13.293068  -0.152864 1.566209 -1.717262
1  -0.565432 0.200775 -0.000086  -1.570795 -1.570451 -0.000001
2  0.626066 -0.004668 0.000002  -0.059807 0.022841 0.075979
3  5.859705 -0.004661 0.000001  -0.169543 0.025546 0.053617
4  5.859975 -0.000897 0.000001  -0.000676 0.061716 0.146807
5  1.126914 0.000002 -0.000000  0.016826 -0.019313 -0.242074
6  2.207101 1.730001 5.187450  1.746038 -1.570796 0.000000
7  0.817492 0.000006 -0.000001  -0.000000 0.000000 -0.000000
8  1.226238 -5.313698 0.000003  0.000000 0.000000 -0.000000
9  2.226115 1.733433 -4.950247  1.746038 -1.570796 0.000000
10  -0.898441 -0.185045 0.000000  0.000000 0.000000 -0.000000
11  -1.430607 -4.904952 0.000000  0.000000 0.000000 -0.000000
12  4.222805 -2.892896 0.162014  -0.000004 -0.000001 -2.966351
13  -0.188326 -0.077080 0.169979  0.000000 -0.000000 0.000000
14  -3.545662 -0.154159 -0.000001  0.000000 0.000000 0.000000
15  3.272838 -0.112142 5.546793  -0.000003 -0.000001 -3.089259
16  -0.113934 0.090329 0.049409  -1.570796 -1.570796 0.000000
17  3.072872 -0.199781 -5.376823  -0.000003 -0.000001 -3.089259
18  -0.113819 0.013253 0.039071  -1.570796 -1.570796 0.000000
19  0.551432 -3.435103 -4.560713  -0.000003 -0.000001 -3.089259
20  0.526537 -3.436427 5.037215  -0.000003 -0.000001 -3.089259
time 62
0  -8.496744 -6.499926 -13.182213  -0.120223 1.566996 -1.685664
1  -0.454578 0.167981 -0.000086  -1.570795 -1.570451 0.000000
2  0.626066 -0.004668 0.000001  -0.051104 0.019103 0.063564
3  5.859707 -0.004660 0.000002  -0.143547 0.021508 0.036103
4  5.859974 -0.000897 0.000000  -0.000585 0.052082 0.126895
5  1.126916 0.000002 -0.000001  0.014097 -0.016428 -0.226715
6  2.207103 1.730000 5.187449  1.746038 -1.570796 0.000000
7  0.817492 0.000007 0.000003  -0.000000 0.000000 -0.000000
8  1.226239 -5.313701 0.000003  0.000000 0.000000 -0.000000
9  2.226115 1.733434 -4.950248  1.746038 -1.570796 0.000000
10  -0.898439 -0.185046 0.000002  0.000000 0.000000 -0.000000
11  -1.430610 -4.904954 0.000002  0.000000 0.000000 -0.000000
12  4.222803 -2.892895 0.162013  -0.000004 -0.000001 -2.966351
13  -0.188325 -0.077082 0.169979  -0.000000 -0.000000 0.000000
14  -3.545663 -0.154160 -0.000002  0.000000 0.000000 -0.000000
15  3.272838 -0.112143 5.546794  -0.000003 -0.000001 -3.089259
16  -0.113934 0.090331 0.049409  -1.570796 -1.570796 0.000000
17  3.072871 -0.199781 -5.376823  -0.000003 -0.000001 -3.089259
18  -0.113820 0.013252 0.039070  -1.570796 -1.570796 0.000000
19  0.551431 -3.435103 -4.560714  -0.000003 -0.000001 -3.089259
20  0.526537 -3.436427 5.037216  -0.000003 -0.000001 -3.089259
time 63
0  -8.496744 -6.499926 -13.070658  -0.069990 1.567774 -1.636480
1  -0.343023 0.134829 -0.000085  -1.570797 -1.570451 0.000002
2  0.626066 -0.004669 0.000003  -0.041752 0.015328 0.051084
3  5.859707 -0.004661 0.000002  -0.116386 0.017356 0.018506
4  5.859975 -0.000898 0.000001  -0.000482 0.042111 0.106874
5  1.126914 0.000003 0.000000  0.011329 -0.013372 -0.211277
6  2.207106 1.730000 5.187450  1.746038 -1.570796 0.000000
7  0.817492 0.000005 0.000001  -0.000000 0.000000 -0.000000
8  1.226239 -5.313699 0.000000  0.000000 0.000000 -0.000000
9  2.226121 1.733433 -4.950248  1.746038 -1.570796 0.000000
10  -0.898440 -0.185043 0.000000  0.000000 0.000000 -0.000000
11  -1.430610 -4.904951 -0.000001  0.000000 0.000000 -0.000000
12  4.222807 -2.892896 0.162014  -0.000004 -0.000001 -2.966351
13  -0.188323 -0.077082 0.169979  -0.000000 -0.000000 0.000000
14  -3.545663 -0.154159 -0.000000  -0.000000 0.000000 -0.000000
15  3.272835 -0.112142 5.546793  -0.000003 -0.000001 -3.089259
16  -0.113931 0.090330 0.049409  -1.570796 -1.570796 0.000000
17  3.072871 -0.199781 -5.376822  -0.000003 -0.000001 -3.089259
18  -0.113820 0.013253 0.039069  -1.570796 -1.570796 0.000000
19  0.551431 -3.435103 -4.560713  -0.000003 -0.000001 -3.089259
20  0.526538 -3.436425 5.037215  -0.000003 -0.000001 -3.089259
time 64
0  -8.496743 -6.499926 -12.963568  0.010105 1.568504 -1.557387
1  -0.235931 0.102900 -0.000085  -1.570794 -1.570451 -0.000000
2  0.626065 -0.004667 0.000004  -0.032346 0.011695 0.039114
3  5.859708 -0.004661 0.000000  -0.089589 0.013307 0.001634
4  5.859976 -0.000897 0.000001  -0.000377 0.032340 0.087666
5  1.126914 0.000001 0.000001  0.008655 -0.010327 -0.196469
6  2.207106 1.729999 5.187451  1.746038 -1.570796 0.000000
7  0.817492 0.000005 0.000001  -0.000000 0.000000 -0.000000
8  1.226239 -5.313699 0.000000  0.000000 0.000000 -0.000000
9  2.226121 1.733433 -4.950247  1.746038 -1.570796 0.000000
10  -0.898440 -0.185042 0.000001  0.000000 0.000000 -0.000000
11  -1.430608 -4.904948 0.000001  0.000000 0.000000 -0.000000
12  4.222806 -2.892896 0.162015  -0.000004 -0.000001 -2.966351
13  -0.188323 -0.077082 0.169979  -0.000000 -0.000000 0.000000
14  -3.545665 -0.154159 -0.000001  -0.000000 0.000000 0.000000
15  3.272835 -0.112142 5.546794  -0.000003 -0.000001 -3.089259
16  -0.113936 0.090330 0.049409  -1.570796 -1.570796 0.000000
17  3.072871 -0.199780 -5.376822  -0.000003 -0.000001 -3.089259
18  -0.113820 0.013252 0.039068  -1.570796 -1.570796 0.000000
19  0.551431 -3.435102 -4.560712  -0.000003 -0.000001 -3.089259
20  0.526537 -3.436426 5.037216  -0.000003 -0.000001 -3.089259
time 65
0  -8.496743 -6.499926 -12.865608  0.144239 1.569145 -1.424161
1  -0.137973 0.073611 -0.000085  -1.570794 -1.570451 -0.000000
2  0.626066 -0.004665 0.000003  -0.023439 0.008364 0.028170
3  5.859707 -0.004659 0.000002  -0.064565 0.009557 -0.013784
4  5.859973 -0.000898 0.000000  -0.000275 0.023260 0.070104
5  1.126917 0.000003 0.000000  0.006197 -0.007464 -0.182933
6  2.207104 1.730000 5.187450  1.746038 -1.570796 0.000000
7  0.817492 0.000003 0.000002  -0.000000 0.000000 -0.000000
8  1.226239 -5.313698 0.000001  0.000000 0.000000 -0.000000
9  2.226117 1.733434 -4.950247  1.746038 -1.570796 0.000000
10  -0.898440 -0.185043 0.000002  0.000000 0.000000 -0.000000
11  -1.430609 -4.904953 0.000001  0.000000 0.000000 -0.000000
12  4.222805 -2.892894 0.162015  -0.000004 -0.000001 -2.966351
13  -0.188323 -0.077080 0.169979  -0.000000 -0.000000 0.000000
14  -3.545663 -0.154161 -0.000001  0.000000 0.000000 0.000000
15  3.272834 -0.112143 5.546793  -0.000003 -0.000001 -3.089259
16  -0.113932 0.090329 0.049409  -1.570796 -1.570796 0.000000
17  3.072871 -0.199782 -5.376824  -0.000003 -0.000001 -3.089259
18  -0.113818 0.013252 0.039069  -1.570796 -1.570796 0.000000
19  0.551430 -3.435104 -4.560713  -0.000003 -0.000001 -3.089259
20  0.526536 -3.436428 5.037215  -0.000003 -0.000001 -3.089259
time 66
0  -8.496743 -6.499926 -12.780703  0.377381 1.569649 -1.191798
1  -0.053067 0.048175 -0.000085  -1.570795 -1.570451 -0.000000
2  0.626066 -0.004669 0.000002  -0.015510 0.005472 0.018689
3  5.859707 -0.004662 0.000001  -0.042524 0.006276 -0.027138
4  5.859975 -0.000898 0.000001  -0.000183 0.015294 0.054888
5  1.126913 0.000003 0.000000  0.004058 -0.004927 -0.171206
6  2.207102 1.730001 5.187450  1.746038 -1.570796 0.000000
7  0.817492 0.000002 0.000002  -0.000000 0.000000 -0.000000
8  1.226239 -5.313699 0.000000  0.000000 0.000000 -0.000000
9  2.226115 1.733433 -4.950248  1.746038 -1.570796 0.000000
10  -0.898441 -0.185044 0.000002  0.000000 0.000000 -0.000000
11  -1.430608 -4.904950 0.000002  0.000000 0.000000 -0.000000
12  4.222803 -2.892894 0.162014  -0.000004 -0.000001 -2.966351
13  -0.188328 -0.077081 0.169978  -0.000000 -0.000000 0.000000
14  -3.545663 -0.154159 -0.000000  0.000000 0.000000 -0.000000
15  3.272835 -0.112142 5.546793  -0.000003 -0.000001 -3.089259
16  -0.113932 0.090330 0.049409  -1.570796 -1.570796 0.000000
17  3.072872 -0.199782 -5.376822  -0.000003 -0.000001 -3.089259
18  -0.113820 0.013250 0.039070  -1.570796 -1.570796 0.000000
19  0.551431 -3.435104 -4.560714  -0.000003 -0.000001 -3.089259
20  0.526537 -3.436428 5.037215  -0.000003 -0.000001 -3.089259
time 67
0  -8.496743 -6.499926 -12.711914  0.755524 1.569961 -0.814299
1  0.015725 0.027531 -0.000085  -1.570795 -1.570451 -0.000000
2  0.626066 -0.004667 0.000002  -0.008950 0.003126 0.011011
3  5.859706 -0.004660 0.000002  -0.024437 0.003598 -0.037951
4  5.859974 -0.000897 0.000001  -0.000106 0.008776 0.042565
5  1.126914 0.000002 -0.000000  0.002321 -0.002837 -0.161710
6  2.207105 1.729999 5.187450  1.746038 -1.570796 0.000000
7  0.817492 0.000003 0.000002  -0.000000 0.000000 -0.000000
8  1.226239 -5.313695 0.000001  0.000000 0.000000 -0.000000
9  2.226119 1.733432 -4.950248  1.746038 -1.570796 0.000000
10  -0.898442 -0.185045 0.000002  0.000000 0.000000 -0.000000
11  -1.430608 -4.904948 0.000000  0.000000 0.000000 -0.000000
12  4.222807 -2.892897 0.162014  -0.000004 -0.000001 -2.966351
13  -0.188326 -0.077080 0.169978  -0.000000 -0.000000 0.000000
14  -3.545663 -0.154161 0.000000  -0.000000 0.000000 -0.000000
15  3.272835 -0.112142 5.546794  -0.000003 -0.000001 -3.089259
16  -0.113930 0.090330 0.049408  -1.570796 -1.570796 0.000000
17  3.072870 -0.199780 -5.376824  -0.000003 -0.000001 -3.089259
18  -0.113820 0.013251 0.039069  -1.570796 -1.570796 0.000000
19  0.551431 -3.435102 -4.560714  -0.000003 -0.000001 -3.089259
20  0.526536 -3.436426 5.037216  -0.000003 -0.000001 -3.089259
time 68
0  -8.496743 -6.499926 -12.661436  1.191100 1.570061 -0.379245
1  0.066200 0.012363 -0.000086  -1.570795 -1.570451 0.000000
2  0.626065 -0.004667 0.000002  -0.004055 0.001403 0.005379
3  5.859707 -0.004661 0.000001  -0.011027 0.001620 -0.045881
4  5.859975 -0.000897 0.000000  -0.000048 0.003955 0.033524
5  1.126916 0.000004 -0.000000  0.001042 -0.001283 -0.154743
6  2.207105 1.730000 5.187452  1.746038 -1.570796 0.000000
7  0.817492 0.000005 0.000001  -0.000000 0.000000 -0.000000
8  1.226239 -5.313696 0.000001  0.000000 0.000000 -0.000000
9  2.226120 1.733433 -4.950245  1.746038 -1.570796 0.000000
10  -0.898440 -0.185041 0.000002  0.000000 0.000000 -0.000000
11  -1.430609 -4.904951 0.000001  0.000000 0.000000 -0.000000
12  4.222807 -2.892895 0.162016  -0.000004 -0.000001 -2.966351
13  -0.188323 -0.077081 0.169980  -0.000000 -0.000000 0.000000
14  -3.545665 -0.154159 -0.000001  -0.000000 0.000000 -0.000000
15  3.272834 -0.112142 5.546793  -0.000003 -0.000001 -3.089259
16  -0.113932 0.090332 0.049409  -1.570796 -1.570796 0.000000
17  3.072871 -0.199781 -5.376822  -0.000003 -0.000001 -3.089259
18  -0.113820 0.013251 0.039070  -1.570796 -1.570796 0.000000
19  0.551430 -3.435102 -4.560714  -0.000003 -0.000001 -3.089259
20  0.526536 -3.436427 5.037215  -0.000003 -0.000001 -3.089259
time 69
0  -8.496742 -6.499926 -12.630672  1.479867 1.570043 -0.090815
1  0.096963 0.003106 -0.000086  -1.570795 -1.570451 0.000000
2  0.626065 -0.004668 0.000001  -0.001030 0.000352 0.001947
3  5.859705 -0.004660 0.000002  -0.002784 0.000408 -0.050712
4  5.859975 -0.000898 0.000000  -0.000012 0.000997 0.028015
5  1.126914 0.000001 0.000002  0.000261 -0.000324 -0.150499
6  2.207103 1.730000 5.187450  1.746038 -1.570796 0.000000
7  0.817492 0.000003 0.000002  -0.000000 0.000000 -0.000000
8  1.226239 -5.313696 0.000001  0.000000 0.000000 -0.000000
9  2.226116 1.733433 -4.950248  1.746038 -1.570796 0.000000
10  -0.898441 -0.185043 0.000001  0.000000 0.000000 -0.000000
11  -1.430610 -4.904951 -0.000000  0.000000 0.000000 -0.000000
12  4.222803 -2.892895 0.162013  -0.000004 -0.000001 -2.966351
13  -0.188323 -0.077080 0.169979  0.000000 -0.000000 0.000000
14  -3.545666 -0.154160 0.000000  0.000000 0.000000 -0.000000
15  3.272837 -0.112142 5.546793  -0.000003 -0.000001 -3.089259
16  -0.113935 0.090331 0.049409  -1.570796 -1.570796 0.000000
17  3.072872 -0.199781 -5.376823  -0.000003 -0.000001 -3.089259
18  -0.113819 0.013252 0.039072  -1.570796 -1.570796 0.000000
19  0.551432 -3.435103 -4.560713  -0.000003 -0.000001 -3.089259
20  0.526538 -3.436427 5.037216  -0.000003 -0.000001 -3.089259
time 70
0  -8.496743 -6.499926 -12.620350  1.570795 1.570024 0.000000
1  0.107287 -0.000001 -0.000085  -1.570795 -1.570451 -0.000000
2  0.626065 -0.004668 0.000000  -0.000004 -0.000001 0.000796
3  5.859705 -0.004661 0.000001  -0.000000 0.000000 -0.052333
4  5.859975 -0.000897 0.000001  -0.000000 -0.000000 0.026167
5  1.126918 0.000002 0.000000  -0.000001 0.000000 -0.149075
6  2.207104 1.730000 5.187452  1.746038 -1.570796 0.000000
7  0.817492 0.000001 0.000001  -0.000000 0.000000 -0.000000
8  1.226239 -5.313699 0.000000  0.000000 0.000000 -0.000000
9  2.226117 1.733434 -4.950246  1.746038 -1.570796 0.000000
10  -0.898443 -0.185044 0.000003  0.000000 0.000000 -0.000000
11  -1.430610 -4.904951 0.000002  0.000000 0.000000 -0.000000
12  4.222804 -2.892895 0.162015  -0.000004 -0.000001 -2.966351
13  -0.188326 -0.077081 0.169980  -0.000000 -0.000000 0.000000
14  -3.545668 -0.154160 -0.000002  0.000000 0.000000 -0.000000
15  3.272835 -0.112142 5.546793  -0.000003 -0.000001 -3.089259
16  -0.113937 0.090330 0.049409  -1.570796 -1.570796 0.000000
17  3.072870 -0.199781 -5.376822  -0.000003 -0.000001 -3.089259
18  -0.113822 0.013252 0.039071  -1.570796 -1.570796 0.000000
19  0.551431 -3.435103 -4.560711  -0.000003 -0.000001 -3.089259
20  0.526536 -3.436426 5.037216  -0.000003 -0.000001 -3.089259
end
