version 1
nodes
0 "Bip01" -1
1 "Bip01 Pelvis" 0
2 "Bip01 Spine" 1
3 "Bip01 Spine1" 2
4 "Bip01 Spine2" 3
5 "Bip01 Spine3" 4
6 "Bip01 Neck" 5
7 "Bip01 L Clavicle" 6
8 "Bip01 L UpperArm" 7
9 "Bip01 L Forearm" 8
10 "Bip01 L Hand" 9
11 "Bip01 L Finger0" 10
12 "Bip01 L Finger01" 11
13 "Bip01 L Finger02" 12
14 "Bip01 L Finger2" 10
15 "Bip01 L Finger21" 14
16 "Bip01 L Finger22" 15
17 "Bip01 R Clavicle" 6
18 "Bip01 R UpperArm" 17
19 "Bip01 R Forearm" 18
20 "Bip01 R Hand" 19
21 "Bip01 R Finger0" 20
22 "Bip01 R Finger01" 21
23 "Bip01 R Finger02" 22
24 "Bip01 R Finger2" 20
25 "Bip01 R Finger21" 24
26 "Bip01 R Finger22" 25
27 "needle" 20
28 "Bip01 Head" 6
29 "Dummy05" 28
30 "Mouth" 29
31 "C_eyebrow" 28
32 "R_Eye" 28
33 "Eyelids" 28
34 "L_Eye" 28
35 "L_eyebrow" 28
36 "R_eyebrow" 28
37 "Bip01 L Thigh" 2
38 "Bip01 L Calf" 37
39 "Bip01 L Foot" 38
40 "Bip01 L Toe0" 39
41 "Bip01 R Thigh" 2
42 "Bip01 R Calf" 41
43 "Bip01 R Foot" 42
44 "Bip01 R Toe0" 43
end
skeleton
time 0
0  -0.113742 1.270458 38.496143  0.000000 -0.000000 -1.570795
1  0.270458 -0.000000 0.000000  -1.570765 -1.570796 0.000000
2  3.928663 0.383632 0.000004  -0.000004 -0.000011 0.018264
3  3.442970 -0.003584 -0.000034  0.000000 0.000012 0.008709
4  4.441441 -0.003519 0.000010  -0.000000 -0.000002 0.017447
5  4.441391 -0.003495 0.000002  -0.000000 -0.000000 0.000003
6  4.441389 -0.002009 0.000000  0.000000 0.000000 0.000000
7  0.000001 0.002036 1.614275  -0.000013 -1.370796 3.140817
8  5.272322 -0.043631 -0.979134  -0.162292 1.199959 -0.157939
9  11.367956 -0.026461 0.164896  0.038716 -0.004490 0.049820
10  9.233501 -0.000131 -0.053499  -1.603994 0.141582 -0.236582
11  1.779140 0.259488 -1.043193  -0.000805 0.270556 -0.000384
12  0.608171 0.000006 0.145089  0.000002 0.000011 -0.000000
13  1.013408 0.000011 0.241773  -0.000002 -0.000000 -0.000001
14  3.749886 -0.002024 0.772967  -0.000775 0.026201 -0.000189
15  1.140013 0.000010 0.271954  0.000002 0.000000 0.000001
16  1.129242 0.000012 0.269385  -0.000008 -0.000019 0.000019
17  0.000001 0.002045 -1.614275  -0.000013 1.370796 3.140792
18  4.898549 -0.043615 0.979169  0.155951 -1.173547 -0.149701
19  11.421700 -0.048063 -0.189581  -0.044841 0.005179 0.058125
20  9.316658 -0.000039 0.058219  1.591678 -0.091181 -0.234074
21  1.783324 0.034726 1.055500  0.011505 -0.262670 0.205985
22  0.591422 0.000010 -0.140173  -0.000005 0.000009 0.000002
23  1.034405 0.000015 -0.245156  0.000002 0.000001 0.000000
24  3.656584 0.002853 -0.685595  0.030984 -0.003114 0.118092
25  1.259017 0.000010 -0.300524  0.000002 -0.000001 0.000009
26  1.151568 0.000001 -0.274878  -0.000002 0.000001 -0.000010
27  4.979327 -0.677156 -0.634990  -1.748651 -0.316474 2.351191
28  2.562338 0.000018 0.000001  -0.000000 0.000002 -0.044423
29  8.541122 -0.000010 0.000017  -0.000000 0.000000 0.000000
30  -7.351509 1.350588 0.144433  -0.000001 -3.141590 -1.570796
31  4.667511 3.216701 0.113636  -1.634617 -1.570817 -1.476523
32  3.656999 4.264037 -1.016992  1.046966 -1.487639 2.077293
33  3.651871 4.353401 0.121884  -2.230212 -1.570836 -0.257080
34  3.656996 4.279855 1.216486  1.046838 -1.487634 2.077394
35  4.837172 3.216796 1.404731  -1.635758 -1.570817 -1.474584
36  4.837183 3.216721 -1.237282  -1.635758 -1.570817 -1.474584
37  -3.934979 -0.311829 3.416493  0.000930 -3.115028 -0.063618
38  19.302961 0.000242 -0.000697  -0.000005 0.000043 -0.171514
39  15.657716 0.000205 0.000118  -0.165535 -0.026616 0.126171
40  3.741855 7.474051 0.000001  0.000003 -0.000001 1.570784
41  -3.935043 -0.311810 -3.416413  -0.001738 3.118891 -0.062865
42  19.302954 -0.000208 0.000255  0.000001 -0.000010 -0.175504
43  15.657713 0.000157 0.000044  0.140351 0.022794 0.130919
44  3.741733 7.351571 0.000028  -0.000012 0.000002 1.570817
end
triangles
metal
0  3.056297 -5.608749 51.928963  0.782281 -0.534257 -0.320231  0.581628 0.348794 1 4 1.000000
0  2.766296 -5.472842 52.506241  0.024812 -0.636036 0.771233  0.447749 0.637433 1 4 1.000000
0  2.756296 -5.674724 51.887093  -0.330515 -0.809503 -0.485214  0.449301 0.327858 1 4 1.000000
metal
0  2.686296 -5.196984 52.611431  -0.119755 -0.067324 0.990509  0.057230 0.690028 1 4 1.000000
0  2.496296 -5.041772 52.409615  -0.689932 0.069247 0.720542  0.083075 0.589119 1 4 1.000000
0  2.766296 -5.472842 52.506241  0.024812 -0.636036 0.771233  0.447749 0.637433 1 4 1.000000
metal
0  2.496296 -5.041772 52.409615  -0.689932 0.069247 0.720542  0.083075 0.589119 1 4 1.000000
0  2.616296 -5.394453 52.334625  -0.770104 -0.535661 0.346324  0.275442 0.551624 1 4 1.000000
0  2.766296 -5.472842 52.506241  0.024812 -0.636036 0.771233  0.447749 0.637433 1 4 1.000000
metal
0  2.766296 -5.472842 52.506241  0.024812 -0.636036 0.771233  0.447749 0.637433 1 4 1.000000
0  2.616296 -5.394453 52.334625  -0.770104 -0.535661 0.346324  0.275442 0.551624 1 4 1.000000
0  2.756296 -5.674724 51.887093  -0.330515 -0.809503 -0.485214  0.449301 0.327858 1 4 1.000000
metal
0  2.616296 -5.394453 52.334625  -0.770104 -0.535661 0.346324  0.275442 0.551624 1 4 1.000000
0  2.706296 -5.477640 51.851318  -0.578539 -0.285440 -0.764061  0.390804 0.309972 1 4 1.000000
0  2.756296 -5.674724 51.887093  -0.330515 -0.809503 -0.485214  0.449301 0.327858 1 4 1.000000
metal
0  2.796296 -4.970641 52.491104  0.221046 0.349956 0.910276  0.949301 0.629864 1 4 1.000000
0  2.496296 -5.041772 52.409615  -0.689932 0.069247 0.720542  1.083075 0.589119 1 4 1.000000
0  2.686296 -5.196984 52.611431  -0.119755 -0.067324 0.990509  1.057230 0.690028 1 4 1.000000
metal
0  2.706296 -5.477640 51.851318  -0.578539 -0.285440 -0.764061  0.390804 0.309972 1 4 1.000000
0  3.006297 -5.411683 51.893105  0.791620 0.091006 -0.604175  0.649572 0.330863 1 4 1.000000
0  2.756296 -5.674724 51.887093  -0.330515 -0.809503 -0.485214  0.449301 0.327858 1 4 1.000000
metal
0  2.756296 -5.674724 51.887093  -0.330515 -0.809503 -0.485214  0.449301 0.327858 1 4 1.000000
0  3.006297 -5.411683 51.893105  0.791620 0.091006 -0.604175  0.649572 0.330863 1 4 1.000000
0  3.056297 -5.608749 51.928963  0.782281 -0.534257 -0.320231  0.581628 0.348794 1 4 1.000000
badge_cohrt
0  4.487851 -5.506239 50.360790  0.163671 -0.978912 0.122196  1.000000 0.013912 1 4 1.000000
0  4.416487 -5.302217 52.090530  0.163671 -0.978912 0.122196  0.998145 1.000000 1 4 1.000000
0  1.546105 -6.001183 50.336388  0.163671 -0.978912 0.122196  0.001850 0.000000 1 4 1.000000
badge_cohrt
0  1.546105 -6.001183 50.336388  0.163671 -0.978912 0.122196  0.001850 0.000000 1 4 1.000000
0  4.416487 -5.302217 52.090530  0.163671 -0.978912 0.122196  0.998145 1.000000 1 4 1.000000
0  1.474750 -5.797142 52.066223  0.163671 -0.978912 0.122196  0.000000 0.986142 1 4 1.000000
metal
0  2.686296 -5.196984 52.611431  -0.119755 -0.067324 0.990509  1.057230 0.690028 1 4 1.000000
0  2.766296 -5.472842 52.506241  0.024812 -0.636036 0.771233  1.447749 0.637433 1 4 1.000000
0  2.796296 -4.970641 52.491104  0.221046 0.349956 0.910276  0.949301 0.629864 1 4 1.000000
metal
0  2.796296 -4.970641 52.491104  0.221046 0.349956 0.910276  0.949301 0.629864 1 4 1.000000
0  2.766296 -5.472842 52.506241  0.024812 -0.636036 0.771233  1.447749 0.637433 1 4 1.000000
0  2.916297 -5.328496 52.376400  0.786370 -0.166692 0.594806  0.701728 0.572512 1 4 1.000000
metal
0  2.766296 -5.472842 52.506241  0.024812 -0.636036 0.771233  0.447749 0.637433 1 4 1.000000
0  3.056297 -5.608749 51.928963  0.782281 -0.534257 -0.320231  0.581628 0.348794 1 4 1.000000
0  2.916297 -5.328496 52.376400  0.786370 -0.166692 0.594806  0.701728 0.572512 1 4 1.000000
metal
0  2.916297 -5.328496 52.376400  0.786370 -0.166692 0.594806  0.701728 0.572512 1 4 1.000000
0  3.056297 -5.608749 51.928963  0.782281 -0.534257 -0.320231  0.581628 0.348794 1 4 1.000000
0  3.006297 -5.411683 51.893105  0.791620 0.091006 -0.604175  0.649572 0.330863 1 4 1.000000
end
