version 1
nodes
0 "root" -1
end
skeleton
time 0
0 0 0 0 0 0 0
end
triangles
crate06.vmt
0  30.750000 -31.000000 17.250000  0.000000 -1.000000 0.000000  0.000000 0.000000 0
0  -30.750000 -31.000000 110.750000  0.000000 -1.000000 0.000000  0.000000 0.000000 0
0  -30.750000 -31.000000 17.250000  0.000000 -1.000000 0.000000  0.000000 0.000000 0
crate06.vmt
0  31.000000 30.750000 17.250000  1.000000 0.000000 0.000000  0.000000 0.000000 0
0  31.000000 -30.750000 110.750000  1.000000 0.000000 0.000000  0.000000 0.000000 0
0  31.000000 -30.750000 17.250000  1.000000 0.000000 0.000000  0.000000 0.000000 0
crate06.vmt
0  30.750000 30.750000 111.000000  0.000000 0.000000 1.000000  0.000000 0.000000 0
0  -30.750000 -30.750000 111.000000  0.000000 0.000000 1.000000  0.000000 0.000000 0
0  30.750000 -30.750000 111.000000  0.000000 0.000000 1.000000  0.000000 0.000000 0
crate06.vmt
0  -31.000000 -30.750000 17.250000  -1.000000 0.000000 0.000000  0.000000 0.000000 0
0  -31.000000 30.750000 110.750000  -1.000000 0.000000 0.000000  0.000000 0.000000 0
0  -31.000000 30.750000 17.250000  -1.000000 0.000000 0.000000  0.000000 0.000000 0
crate06.vmt
0  -30.750000 31.000000 17.250000  0.000000 1.000000 0.000000  0.000000 0.000000 0
0  30.750000 31.000000 110.750000  0.000000 1.000000 0.000000  0.000000 0.000000 0
0  30.750000 31.000000 17.250000  0.000000 1.000000 0.000000  0.000000 0.000000 0
crate06.vmt
0  -30.750000 -30.750000 17.000000  -0.577350 -0.577350 -0.577350  0.000000 0.000000 0
0  -30.750000 -31.000000 17.250000  -0.577350 -0.577350 -0.577350  0.000000 0.000000 0
0  -31.000000 -30.750000 17.250000  -0.577350 -0.577350 -0.577350  0.000000 0.000000 0
crate06.vmt
0  -30.750000 -31.000000 110.750000  -0.577350 -0.577350 0.577350  0.000000 0.000000 0
0  -30.750000 -30.750000 111.000000  -0.577350 -0.577350 0.577350  0.000000 0.000000 0
0  -31.000000 -30.750000 110.750000  -0.577350 -0.577350 0.577350  0.000000 0.000000 0
crate06.vmt
0  -30.750000 30.750000 17.000000  -0.577350 0.577350 -0.577350  0.000000 0.000000 0
0  -31.000000 30.750000 17.250000  -0.577350 0.577350 -0.577350  0.000000 0.000000 0
0  -30.750000 31.000000 17.250000  -0.577350 0.577350 -0.577350  0.000000 0.000000 0
crate06.vmt
0  -30.750000 30.750000 111.000000  -0.577350 0.577350 0.577350  0.000000 0.000000 0
0  -30.750000 31.000000 110.750000  -0.577350 0.577350 0.577350  0.000000 0.000000 0
0  -31.000000 30.750000 110.750000  -0.577350 0.577350 0.577350  0.000000 0.000000 0
crate06.vmt
0  30.750000 -30.750000 17.000000  0.577350 -0.577350 -0.577350  0.000000 0.000000 0
0  31.000000 -30.750000 17.250000  0.577350 -0.577350 -0.577350  0.000000 0.000000 0
0  30.750000 -31.000000 17.250000  0.577350 -0.577350 -0.577350  0.000000 0.000000 0
crate06.vmt
0  30.750000 -30.750000 111.000000  0.577350 -0.577350 0.577350  0.000000 0.000000 0
0  30.750000 -31.000000 110.750000  0.577350 -0.577350 0.577350  0.000000 0.000000 0
0  31.000000 -30.750000 110.750000  0.577350 -0.577350 0.577350  0.000000 0.000000 0
crate06.vmt
0  30.750000 30.750000 17.000000  0.577350 0.577350 -0.577350  0.000000 0.000000 0
0  30.750000 31.000000 17.250000  0.577350 0.577350 -0.577350  0.000000 0.000000 0
0  31.000000 30.750000 17.250000  0.577350 0.577350 -0.577350  0.000000 0.000000 0
crate06.vmt
0  30.750000 30.750000 111.000000  0.577350 0.577350 0.577350  0.000000 0.000000 0
0  31.000000 30.750000 110.750000  0.577350 0.577350 0.577350  0.000000 0.000000 0
0  30.750000 31.000000 110.750000  0.577350 0.577350 0.577350  0.000000 0.000000 0
crate06.vmt
0  -30.750000 30.750000 17.000000  -0.707107 0.000000 -0.707107  0.000000 0.000000 0
0  -31.000000 -30.750000 17.250000  -0.707107 0.000000 -0.707107  0.000000 0.000000 0
0  -31.000000 30.750000 17.250000  -0.707107 0.000000 -0.707107  0.000000 0.000000 0
crate06.vmt
0  -30.750000 -31.000000 17.250000  -0.707107 -0.707107 0.000000  0.000000 0.000000 0
0  -31.000000 -30.750000 110.750000  -0.707107 -0.707107 0.000000  0.000000 0.000000 0
0  -31.000000 -30.750000 17.250000  -0.707107 -0.707107 0.000000  0.000000 0.000000 0
crate06.vmt
0  -30.750000 -30.750000 111.000000  -0.707107 0.000000 0.707107  0.000000 0.000000 0
0  -31.000000 30.750000 110.750000  -0.707107 0.000000 0.707107  0.000000 0.000000 0
0  -31.000000 -30.750000 110.750000  -0.707107 0.000000 0.707107  0.000000 0.000000 0
crate06.vmt
0  -30.750000 31.000000 110.750000  -0.707107 0.707107 0.000000  0.000000 0.000000 0
0  -31.000000 30.750000 17.250000  -0.707107 0.707107 0.000000  0.000000 0.000000 0
0  -31.000000 30.750000 110.750000  -0.707107 0.707107 0.000000  0.000000 0.000000 0
crate06.vmt
0  30.750000 30.750000 17.000000  0.000000 0.707107 -0.707107  0.000000 0.000000 0
0  -30.750000 31.000000 17.250000  0.000000 0.707107 -0.707107  0.000000 0.000000 0
0  30.750000 31.000000 17.250000  0.000000 0.707107 -0.707107  0.000000 0.000000 0
crate06.vmt
0  -30.750000 30.750000 111.000000  0.000000 0.707107 0.707107  0.000000 0.000000 0
0  30.750000 31.000000 110.750000  0.000000 0.707107 0.707107  0.000000 0.000000 0
0  -30.750000 31.000000 110.750000  0.000000 0.707107 0.707107  0.000000 0.000000 0
crate06.vmt
0  31.000000 30.750000 110.750000  0.707107 0.707107 0.000000  0.000000 0.000000 0
0  30.750000 31.000000 17.250000  0.707107 0.707107 0.000000  0.000000 0.000000 0
0  30.750000 31.000000 110.750000  0.707107 0.707107 0.000000  0.000000 0.000000 0
crate06.vmt
0  30.750000 -30.750000 17.000000  0.707107 0.000000 -0.707107  0.000000 0.000000 0
0  31.000000 30.750000 17.250000  0.707107 0.000000 -0.707107  0.000000 0.000000 0
0  31.000000 -30.750000 17.250000  0.707107 0.000000 -0.707107  0.000000 0.000000 0
crate06.vmt
0  30.750000 30.750000 111.000000  0.707107 0.000000 0.707107  0.000000 0.000000 0
0  31.000000 -30.750000 110.750000  0.707107 0.000000 0.707107  0.000000 0.000000 0
0  31.000000 30.750000 110.750000  0.707107 0.000000 0.707107  0.000000 0.000000 0
crate06.vmt
0  30.750000 -31.000000 110.750000  0.707107 -0.707107 0.000000  0.000000 0.000000 0
0  31.000000 -30.750000 17.250000  0.707107 -0.707107 0.000000  0.000000 0.000000 0
0  31.000000 -30.750000 110.750000  0.707107 -0.707107 0.000000  0.000000 0.000000 0
crate06.vmt
0  -30.750000 -30.750000 17.000000  0.000000 -0.707107 -0.707107  0.000000 0.000000 0
0  30.750000 -31.000000 17.250000  0.000000 -0.707107 -0.707107  0.000000 0.000000 0
0  -30.750000 -31.000000 17.250000  0.000000 -0.707107 -0.707107  0.000000 0.000000 0
crate06.vmt
0  30.750000 -30.750000 111.000000  0.000000 -0.707107 0.707107  0.000000 0.000000 0
0  -30.750000 -31.000000 110.750000  0.000000 -0.707107 0.707107  0.000000 0.000000 0
0  30.750000 -31.000000 110.750000  0.000000 -0.707107 0.707107  0.000000 0.000000 0
crate06.vmt
0  -30.750000 30.750000 17.000000  0.000000 0.000000 -1.000000  0.000000 0.000000 0
0  30.750000 -30.750000 17.000000  0.000000 0.000000 -1.000000  0.000000 0.000000 0
0  -30.750000 -30.750000 17.000000  0.000000 0.000000 -1.000000  0.000000 0.000000 0
crate06.vmt
0  30.750000 -31.000000 17.250000  0.000000 -1.000000 0.000000  0.000000 0.000000 0
0  30.750000 -31.000000 110.750000  0.000000 -1.000000 0.000000  0.000000 0.000000 0
0  -30.750000 -31.000000 110.750000  0.000000 -1.000000 0.000000  0.000000 0.000000 0
crate06.vmt
0  31.000000 30.750000 17.250000  1.000000 0.000000 0.000000  0.000000 0.000000 0
0  31.000000 30.750000 110.750000  1.000000 0.000000 0.000000  0.000000 0.000000 0
0  31.000000 -30.750000 110.750000  1.000000 0.000000 0.000000  0.000000 0.000000 0
crate06.vmt
0  30.750000 30.750000 111.000000  0.000000 0.000000 1.000000  0.000000 0.000000 0
0  -30.750000 30.750000 111.000000  0.000000 0.000000 1.000000  0.000000 0.000000 0
0  -30.750000 -30.750000 111.000000  0.000000 0.000000 1.000000  0.000000 0.000000 0
crate06.vmt
0  -31.000000 -30.750000 17.250000  -1.000000 0.000000 0.000000  0.000000 0.000000 0
0  -31.000000 -30.750000 110.750000  -1.000000 0.000000 0.000000  0.000000 0.000000 0
0  -31.000000 30.750000 110.750000  -1.000000 0.000000 0.000000  0.000000 0.000000 0
crate06.vmt
0  -30.750000 31.000000 17.250000  0.000000 1.000000 0.000000  0.000000 0.000000 0
0  -30.750000 31.000000 110.750000  0.000000 1.000000 0.000000  0.000000 0.000000 0
0  30.750000 31.000000 110.750000  0.000000 1.000000 0.000000  0.000000 0.000000 0
crate06.vmt
0  -30.750000 30.750000 17.000000  -0.707107 0.000000 -0.707107  0.000000 0.000000 0
0  -30.750000 -30.750000 17.000000  -0.707107 0.000000 -0.707107  0.000000 0.000000 0
0  -31.000000 -30.750000 17.250000  -0.707107 0.000000 -0.707107  0.000000 0.000000 0
crate06.vmt
0  -30.750000 -31.000000 17.250000  -0.707107 -0.707107 0.000000  0.000000 0.000000 0
0  -30.750000 -31.000000 110.750000  -0.707107 -0.707107 0.000000  0.000000 0.000000 0
0  -31.000000 -30.750000 110.750000  -0.707107 -0.707107 0.000000  0.000000 0.000000 0
crate06.vmt
0  -30.750000 -30.750000 111.000000  -0.707107 0.000000 0.707107  0.000000 0.000000 0
0  -30.750000 30.750000 111.000000  -0.707107 0.000000 0.707107  0.000000 0.000000 0
0  -31.000000 30.750000 110.750000  -0.707107 0.000000 0.707107  0.000000 0.000000 0
crate06.vmt
0  -30.750000 31.000000 110.750000  -0.707107 0.707107 0.000000  0.000000 0.000000 0
0  -30.750000 31.000000 17.250000  -0.707107 0.707107 0.000000  0.000000 0.000000 0
0  -31.000000 30.750000 17.250000  -0.707107 0.707107 0.000000  0.000000 0.000000 0
crate06.vmt
0  30.750000 30.750000 17.000000  0.000000 0.707107 -0.707107  0.000000 0.000000 0
0  -30.750000 30.750000 17.000000  0.000000 0.707107 -0.707107  0.000000 0.000000 0
0  -30.750000 31.000000 17.250000  0.000000 0.707107 -0.707107  0.000000 0.000000 0
crate06.vmt
0  -30.750000 30.750000 111.000000  0.000000 0.707107 0.707107  0.000000 0.000000 0
0  30.750000 30.750000 111.000000  0.000000 0.707107 0.707107  0.000000 0.000000 0
0  30.750000 31.000000 110.750000  0.000000 0.707107 0.707107  0.000000 0.000000 0
crate06.vmt
0  31.000000 30.750000 110.750000  0.707107 0.707107 0.000000  0.000000 0.000000 0
0  31.000000 30.750000 17.250000  0.707107 0.707107 0.000000  0.000000 0.000000 0
0  30.750000 31.000000 17.250000  0.707107 0.707107 0.000000  0.000000 0.000000 0
crate06.vmt
0  30.750000 -30.750000 17.000000  0.707107 0.000000 -0.707107  0.000000 0.000000 0
0  30.750000 30.750000 17.000000  0.707107 0.000000 -0.707107  0.000000 0.000000 0
0  31.000000 30.750000 17.250000  0.707107 0.000000 -0.707107  0.000000 0.000000 0
crate06.vmt
0  30.750000 30.750000 111.000000  0.707107 0.000000 0.707107  0.000000 0.000000 0
0  30.750000 -30.750000 111.000000  0.707107 0.000000 0.707107  0.000000 0.000000 0
0  31.000000 -30.750000 110.750000  0.707107 0.000000 0.707107  0.000000 0.000000 0
crate06.vmt
0  30.750000 -31.000000 110.750000  0.707107 -0.707107 0.000000  0.000000 0.000000 0
0  30.750000 -31.000000 17.250000  0.707107 -0.707107 0.000000  0.000000 0.000000 0
0  31.000000 -30.750000 17.250000  0.707107 -0.707107 0.000000  0.000000 0.000000 0
crate06.vmt
0  -30.750000 -30.750000 17.000000  0.000000 -0.707107 -0.707107  0.000000 0.000000 0
0  30.750000 -30.750000 17.000000  0.000000 -0.707107 -0.707107  0.000000 0.000000 0
0  30.750000 -31.000000 17.250000  0.000000 -0.707107 -0.707107  0.000000 0.000000 0
crate06.vmt
0  30.750000 -30.750000 111.000000  0.000000 -0.707107 0.707107  0.000000 0.000000 0
0  -30.750000 -30.750000 111.000000  0.000000 -0.707107 0.707107  0.000000 0.000000 0
0  -30.750000 -31.000000 110.750000  0.000000 -0.707107 0.707107  0.000000 0.000000 0
crate06.vmt
0  -30.750000 30.750000 17.000000  0.000000 0.000000 -1.000000  0.000000 0.000000 0
0  30.750000 30.750000 17.000000  0.000000 0.000000 -1.000000  0.000000 0.000000 0
0  30.750000 -30.750000 17.000000  0.000000 0.000000 -1.000000  0.000000 0.000000 0
end
