version 1
nodes
0 "root" -1
end
skeleton
time 0
0 0 0 0 0 0 0
end
triangles
crate06.vmt
0  47.500000 -48.000000 0.500000  0.000000 -1.000000 0.000000  0.000000 0.000000 0
0  -47.500000 -48.000000 127.500000  0.000000 -1.000000 0.000000  0.000000 0.000000 0
0  -47.500000 -48.000000 0.500000  0.000000 -1.000000 0.000000  0.000000 0.000000 0
crate06.vmt
0  48.000000 47.500000 0.500000  1.000000 0.000000 0.000000  0.000000 0.000000 0
0  48.000000 -47.500000 127.500000  1.000000 0.000000 0.000000  0.000000 0.000000 0
0  48.000000 -47.500000 0.500000  1.000000 0.000000 0.000000  0.000000 0.000000 0
crate06.vmt
0  47.500000 47.500000 128.000000  0.000000 0.000000 1.000000  0.000000 0.000000 0
0  -47.500000 -47.500000 128.000000  0.000000 0.000000 1.000000  0.000000 0.000000 0
0  47.500000 -47.500000 128.000000  0.000000 0.000000 1.000000  0.000000 0.000000 0
crate06.vmt
0  -48.000000 -47.500000 0.500000  -1.000000 0.000000 0.000000  0.000000 0.000000 0
0  -48.000000 47.500000 127.500000  -1.000000 0.000000 0.000000  0.000000 0.000000 0
0  -48.000000 47.500000 0.500000  -1.000000 0.000000 0.000000  0.000000 0.000000 0
crate06.vmt
0  -47.500000 48.000000 0.500000  0.000000 1.000000 0.000000  0.000000 0.000000 0
0  47.500000 48.000000 127.500000  0.000000 1.000000 0.000000  0.000000 0.000000 0
0  47.500000 48.000000 0.500000  0.000000 1.000000 0.000000  0.000000 0.000000 0
crate06.vmt
0  -47.500000 -47.500000 0.000000  -0.577350 -0.577350 -0.577350  0.000000 0.000000 0
0  -47.500000 -48.000000 0.500000  -0.577350 -0.577350 -0.577350  0.000000 0.000000 0
0  -48.000000 -47.500000 0.500000  -0.577350 -0.577350 -0.577350  0.000000 0.000000 0
crate06.vmt
0  -47.500000 -48.000000 127.500000  -0.577350 -0.577350 0.577350  0.000000 0.000000 0
0  -47.500000 -47.500000 128.000000  -0.577350 -0.577350 0.577350  0.000000 0.000000 0
0  -48.000000 -47.500000 127.500000  -0.577350 -0.577350 0.577350  0.000000 0.000000 0
crate06.vmt
0  -47.500000 47.500000 0.000000  -0.577350 0.577350 -0.577350  0.000000 0.000000 0
0  -48.000000 47.500000 0.500000  -0.577350 0.577350 -0.577350  0.000000 0.000000 0
0  -47.500000 48.000000 0.500000  -0.577350 0.577350 -0.577350  0.000000 0.000000 0
crate06.vmt
0  -47.500000 47.500000 128.000000  -0.577350 0.577350 0.577350  0.000000 0.000000 0
0  -47.500000 48.000000 127.500000  -0.577350 0.577350 0.577350  0.000000 0.000000 0
0  -48.000000 47.500000 127.500000  -0.577350 0.577350 0.577350  0.000000 0.000000 0
crate06.vmt
0  47.500000 -47.500000 0.000000  0.577350 -0.577350 -0.577350  0.000000 0.000000 0
0  48.000000 -47.500000 0.500000  0.577350 -0.577350 -0.577350  0.000000 0.000000 0
0  47.500000 -48.000000 0.500000  0.577350 -0.577350 -0.577350  0.000000 0.000000 0
crate06.vmt
0  47.500000 -47.500000 128.000000  0.577350 -0.577350 0.577350  0.000000 0.000000 0
0  47.500000 -48.000000 127.500000  0.577350 -0.577350 0.577350  0.000000 0.000000 0
0  48.000000 -47.500000 127.500000  0.577350 -0.577350 0.577350  0.000000 0.000000 0
crate06.vmt
0  47.500000 47.500000 0.000000  0.577350 0.577350 -0.577350  0.000000 0.000000 0
0  47.500000 48.000000 0.500000  0.577350 0.577350 -0.577350  0.000000 0.000000 0
0  48.000000 47.500000 0.500000  0.577350 0.577350 -0.577350  0.000000 0.000000 0
crate06.vmt
0  47.500000 47.500000 128.000000  0.577350 0.577350 0.577350  0.000000 0.000000 0
0  48.000000 47.500000 127.500000  0.577350 0.577350 0.577350  0.000000 0.000000 0
0  47.500000 48.000000 127.500000  0.577350 0.577350 0.577350  0.000000 0.000000 0
crate06.vmt
0  -47.500000 47.500000 0.000000  -0.707107 0.000000 -0.707107  0.000000 0.000000 0
0  -48.000000 -47.500000 0.500000  -0.707107 0.000000 -0.707107  0.000000 0.000000 0
0  -48.000000 47.500000 0.500000  -0.707107 0.000000 -0.707107  0.000000 0.000000 0
crate06.vmt
0  -47.500000 -48.000000 0.500000  -0.707107 -0.707107 0.000000  0.000000 0.000000 0
0  -48.000000 -47.500000 127.500000  -0.707107 -0.707107 0.000000  0.000000 0.000000 0
0  -48.000000 -47.500000 0.500000  -0.707107 -0.707107 0.000000  0.000000 0.000000 0
crate06.vmt
0  -47.500000 -47.500000 128.000000  -0.707107 0.000000 0.707107  0.000000 0.000000 0
0  -48.000000 47.500000 127.500000  -0.707107 0.000000 0.707107  0.000000 0.000000 0
0  -48.000000 -47.500000 127.500000  -0.707107 0.000000 0.707107  0.000000 0.000000 0
crate06.vmt
0  -47.500000 48.000000 127.500000  -0.707107 0.707107 0.000000  0.000000 0.000000 0
0  -48.000000 47.500000 0.500000  -0.707107 0.707107 0.000000  0.000000 0.000000 0
0  -48.000000 47.500000 127.500000  -0.707107 0.707107 0.000000  0.000000 0.000000 0
crate06.vmt
0  47.500000 47.500000 0.000000  0.000000 0.707107 -0.707107  0.000000 0.000000 0
0  -47.500000 48.000000 0.500000  0.000000 0.707107 -0.707107  0.000000 0.000000 0
0  47.500000 48.000000 0.500000  0.000000 0.707107 -0.707107  0.000000 0.000000 0
crate06.vmt
0  -47.500000 47.500000 128.000000  0.000000 0.707107 0.707107  0.000000 0.000000 0
0  47.500000 48.000000 127.500000  0.000000 0.707107 0.707107  0.000000 0.000000 0
0  -47.500000 48.000000 127.500000  0.000000 0.707107 0.707107  0.000000 0.000000 0
crate06.vmt
0  48.000000 47.500000 127.500000  0.707107 0.707107 0.000000  0.000000 0.000000 0
0  47.500000 48.000000 0.500000  0.707107 0.707107 0.000000  0.000000 0.000000 0
0  47.500000 48.000000 127.500000  0.707107 0.707107 0.000000  0.000000 0.000000 0
crate06.vmt
0  47.500000 -47.500000 0.000000  0.707107 0.000000 -0.707107  0.000000 0.000000 0
0  48.000000 47.500000 0.500000  0.707107 0.000000 -0.707107  0.000000 0.000000 0
0  48.000000 -47.500000 0.500000  0.707107 0.000000 -0.707107  0.000000 0.000000 0
crate06.vmt
0  47.500000 47.500000 128.000000  0.707107 0.000000 0.707107  0.000000 0.000000 0
0  48.000000 -47.500000 127.500000  0.707107 0.000000 0.707107  0.000000 0.000000 0
0  48.000000 47.500000 127.500000  0.707107 0.000000 0.707107  0.000000 0.000000 0
crate06.vmt
0  47.500000 -48.000000 127.500000  0.707107 -0.707107 0.000000  0.000000 0.000000 0
0  48.000000 -47.500000 0.500000  0.707107 -0.707107 0.000000  0.000000 0.000000 0
0  48.000000 -47.500000 127.500000  0.707107 -0.707107 0.000000  0.000000 0.000000 0
crate06.vmt
0  -47.500000 -47.500000 0.000000  0.000000 -0.707107 -0.707107  0.000000 0.000000 0
0  47.500000 -48.000000 0.500000  0.000000 -0.707107 -0.707107  0.000000 0.000000 0
0  -47.500000 -48.000000 0.500000  0.000000 -0.707107 -0.707107  0.000000 0.000000 0
crate06.vmt
0  47.500000 -47.500000 128.000000  0.000000 -0.707107 0.707107  0.000000 0.000000 0
0  -47.500000 -48.000000 127.500000  0.000000 -0.707107 0.707107  0.000000 0.000000 0
0  47.500000 -48.000000 127.500000  0.000000 -0.707107 0.707107  0.000000 0.000000 0
crate06.vmt
0  -47.500000 47.500000 0.000000  0.000000 0.000000 -1.000000  0.000000 0.000000 0
0  47.500000 -47.500000 0.000000  0.000000 0.000000 -1.000000  0.000000 0.000000 0
0  -47.500000 -47.500000 0.000000  0.000000 0.000000 -1.000000  0.000000 0.000000 0
crate06.vmt
0  47.500000 -48.000000 0.500000  0.000000 -1.000000 0.000000  0.000000 0.000000 0
0  47.500000 -48.000000 127.500000  0.000000 -1.000000 0.000000  0.000000 0.000000 0
0  -47.500000 -48.000000 127.500000  0.000000 -1.000000 0.000000  0.000000 0.000000 0
crate06.vmt
0  48.000000 47.500000 0.500000  1.000000 0.000000 0.000000  0.000000 0.000000 0
0  48.000000 47.500000 127.500000  1.000000 0.000000 0.000000  0.000000 0.000000 0
0  48.000000 -47.500000 127.500000  1.000000 0.000000 0.000000  0.000000 0.000000 0
crate06.vmt
0  47.500000 47.500000 128.000000  0.000000 0.000000 1.000000  0.000000 0.000000 0
0  -47.500000 47.500000 128.000000  0.000000 0.000000 1.000000  0.000000 0.000000 0
0  -47.500000 -47.500000 128.000000  0.000000 0.000000 1.000000  0.000000 0.000000 0
crate06.vmt
0  -48.000000 -47.500000 0.500000  -1.000000 0.000000 0.000000  0.000000 0.000000 0
0  -48.000000 -47.500000 127.500000  -1.000000 0.000000 0.000000  0.000000 0.000000 0
0  -48.000000 47.500000 127.500000  -1.000000 0.000000 0.000000  0.000000 0.000000 0
crate06.vmt
0  -47.500000 48.000000 0.500000  0.000000 1.000000 0.000000  0.000000 0.000000 0
0  -47.500000 48.000000 127.500000  0.000000 1.000000 0.000000  0.000000 0.000000 0
0  47.500000 48.000000 127.500000  0.000000 1.000000 0.000000  0.000000 0.000000 0
crate06.vmt
0  -47.500000 47.500000 0.000000  -0.707107 0.000000 -0.707107  0.000000 0.000000 0
0  -47.500000 -47.500000 0.000000  -0.707107 0.000000 -0.707107  0.000000 0.000000 0
0  -48.000000 -47.500000 0.500000  -0.707107 0.000000 -0.707107  0.000000 0.000000 0
crate06.vmt
0  -47.500000 -48.000000 0.500000  -0.707107 -0.707107 0.000000  0.000000 0.000000 0
0  -47.500000 -48.000000 127.500000  -0.707107 -0.707107 0.000000  0.000000 0.000000 0
0  -48.000000 -47.500000 127.500000  -0.707107 -0.707107 0.000000  0.000000 0.000000 0
crate06.vmt
0  -47.500000 -47.500000 128.000000  -0.707107 0.000000 0.707107  0.000000 0.000000 0
0  -47.500000 47.500000 128.000000  -0.707107 0.000000 0.707107  0.000000 0.000000 0
0  -48.000000 47.500000 127.500000  -0.707107 0.000000 0.707107  0.000000 0.000000 0
crate06.vmt
0  -47.500000 48.000000 127.500000  -0.707107 0.707107 0.000000  0.000000 0.000000 0
0  -47.500000 48.000000 0.500000  -0.707107 0.707107 0.000000  0.000000 0.000000 0
0  -48.000000 47.500000 0.500000  -0.707107 0.707107 0.000000  0.000000 0.000000 0
crate06.vmt
0  47.500000 47.500000 0.000000  0.000000 0.707107 -0.707107  0.000000 0.000000 0
0  -47.500000 47.500000 0.000000  0.000000 0.707107 -0.707107  0.000000 0.000000 0
0  -47.500000 48.000000 0.500000  0.000000 0.707107 -0.707107  0.000000 0.000000 0
crate06.vmt
0  -47.500000 47.500000 128.000000  0.000000 0.707107 0.707107  0.000000 0.000000 0
0  47.500000 47.500000 128.000000  0.000000 0.707107 0.707107  0.000000 0.000000 0
0  47.500000 48.000000 127.500000  0.000000 0.707107 0.707107  0.000000 0.000000 0
crate06.vmt
0  48.000000 47.500000 127.500000  0.707107 0.707107 0.000000  0.000000 0.000000 0
0  48.000000 47.500000 0.500000  0.707107 0.707107 0.000000  0.000000 0.000000 0
0  47.500000 48.000000 0.500000  0.707107 0.707107 0.000000  0.000000 0.000000 0
crate06.vmt
0  47.500000 -47.500000 0.000000  0.707107 0.000000 -0.707107  0.000000 0.000000 0
0  47.500000 47.500000 0.000000  0.707107 0.000000 -0.707107  0.000000 0.000000 0
0  48.000000 47.500000 0.500000  0.707107 0.000000 -0.707107  0.000000 0.000000 0
crate06.vmt
0  47.500000 47.500000 128.000000  0.707107 0.000000 0.707107  0.000000 0.000000 0
0  47.500000 -47.500000 128.000000  0.707107 0.000000 0.707107  0.000000 0.000000 0
0  48.000000 -47.500000 127.500000  0.707107 0.000000 0.707107  0.000000 0.000000 0
crate06.vmt
0  47.500000 -48.000000 127.500000  0.707107 -0.707107 0.000000  0.000000 0.000000 0
0  47.500000 -48.000000 0.500000  0.707107 -0.707107 0.000000  0.000000 0.000000 0
0  48.000000 -47.500000 0.500000  0.707107 -0.707107 0.000000  0.000000 0.000000 0
crate06.vmt
0  -47.500000 -47.500000 0.000000  0.000000 -0.707107 -0.707107  0.000000 0.000000 0
0  47.500000 -47.500000 0.000000  0.000000 -0.707107 -0.707107  0.000000 0.000000 0
0  47.500000 -48.000000 0.500000  0.000000 -0.707107 -0.707107  0.000000 0.000000 0
crate06.vmt
0  47.500000 -47.500000 128.000000  0.000000 -0.707107 0.707107  0.000000 0.000000 0
0  -47.500000 -47.500000 128.000000  0.000000 -0.707107 0.707107  0.000000 0.000000 0
0  -47.500000 -48.000000 127.500000  0.000000 -0.707107 0.707107  0.000000 0.000000 0
crate06.vmt
0  -47.500000 47.500000 0.000000  0.000000 0.000000 -1.000000  0.000000 0.000000 0
0  47.500000 47.500000 0.000000  0.000000 0.000000 -1.000000  0.000000 0.000000 0
0  47.500000 -47.500000 0.000000  0.000000 0.000000 -1.000000  0.000000 0.000000 0
end
