version 1
nodes
0 "Hands biped" -1
1 "Bip01 Pelvis" 0
2 "Bip01 Spine" 1
3 "Bip01 Spine1" 2
4 "Bip01 Spine2" 3
5 "Bip01 Spine3" 4
6 "Bip01 Neck" 5
7 "Bip01 R Arm" 6
8 "Bip01 R Arm1" 7
9 "Bip01 R Arm2" 8
10 "Bip01 R Hand" 9
11 "Dummy22" 10
12 "Dummy23" 11
13 "Bone03" 12
14 "Bone04" 13
15 "Bip01 R Finger0" 10
16 "Bip01 R Finger01" 15
17 "Bip01 R Finger02" 16
18 "Bip01 R Finger1" 10
19 "Bip01 R Finger11" 18
20 "Bip01 R Finger12" 19
21 "Bip01 R Finger2" 10
22 "Bip01 R Finger21" 21
23 "Bip01 R Finger22" 22
24 "Bip01 R Finger3" 10
25 "Bip01 R Finger31" 24
26 "Bip01 R Finger32" 25
27 "Bip01 R Finger4" 10
28 "Bip01 R Finger41" 27
29 "Bip01 R Finger42" 28
30 "Bip01 L Arm" 6
31 "Bip01 L Arm1" 30
32 "Bip01 L Arm2" 31
33 "Bip01 L Hand" 32
34 "Bip01 L Finger0" 33
35 "Bip01 L Finger01" 34
36 "Bip01 L Finger02" 35
37 "Bip01 L Finger1" 33
38 "Bip01 L Finger11" 37
39 "Bip01 L Finger12" 38
40 "Bip01 L Finger2" 33
41 "Bip01 L Finger21" 40
42 "Bip01 L Finger22" 41
43 "Bip01 L Finger3" 33
44 "Bip01 L Finger31" 43
45 "Bip01 L Finger32" 44
46 "Bip01 L Finger4" 33
47 "Bip01 L Finger41" 46
48 "Bip01 L Finger42" 47
end
skeleton
time 0
0  0.001747 1.140660 -24.602341  0.000000 -0.000000 -1.570795
1  0.000000 0.000000 0.000000  -1.570795 -1.570796 0.000000
2  1.326319 -0.003921 0.000002  -0.000004 -0.000001 0.000796
3  4.926314 -0.003923 0.000000  -0.000000 -0.000000 -0.000000
4  4.926314 -0.003923 0.000000  0.000000 -0.000000 -0.000000
5  4.926313 -0.003923 -0.000000  0.000000 0.000000 0.000000
6  4.926317 -0.001509 0.000000  -0.000000 -0.000000 0.000000
7  0.000005 0.001514 -1.894737  -3.140802 1.570796 0.000000
8  4.926315 -0.000000 -0.000003  0.980725 -1.257964 -0.988462
9  11.368420 -0.000001 0.000001  -0.000000 0.000000 -2.076067
10  11.368422 -0.000003 -0.000000  2.268475 -0.541690 0.150298
11  3.671039 0.965988 0.311103  -0.025353 -0.035788 1.366916
12  0.468040 0.919405 2.661569  0.000000 -0.000000 0.000000
13  -0.492028 -0.160313 0.005987  0.000000 0.000000 0.000000
14  0.383204 0.108200 -0.000003  -0.000000 0.000000 -0.000000
15  1.126230 0.104085 1.358367  -2.375012 -1.083006 0.431352
16  2.373623 0.000001 0.000000  0.000000 -0.000000 0.941975
17  1.071900 -0.000002 -0.000000  0.000000 0.000000 0.418664
18  3.789472 -0.000901 1.136842  -0.098283 -0.272467 0.674683
19  1.136841 -0.000002 0.000000  0.000000 -0.000000 0.279109
20  1.136842 -0.000001 0.000000  -0.000000 0.000000 1.360626
21  3.789477 -0.000302 0.378947  -0.047833 -0.176006 0.661027
22  1.326315 0.000002 -0.000000  -0.000000 0.000000 0.279109
23  1.326316 -0.000001 -0.000001  0.000000 0.000000 1.369348
24  3.789473 0.000303 -0.378951  0.000638 -0.000482 0.654152
25  1.136843 0.000001 0.000001  -0.000000 0.000000 0.218048
26  1.136842 -0.000003 -0.000002  -0.000000 -0.000000 1.308294
27  3.789475 0.000907 -1.136845  0.105744 0.104131 0.790554
28  0.947369 -0.000002 0.000001  -0.000000 0.000000 0.279109
29  0.947369 0.000000 0.000004  -0.000000 -0.000000 0.837308
30  0.000005 0.001503 1.894737  -0.000014 -1.370797 3.140810
31  4.926316 -0.000000 -0.000000  0.532992 -0.345433 -0.318643
32  11.368428 -0.000001 -0.000001  0.000000 -0.000000 -2.197920
33  11.368424 0.000001 0.000001  -1.632107 0.145731 0.200311
34  1.126228 0.104084 -1.358368  2.108810 0.482283 0.315517
35  2.373625 0.000002 0.000001  -0.000000 -0.000000 0.113389
36  1.071902 0.000000 -0.000001  -0.000000 -0.000000 0.017444
37  3.789473 -0.000906 -1.136843  0.055881 0.146797 0.370362
38  1.136843 0.000000 -0.000000  -0.000000 -0.000000 0.200610
39  1.136845 -0.000001 0.000000  0.000000 0.000000 0.540767
40  3.789471 -0.000303 -0.378947  0.069546 0.099209 0.719069
41  1.326320 -0.000002 0.000002  0.000000 0.000000 -0.104663
42  1.326317 -0.000001 0.000001  -0.000000 -0.000000 0.924547
43  3.789474 0.000302 0.378945  -0.007937 0.043302 0.383580
44  1.136842 0.000003 0.000002  0.000000 -0.000000 0.357607
45  1.136843 0.000002 0.000001  0.000000 -0.000000 0.915825
46  3.789475 0.000903 1.136840  -0.063510 -0.094184 0.385109
47  0.947366 0.000000 -0.000001  0.000000 -0.000000 0.950693
48  0.947367 -0.000004 -0.000000  0.000000 -0.000000 0.069770
time 1
0  0.001747 1.140660 -24.602341  0.000000 -0.000000 -1.570795
1  0.000000 0.000000 0.000000  -1.570795 -1.570796 0.000000
2  1.326319 -0.003921 0.000002  -0.000004 -0.000001 0.000796
3  4.926314 -0.003923 0.000000  -0.000000 -0.000000 -0.000000
4  4.926314 -0.003923 0.000000  0.000000 -0.000000 -0.000000
5  4.926313 -0.003923 -0.000000  0.000000 0.000000 0.000000
6  4.926317 -0.001509 0.000000  -0.000000 -0.000000 0.000000
7  0.000005 0.001514 -1.894737  -3.140802 1.570796 0.000000
8  4.926315 -0.000000 -0.000003  1.003193 -1.255561 -1.027871
9  11.368421 -0.000001 0.000003  -0.000000 0.000000 -2.077649
10  11.368423 -0.000001 -0.000001  2.221296 -0.487707 0.200426
11  3.671039 0.965989 0.311103  -0.025353 -0.035788 1.366916
12  0.468040 0.919405 2.661569  -0.000000 -0.000000 0.000000
13  -0.492027 -0.160312 0.005988  0.000000 0.000000 0.000000
14  0.383204 0.108200 -0.000002  -0.002050 -0.058149 -0.025363
15  1.126229 0.104086 1.358367  -2.375012 -1.083006 0.431352
16  2.373624 0.000000 0.000000  -0.000000 0.000000 0.941975
17  1.071901 -0.000002 0.000000  -0.000000 0.000000 0.418664
18  3.789473 -0.000902 1.136842  -0.098283 -0.272467 0.674683
19  1.136841 0.000000 -0.000000  0.000000 -0.000000 0.279109
20  1.136842 -0.000001 -0.000001  -0.000000 0.000000 1.360626
21  3.789476 -0.000300 0.378947  -0.047833 -0.176006 0.661027
22  1.326315 0.000001 -0.000001  -0.000000 0.000000 0.279109
23  1.326317 -0.000000 -0.000000  0.000000 -0.000000 1.369348
24  3.789474 0.000303 -0.378952  0.000638 -0.000482 0.654152
25  1.136843 0.000001 0.000001  -0.000000 -0.000000 0.218048
26  1.136842 -0.000003 -0.000002  -0.000000 -0.000000 1.308294
27  3.789474 0.000907 -1.136844  0.105744 0.104131 0.790554
28  0.947370 -0.000001 0.000002  -0.000000 0.000000 0.279109
29  0.947370 -0.000000 0.000004  -0.000000 -0.000000 0.837308
30  0.000005 0.001503 1.894737  -0.000014 -1.370797 3.140810
31  4.926316 -0.000000 -0.000000  0.394830 -0.370367 -0.124555
32  11.368430 -0.000001 -0.000000  0.000000 -0.000000 -2.184982
33  11.368427 0.000002 0.000001  -1.631991 0.082238 0.200806
34  1.126229 0.104083 -1.358369  2.108161 0.482323 0.315535
35  2.373625 0.000002 0.000001  -0.000000 0.000000 0.113796
36  1.071902 0.000001 -0.000000  -0.000000 -0.000000 0.017444
37  3.789473 -0.000906 -1.136845  0.054637 0.148459 0.361517
38  1.136841 0.000000 0.000001  -0.000000 -0.000000 0.200610
39  1.136847 -0.000001 -0.000000  0.000000 -0.000000 0.540767
40  3.789472 -0.000303 -0.378946  0.069785 0.099086 0.721006
41  1.326322 -0.000001 -0.000000  0.000000 0.000000 0.117268
42  1.326317 -0.000002 0.000001  0.000000 0.000000 1.007766
43  3.789474 0.000301 0.378944  -0.004366 0.042881 0.466879
44  1.136842 0.000000 0.000001  0.000000 -0.000000 0.440832
45  1.136841 0.000002 0.000000  -0.000000 -0.000000 0.999044
46  3.789476 0.000903 1.136840  -0.071186 -0.089513 0.468549
47  0.947366 -0.000000 -0.000001  0.000000 -0.000000 0.974820
48  0.947367 -0.000002 -0.000001  0.000000 0.000000 0.152993
time 2
0  0.001747 1.140660 -24.602341  0.000000 -0.000000 -1.570795
1  0.000000 0.000000 0.000000  -1.570795 -1.570796 0.000000
2  1.326319 -0.003921 0.000002  -0.000004 -0.000001 0.000796
3  4.926314 -0.003923 0.000000  -0.000000 -0.000000 -0.000000
4  4.926314 -0.003923 0.000000  0.000000 -0.000000 -0.000000
5  4.926313 -0.003923 -0.000000  0.000000 0.000000 0.000000
6  4.926317 -0.001509 0.000000  -0.000000 -0.000000 0.000000
7  0.000005 0.001514 -1.894737  -3.140802 1.570796 0.000000
8  4.926315 -0.000000 -0.000003  1.061629 -1.246992 -1.134198
9  11.368422 -0.000001 0.000002  0.000000 0.000000 -2.081789
10  11.368422 -0.000002 -0.000001  2.114220 -0.342281 0.319357
11  3.671039 0.965987 0.311104  -0.025353 -0.035788 1.366916
12  0.468039 0.919404 2.661568  -0.000000 -0.000000 0.000000
13  -0.492028 -0.160312 0.005989  0.000000 0.000000 0.000000
14  0.383203 0.108201 -0.000002  -0.007413 -0.210250 -0.091706
15  1.126229 0.104085 1.358368  -2.375012 -1.083006 0.431352
16  2.373624 -0.000001 0.000001  -0.000000 -0.000000 0.941975
17  1.071901 -0.000002 -0.000001  -0.000000 0.000000 0.418664
18  3.789473 -0.000904 1.136842  -0.098283 -0.272467 0.674683
19  1.136842 -0.000002 -0.000000  -0.000000 -0.000000 0.279109
20  1.136842 -0.000000 0.000000  -0.000000 0.000000 1.360626
21  3.789476 -0.000302 0.378947  -0.047833 -0.176006 0.661027
22  1.326316 0.000002 -0.000001  -0.000000 0.000000 0.279109
23  1.326316 0.000002 -0.000000  0.000000 -0.000000 1.369348
24  3.789473 0.000302 -0.378952  0.000638 -0.000482 0.654152
25  1.136843 0.000000 0.000001  -0.000000 -0.000000 0.218048
26  1.136842 -0.000003 -0.000002  0.000000 -0.000000 1.308294
27  3.789474 0.000905 -1.136844  0.105744 0.104131 0.790554
28  0.947369 -0.000000 0.000001  -0.000000 0.000000 0.279109
29  0.947369 0.000000 0.000004  0.000000 -0.000000 0.837308
30  0.000005 0.001503 1.894737  -0.000014 -1.370797 3.140810
31  4.926316 -0.000000 -0.000000  0.145631 0.006377 0.019329
32  11.368427 -0.000001 0.000000  0.000000 -0.000000 -2.148836
33  11.368426 0.000000 0.000001  -1.623662 -0.085221 0.208574
34  1.126229 0.104083 -1.358368  2.102349 0.482427 0.315581
35  2.373625 0.000001 0.000001  -0.000000 0.000000 0.117380
36  1.071901 0.000000 -0.000000  -0.000000 -0.000000 0.017444
37  3.789473 -0.000906 -1.136844  0.051067 0.159843 0.336342
38  1.136841 -0.000001 0.000000  -0.000000 0.000000 0.200610
39  1.136846 -0.000001 0.000000  0.000000 -0.000000 0.540767
40  3.789472 -0.000302 -0.378947  0.071061 0.098252 0.733070
41  1.326322 -0.000002 -0.000002  0.000000 0.000000 0.697780
42  1.326318 -0.000001 -0.000001  0.000000 0.000000 1.225445
43  3.789474 0.000301 0.378944  0.004997 0.041767 0.684768
44  1.136843 0.000001 0.000004  0.000000 -0.000000 0.658526
45  1.136843 0.000002 0.000002  -0.000001 -0.000000 1.216723
46  3.789476 0.000904 1.136840  -0.088834 -0.073088 0.686341
47  0.947365 0.000001 -0.000001  0.000000 0.000000 1.037930
48  0.947368 -0.000004 0.000000  0.000000 0.000001 0.370681
time 3
0  0.001747 1.140660 -24.602341  0.000000 -0.000000 -1.570795
1  0.000000 0.000000 0.000000  -1.570795 -1.570796 0.000000
2  1.326319 -0.003921 0.000002  -0.000004 -0.000001 0.000796
3  4.926314 -0.003923 0.000000  -0.000000 -0.000000 -0.000000
4  4.926314 -0.003923 0.000000  0.000000 -0.000000 -0.000000
5  4.926313 -0.003923 -0.000000  0.000000 0.000000 0.000000
6  4.926317 -0.001509 0.000000  -0.000000 -0.000000 0.000000
7  0.000005 0.001514 -1.894737  -3.140802 1.570796 0.000000
8  4.926315 -0.000000 -0.000003  1.120958 -1.234155 -1.250784
9  11.368420 -0.000001 0.000001  -0.000000 0.000000 -2.085928
10  11.368422 -0.000000 -0.000001  2.026710 -0.192808 0.426319
11  3.671038 0.965987 0.311104  -0.025353 -0.035788 1.366916
12  0.468039 0.919405 2.661570  -0.000000 -0.000000 0.000000
13  -0.492028 -0.160313 0.005989  0.000000 0.000000 0.000000
14  0.383203 0.108201 -0.000002  -0.012775 -0.362351 -0.158049
15  1.126228 0.104084 1.358368  -2.375012 -1.083006 0.431352
16  2.373624 -0.000001 -0.000000  -0.000000 -0.000000 0.941975
17  1.071900 -0.000004 -0.000001  -0.000000 0.000000 0.418664
18  3.789473 -0.000904 1.136842  -0.098283 -0.272467 0.674683
19  1.136840 0.000001 -0.000001  -0.000000 -0.000000 0.279109
20  1.136842 -0.000001 -0.000000  -0.000000 0.000000 1.360626
21  3.789475 -0.000302 0.378948  -0.047833 -0.176006 0.661027
22  1.326315 0.000002 -0.000000  0.000000 0.000000 0.279109
23  1.326316 -0.000001 -0.000000  0.000000 -0.000000 1.369348
24  3.789473 0.000302 -0.378951  0.000638 -0.000482 0.654152
25  1.136843 0.000001 0.000001  -0.000000 -0.000000 0.218048
26  1.136843 -0.000001 -0.000001  -0.000000 -0.000000 1.308294
27  3.789473 0.000905 -1.136844  0.105744 0.104131 0.790554
28  0.947369 0.000000 0.000001  -0.000000 0.000000 0.279109
29  0.947369 0.000000 0.000003  0.000000 -0.000000 0.837308
30  0.000005 0.001503 1.894737  -0.000014 -1.370797 3.140810
31  4.926316 -0.000000 -0.000000  -0.032837 0.196596 -0.582833
32  11.368429 0.000000 -0.000000  0.000000 -0.000000 -2.106480
33  11.368426 -0.000000 0.000002  -1.596461 -0.255981 0.230047
34  1.126229 0.104084 -1.358368  2.085432 0.482532 0.315629
35  2.373625 0.000002 0.000001  -0.000000 0.000000 0.127757
36  1.071902 0.000001 -0.000001  -0.000000 -0.000000 0.017444
37  3.789474 -0.000906 -1.136842  0.046654 0.190241 0.305537
38  1.136841 -0.000001 -0.000001  0.000000 -0.000000 0.200610
39  1.136846 -0.000000 -0.000000  0.000000 0.000000 0.540767
40  3.789472 -0.000302 -0.378947  0.074061 0.096005 0.764002
41  1.326321 -0.000001 -0.000001  0.000000 0.000000 1.278291
42  1.326318 -0.000001 -0.000000  0.000000 -0.000000 1.443124
43  3.789474 0.000301 0.378945  0.014389 0.040629 0.902658
44  1.136842 0.000002 0.000001  0.000000 -0.000000 0.876220
45  1.136842 0.000001 -0.000001  -0.000000 -0.000000 1.434402
46  3.789476 0.000904 1.136841  -0.101991 -0.051292 0.903372
47  0.947366 -0.000001 -0.000000  0.000000 -0.000000 1.101040
48  0.947369 -0.000002 -0.000001  0.000000 0.000000 0.588369
time 4
0  0.001747 1.140660 -24.602341  0.000000 -0.000000 -1.570795
1  0.000000 0.000000 0.000000  -1.570795 -1.570796 0.000000
2  1.326319 -0.003921 0.000002  -0.000004 -0.000001 0.000796
3  4.926314 -0.003923 0.000000  -0.000000 -0.000000 -0.000000
4  4.926314 -0.003923 0.000000  0.000000 -0.000000 -0.000000
5  4.926313 -0.003923 -0.000000  0.000000 0.000000 0.000000
6  4.926317 -0.001509 0.000000  -0.000000 -0.000000 0.000000
7  0.000005 0.001514 -1.894737  -3.140802 1.570796 0.000000
8  4.926315 -0.000000 -0.000003  1.155159 -1.225374 -1.324742
9  11.368420 -0.000001 0.000002  -0.000000 0.000000 -2.087510
10  11.368422 -0.000002 -0.000001  1.997695 -0.135026 0.465296
11  3.671039 0.965988 0.311104  -0.025353 -0.035788 1.366916
12  0.468039 0.919406 2.661569  0.000000 -0.000000 0.000000
13  -0.492027 -0.160310 0.005988  0.000000 0.000000 0.000000
14  0.383203 0.108200 -0.000002  -0.014825 -0.420500 -0.183412
15  1.126229 0.104085 1.358368  -2.375012 -1.083006 0.431352
16  2.373624 0.000000 0.000001  -0.000000 -0.000000 0.941975
17  1.071899 -0.000003 -0.000001  -0.000000 0.000000 0.418664
18  3.789473 -0.000903 1.136842  -0.098283 -0.272467 0.674683
19  1.136842 0.000000 -0.000000  0.000000 -0.000000 0.279109
20  1.136842 -0.000002 -0.000000  -0.000000 0.000000 1.360626
21  3.789477 -0.000302 0.378948  -0.047833 -0.176006 0.661027
22  1.326314 0.000002 -0.000001  -0.000000 0.000000 0.279109
23  1.326316 0.000000 -0.000000  0.000000 -0.000000 1.369348
24  3.789474 0.000302 -0.378951  0.000638 -0.000482 0.654152
25  1.136842 0.000000 0.000001  -0.000000 -0.000000 0.218048
26  1.136843 -0.000003 -0.000002  -0.000000 -0.000000 1.308294
27  3.789474 0.000906 -1.136844  0.105744 0.104131 0.790554
28  0.947370 -0.000002 0.000002  -0.000000 0.000000 0.279109
29  0.947369 0.000002 0.000003  0.000000 -0.000000 0.837308
30  0.000005 0.001503 1.894737  -0.000014 -1.370797 3.140810
31  4.926316 -0.000000 -0.000000  -0.033419 0.037021 -0.904113
32  11.368427 -0.000000 0.000000  0.000000 -0.000000 -2.077864
33  11.368423 0.000001 0.000002  -1.544486 -0.328430 0.255823
34  1.126228 0.104083 -1.358369  2.056749 0.482571 0.315649
35  2.373625 0.000001 -0.000000  -0.000000 -0.000000 0.145316
36  1.071902 -0.000000 -0.000001  0.000000 -0.000000 0.017444
37  3.789473 -0.000906 -1.136844  0.043369 0.240012 0.282412
38  1.136842 -0.000001 0.000002  -0.000000 -0.000000 0.200610
39  1.136845 -0.000000 0.000000  0.000000 0.000000 0.540767
40  3.789472 -0.000302 -0.378947  0.078576 0.092234 0.813558
41  1.326321 -0.000002 -0.000000  0.000000 0.000000 1.500222
42  1.326317 -0.000002 0.000000  -0.000000 -0.000000 1.526343
43  3.789474 0.000301 0.378944  0.017986 0.040186 0.985958
44  1.136842 0.000001 0.000001  -0.000000 0.000000 0.959445
45  1.136842 0.000001 0.000001  -0.000000 -0.000000 1.517621
46  3.789476 0.000904 1.136839  -0.105612 -0.041763 0.986145
47  0.947366 0.000000 0.000000  0.000000 0.000000 1.125167
48  0.947368 -0.000003 -0.000001  -0.000000 -0.000000 0.671591
time 5
0  0.001747 1.140660 -24.602341  0.000000 -0.000000 -1.570795
1  0.000000 0.000000 0.000000  -1.570795 -1.570796 0.000000
2  1.326319 -0.003921 0.000002  -0.000004 -0.000001 0.000796
3  4.926314 -0.003923 0.000000  -0.000000 -0.000000 -0.000000
4  4.926314 -0.003923 0.000000  0.000000 -0.000000 -0.000000
5  4.926313 -0.003923 -0.000000  0.000000 0.000000 0.000000
6  4.926317 -0.001509 0.000000  -0.000000 -0.000000 0.000000
7  0.000005 0.001514 -1.894737  -3.140802 1.570796 0.000000
8  4.926315 -0.000000 -0.000003  1.173644 -1.221514 -1.366778
9  11.368420 -0.000001 0.000002  -0.000000 0.000000 -2.086477
10  11.368423 -0.000001 -0.000000  2.010014 -0.138055 0.463770
11  3.671039 0.965987 0.311104  -0.025353 -0.035788 1.366916
12  0.468040 0.919406 2.661569  -0.000000 -0.000000 0.000000
13  -0.492027 -0.160310 0.005988  0.000000 0.000000 0.000000
14  0.383203 0.108201 -0.000001  -0.012900 -0.375548 -0.163850
15  1.126228 0.104085 1.358368  -2.375012 -1.083006 0.431352
16  2.373624 0.000000 0.000001  -0.000000 -0.000000 0.941975
17  1.071901 -0.000003 -0.000000  0.000000 0.000000 0.418664
18  3.789473 -0.000903 1.136842  -0.098283 -0.272467 0.674683
19  1.136841 -0.000000 -0.000000  -0.000000 -0.000000 0.279109
20  1.136842 -0.000001 0.000000  0.000000 0.000000 1.360626
21  3.789477 -0.000302 0.378947  -0.047833 -0.176006 0.661027
22  1.326315 0.000001 -0.000001  0.000000 0.000000 0.279109
23  1.326316 0.000000 -0.000001  0.000000 -0.000000 1.369348
24  3.789473 0.000302 -0.378951  0.000638 -0.000482 0.654152
25  1.136843 0.000000 0.000000  -0.000000 -0.000000 0.218048
26  1.136843 -0.000002 -0.000002  0.000000 -0.000000 1.308294
27  3.789473 0.000906 -1.136844  0.105744 0.104131 0.790554
28  0.947368 0.000000 0.000001  -0.000000 0.000000 0.279109
29  0.947369 -0.000000 0.000004  -0.000000 -0.000000 0.837308
30  0.000005 0.001503 1.894737  -0.000014 -1.370797 3.140810
31  4.926316 -0.000000 -0.000000  -0.035482 0.017222 -0.938070
32  11.368427 -0.000001 0.000000  0.000000 -0.000000 -2.061777
33  11.368425 0.000000 0.000002  -1.450462 -0.337407 0.282753
34  1.126228 0.104084 -1.358368  2.003966 0.482513 0.315632
35  2.373625 0.000001 0.000001  -0.000000 0.000000 0.174974
36  1.071902 0.000001 -0.000001  -0.000000 -0.000000 0.018107
37  3.789473 -0.000906 -1.136842  0.037245 0.327631 0.264717
38  1.136841 -0.000001 -0.000000  0.000000 -0.000000 0.218248
39  1.136845 -0.000000 0.000000  0.000000 0.000000 0.541968
40  3.789471 -0.000302 -0.378946  0.085935 0.084992 0.899702
41  1.326321 -0.000002 -0.000001  0.000000 -0.000000 1.500222
42  1.326317 -0.000002 0.000001  -0.000000 -0.000000 1.526343
43  3.789473 0.000301 0.378946  0.017986 0.040186 0.985954
44  1.136842 0.000002 0.000001  -0.000000 -0.000000 0.959445
45  1.136842 0.000002 0.000001  -0.000000 -0.000000 1.517621
46  3.789475 0.000905 1.136841  -0.105612 -0.041763 0.986145
47  0.947367 0.000000 0.000000  0.000000 0.000000 1.125167
48  0.947368 -0.000003 -0.000002  0.000000 -0.000000 0.671591
time 6
0  0.001747 1.140660 -24.602341  0.000000 -0.000000 -1.570795
1  0.000000 0.000000 0.000000  -1.570795 -1.570796 0.000000
2  1.326319 -0.003921 0.000002  -0.000004 -0.000001 0.000796
3  4.926314 -0.003923 0.000000  -0.000000 -0.000000 -0.000000
4  4.926314 -0.003923 0.000000  0.000000 -0.000000 -0.000000
5  4.926313 -0.003923 -0.000000  0.000000 0.000000 0.000000
6  4.926317 -0.001509 0.000000  -0.000000 -0.000000 0.000000
7  0.000005 0.001514 -1.894737  -3.140802 1.570796 0.000000
8  4.926315 -0.000000 -0.000003  1.186529 -1.219447 -1.395301
9  11.368421 -0.000001 0.000002  -0.000000 0.000000 -2.083698
10  11.368420 0.000000 -0.000001  2.044652 -0.146443 0.459456
11  3.671038 0.965988 0.311104  -0.025353 -0.035788 1.366916
12  0.468039 0.919405 2.661568  -0.000000 -0.000000 0.000000
13  -0.492028 -0.160311 0.005988  0.000000 0.000000 0.000000
14  0.383202 0.108201 -0.000001  -0.007865 -0.257966 -0.112681
15  1.126229 0.104085 1.358368  -2.375012 -1.083006 0.431352
16  2.373624 0.000001 0.000000  -0.000000 0.000000 0.941975
17  1.071901 -0.000002 -0.000001  -0.000000 0.000000 0.418664
18  3.789473 -0.000903 1.136842  -0.098283 -0.272467 0.674683
19  1.136841 -0.000001 -0.000001  0.000000 -0.000000 0.279109
20  1.136842 -0.000001 -0.000000  -0.000000 -0.000000 1.360626
21  3.789477 -0.000301 0.378947  -0.047833 -0.176006 0.661027
22  1.326315 0.000002 -0.000001  -0.000000 0.000000 0.279109
23  1.326316 0.000001 0.000000  0.000000 0.000000 1.369348
24  3.789473 0.000303 -0.378951  0.000638 -0.000482 0.654152
25  1.136844 0.000000 0.000001  -0.000000 -0.000000 0.218048
26  1.136843 -0.000003 -0.000002  -0.000000 -0.000000 1.308294
27  3.789474 0.000906 -1.136844  0.105744 0.104131 0.790554
28  0.947369 -0.000000 0.000002  -0.000000 0.000000 0.279109
29  0.947369 -0.000000 0.000003  -0.000000 -0.000000 0.837308
30  0.000005 0.001503 1.894737  -0.000014 -1.370797 3.140810
31  4.926316 -0.000000 -0.000000  -0.033520 0.008203 -0.955898
32  11.368428 -0.000000 0.000000  0.000000 -0.000000 -2.052194
33  11.368424 0.000002 0.000001  -1.319903 -0.340738 0.316814
34  1.126229 0.104084 -1.358368  1.923878 0.482013 0.315470
35  2.373625 0.000002 0.000000  -0.000000 0.000000 0.219438
36  1.071903 0.000001 -0.000001  -0.000000 -0.000000 0.023940
37  3.789474 -0.000905 -1.136843  0.025653 0.456947 0.247952
38  1.136841 -0.000001 -0.000000  0.000000 -0.000000 0.264386
39  1.136846 -0.000001 -0.000001  0.000000 0.000000 0.552535
40  3.789472 -0.000301 -0.378946  0.095856 0.073299 1.026251
41  1.326321 -0.000001 -0.000001  0.000000 0.000000 1.500222
42  1.326318 -0.000002 -0.000001  -0.000000 -0.000000 1.526343
43  3.789474 0.000302 0.378946  0.017986 0.040186 0.985944
44  1.136842 0.000002 0.000002  -0.000000 -0.000000 0.959445
45  1.136842 0.000002 0.000000  -0.000000 0.000000 1.517621
46  3.789475 0.000905 1.136840  -0.105612 -0.041763 0.986145
47  0.947365 -0.000000 -0.000000  0.000000 0.000000 1.125167
48  0.947368 -0.000003 -0.000001  -0.000000 0.000000 0.671591
time 7
0  0.001747 1.140660 -24.602341  0.000000 -0.000000 -1.570795
1  0.000000 0.000000 0.000000  -1.570795 -1.570796 0.000000
2  1.326319 -0.003921 0.000002  -0.000004 -0.000001 0.000796
3  4.926314 -0.003923 0.000000  -0.000000 -0.000000 -0.000000
4  4.926314 -0.003923 0.000000  0.000000 -0.000000 -0.000000
5  4.926313 -0.003923 -0.000000  0.000000 0.000000 0.000000
6  4.926317 -0.001509 0.000000  -0.000000 -0.000000 0.000000
7  0.000005 0.001514 -1.894737  -3.140802 1.570796 0.000000
8  4.926315 -0.000000 -0.000003  1.193648 -1.218976 -1.410094
9  11.368420 -0.000000 0.000002  0.000000 -0.000000 -2.080706
10  11.368422 0.000000 -0.000000  2.085803 -0.156085 0.454278
11  3.671038 0.965988 0.311104  -0.025353 -0.035788 1.366916
12  0.468039 0.919404 2.661568  -0.000000 -0.000000 0.000000
13  -0.492027 -0.160311 0.005988  -0.000000 -0.000000 0.000000
14  0.383203 0.108201 -0.000001  -0.002830 -0.140385 -0.061512
15  1.126229 0.104084 1.358368  -2.375012 -1.083006 0.431352
16  2.373623 -0.000000 0.000001  -0.000000 0.000000 0.941975
17  1.071901 -0.000002 -0.000001  -0.000000 0.000000 0.418664
18  3.789473 -0.000903 1.136842  -0.098283 -0.272467 0.674683
19  1.136842 0.000000 -0.000000  -0.000000 -0.000000 0.279109
20  1.136842 -0.000001 0.000000  -0.000000 0.000000 1.360626
21  3.789477 -0.000302 0.378947  -0.047833 -0.176006 0.661027
22  1.326315 0.000002 0.000000  -0.000000 0.000000 0.279109
23  1.326317 -0.000000 0.000000  0.000000 -0.000000 1.369348
24  3.789473 0.000303 -0.378951  0.000638 -0.000482 0.654152
25  1.136843 -0.000001 0.000001  -0.000000 -0.000000 0.218048
26  1.136843 -0.000004 -0.000002  0.000000 -0.000000 1.308294
27  3.789474 0.000906 -1.136844  0.105744 0.104131 0.790554
28  0.947370 0.000000 0.000001  -0.000000 0.000000 0.279109
29  0.947369 0.000001 0.000004  0.000000 -0.000000 0.837308
30  0.000005 0.001503 1.894737  -0.000014 -1.370797 3.140810
31  4.926316 -0.000000 -0.000000  -0.033459 0.004095 -0.962639
32  11.368429 -0.000001 -0.000000  -0.000000 -0.000000 -2.048822
33  11.368426 -0.000000 0.000001  -1.214452 -0.339009 0.353513
34  1.126229 0.104084 -1.358367  1.854548 0.480565 0.315001
35  2.373625 0.000001 0.000000  -0.000000 0.000000 0.263686
36  1.071902 0.000000 0.000000  -0.000000 -0.000000 0.040833
37  3.789473 -0.000906 -1.136842  0.015242 0.567174 0.236885
38  1.136841 -0.000001 -0.000000  0.000000 -0.000000 0.310524
39  1.136846 -0.000000 0.000001  0.000000 0.000000 0.583138
40  3.789472 -0.000302 -0.378945  0.103436 0.062688 1.133844
41  1.326321 -0.000002 -0.000001  0.000000 0.000000 1.500222
42  1.326317 -0.000002 0.000000  0.000000 -0.000000 1.526343
43  3.789473 0.000301 0.378944  0.017986 0.040186 0.985934
44  1.136843 0.000002 0.000002  -0.000000 -0.000000 0.959445
45  1.136842 0.000001 0.000002  -0.000000 0.000000 1.517621
46  3.789475 0.000904 1.136840  -0.105612 -0.041763 0.986145
47  0.947367 -0.000000 0.000000  0.000000 0.000000 1.125167
48  0.947368 -0.000003 -0.000001  -0.000000 -0.000000 0.671591
time 8
0  0.001747 1.140660 -24.602341  0.000000 -0.000000 -1.570795
1  0.000000 0.000000 0.000000  -1.570795 -1.570796 0.000000
2  1.326319 -0.003921 0.000002  -0.000004 -0.000001 0.000796
3  4.926314 -0.003923 0.000000  -0.000000 -0.000000 -0.000000
4  4.926314 -0.003923 0.000000  0.000000 -0.000000 -0.000000
5  4.926313 -0.003923 -0.000000  0.000000 0.000000 0.000000
6  4.926317 -0.001509 0.000000  -0.000000 -0.000000 0.000000
7  0.000005 0.001514 -1.894737  -3.140802 1.570796 0.000000
8  4.926315 -0.000000 -0.000003  1.196945 -1.218874 -1.416894
9  11.368420 -0.000001 0.000002  0.000000 0.000000 -2.079140
10  11.368419 -0.000002 -0.000000  2.114528 -0.162284 0.450583
11  3.671041 0.965985 0.311104  -0.025353 -0.035788 1.366916
12  0.468039 0.919404 2.661569  -0.000000 -0.000000 -0.000000
13  -0.492028 -0.160313 0.005988  0.000000 0.000000 0.000000
14  0.383202 0.108201 -0.000002  -0.000905 -0.095433 -0.041950
15  1.126232 0.104081 1.358368  -2.375012 -1.083006 0.431352
16  2.373624 -0.000001 0.000001  -0.000000 -0.000000 0.941975
17  1.071899 -0.000003 -0.000001  -0.000000 0.000000 0.418664
18  3.789474 -0.000906 1.136842  -0.098283 -0.272467 0.674683
19  1.136841 -0.000001 -0.000000  -0.000000 -0.000000 0.279109
20  1.136842 -0.000001 0.000000  -0.000000 -0.000000 1.360626
21  3.789478 -0.000304 0.378947  -0.047833 -0.176006 0.661027
22  1.326316 0.000001 -0.000000  0.000000 -0.000000 0.279109
23  1.326316 0.000001 -0.000000  0.000000 -0.000000 1.369348
24  3.789475 0.000300 -0.378951  0.000638 -0.000482 0.654152
25  1.136843 0.000001 0.000001  -0.000000 -0.000000 0.218048
26  1.136843 -0.000004 -0.000002  -0.000000 -0.000000 1.308294
27  3.789476 0.000903 -1.136844  0.105744 0.104131 0.790554
28  0.947369 -0.000001 0.000002  -0.000000 0.000000 0.279109
29  0.947369 -0.000000 0.000003  -0.000000 -0.000000 0.837308
30  0.000005 0.001503 1.894737  -0.000014 -1.370797 3.140810
31  4.926316 -0.000000 -0.000000  -0.039301 -0.004164 -0.968387
32  11.368428 -0.000001 -0.000000  0.000000 -0.000000 -2.048413
33  11.368426 -0.000000 0.000001  -1.184006 -0.335208 0.387185
34  1.126228 0.104083 -1.358368  1.828922 0.478113 0.314211
35  2.373625 0.000003 0.000000  -0.000000 0.000000 0.292798
36  1.071902 0.000001 -0.000001  0.000000 -0.000000 0.069415
37  3.789472 -0.000906 -1.136843  0.011478 0.606609 0.233506
38  1.136841 -0.000001 0.000000  0.000000 -0.000000 0.328162
39  1.136845 -0.000001 -0.000001  0.000000 -0.000000 0.634916
40  3.789471 -0.000302 -0.378946  0.105945 0.058773 1.172286
41  1.326321 -0.000002 -0.000002  0.000000 0.000000 1.500222
42  1.326317 -0.000002 -0.000000  0.000000 -0.000000 1.526343
43  3.789473 0.000300 0.378944  0.017986 0.040186 0.985930
44  1.136842 0.000001 0.000002  -0.000000 -0.000000 0.959445
45  1.136842 0.000001 0.000002  -0.000000 0.000000 1.517621
46  3.789474 0.000903 1.136840  -0.105612 -0.041763 0.986145
47  0.947367 -0.000000 -0.000001  0.000000 -0.000000 1.125167
48  0.947368 -0.000003 -0.000001  -0.000000 0.000000 0.671591
time 9
0  0.001747 1.140660 -24.602341  0.000000 -0.000000 -1.570795
1  0.000000 0.000000 0.000000  -1.570795 -1.570796 0.000000
2  1.326319 -0.003921 0.000002  -0.000004 -0.000001 0.000796
3  4.926314 -0.003923 0.000000  -0.000000 -0.000000 -0.000000
4  4.926314 -0.003923 0.000000  0.000000 -0.000000 -0.000000
5  4.926313 -0.003923 -0.000000  0.000000 0.000000 0.000000
6  4.926317 -0.001509 0.000000  -0.000000 -0.000000 0.000000
7  0.000005 0.001514 -1.894737  -3.140802 1.570796 0.000000
8  4.926315 -0.000000 -0.000003  1.198879 -1.218677 -1.421273
9  11.368420 -0.000001 0.000002  0.000000 0.000000 -2.078573
10  11.368420 -0.000001 -0.000000  2.132797 -0.165039 0.448704
11  3.671040 0.965986 0.311103  -0.025353 -0.035788 1.366916
12  0.468039 0.919405 2.661569  -0.000000 -0.000000 0.000000
13  -0.492028 -0.160311 0.005988  0.000000 0.000000 0.000000
14  0.393657 0.105477 -0.006559  -0.015944 -0.142882 -0.042368
15  1.126230 0.104083 1.358368  -2.375012 -1.083006 0.431352
16  2.373624 -0.000001 0.000001  -0.000000 -0.000000 0.941975
17  1.071901 -0.000003 -0.000001  -0.000000 0.000000 0.418664
18  3.789474 -0.000904 1.136842  -0.098283 -0.272467 0.674683
19  1.136842 0.000000 -0.000000  -0.000000 -0.000000 0.279109
20  1.136842 -0.000003 0.000000  -0.000000 0.000000 1.360630
21  3.789476 -0.000303 0.378947  -0.047833 -0.176006 0.661027
22  1.326315 0.000003 -0.000000  -0.000000 0.000000 0.279109
23  1.326316 0.000001 0.000000  0.000000 -0.000000 1.369352
24  3.789474 0.000302 -0.378951  0.000638 -0.000482 0.654152
25  1.136843 0.000000 0.000001  -0.000000 -0.000000 0.218048
26  1.136843 -0.000004 -0.000002  0.000000 -0.000000 1.308294
27  3.789475 0.000904 -1.136844  0.105744 0.104131 0.790554
28  0.947370 0.000001 0.000001  -0.000000 0.000000 0.279109
29  0.947369 -0.000001 0.000004  -0.000000 -0.000000 0.837308
30  0.000005 0.001503 1.894737  -0.000014 -1.370797 3.140810
31  4.926316 -0.000000 -0.000000  -0.051276 -0.017715 -0.976169
32  11.368427 -0.000000 -0.000000  0.000000 -0.000000 -2.048939
33  11.368426 0.000001 0.000001  -1.213791 -0.291356 0.417349
34  1.126229 0.104084 -1.358368  1.830010 0.472718 0.312437
35  2.373625 0.000001 0.000001  -0.000000 0.000000 0.310424
36  1.071901 0.000001 0.000000  0.000000 -0.000000 0.135173
37  3.789473 -0.000906 -1.136843  0.014974 0.604096 0.239758
38  1.136841 -0.000000 0.000001  0.000000 -0.000000 0.316824
39  1.136845 -0.000001 0.000001  -0.000000 -0.000000 0.740714
40  3.789471 -0.000303 -0.378948  0.105945 0.058773 1.172286
41  1.326321 -0.000001 -0.000001  0.000000 0.000000 1.500218
42  1.326318 -0.000001 -0.000000  0.000000 -0.000000 1.526343
43  3.789474 0.000301 0.378945  0.017986 0.040186 0.985930
44  1.136843 0.000001 0.000002  -0.000000 -0.000000 0.959443
45  1.136842 0.000002 0.000001  -0.000000 -0.000000 1.517621
46  3.789475 0.000903 1.136840  -0.105612 -0.041763 0.986147
47  0.947366 -0.000000 0.000000  0.000000 -0.000000 1.125164
48  0.947368 -0.000003 -0.000001  0.000000 0.000000 0.671591
time 10
0  0.001747 1.140660 -24.602341  0.000000 -0.000000 -1.570795
1  0.000000 0.000000 0.000000  -1.570795 -1.570796 0.000000
2  1.326319 -0.003921 0.000002  -0.000004 -0.000001 0.000796
3  4.926314 -0.003923 0.000000  -0.000000 -0.000000 -0.000000
4  4.926314 -0.003923 0.000000  0.000000 -0.000000 -0.000000
5  4.926313 -0.003923 -0.000000  0.000000 0.000000 0.000000
6  4.926317 -0.001509 0.000000  -0.000000 -0.000000 0.000000
7  0.000005 0.001514 -1.894737  -3.140802 1.570796 0.000000
8  4.926315 -0.000000 -0.000003  1.200195 -1.218613 -1.424282
9  11.368420 -0.000001 0.000002  0.000000 -0.000000 -2.078178
10  11.368422 -0.000001 0.000000  2.147419 -0.165931 0.448088
11  3.671039 0.965988 0.311105  -0.025353 -0.035788 1.366916
12  0.468039 0.919406 2.661568  -0.000000 -0.000000 0.000000
13  -0.492028 -0.160312 0.005988  0.000000 0.000000 0.000000
14  0.423101 0.097807 -0.025031  -0.058303 -0.276530 -0.045982
15  1.126230 0.104085 1.358369  -2.375012 -1.083006 0.431352
16  2.373624 -0.000001 0.000001  0.000000 -0.000000 0.941975
17  1.071901 -0.000003 0.000000  0.000000 0.000000 0.418664
18  3.789474 -0.000903 1.136843  -0.098283 -0.272467 0.674683
19  1.136841 -0.000001 -0.000000  0.000000 -0.000000 0.279109
20  1.136842 -0.000001 0.000000  -0.000000 0.000000 1.360640
21  3.789477 -0.000301 0.378949  -0.047833 -0.176006 0.661027
22  1.326315 0.000002 0.000000  0.000000 0.000000 0.279109
23  1.326316 0.000000 -0.000001  0.000000 -0.000000 1.369362
24  3.789474 0.000302 -0.378950  0.000638 -0.000482 0.654152
25  1.136843 -0.000001 0.000001  -0.000000 -0.000000 0.218048
26  1.136843 -0.000001 -0.000002  0.000000 0.000000 1.308294
27  3.789474 0.000905 -1.136843  0.105744 0.104131 0.790554
28  0.947370 0.000000 0.000001  -0.000000 0.000000 0.279109
29  0.947369 0.000001 0.000003  0.000000 -0.000000 0.837308
30  0.000005 0.001503 1.894737  -0.000014 -1.370797 3.140810
31  4.926316 -0.000000 -0.000000  -0.069138 -0.033198 -0.983624
32  11.368428 -0.000001 0.000001  0.000000 -0.000000 -2.050420
33  11.368424 0.000000 0.000001  -1.274062 -0.177470 0.446303
34  1.126228 0.104084 -1.358368  1.835073 0.462904 0.309205
35  2.373625 0.000002 0.000000  -0.000000 0.000000 0.322715
36  1.071902 0.000001 -0.000001  -0.000000 -0.000000 0.257585
37  3.789473 -0.000906 -1.136844  0.024796 0.596989 0.257333
38  1.136841 -0.000001 -0.000000  -0.000000 0.000000 0.284889
39  1.136846 -0.000001 0.000001  -0.000001 -0.000000 0.933918
40  3.789471 -0.000302 -0.378947  0.105945 0.058773 1.172286
41  1.326321 -0.000002 -0.000000  0.000000 0.000000 1.500206
42  1.326317 -0.000002 -0.000000  -0.000000 -0.000000 1.526343
43  3.789473 0.000301 0.378944  0.017986 0.040186 0.985930
44  1.136843 0.000001 0.000001  -0.000000 -0.000000 0.959435
45  1.136842 0.000002 0.000000  -0.000000 -0.000000 1.517621
46  3.789475 0.000904 1.136839  -0.105612 -0.041763 0.986154
47  0.947367 0.000000 -0.000001  0.000000 0.000000 1.125155
48  0.947368 -0.000004 -0.000001  -0.000000 -0.000000 0.671591
time 11
0  0.001747 1.140660 -24.602341  0.000000 -0.000000 -1.570795
1  0.000000 0.000000 0.000000  -1.570795 -1.570796 0.000000
2  1.326319 -0.003921 0.000002  -0.000004 -0.000001 0.000796
3  4.926314 -0.003923 0.000000  -0.000000 -0.000000 -0.000000
4  4.926314 -0.003923 0.000000  0.000000 -0.000000 -0.000000
5  4.926313 -0.003923 -0.000000  0.000000 0.000000 0.000000
6  4.926317 -0.001509 0.000000  -0.000000 -0.000000 0.000000
7  0.000005 0.001514 -1.894737  -3.140802 1.570796 0.000000
8  4.926315 -0.000000 -0.000003  1.200871 -1.218607 -1.425836
9  11.368421 -0.000001 0.000003  -0.000000 0.000000 -2.077972
10  11.368422 -0.000001 -0.000001  2.157023 -0.166003 0.448030
11  3.671038 0.965988 0.311104  -0.025353 -0.035788 1.366916
12  0.468040 0.919404 2.661568  -0.000000 -0.000000 0.000000
13  -0.492027 -0.160312 0.005988  -0.000000 0.000000 0.000000
14  0.460907 0.087957 -0.048747  -0.112691 -0.448134 -0.057160
15  1.126230 0.104084 1.358368  -2.375012 -1.083006 0.431352
16  2.373624 0.000001 0.000001  -0.000000 0.000000 0.941975
17  1.071901 -0.000002 -0.000001  0.000000 0.000000 0.418664
18  3.789473 -0.000903 1.136843  -0.098283 -0.272467 0.674683
19  1.136842 -0.000001 0.000000  0.000000 -0.000000 0.279109
20  1.136842 -0.000001 0.000000  -0.000000 0.000000 1.360653
21  3.789477 -0.000302 0.378948  -0.047833 -0.176006 0.661027
22  1.326315 0.000002 0.000001  0.000000 -0.000000 0.279109
23  1.326316 0.000001 -0.000001  0.000000 -0.000000 1.369375
24  3.789473 0.000302 -0.378950  0.000638 -0.000482 0.654152
25  1.136843 0.000000 0.000001  -0.000000 -0.000000 0.218048
26  1.136842 -0.000003 -0.000003  0.000000 -0.000000 1.308294
27  3.789474 0.000905 -1.136843  0.105744 0.104131 0.790554
28  0.947370 0.000000 0.000001  -0.000000 0.000000 0.279109
29  0.947369 0.000001 0.000003  -0.000000 -0.000000 0.837308
30  0.000005 0.001503 1.894737  -0.000014 -1.370797 3.140810
31  4.926316 -0.000000 -0.000000  -0.090701 -0.047389 -0.989524
32  11.368429 -0.000000 0.000000  0.000000 -0.000000 -2.052321
33  11.368425 0.000001 0.000001  -1.340572 -0.036668 0.476512
34  1.126229 0.104084 -1.358369  1.842116 0.451646 0.305550
35  2.373625 0.000001 0.000001  -0.000000 0.000000 0.329125
36  1.071902 0.000001 -0.000001  0.000000 -0.000000 0.399005
37  3.789474 -0.000906 -1.136845  0.037352 0.587800 0.279819
38  1.136841 -0.000001 0.000001  -0.000000 0.000000 0.243884
39  1.136846 0.000000 0.000001  -0.000001 -0.000000 1.177556
40  3.789473 -0.000301 -0.378947  0.105945 0.058773 1.172286
41  1.326321 -0.000002 -0.000001  0.000000 0.000000 1.500192
42  1.326318 -0.000001 0.000000  -0.000000 -0.000000 1.526343
43  3.789474 0.000302 0.378944  0.017986 0.040186 0.985930
44  1.136842 0.000001 0.000001  0.000000 0.000000 0.959426
45  1.136842 0.000001 0.000001  -0.000000 -0.000000 1.517621
46  3.789476 0.000904 1.136839  -0.105612 -0.041763 0.986163
47  0.947367 -0.000000 -0.000001  0.000000 -0.000000 1.125144
48  0.947368 -0.000002 -0.000002  -0.000000 -0.000000 0.671591
time 12
0  0.001747 1.140660 -24.602341  0.000000 -0.000000 -1.570795
1  0.000000 0.000000 0.000000  -1.570795 -1.570796 0.000000
2  1.326319 -0.003921 0.000002  -0.000004 -0.000001 0.000796
3  4.926314 -0.003923 0.000000  -0.000000 -0.000000 -0.000000
4  4.926314 -0.003923 0.000000  0.000000 -0.000000 -0.000000
5  4.926313 -0.003923 -0.000000  0.000000 0.000000 0.000000
6  4.926317 -0.001509 0.000000  -0.000000 -0.000000 0.000000
7  0.000005 0.001514 -1.894737  -3.140802 1.570796 0.000000
8  4.926315 -0.000000 -0.000003  1.201113 -1.218540 -1.426373
9  11.368421 -0.000001 0.000003  0.000000 0.000000 -2.077906
10  11.368420 -0.000002 -0.000000  2.161776 -0.166895 0.447414
11  3.671039 0.965987 0.311104  -0.025353 -0.035788 1.366916
12  0.468039 0.919406 2.661569  -0.000000 -0.000000 0.000000
13  -0.492028 -0.160311 0.005989  0.000000 0.000000 0.000000
14  0.490353 0.080289 -0.067219  -0.155050 -0.581782 -0.078593
15  1.126230 0.104083 1.358368  -2.375012 -1.083006 0.431352
16  2.373624 0.000001 0.000000  -0.000000 0.000000 0.941975
17  1.071902 -0.000002 -0.000000  0.000000 0.000000 0.418664
18  3.789474 -0.000904 1.136842  -0.098283 -0.272467 0.674683
19  1.136841 -0.000002 -0.000000  0.000000 -0.000000 0.279109
20  1.136842 -0.000001 0.000000  -0.000000 0.000000 1.360663
21  3.789476 -0.000302 0.378948  -0.047833 -0.176006 0.661027
22  1.326314 0.000002 -0.000000  -0.000000 -0.000000 0.279109
23  1.326316 -0.000001 -0.000001  0.000000 -0.000000 1.369385
24  3.789474 0.000301 -0.378950  0.000638 -0.000482 0.654152
25  1.136844 -0.000000 0.000001  -0.000000 0.000000 0.218048
26  1.136843 -0.000004 -0.000002  0.000000 -0.000000 1.308294
27  3.789475 0.000904 -1.136844  0.105744 0.104131 0.790554
28  0.947369 -0.000000 0.000001  -0.000000 0.000000 0.279109
29  0.947369 -0.000001 0.000003  -0.000000 -0.000000 0.837308
30  0.000005 0.001503 1.894737  -0.000014 -1.370797 3.140810
31  4.926316 -0.000000 -0.000000  -0.111785 -0.056664 -0.992964
32  11.368428 -0.000000 -0.000000  0.000000 -0.000000 -2.053802
33  11.368427 -0.000001 0.000001  -1.386138 0.069697 0.502212
34  1.126228 0.104083 -1.358368  1.847789 0.443292 0.302880
35  2.373625 0.000003 0.000000  -0.000000 0.000000 0.331197
36  1.071902 -0.000000 -0.000000  0.000000 -0.000000 0.504236
37  3.789473 -0.000906 -1.136842  0.047088 0.580596 0.297270
38  1.136841 -0.000001 0.000001  -0.000000 0.000000 0.211948
39  1.136845 -0.000000 0.000000  -0.000001 -0.000000 1.405336
40  3.789472 -0.000302 -0.378946  0.105945 0.058773 1.172286
41  1.326321 -0.000001 -0.000001  0.000000 -0.000000 1.500180
42  1.326318 -0.000001 -0.000000  0.000000 -0.000000 1.526343
43  3.789474 0.000301 0.378945  0.017986 0.040186 0.985930
44  1.136842 0.000001 0.000001  -0.000000 -0.000000 0.959419
45  1.136842 0.000002 0.000002  -0.000000 0.000000 1.517621
46  3.789475 0.000904 1.136840  -0.105612 -0.041763 0.986170
47  0.947366 -0.000001 0.000001  0.000000 -0.000000 1.125136
48  0.947369 -0.000002 -0.000002  -0.000000 0.000000 0.671591
time 13
0  0.001747 1.140660 -24.602341  0.000000 -0.000000 -1.570795
1  0.000000 0.000000 0.000000  -1.570795 -1.570796 0.000000
2  1.326319 -0.003921 0.000002  -0.000004 -0.000001 0.000796
3  4.926314 -0.003923 0.000000  -0.000000 -0.000000 -0.000000
4  4.926314 -0.003923 0.000000  0.000000 -0.000000 -0.000000
5  4.926313 -0.003923 -0.000000  0.000000 0.000000 0.000000
6  4.926317 -0.001509 0.000000  -0.000000 -0.000000 0.000000
7  0.000005 0.001514 -1.894737  -3.140802 1.570796 0.000000
8  4.926315 -0.000000 -0.000003  1.201215 -1.218336 -1.426539
9  11.368422 -0.000000 0.000003  0.000000 0.000000 -2.077898
10  11.368421 -0.000002 0.000000  2.163262 -0.169649 0.445532
11  3.671040 0.965986 0.311103  -0.025353 -0.035788 1.366916
12  0.468040 0.919404 2.661569  -0.000000 -0.000000 0.000000
13  -0.492027 -0.160312 0.005988  0.000000 0.000000 0.000000
14  0.500806 0.077564 -0.073776  -0.170089 -0.629231 -0.109329
15  1.126230 0.104083 1.358368  -2.375012 -1.083006 0.431352
16  2.373624 -0.000000 0.000001  -0.000000 -0.000000 0.941975
17  1.071901 -0.000002 0.000000  0.000000 0.000000 0.418664
18  3.789474 -0.000904 1.136842  -0.098283 -0.272467 0.674683
19  1.136842 -0.000001 -0.000001  0.000000 -0.000000 0.279109
20  1.136842 -0.000002 0.000000  -0.000000 0.000000 1.360667
21  3.789477 -0.000303 0.378947  -0.047833 -0.176006 0.661027
22  1.326316 0.000002 -0.000001  -0.000000 -0.000000 0.279109
23  1.326316 -0.000001 -0.000001  0.000000 -0.000000 1.369389
24  3.789474 0.000301 -0.378952  0.000638 -0.000482 0.654152
25  1.136843 0.000002 0.000000  -0.000000 -0.000000 0.218048
26  1.136842 -0.000002 -0.000002  -0.000000 -0.000000 1.308294
27  3.789475 0.000904 -1.136844  0.105744 0.104131 0.790554
28  0.947369 0.000001 0.000002  -0.000000 0.000000 0.279109
29  0.947369 0.000001 0.000003  0.000000 -0.000000 0.837308
30  0.000005 0.001503 1.894737  -0.000014 -1.370797 3.140810
31  4.926316 -0.000000 -0.000000  -0.129241 -0.059653 -0.993992
32  11.368429 -0.000001 -0.000000  -0.000000 -0.000000 -2.054328
33  11.368426 0.000000 0.000001  -1.400997 0.106777 0.512106
34  1.126229 0.104084 -1.358368  1.849835 0.440397 0.301963
35  2.373625 0.000001 0.000001  -0.000000 0.000000 0.331437
36  1.071902 0.000001 -0.000001  -0.000000 -0.000000 0.540762
37  3.789474 -0.000906 -1.136843  0.050536 0.578028 0.303453
38  1.136841 -0.000001 -0.000001  -0.000000 -0.000000 0.200610
39  1.136846 0.000000 0.000000  0.000000 -0.000000 1.569963
40  3.789473 -0.000301 -0.378947  0.105945 0.058773 1.172286
41  1.326321 -0.000002 -0.000001  0.000000 0.000000 1.500176
42  1.326318 -0.000001 -0.000000  0.000000 0.000000 1.526343
43  3.789475 0.000301 0.378944  0.017986 0.040186 0.985930
44  1.136842 0.000001 -0.000000  0.000000 -0.000000 0.959416
45  1.136842 0.000002 -0.000000  -0.000000 -0.000000 1.517621
46  3.789476 0.000904 1.136840  -0.105612 -0.041763 0.986173
47  0.947367 -0.000000 -0.000001  0.000000 -0.000000 1.125133
48  0.947369 -0.000004 -0.000003  -0.000000 -0.000000 0.671591
time 14
0  0.001747 1.140660 -24.602341  0.000000 -0.000000 -1.570795
1  0.000000 0.000000 0.000000  -1.570795 -1.570796 0.000000
2  1.326319 -0.003921 0.000002  -0.000004 -0.000001 0.000796
3  4.926314 -0.003923 0.000000  -0.000000 -0.000000 -0.000000
4  4.926314 -0.003923 0.000000  0.000000 -0.000000 -0.000000
5  4.926313 -0.003923 -0.000000  0.000000 0.000000 0.000000
6  4.926317 -0.001509 0.000000  -0.000000 -0.000000 0.000000
7  0.000005 0.001514 -1.894737  -3.140802 1.570796 0.000000
8  4.926315 -0.000000 -0.000003  1.200539 -1.217743 -1.423537
9  11.368422 -0.000001 0.000002  -0.000000 -0.000000 -2.078285
10  11.368419 -0.000001 -0.000000  2.053288 -0.189625 0.432088
11  3.671040 0.965987 0.311104  -0.025353 -0.035788 1.366916
12  0.487490 0.910822 2.660354  -0.002869 -0.003665 -0.003872
13  -0.492028 -0.160313 0.005989  0.000000 0.000000 0.000000
14  0.331629 0.120190 0.089902  -0.075677 -0.626691 -0.352552
15  1.126229 0.104085 1.358368  -2.375012 -1.083006 0.431352
16  2.373623 -0.000001 0.000001  -0.000000 0.000000 0.941975
17  1.071900 -0.000003 0.000000  0.000000 0.000000 0.418664
18  3.789473 -0.000903 1.136842  -0.098283 -0.272467 0.674683
19  1.136841 -0.000000 -0.000000  -0.000000 -0.000000 0.279109
20  1.136842 -0.000001 0.000000  -0.000000 0.000000 1.360657
21  3.789476 -0.000302 0.378947  -0.047833 -0.176006 0.661027
22  1.326315 0.000001 -0.000000  -0.000000 0.000000 0.279109
23  1.326317 -0.000002 -0.000000  0.000000 -0.000000 1.369379
24  3.789474 0.000303 -0.378951  0.000638 -0.000482 0.654152
25  1.136843 0.000001 0.000001  -0.000000 0.000000 0.218048
26  1.136843 -0.000003 -0.000003  -0.000000 -0.000000 1.308294
27  3.789475 0.000905 -1.136844  0.105744 0.104131 0.790554
28  0.947370 0.000000 0.000001  -0.000000 0.000000 0.279109
29  0.947369 -0.000000 0.000004  -0.000000 -0.000000 0.837314
30  0.000005 0.001503 1.894737  -0.000014 -1.370797 3.140810
31  4.926316 -0.000000 -0.000000  -0.139268 -0.060688 -0.980492
32  11.368427 -0.000000 0.000000  -0.000000 -0.000000 -2.041262
33  11.368426 -0.000000 0.000002  -1.395941 0.105658 0.406039
34  1.126229 0.104084 -1.358368  1.849835 0.440397 0.301963
35  2.373625 0.000003 0.000000  -0.000000 0.000000 0.331437
36  1.071902 0.000002 -0.000001  -0.000000 -0.000000 0.540762
37  3.789473 -0.000906 -1.136844  0.050536 0.578028 0.303453
38  1.136841 -0.000001 -0.000002  -0.000000 -0.000000 0.231457
39  1.136846 0.000000 0.000002  0.000000 -0.000000 1.685056
40  3.789472 -0.000302 -0.378948  0.105945 0.058773 1.172286
41  1.326321 -0.000002 -0.000001  0.000000 0.000000 1.500187
42  1.326317 -0.000002 -0.000000  -0.000000 -0.000000 1.526343
43  3.789474 0.000301 0.378944  0.017986 0.040186 0.985930
44  1.136842 0.000002 0.000001  0.000000 -0.000000 0.959416
45  1.136842 0.000003 0.000001  -0.000000 0.000000 1.517621
46  3.789475 0.000904 1.136840  -0.105612 -0.041762 0.986172
47  0.947366 0.000000 -0.000000  0.000000 -0.000000 1.125141
48  0.947368 -0.000002 -0.000001  0.000000 -0.000000 0.671591
time 15
0  0.001747 1.140660 -24.602341  0.000000 -0.000000 -1.570795
1  0.000000 0.000000 0.000000  -1.570795 -1.570796 0.000000
2  1.326319 -0.003921 0.000002  -0.000004 -0.000001 0.000796
3  4.926314 -0.003923 0.000000  -0.000000 -0.000000 -0.000000
4  4.926314 -0.003923 0.000000  0.000000 -0.000000 -0.000000
5  4.926313 -0.003923 -0.000000  0.000000 0.000000 0.000000
6  4.926317 -0.001509 0.000000  -0.000000 -0.000000 0.000000
7  0.000005 0.001514 -1.894737  -3.140802 1.570796 0.000000
8  4.926315 -0.000000 -0.000003  1.193825 -1.215411 -1.396360
9  11.368421 -0.000000 0.000003  0.000000 0.000000 -2.080001
10  11.368420 0.000000 -0.000000  1.811940 -0.227641 0.407531
11  3.671040 0.965986 0.311103  -0.025353 -0.035788 1.366916
12  0.546141 0.884949 2.656687  -0.011521 -0.014717 -0.015548
13  -0.492027 -0.160311 0.005988  0.000000 0.000000 0.000000
14  0.443433 0.196376 0.252676  0.137351 -0.612559 -0.783325
15  1.126230 0.104084 1.358368  -2.375012 -1.083006 0.431352
16  2.373624 -0.000001 0.000001  -0.000000 0.000000 0.941975
17  1.071901 -0.000002 -0.000000  -0.000000 0.000000 0.418664
18  3.789473 -0.000904 1.136842  -0.098283 -0.272467 0.674683
19  1.136841 -0.000000 0.000000  0.000000 -0.000000 0.279109
20  1.136842 -0.000002 -0.000000  -0.000000 0.000000 1.360636
21  3.789476 -0.000302 0.378947  -0.047833 -0.176006 0.661027
22  1.326315 0.000002 -0.000000  -0.000000 0.000000 0.279109
23  1.326316 -0.000000 -0.000001  0.000000 0.000000 1.369358
24  3.789474 0.000302 -0.378951  0.000638 -0.000482 0.654152
25  1.136843 -0.000000 -0.000000  -0.000000 -0.000000 0.218048
26  1.136842 -0.000002 -0.000003  0.000000 -0.000000 1.308294
27  3.789475 0.000904 -1.136845  0.105744 0.104131 0.790554
28  0.947369 -0.000000 0.000001  -0.000000 0.000000 0.279109
29  0.947369 -0.000001 0.000003  0.000000 -0.000000 0.837327
30  0.000005 0.001503 1.894737  -0.000014 -1.370797 3.140810
31  4.926316 -0.000000 -0.000000  -0.144508 -0.057601 -0.935565
32  11.368428 -0.000001 -0.000001  0.000000 -0.000000 -1.999937
33  11.368428 0.000000 0.000001  -1.366436 0.087682 0.140862
34  1.126229 0.104084 -1.358367  1.849835 0.440397 0.301963
35  2.373625 0.000002 0.000000  -0.000000 0.000000 0.331437
36  1.071902 0.000000 -0.000001  -0.000000 -0.000000 0.540762
37  3.789473 -0.000906 -1.136843  0.050536 0.578028 0.303453
38  1.136841 -0.000001 -0.000000  0.000000 -0.000000 0.297467
39  1.136846 -0.000001 -0.000001  0.000000 -0.000000 1.754715
40  3.789471 -0.000302 -0.378946  0.105945 0.058773 1.172286
41  1.326321 -0.000002 -0.000001  0.000000 0.000000 1.500211
42  1.326317 -0.000001 0.000001  0.000000 0.000000 1.526343
43  3.789473 0.000301 0.378945  0.017986 0.040186 0.985930
44  1.136842 0.000001 0.000001  -0.000000 -0.000000 0.959416
45  1.136842 0.000001 0.000001  -0.000000 0.000000 1.517621
46  3.789475 0.000904 1.136841  -0.105612 -0.041761 0.986164
47  0.947367 0.000000 -0.000001  0.000000 0.000000 1.125159
48  0.947368 -0.000003 -0.000001  -0.000000 -0.000000 0.671591
time 16
0  0.001747 1.140660 -24.602341  0.000000 -0.000000 -1.570795
1  0.000000 0.000000 0.000000  -1.570795 -1.570796 0.000000
2  1.326319 -0.003921 0.000002  -0.000004 -0.000001 0.000796
3  4.926314 -0.003923 0.000000  -0.000000 -0.000000 -0.000000
4  4.926314 -0.003923 0.000000  0.000000 -0.000000 -0.000000
5  4.926313 -0.003923 -0.000000  0.000000 0.000000 0.000000
6  4.926317 -0.001509 0.000000  -0.000000 -0.000000 0.000000
7  0.000005 0.001514 -1.894737  -3.140802 1.570796 0.000000
8  4.926315 -0.000000 -0.000003  1.178483 -1.209639 -1.331103
9  11.368421 -0.000001 0.000002  0.000000 0.000000 -2.083129
10  11.368421 -0.000001 -0.000001  1.683323 -0.246512 0.398597
11  3.671039 0.965987 0.311105  -0.025353 -0.035788 1.366916
12  0.642301 0.842524 2.650678  -0.025705 -0.032837 -0.034690
13  -0.492027 -0.160313 0.005988  0.000000 0.000000 0.000000
14  1.085145 -0.250308 -0.060075  0.343687 -0.574132 -1.041950
15  1.126229 0.104084 1.358369  -2.375012 -1.083006 0.431352
16  2.373624 0.000000 0.000000  -0.000000 0.000000 0.941975
17  1.071900 -0.000003 -0.000000  -0.000000 0.000000 0.418664
18  3.789474 -0.000903 1.136843  -0.098283 -0.272467 0.674683
19  1.136841 0.000000 0.000000  -0.000000 -0.000000 0.279109
20  1.136842 0.000001 0.000001  -0.000000 0.000000 1.360626
21  3.789476 -0.000301 0.378949  -0.047833 -0.176006 0.661027
22  1.326316 0.000002 -0.000001  0.000000 0.000000 0.279109
23  1.326316 -0.000001 -0.000001  0.000000 0.000000 1.369348
24  3.789473 0.000302 -0.378950  0.000638 -0.000482 0.654152
25  1.136843 0.000001 0.000001  -0.000000 -0.000000 0.218048
26  1.136842 -0.000002 -0.000002  -0.000000 -0.000000 1.308294
27  3.789475 0.000905 -1.136843  0.105744 0.104131 0.790554
28  0.947370 0.000000 0.000001  -0.000000 0.000000 0.279109
29  0.947369 -0.000001 0.000004  0.000000 -0.000000 0.837333
30  0.000005 0.001503 1.894737  -0.000014 -1.370797 3.140810
31  4.926316 -0.000000 -0.000000  -0.156351 -0.043722 -0.872668
32  11.368428 -0.000001 0.000000  0.000000 -0.000000 -1.945673
33  11.368426 0.000000 0.000001  -1.300180 0.048632 -0.082401
34  1.126228 0.104084 -1.358368  1.849835 0.440397 0.301963
35  2.373625 0.000003 0.000001  -0.000000 0.000000 0.331437
36  1.071902 0.000001 -0.000001  -0.000000 -0.000000 0.540762
37  3.789473 -0.000906 -1.136844  0.050536 0.578028 0.303453
38  1.136842 -0.000001 -0.000000  0.000000 0.000000 0.328314
39  1.136846 -0.000000 0.000000  -0.000000 -0.000000 1.772518
40  3.789471 -0.000301 -0.378947  0.105945 0.058773 1.172286
41  1.326321 -0.000002 -0.000001  0.000000 0.000000 1.500222
42  1.326318 -0.000002 0.000000  -0.000000 -0.000000 1.526343
43  3.789473 0.000302 0.378945  0.017986 0.040186 0.985930
44  1.136842 0.000001 0.000002  -0.000000 -0.000000 0.959416
45  1.136842 0.000001 0.000002  -0.000000 -0.000000 1.517621
46  3.789475 0.000905 1.136840  -0.105612 -0.041763 0.986145
47  0.947367 -0.000000 -0.000000  -0.000000 -0.000000 1.125167
48  0.947368 -0.000002 -0.000001  0.000000 -0.000000 0.671591
time 17
0  0.001747 1.140660 -24.602341  0.000000 -0.000000 -1.570795
1  0.000000 0.000000 0.000000  -1.570795 -1.570796 0.000000
2  1.326319 -0.003921 0.000002  -0.000004 -0.000001 0.000796
3  4.926314 -0.003923 0.000000  -0.000000 -0.000000 -0.000000
4  4.926314 -0.003923 0.000000  0.000000 -0.000000 -0.000000
5  4.926313 -0.003923 -0.000000  0.000000 0.000000 0.000000
6  4.926317 -0.001509 0.000000  -0.000000 -0.000000 0.000000
7  0.000005 0.001514 -1.894737  -3.140802 1.570796 0.000000
8  4.926315 -0.000000 -0.000003  1.148602 -1.197141 -1.222689
9  11.368421 -0.000001 0.000002  -0.000000 0.000000 -2.088926
10  11.368420 -0.000001 0.000000  1.662433 -0.249415 0.405584
11  3.671040 0.965987 0.311104  -0.025353 -0.035788 1.366916
12  0.770429 0.785995 2.642670  -0.044605 -0.056981 -0.060197
13  -0.492028 -0.160313 0.005989  0.000000 0.000000 0.000000
14  3.117136 -0.886240 -0.501860  0.408985 -0.762012 -0.635058
15  1.126229 0.104084 1.358368  -2.375012 -1.083006 0.431352
16  2.373623 0.000001 0.000000  0.000000 0.000000 0.941975
17  1.071901 -0.000003 0.000000  0.000000 0.000000 0.418664
18  3.789474 -0.000904 1.136842  -0.098283 -0.272467 0.674683
19  1.136841 0.000001 0.000001  0.000000 -0.000000 0.279109
20  1.136842 -0.000002 0.000001  -0.000000 0.000000 1.360626
21  3.789477 -0.000301 0.378948  -0.047833 -0.176006 0.661027
22  1.326315 0.000002 -0.000000  -0.000000 0.000000 0.279109
23  1.326316 -0.000000 -0.000001  0.000000 -0.000000 1.369348
24  3.789474 0.000302 -0.378951  0.000638 -0.000482 0.654152
25  1.136843 0.000001 0.000002  -0.000000 -0.000000 0.218048
26  1.136843 -0.000003 -0.000001  -0.000000 -0.000000 1.308294
27  3.789474 0.000905 -1.136844  0.105744 0.104131 0.790554
28  0.947369 0.000001 0.000000  -0.000000 0.000000 0.279109
29  0.947370 -0.000001 0.000003  0.000000 -0.000000 0.837327
30  0.000005 0.001503 1.894737  -0.000014 -1.370797 3.140810
31  4.926316 -0.000000 -0.000000  -0.165908 -0.029567 -0.802569
32  11.368428 -0.000000 0.000000  0.000000 -0.000000 -1.896971
33  11.368426 0.000001 0.000001  -1.173102 -0.001599 -0.241782
34  1.126228 0.104083 -1.358368  1.849835 0.440397 0.301963
35  2.373625 0.000003 -0.000000  -0.000000 0.000000 0.331437
36  1.071902 -0.000000 -0.000000  -0.000000 -0.000000 0.540762
37  3.789473 -0.000907 -1.136842  0.075677 0.574434 0.349633
38  1.136841 -0.000001 -0.000001  0.000000 0.000000 0.297467
39  1.136845 -0.000001 -0.000000  -0.000000 0.000000 1.723590
40  3.789472 -0.000302 -0.378945  0.029241 0.073331 1.090798
41  1.326321 -0.000002 -0.000001  0.000000 0.000000 1.440638
42  1.326318 -0.000002 0.000000  0.000000 -0.000000 1.517244
43  3.789474 0.000300 0.378946  0.001837 0.032316 0.905130
44  1.136843 0.000002 0.000001  -0.000000 -0.000000 0.923838
45  1.136842 0.000002 0.000001  -0.000000 -0.000000 1.473768
46  3.789475 0.000903 1.136841  -0.115312 -0.058198 0.911667
47  0.947367 0.000000 -0.000001  0.000000 0.000000 1.089579
48  0.947368 -0.000003 -0.000002  -0.000000 0.000000 0.627739
time 18
0  0.001747 1.140660 -24.602341  0.000000 -0.000000 -1.570795
1  0.000000 0.000000 0.000000  -1.570795 -1.570796 0.000000
2  1.326319 -0.003921 0.000002  -0.000004 -0.000001 0.000796
3  4.926314 -0.003923 0.000000  -0.000000 -0.000000 -0.000000
4  4.926314 -0.003923 0.000000  0.000000 -0.000000 -0.000000
5  4.926313 -0.003923 -0.000000  0.000000 0.000000 0.000000
6  4.926317 -0.001509 0.000000  -0.000000 -0.000000 0.000000
7  0.000005 0.001514 -1.894737  -3.140802 1.570796 0.000000
8  4.926315 -0.000000 -0.000003  1.121424 -1.174008 -1.070118
9  11.368422 -0.000001 0.000002  -0.000000 0.000000 -2.096355
10  11.368422 -0.000000 -0.000000  1.651030 -0.244541 0.420846
11  3.671038 0.965987 0.311103  -0.025353 -0.035788 1.366916
12  0.920411 0.719829 2.633296  -0.066728 -0.085242 -0.090054
13  -0.492028 -0.160312 0.005987  0.000000 0.000000 0.000000
14  6.219720 -0.961077 -1.283454  0.459822 -0.691950 -0.418456
15  1.126229 0.104083 1.358367  -2.375012 -1.083006 0.431352
16  2.373624 0.000000 0.000000  0.000000 0.000000 0.941975
17  1.071902 -0.000002 -0.000000  -0.000000 0.000000 0.418664
18  3.789473 -0.000904 1.136842  -0.098283 -0.272467 0.674683
19  1.136842 -0.000000 -0.000000  -0.000000 -0.000000 0.279109
20  1.136842 -0.000000 -0.000000  -0.000000 0.000000 1.360626
21  3.789477 -0.000303 0.378946  -0.047833 -0.176006 0.661027
22  1.326316 0.000000 0.000000  0.000000 0.000000 0.279109
23  1.326316 0.000000 -0.000000  0.000000 -0.000000 1.369348
24  3.789473 0.000302 -0.378951  0.000638 -0.000482 0.654152
25  1.136844 0.000001 0.000002  -0.000000 -0.000000 0.218048
26  1.136843 -0.000003 -0.000001  0.000000 -0.000000 1.308294
27  3.789474 0.000904 -1.136844  0.105744 0.104131 0.790554
28  0.947369 0.000000 0.000000  -0.000000 0.000000 0.279109
29  0.947369 0.000000 0.000003  0.000000 -0.000000 0.837314
30  0.000005 0.001503 1.894737  -0.000014 -1.370797 3.140810
31  4.926316 -0.000000 -0.000000  -0.175670 -0.012070 -0.714311
32  11.368428 -0.000000 0.000001  0.000000 -0.000000 -1.835935
33  11.368426 -0.000000 0.000001  -1.001552 -0.061678 -0.370742
34  1.126228 0.104083 -1.358368  1.849835 0.440397 0.301963
35  2.373625 0.000002 -0.000000  -0.000000 0.000000 0.331437
36  1.071902 0.000000 -0.000000  -0.000000 -0.000000 0.540762
37  3.789473 -0.000906 -1.136843  0.137472 0.563656 0.464096
38  1.136841 -0.000001 -0.000002  -0.000000 0.000000 0.231457
39  1.136845 -0.000001 -0.000001  0.000000 0.000000 1.618891
40  3.789471 -0.000303 -0.378947  -0.163354 0.105351 0.887497
41  1.326321 -0.000002 -0.000000  0.000000 0.000000 1.292058
42  1.326317 -0.000002 0.000001  -0.000000 -0.000000 1.494555
43  3.789473 0.000301 0.378945  -0.037614 0.011738 0.703767
44  1.136843 0.000001 0.000002  -0.000000 0.000000 0.835119
45  1.136842 0.000001 0.000001  -0.000000 0.000000 1.364414
46  3.789475 0.000903 1.136840  -0.136010 -0.097770 0.725288
47  0.947368 -0.000000 0.000001  0.000000 0.000000 1.000839
48  0.947367 -0.000003 -0.000002  0.000000 0.000000 0.518389
time 19
0  0.001747 1.140660 -24.602341  0.000000 -0.000000 -1.570795
1  0.000000 0.000000 0.000000  -1.570795 -1.570796 0.000000
2  1.326319 -0.003921 0.000002  -0.000004 -0.000001 0.000796
3  4.926314 -0.003923 0.000000  -0.000000 -0.000000 -0.000000
4  4.926314 -0.003923 0.000000  0.000000 -0.000000 -0.000000
5  4.926313 -0.003923 -0.000000  0.000000 0.000000 0.000000
6  4.926317 -0.001509 0.000000  -0.000000 -0.000000 0.000000
7  0.000005 0.001514 -1.894737  -3.140802 1.570796 0.000000
8  4.926315 -0.000000 -0.000003  1.139325 -1.145938 -0.922695
9  11.368422 -0.000001 0.000003  0.000000 0.000000 -2.099411
10  11.368421 0.000001 -0.000001  1.646069 -0.221836 0.441506
11  3.671038 0.965988 0.311104  -0.025353 -0.035788 1.366916
12  1.078201 0.650217 2.623435  -0.090003 -0.114976 -0.121465
13  -0.492027 -0.160312 0.005988  0.000000 0.000000 -0.000000
14  11.241503 0.219085 -1.923116  0.772705 -0.782802 -0.249909
15  1.126229 0.104084 1.358368  -2.375012 -1.083006 0.431352
16  2.373623 -0.000001 -0.000000  0.000000 -0.000000 0.941975
17  1.071900 -0.000002 -0.000000  0.000000 0.000000 0.418664
18  3.789473 -0.000903 1.136843  -0.098283 -0.272467 0.674683
19  1.136842 -0.000001 -0.000001  -0.000000 -0.000000 0.279109
20  1.136842 -0.000002 0.000001  -0.000000 0.000000 1.360626
21  3.789476 -0.000302 0.378948  -0.047833 -0.176006 0.661027
22  1.326315 0.000003 -0.000001  0.000000 0.000000 0.279109
23  1.326316 0.000001 -0.000001  0.000000 0.000000 1.369348
24  3.789473 0.000301 -0.378951  0.000638 -0.000482 0.654152
25  1.136842 -0.000000 0.000001  -0.000000 -0.000000 0.218048
26  1.136843 -0.000004 -0.000001  -0.000000 0.000000 1.308294
27  3.789474 0.000905 -1.136844  0.105744 0.104131 0.790554
28  0.947369 -0.000001 0.000000  -0.000000 0.000000 0.279109
29  0.947369 0.000001 0.000003  -0.000000 -0.000000 0.837308
30  0.000005 0.001503 1.894737  -0.000014 -1.370797 3.140810
31  4.926316 -0.000000 -0.000000  -0.203495 0.018722 -0.606837
32  11.368429 -0.000000 0.000000  0.000000 -0.000000 -1.730985
33  11.368425 -0.000001 0.000002  -0.913060 -0.120252 -0.415346
34  1.126228 0.104085 -1.358367  1.849835 0.440397 0.301963
35  2.373625 0.000002 0.000001  -0.000000 0.000000 0.331437
36  1.071901 0.000000 -0.000001  -0.000000 -0.000000 0.540762
37  3.789473 -0.000905 -1.136842  0.187891 0.552042 0.558973
38  1.136841 -0.000002 0.000002  0.000000 -0.000000 0.200610
39  1.136845 -0.000000 0.000002  -0.000000 -0.000000 1.569963
40  3.789470 -0.000301 -0.378946  -0.325323 0.123598 0.717401
41  1.326323 -0.000001 -0.000001  0.000000 0.000000 1.167506
42  1.326318 -0.000001 0.000001  -0.000000 0.000000 1.475533
43  3.789473 0.000302 0.378945  -0.068866 -0.007632 0.535234
44  1.136842 0.000001 0.000003  0.000000 -0.000000 0.760745
45  1.136842 0.000001 0.000001  -0.000000 0.000000 1.272743
46  3.789475 0.000906 1.136841  -0.149068 -0.130006 0.568317
47  0.947367 -0.000001 -0.000001  0.000000 0.000000 0.926450
48  0.947368 -0.000003 -0.000002  0.000000 -0.000000 0.426718
time 20
0  0.001747 1.140660 -24.602341  0.000000 -0.000000 -1.570795
1  0.000000 0.000000 0.000000  -1.570795 -1.570796 0.000000
2  1.326319 -0.003921 0.000002  -0.000004 -0.000001 0.000796
3  4.926314 -0.003923 0.000000  -0.000000 -0.000000 -0.000000
4  4.926314 -0.003923 0.000000  0.000000 -0.000000 -0.000000
5  4.926313 -0.003923 -0.000000  0.000000 0.000000 0.000000
6  4.926317 -0.001509 0.000000  -0.000000 -0.000000 0.000000
7  0.000005 0.001514 -1.894737  -3.140802 1.570796 0.000000
8  4.926315 -0.000000 -0.000003  1.166013 -1.130565 -0.722328
9  11.368423 -0.000001 0.000002  -0.000000 0.000000 -2.086769
10  11.368421 -0.000001 0.000000  1.685661 -0.150427 0.487307
11  3.671039 0.965987 0.311104  -0.025353 -0.035788 1.366916
12  1.228182 0.584049 2.614060  -0.112126 -0.143237 -0.151322
13  -0.492027 -0.160313 0.005988  0.000000 0.000000 -0.000000
14  18.698414 6.379185 -1.424633  0.907537 -1.139540 0.497122
15  1.126229 0.104083 1.358368  -2.375012 -1.083006 0.431352
16  2.373624 -0.000000 0.000001  0.000000 -0.000000 0.941975
17  1.071901 -0.000002 -0.000001  -0.000000 0.000000 0.418664
18  3.789473 -0.000904 1.136842  -0.098283 -0.272467 0.674683
19  1.136841 -0.000001 -0.000001  -0.000000 -0.000000 0.279109
20  1.136842 -0.000001 0.000001  -0.000000 0.000000 1.360626
21  3.789476 -0.000304 0.378948  -0.047833 -0.176006 0.661027
22  1.326317 0.000001 -0.000001  0.000000 0.000000 0.279109
23  1.326317 -0.000000 0.000000  0.000000 -0.000000 1.369348
24  3.789473 0.000301 -0.378951  0.000638 -0.000482 0.654152
25  1.136844 0.000001 0.000000  -0.000000 -0.000000 0.218048
26  1.136843 -0.000002 -0.000002  -0.000000 -0.000000 1.308294
27  3.789474 0.000903 -1.136844  0.105744 0.104131 0.790554
28  0.947369 0.000000 0.000002  -0.000000 0.000000 0.279109
29  0.947371 -0.000001 0.000003  -0.000000 -0.000000 0.837308
30  0.000005 0.001503 1.894737  -0.000014 -1.370797 3.140810
31  4.926316 -0.000000 -0.000000  -0.249874 0.052570 -0.463571
32  11.368429 -0.000000 0.000001  -0.000000 -0.000000 -1.558097
33  11.368427 0.000001 0.000002  -0.935627 -0.189202 -0.380535
34  1.126230 0.104082 -1.358367  1.849835 0.440397 0.301963
35  2.373625 0.000000 0.000001  -0.000000 0.000000 0.331437
36  1.071902 0.000002 -0.000001  -0.000000 -0.000000 0.540762
37  3.789474 -0.000907 -1.136842  0.221800 0.541151 0.624256
38  1.136841 -0.000000 0.000001  0.000000 0.000000 0.200610
39  1.136844 -0.000002 -0.000001  -0.000000 -0.000000 1.569963
40  3.789473 -0.000302 -0.378945  -0.437216 0.118337 0.599441
41  1.326319 -0.000002 -0.000002  -0.000000 0.000000 1.080326
42  1.326317 -0.000000 -0.000001  -0.000000 0.000000 1.462217
43  3.789474 0.000299 0.378945  -0.087750 -0.024675 0.417708
44  1.136841 0.000001 0.000001  0.000000 -0.000000 0.708685
45  1.136842 0.000002 0.000003  -0.000000 0.000000 1.208576
46  3.789476 0.000904 1.136841  -0.154389 -0.154084 0.458377
47  0.947368 0.000000 -0.000000  -0.000000 0.000000 0.874384
48  0.947368 -0.000003 -0.000001  0.000000 -0.000000 0.362548
time 21
0  0.001747 1.140660 -24.602341  0.000000 -0.000000 -1.570795
1  0.000000 0.000000 0.000000  -1.570795 -1.570796 0.000000
2  1.326319 -0.003921 0.000002  -0.000004 -0.000001 0.000796
3  4.926314 -0.003923 0.000000  -0.000000 -0.000000 -0.000000
4  4.926314 -0.003923 0.000000  0.000000 -0.000000 -0.000000
5  4.926313 -0.003923 -0.000000  0.000000 0.000000 0.000000
6  4.926317 -0.001509 0.000000  -0.000000 -0.000000 0.000000
7  0.000005 0.001514 -1.894737  -3.140802 1.570796 0.000000
8  4.926315 -0.000000 -0.000003  1.149973 -1.113759 -0.404319
9  11.368421 -0.000000 0.000003  0.000000 0.000000 -2.051160
10  11.368423 -0.000001 -0.000001  1.811688 -0.007554 0.574339
11  3.671039 0.965989 0.311104  -0.025353 -0.035788 1.366916
12  1.356312 0.527520 2.606052  -0.131026 -0.167381 -0.176829
13  -0.492028 -0.160312 0.005988  0.000000 0.000000 0.000000
14  21.832865 23.905613 0.765518  0.558357 -1.212704 1.456258
15  1.126230 0.104087 1.358369  -2.375012 -1.083006 0.431352
16  2.373624 -0.000002 0.000001  -0.000000 -0.000000 0.941975
17  1.071901 -0.000002 -0.000001  -0.000000 0.000000 0.418664
18  3.789473 -0.000900 1.136843  -0.098283 -0.272467 0.674683
19  1.136842 -0.000000 -0.000001  0.000000 -0.000000 0.279109
20  1.136841 -0.000002 -0.000000  0.000000 0.000000 1.360626
21  3.789478 -0.000300 0.378948  -0.047833 -0.176006 0.661027
22  1.326317 0.000000 -0.000001  0.000000 0.000000 0.279109
23  1.326317 -0.000001 0.000000  0.000000 -0.000000 1.369348
24  3.789473 0.000304 -0.378950  0.000638 -0.000482 0.654152
25  1.136841 0.000001 0.000001  -0.000000 0.000000 0.218048
26  1.136842 -0.000001 -0.000002  -0.000000 -0.000000 1.308294
27  3.789475 0.000907 -1.136843  0.105744 0.104131 0.790554
28  0.947370 -0.000001 0.000001  -0.000000 0.000000 0.279109
29  0.947370 0.000003 0.000005  0.000000 -0.000000 0.837308
30  0.000005 0.001503 1.894737  -0.000014 -1.370797 3.140810
31  4.926316 -0.000000 -0.000000  -0.305009 0.053532 -0.283782
32  11.368430 -0.000001 -0.000000  0.000000 -0.000000 -1.311690
33  11.368425 -0.000000 0.000000  -1.059057 -0.280009 -0.275122
34  1.126228 0.104084 -1.358369  1.849835 0.440397 0.301963
35  2.373625 0.000002 0.000000  -0.000000 0.000000 0.331437
36  1.071900 0.000002 0.000000  -0.000000 -0.000000 0.540762
37  3.789473 -0.000906 -1.136842  0.253728 0.528223 0.687031
38  1.136841 -0.000001 0.000001  -0.000000 -0.000000 0.200610
39  1.136847 -0.000000 0.000001  0.000000 0.000000 1.569963
40  3.789471 -0.000302 -0.378946  -0.545030 0.092394 0.485347
41  1.326324 -0.000001 -0.000001  0.000000 0.000000 0.995154
42  1.326319 -0.000001 0.000001  -0.000000 0.000000 1.449207
43  3.789473 0.000301 0.378945  -0.103629 -0.044318 0.303264
44  1.136842 0.000001 0.000003  0.000000 0.000000 0.657821
45  1.136842 0.000002 0.000002  0.000000 0.000000 1.145885
46  3.789476 0.000905 1.136842  -0.156550 -0.178928 0.350817
47  0.947367 0.000001 -0.000002  0.000000 0.000000 0.823518
48  0.947368 -0.000002 -0.000002  -0.000000 -0.000000 0.299852
time 22
0  0.001747 1.140660 -24.602341  0.000000 -0.000000 -1.570795
1  0.000000 0.000000 0.000000  -1.570795 -1.570796 0.000000
2  1.326319 -0.003921 0.000002  -0.000004 -0.000001 0.000796
3  4.926314 -0.003923 0.000000  -0.000000 -0.000000 -0.000000
4  4.926314 -0.003923 0.000000  0.000000 -0.000000 -0.000000
5  4.926313 -0.003923 -0.000000  0.000000 0.000000 0.000000
6  4.926317 -0.001509 0.000000  -0.000000 -0.000000 0.000000
7  0.000005 0.001514 -1.894737  -3.140802 1.570796 0.000000
8  4.926315 -0.000000 -0.000003  1.128863 -1.063911 -0.088181
9  11.368420 -0.000001 0.000002  -0.000000 -0.000000 -2.005438
10  11.368422 -0.000001 -0.000001  1.988426 0.160790 0.676847
11  3.671039 0.965987 0.311105  -0.025353 -0.035788 1.366916
12  1.452470 0.485094 2.600042  -0.145210 -0.185501 -0.195971
13  -0.492027 -0.160311 0.005989  0.000000 0.000000 0.000000
14  0.383203 0.108200 -0.000003  -0.000000 0.000000 -0.000000
15  1.126227 0.104084 1.358369  -2.375012 -1.083006 0.431352
16  2.373623 -0.000004 0.000000  -0.000000 -0.000000 0.941975
17  1.071898 -0.000003 -0.000001  -0.000000 0.000000 0.418664
18  3.789471 -0.000903 1.136843  -0.098283 -0.272467 0.674683
19  1.136841 0.000001 -0.000000  -0.000000 -0.000000 0.279109
20  1.136842 -0.000002 0.000001  -0.000000 -0.000000 1.360626
21  3.789475 -0.000301 0.378948  -0.047833 -0.176006 0.661027
22  1.326315 0.000002 0.000000  -0.000000 0.000000 0.279109
23  1.326315 -0.000001 -0.000001  0.000000 -0.000000 1.369348
24  3.789472 0.000302 -0.378950  0.000638 -0.000482 0.654152
25  1.136842 0.000003 0.000000  -0.000000 -0.000000 0.218048
26  1.136843 0.000001 -0.000002  -0.000000 -0.000000 1.308294
27  3.789472 0.000905 -1.136843  0.105744 0.104131 0.790554
28  0.947370 -0.000002 0.000001  -0.000000 0.000000 0.279109
29  0.947369 0.000000 0.000003  0.000000 -0.000000 0.837308
30  0.000005 0.001503 1.894737  -0.000014 -1.370797 3.140810
31  4.926316 -0.000000 -0.000000  -0.357322 0.000093 -0.133189
32  11.368426 -0.000000 -0.000001  -0.000000 -0.000000 -1.055652
33  11.368427 0.000000 0.000001  -1.250642 -0.369890 -0.132865
34  1.126227 0.104082 -1.358366  1.849835 0.440397 0.301963
35  2.373626 0.000002 0.000001  -0.000000 0.000000 0.331437
36  1.071903 0.000002 0.000000  -0.000000 -0.000000 0.540762
37  3.789472 -0.000908 -1.136843  0.278750 0.516102 0.737223
38  1.136842 -0.000001 0.000001  -0.000000 -0.000000 0.200610
39  1.136847 0.000000 0.000001  -0.000000 -0.000000 1.569963
40  3.789471 -0.000303 -0.378947  -0.631298 0.056268 0.393931
41  1.326320 -0.000002 -0.000002  0.000000 0.000000 0.926027
42  1.326318 -0.000001 -0.000000  -0.000000 0.000000 1.438646
43  3.789471 0.000300 0.378945  -0.114658 -0.062423 0.210652
44  1.136842 0.000002 -0.000002  0.000000 0.000000 0.616538
45  1.136842 0.000001 -0.000001  0.000000 -0.000000 1.095003
46  3.789474 0.000903 1.136840  -0.156199 -0.199997 0.263323
47  0.947367 -0.000000 0.000000  0.000000 -0.000000 0.782236
48  0.947372 -0.000003 0.000001  -0.000000 -0.000000 0.248963
time 23
0  0.001747 1.140660 -24.602341  0.000000 -0.000000 -1.570795
1  0.000000 0.000000 0.000000  -1.570795 -1.570796 0.000000
2  1.326319 -0.003921 0.000002  -0.000004 -0.000001 0.000796
3  4.926314 -0.003923 0.000000  -0.000000 -0.000000 -0.000000
4  4.926314 -0.003923 0.000000  0.000000 -0.000000 -0.000000
5  4.926313 -0.003923 -0.000000  0.000000 0.000000 0.000000
6  4.926317 -0.001509 0.000000  -0.000000 -0.000000 0.000000
7  0.000005 0.001514 -1.894737  -3.140802 1.570796 0.000000
8  4.926315 -0.000000 -0.000003  1.137909 -1.006304 0.100377
9  11.368422 -0.000002 0.000002  0.000000 -0.000000 -1.969829
10  11.368422 0.000001 -0.000001  2.136643 0.286133 0.757269
11  3.671040 0.965987 0.311105  -0.025353 -0.035788 1.366916
12  1.511120 0.459218 2.596377  -0.153862 -0.196553 -0.207647
13  -0.492027 -0.160312 0.005988  0.000000 0.000000 0.000000
14  0.383202 0.108204 -0.000001  -0.000000 0.000000 -0.000000
15  1.126231 0.104084 1.358369  -2.375012 -1.083006 0.431352
16  2.373623 -0.000001 0.000000  -0.000000 -0.000000 0.941975
17  1.071900 -0.000003 -0.000001  -0.000000 0.000000 0.418664
18  3.789473 -0.000904 1.136843  -0.098283 -0.272467 0.674683
19  1.136841 -0.000000 -0.000001  -0.000000 -0.000000 0.279109
20  1.136842 -0.000003 0.000000  -0.000000 0.000000 1.360626
21  3.789476 -0.000302 0.378948  -0.047833 -0.176006 0.661027
22  1.326314 0.000000 -0.000000  -0.000000 0.000000 0.279109
23  1.326316 0.000001 -0.000001  0.000000 -0.000000 1.369348
24  3.789474 0.000301 -0.378950  0.000638 -0.000482 0.654152
25  1.136844 0.000000 0.000002  -0.000000 -0.000000 0.218048
26  1.136843 -0.000003 -0.000002  0.000000 -0.000000 1.308294
27  3.789474 0.000905 -1.136842  0.105744 0.104131 0.790554
28  0.947369 0.000002 0.000001  -0.000000 0.000000 0.279109
29  0.947368 0.000001 0.000004  0.000000 -0.000000 0.837308
30  0.000005 0.001503 1.894737  -0.000014 -1.370797 3.140810
31  4.926316 -0.000000 -0.000000  -0.394711 -0.062893 -0.056223
32  11.368429 -0.000000 -0.000001  -0.000000 -0.000000 -0.875051
33  11.368426 0.000000 0.000001  -1.418453 -0.428026 -0.015985
34  1.126229 0.104084 -1.358369  1.849835 0.440397 0.301963
35  2.373624 0.000003 0.000001  -0.000000 0.000000 0.331437
36  1.071900 0.000000 -0.000001  -0.000000 -0.000000 0.540762
37  3.789475 -0.000905 -1.136843  0.293281 0.508089 0.766848
38  1.136842 -0.000001 0.000003  -0.000000 -0.000000 0.200610
39  1.136845 -0.000000 0.000000  -0.000000 0.000000 1.569963
40  3.789472 -0.000301 -0.378946  -0.682160 0.027294 0.340008
41  1.326321 -0.000001 -0.000001  -0.000000 0.000000 0.884728
42  1.326317 0.000001 0.000000  -0.000000 0.000000 1.432336
43  3.789473 0.000301 0.378944  -0.120331 -0.074307 0.155456
44  1.136842 -0.000000 -0.000000  0.000000 0.000000 0.591872
45  1.136843 0.000003 -0.000002  -0.000000 -0.000000 1.064603
46  3.789474 0.000905 1.136839  -0.155018 -0.213094 0.210961
47  0.947369 -0.000000 -0.000000  0.000000 0.000000 0.757572
48  0.947366 -0.000000 0.000001  0.000000 -0.000000 0.218559
time 24
0  0.001747 1.140660 -24.602341  0.000000 -0.000000 -1.570795
1  0.000000 0.000000 0.000000  -1.570795 -1.570796 0.000000
2  1.326319 -0.003921 0.000002  -0.000004 -0.000001 0.000796
3  4.926314 -0.003923 0.000000  -0.000000 -0.000000 -0.000000
4  4.926314 -0.003923 0.000000  0.000000 -0.000000 -0.000000
5  4.926313 -0.003923 -0.000000  0.000000 0.000000 0.000000
6  4.926317 -0.001509 0.000000  -0.000000 -0.000000 0.000000
7  0.000005 0.001514 -1.894737  -3.140802 1.570796 0.000000
8  4.926315 -0.000000 -0.000003  1.146290 -0.983257 0.156597
9  11.368422 -0.000002 0.000002  -0.000000 0.000000 -1.957187
10  11.368420 -0.000002 -0.000000  2.191572 0.329458 0.786573
11  3.671039 0.965987 0.311104  -0.025353 -0.035788 1.366916
12  1.530572 0.450639 2.595161  -0.156731 -0.200218 -0.211519
13  -0.492027 -0.160310 0.005989  -0.000000 0.000000 0.000000
14  0.383203 0.108203 -0.000002  -0.000000 0.000000 -0.000000
15  1.126230 0.104084 1.358368  -2.375012 -1.083006 0.431352
16  2.373624 -0.000000 0.000000  -0.000000 -0.000000 0.941975
17  1.071901 -0.000002 -0.000000  -0.000000 0.000000 0.418664
18  3.789473 -0.000903 1.136842  -0.098283 -0.272467 0.674683
19  1.136840 0.000001 -0.000001  -0.000000 -0.000000 0.279109
20  1.136843 0.000002 -0.000001  -0.000000 0.000000 1.360626
21  3.789476 -0.000302 0.378948  -0.047833 -0.176006 0.661027
22  1.326317 -0.000001 -0.000000  0.000000 0.000000 0.279109
23  1.326315 0.000001 0.000001  0.000000 -0.000000 1.369348
24  3.789476 0.000302 -0.378951  0.000638 -0.000482 0.654152
25  1.136844 0.000001 0.000000  -0.000000 0.000000 0.218048
26  1.136842 -0.000000 -0.000001  -0.000000 -0.000000 1.308294
27  3.789475 0.000905 -1.136844  0.105744 0.104131 0.790554
28  0.947370 -0.000001 0.000001  -0.000000 0.000000 0.279109
29  0.947368 0.000001 0.000003  0.000000 -0.000000 0.837308
30  0.000005 0.001503 1.894737  -0.000014 -1.370797 3.140810
31  4.926316 -0.000000 -0.000000  -0.407417 -0.087324 -0.036462
32  11.368428 -0.000001 0.000001  -0.000000 -0.000000 -0.814126
33  11.368425 -0.000001 0.000001  -1.481479 -0.445986 0.026889
34  1.126229 0.104083 -1.358368  1.849835 0.440397 0.301963
35  2.373626 0.000002 -0.000000  -0.000000 0.000000 0.331437
36  1.071904 0.000001 -0.000001  -0.000000 -0.000000 0.540762
37  3.789474 -0.000907 -1.136845  0.297610 0.505497 0.775767
38  1.136843 -0.000001 0.000001  -0.000000 -0.000000 0.200610
39  1.136845 -0.000000 0.000002  -0.000000 0.000000 1.569963
40  3.789472 -0.000303 -0.378949  -0.697435 0.016887 0.323794
41  1.326324 -0.000001 0.000000  -0.000000 0.000000 0.872195
42  1.326318 -0.000001 0.000000  0.000000 -0.000000 1.430421
43  3.789473 0.000301 0.378941  -0.121850 -0.078149 0.138735
44  1.136843 0.000000 0.000000  -0.000000 -0.000000 0.584387
45  1.136841 0.000001 0.000003  -0.000000 -0.000000 1.055378
46  3.789475 0.000903 1.136837  -0.154461 -0.217218 0.195066
47  0.947368 -0.000001 0.000002  0.000000 -0.000000 0.750088
48  0.947369 -0.000001 -0.000003  0.000000 -0.000000 0.209331
end
