version 1
nodes
0 "Hands biped" -1
1 "Bip01 Pelvis" 0
2 "Bip01 Spine" 1
3 "Bip01 Spine1" 2
4 "Bip01 Spine2" 3
5 "Bip01 Spine3" 4
6 "Bip01 Neck" 5
7 "Bip01 R Arm" 6
8 "Bip01 R Arm1" 7
9 "Bip01 R Arm2" 8
10 "Bip01 R Hand" 9
11 "Dummy22" 10
12 "Dummy23" 11
13 "Bone03" 12
14 "Bone04" 13
15 "Bip01 R Finger0" 10
16 "Bip01 R Finger01" 15
17 "Bip01 R Finger02" 16
18 "Bip01 R Finger1" 10
19 "Bip01 R Finger11" 18
20 "Bip01 R Finger12" 19
21 "Bip01 R Finger2" 10
22 "Bip01 R Finger21" 21
23 "Bip01 R Finger22" 22
24 "Bip01 R Finger3" 10
25 "Bip01 R Finger31" 24
26 "Bip01 R Finger32" 25
27 "Bip01 R Finger4" 10
28 "Bip01 R Finger41" 27
29 "Bip01 R Finger42" 28
30 "Bip01 L Arm" 6
31 "Bip01 L Arm1" 30
32 "Bip01 L Arm2" 31
33 "Bip01 L Hand" 32
34 "Bip01 L Finger0" 33
35 "Bip01 L Finger01" 34
36 "Bip01 L Finger02" 35
37 "Bip01 L Finger1" 33
38 "Bip01 L Finger11" 37
39 "Bip01 L Finger12" 38
40 "Bip01 L Finger2" 33
41 "Bip01 L Finger21" 40
42 "Bip01 L Finger22" 41
43 "Bip01 L Finger3" 33
44 "Bip01 L Finger31" 43
45 "Bip01 L Finger32" 44
46 "Bip01 L Finger4" 33
47 "Bip01 L Finger41" 46
48 "Bip01 L Finger42" 47
end
skeleton
time 0
0  -2.943655 11.765984 -25.602371  0.000000 -0.000000 -1.570795
1  0.000000 -0.000000 0.000000  -1.570795 -1.570796 0.000000
2  1.326319 -0.003920 0.000002  -0.000004 -0.000001 0.000796
3  4.926315 -0.003923 -0.000000  0.000000 0.000000 0.000000
4  4.926314 -0.003924 -0.000000  -0.000000 0.000000 0.000000
5  4.926315 -0.003924 -0.000000  0.000000 0.000000 0.000000
6  4.926318 -0.001509 -0.000000  -0.000000 -0.000000 -0.000000
7  0.000005 0.001514 -1.894737  -2.251681 1.234590 0.860828
8  4.926314 -0.000000 -0.000003  1.679513 0.114991 -1.333164
9  11.368420 -0.000002 0.000001  0.000000 -0.000000 -0.771923
10  11.368420 -0.000001 -0.000001  0.343156 0.128896 -0.509183
11  -63.170849 -34.679630 -1.247543  -0.025353 -0.035788 1.366916
12  0.468038 0.919407 2.661568  -0.000000 0.000000 0.000000
13  -0.492027 -0.160309 0.005991  0.000000 0.000000 -0.000000
14  0.383198 0.108196 0.000001  0.000000 0.000000 0.000000
15  1.126228 0.104085 1.358369  -1.961911 -1.110930 0.314599
16  2.373624 0.000000 -0.000000  0.000000 0.000000 0.556434
17  1.071903 -0.000002 -0.000001  -0.000000 0.000000 0.418664
18  3.789473 -0.000901 1.136842  -0.009525 -0.428063 0.320691
19  1.136841 -0.000000 0.000000  -0.000000 0.000000 0.073478
20  1.136843 0.000001 0.000000  -0.000000 0.000000 0.589538
21  3.789474 -0.000299 0.378946  0.018873 -0.224904 0.285949
22  1.326314 0.000001 -0.000000  0.000000 -0.000000 0.022076
23  1.326316 0.000001 0.000000  -0.000000 0.000000 0.713950
24  3.789473 0.000303 -0.378951  0.001549 -0.017799 0.165811
25  1.136843 0.000001 -0.000000  0.000000 0.000000 0.218048
26  1.136844 -0.000003 -0.000002  -0.000000 -0.000000 0.537237
27  3.789473 0.000906 -1.136844  0.042022 0.285350 0.265189
28  0.947369 -0.000000 0.000003  0.000000 0.000000 0.279109
29  0.947370 -0.000002 0.000003  0.000000 -0.000000 0.374675
30  0.000004 0.001503 1.894737  -0.000014 -1.370797 3.140810
31  4.926316 0.000002 -0.000000  0.000000 1.270796 0.000000
32  11.368427 0.000000 -0.000000  0.000000 0.000000 -0.200000
33  11.368423 -0.000002 -0.000001  -1.570000 0.000000 0.000000
34  1.126234 0.104083 -1.358371  1.823541 0.487125 0.071487
35  2.373626 0.000002 0.000001  -0.000000 -0.000000 0.113389
36  1.071904 0.000003 -0.000003  -0.000000 -0.000000 0.017444
37  3.789476 -0.000906 -1.136844  0.011610 0.156576 0.079348
38  1.136841 0.000000 0.000001  -0.000000 -0.000000 -0.000000
39  1.136843 0.000001 0.000000  -0.000000 0.000000 -0.000000
40  3.789476 -0.000302 -0.378948  0.005372 0.078320 0.078679
41  1.326316 -0.000002 -0.000001  0.000000 -0.000000 0.000000
42  1.326314 -0.000003 0.000004  0.000000 0.000000 0.008722
43  3.789477 0.000301 0.378945  -0.000794 0.000062 0.078500
44  1.136844 0.000000 0.000002  -0.000000 -0.000000 -0.000000
45  1.136844 0.000000 0.000000  -0.000000 -0.000000 -0.000000
46  3.789475 0.000903 1.136841  -0.012516 -0.147755 0.079485
47  0.947363 -0.000001 -0.000001  -0.000000 -0.000000 0.000000
48  0.947366 0.000001 -0.000002  -0.000000 0.000000 0.000000
time 1
0  -3.316834 12.441786 -25.602371  0.000000 -0.000000 -1.570795
1  -0.000000 0.000000 0.000000  -1.570795 -1.570796 0.000000
2  1.326317 -0.003920 0.000002  -0.000004 -0.000001 0.000796
3  4.926314 -0.003923 -0.000000  0.000000 0.000000 0.000000
4  4.926313 -0.003923 -0.000000  -0.000000 0.000000 0.000000
5  4.926315 -0.003923 -0.000000  0.000000 0.000000 0.000000
6  4.926318 -0.001508 -0.000000  -0.000000 -0.000000 -0.000000
7  0.000005 0.001515 -1.894737  -2.216640 1.095832 0.866966
8  4.926315 0.000001 -0.000003  1.650736 0.048237 -1.270598
9  11.368421 -0.000001 0.000002  0.000000 -0.000000 -0.560337
10  11.368420 -0.000002 -0.000001  0.170208 -0.034688 -0.360751
11  -66.420959 -22.933336 4.759625  -0.025353 -0.035788 1.366916
12  0.468036 0.919402 2.661569  0.000000 0.000000 0.000000
13  -0.492026 -0.160312 0.005989  0.000000 0.000000 -0.000000
14  0.383194 0.108198 0.000001  0.000000 0.000000 0.000000
15  1.126229 0.104085 1.358370  -1.738769 -1.113532 0.244479
16  2.373624 0.000001 -0.000000  0.000000 0.000000 0.356709
17  1.071903 -0.000001 -0.000002  0.000000 0.000000 0.418664
18  3.789474 -0.000902 1.136842  0.068405 -0.489864 0.118226
19  1.136842 -0.000000 0.000001  -0.000000 0.000000 -0.033035
20  1.136843 0.000002 0.000000  0.000000 -0.000000 0.190104
21  3.789475 -0.000299 0.378947  0.060757 -0.237152 0.088912
22  1.326314 0.000000 -0.000000  -0.000000 -0.000000 -0.111073
23  1.326317 0.000001 0.000000  0.000000 0.000000 0.374416
24  3.789474 0.000304 -0.378950  0.006273 -0.025443 -0.087272
25  1.136844 -0.000000 -0.000000  0.000000 -0.000000 0.218048
26  1.136841 -0.000002 -0.000002  -0.000000 -0.000000 0.137793
27  3.789474 0.000906 -1.136844  -0.039018 0.354069 -0.025761
28  0.947369 0.000000 0.000002  -0.000000 0.000000 0.279109
29  0.947369 -0.000002 0.000003  0.000000 -0.000000 0.135016
30  0.000004 0.001503 1.894737  -0.000014 -1.370797 3.140810
31  4.926317 0.000002 -0.000000  0.000000 1.270796 0.000000
32  11.368427 -0.000001 -0.000000  0.000000 0.000000 -0.200000
33  11.368423 -0.000003 -0.000001  -1.570000 0.000000 0.000000
34  1.126232 0.104083 -1.358371  1.823541 0.487125 0.071487
35  2.373624 0.000003 0.000001  -0.000000 -0.000000 0.113389
36  1.071903 0.000001 -0.000003  -0.000000 -0.000000 0.017444
37  3.789474 -0.000906 -1.136842  0.011610 0.156576 0.079348
38  1.136845 0.000000 0.000000  -0.000000 -0.000000 -0.000000
39  1.136844 0.000001 0.000003  -0.000000 0.000000 -0.000000
40  3.789474 -0.000302 -0.378949  0.005372 0.078320 0.078679
41  1.326316 -0.000001 0.000001  0.000000 -0.000000 0.000000
42  1.326313 -0.000003 0.000003  0.000000 0.000000 0.008722
43  3.789475 0.000300 0.378946  -0.000794 0.000062 0.078500
44  1.136843 0.000000 0.000001  -0.000000 -0.000000 -0.000000
45  1.136842 0.000000 0.000001  -0.000000 -0.000000 -0.000000
46  3.789474 0.000904 1.136841  -0.012516 -0.147755 0.079485
47  0.947363 -0.000001 0.000000  -0.000000 -0.000000 0.000000
48  0.947367 0.000000 -0.000001  -0.000000 0.000000 0.000000
time 2
0  -3.717116 13.117588 -25.602371  0.000000 -0.000000 -1.570795
1  0.000000 -0.000000 0.000000  -1.570795 -1.570796 0.000000
2  1.326317 -0.003920 0.000002  -0.000004 -0.000001 0.000796
3  4.926314 -0.003923 -0.000000  0.000000 0.000000 0.000000
4  4.926313 -0.003924 -0.000000  -0.000000 0.000000 0.000000
5  4.926316 -0.003924 -0.000000  0.000000 0.000000 0.000000
6  4.926318 -0.001509 -0.000000  -0.000000 -0.000000 -0.000000
7  0.000004 0.001514 -1.894737  -2.184546 0.959363 0.859435
8  4.926316 0.000001 -0.000003  1.519270 -0.054460 -1.199568
9  11.368420 -0.000001 0.000001  0.000000 0.000000 -0.295686
10  11.368421 -0.000001 -0.000001  -0.039105 -0.221363 -0.172831
11  -68.358513 -4.838874 10.998928  -0.025353 -0.035788 1.366916
12  0.468043 0.919401 2.661570  0.000000 0.000000 0.000000
13  -0.492027 -0.160316 0.005988  0.000000 0.000000 0.000000
14  0.383202 0.108198 -0.000001  0.000000 -0.000000 0.000000
15  1.126229 0.104084 1.358369  -1.515451 -1.114211 0.173909
16  2.373623 0.000001 -0.000001  0.000000 -0.000000 0.156985
17  1.071902 -0.000002 -0.000001  -0.000000 0.000000 0.418664
18  3.789474 -0.000903 1.136842  0.149067 -0.545596 -0.088892
19  1.136841 -0.000001 0.000001  -0.000000 0.000000 -0.139549
20  1.136843 0.000001 0.000001  -0.000000 0.000000 -0.209330
21  3.789475 -0.000301 0.378947  0.102957 -0.246416 -0.108507
22  1.326315 0.000000 -0.000000  -0.000000 -0.000000 -0.244222
23  1.326317 0.000000 0.000000  0.000000 -0.000000 0.034883
24  3.789474 0.000303 -0.378950  0.010945 -0.033092 -0.340354
25  1.136843 -0.000000 -0.000001  0.000000 0.000000 0.218048
26  1.136842 -0.000002 -0.000001  0.000000 -0.000000 -0.261651
27  3.789474 0.000904 -1.136844  -0.121819 0.410637 -0.322506
28  0.947369 0.000000 0.000002  -0.000000 0.000000 0.279109
29  0.947369 -0.000002 0.000003  0.000000 -0.000000 -0.104644
30  0.000004 0.001503 1.894737  -0.000014 -1.370797 3.140810
31  4.926316 0.000003 -0.000001  0.000000 1.270796 0.000000
32  11.368427 -0.000001 -0.000000  0.000000 0.000000 -0.200000
33  11.368424 -0.000003 -0.000001  -1.570000 0.000000 0.000000
34  1.126233 0.104083 -1.358369  1.823541 0.487125 0.071487
35  2.373624 0.000003 0.000001  -0.000000 -0.000000 0.113389
36  1.071906 0.000002 -0.000003  -0.000000 -0.000000 0.017444
37  3.789475 -0.000906 -1.136842  0.011610 0.156576 0.079348
38  1.136842 0.000000 0.000001  -0.000000 -0.000000 -0.000000
39  1.136843 0.000001 0.000002  -0.000000 0.000000 -0.000000
40  3.789476 -0.000302 -0.378947  0.005372 0.078320 0.078679
41  1.326313 -0.000001 -0.000001  0.000000 -0.000000 0.000000
42  1.326313 -0.000003 0.000004  0.000000 0.000000 0.008722
43  3.789476 0.000300 0.378947  -0.000794 0.000062 0.078500
44  1.136844 -0.000000 0.000001  -0.000000 -0.000000 -0.000000
45  1.136844 0.000000 -0.000001  -0.000000 -0.000000 -0.000000
46  3.789475 0.000904 1.136842  -0.012516 -0.147755 0.079485
47  0.947363 -0.000001 -0.000000  -0.000000 -0.000000 0.000000
48  0.947364 0.000001 -0.000001  -0.000000 0.000000 0.000000
time 3
0  -3.760378 12.856367 -25.602371  0.000000 -0.000000 -1.570795
1  0.000000 0.000000 0.000000  -1.570795 -1.570796 0.000000
2  1.326317 -0.003920 0.000002  -0.000004 -0.000001 0.000796
3  4.926314 -0.003923 -0.000000  0.000000 0.000000 0.000000
4  4.926313 -0.003924 -0.000000  -0.000000 0.000000 0.000000
5  4.926316 -0.003923 -0.000000  0.000000 0.000000 0.000000
6  4.926318 -0.001509 -0.000000  -0.000000 -0.000000 -0.000000
7  0.000004 0.001514 -1.894737  -2.182686 0.978411 0.867850
8  4.926314 0.000000 -0.000003  1.338624 -0.119916 -1.206495
9  11.368421 -0.000001 0.000001  0.000000 -0.000000 -0.213411
10  11.368422 -0.000001 -0.000001  -0.032359 -0.254330 -0.110396
11  -62.859116 5.613626 10.791718  -0.025353 -0.035788 1.366916
12  0.468038 0.919410 2.661565  -0.000000 0.000000 0.000000
13  -0.492028 -0.160316 0.005991  0.000000 0.000000 -0.000000
14  0.383199 0.108196 0.000000  -0.000000 0.000000 0.000000
15  1.126229 0.104085 1.358368  -1.529494 -1.114343 0.178429
16  2.373624 0.000003 -0.000001  0.000000 0.000000 0.169480
17  1.071902 -0.000002 -0.000002  -0.000000 0.000000 0.418664
18  3.789473 -0.000902 1.136841  0.143935 -0.542275 -0.075812
19  1.136842 -0.000000 0.000000  -0.000000 0.000000 -0.132885
20  1.136843 0.000001 0.000002  0.000000 0.000000 -0.184340
21  3.789476 -0.000300 0.378946  0.100303 -0.245926 -0.096145
22  1.326315 -0.000001 -0.000001  -0.000000 -0.000000 -0.235891
23  1.326316 0.000000 0.000002  0.000000 0.000000 0.056125
24  3.789474 0.000303 -0.378951  0.010583 -0.032607 -0.324521
25  1.136843 -0.000000 0.000000  -0.000000 0.000000 0.218048
26  1.136843 -0.000002 -0.000002  0.000000 -0.000000 -0.236660
27  3.789474 0.000905 -1.136845  -0.116143 0.407397 -0.303827
28  0.947369 0.000000 0.000002  -0.000000 0.000000 0.279109
29  0.947371 -0.000001 0.000003  0.000000 -0.000000 -0.089650
30  0.000004 0.001503 1.894737  -0.000014 -1.370797 3.140810
31  4.926316 0.000003 -0.000001  0.000000 1.270796 0.000000
32  11.368427 -0.000001 -0.000000  0.000000 0.000000 -0.200000
33  11.368423 -0.000002 -0.000001  -1.570000 0.000000 0.000000
34  1.126232 0.104083 -1.358371  1.823541 0.487125 0.071487
35  2.373626 0.000004 0.000001  -0.000000 -0.000000 0.113389
36  1.071905 0.000002 -0.000003  -0.000000 -0.000000 0.017444
37  3.789474 -0.000906 -1.136843  0.011610 0.156576 0.079348
38  1.136842 -0.000000 0.000000  -0.000000 -0.000000 -0.000000
39  1.136844 0.000000 0.000001  -0.000000 0.000000 -0.000000
40  3.789474 -0.000302 -0.378949  0.005372 0.078320 0.078679
41  1.326314 -0.000001 -0.000002  0.000000 -0.000000 0.000000
42  1.326312 -0.000002 0.000004  0.000000 0.000000 0.008722
43  3.789475 0.000301 0.378945  -0.000794 0.000062 0.078500
44  1.136845 -0.000000 0.000001  -0.000000 -0.000000 -0.000000
45  1.136843 -0.000000 -0.000000  -0.000000 -0.000000 -0.000000
46  3.789474 0.000903 1.136841  -0.012516 -0.147755 0.079485
47  0.947361 -0.000001 -0.000000  -0.000000 -0.000000 0.000000
48  0.947364 0.000001 -0.000002  -0.000000 0.000000 0.000000
time 4
0  -3.796610 12.076643 -25.602371  0.000000 -0.000000 -1.570795
1  0.000000 0.000000 0.000000  -1.570795 -1.570796 0.000000
2  1.326317 -0.003920 0.000002  -0.000004 -0.000001 0.000796
3  4.926315 -0.003923 -0.000000  0.000000 0.000000 0.000000
4  4.926314 -0.003924 -0.000000  -0.000000 0.000000 0.000000
5  4.926316 -0.003923 -0.000000  0.000000 0.000000 0.000000
6  4.926318 -0.001509 -0.000000  -0.000000 -0.000000 -0.000000
7  0.000005 0.001515 -1.894737  -2.173826 1.037253 0.895354
8  4.926315 0.000000 -0.000003  1.125330 -0.186303 -1.254742
9  11.368422 -0.000001 0.000002  -0.000000 -0.000000 -0.149197
10  11.368419 -0.000001 -0.000001  0.035450 -0.269704 -0.052141
11  -50.940071 15.056120 9.284058  -0.025353 -0.035788 1.366916
12  0.468037 0.919407 2.661573  -0.000000 -0.000000 -0.000000
13  -0.492027 -0.160304 0.005992  0.000000 0.000000 -0.000000
14  0.383201 0.108201 -0.000002  -0.000000 0.000000 0.000000
15  1.126229 0.104084 1.358369  -1.572702 -1.114636 0.192315
16  2.373624 0.000003 -0.000000  0.000000 0.000000 0.207934
17  1.071903 -0.000002 -0.000001  0.000000 0.000000 0.418664
18  3.789474 -0.000903 1.136842  0.128268 -0.531867 -0.035697
19  1.136841 -0.000000 0.000001  0.000000 0.000000 -0.112377
20  1.136844 0.000001 -0.000001  0.000000 0.000000 -0.107433
21  3.789475 -0.000300 0.378947  0.092150 -0.244317 -0.058112
22  1.326316 0.000001 -0.000001  -0.000000 -0.000000 -0.210255
23  1.326316 0.000000 0.000001  0.000000 0.000000 0.121496
24  3.789474 0.000303 -0.378950  0.009501 -0.031112 -0.275795
25  1.136844 -0.000001 0.000000  0.000000 -0.000000 0.218048
26  1.136844 -0.000002 -0.000001  0.000000 -0.000000 -0.159753
27  3.789474 0.000905 -1.136844  -0.098910 0.397103 -0.246467
28  0.947372 0.000001 0.000001  0.000000 0.000000 0.279109
29  0.947371 -0.000001 0.000004  0.000000 -0.000000 -0.043508
30  0.000004 0.001503 1.894737  -0.000014 -1.370797 3.140810
31  4.926317 0.000002 -0.000000  0.000000 1.270796 0.000000
32  11.368427 -0.000002 -0.000000  0.000000 0.000000 -0.200000
33  11.368422 -0.000002 -0.000001  -1.570000 0.000000 0.000000
34  1.126232 0.104083 -1.358371  1.823541 0.487125 0.071487
35  2.373623 0.000003 0.000001  -0.000000 -0.000000 0.113389
36  1.071905 0.000002 -0.000003  -0.000000 -0.000000 0.017444
37  3.789474 -0.000906 -1.136843  0.011610 0.156576 0.079348
38  1.136842 0.000000 -0.000001  -0.000000 -0.000000 -0.000000
39  1.136845 0.000001 -0.000001  -0.000000 0.000000 -0.000000
40  3.789474 -0.000302 -0.378949  0.005372 0.078320 0.078679
41  1.326314 -0.000001 -0.000002  0.000000 -0.000000 0.000000
42  1.326314 -0.000003 0.000004  0.000000 0.000000 0.008722
43  3.789474 0.000300 0.378945  -0.000794 0.000062 0.078500
44  1.136843 -0.000000 0.000002  -0.000000 -0.000000 -0.000000
45  1.136841 -0.000000 0.000002  -0.000000 -0.000000 -0.000000
46  3.789473 0.000903 1.136840  -0.012516 -0.147755 0.079485
47  0.947364 -0.000001 -0.000001  -0.000000 -0.000000 0.000000
48  0.947367 0.000001 -0.000003  -0.000000 0.000000 0.000000
time 5
0  -3.824515 10.849119 -25.602371  0.000000 -0.000000 -1.570795
1  0.000000 -0.000000 0.000000  -1.570795 -1.570796 0.000000
2  1.326317 -0.003921 0.000002  -0.000004 -0.000001 0.000796
3  4.926315 -0.003922 -0.000000  0.000000 0.000000 0.000000
4  4.926314 -0.003923 -0.000000  -0.000000 0.000000 0.000000
5  4.926315 -0.003922 -0.000000  0.000000 0.000000 0.000000
6  4.926318 -0.001508 -0.000000  -0.000000 -0.000000 -0.000000
7  0.000005 0.001516 -1.894737  -2.145734 1.134705 0.949323
8  4.926315 -0.000001 -0.000003  0.889017 -0.252168 -1.340853
9  11.368420 -0.000001 0.000001  0.000000 -0.000000 -0.103856
10  11.368420 -0.000001 -0.000001  0.164084 -0.268598 -0.000722
11  -33.579464 23.104334 6.431278  -0.025353 -0.035788 1.366916
12  0.468037 0.919402 2.661566  -0.000000 -0.000000 0.000000
13  -0.492026 -0.160310 0.005985  -0.000000 0.000000 -0.000000
14  0.383202 0.108198 -0.000003  0.000000 0.000000 0.000000
15  1.126229 0.104082 1.358369  -1.643898 -1.114807 0.215135
16  2.373624 -0.000000 0.000000  0.000000 0.000000 0.271314
17  1.071902 -0.000003 -0.000002  -0.000000 0.000000 0.418664
18  3.789474 -0.000904 1.136841  0.102810 -0.514125 0.029987
19  1.136843 -0.000000 -0.000000  -0.000000 0.000000 -0.078576
20  1.136842 0.000001 -0.000000  0.000000 0.000000 0.019325
21  3.789475 -0.000301 0.378946  0.078746 -0.241356 0.004543
22  1.326315 0.000000 -0.000001  -0.000000 -0.000000 -0.168001
23  1.326318 0.000002 0.000000  0.000000 0.000000 0.229241
24  3.789475 0.000302 -0.378951  0.007795 -0.028642 -0.195485
25  1.136843 -0.000000 -0.000001  -0.000000 0.000000 0.218048
26  1.136842 -0.000002 -0.000002  -0.000000 -0.000000 -0.032994
27  3.789474 0.000904 -1.136845  -0.071097 0.379097 -0.152353
28  0.947371 0.000001 0.000001  0.000000 0.000000 0.279109
29  0.947369 -0.000000 0.000003  -0.000000 -0.000000 0.032545
30  0.000004 0.001504 1.894737  -0.000014 -1.370797 3.140810
31  4.926317 0.000001 -0.000000  0.000000 1.270796 0.000000
32  11.368427 -0.000001 -0.000000  0.000000 0.000000 -0.200000
33  11.368423 -0.000001 -0.000001  -1.570000 0.000000 0.000000
34  1.126232 0.104083 -1.358371  1.823541 0.487125 0.071487
35  2.373625 0.000003 0.000001  -0.000000 -0.000000 0.113389
36  1.071905 0.000002 -0.000003  -0.000000 -0.000000 0.017444
37  3.789474 -0.000906 -1.136843  0.011610 0.156576 0.079348
38  1.136842 0.000001 -0.000000  -0.000000 -0.000000 -0.000000
39  1.136842 0.000001 0.000000  -0.000000 0.000000 -0.000000
40  3.789474 -0.000302 -0.378949  0.005372 0.078320 0.078679
41  1.326315 -0.000001 -0.000000  0.000000 -0.000000 0.000000
42  1.326315 -0.000002 0.000003  0.000000 0.000000 0.008722
43  3.789475 0.000301 0.378945  -0.000794 0.000062 0.078500
44  1.136842 -0.000000 0.000003  -0.000000 -0.000000 -0.000000
45  1.136842 0.000000 0.000001  -0.000000 -0.000000 -0.000000
46  3.789474 0.000903 1.136840  -0.012516 -0.147755 0.079485
47  0.947365 -0.000001 0.000001  -0.000000 -0.000000 0.000000
48  0.947366 0.000002 -0.000001  -0.000000 0.000000 0.000000
time 6
0  -3.843590 9.353802 -25.602371  0.000000 -0.000000 -1.570795
1  0.000000 -0.000000 0.000000  -1.570795 -1.570796 0.000000
2  1.326318 -0.003921 0.000002  -0.000004 -0.000001 0.000796
3  4.926315 -0.003923 -0.000000  0.000000 0.000000 0.000000
4  4.926314 -0.003924 -0.000000  -0.000000 0.000000 0.000000
5  4.926315 -0.003923 -0.000000  0.000000 0.000000 0.000000
6  4.926318 -0.001508 -0.000000  -0.000000 -0.000000 -0.000000
7  0.000005 0.001515 -1.894737  -2.065226 1.261125 1.054913
8  4.926314 -0.000002 -0.000004  0.642995 -0.313262 -1.452811
9  11.368420 -0.000001 0.000001  0.000000 -0.000000 -0.075400
10  11.368423 -0.000001 -0.000002  0.341255 -0.255396 0.041919
11  -13.140084 29.427074 2.394857  -0.025353 -0.035788 1.366916
12  0.468036 0.919405 2.661567  0.000000 -0.000000 0.000000
13  -0.492026 -0.160310 0.005988  0.000000 0.000000 -0.000000
14  0.383204 0.108199 -0.000001  0.000000 -0.000000 0.000000
15  1.126229 0.104085 1.358369  -1.736548 -1.114457 0.244681
16  2.373624 0.000001 0.000000  0.000000 0.000001 0.353884
17  1.071903 -0.000003 -0.000003  0.000000 0.000000 0.418664
18  3.789474 -0.000901 1.136841  0.070364 -0.489934 0.114722
19  1.136842 -0.000001 0.000000  -0.000000 0.000000 -0.034541
20  1.136842 0.000003 0.000000  0.000000 0.000000 0.184463
21  3.789476 -0.000299 0.378946  0.061377 -0.236928 0.086100
22  1.326313 0.000002 0.000001  0.000000 0.000000 -0.112954
23  1.326315 0.000001 0.000000  0.000001 0.000000 0.369609
24  3.789474 0.000305 -0.378950  0.005711 -0.025410 -0.090860
25  1.136841 -0.000000 -0.000001  0.000000 -0.000000 0.218048
26  1.136843 -0.000004 -0.000001  0.000000 -0.000000 0.132144
27  3.789474 0.000906 -1.136845  -0.036099 0.353687 -0.030638
28  0.947368 -0.000000 0.000003  0.000000 0.000000 0.279109
29  0.947371 0.000000 0.000004  0.000000 -0.000000 0.131625
30  0.000005 0.001503 1.894737  -0.000014 -1.370797 3.140810
31  4.926317 0.000002 -0.000000  0.000000 1.270796 0.000000
32  11.368427 -0.000002 -0.000000  0.000000 0.000000 -0.200000
33  11.368422 -0.000001 -0.000001  -1.570000 0.000000 0.000000
34  1.126232 0.104083 -1.358371  1.823541 0.487125 0.071487
35  2.373623 0.000001 0.000001  -0.000000 -0.000000 0.113389
36  1.071905 0.000004 -0.000003  -0.000000 -0.000000 0.017444
37  3.789474 -0.000906 -1.136843  0.011610 0.156576 0.079348
38  1.136844 0.000000 -0.000001  -0.000000 -0.000000 -0.000000
39  1.136842 0.000001 -0.000000  -0.000000 0.000000 -0.000000
40  3.789474 -0.000302 -0.378948  0.005372 0.078320 0.078679
41  1.326315 -0.000001 0.000000  0.000000 -0.000000 0.000000
42  1.326314 -0.000002 0.000001  0.000000 0.000000 0.008722
43  3.789475 0.000300 0.378945  -0.000794 0.000062 0.078500
44  1.136841 -0.000000 0.000001  -0.000000 -0.000000 -0.000000
45  1.136844 -0.000000 -0.000000  -0.000000 -0.000000 -0.000000
46  3.789473 0.000904 1.136841  -0.012516 -0.147755 0.079485
47  0.947364 -0.000001 -0.000001  -0.000000 -0.000000 0.000000
48  0.947367 0.000001 -0.000001  -0.000000 0.000000 0.000000
time 7
0  -3.854671 7.858485 -25.602371  0.000000 -0.000000 -1.570795
1  0.000000 -0.000000 0.000000  -1.570795 -1.570796 0.000000
2  1.326318 -0.003921 0.000002  -0.000004 -0.000001 0.000796
3  4.926314 -0.003923 -0.000000  0.000000 0.000000 0.000000
4  4.926313 -0.003923 -0.000000  -0.000000 0.000000 0.000000
5  4.926316 -0.003923 -0.000000  0.000000 0.000000 0.000000
6  4.926318 -0.001509 -0.000000  -0.000000 -0.000000 -0.000000
7  0.000005 0.001514 -1.894737  -1.815020 1.394181 1.322055
8  4.926315 -0.000001 -0.000002  0.401578 -0.365568 -1.569914
9  11.368421 -0.000000 0.000001  0.000000 -0.000000 -0.058561
10  11.368422 -0.000002 -0.000001  0.542658 -0.237309 0.075660
11  6.935246 33.899101 -2.428681  -0.025353 -0.035788 1.366916
12  0.468033 0.919401 2.661568  0.000000 -0.000000 0.000000
13  -0.492026 -0.160312 0.005987  0.000000 0.000000 -0.000000
14  0.383200 0.108199 -0.000002  -0.000000 -0.000000 0.000000
15  1.126228 0.104083 1.358369  -1.838881 -1.113258 0.277009
16  2.373625 0.000001 -0.000002  0.000000 0.000001 0.445344
17  1.071902 -0.000003 -0.000002  0.000000 0.000000 0.418664
18  3.789473 -0.000903 1.136842  0.035532 -0.461712 0.207405
19  1.136840 -0.000002 -0.000002  0.000000 0.000000 0.014236
20  1.136843 0.000002 -0.000000  0.000000 -0.000000 0.367382
21  3.789475 -0.000301 0.378946  0.042327 -0.231243 0.176324
22  1.326317 0.000000 -0.000003  0.000000 0.000000 -0.051979
23  1.326316 0.000000 0.000003  0.000001 0.000000 0.525091
24  3.789472 0.000302 -0.378950  0.003617 -0.021808 0.025029
25  1.136840 -0.000000 0.000000  -0.000000 0.000000 0.218048
26  1.136843 -0.000001 0.000000  -0.000000 -0.000000 0.315064
27  3.789473 0.000904 -1.136845  0.000493 0.322953 0.102839
28  0.947369 -0.000000 0.000000  0.000000 0.000000 0.279109
29  0.947367 0.000000 0.000002  -0.000000 -0.000000 0.241374
30  0.000005 0.001504 1.894737  -0.000014 -1.370797 3.140810
31  4.926316 0.000001 -0.000000  0.000000 1.270796 0.000000
32  11.368427 0.000000 -0.000000  0.000000 0.000000 -0.200000
33  11.368423 -0.000000 -0.000001  -1.570000 0.000000 0.000000
34  1.126234 0.104083 -1.358371  1.823541 0.487125 0.071487
35  2.373623 0.000002 0.000001  -0.000000 -0.000000 0.113389
36  1.071906 0.000003 -0.000003  -0.000000 -0.000000 0.017444
37  3.789476 -0.000906 -1.136843  0.011610 0.156576 0.079348
38  1.136840 0.000000 0.000001  -0.000000 -0.000000 -0.000000
39  1.136844 0.000000 -0.000001  -0.000000 0.000000 -0.000000
40  3.789476 -0.000302 -0.378949  0.005372 0.078320 0.078679
41  1.326315 -0.000001 -0.000001  0.000000 -0.000000 0.000000
42  1.326315 -0.000002 0.000002  0.000000 0.000000 0.008722
43  3.789477 0.000301 0.378945  -0.000794 0.000062 0.078500
44  1.136841 -0.000000 0.000001  -0.000000 -0.000000 -0.000000
45  1.136845 -0.000000 0.000000  -0.000000 -0.000000 -0.000000
46  3.789475 0.000904 1.136841  -0.012516 -0.147755 0.079485
47  0.947364 -0.000000 -0.000000  -0.000000 -0.000000 0.000000
48  0.947367 0.000001 -0.000002  -0.000000 0.000000 0.000000
time 8
0  -3.859810 6.630960 -25.602371  0.000000 -0.000000 -1.570795
1  0.000000 0.000000 0.000000  -1.570795 -1.570796 0.000000
2  1.326318 -0.003921 0.000002  -0.000004 -0.000001 0.000796
3  4.926314 -0.003923 -0.000000  0.000000 0.000000 0.000000
4  4.926313 -0.003923 -0.000000  -0.000000 0.000000 0.000000
5  4.926315 -0.003923 -0.000000  0.000000 0.000000 0.000000
6  4.926318 -0.001509 -0.000000  -0.000000 -0.000000 -0.000000
7  0.000005 0.001514 -1.894737  -0.889665 1.474803 2.253388
8  4.926314 -0.000000 -0.000003  0.175995 -0.408882 -1.669001
9  11.368421 -0.000001 0.000001  0.000000 -0.000000 -0.046309
10  11.368422 -0.000002 -0.000001  0.739987 -0.222028 0.102278
11  23.258959 36.676090 -7.523345  -0.025353 -0.035788 1.366916
12  0.468040 0.919405 2.661567  0.000000 -0.000000 0.000000
13  -0.492034 -0.160311 0.005990  0.000000 0.000000 -0.000000
14  0.383203 0.108199 0.000001  -0.000000 0.000000 0.000000
15  1.126231 0.104084 1.358370  -1.937586 -1.111138 0.307704
16  2.373624 -0.000000 -0.000002  0.000000 0.000000 0.534047
17  1.071902 -0.000003 -0.000000  0.000000 0.000000 0.418664
18  3.789476 -0.000904 1.136842  0.003144 -0.432869 0.295998
19  1.136840 -0.000000 0.000002  -0.000000 -0.000000 0.061543
20  1.136842 0.000001 0.000002  0.000000 0.000000 0.544786
21  3.789477 -0.000299 0.378947  0.024143 -0.224886 0.263681
22  1.326312 0.000001 -0.000001  0.000000 0.000000 0.007157
23  1.326317 0.000002 0.000003  0.000000 0.000000 0.675886
24  3.789475 0.000303 -0.378950  0.001889 -0.018284 0.137422
25  1.136842 -0.000001 -0.000000  -0.000000 -0.000000 0.218048
26  1.136842 -0.000002 0.000000  -0.000000 -0.000000 0.492469
27  3.789475 0.000905 -1.136845  0.032837 0.290541 0.230764
28  0.947367 -0.000000 0.000000  -0.000000 0.000000 0.279109
29  0.947367 -0.000000 0.000003  -0.000000 -0.000000 0.347813
30  0.000004 0.001504 1.894737  -0.000014 -1.370797 3.140810
31  4.926317 0.000001 0.000000  0.000000 1.270796 0.000000
32  11.368427 -0.000000 0.000000  0.000000 0.000000 -0.200000
33  11.368423 -0.000000 -0.000001  -1.570000 0.000000 0.000000
34  1.126233 0.104083 -1.358371  1.823541 0.487125 0.071487
35  2.373622 0.000001 0.000000  -0.000000 -0.000000 0.113389
36  1.071905 0.000001 -0.000003  -0.000000 -0.000000 0.017444
37  3.789474 -0.000906 -1.136842  0.011610 0.156576 0.079348
38  1.136841 -0.000000 0.000001  -0.000000 -0.000000 -0.000000
39  1.136842 0.000000 0.000000  -0.000000 0.000000 -0.000000
40  3.789475 -0.000302 -0.378948  0.005372 0.078320 0.078679
41  1.326316 -0.000001 0.000000  0.000000 -0.000000 0.000000
42  1.326313 -0.000002 0.000003  0.000000 0.000000 0.008722
43  3.789475 0.000300 0.378946  -0.000794 0.000062 0.078500
44  1.136840 -0.000001 0.000001  -0.000000 -0.000000 -0.000000
45  1.136842 -0.000000 -0.000000  -0.000000 -0.000000 -0.000000
46  3.789474 0.000904 1.136842  -0.012516 -0.147755 0.079485
47  0.947362 -0.000001 -0.000000  -0.000000 -0.000000 0.000000
48  0.947367 0.000001 -0.000001  -0.000000 0.000000 0.000000
time 9
0  -3.861451 5.851235 -25.602371  0.000000 -0.000000 -1.570795
1  0.000000 0.000000 0.000000  -1.570795 -1.570796 0.000000
2  1.326318 -0.003921 0.000002  -0.000004 -0.000001 0.000796
3  4.926315 -0.003923 -0.000000  0.000000 0.000000 0.000000
4  4.926314 -0.003923 -0.000000  -0.000000 0.000000 0.000000
5  4.926315 -0.003923 -0.000000  0.000000 0.000000 0.000000
6  4.926317 -0.001509 -0.000000  -0.000000 -0.000000 -0.000000
7  0.000005 0.001514 -1.894737  0.059360 1.420856 -3.083680
8  4.926314 -0.000001 -0.000003  -0.028058 -0.446857 -1.732760
9  11.368421 0.000000 0.000001  0.000000 -0.000000 -0.032368
10  11.368422 -0.000002 -0.000001  0.910965 -0.215199 0.124417
11  33.602589 38.109673 -12.437227  -0.025353 -0.035788 1.366916
12  0.468036 0.919405 2.661568  0.000000 -0.000000 0.000000
13  -0.492026 -0.160313 0.005985  0.000000 0.000000 -0.000000
14  0.383201 0.108198 -0.000004  0.000000 0.000000 0.000000
15  1.126227 0.104084 1.358370  -2.022416 -1.108276 0.333440
16  2.373625 0.000002 0.000000  0.000000 0.000000 0.610976
17  1.071905 -0.000001 -0.000002  0.000000 0.000000 0.418664
18  3.789473 -0.000902 1.136843  -0.023417 -0.406579 0.371633
19  1.136840 -0.000000 0.000003  -0.000000 -0.000000 0.102571
20  1.136843 0.000002 0.000001  0.000000 0.000000 0.698641
21  3.789474 -0.000300 0.378947  0.008729 -0.218589 0.339287
22  1.326314 0.000000 -0.000001  0.000000 0.000000 0.058444
23  1.326315 0.000000 0.000001  0.000000 -0.000000 0.806663
24  3.789471 0.000302 -0.378949  0.000781 -0.015187 0.234892
25  1.136843 -0.000001 -0.000001  -0.000000 -0.000000 0.218048
26  1.136844 -0.000005 -0.000000  -0.000000 -0.000000 0.646324
27  3.789472 0.000905 -1.136843  0.056986 0.260322 0.340332
28  0.947371 -0.000001 0.000001  -0.000000 0.000000 0.279109
29  0.947368 -0.000001 0.000003  -0.000000 -0.000000 0.440124
30  0.000005 0.001504 1.894737  -0.000014 -1.370797 3.140810
31  4.926316 0.000001 -0.000000  0.000000 1.270796 0.000000
32  11.368427 -0.000000 -0.000000  0.000000 0.000000 -0.200000
33  11.368423 -0.000001 -0.000001  -1.570000 0.000000 0.000000
34  1.126233 0.104083 -1.358371  1.823541 0.487125 0.071487
35  2.373625 0.000001 0.000001  -0.000000 -0.000000 0.113389
36  1.071904 0.000002 -0.000003  -0.000000 -0.000000 0.017444
37  3.789475 -0.000906 -1.136843  0.011610 0.156576 0.079348
38  1.136840 0.000000 -0.000001  -0.000000 -0.000000 -0.000000
39  1.136843 0.000001 -0.000000  -0.000000 0.000000 -0.000000
40  3.789475 -0.000301 -0.378948  0.005372 0.078320 0.078679
41  1.326313 -0.000001 -0.000000  0.000000 -0.000000 0.000000
42  1.326315 -0.000002 0.000003  0.000000 0.000000 0.008722
43  3.789476 0.000301 0.378946  -0.000794 0.000062 0.078500
44  1.136844 -0.000001 0.000001  -0.000000 -0.000000 -0.000000
45  1.136842 -0.000000 -0.000000  -0.000000 -0.000000 -0.000000
46  3.789474 0.000904 1.136841  -0.012516 -0.147755 0.079485
47  0.947363 -0.000001 0.000000  -0.000000 -0.000000 0.000000
48  0.947362 0.000001 -0.000002  -0.000000 0.000000 0.000000
time 10
0  -3.861652 5.590014 -25.602371  0.000000 -0.000000 -1.570795
1  0.000000 -0.000000 0.000000  -1.570795 -1.570796 0.000000
2  1.326318 -0.003921 0.000002  -0.000004 -0.000001 0.000796
3  4.926315 -0.003922 -0.000000  0.000000 0.000000 0.000000
4  4.926314 -0.003922 -0.000000  -0.000000 0.000000 0.000000
5  4.926315 -0.003922 -0.000000  0.000000 0.000000 0.000000
6  4.926318 -0.001508 -0.000000  -0.000000 -0.000000 -0.000000
7  0.000005 0.001515 -1.894737  0.327837 1.340258 -2.822618
8  4.926315 -0.000000 -0.000003  -0.210421 -0.484049 -1.752825
9  11.368421 -0.000000 0.000002  0.000000 -0.000000 -0.012677
10  11.368419 -0.000002 -0.000001  1.043451 -0.219601 0.144461
11  37.140808 38.592144 -16.884733  -0.025353 -0.035788 1.366916
12  0.468033 0.919401 2.661572  0.000000 -0.000000 0.000000
13  -0.492027 -0.160304 0.005988  -0.000000 0.000000 -0.000000
14  0.383200 0.108194 0.000000  0.000000 0.000000 0.000000
15  1.126229 0.104084 1.358369  -2.088063 -1.104961 0.352592
16  2.373623 -0.000000 -0.000001  0.000000 -0.000000 0.671368
17  1.071902 -0.000001 -0.000001  0.000000 0.000000 0.418664
18  3.789473 -0.000903 1.136842  -0.042686 -0.384918 0.429986
19  1.136842 0.000001 0.000000  -0.000000 -0.000000 0.134779
20  1.136845 0.000003 -0.000001  0.000000 0.000000 0.819423
21  3.789475 -0.000302 0.378946  -0.002987 -0.212955 0.398493
22  1.326318 0.000000 -0.000001  -0.000000 -0.000000 0.098705
23  1.326316 0.000002 0.000000  -0.000000 -0.000000 0.909328
24  3.789474 0.000301 -0.378951  0.000399 -0.012706 0.311405
25  1.136845 0.000001 0.000000  -0.000000 -0.000000 0.218048
26  1.136846 -0.000002 -0.000001  -0.000000 -0.000000 0.767105
27  3.789474 0.000906 -1.136844  0.071456 0.235123 0.425274
28  0.947369 -0.000001 0.000000  -0.000000 0.000000 0.279109
29  0.947370 0.000000 0.000003  0.000000 -0.000000 0.512591
30  0.000005 0.001504 1.894737  -0.000014 -1.370797 3.140810
31  4.926317 0.000001 -0.000000  0.000000 1.270796 0.000000
32  11.368427 0.000000 0.000000  0.000000 0.000000 -0.200000
33  11.368425 -0.000001 -0.000001  -1.570000 0.000000 0.000000
34  1.126232 0.104082 -1.358371  1.823541 0.487125 0.071487
35  2.373624 0.000002 0.000001  -0.000000 -0.000000 0.113389
36  1.071906 0.000002 -0.000003  -0.000000 -0.000000 0.017444
37  3.789474 -0.000907 -1.136844  0.011610 0.156576 0.079348
38  1.136841 0.000000 -0.000001  -0.000000 -0.000000 -0.000000
39  1.136842 0.000000 0.000000  -0.000000 0.000000 -0.000000
40  3.789474 -0.000303 -0.378948  0.005372 0.078320 0.078679
41  1.326315 -0.000001 0.000001  0.000000 -0.000000 0.000000
42  1.326313 -0.000003 0.000002  0.000000 0.000000 0.008722
43  3.789475 0.000300 0.378945  -0.000794 0.000062 0.078500
44  1.136842 -0.000000 0.000001  -0.000000 -0.000000 -0.000000
45  1.136846 0.000000 0.000001  -0.000000 -0.000000 -0.000000
46  3.789473 0.000903 1.136841  -0.012516 -0.147755 0.079485
47  0.947363 -0.000001 0.000000  -0.000000 -0.000000 0.000000
48  0.947367 0.000001 -0.000001  -0.000000 0.000000 0.000000
time 11
0  -3.708725 5.595861 -25.602371  0.000000 -0.000000 -1.570795
1  -0.000000 -0.000000 0.000000  -1.570795 -1.570796 0.000000
2  1.326318 -0.003921 0.000002  -0.000004 -0.000001 0.000796
3  4.926314 -0.003923 -0.000000  0.000000 0.000000 0.000000
4  4.926313 -0.003922 -0.000000  -0.000000 0.000000 0.000000
5  4.926315 -0.003923 -0.000000  0.000000 0.000000 0.000000
6  4.926318 -0.001509 -0.000000  -0.000000 -0.000000 -0.000000
7  0.000004 0.001514 -1.894737  0.444199 1.264385 -2.716392
8  4.926315 0.000001 -0.000003  -0.390465 -0.525258 -1.743049
9  11.368422 -0.000001 -0.000000  -0.000000 -0.000000 0.009612
10  11.368423 -0.000002 0.000000  1.157063 -0.230305 0.164186
11  34.280239 37.705376 -21.695744  -0.025353 -0.035788 1.366916
12  0.468034 0.919401 2.661566  0.000000 0.000000 0.000000
13  -0.492028 -0.160306 0.005990  0.000000 0.000000 -0.000000
14  0.383200 0.108196 -0.000002  0.000000 -0.000000 0.000000
15  1.126227 0.104084 1.358369  -2.145448 -1.101208 0.368755
16  2.373624 0.000001 -0.000001  -0.000000 -0.000000 0.724858
17  1.071902 -0.000001 -0.000001  0.000000 -0.000000 0.418664
18  3.789473 -0.000901 1.136842  -0.057646 -0.364645 0.480519
19  1.136839 0.000000 0.000001  0.000000 -0.000000 0.163307
20  1.136840 0.000003 0.000001  0.000000 -0.000000 0.926401
21  3.789472 -0.000298 0.378947  -0.012856 -0.207157 0.450754
22  1.326317 0.000002 -0.000001  0.000000 -0.000000 0.134365
23  1.326320 -0.000000 0.000000  -0.000000 -0.000000 1.000259
24  3.789471 0.000303 -0.378950  0.000397 -0.010433 0.379167
25  1.136844 0.000000 -0.000000  0.000000 -0.000000 0.218048
26  1.136847 -0.000001 -0.000000  -0.000000 -0.000000 0.874081
27  3.789473 0.000906 -1.136843  0.080756 0.211503 0.499452
28  0.947369 0.000001 0.000001  -0.000000 0.000000 0.279109
29  0.947368 0.000001 0.000001  0.000000 -0.000000 0.576776
30  0.000004 0.001504 1.894737  -0.000014 -1.370797 3.140810
31  4.926317 0.000001 -0.000000  0.000000 1.270796 0.000000
32  11.368427 -0.000000 -0.000000  0.000000 0.000000 -0.200000
33  11.368423 -0.000002 -0.000001  -1.570000 0.000000 0.000000
34  1.126233 0.104083 -1.358371  1.823541 0.487125 0.071487
35  2.373626 0.000002 0.000001  -0.000000 -0.000000 0.113389
36  1.071905 0.000002 -0.000002  -0.000000 -0.000000 0.017444
37  3.789475 -0.000906 -1.136843  0.011610 0.156576 0.079348
38  1.136840 0.000000 -0.000000  -0.000000 -0.000000 -0.000000
39  1.136843 0.000001 0.000001  -0.000000 0.000000 -0.000000
40  3.789475 -0.000302 -0.378948  0.005372 0.078320 0.078679
41  1.326315 -0.000001 0.000000  0.000000 -0.000000 0.000000
42  1.326313 -0.000003 0.000003  0.000000 0.000000 0.008722
43  3.789476 0.000301 0.378946  -0.000794 0.000062 0.078500
44  1.136843 -0.000001 0.000001  -0.000000 -0.000000 -0.000000
45  1.136843 0.000000 0.000000  -0.000000 -0.000000 -0.000000
46  3.789474 0.000904 1.136842  -0.012516 -0.147755 0.079485
47  0.947365 -0.000001 0.000000  -0.000000 -0.000000 0.000000
48  0.947361 0.000002 -0.000001  -0.000000 0.000000 0.000000
time 12
0  -3.256303 5.613162 -25.602371  0.000000 -0.000000 -1.570795
1  -0.000000 -0.000000 0.000000  -1.570795 -1.570796 0.000000
2  1.326318 -0.003921 0.000002  -0.000004 -0.000001 0.000796
3  4.926314 -0.003923 -0.000000  0.000000 0.000000 0.000000
4  4.926313 -0.003923 0.000000  -0.000000 0.000000 0.000000
5  4.926315 -0.003923 -0.000000  0.000000 0.000000 0.000000
6  4.926318 -0.001509 -0.000000  -0.000000 -0.000000 -0.000000
7  0.000005 0.001514 -1.894737  0.519102 1.185175 -2.655458
8  4.926314 0.000000 -0.000003  -0.581208 -0.571756 -1.718910
9  11.368421 -0.000001 0.000003  0.000000 0.000000 0.029103
10  11.368422 -0.000001 0.000000  1.271467 -0.241400 0.183527
11  25.551891 34.834141 -27.651211  -0.025353 -0.035788 1.366916
12  0.468038 0.919409 2.661575  0.000000 -0.000000 0.000000
13  -0.492031 -0.160312 0.005987  0.000000 0.000000 -0.000000
14  0.383199 0.108198 0.000004  0.000000 -0.000000 0.000000
15  1.126228 0.104082 1.358369  -2.205019 -1.096962 0.385329
16  2.373621 0.000000 -0.000001  -0.000000 -0.000000 0.780697
17  1.071901 -0.000001 -0.000001  -0.000000 -0.000000 0.418664
18  3.789474 -0.000902 1.136843  -0.071014 -0.342368 0.532061
19  1.136842 0.000000 0.000001  -0.000000 -0.000000 0.193089
20  1.136842 0.000001 0.000000  0.000000 -0.000000 1.038077
21  3.789474 -0.000300 0.378948  -0.022605 -0.200256 0.505114
22  1.326313 0.000002 0.000000  0.000000 -0.000000 0.171591
23  1.326317 0.000000 0.000001  -0.000000 -0.000000 1.095183
24  3.789474 0.000302 -0.378949  0.000424 -0.007979 0.449898
25  1.136845 0.000002 0.000001  -0.000000 -0.000000 0.218048
26  1.136845 -0.000003 -0.000001  -0.000000 -0.000000 0.985755
27  3.789472 0.000906 -1.136843  0.089085 0.185554 0.575792
28  0.947371 0.000003 -0.000001  -0.000000 0.000000 0.279109
29  0.947370 -0.000001 0.000002  0.000000 -0.000000 0.643781
30  0.000004 0.001504 1.894737  -0.000014 -1.370797 3.140810
31  4.926317 0.000001 -0.000000  0.000000 1.270796 0.000000
32  11.368427 -0.000000 -0.000000  0.000000 0.000000 -0.200000
33  11.368424 -0.000001 -0.000002  -1.570000 0.000000 0.000000
34  1.126230 0.104083 -1.358370  1.823541 0.487125 0.071487
35  2.373624 0.000001 0.000001  -0.000000 -0.000000 0.113389
36  1.071903 0.000001 -0.000003  -0.000000 -0.000000 0.017444
37  3.789472 -0.000906 -1.136842  0.011610 0.156576 0.079348
38  1.136840 0.000000 0.000000  -0.000000 -0.000000 -0.000000
39  1.136841 0.000001 0.000000  -0.000000 0.000000 -0.000000
40  3.789473 -0.000302 -0.378947  0.005372 0.078320 0.078679
41  1.326313 -0.000001 0.000000  0.000000 -0.000000 0.000000
42  1.326315 -0.000002 0.000002  0.000000 0.000000 0.008722
43  3.789473 0.000300 0.378946  -0.000794 0.000062 0.078500
44  1.136842 -0.000001 0.000001  -0.000000 -0.000000 -0.000000
45  1.136844 0.000000 -0.000000  -0.000000 -0.000000 -0.000000
46  3.789472 0.000903 1.136842  -0.012516 -0.147755 0.079485
47  0.947363 -0.000001 0.000000  -0.000000 -0.000000 0.000000
48  0.947366 0.000001 -0.000001  -0.000000 0.000000 0.000000
time 13
0  -2.566985 5.639521 -25.602371  0.000000 -0.000000 -1.570795
1  0.000000 -0.000000 0.000000  -1.570795 -1.570796 0.000000
2  1.326319 -0.003921 0.000002  -0.000004 -0.000001 0.000796
3  4.926315 -0.003923 0.000000  0.000000 0.000000 0.000000
4  4.926314 -0.003923 0.000000  -0.000000 0.000000 0.000000
5  4.926316 -0.003923 0.000000  0.000000 0.000000 0.000000
6  4.926318 -0.001509 0.000000  -0.000000 -0.000000 -0.000000
7  0.000005 0.001514 -1.894736  0.570309 1.109565 -2.620985
8  4.926314 0.000000 -0.000002  -0.770850 -0.619753 -1.682291
9  11.368420 -0.000001 0.000001  0.000000 0.000000 0.044746
10  11.368420 -0.000001 0.000000  1.378666 -0.252090 0.201193
11  12.172863 30.384521 -34.220596  -0.025353 -0.035788 1.366916
12  0.468039 0.919402 2.661566  0.000000 0.000000 0.000000
13  -0.492022 -0.160312 0.005990  0.000000 0.000000 -0.000000
14  0.383204 0.108199 -0.000001  0.000000 0.000000 0.000000
15  1.126225 0.104082 1.358366  -2.262385 -1.092556 0.401079
16  2.373621 0.000001 -0.000002  0.000000 -0.000000 0.834790
17  1.071901 -0.000002 0.000000  -0.000000 -0.000000 0.418664
18  3.789472 -0.000904 1.136840  -0.082009 -0.319818 0.580916
19  1.136842 -0.000000 -0.000001  -0.000000 0.000000 0.221940
20  1.136842 0.000000 0.000000  -0.000000 -0.000000 1.146260
21  3.789473 -0.000300 0.378945  -0.031552 -0.192825 0.557590
22  1.326313 0.000002 -0.000001  -0.000000 -0.000000 0.207653
23  1.326319 0.000001 0.000001  -0.000000 -0.000000 1.187138
24  3.789470 0.000303 -0.378952  0.000473 -0.005531 0.518410
25  1.136844 0.000000 0.000001  0.000000 0.000000 0.218048
26  1.136841 -0.000003 -0.000001  -0.000000 -0.000000 1.093935
27  3.789471 0.000905 -1.136846  0.095896 0.159277 0.648752
28  0.947368 0.000001 0.000004  -0.000000 0.000000 0.279109
29  0.947367 -0.000002 -0.000000  0.000000 -0.000000 0.708690
30  0.000004 0.001504 1.894737  -0.000014 -1.370797 3.140810
31  4.926316 0.000001 -0.000000  0.000000 1.270796 0.000000
32  11.368427 0.000000 0.000000  0.000000 0.000000 -0.200000
33  11.368423 -0.000001 -0.000001  -1.570000 0.000000 0.000000
34  1.126233 0.104083 -1.358371  1.823541 0.487125 0.071487
35  2.373622 0.000002 0.000001  -0.000000 -0.000000 0.113389
36  1.071905 0.000003 -0.000002  -0.000000 -0.000000 0.017444
37  3.789475 -0.000906 -1.136844  0.011610 0.156576 0.079348
38  1.136838 -0.000000 -0.000000  -0.000000 -0.000000 -0.000000
39  1.136841 0.000001 -0.000000  -0.000000 0.000000 -0.000000
40  3.789475 -0.000302 -0.378949  0.005372 0.078320 0.078679
41  1.326313 -0.000002 -0.000001  0.000000 -0.000000 0.000000
42  1.326313 -0.000002 0.000003  0.000000 0.000000 0.008722
43  3.789476 0.000300 0.378945  -0.000794 0.000062 0.078500
44  1.136843 -0.000000 0.000001  -0.000000 -0.000000 -0.000000
45  1.136843 0.000000 0.000001  -0.000000 -0.000000 -0.000000
46  3.789474 0.000904 1.136841  -0.012516 -0.147755 0.079485
47  0.947363 -0.000001 -0.000000  -0.000000 -0.000000 0.000000
48  0.947364 0.000001 -0.000001  -0.000000 0.000000 0.000000
time 14
0  -1.785122 5.669418 -25.602371  0.000000 -0.000000 -1.570795
1  0.000000 0.000000 0.000000  -1.570795 -1.570796 0.000000
2  1.326319 -0.003921 0.000002  -0.000004 -0.000001 0.000796
3  4.926316 -0.003923 0.000000  0.000000 0.000000 0.000000
4  4.926315 -0.003923 0.000000  -0.000000 0.000000 0.000000
5  4.926315 -0.003923 0.000000  0.000000 0.000000 0.000000
6  4.926318 -0.001509 0.000000  -0.000000 -0.000000 -0.000000
7  0.000005 0.001514 -1.894737  0.605457 1.045554 -2.602760
8  4.926315 -0.000000 -0.000003  -0.940434 -0.663116 -1.639503
9  11.368422 -0.000001 0.000002  0.000000 0.000000 0.055848
10  11.368421 -0.000001 0.000001  1.468532 -0.261288 0.215651
11  -3.040324 25.302094 -40.488430  -0.025353 -0.035788 1.366916
12  0.468038 0.919403 2.661569  0.000000 0.000000 0.000000
13  -0.492025 -0.160311 0.005992  0.000000 0.000000 -0.000000
14  0.383195 0.108200 0.000001  -0.000000 0.000000 0.000000
15  1.126229 0.104083 1.358367  -2.311647 -1.088532 0.414431
16  2.373626 0.000001 0.000002  -0.000000 -0.000000 0.881502
17  1.071902 -0.000005 -0.000000  -0.000000 0.000000 0.418664
18  3.789474 -0.000903 1.136842  -0.090046 -0.299628 0.622294
19  1.136841 -0.000000 0.000000  -0.000000 -0.000000 0.246855
20  1.136840 0.000002 0.000000  0.000000 -0.000000 1.239683
21  3.789475 -0.000302 0.378945  -0.038898 -0.185851 0.602763
22  1.326315 0.000001 -0.000000  0.000000 -0.000000 0.238795
23  1.326316 0.000001 -0.000001  -0.000000 -0.000000 1.266548
24  3.789474 0.000302 -0.378950  0.000533 -0.003365 0.577571
25  1.136841 -0.000001 -0.000000  -0.000000 0.000000 0.218048
26  1.136845 -0.000003 -0.000002  -0.000000 -0.000000 1.187356
27  3.789474 0.000904 -1.136845  0.100807 0.135744 0.711011
28  0.947367 -0.000001 0.000003  -0.000000 0.000000 0.279109
29  0.947371 -0.000002 0.000002  -0.000000 0.000000 0.764743
30  0.000005 0.001503 1.894737  -0.000014 -1.370797 3.140810
31  4.926316 0.000001 -0.000000  0.000000 1.270796 0.000000
32  11.368427 -0.000000 -0.000001  0.000000 0.000000 -0.200000
33  11.368423 -0.000001 -0.000001  -1.570000 0.000000 0.000000
34  1.126231 0.104083 -1.358370  1.823541 0.487125 0.071487
35  2.373623 0.000003 0.000001  -0.000000 -0.000000 0.113389
36  1.071904 0.000001 -0.000002  -0.000000 -0.000000 0.017444
37  3.789473 -0.000906 -1.136842  0.011610 0.156576 0.079348
38  1.136839 0.000000 0.000001  -0.000000 -0.000000 -0.000000
39  1.136842 0.000001 0.000000  -0.000000 0.000000 -0.000000
40  3.789473 -0.000302 -0.378947  0.005372 0.078320 0.078679
41  1.326313 -0.000001 0.000001  0.000000 -0.000000 0.000000
42  1.326313 -0.000002 0.000003  0.000000 0.000000 0.008722
43  3.789474 0.000300 0.378946  -0.000794 0.000062 0.078500
44  1.136843 -0.000001 0.000001  -0.000000 -0.000000 -0.000000
45  1.136841 -0.000000 0.000000  -0.000000 -0.000000 -0.000000
46  3.789472 0.000903 1.136842  -0.012516 -0.147755 0.079485
47  0.947362 -0.000000 -0.000000  -0.000000 -0.000000 0.000000
48  0.947361 0.000001 -0.000001  -0.000000 0.000000 0.000000
time 15
0  -1.095804 5.695777 -25.602371  0.000000 -0.000000 -1.570795
1  0.000000 -0.000000 0.000000  -1.570795 -1.570796 0.000000
2  1.326319 -0.003921 0.000002  -0.000004 -0.000001 0.000796
3  4.926315 -0.003923 -0.000000  0.000000 0.000000 0.000000
4  4.926314 -0.003922 0.000000  -0.000000 0.000000 0.000000
5  4.926316 -0.003923 -0.000000  0.000000 0.000000 0.000000
6  4.926318 -0.001509 0.000000  -0.000000 -0.000000 -0.000000
7  0.000005 0.001514 -1.894737  0.628024 0.999386 -2.594067
8  4.926315 -0.000000 -0.000004  -1.069969 -0.695884 -1.600370
9  11.368420 -0.000001 0.000002  0.000000 -0.000000 0.062544
10  11.368420 -0.000001 0.000000  1.532996 -0.268042 0.225795
11  -16.470503 20.804743 -45.463444  -0.025353 -0.035788 1.366916
12  0.468036 0.919402 2.661563  0.000000 0.000000 0.000000
13  -0.492029 -0.160311 0.005993  0.000000 0.000000 0.000000
14  0.383202 0.108200 -0.000003  -0.000000 0.000000 0.000000
15  1.126230 0.104085 1.358368  -2.347719 -1.085441 0.424100
16  2.373623 0.000002 0.000001  0.000000 -0.000000 0.915870
17  1.071902 -0.000001 -0.000002  0.000000 0.000000 0.418664
18  3.789477 -0.000901 1.136841  -0.095075 -0.284351 0.652251
19  1.136838 -0.000001 0.000000  -0.000000 -0.000000 0.265185
20  1.136847 0.000002 -0.000000  -0.000000 -0.000000 1.308418
21  3.789477 -0.000300 0.378945  -0.044067 -0.180384 0.635909
22  1.326313 0.000000 -0.000001  0.000000 -0.000000 0.261706
23  1.326316 0.000001 0.000001  -0.000000 0.000000 1.324971
24  3.789476 0.000305 -0.378951  0.000588 -0.001740 0.621095
25  1.136841 0.000000 0.000000  0.000000 0.000000 0.218048
26  1.136844 -0.000001 -0.000002  -0.000000 -0.000000 1.256088
27  3.789475 0.000905 -1.136845  0.103832 0.117946 0.756375
28  0.947368 -0.000000 0.000002  -0.000000 0.000000 0.279109
29  0.947370 0.000002 0.000004  0.000000 -0.000000 0.805983
30  0.000004 0.001504 1.894737  -0.000014 -1.370797 3.140810
31  4.926316 0.000001 -0.000000  0.000000 1.270796 0.000000
32  11.368427 0.000000 -0.000001  0.000000 0.000000 -0.200000
33  11.368424 -0.000001 -0.000001  -1.570000 0.000000 0.000000
34  1.126232 0.104083 -1.358371  1.823541 0.487125 0.071487
35  2.373625 0.000000 0.000001  -0.000000 -0.000000 0.113389
36  1.071906 0.000003 -0.000002  -0.000000 -0.000000 0.017444
37  3.789474 -0.000906 -1.136843  0.011610 0.156576 0.079348
38  1.136839 0.000000 0.000000  -0.000000 -0.000000 -0.000000
39  1.136840 0.000001 -0.000000  -0.000000 0.000000 -0.000000
40  3.789474 -0.000303 -0.378948  0.005372 0.078320 0.078679
41  1.326316 -0.000000 0.000000  0.000000 -0.000000 0.000000
42  1.326312 -0.000003 0.000003  0.000000 0.000000 0.008722
43  3.789474 0.000300 0.378945  -0.000794 0.000062 0.078500
44  1.136844 -0.000001 0.000001  -0.000000 -0.000000 -0.000000
45  1.136842 -0.000000 0.000001  -0.000000 -0.000000 -0.000000
46  3.789473 0.000904 1.136841  -0.012516 -0.147755 0.079485
47  0.947361 -0.000001 0.000000  -0.000000 -0.000000 0.000000
48  0.947364 0.000002 -0.000001  -0.000000 0.000000 0.000000
time 16
0  -0.643381 5.713078 -25.602371  0.000000 -0.000000 -1.570795
1  0.000000 0.000000 0.000000  -1.570795 -1.570796 0.000000
2  1.326319 -0.003921 0.000002  -0.000004 -0.000001 0.000796
3  4.926315 -0.003923 -0.000000  0.000000 0.000000 0.000000
4  4.926314 -0.003923 -0.000000  -0.000000 0.000000 0.000000
5  4.926315 -0.003923 -0.000000  0.000000 0.000000 0.000000
6  4.926317 -0.001509 -0.000000  -0.000000 -0.000000 -0.000000
7  0.000005 0.001514 -1.894737  0.640192 0.973083 -2.590463
8  4.926315 0.000000 -0.000003  -1.147471 -0.715141 -1.573940
9  11.368422 -0.000001 0.000004  -0.000000 -0.000000 0.065740
10  11.368419 -0.000001 -0.000001  1.569581 -0.271954 0.231438
11  -25.292036 17.846594 -48.514919  -0.025353 -0.035788 1.366916
12  0.468039 0.919404 2.661570  0.000000 0.000000 0.000000
13  -0.492030 -0.160312 0.005996  -0.000000 0.000000 0.000000
14  0.383200 0.108197 0.000000  -0.000000 -0.000000 0.000000
15  1.126227 0.104084 1.358369  -2.368547 -1.083592 0.429640
16  2.373623 0.000002 -0.000000  -0.000000 -0.000000 0.935782
17  1.071903 -0.000001 -0.000004  0.000000 0.000000 0.418664
18  3.789474 -0.000903 1.136842  -0.097589 -0.275315 0.669395
19  1.136844 -0.000000 -0.000000  -0.000000 -0.000000 0.275806
20  1.136841 0.000001 -0.000001  0.000000 -0.000000 1.348240
21  3.789474 -0.000301 0.378947  -0.046957 -0.177069 0.655074
22  1.326313 -0.000000 -0.000001  0.000000 -0.000000 0.274981
23  1.326315 0.000002 -0.000000  -0.000000 0.000000 1.358820
24  3.789474 0.000303 -0.378949  0.000625 -0.000783 0.646310
25  1.136841 -0.000002 -0.000001  -0.000000 0.000000 0.218048
26  1.136845 -0.000001 -0.000001  -0.000000 -0.000000 1.295909
27  3.789472 0.000905 -1.136844  0.105329 0.107437 0.782473
28  0.947370 0.000001 -0.000001  -0.000000 0.000000 0.279109
29  0.947368 -0.000002 0.000003  0.000000 0.000000 0.829877
30  0.000004 0.001504 1.894737  -0.000014 -1.370797 3.140810
31  4.926317 0.000001 -0.000000  0.000000 1.270796 0.000000
32  11.368427 0.000000 -0.000001  0.000000 0.000000 -0.200000
33  11.368423 -0.000001 -0.000001  -1.570000 0.000000 0.000000
34  1.126233 0.104085 -1.358371  1.823541 0.487125 0.071487
35  2.373625 0.000003 -0.000000  -0.000000 -0.000000 0.113389
36  1.071904 0.000002 -0.000003  -0.000000 -0.000000 0.017444
37  3.789474 -0.000905 -1.136843  0.011610 0.156576 0.079348
38  1.136839 0.000001 -0.000000  -0.000000 -0.000000 -0.000000
39  1.136842 0.000001 -0.000000  -0.000000 0.000000 -0.000000
40  3.789475 -0.000301 -0.378948  0.005372 0.078320 0.078679
41  1.326314 -0.000001 -0.000000  0.000000 -0.000000 0.000000
42  1.326314 -0.000001 0.000001  0.000000 0.000000 0.008722
43  3.789475 0.000301 0.378945  -0.000794 0.000062 0.078500
44  1.136845 0.000000 0.000001  -0.000000 -0.000000 -0.000000
45  1.136845 -0.000001 -0.000000  -0.000000 -0.000000 -0.000000
46  3.789474 0.000905 1.136841  -0.012516 -0.147755 0.079485
47  0.947364 0.000000 0.000001  -0.000000 -0.000000 0.000000
48  0.947365 0.000003 -0.000002  -0.000000 0.000000 0.000000
time 17
0  -0.490455 5.718925 -25.602371  0.000000 -0.000000 -1.570795
1  -0.000000 0.000000 0.000000  -1.570795 -1.570796 0.000000
2  1.326319 -0.003921 0.000002  -0.000004 -0.000001 0.000796
3  4.926314 -0.003923 -0.000000  0.000000 0.000000 0.000000
4  4.926313 -0.003923 -0.000000  -0.000000 0.000000 0.000000
5  4.926315 -0.003923 -0.000000  0.000000 0.000000 0.000000
6  4.926317 -0.001509 -0.000000  -0.000000 -0.000000 -0.000000
7  0.000005 0.001514 -1.894737  0.643862 0.964998 -2.589524
8  4.926315 0.000001 -0.000002  -1.172076 -0.721191 -1.564888
9  11.368420 -0.000001 0.000002  -0.000000 0.000000 0.066576
10  11.368419 -0.000002 -0.000002  1.580786 -0.273172 0.233138
11  -28.275253 16.845385 -49.502918  -0.025353 -0.035788 1.366916
12  0.468039 0.919405 2.661569  -0.000000 -0.000000 0.000000
13  -0.492028 -0.160310 0.005985  0.000000 0.000000 0.000000
14  0.383198 0.108201 0.000002  0.000000 -0.000000 0.000000
15  1.126227 0.104084 1.358367  -2.375012 -1.083006 0.431352
16  2.373622 0.000001 -0.000002  -0.000000 -0.000000 0.941975
17  1.071903 -0.000001 -0.000003  -0.000000 0.000000 0.418664
18  3.789473 -0.000903 1.136841  -0.098283 -0.272467 0.674683
19  1.136838 -0.000002 0.000001  -0.000000 -0.000000 0.279109
20  1.136840 -0.000000 0.000001  0.000000 -0.000000 1.360626
21  3.789474 -0.000301 0.378945  -0.047833 -0.176006 0.661027
22  1.326316 0.000002 -0.000001  -0.000000 -0.000000 0.279109
23  1.326317 0.000001 -0.000000  -0.000000 0.000000 1.369348
24  3.789473 0.000303 -0.378952  0.000638 -0.000482 0.654152
25  1.136843 -0.000002 -0.000001  0.000000 0.000000 0.218048
26  1.136842 -0.000004 -0.000002  -0.000000 -0.000000 1.308294
27  3.789473 0.000904 -1.136845  0.105744 0.104131 0.790554
28  0.947371 -0.000002 0.000001  0.000000 0.000000 0.279109
29  0.947370 -0.000001 0.000004  -0.000000 -0.000000 0.837308
30  0.000005 0.001503 1.894737  -0.000014 -1.370797 3.140810
31  4.926316 0.000000 -0.000000  0.000000 1.270796 0.000000
32  11.368427 -0.000000 -0.000001  0.000000 0.000000 -0.200000
33  11.368425 -0.000001 -0.000001  -1.570000 0.000000 0.000000
34  1.126232 0.104082 -1.358370  1.823541 0.487125 0.071487
35  2.373625 0.000003 0.000001  -0.000000 -0.000000 0.113389
36  1.071905 0.000004 -0.000003  -0.000000 -0.000000 0.017444
37  3.789474 -0.000907 -1.136842  0.011610 0.156576 0.079348
38  1.136838 -0.000000 0.000000  -0.000000 -0.000000 -0.000000
39  1.136842 0.000001 0.000001  -0.000000 0.000000 -0.000000
40  3.789474 -0.000303 -0.378948  0.005372 0.078320 0.078679
41  1.326312 -0.000001 0.000000  0.000000 -0.000000 0.000000
42  1.326314 -0.000003 0.000002  0.000000 0.000000 0.008722
43  3.789475 0.000300 0.378946  -0.000794 0.000062 0.078500
44  1.136842 -0.000002 0.000001  -0.000000 -0.000000 -0.000000
45  1.136842 0.000001 0.000000  -0.000000 -0.000000 -0.000000
46  3.789473 0.000903 1.136842  -0.012516 -0.147755 0.079485
47  0.947364 0.000000 0.000000  -0.000000 -0.000000 0.000000
48  0.947367 0.000002 -0.000001  -0.000000 0.000000 0.000000
end
