version 1
nodes
  0 "Bip01" -1
  1 "Bip01 Pelvis" 0
  2 "Bip01 L Leg" 1
  3 "Bip01 L Leg1" 2
  4 "Bip01 L Foot" 3
  5 "Bip01 L Toe0" 4
  6 "Bip01 L Toe01" 5
  7 "Bip01 L Toe02" 6
  8 "Bip01 L Toe1" 4
  9 "Bip01 L Toe11" 8
  10 "Bip01 L Toe12" 9
  11 "Bip01 R Leg" 1
  12 "Bip01 R Leg1" 11
  13 "Bip01 R Foot" 12
  14 "Bip01 R Toe0" 13
  15 "Bip01 R Toe01" 14
  16 "Bip01 R Toe02" 15
  17 "Bip01 R Toe1" 13
  18 "Bip01 R Toe11" 17
  19 "Bip01 R Toe12" 18
  20 "Bip01 Spine" 1
  21 "Bip01 Spine1" 20
  22 "Bip01 Neck" 21
  23 "Bip01 Head" 22
  24 "Bone13" 23
  25 "Bone14" 24
  26 "Bone15" 25
  27 "Bone16" 26
  28 "Bone17" 27
  29 "Bone07" 23
  30 "Bone08" 29
  31 "Bone09" 30
  32 "Bone10" 31
  33 "Bone11" 32
  34 "Bone31" 23
  35 "Bone32" 34
  36 "Bone33" 35
  37 "Bone34" 36
  38 "Bone35" 37
  39 "Bone01" 23
  40 "Bone02" 39
  41 "Bone03" 40
  42 "Bone04" 41
  43 "Bone05" 42
  44 "Bone19" 23
  45 "Bone20" 44
  46 "Bone21" 45
  47 "Bone22" 46
  48 "Bone23" 47
  49 "Bone25" 23
  50 "Bone26" 49
  51 "Bone27" 50
  52 "Bone28" 51
  53 "Bone29" 52
  54 "Bip01 Tail" 1
  55 "Bip01 Tail1" 54
  56 "Bip01 Tail2" 55
  57 "Bip01 Tail3" 56
end
skeleton
  time 0
    0 0.152748 4.452156 34.202477 0.000000 0.000000 -1.570871
    1 0.000000 0.000000 0.000000 -1.570795 -1.570796 0.000000
    2 -0.000020 0.000021 14.561969 0.060711 -0.415458 -2.363137
    3 17.731709 0.000001 -0.000001 0.000000 0.000000 -1.360542
    4 21.987318 0.000000 0.000001 2.685254 0.246733 0.526347
    5 4.324764 6.780501 -1.982552 0.000000 0.000000 1.832463
    6 1.707564 0.000000 -0.000001 0.000000 0.000000 -0.130833
    7 1.707564 0.000000 -0.000001 0.000000 0.000000 -0.479722
    8 4.324764 6.333147 1.238804 0.000000 -0.331445 1.832463
    9 1.821401 0.000000 0.000000 0.000000 0.000000 -0.130833
    10 1.821401 0.000000 0.000002 0.000000 0.000000 -0.479722
    11 0.000020 -0.000019 -14.561969 -0.060707 0.415458 -2.363135
    12 17.731709 0.000001 0.000000 0.000000 0.000000 -1.360542
    13 21.987318 0.000000 0.000000 -2.685254 -0.246733 0.526347
    14 4.324764 6.904406 1.903420 0.000000 -0.069778 1.832463
    15 1.707564 0.000000 0.000000 0.000000 0.000000 -0.130833
    16 1.707564 0.000000 0.000000 0.000000 0.000000 -0.479722
    17 4.324764 7.017686 -1.342621 0.000000 0.366333 1.832463
    18 1.821401 0.000000 -0.000001 0.000000 0.000000 -0.130833
    19 1.821401 0.000000 0.000000 0.000000 0.000000 -0.479722
    20 1.249477 0.004294 0.000002 -0.000003 0.000002 2.050519
    21 11.689317 -0.009310 0.000000 0.000000 0.000000 0.000000
    22 11.689319 -0.001413 0.000000 0.000000 0.000000 0.000000
    23 1.773171 0.000000 0.000000 -0.000004 0.000002 -2.050520
    24 4.327651 4.634944 -2.428680 -3.141591 -1.570796 0.000000
    25 0.000000 0.000000 -0.346258 0.000000 0.000000 0.000000
    26 0.827268 -7.688719 -2.908663 0.000000 0.000000 0.000000
    27 1.167906 -7.494068 0.088223 0.000000 0.000000 0.000000
    28 1.508547 -6.764126 -3.865246 0.000000 0.000000 0.000000
    29 2.243070 5.364873 3.362189 -3.141591 -1.570796 0.000000
    30 0.000000 0.000000 0.000000 0.000000 0.000000 0.000000
    31 1.021918 -6.472149 -0.595725 0.000000 0.000000 0.000000
    32 0.973257 -7.396744 -2.793420 0.000000 0.000000 0.000000
    33 1.021919 -5.839535 -3.557765 0.000000 0.000000 0.000000
    34 -3.776780 2.834425 -11.528622 -3.141591 -1.570796 0.000000
    35 -0.145987 0.000000 0.730172 0.000000 0.000000 0.000000
    36 -2.384475 -6.374823 -2.048884 0.000000 0.000000 0.000000
    37 -1.021918 -3.601046 -1.439223 0.000000 0.000000 0.000000
    38 -0.243313 -4.720289 -1.673704 0.000000 0.000000 0.000000
    39 -2.264709 4.780907 8.909744 -3.141591 -1.570796 0.000000
    40 0.000000 0.000000 -0.000001 0.000000 0.000000 0.000000
    41 1.946511 -7.250753 -2.204917 0.000000 0.000000 0.000000
    42 1.605872 -3.649708 -1.822482 0.000000 0.000000 0.000000
    43 -0.729940 -3.941685 -1.419925 0.000000 0.000000 0.000000
    44 -4.189922 3.272375 -1.309439 -3.141591 -1.570796 0.000000
    45 0.000000 0.000000 0.000000 0.000000 0.000000 0.000000
    46 -1.265231 -7.396742 -6.605809 0.000000 0.000000 0.000000
    47 0.000001 -5.742207 -3.281358 0.000000 0.000000 0.000000
    48 0.048663 -5.596218 0.775174 0.000000 0.000000 0.000000
    49 0.256295 2.737098 -7.294960 -3.141591 -1.570796 0.000000
    50 0.000000 0.000000 1.089263 0.000000 0.000000 0.000000
    51 -2.335813 -8.126684 -0.811257 0.000000 0.000000 0.000000
    52 0.145988 -7.348078 -0.880992 0.000000 0.000000 0.000000
    53 0.048664 -7.299416 -5.811587 0.000000 0.000000 0.000000
    54 -0.388542 -14.131889 0.000034 -0.000002 -0.000001 -1.554463
    55 15.490297 -0.012333 0.000000 0.000000 0.000000 -0.009833
    56 15.491476 -0.012288 0.000000 0.000000 0.000000 0.086111
    57 15.487943 -0.014717 0.000000 0.000000 0.000001 -0.166833
  time 1
    0 0.152748 4.452156 34.202477 0.000000 0.000000 -1.570871
    1 0.007813 -0.476577 0.000000 -1.570795 -1.570796 0.000000
    2 -0.000020 0.000021 14.561969 0.098997 -0.380469 -2.378342
    3 17.731709 0.000001 -0.000001 0.000000 0.000000 -1.388950
    4 21.987318 0.000000 0.000001 2.688079 0.200500 0.572062
    5 4.324764 6.780501 -1.982552 0.000000 0.000000 1.832463
    6 1.707564 0.000000 -0.000001 0.000000 0.000000 -0.130833
    7 1.707564 0.000000 -0.000001 0.000000 0.000000 -0.479722
    8 4.324764 6.333147 1.238804 0.000000 -0.331445 1.832463
    9 1.821401 0.000000 0.000000 0.000000 0.000000 -0.130833
    10 1.821401 0.000000 0.000002 0.000000 0.000000 -0.479722
    11 0.000020 -0.000019 -14.561969 -0.116772 0.366641 -2.461944
    12 17.731709 0.000001 0.000000 0.000000 0.000000 -1.583283
    13 21.987318 0.000000 0.000000 -2.714696 -0.232775 0.910114
    14 4.324764 6.904406 1.903420 0.000000 -0.038020 1.832463
    15 1.707564 0.000000 0.000000 0.000000 0.000000 -0.130833
    16 1.707564 0.000000 0.000000 0.000000 0.000000 -0.479722
    17 4.324764 7.017686 -1.342621 0.000000 0.309147 1.832463
    18 1.821401 0.000000 -0.000001 0.000000 0.000000 -0.130833
    19 1.821401 0.000000 0.000000 0.000000 0.000000 -0.479722
    20 1.249477 0.004294 0.000002 -0.000398 -0.030274 2.050519
    21 11.689317 -0.009310 0.000000 -0.000012 -0.025534 0.000000
    22 11.689319 -0.001413 0.000000 -0.000024 -0.030465 0.000000
    23 1.773171 0.000000 0.000000 0.026340 -0.037699 -2.049977
    24 4.327651 4.634944 -2.428680 -3.141591 -1.570796 0.000000
    25 0.000000 0.000000 -0.346258 0.000000 0.000000 0.000000
    26 0.827268 -7.688719 -2.908663 0.000000 0.000000 0.000000
    27 1.167906 -7.494068 0.088223 0.000000 0.000000 0.000000
    28 1.508547 -6.764126 -3.865246 0.000000 0.000000 0.000000
    29 2.243070 5.364873 3.362189 -3.141591 -1.570796 0.000000
    30 0.000000 0.000000 0.000000 0.000000 0.000000 0.000000
    31 1.021918 -6.472149 -0.595725 0.000000 0.000000 0.000000
    32 0.973257 -7.396744 -2.793420 0.000000 0.000000 0.000000
    33 1.021919 -5.839535 -3.557765 0.000000 0.000000 0.000000
    34 -3.776780 2.834425 -11.528622 -3.141591 -1.570796 0.000000
    35 -0.145987 0.000000 0.730172 0.000000 0.000000 0.000000
    36 -2.384475 -6.374823 -2.048884 0.000000 0.000000 0.000000
    37 -1.021918 -3.601046 -1.439223 0.000000 0.000000 0.000000
    38 -0.243313 -4.720289 -1.673704 0.000000 0.000000 0.000000
    39 -2.264709 4.780907 8.909744 -3.141591 -1.570796 0.000000
    40 0.000000 0.000000 -0.000001 0.000000 0.000000 0.000000
    41 1.946511 -7.250753 -2.204917 0.000000 0.000000 0.000000
    42 1.605872 -3.649708 -1.822482 0.000000 0.000000 0.000000
    43 -0.729940 -3.941685 -1.419925 0.000000 0.000000 0.000000
    44 -4.189922 3.272375 -1.309439 -3.141591 -1.570796 0.000000
    45 0.000000 0.000000 0.000000 0.000000 0.000000 0.000000
    46 -1.265231 -7.396742 -6.605809 0.000000 0.000000 0.000000
    47 0.000001 -5.742207 -3.281358 0.000000 0.000000 0.000000
    48 0.048663 -5.596218 0.775174 0.000000 0.000000 0.000000
    49 0.256295 2.737098 -7.294960 -3.141591 -1.570796 0.000000
    50 0.000000 0.000000 1.089263 0.000000 0.000000 0.000000
    51 -2.335813 -8.126684 -0.811257 0.000000 0.000000 0.000000
    52 0.145988 -7.348078 -0.880992 0.000000 0.000000 0.000000
    53 0.048664 -7.299416 -5.811587 0.000000 0.000000 0.000000
    54 -0.388542 -14.131889 0.000034 0.000346 -0.092660 -1.554463
    55 15.490297 -0.012333 0.000000 -0.000068 -0.089372 -0.009833
    56 15.491476 -0.012288 0.000000 -0.000065 -0.089382 0.086111
    57 15.487943 -0.014717 0.000000 -0.000064 -0.089381 -0.166833
  time 2
    0 0.152748 4.452156 34.202477 0.000000 0.000000 -1.570871
    1 0.054689 -1.191443 0.000000 -1.570795 -1.569825 0.000000
    2 -0.000020 0.000021 14.561969 0.153204 -0.328269 -2.397699
    3 17.731709 0.000001 -0.000001 0.000000 0.000000 -1.426813
    4 21.987318 0.000000 0.000001 2.690809 0.132461 0.634738
    5 4.324764 6.780501 -1.982552 0.000000 0.000000 1.832463
    6 1.707564 0.000000 -0.000001 0.000000 0.000000 -0.130833
    7 1.707564 0.000000 -0.000001 0.000000 0.000000 -0.479722
    8 4.324764 6.333147 1.238804 0.000000 -0.331445 1.832463
    9 1.821401 0.000000 0.000000 0.000000 0.000000 -0.130833
    10 1.821401 0.000000 0.000002 0.000000 0.000000 -0.479722
    11 0.000020 -0.000019 -14.561969 -0.187286 0.286784 -2.608581
    12 17.731709 0.000001 0.000000 0.000000 0.000000 -1.718697
    13 21.987318 0.000000 0.000000 -2.746686 -0.212167 1.294708
    14 4.324764 6.904406 1.903420 0.000000 -0.013574 1.832463
    15 1.707564 0.000000 0.000000 0.000000 0.000000 -0.130833
    16 1.707564 0.000000 0.000000 0.000000 0.000000 -0.479722
    17 4.324764 7.017686 -1.342621 0.000000 0.265158 1.832463
    18 1.821401 0.000000 -0.000001 0.000000 0.000000 -0.130833
    19 1.821401 0.000000 0.000000 0.000000 0.000000 -0.479722
    20 1.249477 0.004294 0.000002 -0.000938 -0.076503 2.050583
    21 11.689317 -0.009310 0.000000 -0.000048 -0.061049 0.000000
    22 11.689319 -0.001413 0.000000 -0.000060 -0.076953 0.000000
    23 1.773171 0.000000 0.000000 0.066367 -0.093219 -2.043745
    24 4.327651 4.634944 -2.428680 -3.141591 -1.570796 0.000000
    25 0.000000 0.000000 -0.346258 0.000000 0.000000 0.000000
    26 0.827268 -7.688719 -2.908663 0.000000 0.000000 0.000000
    27 1.167906 -7.494068 0.088223 0.000000 0.000000 0.000000
    28 1.508547 -6.764126 -3.865246 0.000000 0.000000 0.000000
    29 2.243070 5.364873 3.362189 -3.141591 -1.570796 0.000000
    30 0.000000 0.000000 0.000000 0.000000 0.000000 0.000000
    31 1.021918 -6.472149 -0.595725 0.000000 0.000000 0.000000
    32 0.973257 -7.396744 -2.793420 0.000000 0.000000 0.000000
    33 1.021919 -5.839535 -3.557765 0.000000 0.000000 0.000000
    34 -3.776780 2.834425 -11.528622 -3.141591 -1.570796 0.000000
    35 -0.145987 0.000000 0.730172 0.000000 0.000000 0.000000
    36 -2.384475 -6.374823 -2.048884 0.000000 0.000000 0.000000
    37 -1.021918 -3.601046 -1.439223 0.000000 0.000000 0.000000
    38 -0.243313 -4.720289 -1.673704 0.000000 0.000000 0.000000
    39 -2.264709 4.780907 8.909744 -3.141591 -1.570796 0.000000
    40 0.000000 0.000000 -0.000001 0.000000 0.000000 0.000000
    41 1.946511 -7.250753 -2.204917 0.000000 0.000000 0.000000
    42 1.605872 -3.649708 -1.822482 0.000000 0.000000 0.000000
    43 -0.729940 -3.941685 -1.419925 0.000000 0.000000 0.000000
    44 -4.189922 3.272375 -1.309439 -3.141591 -1.570796 0.000000
    45 0.000000 0.000000 0.000000 0.000000 0.000000 0.000000
    46 -1.265231 -7.396742 -6.605809 0.000000 0.000000 0.000000
    47 0.000001 -5.742207 -3.281358 0.000000 0.000000 0.000000
    48 0.048663 -5.596218 0.775174 0.000000 0.000000 0.000000
    49 0.256295 2.737098 -7.294960 -3.141591 -1.570796 0.000000
    50 0.000000 0.000000 1.089263 0.000000 0.000000 0.000000
    51 -2.335813 -8.126684 -0.811257 0.000000 0.000000 0.000000
    52 0.145988 -7.348078 -0.880992 0.000000 0.000000 0.000000
    53 0.048664 -7.299416 -5.811587 0.000000 0.000000 0.000000
    54 -0.388542 -14.131889 0.000034 0.000813 -0.235033 -1.554654
    55 15.490297 -0.012333 0.000000 -0.000176 -0.224347 -0.009833
    56 15.491476 -0.012288 0.000000 -0.000170 -0.224331 0.086111
    57 15.487943 -0.014717 0.000000 -0.000161 -0.224330 -0.166833
  time 3
    0 0.152748 4.452156 34.202477 0.000000 0.000000 -1.570871
    1 0.156255 -2.003967 0.000000 0.000026 -1.569142 -1.570793
    2 -0.000020 0.000021 14.561969 0.214721 -0.265497 -2.416354
    3 17.731709 0.000001 -0.000001 0.000000 0.000000 -1.445102
    4 21.987318 0.000000 0.000001 2.691844 0.052127 0.681983
    5 4.324764 6.780501 -1.982552 0.000000 0.000000 1.832463
    6 1.707564 0.000000 -0.000001 0.000000 0.000000 -0.130833
    7 1.707564 0.000000 -0.000001 0.000000 0.000000 -0.479722
    8 4.324764 6.333147 1.238804 0.000000 -0.331445 1.832463
    9 1.821401 0.000000 0.000000 0.000000 0.000000 -0.130833
    10 1.821401 0.000000 0.000002 0.000000 0.000000 -0.479722
    11 0.000020 -0.000019 -14.561969 -0.252074 0.183294 -2.763614
    12 17.731709 0.000001 0.000000 0.000000 0.000000 -1.649150
    13 21.987318 0.000000 0.000000 -2.759897 -0.183034 1.504829
    14 4.324764 6.904406 1.903420 0.000000 0.021786 1.832463
    15 1.707564 0.000000 0.000000 0.000000 0.000000 -0.130833
    16 1.707564 0.000000 0.000000 0.000000 0.000000 -0.479722
    17 4.324764 7.017686 -1.342621 0.000000 0.201493 1.832463
    18 1.821401 0.000000 -0.000001 0.000000 0.000000 -0.130833
    19 1.821401 0.000000 0.000000 0.000000 0.000000 -0.479722
    20 1.249477 0.004294 0.000002 -0.001573 -0.129225 2.050711
    21 11.689317 -0.009310 0.000000 -0.000072 -0.103322 0.000000
    22 11.689319 -0.001413 0.000000 -0.000096 -0.129985 0.000000
    23 1.773171 0.000000 0.000000 0.110507 -0.155926 -2.028372
    24 4.327651 4.634944 -2.428680 -3.141591 -1.570796 0.000000
    25 0.000000 0.000000 -0.346258 0.000000 0.000000 0.000000
    26 0.827268 -7.688719 -2.908663 0.000000 0.000000 0.000000
    27 1.167906 -7.494068 0.088223 0.000000 0.000000 0.000000
    28 1.508547 -6.764126 -3.865246 0.000000 0.000000 0.000000
    29 2.243070 5.364873 3.362189 -3.141591 -1.570796 0.000000
    30 0.000000 0.000000 0.000000 0.000000 0.000000 0.000000
    31 1.021918 -6.472149 -0.595725 0.000000 0.000000 0.000000
    32 0.973257 -7.396744 -2.793420 0.000000 0.000000 0.000000
    33 1.021919 -5.839535 -3.557765 0.000000 0.000000 0.000000
    34 -3.776780 2.834425 -11.528622 -3.141591 -1.570796 0.000000
    35 -0.145987 0.000000 0.730172 0.000000 0.000000 0.000000
    36 -2.384475 -6.374823 -2.048884 0.000000 0.000000 0.000000
    37 -1.021918 -3.601046 -1.439223 0.000000 0.000000 0.000000
    38 -0.243313 -4.720289 -1.673704 0.000000 0.000000 0.000000
    39 -2.264709 4.780907 8.909744 -3.141591 -1.570796 0.000000
    40 0.000000 0.000000 -0.000001 0.000000 0.000000 0.000000
    41 1.946511 -7.250753 -2.204917 0.000000 0.000000 0.000000
    42 1.605872 -3.649708 -1.822482 0.000000 0.000000 0.000000
    43 -0.729940 -3.941685 -1.419925 0.000000 0.000000 0.000000
    44 -4.189922 3.272375 -1.309439 -3.141591 -1.570796 0.000000
    45 0.000000 0.000000 0.000000 0.000000 0.000000 0.000000
    46 -1.265231 -7.396742 -6.605809 0.000000 0.000000 0.000000
    47 0.000001 -5.742207 -3.281358 0.000000 0.000000 0.000000
    48 0.048663 -5.596218 0.775174 0.000000 0.000000 0.000000
    49 0.256295 2.737098 -7.294960 -3.141591 -1.570796 0.000000
    50 0.000000 0.000000 1.089263 0.000000 0.000000 0.000000
    51 -2.335813 -8.126684 -0.811257 0.000000 0.000000 0.000000
    52 0.145988 -7.348078 -0.880992 0.000000 0.000000 0.000000
    53 0.048664 -7.299416 -5.811587 0.000000 0.000000 0.000000
    54 -0.388542 -14.131889 0.000034 0.001448 -0.397786 -1.555074
    55 15.490297 -0.012333 0.000000 -0.000311 -0.380053 -0.009797
    56 15.491476 -0.012288 0.000000 -0.000314 -0.380044 0.086149
    57 15.487943 -0.014717 0.000000 -0.000289 -0.380043 -0.166790
  time 4
    0 0.152748 4.452156 34.202477 0.000000 0.000000 -1.570871
    1 0.308603 -2.781335 0.000000 -0.000022 -1.568387 -1.570745
    2 -0.000020 0.000021 14.561969 0.282568 -0.192553 -2.432495
    3 17.731709 0.000001 -0.000001 0.000000 0.000000 -1.428099
    4 21.987318 0.000000 0.000001 2.690244 -0.039766 0.697923
    5 4.324764 6.780501 -1.982552 0.000000 0.000000 1.832463
    6 1.707564 0.000000 -0.000001 0.000000 0.000000 -0.130833
    7 1.707564 0.000000 -0.000001 0.000000 0.000000 -0.479722
    8 4.324764 6.333147 1.238804 0.000000 -0.331445 1.832463
    9 1.821401 0.000000 0.000000 0.000000 0.000000 -0.130833
    10 1.821401 0.000000 0.000002 0.000000 0.000000 -0.479722
    11 0.000020 -0.000019 -14.561969 -0.300800 0.066495 -2.917394
    12 17.731709 0.000001 0.000000 0.000000 0.000000 -1.524904
    13 21.987318 0.000000 0.000000 0.391889 -2.982890 -1.470463
    14 4.324764 6.904406 1.903420 0.000000 0.086415 1.832463
    15 1.707564 0.000000 0.000000 0.000000 0.000000 -0.130833
    16 1.707564 0.000000 0.000000 0.000000 0.000000 -0.479722
    17 4.324764 7.017686 -1.342621 0.000000 0.085171 1.832463
    18 1.821401 0.000000 -0.000001 0.000000 0.000000 -0.130833
    19 1.821401 0.000000 0.000000 0.000000 0.000000 -0.479722
    20 1.249477 0.004294 0.000002 -0.002292 -0.178664 2.050902
    21 11.689317 -0.009310 0.000000 -0.000108 -0.148779 0.000000
    22 11.689319 -0.001413 0.000000 -0.000144 -0.179769 0.000012
    23 1.773171 0.000000 0.000000 0.149090 -0.214785 -2.004819
    24 4.327651 4.634944 -2.428680 -3.141591 -1.570796 0.000000
    25 0.000000 0.000000 -0.346258 0.000000 0.000000 0.000000
    26 0.827268 -7.688719 -2.908663 0.000000 0.000000 0.000000
    27 1.167906 -7.494068 0.088223 0.000000 0.000000 0.000000
    28 1.508547 -6.764126 -3.865246 0.000000 0.000000 0.000000
    29 2.243070 5.364873 3.362189 -3.141591 -1.570796 0.000000
    30 0.000000 0.000000 0.000000 0.000000 0.000000 0.000000
    31 1.021918 -6.472149 -0.595725 0.000000 0.000000 0.000000
    32 0.973257 -7.396744 -2.793420 0.000000 0.000000 0.000000
    33 1.021919 -5.839535 -3.557765 0.000000 0.000000 0.000000
    34 -3.776780 2.834425 -11.528622 -3.141591 -1.570796 0.000000
    35 -0.145987 0.000000 0.730172 0.000000 0.000000 0.000000
    36 -2.384475 -6.374823 -2.048884 0.000000 0.000000 0.000000
    37 -1.021918 -3.601046 -1.439223 0.000000 0.000000 0.000000
    38 -0.243313 -4.720289 -1.673704 0.000000 0.000000 0.000000
    39 -2.264709 4.780907 8.909744 -3.141591 -1.570796 0.000000
    40 0.000000 0.000000 -0.000001 0.000000 0.000000 0.000000
    41 1.946511 -7.250753 -2.204917 0.000000 0.000000 0.000000
    42 1.605872 -3.649708 -1.822482 0.000000 0.000000 0.000000
    43 -0.729940 -3.941685 -1.419925 0.000000 0.000000 0.000000
    44 -4.189922 3.272375 -1.309439 -3.141591 -1.570796 0.000000
    45 0.000000 0.000000 0.000000 0.000000 0.000000 0.000000
    46 -1.265231 -7.396742 -6.605809 0.000000 0.000000 0.000000
    47 0.000001 -5.742207 -3.281358 0.000000 0.000000 0.000000
    48 0.048663 -5.596218 0.775174 0.000000 0.000000 0.000000
    49 0.256295 2.737098 -7.294960 -3.141591 -1.570796 0.000000
    50 0.000000 0.000000 1.089263 0.000000 0.000000 0.000000
    51 -2.335813 -8.126684 -0.811257 0.000000 0.000000 0.000000
    52 0.145988 -7.348078 -0.880992 0.000000 0.000000 0.000000
    53 0.048664 -7.299416 -5.811587 0.000000 0.000000 0.000000
    54 -0.388542 -14.131889 0.000034 0.002311 -0.548970 -1.555761
    55 15.490297 -0.012333 0.000000 -0.000459 -0.529050 -0.009726
    56 15.491476 -0.012288 0.000000 -0.000458 -0.529052 0.086224
    57 15.487943 -0.014717 0.000000 -0.000450 -0.529051 -0.166746
  time 5
    0 0.152748 4.452156 34.202477 0.000000 0.000000 -1.570871
    1 0.472671 -3.398541 0.000000 -0.000022 -1.567620 -1.570745
    2 -0.000020 0.000021 14.561969 0.358118 -0.107601 -2.444658
    3 17.731709 0.000001 -0.000001 0.000000 0.000000 -1.393055
    4 21.987318 0.000000 0.000001 2.684595 -0.145349 0.701366
    5 4.324764 6.780501 -1.982552 0.000000 0.000000 1.832463
    6 1.707564 0.000000 -0.000001 0.000000 0.000000 -0.130833
    7 1.707564 0.000000 -0.000001 0.000000 0.000000 -0.479722
    8 4.324764 6.333147 1.238804 0.000000 -0.331445 1.832463
    9 1.821401 0.000000 0.000000 0.000000 0.000000 -0.130833
    10 1.821401 0.000000 0.000002 0.000000 0.000000 -0.479722
    11 0.000020 -0.000019 -14.561969 -0.321051 -0.021533 -3.041532
    12 17.731709 0.000001 0.000000 0.000000 0.000000 -1.414892
    13 21.987318 0.000000 0.000000 0.406705 -2.984670 -1.347230
    14 4.324764 6.904406 1.903420 0.000000 0.133408 1.832463
    15 1.707564 0.000000 0.000000 0.000000 0.000000 -0.130833
    16 1.707564 0.000000 0.000000 0.000000 0.000000 -0.479722
    17 4.324764 7.017686 -1.342621 0.000000 0.000595 1.832463
    18 1.821401 0.000000 -0.000001 0.000000 0.000000 -0.130833
    19 1.821401 0.000000 0.000000 0.000000 0.000000 -0.479722
    20 1.249477 0.004294 0.003908 -0.003071 -0.215847 2.051158
    21 11.689317 -0.009310 0.000000 -0.000156 -0.193886 0.000000
    22 11.689319 -0.001413 0.000000 -0.000168 -0.217317 0.000012
    23 1.773171 0.000000 0.000000 0.174731 -0.261088 -1.978868
    24 4.327651 4.634944 -2.428680 -3.141591 -1.570796 0.000000
    25 0.000000 0.000000 -0.346258 0.000000 0.000000 0.000000
    26 0.827268 -7.688719 -2.908663 0.000000 0.000000 0.000000
    27 1.167906 -7.494068 0.088223 0.000000 0.000000 0.000000
    28 1.508547 -6.764126 -3.865246 0.000000 0.000000 0.000000
    29 2.243070 5.364873 3.362189 -3.141591 -1.570796 0.000000
    30 0.000000 0.000000 0.000000 0.000000 0.000000 0.000000
    31 1.021918 -6.472149 -0.595725 0.000000 0.000000 0.000000
    32 0.973257 -7.396744 -2.793420 0.000000 0.000000 0.000000
    33 1.021919 -5.839535 -3.557765 0.000000 0.000000 0.000000
    34 -3.776780 2.834425 -11.528622 -3.141591 -1.570796 0.000000
    35 -0.145987 0.000000 0.730172 0.000000 0.000000 0.000000
    36 -2.384475 -6.374823 -2.048884 0.000000 0.000000 0.000000
    37 -1.021918 -3.601046 -1.439223 0.000000 0.000000 0.000000
    38 -0.243313 -4.720289 -1.673704 0.000000 0.000000 0.000000
    39 -2.264709 4.780907 8.909744 -3.141591 -1.570796 0.000000
    40 0.000000 0.000000 -0.000001 0.000000 0.000000 0.000000
    41 1.946511 -7.250753 -2.204917 0.000000 0.000000 0.000000
    42 1.605872 -3.649708 -1.822482 0.000000 0.000000 0.000000
    43 -0.729940 -3.941685 -1.419925 0.000000 0.000000 0.000000
    44 -4.189922 3.272375 -1.309439 -3.141591 -1.570796 0.000000
    45 0.000000 0.000000 0.000000 0.000000 0.000000 0.000000
    46 -1.265231 -7.396742 -6.605809 0.000000 0.000000 0.000000
    47 0.000001 -5.742207 -3.281358 0.000000 0.000000 0.000000
    48 0.048663 -5.596218 0.775174 0.000000 0.000000 0.000000
    49 0.256295 2.737098 -7.294960 -3.141591 -1.570796 0.000000
    50 0.000000 0.000000 1.089263 0.000000 0.000000 0.000000
    51 -2.335813 -8.126684 -0.811257 0.000000 0.000000 0.000000
    52 0.145988 -7.348078 -0.880992 0.000000 0.000000 0.000000
    53 0.048664 -7.299416 -5.811587 0.000000 0.000000 0.000000
    54 -0.388542 -14.131889 0.000034 0.003414 -0.662403 -1.556715
    55 15.490297 -0.012333 0.000000 -0.000594 -0.648117 -0.009655
    56 15.491476 -0.012288 0.000000 -0.000589 -0.648114 0.086299
    57 15.487943 -0.014717 0.000000 -0.000579 -0.648112 -0.166660
  time 6
    0 0.152748 4.452156 34.202477 0.000000 0.000000 -1.570871
    1 0.593768 -3.765740 0.000000 -0.000022 -1.566757 -1.570745
    2 -0.000020 0.000021 14.561969 0.433866 -0.020130 -2.450273
    3 17.731709 0.000001 -0.000001 0.000000 0.000000 -1.353782
    4 21.987318 0.000000 0.000001 2.674333 -0.252980 0.702705
    5 4.324764 6.780501 -1.982552 0.000000 0.000000 1.832463
    6 1.707564 0.000000 -0.000001 0.000000 0.000000 -0.130833
    7 1.707564 0.000000 -0.000001 0.000000 0.000000 -0.479722
    8 4.324764 6.333147 1.238804 0.000000 -0.331445 1.832463
    9 1.821401 0.000000 0.000000 0.000000 0.000000 -0.130833
    10 1.821401 0.000000 0.000002 0.000000 0.000000 -0.479722
    11 0.000020 -0.000019 -14.561969 -0.320590 -0.064864 -3.130599
    12 17.731709 0.000001 0.000000 0.000000 0.000000 -1.345827
    13 21.987318 0.000000 0.000000 0.406233 -2.969963 -1.259388
    14 4.324764 6.904406 1.903420 0.000000 0.148272 1.832463
    15 1.707564 0.000000 0.000000 0.000000 0.000000 -0.130833
    16 1.707564 0.000000 0.000000 0.000000 0.000000 -0.479722
    17 4.324764 7.017686 -1.342621 0.000000 -0.026167 1.832463
    18 1.821401 0.000000 -0.000001 0.000000 0.000000 -0.130833
    19 1.821401 0.000000 0.000000 0.000000 0.000000 -0.479722
    20 1.249477 0.004294 0.003908 -0.003862 -0.233623 2.051382
    21 11.689317 -0.009310 0.000000 -0.000180 -0.235499 0.000020
    22 11.689319 -0.001413 0.000000 -0.000180 -0.235497 0.000012
    23 1.773171 0.000000 0.000000 0.183559 -0.289879 -1.958766
    24 4.327651 4.634944 -2.428680 -3.141591 -1.570796 0.000000
    25 0.000000 0.000000 -0.346258 0.000000 0.000000 0.000000
    26 0.827268 -7.688719 -2.908663 0.000000 0.000000 0.000000
    27 1.167906 -7.494068 0.088223 0.000000 0.000000 0.000000
    28 1.508547 -6.764126 -3.865246 0.000000 0.000000 0.000000
    29 2.243070 5.364873 3.362189 -3.141591 -1.570796 0.000000
    30 0.000000 0.000000 0.000000 0.000000 0.000000 0.000000
    31 1.021918 -6.472149 -0.595725 0.000000 0.000000 0.000000
    32 0.973257 -7.396744 -2.793420 0.000000 0.000000 0.000000
    33 1.021919 -5.839535 -3.557765 0.000000 0.000000 0.000000
    34 -3.776780 2.834425 -11.528622 -3.141591 -1.570796 0.000000
    35 -0.145987 0.000000 0.730172 0.000000 0.000000 0.000000
    36 -2.384475 -6.374823 -2.048884 0.000000 0.000000 0.000000
    37 -1.021918 -3.601046 -1.439223 0.000000 0.000000 0.000000
    38 -0.243313 -4.720289 -1.673704 0.000000 0.000000 0.000000
    39 -2.264709 4.780907 8.909744 -3.141591 -1.570796 0.000000
    40 0.000000 0.000000 -0.000001 0.000000 0.000000 0.000000
    41 1.946511 -7.250753 -2.204917 0.000000 0.000000 0.000000
    42 1.605872 -3.649708 -1.822482 0.000000 0.000000 0.000000
    43 -0.729940 -3.941685 -1.419925 0.000000 0.000000 0.000000
    44 -4.189922 3.272375 -1.309439 -3.141591 -1.570796 0.000000
    45 0.000000 0.000000 0.000000 0.000000 0.000000 0.000000
    46 -1.265231 -7.396742 -6.605809 0.000000 0.000000 0.000000
    47 0.000001 -5.742207 -3.281358 0.000000 0.000000 0.000000
    48 0.048663 -5.596218 0.775174 0.000000 0.000000 0.000000
    49 0.256295 2.737098 -7.294960 -3.141591 -1.570796 0.000000
    50 0.000000 0.000000 1.089263 0.000000 0.000000 0.000000
    51 -2.335813 -8.126684 -0.811257 0.000000 0.000000 0.000000
    52 0.145988 -7.348078 -0.880992 0.000000 0.000000 0.000000
    53 0.048664 -7.299416 -5.811587 0.000000 0.000000 0.000000
    54 -0.388542 -14.131889 0.000034 0.004660 -0.723973 -1.557746
    55 15.490297 -0.012333 0.000000 -0.000702 -0.723939 -0.009583
    56 15.491476 -0.012288 0.000000 -0.000694 -0.723932 0.086375
    57 15.487943 -0.014717 0.000000 -0.000675 -0.723931 -0.166573
  time 7
    0 0.152748 4.452156 34.202477 0.000000 0.000000 -1.570871
    1 0.667989 -3.906369 0.000000 -0.000022 -1.565906 -1.570745
    2 -0.000020 0.000021 14.561969 0.433669 -0.020695 -2.449512
    3 17.731709 0.000001 -0.000001 0.000000 0.000000 -1.353741
    4 21.987318 0.000000 0.000001 2.674427 -0.251915 0.701493
    5 4.324764 6.780501 -1.982552 0.000000 0.000000 1.832463
    6 1.707564 0.000000 -0.000001 0.000000 0.000000 -0.130833
    7 1.707564 0.000000 -0.000001 0.000000 0.000000 -0.479722
    8 4.324764 6.333147 1.238804 0.000000 -0.331445 1.832463
    9 1.821401 0.000000 0.000000 0.000000 0.000000 -0.130833
    10 1.821401 0.000000 0.000002 0.000000 0.000000 -0.479722
    11 0.000020 -0.000019 -14.561969 -0.308101 -0.070558 -3.199070
    12 17.731709 0.000001 0.000000 0.000000 0.000000 -1.304704
    13 21.987318 0.000000 0.000000 0.384152 -2.946357 -1.192552
    14 4.324764 6.904406 1.903420 0.000000 0.151110 1.832463
    15 1.707564 0.000000 0.000000 0.000000 0.000000 -0.130833
    16 1.707564 0.000000 0.000000 0.000000 0.000000 -0.479722
    17 4.324764 7.017686 -1.342621 0.000000 -0.019882 1.832463
    18 1.821401 0.000000 -0.000001 0.000000 0.000000 -0.130833
    19 1.821401 0.000000 0.000000 0.000000 0.000000 -0.479722
    20 1.249477 0.004294 0.003908 -0.004641 -0.231192 2.051558
    21 11.689317 -0.009310 0.000000 -0.000228 -0.281965 0.000020
    22 11.689319 -0.001413 0.000000 -0.000180 -0.233460 0.000012
    23 1.773171 0.000000 0.000000 0.175574 -0.305713 -1.946430
    24 4.327651 4.634944 -2.428680 -3.141591 -1.570796 0.000000
    25 0.000000 0.000000 -0.346258 0.000000 0.000000 0.000000
    26 0.827268 -7.688719 -2.908663 0.000000 0.000000 0.000000
    27 1.167906 -7.494068 0.088223 0.000000 0.000000 0.000000
    28 1.508547 -6.764126 -3.865246 0.000000 0.000000 0.000000
    29 2.243070 5.364873 3.362189 -3.141591 -1.570796 0.000000
    30 0.000000 0.000000 0.000000 0.000000 0.000000 0.000000
    31 1.021918 -6.472149 -0.595725 0.000000 0.000000 0.000000
    32 0.973257 -7.396744 -2.793420 0.000000 0.000000 0.000000
    33 1.021919 -5.839535 -3.557765 0.000000 0.000000 0.000000
    34 -3.776780 2.834425 -11.528622 -3.141591 -1.570796 0.000000
    35 -0.145987 0.000000 0.730172 0.000000 0.000000 0.000000
    36 -2.384475 -6.374823 -2.048884 0.000000 0.000000 0.000000
    37 -1.021918 -3.601046 -1.439223 0.000000 0.000000 0.000000
    38 -0.243313 -4.720289 -1.673704 0.000000 0.000000 0.000000
    39 -2.264709 4.780907 8.909744 -3.141591 -1.570796 0.000000
    40 0.000000 0.000000 -0.000001 0.000000 0.000000 0.000000
    41 1.946511 -7.250753 -2.204917 0.000000 0.000000 0.000000
    42 1.605872 -3.649708 -1.822482 0.000000 0.000000 0.000000
    43 -0.729940 -3.941685 -1.419925 0.000000 0.000000 0.000000
    44 -4.189922 3.272375 -1.309439 -3.141591 -1.570796 0.000000
    45 0.000000 0.000000 0.000000 0.000000 0.000000 0.000000
    46 -1.265231 -7.396742 -6.605809 0.000000 0.000000 0.000000
    47 0.000001 -5.742207 -3.281358 0.000000 0.000000 0.000000
    48 0.048663 -5.596218 0.775174 0.000000 0.000000 0.000000
    49 0.256295 2.737098 -7.294960 -3.141591 -1.570796 0.000000
    50 0.000000 0.000000 1.089263 0.000000 0.000000 0.000000
    51 -2.335813 -8.126684 -0.811257 0.000000 0.000000 0.000000
    52 0.145988 -7.348078 -0.880992 0.000000 0.000000 0.000000
    53 0.048664 -7.299416 -5.811587 0.000000 0.000000 0.000000
    54 -0.388542 -14.131889 0.000034 0.005906 -0.745355 -1.558662
    55 15.490297 -0.012333 0.000000 -0.000770 -0.769961 -0.009548
    56 15.491476 -0.012288 0.000000 -0.000759 -0.769956 0.086412
    57 15.487943 -0.014717 0.000000 -0.000739 -0.769955 -0.166530
  time 8
    0 0.152748 4.452156 34.202477 0.000000 0.000000 -1.570871
    1 0.714866 -3.921995 0.000000 -0.000022 -1.565067 -1.570793
    2 -0.000020 0.000021 14.561969 0.436617 -0.015939 -2.452495
    3 17.731709 0.000001 -0.000001 0.000000 0.000000 -1.349842
    4 21.987318 0.000000 0.000001 2.674050 -0.255276 0.702131
    5 4.324764 6.780501 -1.982552 0.000000 0.000000 1.832463
    6 1.707564 0.000000 -0.000001 0.000000 0.000000 -0.130833
    7 1.707564 0.000000 -0.000001 0.000000 0.000000 -0.479722
    8 4.324764 6.333147 1.238804 0.000000 -0.331445 1.832463
    9 1.821401 0.000000 0.000000 0.000000 0.000000 -0.130833
    10 1.821401 0.000000 0.000002 0.000000 0.000000 -0.479722
    11 0.000020 -0.000019 -14.561969 -0.291808 -0.058267 -3.258216
    12 17.731709 0.000001 0.000000 0.000000 0.000000 -1.272471
    13 21.987318 0.000000 0.000000 0.349991 -2.921720 -1.137428
    14 4.324764 6.904406 1.903420 0.000000 0.157374 1.832463
    15 1.707564 0.000000 0.000000 0.000000 0.000000 -0.130833
    16 1.707564 0.000000 0.000000 0.000000 0.000000 -0.479722
    17 4.324764 7.017686 -1.342621 0.000000 -0.006122 1.832463
    18 1.821401 0.000000 -0.000001 0.000000 0.000000 -0.130833
    19 1.821401 0.000000 0.000000 0.000000 0.000000 -0.479722
    20 1.249477 0.004294 0.003908 -0.005396 -0.215190 2.051653
    21 11.689317 -0.009310 0.000000 -0.000276 -0.337403 0.000039
    22 11.689319 -0.001413 0.000000 -0.000168 -0.217868 0.000012
    23 1.773171 0.000000 0.000000 0.155971 -0.315515 -1.938504
    24 4.327651 4.634944 -2.428680 -3.141591 -1.570796 0.000000
    25 0.000000 0.000000 -0.346258 0.000000 0.000000 0.000000
    26 0.827268 -7.688719 -2.908663 0.000000 0.000000 0.000000
    27 1.167906 -7.494068 0.088223 0.000000 0.000000 0.000000
    28 1.508547 -6.764126 -3.865246 0.000000 0.000000 0.000000
    29 2.243070 5.364873 3.362189 -3.141591 -1.570796 0.000000
    30 0.000000 0.000000 0.000000 0.000000 0.000000 0.000000
    31 1.021918 -6.472149 -0.595725 0.000000 0.000000 0.000000
    32 0.973257 -7.396744 -2.793420 0.000000 0.000000 0.000000
    33 1.021919 -5.839535 -3.557765 0.000000 0.000000 0.000000
    34 -3.776780 2.834425 -11.528622 -3.141591 -1.570796 0.000000
    35 -0.145987 0.000000 0.730172 0.000000 0.000000 0.000000
    36 -2.384475 -6.374823 -2.048884 0.000000 0.000000 0.000000
    37 -1.021918 -3.601046 -1.439223 0.000000 0.000000 0.000000
    38 -0.243313 -4.720289 -1.673704 0.000000 0.000000 0.000000
    39 -2.264709 4.780907 8.909744 -3.141591 -1.570796 0.000000
    40 0.000000 0.000000 -0.000001 0.000000 0.000000 0.000000
    41 1.946511 -7.250753 -2.204917 0.000000 0.000000 0.000000
    42 1.605872 -3.649708 -1.822482 0.000000 0.000000 0.000000
    43 -0.729940 -3.941685 -1.419925 0.000000 0.000000 0.000000
    44 -4.189922 3.272375 -1.309439 -3.141591 -1.570796 0.000000
    45 0.000000 0.000000 0.000000 0.000000 0.000000 0.000000
    46 -1.265231 -7.396742 -6.605809 0.000000 0.000000 0.000000
    47 0.000001 -5.742207 -3.281358 0.000000 0.000000 0.000000
    48 0.048663 -5.596218 0.775174 0.000000 0.000000 0.000000
    49 0.256295 2.737098 -7.294960 -3.141591 -1.570796 0.000000
    50 0.000000 0.000000 1.089263 0.000000 0.000000 0.000000
    51 -2.335813 -8.126684 -0.811257 0.000000 0.000000 0.000000
    52 0.145988 -7.348078 -0.880992 0.000000 0.000000 0.000000
    53 0.048664 -7.299416 -5.811587 0.000000 0.000000 0.000000
    54 -0.388542 -14.131889 0.000034 0.007093 -0.746931 -1.559464
    55 15.490297 -0.012333 0.000000 -0.000824 -0.804242 -0.009512
    56 15.491476 -0.012288 0.000000 -0.000825 -0.804246 0.086450
    57 15.487943 -0.014717 0.000000 -0.000804 -0.804245 -0.166487
  time 9
    0 0.152748 4.452156 34.202477 0.000000 0.000000 -1.570871
    1 0.742210 -3.843867 0.000000 -0.000022 -1.564216 -1.570793
    2 -0.000020 0.000021 14.561969 0.441649 -0.007604 -2.457992
    3 17.731709 0.000001 -0.000001 0.000000 0.000000 -1.343166
    4 21.987318 0.000000 0.000001 2.673297 -0.261588 0.703853
    5 4.324764 6.780501 -1.982552 0.000000 0.000000 1.832463
    6 1.707564 0.000000 -0.000001 0.000000 0.000000 -0.130833
    7 1.707564 0.000000 -0.000001 0.000000 0.000000 -0.479722
    8 4.324764 6.333147 1.238804 0.000000 -0.331445 1.832463
    9 1.821401 0.000000 0.000000 0.000000 0.000000 -0.130833
    10 1.821401 0.000000 0.000002 0.000000 0.000000 -0.479722
    11 0.000020 -0.000019 -14.561969 -0.275745 -0.037042 -3.307992
    12 17.731709 0.000001 0.000000 0.000000 0.000000 -1.247201
    13 21.987318 0.000000 0.000000 0.310924 -2.899988 -1.091280
    14 4.324764 6.904406 1.903420 0.000000 0.164970 1.832463
    15 1.707564 0.000000 0.000000 0.000000 0.000000 -0.130833
    16 1.707564 0.000000 0.000000 0.000000 0.000000 -0.479722
    17 4.324764 7.017686 -1.342621 0.000000 0.010585 1.832463
    18 1.821401 0.000000 -0.000001 0.000000 0.000000 -0.130833
    19 1.821401 0.000000 0.000000 0.000000 0.000000 -0.479722
    20 1.249477 0.004294 0.007815 -0.006103 -0.190702 2.051669
    21 11.689317 -0.009310 0.000000 -0.000324 -0.394084 0.000059
    22 11.689319 -0.001413 0.000000 -0.000156 -0.193755 0.000012
    23 1.773171 0.000000 0.000000 0.129868 -0.320132 -1.934988
    24 4.327651 4.634944 -2.428680 -3.141591 -1.570796 0.000000
    25 0.000000 0.000000 -0.346258 0.000000 0.000000 0.000000
    26 0.827268 -7.688719 -2.908663 0.000000 0.000000 0.000000
    27 1.167906 -7.494068 0.088223 0.000000 0.000000 0.000000
    28 1.508547 -6.764126 -3.865246 0.000000 0.000000 0.000000
    29 2.243070 5.364873 3.362189 -3.141591 -1.570796 0.000000
    30 0.000000 0.000000 0.000000 0.000000 0.000000 0.000000
    31 1.021918 -6.472149 -0.595725 0.000000 0.000000 0.000000
    32 0.973257 -7.396744 -2.793420 0.000000 0.000000 0.000000
    33 1.021919 -5.839535 -3.557765 0.000000 0.000000 0.000000
    34 -3.776780 2.834425 -11.528622 -3.141591 -1.570796 0.000000
    35 -0.145987 0.000000 0.730172 0.000000 0.000000 0.000000
    36 -2.384475 -6.374823 -2.048884 0.000000 0.000000 0.000000
    37 -1.021918 -3.601046 -1.439223 0.000000 0.000000 0.000000
    38 -0.243313 -4.720289 -1.673704 0.000000 0.000000 0.000000
    39 -2.264709 4.780907 8.909744 -3.141591 -1.570796 0.000000
    40 0.000000 0.000000 -0.000001 0.000000 0.000000 0.000000
    41 1.946511 -7.250753 -2.204917 0.000000 0.000000 0.000000
    42 1.605872 -3.649708 -1.822482 0.000000 0.000000 0.000000
    43 -0.729940 -3.941685 -1.419925 0.000000 0.000000 0.000000
    44 -4.189922 3.272375 -1.309439 -3.141591 -1.570796 0.000000
    45 0.000000 0.000000 0.000000 0.000000 0.000000 0.000000
    46 -1.265231 -7.396742 -6.605809 0.000000 0.000000 0.000000
    47 0.000001 -5.742207 -3.281358 0.000000 0.000000 0.000000
    48 0.048663 -5.596218 0.775174 0.000000 0.000000 0.000000
    49 0.256295 2.737098 -7.294960 -3.141591 -1.570796 0.000000
    50 0.000000 0.000000 1.089263 0.000000 0.000000 0.000000
    51 -2.335813 -8.126684 -0.811257 0.000000 0.000000 0.000000
    52 0.145988 -7.348078 -0.880992 0.000000 0.000000 0.000000
    53 0.048664 -7.299416 -5.811587 0.000000 0.000000 0.000000
    54 -0.388542 -14.131889 0.000034 0.008160 -0.736043 -1.560151
    55 15.490297 -0.012333 0.000000 -0.000864 -0.829141 -0.009476
    56 15.491476 -0.012288 0.000000 -0.000864 -0.829125 0.086488
    57 15.487943 -0.014717 0.000000 -0.000868 -0.829124 -0.166487
  time 10
    0 0.152748 4.452156 34.202477 0.000000 0.000000 -1.570871
    1 0.753929 -3.691519 0.000000 -0.000022 -1.563437 -1.570793
    2 -0.000020 0.000021 14.561969 0.447820 0.002921 -2.464776
    3 17.731709 0.000001 -0.000001 0.000000 0.000000 -1.334664
    4 21.987318 0.000000 0.000001 2.672262 -0.269785 0.706020
    5 4.324764 6.780501 -1.982552 0.000000 0.000000 1.832463
    6 1.707564 0.000000 -0.000001 0.000000 0.000000 -0.130833
    7 1.707564 0.000000 -0.000001 0.000000 0.000000 -0.479722
    8 4.324764 6.333147 1.238804 0.000000 -0.331445 1.832463
    9 1.821401 0.000000 0.000000 0.000000 0.000000 -0.130833
    10 1.821401 0.000000 0.000002 0.000000 0.000000 -0.479722
    11 0.000020 -0.000019 -14.561969 -0.260490 -0.009821 -3.350577
    12 17.731709 0.000001 0.000000 0.000000 0.000000 -1.227055
    13 21.987318 0.000000 0.000000 0.268743 -2.881065 -1.051305
    14 4.324764 6.904406 1.903420 0.000000 0.173089 1.832463
    15 1.707564 0.000000 0.000000 0.000000 0.000000 -0.130833
    16 1.707564 0.000000 0.000000 0.000000 0.000000 -0.479722
    17 4.324764 7.017686 -1.342621 0.000000 0.028441 1.832463
    18 1.821401 0.000000 -0.000001 0.000000 0.000000 -0.130833
    19 1.821401 0.000000 0.000000 0.000000 0.000000 -0.479722
    20 1.249477 0.004294 0.007815 -0.006762 -0.161787 2.051606
    21 11.689317 -0.009310 0.000000 -0.000372 -0.445502 0.000079
    22 11.689319 -0.001413 0.000000 -0.000132 -0.165220 0.000000
    23 1.773171 0.000000 0.000000 0.101298 -0.319978 -1.935660
    24 4.327651 4.634944 -2.428680 -3.141591 -1.570796 0.000000
    25 0.000000 0.000000 -0.346258 0.000000 0.000000 0.000000
    26 0.827268 -7.688719 -2.908663 0.000000 0.000000 0.000000
    27 1.167906 -7.494068 0.088223 0.000000 0.000000 0.000000
    28 1.508547 -6.764126 -3.865246 0.000000 0.000000 0.000000
    29 2.243070 5.364873 3.362189 -3.141591 -1.570796 0.000000
    30 0.000000 0.000000 0.000000 0.000000 0.000000 0.000000
    31 1.021918 -6.472149 -0.595725 0.000000 0.000000 0.000000
    32 0.973257 -7.396744 -2.793420 0.000000 0.000000 0.000000
    33 1.021919 -5.839535 -3.557765 0.000000 0.000000 0.000000
    34 -3.776780 2.834425 -11.528622 -3.141591 -1.570796 0.000000
    35 -0.145987 0.000000 0.730172 0.000000 0.000000 0.000000
    36 -2.384475 -6.374823 -2.048884 0.000000 0.000000 0.000000
    37 -1.021918 -3.601046 -1.439223 0.000000 0.000000 0.000000
    38 -0.243313 -4.720289 -1.673704 0.000000 0.000000 0.000000
    39 -2.264709 4.780907 8.909744 -3.141591 -1.570796 0.000000
    40 0.000000 0.000000 -0.000001 0.000000 0.000000 0.000000
    41 1.946511 -7.250753 -2.204917 0.000000 0.000000 0.000000
    42 1.605872 -3.649708 -1.822482 0.000000 0.000000 0.000000
    43 -0.729940 -3.941685 -1.419925 0.000000 0.000000 0.000000
    44 -4.189922 3.272375 -1.309439 -3.141591 -1.570796 0.000000
    45 0.000000 0.000000 0.000000 0.000000 0.000000 0.000000
    46 -1.265231 -7.396742 -6.605809 0.000000 0.000000 0.000000
    47 0.000001 -5.742207 -3.281358 0.000000 0.000000 0.000000
    48 0.048663 -5.596218 0.775174 0.000000 0.000000 0.000000
    49 0.256295 2.737098 -7.294960 -3.141591 -1.570796 0.000000
    50 0.000000 0.000000 1.089263 0.000000 0.000000 0.000000
    51 -2.335813 -8.126684 -0.811257 0.000000 0.000000 0.000000
    52 0.145988 -7.348078 -0.880992 0.000000 0.000000 0.000000
    53 0.048664 -7.299416 -5.811587 0.000000 0.000000 0.000000
    54 -0.388542 -14.131889 0.000034 0.009082 -0.716523 -1.560609
    55 15.490297 -0.012333 0.000000 -0.000891 -0.846255 -0.009441
    56 15.491476 -0.012288 0.000000 -0.000890 -0.846270 0.086488
    57 15.487943 -0.014717 0.000000 -0.000868 -0.846269 -0.166443
  time 11
    0 0.152748 4.452156 34.202477 0.000000 0.000000 -1.570871
    1 0.742210 -3.488388 0.000000 -0.000022 -1.562754 -1.570793
    2 -0.000020 0.000021 14.561969 0.454385 0.014411 -2.472086
    3 17.731709 0.000001 -0.000001 0.000000 0.000000 -1.325167
    4 21.987318 0.000000 0.000001 2.671038 -0.278884 0.708252
    5 4.324764 6.780501 -1.982552 0.000000 0.000000 1.832463
    6 1.707564 0.000000 -0.000001 0.000000 0.000000 -0.130833
    7 1.707564 0.000000 -0.000001 0.000000 0.000000 -0.479722
    8 4.324764 6.333147 1.238804 0.000000 -0.331445 1.832463
    9 1.821401 0.000000 0.000000 0.000000 0.000000 -0.130833
    10 1.821401 0.000000 0.000002 0.000000 0.000000 -0.479722
    11 0.000020 -0.000019 -14.561969 -0.246041 0.023395 -3.386529
    12 17.731709 0.000001 0.000000 0.000000 0.000000 -1.211858
    13 21.987318 0.000000 0.000000 0.223259 -2.864204 -1.016869
    14 4.324764 6.904406 1.903420 0.000000 0.181274 1.832463
    15 1.707564 0.000000 0.000000 0.000000 0.000000 -0.130833
    16 1.707564 0.000000 0.000000 0.000000 0.000000 -0.479722
    17 4.324764 7.017686 -1.342621 0.000000 0.046470 1.832463
    18 1.821401 0.000000 -0.000001 0.000000 0.000000 -0.130833
    19 1.821401 0.000000 0.000000 0.000000 0.000000 -0.479722
    20 1.249477 0.004294 0.007815 -0.007302 -0.132022 2.051478
    21 11.689317 -0.009310 0.000000 -0.000419 -0.485619 0.000098
    22 11.689319 -0.001413 0.000000 -0.000108 -0.135761 0.000000
    23 1.773171 0.000000 0.000000 0.073750 -0.315162 -1.940262
    24 4.327651 4.634944 -2.428680 -3.141591 -1.570796 0.000000
    25 0.000000 0.000000 -0.346258 0.000000 0.000000 0.000000
    26 0.827268 -7.688719 -2.908663 0.000000 0.000000 0.000000
    27 1.167906 -7.494068 0.088223 0.000000 0.000000 0.000000
    28 1.508547 -6.764126 -3.865246 0.000000 0.000000 0.000000
    29 2.243070 5.364873 3.362189 -3.141591 -1.570796 0.000000
    30 0.000000 0.000000 0.000000 0.000000 0.000000 0.000000
    31 1.021918 -6.472149 -0.595725 0.000000 0.000000 0.000000
    32 0.973257 -7.396744 -2.793420 0.000000 0.000000 0.000000
    33 1.021919 -5.839535 -3.557765 0.000000 0.000000 0.000000
    34 -3.776780 2.834425 -11.528622 -3.141591 -1.570796 0.000000
    35 -0.145987 0.000000 0.730172 0.000000 0.000000 0.000000
    36 -2.384475 -6.374823 -2.048884 0.000000 0.000000 0.000000
    37 -1.021918 -3.601046 -1.439223 0.000000 0.000000 0.000000
    38 -0.243313 -4.720289 -1.673704 0.000000 0.000000 0.000000
    39 -2.264709 4.780907 8.909744 -3.141591 -1.570796 0.000000
    40 0.000000 0.000000 -0.000001 0.000000 0.000000 0.000000
    41 1.946511 -7.250753 -2.204917 0.000000 0.000000 0.000000
    42 1.605872 -3.649708 -1.822482 0.000000 0.000000 0.000000
    43 -0.729940 -3.941685 -1.419925 0.000000 0.000000 0.000000
    44 -4.189922 3.272375 -1.309439 -3.141591 -1.570796 0.000000
    45 0.000000 0.000000 0.000000 0.000000 0.000000 0.000000
    46 -1.265231 -7.396742 -6.605809 0.000000 0.000000 0.000000
    47 0.000001 -5.742207 -3.281358 0.000000 0.000000 0.000000
    48 0.048663 -5.596218 0.775174 0.000000 0.000000 0.000000
    49 0.256295 2.737098 -7.294960 -3.141591 -1.570796 0.000000
    50 0.000000 0.000000 1.089263 0.000000 0.000000 0.000000
    51 -2.335813 -8.126684 -0.811257 0.000000 0.000000 0.000000
    52 0.145988 -7.348078 -0.880992 0.000000 0.000000 0.000000
    53 0.048664 -7.299416 -5.811587 0.000000 0.000000 0.000000
    54 -0.388542 -14.131889 0.000034 0.009765 -0.690197 -1.560838
    55 15.490297 -0.012333 0.000000 -0.000905 -0.856293 -0.009441
    56 15.491476 -0.012288 0.000000 -0.000903 -0.856290 0.086525
    57 15.487943 -0.014717 0.000000 -0.000900 -0.856289 -0.166443
  time 12
    0 0.152748 4.452156 34.202477 0.000000 0.000000 -1.570871
    1 0.710959 -3.254006 0.000000 -0.000022 -1.562263 -1.570745
    2 -0.000020 0.000021 14.561969 0.460674 0.025642 -2.479103
    3 17.731709 0.000001 -0.000001 0.000000 0.000000 -1.315670
    4 21.987318 0.000000 0.000001 2.669814 -0.287819 0.710165
    5 4.324764 6.780501 -1.982552 0.000000 0.000000 1.832463
    6 1.707564 0.000000 -0.000001 0.000000 0.000000 -0.130833
    7 1.707564 0.000000 -0.000001 0.000000 0.000000 -0.479722
    8 4.324764 6.333147 1.238804 0.000000 -0.331445 1.832463
    9 1.821401 0.000000 0.000000 0.000000 0.000000 -0.130833
    10 1.821401 0.000000 0.000002 0.000000 0.000000 -0.479722
    11 0.000020 -0.000019 -14.561969 -0.232784 0.062513 -3.411393
    12 17.731709 0.000001 0.000000 0.000000 0.000000 -1.204588
    13 21.987318 0.000000 0.000000 0.176926 -2.848935 -0.992553
    14 4.324764 6.904406 1.903420 0.000000 0.188477 1.832463
    15 1.707564 0.000000 0.000000 0.000000 0.000000 -0.130833
    16 1.707564 0.000000 0.000000 0.000000 0.000000 -0.479722
    17 4.324764 7.017686 -1.342621 0.000000 0.062310 1.832463
    18 1.821401 0.000000 -0.000001 0.000000 0.000000 -0.130833
    19 1.821401 0.000000 0.000000 0.000000 0.000000 -0.479722
    20 1.249477 0.004294 0.007815 -0.007697 -0.104785 2.051318
    21 11.689317 -0.009310 0.000000 -0.000431 -0.508221 0.000098
    22 11.689319 -0.001413 0.000000 -0.000084 -0.108736 0.000000
    23 1.773171 0.000000 0.000000 0.050456 -0.305467 -1.948571
    24 4.327651 4.634944 -2.428680 -3.141591 -1.570796 0.000000
    25 0.000000 0.000000 -0.346258 0.000000 0.000000 0.000000
    26 0.827268 -7.688719 -2.908663 0.000000 0.000000 0.000000
    27 1.167906 -7.494068 0.088223 0.000000 0.000000 0.000000
    28 1.508547 -6.764126 -3.865246 0.000000 0.000000 0.000000
    29 2.243070 5.364873 3.362189 -3.141591 -1.570796 0.000000
    30 0.000000 0.000000 0.000000 0.000000 0.000000 0.000000
    31 1.021918 -6.472149 -0.595725 0.000000 0.000000 0.000000
    32 0.973257 -7.396744 -2.793420 0.000000 0.000000 0.000000
    33 1.021919 -5.839535 -3.557765 0.000000 0.000000 0.000000
    34 -3.776780 2.834425 -11.528622 -3.141591 -1.570796 0.000000
    35 -0.145987 0.000000 0.730172 0.000000 0.000000 0.000000
    36 -2.384475 -6.374823 -2.048884 0.000000 0.000000 0.000000
    37 -1.021918 -3.601046 -1.439223 0.000000 0.000000 0.000000
    38 -0.243313 -4.720289 -1.673704 0.000000 0.000000 0.000000
    39 -2.264709 4.780907 8.909744 -3.141591 -1.570796 0.000000
    40 0.000000 0.000000 -0.000001 0.000000 0.000000 0.000000
    41 1.946511 -7.250753 -2.204917 0.000000 0.000000 0.000000
    42 1.605872 -3.649708 -1.822482 0.000000 0.000000 0.000000
    43 -0.729940 -3.941685 -1.419925 0.000000 0.000000 0.000000
    44 -4.189922 3.272375 -1.309439 -3.141591 -1.570796 0.000000
    45 0.000000 0.000000 0.000000 0.000000 0.000000 0.000000
    46 -1.265231 -7.396742 -6.605809 0.000000 0.000000 0.000000
    47 0.000001 -5.742207 -3.281358 0.000000 0.000000 0.000000
    48 0.048663 -5.596218 0.775174 0.000000 0.000000 0.000000
    49 0.256295 2.737098 -7.294960 -3.141591 -1.570796 0.000000
    50 0.000000 0.000000 1.089263 0.000000 0.000000 0.000000
    51 -2.335813 -8.126684 -0.811257 0.000000 0.000000 0.000000
    52 0.145988 -7.348078 -0.880992 0.000000 0.000000 0.000000
    53 0.048664 -7.299416 -5.811587 0.000000 0.000000 0.000000
    54 -0.388542 -14.131889 0.000034 0.010149 -0.657460 -1.560838
    55 15.490297 -0.012333 0.000000 -0.000918 -0.858809 -0.009441
    56 15.491476 -0.012288 0.000000 -0.000916 -0.858805 0.086525
    57 15.487943 -0.014717 0.000000 -0.000900 -0.858804 -0.166443
  time 13
    0 0.152748 4.452156 34.202477 0.000000 0.000000 -1.570871
    1 0.648457 -3.003998 0.000000 -0.000022 -1.562083 -1.570793
    2 -0.000020 0.000021 14.561969 0.465941 0.035343 -2.485068
    3 17.731709 0.000001 -0.000001 0.000000 0.000000 -1.307335
    4 21.987318 0.000000 0.000001 2.668684 -0.295689 0.711759
    5 4.324764 6.780501 -1.982552 0.000000 0.000000 1.832463
    6 1.707564 0.000000 -0.000001 0.000000 0.000000 -0.130833
    7 1.707564 0.000000 -0.000001 0.000000 0.000000 -0.479722
    8 4.324764 6.333147 1.238804 0.000000 -0.331445 1.832463
    9 1.821401 0.000000 0.000000 0.000000 0.000000 -0.130833
    10 1.821401 0.000000 0.000002 0.000000 0.000000 -0.479722
    11 0.000020 -0.000019 -14.561969 -0.222754 0.103507 -3.410651
    12 17.731709 0.000001 0.000000 0.000000 0.000000 -1.214136
    13 21.987318 0.000000 0.000000 0.140879 -2.835539 -0.993317
    14 4.324764 6.904406 1.903420 0.000000 0.191882 1.832463
    15 1.707564 0.000000 0.000000 0.000000 0.000000 -0.130833
    16 1.707564 0.000000 0.000000 0.000000 0.000000 -0.479722
    17 4.324764 7.017686 -1.342621 0.000000 0.069786 1.832463
    18 1.821401 0.000000 -0.000001 0.000000 0.000000 -0.130833
    19 1.821401 0.000000 0.000000 0.000000 0.000000 -0.479722
    20 1.249477 0.004294 0.007815 -0.007829 -0.083628 2.051174
    21 11.689317 -0.009310 0.000000 -0.000431 -0.506318 0.000098
    22 11.689319 -0.001413 0.000000 -0.000060 -0.087655 0.000000
    23 1.773171 0.000000 0.000000 0.034766 -0.290371 -1.960268
    24 4.327651 4.634944 -2.428680 -3.141591 -1.570796 0.000000
    25 0.000000 0.000000 -0.346258 0.000000 0.000000 0.000000
    26 0.827268 -7.688719 -2.908663 0.000000 0.000000 0.000000
    27 1.167906 -7.494068 0.088223 0.000000 0.000000 0.000000
    28 1.508547 -6.764126 -3.865246 0.000000 0.000000 0.000000
    29 2.243070 5.364873 3.362189 -3.141591 -1.570796 0.000000
    30 0.000000 0.000000 0.000000 0.000000 0.000000 0.000000
    31 1.021918 -6.472149 -0.595725 0.000000 0.000000 0.000000
    32 0.973257 -7.396744 -2.793420 0.000000 0.000000 0.000000
    33 1.021919 -5.839535 -3.557765 0.000000 0.000000 0.000000
    34 -3.776780 2.834425 -11.528622 -3.141591 -1.570796 0.000000
    35 -0.145987 0.000000 0.730172 0.000000 0.000000 0.000000
    36 -2.384475 -6.374823 -2.048884 0.000000 0.000000 0.000000
    37 -1.021918 -3.601046 -1.439223 0.000000 0.000000 0.000000
    38 -0.243313 -4.720289 -1.673704 0.000000 0.000000 0.000000
    39 -2.264709 4.780907 8.909744 -3.141591 -1.570796 0.000000
    40 0.000000 0.000000 -0.000001 0.000000 0.000000 0.000000
    41 1.946511 -7.250753 -2.204917 0.000000 0.000000 0.000000
    42 1.605872 -3.649708 -1.822482 0.000000 0.000000 0.000000
    43 -0.729940 -3.941685 -1.419925 0.000000 0.000000 0.000000
    44 -4.189922 3.272375 -1.309439 -3.141591 -1.570796 0.000000
    45 0.000000 0.000000 0.000000 0.000000 0.000000 0.000000
    46 -1.265231 -7.396742 -6.605809 0.000000 0.000000 0.000000
    47 0.000001 -5.742207 -3.281358 0.000000 0.000000 0.000000
    48 0.048663 -5.596218 0.775174 0.000000 0.000000 0.000000
    49 0.256295 2.737098 -7.294960 -3.141591 -1.570796 0.000000
    50 0.000000 0.000000 1.089263 0.000000 0.000000 0.000000
    51 -2.335813 -8.126684 -0.811257 0.000000 0.000000 0.000000
    52 0.145988 -7.348078 -0.880992 0.000000 0.000000 0.000000
    53 0.048664 -7.299416 -5.811587 0.000000 0.000000 0.000000
    54 -0.388542 -14.131889 0.000034 0.010125 -0.618348 -1.560456
    55 15.490297 -0.012333 0.000000 -0.000905 -0.851942 -0.009441
    56 15.491476 -0.012288 0.000000 -0.000903 -0.851947 0.086488
    57 15.487943 -0.014717 0.000000 -0.000900 -0.851946 -0.166443
  time 14
    0 0.152748 4.452156 34.202477 0.000000 0.000000 -1.570871
    1 0.523453 -2.648518 0.000000 -0.000022 -1.562407 -1.570793
    2 -0.000020 0.000021 14.561969 0.471169 0.045373 -2.491267
    3 17.731709 0.000001 -0.000001 0.000000 0.000000 -1.298626
    4 21.987318 0.000000 0.000001 2.667460 -0.304132 0.713608
    5 4.324764 6.780501 -1.982552 0.000000 0.000000 1.832463
    6 1.707564 0.000000 -0.000001 0.000000 0.000000 -0.130833
    7 1.707564 0.000000 -0.000001 0.000000 0.000000 -0.479722
    8 4.324764 6.333147 1.238804 0.000000 -0.331445 1.832463
    9 1.821401 0.000000 0.000000 0.000000 0.000000 -0.130833
    10 1.821401 0.000000 0.000002 0.000000 0.000000 -0.479722
    11 0.000020 -0.000019 -14.561969 -0.215376 0.160703 -3.323996
    12 17.731709 0.000001 0.000000 0.000000 0.000000 -1.298747
    13 21.987318 0.000000 0.000000 0.135595 -2.817085 -1.066264
    14 4.324764 6.904406 1.903420 0.000000 0.166148 1.832463
    15 1.707564 0.000000 0.000000 0.000000 0.000000 -0.130833
    16 1.707564 0.000000 0.000000 0.000000 0.000000 -0.479722
    17 4.324764 7.017686 -1.342621 0.000000 0.098953 1.832463
    18 1.821401 0.000000 -0.000001 0.000000 0.000000 -0.130833
    19 1.821401 0.000000 0.000000 0.000000 0.000000 -0.479722
    20 1.249477 0.004294 0.007815 -0.007517 -0.065682 2.051014
    21 11.689317 -0.009310 0.000000 -0.000395 -0.464706 0.000079
    22 11.689319 -0.001413 0.000000 -0.000048 -0.069571 0.000000
    23 1.773171 0.000000 0.000000 0.025818 -0.261349 -1.979795
    24 4.327651 4.634944 -2.428680 -3.141591 -1.570796 0.000000
    25 0.000000 0.000000 -0.346258 0.000000 0.000000 0.000000
    26 0.827268 -7.688719 -2.908663 0.000000 0.000000 0.000000
    27 1.167906 -7.494068 0.088223 0.000000 0.000000 0.000000
    28 1.508547 -6.764126 -3.865246 0.000000 0.000000 0.000000
    29 2.243070 5.364873 3.362189 -3.141591 -1.570796 0.000000
    30 0.000000 0.000000 0.000000 0.000000 0.000000 0.000000
    31 1.021918 -6.472149 -0.595725 0.000000 0.000000 0.000000
    32 0.973257 -7.396744 -2.793420 0.000000 0.000000 0.000000
    33 1.021919 -5.839535 -3.557765 0.000000 0.000000 0.000000
    34 -3.776780 2.834425 -11.528622 -3.141591 -1.570796 0.000000
    35 -0.145987 0.000000 0.730172 0.000000 0.000000 0.000000
    36 -2.384475 -6.374823 -2.048884 0.000000 0.000000 0.000000
    37 -1.021918 -3.601046 -1.439223 0.000000 0.000000 0.000000
    38 -0.243313 -4.720289 -1.673704 0.000000 0.000000 0.000000
    39 -2.264709 4.780907 8.909744 -3.141591 -1.570796 0.000000
    40 0.000000 0.000000 -0.000001 0.000000 0.000000 0.000000
    41 1.946511 -7.250753 -2.204917 0.000000 0.000000 0.000000
    42 1.605872 -3.649708 -1.822482 0.000000 0.000000 0.000000
    43 -0.729940 -3.941685 -1.419925 0.000000 0.000000 0.000000
    44 -4.189922 3.272375 -1.309439 -3.141591 -1.570796 0.000000
    45 0.000000 0.000000 0.000000 0.000000 0.000000 0.000000
    46 -1.265231 -7.396742 -6.605809 0.000000 0.000000 0.000000
    47 0.000001 -5.742207 -3.281358 0.000000 0.000000 0.000000
    48 0.048663 -5.596218 0.775174 0.000000 0.000000 0.000000
    49 0.256295 2.737098 -7.294960 -3.141591 -1.570796 0.000000
    50 0.000000 0.000000 1.089263 0.000000 0.000000 0.000000
    51 -2.335813 -8.126684 -0.811257 0.000000 0.000000 0.000000
    52 0.145988 -7.348078 -0.880992 0.000000 0.000000 0.000000
    53 0.048664 -7.299416 -5.811587 0.000000 0.000000 0.000000
    54 -0.388542 -14.131889 0.000034 0.009478 -0.572932 -1.559731
    55 15.490297 -0.012333 0.000000 -0.000864 -0.832050 -0.009476
    56 15.491476 -0.012288 0.000000 -0.000864 -0.832059 0.086488
    57 15.487943 -0.014717 0.000000 -0.000868 -0.832058 -0.166487
  time 15
    0 0.152748 4.452156 34.202477 0.000000 0.000000 -1.570871
    1 0.332041 -2.101627 0.000000 -0.000022 -1.563605 -1.570745
    2 -0.000020 0.000021 14.561969 0.477419 0.057617 -2.498694
    3 17.731709 0.000001 -0.000001 0.000000 0.000000 -1.287926
    4 21.987318 0.000000 0.000001 2.665765 -0.315199 0.715967
    5 4.324764 6.780501 -1.982552 0.000000 0.000000 1.832463
    6 1.707564 0.000000 -0.000001 0.000000 0.000000 -0.130833
    7 1.707564 0.000000 -0.000001 0.000000 0.000000 -0.479722
    8 4.324764 6.333147 1.238804 0.000000 -0.331445 1.832463
    9 1.821401 0.000000 0.000000 0.000000 0.000000 -0.130833
    10 1.821401 0.000000 0.000002 0.000000 0.000000 -0.479722
    11 0.000020 -0.000019 -14.561969 -0.201043 0.237319 -3.106616
    12 17.731709 0.000001 0.000000 0.000000 0.000000 -1.478350
    13 21.987318 0.000000 0.000000 0.193063 -2.798912 -1.268109
    14 4.324764 6.904406 1.903420 0.000000 0.090213 1.832463
    15 1.707564 0.000000 0.000000 0.000000 0.000000 -0.130833
    16 1.707564 0.000000 0.000000 0.000000 0.000000 -0.479722
    17 4.324764 7.017686 -1.342621 0.000000 0.185003 1.832463
    18 1.821401 0.000000 -0.000001 0.000000 0.000000 -0.130833
    19 1.821401 0.000000 0.000000 0.000000 0.000000 -0.479722
    20 1.249477 0.004294 0.007815 -0.006427 -0.047273 2.050823
    21 11.689317 -0.009310 0.000000 -0.000312 -0.375578 0.000039
    22 11.689319 -0.001413 0.000000 -0.000036 -0.050599 0.000000
    23 1.773171 0.000000 0.000000 0.019638 -0.210507 -2.006864
    24 4.327651 4.634944 -2.428680 -3.141591 -1.570796 0.000000
    25 0.000000 0.000000 -0.346258 0.000000 0.000000 0.000000
    26 0.827268 -7.688719 -2.908663 0.000000 0.000000 0.000000
    27 1.167906 -7.494068 0.088223 0.000000 0.000000 0.000000
    28 1.508547 -6.764126 -3.865246 0.000000 0.000000 0.000000
    29 2.243070 5.364873 3.362189 -3.141591 -1.570796 0.000000
    30 0.000000 0.000000 0.000000 0.000000 0.000000 0.000000
    31 1.021918 -6.472149 -0.595725 0.000000 0.000000 0.000000
    32 0.973257 -7.396744 -2.793420 0.000000 0.000000 0.000000
    33 1.021919 -5.839535 -3.557765 0.000000 0.000000 0.000000
    34 -3.776780 2.834425 -11.528622 -3.141591 -1.570796 0.000000
    35 -0.145987 0.000000 0.730172 0.000000 0.000000 0.000000
    36 -2.384475 -6.374823 -2.048884 0.000000 0.000000 0.000000
    37 -1.021918 -3.601046 -1.439223 0.000000 0.000000 0.000000
    38 -0.243313 -4.720289 -1.673704 0.000000 0.000000 0.000000
    39 -2.264709 4.780907 8.909744 -3.141591 -1.570796 0.000000
    40 0.000000 0.000000 -0.000001 0.000000 0.000000 0.000000
    41 1.946511 -7.250753 -2.204917 0.000000 0.000000 0.000000
    42 1.605872 -3.649708 -1.822482 0.000000 0.000000 0.000000
    43 -0.729940 -3.941685 -1.419925 0.000000 0.000000 0.000000
    44 -4.189922 3.272375 -1.309439 -3.141591 -1.570796 0.000000
    45 0.000000 0.000000 0.000000 0.000000 0.000000 0.000000
    46 -1.265231 -7.396742 -6.605809 0.000000 0.000000 0.000000
    47 0.000001 -5.742207 -3.281358 0.000000 0.000000 0.000000
    48 0.048663 -5.596218 0.775174 0.000000 0.000000 0.000000
    49 0.256295 2.737098 -7.294960 -3.141591 -1.570796 0.000000
    50 0.000000 0.000000 1.089263 0.000000 0.000000 0.000000
    51 -2.335813 -8.126684 -0.811257 0.000000 0.000000 0.000000
    52 0.145988 -7.348078 -0.880992 0.000000 0.000000 0.000000
    53 0.048664 -7.299416 -5.811587 0.000000 0.000000 0.000000
    54 -0.388542 -14.131889 0.000034 0.007836 -0.522609 -1.558471
    55 15.490297 -0.012333 0.000000 -0.000797 -0.792894 -0.009512
    56 15.491476 -0.012288 0.000000 -0.000798 -0.792892 0.086412
    57 15.487943 -0.014717 0.000000 -0.000804 -0.792891 -0.166530
  time 16
    0 0.152748 4.452156 34.202477 0.000000 0.000000 -1.570871
    1 0.156255 -1.445357 0.000000 -0.000022 -1.565595 -1.570793
    2 -0.000020 0.000021 14.561969 0.483670 0.070049 -2.505770
    3 17.731709 0.000001 -0.000001 0.000000 0.000000 -1.276770
    4 21.987318 0.000000 0.000001 2.663977 -0.327167 0.718071
    5 4.324764 6.780501 -1.982552 0.000000 0.000000 1.832463
    6 1.707564 0.000000 -0.000001 0.000000 0.000000 -0.130833
    7 1.707564 0.000000 -0.000001 0.000000 0.000000 -0.479722
    8 4.324764 6.333147 1.238804 0.000000 -0.331445 1.832463
    9 1.821401 0.000000 0.000000 0.000000 0.000000 -0.130833
    10 1.821401 0.000000 0.000002 0.000000 0.000000 -0.479722
    11 0.000020 -0.000019 -14.561969 -0.175527 0.298404 -2.898838
    12 17.731709 0.000001 0.000000 0.000000 0.000000 -1.578947
    13 21.987318 0.000000 0.000000 0.265629 -2.800224 -1.526351
    14 4.324764 6.904406 1.903420 0.000000 0.054198 1.832463
    15 1.707564 0.000000 0.000000 0.000000 0.000000 -0.130833
    16 1.707564 0.000000 0.000000 0.000000 0.000000 -0.479722
    17 4.324764 7.017686 -1.342621 0.000000 0.225806 1.832463
    18 1.821401 0.000000 -0.000001 0.000000 0.000000 -0.130833
    19 1.821401 0.000000 0.000000 0.000000 0.000000 -0.479722
    20 1.249477 0.004294 0.003908 -0.004641 -0.030663 2.050663
    21 11.689317 -0.009310 0.000000 -0.000204 -0.258975 0.000020
    22 11.689319 -0.001413 0.000000 -0.000024 -0.033077 0.000000
    23 1.773171 0.000000 0.000000 0.014201 -0.145939 -2.030737
    24 4.327651 4.634944 -2.428680 -3.141591 -1.570796 0.000000
    25 0.000000 0.000000 -0.346258 0.000000 0.000000 0.000000
    26 0.827268 -7.688719 -2.908663 0.000000 0.000000 0.000000
    27 1.167906 -7.494068 0.088223 0.000000 0.000000 0.000000
    28 1.508547 -6.764126 -3.865246 0.000000 0.000000 0.000000
    29 2.243070 5.364873 3.362189 -3.141591 -1.570796 0.000000
    30 0.000000 0.000000 0.000000 0.000000 0.000000 0.000000
    31 1.021918 -6.472149 -0.595725 0.000000 0.000000 0.000000
    32 0.973257 -7.396744 -2.793420 0.000000 0.000000 0.000000
    33 1.021919 -5.839535 -3.557765 0.000000 0.000000 0.000000
    34 -3.776780 2.834425 -11.528622 -3.141591 -1.570796 0.000000
    35 -0.145987 0.000000 0.730172 0.000000 0.000000 0.000000
    36 -2.384475 -6.374823 -2.048884 0.000000 0.000000 0.000000
    37 -1.021918 -3.601046 -1.439223 0.000000 0.000000 0.000000
    38 -0.243313 -4.720289 -1.673704 0.000000 0.000000 0.000000
    39 -2.264709 4.780907 8.909744 -3.141591 -1.570796 0.000000
    40 0.000000 0.000000 -0.000001 0.000000 0.000000 0.000000
    41 1.946511 -7.250753 -2.204917 0.000000 0.000000 0.000000
    42 1.605872 -3.649708 -1.822482 0.000000 0.000000 0.000000
    43 -0.729940 -3.941685 -1.419925 0.000000 0.000000 0.000000
    44 -4.189922 3.272375 -1.309439 -3.141591 -1.570796 0.000000
    45 0.000000 0.000000 0.000000 0.000000 0.000000 0.000000
    46 -1.265231 -7.396742 -6.605809 0.000000 0.000000 0.000000
    47 0.000001 -5.742207 -3.281358 0.000000 0.000000 0.000000
    48 0.048663 -5.596218 0.775174 0.000000 0.000000 0.000000
    49 0.256295 2.737098 -7.294960 -3.141591 -1.570796 0.000000
    50 0.000000 0.000000 1.089263 0.000000 0.000000 0.000000
    51 -2.335813 -8.126684 -0.811257 0.000000 0.000000 0.000000
    52 0.145988 -7.348078 -0.880992 0.000000 0.000000 0.000000
    53 0.048664 -7.299416 -5.811587 0.000000 0.000000 0.000000
    54 -0.388542 -14.131889 0.000034 0.005367 -0.434785 -1.556792
    55 15.490297 -0.012333 0.000000 -0.000635 -0.683132 -0.009619
    56 15.491476 -0.012288 0.000000 -0.000641 -0.683127 0.086337
    57 15.487943 -0.014717 0.000000 -0.000643 -0.683126 -0.166617
  time 17
    0 0.152748 4.452156 34.202477 0.000000 0.000000 -1.570871
    1 0.046876 -0.824244 0.000000 -0.000022 -1.567812 -1.570793
    2 -0.000020 0.000021 14.561969 0.490784 0.079326 -2.512145
    3 17.731709 0.000001 -0.000001 0.000000 0.000000 -1.266900
    4 21.987318 0.000000 0.000001 2.659740 -0.337659 0.720302
    5 4.324764 6.780501 -1.982552 0.000000 0.000000 1.832463
    6 1.707564 0.000000 -0.000001 0.000000 0.000000 -0.130833
    7 1.707564 0.000000 -0.000001 0.000000 0.000000 -0.479722
    8 4.324764 6.333147 1.238804 0.000000 -0.331445 1.832463
    9 1.821401 0.000000 0.000000 0.000000 0.000000 -0.130833
    10 1.821401 0.000000 0.000002 0.000000 0.000000 -0.479722
    11 0.000020 -0.000019 -14.561969 -0.142211 0.347198 -2.716668
    12 17.731709 0.000001 0.000000 0.000000 0.000000 -1.546451
    13 21.987318 0.000000 0.000000 -2.808872 -0.326263 1.275549
    14 4.324764 6.904406 1.903420 0.000000 0.026653 1.832463
    15 1.707564 0.000000 0.000000 0.000000 0.000000 -0.130833
    16 1.707564 0.000000 0.000000 0.000000 0.000000 -0.479722
    17 4.324764 7.017686 -1.342621 0.000000 0.257032 1.832463
    18 1.821401 0.000000 -0.000001 0.000000 0.000000 -0.130833
    19 1.821401 0.000000 0.000000 0.000000 0.000000 -0.479722
    20 1.249477 0.004294 0.000002 -0.002688 -0.017386 2.050551
    21 11.689317 -0.009310 0.000000 -0.000108 -0.146080 0.000000
    22 11.689319 -0.001413 0.000000 -0.000012 -0.018792 0.000000
    23 1.773171 0.000000 0.000000 0.008884 -0.083171 -2.044640
    24 4.327651 4.634944 -2.428680 -3.141591 -1.570796 0.000000
    25 0.000000 0.000000 -0.346258 0.000000 0.000000 0.000000
    26 0.827268 -7.688719 -2.908663 0.000000 0.000000 0.000000
    27 1.167906 -7.494068 0.088223 0.000000 0.000000 0.000000
    28 1.508547 -6.764126 -3.865246 0.000000 0.000000 0.000000
    29 2.243070 5.364873 3.362189 -3.141591 -1.570796 0.000000
    30 0.000000 0.000000 0.000000 0.000000 0.000000 0.000000
    31 1.021918 -6.472149 -0.595725 0.000000 0.000000 0.000000
    32 0.973257 -7.396744 -2.793420 0.000000 0.000000 0.000000
    33 1.021919 -5.839535 -3.557765 0.000000 0.000000 0.000000
    34 -3.776780 2.834425 -11.528622 -3.141591 -1.570796 0.000000
    35 -0.145987 0.000000 0.730172 0.000000 0.000000 0.000000
    36 -2.384475 -6.374823 -2.048884 0.000000 0.000000 0.000000
    37 -1.021918 -3.601046 -1.439223 0.000000 0.000000 0.000000
    38 -0.243313 -4.720289 -1.673704 0.000000 0.000000 0.000000
    39 -2.264709 4.780907 8.909744 -3.141591 -1.570796 0.000000
    40 0.000000 0.000000 -0.000001 0.000000 0.000000 0.000000
    41 1.946511 -7.250753 -2.204917 0.000000 0.000000 0.000000
    42 1.605872 -3.649708 -1.822482 0.000000 0.000000 0.000000
    43 -0.729940 -3.941685 -1.419925 0.000000 0.000000 0.000000
    44 -4.189922 3.272375 -1.309439 -3.141591 -1.570796 0.000000
    45 0.000000 0.000000 0.000000 0.000000 0.000000 0.000000
    46 -1.265231 -7.396742 -6.605809 0.000000 0.000000 0.000000
    47 0.000001 -5.742207 -3.281358 0.000000 0.000000 0.000000
    48 0.048663 -5.596218 0.775174 0.000000 0.000000 0.000000
    49 0.256295 2.737098 -7.294960 -3.141591 -1.570796 0.000000
    50 0.000000 0.000000 1.089263 0.000000 0.000000 0.000000
    51 -2.335813 -8.126684 -0.811257 0.000000 0.000000 0.000000
    52 0.145988 -7.348078 -0.880992 0.000000 0.000000 0.000000
    53 0.048664 -7.299416 -5.811587 0.000000 0.000000 0.000000
    54 -0.388542 -14.131889 0.000034 0.002898 -0.284246 -1.555303
    55 15.490297 -0.012333 0.000000 -0.000378 -0.456976 -0.009762
    56 15.491476 -0.012288 0.000000 -0.000380 -0.456967 0.086186
    57 15.487943 -0.014717 0.000000 -0.000386 -0.456966 -0.166746
  time 18
    0 0.152748 4.452156 34.202477 0.000000 0.000000 -1.570871
    1 0.007813 -0.359386 0.000000 -0.000070 -1.569610 -1.570793
    2 -0.000020 0.000021 14.561969 0.302772 -0.160484 -2.471208
    3 17.731709 0.000001 -0.000001 0.000000 0.000000 -1.310279
    4 21.987318 0.000000 0.000001 2.692786 -0.064522 0.626066
    5 4.324764 6.780501 -1.982552 0.000000 0.000000 1.832463
    6 1.707564 0.000000 -0.000001 0.000000 0.000000 -0.130833
    7 1.707564 0.000000 -0.000001 0.000000 0.000000 -0.479722
    8 4.324764 6.333147 1.238804 0.000000 -0.331445 1.832463
    9 1.821401 0.000000 0.000000 0.000000 0.000000 -0.130833
    10 1.821401 0.000000 0.000002 0.000000 0.000000 -0.479722
    11 0.000020 -0.000019 -14.561969 -0.100710 0.388098 -2.524709
    12 17.731709 0.000001 0.000000 0.000000 0.000000 -1.450146
    13 21.987318 0.000000 0.000000 -2.738665 -0.290292 0.867721
    14 4.324764 6.904406 1.903420 0.000000 -0.032585 1.832463
    15 1.707564 0.000000 0.000000 0.000000 0.000000 -0.130833
    16 1.707564 0.000000 0.000000 0.000000 0.000000 -0.479722
    17 4.324764 7.017686 -1.342621 0.000000 0.324186 1.832463
    18 1.821401 0.000000 -0.000001 0.000000 0.000000 -0.130833
    19 1.821401 0.000000 0.000000 0.000000 0.000000 -0.479722
    20 1.249477 0.004294 0.000002 -0.001142 -0.008023 2.050519
    21 11.689317 -0.009310 0.000000 -0.000048 -0.062448 0.000000
    22 11.689319 -0.001413 0.000000 0.000000 -0.008629 0.000000
    23 1.773171 0.000000 0.000000 0.004450 -0.036175 -2.049657
    24 4.327651 4.634944 -2.428680 -3.141591 -1.570796 0.000000
    25 0.000000 0.000000 -0.346258 0.000000 0.000000 0.000000
    26 0.827268 -7.688719 -2.908663 0.000000 0.000000 0.000000
    27 1.167906 -7.494068 0.088223 0.000000 0.000000 0.000000
    28 1.508547 -6.764126 -3.865246 0.000000 0.000000 0.000000
    29 2.243070 5.364873 3.362189 -3.141591 -1.570796 0.000000
    30 0.000000 0.000000 0.000000 0.000000 0.000000 0.000000
    31 1.021918 -6.472149 -0.595725 0.000000 0.000000 0.000000
    32 0.973257 -7.396744 -2.793420 0.000000 0.000000 0.000000
    33 1.021919 -5.839535 -3.557765 0.000000 0.000000 0.000000
    34 -3.776780 2.834425 -11.528622 -3.141591 -1.570796 0.000000
    35 -0.145987 0.000000 0.730172 0.000000 0.000000 0.000000
    36 -2.384475 -6.374823 -2.048884 0.000000 0.000000 0.000000
    37 -1.021918 -3.601046 -1.439223 0.000000 0.000000 0.000000
    38 -0.243313 -4.720289 -1.673704 0.000000 0.000000 0.000000
    39 -2.264709 4.780907 8.909744 -3.141591 -1.570796 0.000000
    40 0.000000 0.000000 -0.000001 0.000000 0.000000 0.000000
    41 1.946511 -7.250753 -2.204917 0.000000 0.000000 0.000000
    42 1.605872 -3.649708 -1.822482 0.000000 0.000000 0.000000
    43 -0.729940 -3.941685 -1.419925 0.000000 0.000000 0.000000
    44 -4.189922 3.272375 -1.309439 -3.141591 -1.570796 0.000000
    45 0.000000 0.000000 0.000000 0.000000 0.000000 0.000000
    46 -1.265231 -7.396742 -6.605809 0.000000 0.000000 0.000000
    47 0.000001 -5.742207 -3.281358 0.000000 0.000000 0.000000
    48 0.048663 -5.596218 0.775174 0.000000 0.000000 0.000000
    49 0.256295 2.737098 -7.294960 -3.141591 -1.570796 0.000000
    50 0.000000 0.000000 1.089263 0.000000 0.000000 0.000000
    51 -2.335813 -8.126684 -0.811257 0.000000 0.000000 0.000000
    52 0.145988 -7.348078 -0.880992 0.000000 0.000000 0.000000
    53 0.048664 -7.299416 -5.811587 0.000000 0.000000 0.000000
    54 -0.388542 -14.131889 0.000034 0.001184 -0.128692 -1.554616
    55 15.490297 -0.012333 0.000000 -0.000162 -0.207075 -0.009833
    56 15.491476 -0.012288 0.000000 -0.000157 -0.207072 0.086111
    57 15.487943 -0.014717 0.000000 -0.000161 -0.207071 -0.166833
  time 19
    0 0.152748 4.452156 34.202477 0.000000 0.000000 -1.570871
    1 0.000000 -0.097659 0.000000 -1.570795 -1.570796 0.000000
    2 -0.000020 0.000021 14.561969 0.116725 -0.363211 -2.392494
    3 17.731709 0.000001 -0.000001 0.000000 0.000000 -1.349842
    4 21.987318 0.000000 0.000001 2.690903 0.180416 0.548471
    5 4.324764 6.780501 -1.982552 0.000000 0.000000 1.832463
    6 1.707564 0.000000 -0.000001 0.000000 0.000000 -0.130833
    7 1.707564 0.000000 -0.000001 0.000000 0.000000 -0.479722
    8 4.324764 6.333147 1.238804 0.000000 -0.331445 1.832463
    9 1.821401 0.000000 0.000000 0.000000 0.000000 -0.130833
    10 1.821401 0.000000 0.000002 0.000000 0.000000 -0.479722
    11 0.000020 -0.000019 -14.561969 -0.070852 0.409347 -2.402102
    12 17.731709 0.000001 0.000000 0.000000 0.000000 -1.379461
    13 21.987318 0.000000 0.000000 -2.697427 -0.258068 0.605150
    14 4.324764 6.904406 1.903420 0.000000 -0.065718 1.832463
    15 1.707564 0.000000 0.000000 0.000000 0.000000 -0.130833
    16 1.707564 0.000000 0.000000 0.000000 0.000000 -0.479722
    17 4.324764 7.017686 -1.342621 0.000000 0.361717 1.832463
    18 1.821401 0.000000 -0.000001 0.000000 0.000000 -0.130833
    19 1.821401 0.000000 0.000000 0.000000 0.000000 -0.479722
    20 1.249477 0.004294 0.000002 -0.000291 -0.002406 2.050519
    21 11.689317 -0.009310 0.000000 -0.000012 -0.016447 0.000000
    22 11.689319 -0.001413 0.000000 0.000000 -0.002565 0.000000
    23 1.773171 0.000000 0.000000 0.001441 -0.009785 -2.050520
    24 4.327651 4.634944 -2.428680 -3.141591 -1.570796 0.000000
    25 0.000000 0.000000 -0.346258 0.000000 0.000000 0.000000
    26 0.827268 -7.688719 -2.908663 0.000000 0.000000 0.000000
    27 1.167906 -7.494068 0.088223 0.000000 0.000000 0.000000
    28 1.508547 -6.764126 -3.865246 0.000000 0.000000 0.000000
    29 2.243070 5.364873 3.362189 -3.141591 -1.570796 0.000000
    30 0.000000 0.000000 0.000000 0.000000 0.000000 0.000000
    31 1.021918 -6.472149 -0.595725 0.000000 0.000000 0.000000
    32 0.973257 -7.396744 -2.793420 0.000000 0.000000 0.000000
    33 1.021919 -5.839535 -3.557765 0.000000 0.000000 0.000000
    34 -3.776780 2.834425 -11.528622 -3.141591 -1.570796 0.000000
    35 -0.145987 0.000000 0.730172 0.000000 0.000000 0.000000
    36 -2.384475 -6.374823 -2.048884 0.000000 0.000000 0.000000
    37 -1.021918 -3.601046 -1.439223 0.000000 0.000000 0.000000
    38 -0.243313 -4.720289 -1.673704 0.000000 0.000000 0.000000
    39 -2.264709 4.780907 8.909744 -3.141591 -1.570796 0.000000
    40 0.000000 0.000000 -0.000001 0.000000 0.000000 0.000000
    41 1.946511 -7.250753 -2.204917 0.000000 0.000000 0.000000
    42 1.605872 -3.649708 -1.822482 0.000000 0.000000 0.000000
    43 -0.729940 -3.941685 -1.419925 0.000000 0.000000 0.000000
    44 -4.189922 3.272375 -1.309439 -3.141591 -1.570796 0.000000
    45 0.000000 0.000000 0.000000 0.000000 0.000000 0.000000
    46 -1.265231 -7.396742 -6.605809 0.000000 0.000000 0.000000
    47 0.000001 -5.742207 -3.281358 0.000000 0.000000 0.000000
    48 0.048663 -5.596218 0.775174 0.000000 0.000000 0.000000
    49 0.256295 2.737098 -7.294960 -3.141591 -1.570796 0.000000
    50 0.000000 0.000000 1.089263 0.000000 0.000000 0.000000
    51 -2.335813 -8.126684 -0.811257 0.000000 0.000000 0.000000
    52 0.145988 -7.348078 -0.880992 0.000000 0.000000 0.000000
    53 0.048664 -7.299416 -5.811587 0.000000 0.000000 0.000000
    54 -0.388542 -14.131889 0.000034 0.000286 -0.031054 -1.554463
    55 15.490297 -0.012333 0.000000 -0.000027 -0.048722 -0.009833
    56 15.491476 -0.012288 0.000000 -0.000026 -0.048729 0.086111
    57 15.487943 -0.014717 0.000000 -0.000032 -0.048728 -0.166833
  time 20
    0 0.152748 4.452156 34.202477 0.000000 0.000000 -1.570871
    1 0.000000 0.000000 0.000000 -1.570795 -1.570796 0.000000
    2 -0.000020 0.000021 14.561969 0.060711 -0.415458 -2.363137
    3 17.731709 0.000001 -0.000001 0.000000 0.000000 -1.360542
    4 21.987318 0.000000 0.000001 2.685254 0.246733 0.526347
    5 4.324764 6.780501 -1.982552 0.000000 0.000000 1.832463
    6 1.707564 0.000000 -0.000001 0.000000 0.000000 -0.130833
    7 1.707564 0.000000 -0.000001 0.000000 0.000000 -0.479722
    8 4.324764 6.333147 1.238804 0.000000 -0.331445 1.832463
    9 1.821401 0.000000 0.000000 0.000000 0.000000 -0.130833
    10 1.821401 0.000000 0.000002 0.000000 0.000000 -0.479722
    11 0.000020 -0.000019 -14.561969 -0.060707 0.415458 -2.363135
    12 17.731709 0.000001 0.000000 0.000000 0.000000 -1.360542
    13 21.987318 0.000000 0.000000 -2.685254 -0.246733 0.526347
    14 4.324764 6.904406 1.903420 0.000000 -0.069778 1.832463
    15 1.707564 0.000000 0.000000 0.000000 0.000000 -0.130833
    16 1.707564 0.000000 0.000000 0.000000 0.000000 -0.479722
    17 4.324764 7.017686 -1.342621 0.000000 0.366333 1.832463
    18 1.821401 0.000000 -0.000001 0.000000 0.000000 -0.130833
    19 1.821401 0.000000 0.000000 0.000000 0.000000 -0.479722
    20 1.249477 0.004294 0.000002 -0.000003 0.000002 2.050519
    21 11.689317 -0.009310 0.000000 0.000000 0.000000 0.000000
    22 11.689319 -0.001413 0.000000 0.000000 0.000000 0.000000
    23 1.773171 0.000000 0.000000 -0.000004 0.000002 -2.050520
    24 4.327651 4.634944 -2.428680 -3.141591 -1.570796 0.000000
    25 0.000000 0.000000 -0.346258 0.000000 0.000000 0.000000
    26 0.827268 -7.688719 -2.908663 0.000000 0.000000 0.000000
    27 1.167906 -7.494068 0.088223 0.000000 0.000000 0.000000
    28 1.508547 -6.764126 -3.865246 0.000000 0.000000 0.000000
    29 2.243070 5.364873 3.362189 -3.141591 -1.570796 0.000000
    30 0.000000 0.000000 0.000000 0.000000 0.000000 0.000000
    31 1.021918 -6.472149 -0.595725 0.000000 0.000000 0.000000
    32 0.973257 -7.396744 -2.793420 0.000000 0.000000 0.000000
    33 1.021919 -5.839535 -3.557765 0.000000 0.000000 0.000000
    34 -3.776780 2.834425 -11.528622 -3.141591 -1.570796 0.000000
    35 -0.145987 0.000000 0.730172 0.000000 0.000000 0.000000
    36 -2.384475 -6.374823 -2.048884 0.000000 0.000000 0.000000
    37 -1.021918 -3.601046 -1.439223 0.000000 0.000000 0.000000
    38 -0.243313 -4.720289 -1.673704 0.000000 0.000000 0.000000
    39 -2.264709 4.780907 8.909744 -3.141591 -1.570796 0.000000
    40 0.000000 0.000000 -0.000001 0.000000 0.000000 0.000000
    41 1.946511 -7.250753 -2.204917 0.000000 0.000000 0.000000
    42 1.605872 -3.649708 -1.822482 0.000000 0.000000 0.000000
    43 -0.729940 -3.941685 -1.419925 0.000000 0.000000 0.000000
    44 -4.189922 3.272375 -1.309439 -3.141591 -1.570796 0.000000
    45 0.000000 0.000000 0.000000 0.000000 0.000000 0.000000
    46 -1.265231 -7.396742 -6.605809 0.000000 0.000000 0.000000
    47 0.000001 -5.742207 -3.281358 0.000000 0.000000 0.000000
    48 0.048663 -5.596218 0.775174 0.000000 0.000000 0.000000
    49 0.256295 2.737098 -7.294960 -3.141591 -1.570796 0.000000
    50 0.000000 0.000000 1.089263 0.000000 0.000000 0.000000
    51 -2.335813 -8.126684 -0.811257 0.000000 0.000000 0.000000
    52 0.145988 -7.348078 -0.880992 0.000000 0.000000 0.000000
    53 0.048664 -7.299416 -5.811587 0.000000 0.000000 0.000000
    54 -0.388542 -14.131889 0.000034 -0.000002 -0.000001 -1.554463
    55 15.490297 -0.012333 0.000000 0.000000 0.000000 -0.009833
    56 15.491476 -0.012288 0.000000 0.000000 0.000000 0.086111
    57 15.487943 -0.014717 0.000000 0.000000 0.000001 -0.166833
end
