$modelname "w_squeak2.mdl"

$bodygroup "studio"
{
	studio "snarkyboi.smd"
}

$surfaceprop "default"

$contents "solid"

$illumposition -1.465 -0.554 5.15

$cdmaterials "models\v_squeak\"

$cbox 0 0 0 0 0 0

$bbox -7.042 -7.217 -0.338 8.151 4.287 10.638

$sequence "idle" {
	"w_squeak_anims\idle.smd"
	activity "ACT_IDLE" 1
	fadein 0.2
	fadeout 0.2
	fps 16
}

$sequence "fidget" {
	"w_squeak_anims\fidget.smd"
	activity "ACT_FIDGET" 1
	fadein 0.2
	fadeout 0.2
	fps 16
}

$sequence "jump" {
	"w_squeak_anims\jump.smd"
	activity "ACT_JUMP" 1
	fadein 0.2
	fadeout 0.2
	fps 16
	walkframe 25
}

$sequence "run" {
	"w_squeak_anims\run.smd"
	activity "ACT_RUN" 1
	fadein 0.2
	fadeout 0.2
	fps 45
	loop
	walkframe 8 LX
}
