version 1
nodes
0 "Bip01" -1
1 "Bip01 Pelvis" 0
2 "Bip01 L Thigh" 1
3 "Bip01 L Calf" 2
4 "Bip01 L Foot" 3
5 "Bip01 R Thigh" 1
6 "Bip01 R Calf" 5
7 "Bip01 R Foot" 6
8 "Bip01 Spine" 1
9 "Bip01 Spine1" 8
10 "Bip01 Spine2" 9
11 "Bip01 Spine3" 10
12 "Bip01 Neck" 11
13 "Bip01 L Clavicle" 12
14 "Bip01 L UpperArm" 13
15 "Bip01 L Forearm" 14
16 "Bip01 L Hand" 15
17 "Bip01 L Finger0" 16
18 "Bip01 L Finger01" 17
19 "Bip01 L Finger02" 18
20 "Bip01 L Finger1" 16
21 "Bip01 L Finger11" 20
22 "Bip01 L Finger12" 21
23 "Bip01 L Finger2" 16
24 "Bip01 L Finger21" 23
25 "Bip01 L Finger22" 24
26 "Bip01 R Clavicle" 12
27 "Bip01 R UpperArm" 26
28 "Bip01 R Forearm" 27
29 "Bip01 R Hand" 28
30 "Bip01 R Finger0" 29
31 "Bip01 R Finger01" 30
32 "Bip01 R Finger02" 31
33 "Bip01 R Finger1" 29
34 "Bip01 R Finger11" 33
35 "Bip01 R Finger12" 34
36 "Bip01 R Finger2" 29
37 "Bip01 R Finger21" 36
38 "Bip01 R Finger22" 37
39 "m4" 29
40 "SHOTGUN" 29
41 "Bip01 Head" 12
42 "Bone05" 41
end
skeleton
time 0
0  -0.057370 -2.444468 26.248550  0.000000 -0.000000 -2.033429
1  -1.369817 -0.035156 9.745321  -1.571053 -1.570796 0.000000
2  -0.000002 0.000010 5.615748  -0.168719 -2.770203 -0.743514
3  15.693466 -0.000002 0.000000  -0.000000 -0.000000 -0.753593
4  22.146633 -0.000002 -0.000001  0.181436 -0.114118 -0.140254
5  0.000017 -0.000006 -5.615750  -0.109829 2.934651 -0.093583
6  15.693466 0.000001 -0.000002  0.000000 0.000000 -0.731894
7  22.146629 -0.000001 -0.000001  0.071032 0.223114 0.561816
8  1.384166 -0.004350 0.000002  -0.372596 -0.003462 0.086545
9  5.934386 -0.004352 -0.000000  -0.000000 -0.000000 -0.000000
10  5.934380 -0.004352 -0.000000  0.000000 -0.000000 0.000000
11  4.992945 -0.004351 0.000000  -0.000000 0.000000 0.000000
12  4.992960 -0.001575 -0.000000  -0.000000 0.000000 0.000000
13  0.000008 0.001564 3.638374  -0.000011 -1.284204 3.140806
14  8.842829 0.000001 0.000005  -0.414917 -0.110868 -0.914725
15  9.341939 0.000002 -0.000010  -0.000000 -0.000001 -0.852998
16  11.164142 -0.000003 0.000001  1.767339 0.471561 -0.520863
17  1.517249 -0.028671 -1.542785  1.365962 0.325360 -0.061056
18  1.304995 -0.000031 -0.000003  -0.049779 0.162071 -0.019793
19  1.339553 0.000032 0.000001  0.000000 -0.000000 0.083183
20  4.170094 -1.192200 -1.334473  1.541739 0.020078 0.224643
21  1.681238 0.066409 0.261722  -0.207408 0.786204 -0.210455
22  1.369116 0.140632 0.433606  -0.327953 0.642276 -0.305785
23  4.237903 -1.152053 -0.369374  1.543347 -0.005608 0.196233
24  1.691772 0.035159 0.152346  -0.172749 0.734111 -0.230040
25  1.723487 0.089862 0.128915  -0.276456 0.833598 -0.205576
26  0.000008 0.001585 -3.638376  -0.000011 1.284210 3.140786
27  8.842835 -0.000000 0.000008  0.953935 -0.539074 -2.198133
28  9.341928 0.000001 -0.000004  0.000000 0.000000 -0.994895
29  11.164139 0.000006 0.000004  1.806863 0.075074 0.649593
30  1.498254 0.120086 1.545500  -2.003611 -0.286207 0.274830
31  1.304991 -0.000031 -0.000006  -0.279401 0.159838 0.074784
32  1.339561 0.000026 -0.000005  -0.057639 0.015924 0.008934
33  4.201560 -0.682690 1.351845  -1.347855 -0.006161 0.263442
34  1.571854 -0.000006 -0.062503  -0.180551 -0.496625 -0.060127
35  1.353492 -0.011726 -0.257820  0.220741 -0.806096 -0.097810
36  4.262987 -0.685305 0.382312  -1.363360 0.012082 0.249538
37  1.570681 0.000003 -0.035155  0.112104 -0.469206 -0.193117
38  1.621924 0.027358 -0.144541  0.088981 -0.686511 0.072219
39  12.421013 0.304724 4.492682  -0.091859 -0.075839 1.616818
40  19.917007 1.704575 4.956915  2.262593 1.451744 0.734330
41  1.977381 -0.000001 -0.000000  0.835680 0.294310 0.196032
42  3.723972 2.768054 -0.049086  0.000001 -3.141590 -1.570794
time 1
0  -0.058314 -2.444468 25.384632  0.000116 -0.103390 -1.922208
1  -1.194308 -0.755120 9.745317  -1.570984 -1.570796 0.000000
2  -0.000001 0.000010 5.615749  -0.120735 -2.820101 -0.733699
3  15.693462 -0.000004 0.000000  0.000002 -0.000001 -0.963942
4  22.146631 -0.000001 -0.000000  0.165316 -0.110271 0.002208
5  0.000015 -0.000006 -5.615750  -0.108029 2.960863 -0.043720
6  15.693467 0.000000 -0.000001  0.000001 -0.000001 -0.879278
7  22.146627 -0.000002 0.000000  0.062154 0.205852 0.701681
8  1.384166 -0.004350 0.000002  -0.389895 -0.047806 0.096418
9  5.934392 -0.004352 -0.000000  -0.019850 -0.017610 -0.061921
10  5.935326 -0.004352 0.000000  -0.022866 -0.020383 -0.008664
11  4.993894 -0.004351 -0.000000  -0.021069 0.012404 0.003751
12  4.993900 -0.001575 0.000000  0.000000 0.000000 -0.000000
13  0.000016 0.001565 3.638374  -0.020756 -1.284089 -3.122467
14  8.842831 0.000000 0.000002  -0.355825 -0.154046 -0.705325
15  9.341936 -0.000003 -0.000003  -0.000000 -0.000001 -0.903588
16  11.164139 -0.000002 -0.000007  1.884051 0.496889 -0.389449
17  1.517250 -0.028671 -1.542784  1.365962 0.325360 -0.061056
18  1.304995 -0.000027 -0.000001  -0.049778 0.162071 -0.019793
19  1.339554 0.000033 -0.000001  0.000000 -0.000000 0.083183
20  4.170094 -1.192200 -1.334473  1.541739 0.020078 0.224643
21  1.681236 0.066411 0.261726  -0.207408 0.786204 -0.210455
22  1.369126 0.140629 0.433605  -0.327953 0.642276 -0.305785
23  4.237904 -1.152055 -0.369373  1.543347 -0.005608 0.196233
24  1.691775 0.035158 0.152352  -0.172749 0.734111 -0.230040
25  1.723495 0.089863 0.128912  -0.276456 0.833598 -0.205576
26  0.000014 0.001585 -3.638376  -0.000008 1.235592 3.140788
27  8.842834 -0.000000 0.000003  0.652709 -0.395885 -1.813485
28  9.341930 0.000000 -0.000004  -0.000000 -0.000000 -1.049126
29  11.165083 0.000002 -0.000001  1.806841 0.075068 0.649593
30  1.498254 0.120087 1.545492  -2.003611 -0.286207 0.274830
31  1.304991 -0.000041 -0.000001  -0.279401 0.159838 0.074784
32  1.339556 0.000032 -0.000004  -0.057639 0.015924 0.008934
33  4.201560 -0.682688 1.351840  -1.347855 -0.006161 0.263442
34  1.571855 -0.000004 -0.062501  -0.180551 -0.496625 -0.060127
35  1.353495 -0.011724 -0.257826  0.220741 -0.806096 -0.097810
36  4.262987 -0.685304 0.382307  -1.363360 0.012082 0.249538
37  1.570680 0.000001 -0.035159  0.112104 -0.469206 -0.193117
38  1.621926 0.027364 -0.144537  0.088981 -0.686511 0.072219
39  12.421014 0.304723 4.492678  -0.091859 -0.075839 1.616818
40  19.917004 1.704576 4.956909  2.262593 1.451744 0.734330
41  1.977390 -0.000000 -0.000000  0.733976 0.265778 0.182490
42  3.723981 2.768055 -0.049085  0.000001 -3.141590 -1.567801
time 2
0  -0.060333 -2.444468 23.113562  0.001116 -0.370631 -1.684208
1  -0.818740 -2.295753 9.745318  -1.570835 -1.570796 0.000000
2  -0.000004 0.000010 5.615749  -0.004607 -2.944812 -0.707399
3  15.693464 -0.000001 0.000001  0.000002 -0.000001 -1.444003
4  22.146631 -0.000000 -0.000000  0.118910 -0.106313 0.307190
5  0.000015 -0.000006 -5.615751  -0.092528 3.016954 0.091794
6  15.693462 0.000001 -0.000001  0.000001 -0.000001 -1.236259
7  22.146629 -0.000001 -0.000003  0.033229 0.152548 0.996416
8  1.384161 -0.004351 0.000002  -0.427090 -0.144475 0.118416
9  5.934392 -0.004351 -0.000000  -0.064966 -0.055292 -0.194423
10  5.937347 -0.004348 -0.000000  -0.072185 -0.064001 -0.027203
11  4.995918 -0.004347 -0.000001  -0.066155 0.041139 0.018467
12  4.995928 -0.001574 0.000000  -0.000000 0.000000 0.000000
13  0.000006 0.001563 3.638374  -0.065043 -1.283433 -3.079961
14  8.842831 0.000000 0.000006  -0.173863 -0.316701 -0.287614
15  9.341937 0.000004 -0.000010  -0.000000 -0.000001 -1.031042
16  11.164142 -0.000001 0.000005  2.175755 0.518575 -0.087746
17  1.517250 -0.028666 -1.542787  1.365962 0.325360 -0.061056
18  1.304995 -0.000030 0.000000  -0.049779 0.162071 -0.019793
19  1.339554 0.000032 0.000005  0.000000 -0.000000 0.083183
20  4.170095 -1.192194 -1.334476  1.541739 0.020078 0.224643
21  1.681234 0.066412 0.261721  -0.207408 0.786204 -0.210455
22  1.369119 0.140633 0.433602  -0.327953 0.642276 -0.305785
23  4.237905 -1.152041 -0.369378  1.543347 -0.005608 0.196233
24  1.691777 0.035163 0.152349  -0.172750 0.734111 -0.230040
25  1.723485 0.089866 0.128914  -0.276456 0.833598 -0.205576
26  0.000008 0.001585 -3.638376  -0.000004 1.131554 3.140790
27  8.842834 0.000002 0.000011  0.047759 -0.051530 -1.043464
28  9.341928 0.000001 0.000000  0.000000 -0.000000 -1.165175
29  11.167104 0.000001 0.000008  1.806793 0.075055 0.649593
30  1.498252 0.120080 1.545501  -2.003611 -0.286207 0.274830
31  1.304991 -0.000036 -0.000003  -0.279401 0.159838 0.074784
32  1.339550 0.000034 -0.000002  -0.057639 0.015924 0.008934
33  4.201559 -0.682692 1.351846  -1.347855 -0.006161 0.263442
34  1.571856 -0.000006 -0.062502  -0.180551 -0.496625 -0.060128
35  1.353494 -0.011728 -0.257821  0.220741 -0.806096 -0.097810
36  4.262987 -0.685311 0.382319  -1.363360 0.012082 0.249538
37  1.570682 -0.000000 -0.035155  0.112104 -0.469206 -0.193117
38  1.621925 0.027364 -0.144538  0.088981 -0.686511 0.072219
39  12.421012 0.304724 4.492681  -0.091859 -0.075839 1.616818
40  19.917000 1.704574 4.956916  2.262592 1.451744 0.734331
41  1.977382 0.000000 -0.000000  0.516335 0.191143 0.147790
42  3.723980 2.768053 -0.049084  0.000001 -3.141590 -1.559174
time 3
0  -0.061277 -2.444468 20.947607  0.003547 -0.615816 -1.572987
1  -0.643229 -3.015716 9.745318  -1.570765 -1.570796 0.000000
2  -0.000005 0.000013 5.615749  0.084833 -3.050000 -0.681256
3  15.693463 0.000000 0.000001  -0.000000 -0.000000 -1.746650
4  22.146631 -0.000000 0.000000  0.065315 -0.106441 0.449793
5  0.000015 -0.000004 -5.615750  -0.054820 3.043167 0.230478
6  15.693466 0.000001 -0.000001  0.000000 0.000000 -1.511871
7  22.146629 0.000000 -0.000001  0.013984 0.111798 1.129922
8  1.384162 -0.004349 0.000002  -0.444934 -0.194297 0.130974
9  5.934385 -0.004354 0.000000  -0.092952 -0.072902 -0.256344
10  5.938293 -0.004351 0.000001  -0.096248 -0.084384 -0.035867
11  4.996856 -0.004346 0.000001  -0.087224 0.060294 0.042839
12  4.996870 -0.001574 0.000002  -0.000000 -0.000000 -0.000000
13  0.000005 0.001562 3.638375  -0.085626 -1.282831 -3.060213
14  8.842831 0.000002 0.000006  -0.015724 -0.426762 -0.073642
15  9.341938 0.000001 -0.000006  -0.000000 -0.000001 -1.140812
16  11.164139 -0.000003 -0.000003  2.388524 0.495270 0.081818
17  1.517249 -0.028669 -1.542790  1.365962 0.325360 -0.061056
18  1.304997 -0.000028 -0.000001  -0.049779 0.162071 -0.019793
19  1.339555 0.000033 0.000012  0.000000 -0.000000 0.083183
20  4.170093 -1.192199 -1.334482  1.541739 0.020078 0.224643
21  1.681242 0.066413 0.261726  -0.207408 0.786204 -0.210455
22  1.369121 0.140631 0.433605  -0.327953 0.642276 -0.305785
23  4.237905 -1.152047 -0.369379  1.543347 -0.005608 0.196233
24  1.691776 0.035159 0.152349  -0.172749 0.734111 -0.230040
25  1.723487 0.089864 0.128913  -0.276456 0.833598 -0.205576
26  0.000005 0.001581 -3.638376  -0.000006 1.082935 3.140787
27  8.842834 -0.000001 -0.000001  -0.254216 0.122829 -0.678346
28  9.341929 -0.000005 0.000001  -0.000000 0.000000 -1.219406
29  11.168045 0.000001 -0.000002  1.806771 0.075049 0.649593
30  1.498253 0.120085 1.545502  -2.003611 -0.286207 0.274830
31  1.304993 -0.000036 -0.000006  -0.279401 0.159838 0.074784
32  1.339559 0.000030 -0.000005  -0.057639 0.015924 0.008934
33  4.201561 -0.682691 1.351850  -1.347855 -0.006161 0.263442
34  1.571852 -0.000005 -0.062498  -0.180551 -0.496625 -0.060128
35  1.353499 -0.011726 -0.257824  0.220741 -0.806096 -0.097810
36  4.262987 -0.685305 0.382319  -1.363360 0.012082 0.249538
37  1.570680 0.000000 -0.035155  0.112104 -0.469206 -0.193117
38  1.621924 0.027356 -0.144536  0.088981 -0.686511 0.072219
39  12.421014 0.304724 4.492687  -0.091859 -0.075839 1.616818
40  19.917004 1.704575 4.956922  2.262592 1.451744 0.734330
41  1.977373 -0.000003 0.000000  0.414604 0.120751 0.116604
42  3.723980 2.768059 -0.049084  0.000001 -3.141590 -1.549330
time 4
0  -0.061277 -2.444468 19.378403  0.054050 -0.832319 -1.623059
1  -0.653337 -2.997682 9.745319  -1.570765 -1.570796 0.000000
2  -0.000007 0.000008 5.615750  0.126610 -3.102809 -0.654233
3  15.693463 -0.000003 0.000000  -0.000000 -0.000000 -1.843578
4  22.146631 0.000000 0.000000  0.005576 -0.113663 0.436931
5  0.000013 -0.000005 -5.615752  0.247906 3.027050 0.380998
6  15.693464 0.000002 -0.000002  0.000000 0.000001 -1.653770
7  22.146633 -0.000001 0.000001  -0.051543 0.083066 0.715769
8  1.384163 -0.004351 0.000001  -0.445506 -0.200049 0.133793
9  5.934388 -0.004352 0.000001  -0.101495 -0.066245 -0.254774
10  5.938292 -0.004348 0.000000  -0.097505 -0.082044 -0.033952
11  4.996854 -0.004355 0.000000  -0.087189 0.066063 0.069967
12  4.996867 -0.001575 -0.000001  -0.000000 -0.000000 0.000000
13  0.000004 0.001568 3.638376  -0.075871 -1.282901 -3.069574
14  8.842829 0.000002 0.000006  0.012391 -0.378843 0.038967
15  9.341938 0.000002 -0.000005  0.000000 -0.000001 -1.223736
16  11.164143 -0.000004 -0.000003  2.512003 0.434437 0.113081
17  1.517249 -0.028666 -1.542789  1.365962 0.325360 -0.061056
18  1.304990 -0.000025 -0.000006  -0.049779 0.162071 -0.019792
19  1.339551 0.000032 0.000001  0.000000 -0.000000 0.083183
20  4.170094 -1.192198 -1.334479  1.541739 0.020078 0.224643
21  1.681238 0.066411 0.261725  -0.207408 0.786204 -0.210455
22  1.369124 0.140637 0.433605  -0.327953 0.642276 -0.305785
23  4.237903 -1.152046 -0.369377  1.543347 -0.005608 0.196233
24  1.691775 0.035157 0.152348  -0.172750 0.734111 -0.230040
25  1.723491 0.089859 0.128914  -0.276456 0.833598 -0.205576
26  0.000007 0.001590 -3.638375  -0.010328 1.102636 3.131504
27  8.842832 -0.000001 0.000008  -0.224596 0.049870 -0.641390
28  9.341930 -0.000006 -0.000007  -0.000000 0.000000 -1.219406
29  11.168045 0.000001 -0.000003  1.806793 0.075049 0.649593
30  1.498254 0.120087 1.545498  -2.003611 -0.286207 0.274830
31  1.304995 -0.000034 -0.000003  -0.279401 0.159838 0.074784
32  1.339552 0.000032 0.000000  -0.057639 0.015924 0.008934
33  4.201560 -0.682690 1.351849  -1.347855 -0.006161 0.263442
34  1.571856 -0.000009 -0.062505  -0.180551 -0.496625 -0.060127
35  1.353496 -0.011723 -0.257827  0.220741 -0.806096 -0.097810
36  4.262984 -0.685304 0.382314  -1.363360 0.012082 0.249538
37  1.570679 0.000001 -0.035151  0.112104 -0.469206 -0.193117
38  1.621923 0.027359 -0.144538  0.088981 -0.686511 0.072219
39  12.421013 0.304726 4.492684  -0.091859 -0.075839 1.616818
40  19.917002 1.704575 4.956915  2.262593 1.451744 0.734330
41  1.977374 -0.000001 0.000000  0.419888 0.071634 0.097210
42  3.723976 2.768056 -0.049083  0.000001 -3.141590 -1.539503
time 5
0  -0.061277 -2.444468 17.872936  0.218232 -1.038182 -1.791773
1  -0.740301 -2.842463 9.745319  -1.570765 -1.570796 0.000000
2  -0.000005 0.000010 5.615749  0.144562 -3.137774 -0.626051
3  15.693464 0.000000 0.000000  -0.000000 -0.000000 -1.883428
4  22.146635 -0.000000 0.000000  -0.056503 -0.134716 0.378756
5  0.000013 -0.000007 -5.615751  0.830513 2.992563 0.541839
6  15.693464 -0.000001 -0.000002  0.000000 0.000000 -1.724623
7  22.146631 -0.000001 -0.000000  -0.238017 -0.068663 -0.131549
8  1.384163 -0.004351 0.000002  -0.445742 -0.202414 0.134952
9  5.934391 -0.004351 -0.000001  -0.105008 -0.041647 -0.241259
10  5.938294 -0.004354 0.000000  -0.098022 -0.074539 -0.017472
11  4.996857 -0.004351 0.000000  -0.086885 0.067491 0.106443
12  4.996870 -0.001580 0.000001  0.000000 -0.000000 -0.000000
13  0.000009 0.001565 3.638374  0.008115 -1.283460 3.133023
14  8.842827 0.000002 0.000003  -0.056066 -0.254703 0.163108
15  9.341937 -0.000003 -0.000005  0.000000 -0.000001 -1.293740
16  11.164145 -0.000000 -0.000002  2.611686 0.322703 0.121286
17  1.517252 -0.028669 -1.542786  1.365962 0.325360 -0.061056
18  1.304989 -0.000028 -0.000001  -0.049779 0.162071 -0.019793
19  1.339554 0.000032 0.000005  0.000000 -0.000000 0.083183
20  4.170096 -1.192202 -1.334472  1.541739 0.020078 0.224643
21  1.681232 0.066409 0.261724  -0.207408 0.786204 -0.210455
22  1.369120 0.140636 0.433607  -0.327953 0.642276 -0.305785
23  4.237907 -1.152050 -0.369376  1.543347 -0.005608 0.196233
24  1.691775 0.035159 0.152347  -0.172749 0.734111 -0.230040
25  1.723487 0.089858 0.128913  -0.276456 0.833598 -0.205576
26  0.000013 0.001587 -3.638377  -0.110523 1.159844 3.039040
27  8.842833 -0.000001 0.000005  -0.037757 -0.045304 -0.660667
28  9.341929 -0.000005 0.000000  -0.000000 -0.000000 -1.219406
29  11.168046 0.000001 0.000001  1.806841 0.075049 0.649593
30  1.498252 0.120085 1.545495  -2.003611 -0.286207 0.274830
31  1.304994 -0.000039 0.000004  -0.279401 0.159838 0.074784
32  1.339559 0.000031 -0.000005  -0.057639 0.015924 0.008934
33  4.201558 -0.682692 1.351843  -1.347855 -0.006161 0.263442
34  1.571858 -0.000003 -0.062499  -0.180551 -0.496625 -0.060127
35  1.353496 -0.011727 -0.257819  0.220741 -0.806096 -0.097810
36  4.262985 -0.685307 0.382314  -1.363360 0.012082 0.249538
37  1.570682 0.000002 -0.035153  0.112104 -0.469206 -0.193117
38  1.621925 0.027356 -0.144539  0.088981 -0.686511 0.072218
39  12.421010 0.304722 4.492682  -0.091859 -0.075839 1.616818
40  19.916998 1.704573 4.956913  2.262593 1.451744 0.734330
41  1.977385 0.000005 0.000001  0.431238 0.025502 0.080769
42  3.723978 2.768052 -0.049083  0.000001 -3.141590 -1.528239
time 6
0  -0.061277 -2.444468 16.029488  0.452346 -1.112889 -2.031622
1  -0.951834 -2.464918 9.745319  -1.570765 -1.570796 0.000000
2  -0.000005 0.000008 5.615749  0.156643 3.079037 -0.615357
3  15.693463 -0.000000 0.000001  0.000000 -0.000000 -1.888058
4  22.146633 -0.000001 -0.000000  -0.084847 -0.159586 0.271558
5  0.000014 -0.000005 -5.615751  1.097332 2.976447 0.603537
6  15.693464 0.000002 -0.000001  0.000000 0.000000 -1.738294
7  22.146629 -0.000001 0.000000  -0.304150 -0.193037 -0.501963
8  1.384164 -0.004352 0.000002  -0.445769 -0.202689 0.135087
9  5.934390 -0.004352 -0.000000  -0.105416 -0.003080 -0.208387
10  5.938293 -0.004353 -0.000001  -0.098082 -0.064501 0.022612
11  4.996857 -0.004352 0.000001  -0.086145 0.070637 0.161850
12  4.996868 -0.001576 -0.000002  -0.000000 0.000000 -0.000000
13  0.000014 0.001565 3.638376  0.209760 -1.277416 2.939657
14  8.842827 0.000000 -0.000001  -0.103336 -0.089837 0.243979
15  9.341938 0.000002 0.000002  0.000000 -0.000001 -1.317482
16  11.164143 -0.000004 -0.000003  2.637446 0.210404 0.118957
17  1.517249 -0.028671 -1.542782  1.365962 0.325360 -0.061056
18  1.304996 -0.000031 0.000000  -0.049778 0.162071 -0.019792
19  1.339553 0.000031 0.000003  0.000000 -0.000000 0.083183
20  4.170096 -1.192201 -1.334471  1.541739 0.020078 0.224643
21  1.681236 0.066409 0.261722  -0.207408 0.786204 -0.210455
22  1.369118 0.140629 0.433606  -0.327953 0.642276 -0.305785
23  4.237903 -1.152049 -0.369371  1.543347 -0.005608 0.196233
24  1.691778 0.035159 0.152346  -0.172749 0.734111 -0.230040
25  1.723487 0.089861 0.128912  -0.276456 0.833598 -0.205576
26  0.000014 0.001587 -3.638375  -0.398970 1.210285 2.765034
27  8.842834 0.000002 0.000003  0.159251 -0.084878 -0.678346
28  9.341930 -0.000002 0.000000  -0.000000 0.000000 -1.219406
29  11.168047 0.000003 0.000001  1.806863 0.075049 0.649593
30  1.498255 0.120085 1.545496  -2.003611 -0.286207 0.274830
31  1.304990 -0.000035 -0.000003  -0.279401 0.159838 0.074784
32  1.339556 0.000035 0.000001  -0.057639 0.015924 0.008934
33  4.201562 -0.682690 1.351846  -1.347855 -0.006161 0.263442
34  1.571854 -0.000006 -0.062500  -0.180551 -0.496625 -0.060128
35  1.353496 -0.011726 -0.257824  0.220741 -0.806096 -0.097810
36  4.262988 -0.685305 0.382316  -1.363360 0.012082 0.249538
37  1.570678 -0.000001 -0.035157  0.112104 -0.469206 -0.193117
38  1.621925 0.027356 -0.144537  0.088981 -0.686511 0.072219
39  12.421013 0.304724 4.492678  -0.091859 -0.075839 1.616818
40  19.917007 1.704574 4.956912  2.262593 1.451744 0.734330
41  1.977387 -0.000000 0.000001  0.436517 -0.034227 0.057519
42  3.723975 2.768054 -0.049084  0.000001 -3.141590 -1.517031
time 7
0  -0.061277 -2.444468 13.157103  0.822867 -1.069732 -2.409688
1  -1.478523 -1.608949 9.745319  -1.570765 -1.570796 0.000000
2  -0.000005 0.000011 5.615749  0.167228 2.963008 -0.653349
3  15.693462 0.000000 -0.000000  0.000001 -0.000000 -1.784123
4  22.146631 0.000000 0.000001  -0.095515 -0.189231 0.072073
5  0.000013 -0.000005 -5.615750  1.051474 3.006433 0.427751
6  15.693463 0.000000 -0.000002  0.000000 0.000000 -1.738294
7  22.146629 -0.000001 -0.000000  -0.209501 -0.165447 -0.445749
8  1.384163 -0.004349 0.000002  -0.444383 -0.186441 0.127265
9  5.934388 -0.004352 0.000001  -0.102457 0.062250 -0.099636
10  5.938291 -0.004352 -0.000000  -0.096449 -0.057939 0.117162
11  4.997796 -0.004352 0.000004  -0.084045 0.078771 0.259069
12  4.996869 -0.001577 0.000001  0.000000 -0.000000 0.000000
13  0.000007 0.001564 3.638376  0.530252 -1.239451 2.634172
14  8.842827 0.000000 0.000005  -0.179027 0.188887 0.137554
15  9.341936 0.000003 -0.000004  0.000000 -0.000001 -1.311562
16  11.165085 -0.000000 0.000002  2.587911 0.086079 -0.010107
17  1.517248 -0.028672 -1.542784  1.365962 0.325360 -0.061056
18  1.304993 -0.000033 -0.000000  -0.049778 0.162071 -0.019793
19  1.339556 0.000032 0.000005  0.000000 -0.000000 0.083183
20  4.170094 -1.192201 -1.334479  1.541739 0.020078 0.224643
21  1.681235 0.066413 0.261723  -0.207411 0.786204 -0.210455
22  1.369121 0.140630 0.433606  -0.327953 0.642276 -0.305785
23  4.237905 -1.152050 -0.369378  1.543347 -0.005608 0.196233
24  1.691774 0.035161 0.152349  -0.172749 0.734111 -0.230040
25  1.723489 0.089867 0.128914  -0.276456 0.833598 -0.205576
26  0.000010 0.001584 -3.638375  -0.971831 1.184904 2.203370
27  8.842835 0.000001 0.000005  0.426999 0.085910 -0.833030
28  9.341930 -0.000002 0.000001  -0.000000 0.000000 -1.219406
29  11.168046 0.000000 0.000001  1.806863 0.075049 0.649593
30  1.498254 0.120085 1.545497  -2.003611 -0.286207 0.274830
31  1.304988 -0.000035 -0.000003  -0.279401 0.159838 0.074784
32  1.339556 0.000033 -0.000000  -0.057639 0.015924 0.008934
33  4.201561 -0.682689 1.351847  -1.347855 -0.006161 0.263442
34  1.571858 -0.000006 -0.062498  -0.180551 -0.496625 -0.060128
35  1.353497 -0.011729 -0.257822  0.220741 -0.806096 -0.097810
36  4.262991 -0.685306 0.382318  -1.363360 0.012082 0.249538
37  1.570683 0.000000 -0.035156  0.112104 -0.469206 -0.193117
38  1.621925 0.027365 -0.144545  0.088981 -0.686511 0.072219
39  12.421015 0.304722 4.492682  -0.091859 -0.075839 1.616818
40  19.917004 1.704572 4.956914  2.262593 1.451744 0.734330
41  1.977381 -0.000001 0.000001  0.389949 -0.131957 0.016412
42  3.723979 2.768054 -0.049083  0.000001 -3.141591 -1.506265
time 8
0  -0.061277 -2.444468 9.872242  -1.863398 -2.164212 0.267425
1  -2.239888 -0.237656 9.745318  -1.570765 -1.570796 0.000000
2  -0.000005 0.000010 5.615750  0.170923 2.815284 -0.734648
3  15.693462 -0.000001 -0.000000  0.000001 -0.000000 -1.561715
4  22.146631 -0.000003 0.000001  -0.101612 -0.227442 -0.183011
5  0.000014 -0.000006 -5.615750  0.953344 3.070600 0.051589
6  15.693462 -0.000001 -0.000001  0.000000 0.000000 -1.738294
7  22.146631 -0.000000 -0.000000  -0.045228 -0.108766 -0.323546
8  1.384164 -0.004349 0.000002  -0.441006 -0.143494 0.106655
9  5.934390 -0.004351 -0.000000  -0.096127 0.144119 0.076250
10  5.938293 -0.004351 0.000000  -0.092956 -0.049289 0.250192
11  4.999818 -0.004352 0.000001  -0.080830 0.088683 0.378327
12  4.996867 -0.001573 0.000001  -0.000000 -0.000000 0.000000
13  0.000011 0.001563 3.638376  0.844069 -1.149422 2.341738
14  8.842830 0.000001 0.000004  -0.392263 0.465356 -0.347880
15  9.341937 0.000002 -0.000005  0.000000 -0.000001 -1.298892
16  11.167106 -0.000001 0.000003  2.550804 -0.044045 -0.280638
17  1.517249 -0.028671 -1.542786  1.365962 0.325360 -0.061056
18  1.304994 -0.000030 -0.000004  -0.049778 0.162071 -0.019793
19  1.339554 0.000034 0.000002  0.000000 -0.000000 0.083183
20  4.170094 -1.192200 -1.334477  1.541739 0.020078 0.224643
21  1.681238 0.066408 0.261722  -0.207418 0.786204 -0.210455
22  1.369122 0.140629 0.433606  -0.327953 0.642276 -0.305785
23  4.237904 -1.152050 -0.369377  1.543347 -0.005608 0.196233
24  1.691775 0.035161 0.152347  -0.172749 0.734111 -0.230040
25  1.723488 0.089863 0.128914  -0.276456 0.833598 -0.205576
26  0.000013 0.001585 -3.638374  -1.445920 1.000318 1.714604
27  8.842834 0.000002 0.000002  0.833100 0.518006 -1.034908
28  9.341928 -0.000002 0.000002  0.000000 -0.000000 -1.219406
29  11.168049 0.000003 0.000001  1.806863 0.075049 0.649593
30  1.498254 0.120087 1.545497  -2.003611 -0.286207 0.274830
31  1.304990 -0.000036 -0.000002  -0.279401 0.159838 0.074784
32  1.339559 0.000035 -0.000001  -0.057639 0.015924 0.008934
33  4.201559 -0.682690 1.351850  -1.347855 -0.006161 0.263442
34  1.571856 -0.000008 -0.062500  -0.180551 -0.496625 -0.060128
35  1.353495 -0.011728 -0.257823  0.220741 -0.806096 -0.097810
36  4.262988 -0.685306 0.382320  -1.363360 0.012082 0.249538
37  1.570680 -0.000001 -0.035156  0.112104 -0.469206 -0.193117
38  1.621925 0.027363 -0.144539  0.088981 -0.686511 0.072219
39  12.421015 0.304723 4.492684  -0.091859 -0.075839 1.616818
40  19.917006 1.704576 4.956917  2.262593 1.451744 0.734330
41  1.977384 -0.000001 0.000002  0.272097 -0.245828 -0.032509
42  3.723978 2.768052 -0.049083  0.000001 -3.141590 -1.495499
time 9
0  -0.061277 -2.444468 8.576136  -1.678802 -2.207370 0.079136
1  -2.565166 0.851589 9.745319  -1.570765 -1.570796 0.000000
2  -0.000006 0.000010 5.615750  0.177120 2.692773 -0.772640
3  15.693462 -0.000001 0.000001  0.000000 -0.000000 -1.457780
4  22.146631 0.000000 0.000000  -0.088044 -0.255551 -0.287434
5  0.000013 -0.000006 -5.615750  0.907486 3.100586 -0.124198
6  15.693465 0.000000 -0.000002  0.000000 0.000000 -1.738294
7  22.146629 -0.000001 -0.000000  0.028652 -0.083452 -0.265511
8  1.384163 -0.004350 0.000002  -0.438354 -0.102036 0.086901
9  5.934390 -0.004352 0.000000  -0.093168 0.177540 0.153699
10  5.938290 -0.004352 0.000000  -0.091323 -0.023969 0.306573
11  5.000763 -0.004352 0.000000  -0.079434 0.092689 0.426644
12  4.996867 -0.001575 0.000000  0.000000 -0.000000 -0.000000
13  0.000012 0.001565 3.638375  1.010493 -1.063430 2.192592
14  8.842830 -0.000001 0.000004  -0.533802 0.445409 -0.778042
15  9.341938 0.000002 -0.000005  0.000000 -0.000001 -1.292972
16  11.168050 -0.000001 0.000002  2.552544 -0.088167 -0.408334
17  1.517249 -0.028671 -1.542783  1.365962 0.325360 -0.061056
18  1.304994 -0.000029 0.000004  -0.049778 0.162071 -0.019792
19  1.339554 0.000032 0.000003  0.000000 -0.000000 0.083183
20  4.170093 -1.192199 -1.334476  1.541739 0.020078 0.224643
21  1.681239 0.066409 0.261722  -0.207420 0.786204 -0.210455
22  1.369121 0.140629 0.433604  -0.327953 0.642276 -0.305785
23  4.237905 -1.152049 -0.369374  1.543347 -0.005608 0.196233
24  1.691774 0.035158 0.152347  -0.172750 0.734111 -0.230040
25  1.723487 0.089863 0.128915  -0.276456 0.833598 -0.205576
26  0.000012 0.001588 -3.638377  -1.573950 0.816199 1.565671
27  8.842834 -0.000001 0.000005  1.277230 0.776767 -0.911998
28  9.341930 -0.000002 0.000001  0.000000 -0.000000 -1.219406
29  11.168045 0.000003 0.000001  1.806863 0.075049 0.649593
30  1.498251 0.120088 1.545499  -2.003611 -0.286207 0.274830
31  1.304991 -0.000034 -0.000003  -0.279401 0.159838 0.074784
32  1.339562 0.000027 -0.000001  -0.057639 0.015924 0.008934
33  4.201557 -0.682687 1.351851  -1.347855 -0.006161 0.263442
34  1.571856 -0.000004 -0.062504  -0.180551 -0.496625 -0.060128
35  1.353494 -0.011726 -0.257819  0.220741 -0.806096 -0.097810
36  4.262987 -0.685304 0.382318  -1.363360 0.012082 0.249538
37  1.570682 -0.000001 -0.035155  0.112104 -0.469206 -0.193118
38  1.621926 0.027361 -0.144540  0.088981 -0.686511 0.072219
39  12.421008 0.304727 4.492686  -0.091859 -0.075839 1.616818
40  19.917002 1.704575 4.956913  2.262593 1.451744 0.734330
41  1.977383 0.000001 -0.000000  0.169271 -0.291087 -0.052108
42  3.723979 2.768053 -0.049084  0.000001 -3.141590 -1.484733
time 10
0  -0.061277 -2.444468 9.464060  -1.689941 -2.201047 0.090623
1  -2.314182 1.577445 9.745320  -1.570765 -1.570796 0.000000
2  -0.000006 0.000010 5.615751  0.191158 2.592013 -0.751620
3  15.693463 0.000000 0.000002  0.000000 -0.000000 -1.464739
4  22.146633 -0.000000 -0.000000  -0.061660 -0.269850 -0.258066
5  0.000014 -0.000005 -5.615749  0.913036 3.072354 -0.080134
6  15.693465 0.000000 -0.000002  0.000000 0.000000 -1.738294
7  22.146629 -0.000000 0.000001  -0.026709 -0.104654 -0.310671
8  1.384162 -0.004350 0.000003  -0.436884 -0.061409 0.067804
9  5.934390 -0.004351 0.000000  -0.093880 0.174590 0.147648
10  5.938293 -0.004351 0.000001  -0.092333 0.066616 0.294955
11  5.000761 -0.004352 -0.000001  -0.079587 0.092336 0.422225
12  4.996868 -0.001575 -0.000001  -0.000000 0.000000 -0.000000
13  0.000009 0.001567 3.638374  1.094452 -1.001284 2.120248
14  8.842829 -0.000001 0.000004  -0.536297 0.260424 -0.904842
15  9.341934 -0.000000 -0.000003  0.000000 -0.000001 -1.292972
16  11.168050 0.000001 0.000004  2.551948 -0.083189 -0.400736
17  1.517250 -0.028670 -1.542784  1.365962 0.325360 -0.061056
18  1.304993 -0.000030 -0.000002  -0.049779 0.162071 -0.019793
19  1.339554 0.000031 0.000005  0.000000 -0.000000 0.083183
20  4.170095 -1.192199 -1.334476  1.541739 0.020078 0.224643
21  1.681237 0.066410 0.261722  -0.207420 0.786204 -0.210455
22  1.369123 0.140628 0.433606  -0.327953 0.642276 -0.305785
23  4.237904 -1.152050 -0.369374  1.543347 -0.005608 0.196233
24  1.691775 0.035160 0.152349  -0.172750 0.734111 -0.230040
25  1.723486 0.089864 0.128913  -0.276456 0.833598 -0.205576
26  0.000011 0.001587 -3.638377  -1.584115 0.691213 1.552889
27  8.842834 0.000001 0.000003  1.570844 0.742047 -0.455451
28  9.341930 -0.000001 0.000000  -0.000000 0.000000 -1.219406
29  11.167101 -0.000002 0.000003  1.815269 0.120141 0.493925
30  1.498252 0.120085 1.545500  -2.003611 -0.286207 0.274830
31  1.304994 -0.000034 -0.000003  -0.279401 0.159838 0.074784
32  1.339558 0.000034 -0.000003  -0.057639 0.015924 0.008934
33  4.201560 -0.682690 1.351849  -1.347855 -0.006161 0.263442
34  1.571858 -0.000006 -0.062501  -0.180551 -0.496625 -0.060128
35  1.353494 -0.011728 -0.257821  0.220741 -0.806096 -0.097810
36  4.262987 -0.685306 0.382322  -1.363360 0.012082 0.249538
37  1.570681 -0.000001 -0.035157  0.112104 -0.469206 -0.193117
38  1.621925 0.027358 -0.144540  0.088981 -0.686511 0.072219
39  12.421011 0.304724 4.492687  -0.091859 -0.075839 1.616818
40  19.917002 1.704574 4.956921  2.262593 1.451744 0.734330
41  1.977380 0.000002 -0.000001  0.088784 -0.276182 -0.051530
42  3.723976 2.768052 -0.049085  0.000001 -3.141590 -1.473526
time 11
0  -0.061277 -2.444468 11.364105  -1.713779 -2.187518 0.115204
1  -1.777075 2.054498 9.745320  -1.570765 -1.570796 0.000000
2  -0.000006 0.000011 5.615747  0.207818 2.513173 -0.706643
3  15.693463 -0.000001 0.000002  0.000000 -0.000000 -1.479631
4  22.146631 -0.000001 0.000001  -0.023538 -0.274739 -0.195936
5  0.000014 -0.000006 -5.615751  0.924915 3.011943 0.014157
6  15.693465 0.000000 -0.000002  0.000000 0.000000 -1.738294
7  22.146627 -0.000001 -0.000001  -0.144898 -0.151653 -0.406732
8  1.384163 -0.004350 0.000001  -0.436038 -0.020241 0.048601
9  5.934389 -0.004351 -0.000000  -0.095404 0.168277 0.134701
10  5.938294 -0.004352 0.000000  -0.094495 0.212427 0.270094
11  5.000761 -0.004352 -0.000001  -0.079916 0.091580 0.412769
12  4.996867 -0.001574 0.000001  0.000000 -0.000000 -0.000000
13  0.000008 0.001563 3.638374  1.135746 -0.960966 2.086162
14  8.842828 0.000001 0.000005  -0.506399 0.029970 -0.873467
15  9.341940 0.000002 -0.000003  0.000000 -0.000001 -1.292972
16  11.168051 0.000000 0.000000  2.550935 -0.072410 -0.384534
17  1.517249 -0.028671 -1.542784  1.365962 0.325360 -0.061056
18  1.304994 -0.000029 0.000002  -0.049778 0.162071 -0.019793
19  1.339553 0.000029 0.000004  0.000000 -0.000000 0.083183
20  4.170096 -1.192201 -1.334474  1.541739 0.020078 0.224643
21  1.681238 0.066408 0.261725  -0.207420 0.786204 -0.210455
22  1.369123 0.140628 0.433606  -0.327953 0.642276 -0.305785
23  4.237905 -1.152050 -0.369373  1.543347 -0.005608 0.196233
24  1.691774 0.035159 0.152349  -0.172750 0.734111 -0.230040
25  1.723488 0.089860 0.128913  -0.276456 0.833598 -0.205576
26  0.000009 0.001585 -3.638377  -1.568692 0.614171 1.575945
27  8.842833 0.000000 0.000001  1.493757 0.832111 0.011550
28  9.341929 -0.000003 -0.000001  0.000000 0.000000 -1.219406
29  11.165082 0.000000 0.000001  1.786576 0.223984 0.152322
30  1.498259 0.120085 1.545501  -2.003611 -0.286207 0.274830
31  1.304986 -0.000036 -0.000002  -0.279401 0.159838 0.074784
32  1.339553 0.000033 0.000001  -0.057639 0.015924 0.008934
33  4.201563 -0.682690 1.351848  -1.347855 -0.006161 0.263442
34  1.571854 -0.000010 -0.062501  -0.180551 -0.496625 -0.060127
35  1.353492 -0.011724 -0.257822  0.220741 -0.806096 -0.097810
36  4.262992 -0.685305 0.382317  -1.363360 0.012082 0.249538
37  1.570680 -0.000001 -0.035156  0.112104 -0.469206 -0.193117
38  1.621931 0.027361 -0.144542  0.088981 -0.686511 0.072219
39  12.421019 0.304724 4.492686  -0.091859 -0.075839 1.616818
40  19.917006 1.704574 4.956921  2.262592 1.451744 0.734330
41  1.977379 0.000001 -0.000001  0.018753 -0.211782 -0.046551
42  3.723978 2.768057 -0.049084  0.000001 -3.141590 -1.462264
time 12
0  -0.061277 -2.444468 12.252029  -1.724919 -2.181195 0.126692
1  -1.526070 2.187568 9.745319  -1.570765 -1.570796 0.000000
2  -0.000006 0.000009 5.615749  0.214487 2.487751 -0.685625
3  15.693462 -0.000001 0.000003  0.000000 -0.000000 -1.486590
4  22.146631 0.000001 -0.000000  0.029044 -0.274942 -0.166964
5  0.000014 -0.000006 -5.615749  0.930466 2.983712 0.058220
6  15.693466 0.000000 -0.000002  0.000000 0.000000 -1.738294
7  22.146627 0.000000 -0.000001  -0.200336 -0.174573 -0.452982
8  1.384163 -0.004350 0.000003  -0.435834 -0.004825 0.041436
9  5.934391 -0.004351 -0.000000  -0.096116 0.165327 0.128650
10  5.938293 -0.004352 0.000000  -0.095505 0.276556 0.258476
11  5.000763 -0.004352 -0.000001  -0.080069 0.091227 0.408350
12  4.996869 -0.001572 0.000002  -0.000000 0.000000 0.000000
13  0.000012 0.001564 3.638376  1.144811 -0.950080 2.078979
14  8.842829 0.000003 0.000004  -0.461039 -0.062015 -0.834750
15  9.341939 0.000001 -0.000002  0.000000 -0.000001 -1.292972
16  11.168049 0.000000 0.000002  2.550585 -0.067316 -0.376988
17  1.517250 -0.028667 -1.542789  1.365962 0.325360 -0.061056
18  1.304993 -0.000027 0.000000  -0.049778 0.162071 -0.019793
19  1.339552 0.000031 0.000004  0.000000 -0.000000 0.083183
20  4.170094 -1.192198 -1.334479  1.541739 0.020078 0.224643
21  1.681236 0.066414 0.261724  -0.207420 0.786204 -0.210455
22  1.369120 0.140631 0.433608  -0.327953 0.642276 -0.305785
23  4.237904 -1.152048 -0.369379  1.543347 -0.005608 0.196233
24  1.691772 0.035158 0.152349  -0.172749 0.734111 -0.230040
25  1.723487 0.089865 0.128913  -0.276456 0.833598 -0.205576
26  0.000013 0.001584 -3.638375  -1.559348 0.593841 1.590378
27  8.842836 0.000000 0.000006  1.345661 0.958498 0.097006
28  9.341929 -0.000000 0.000000  0.000000 -0.000000 -1.219406
29  11.164140 0.000002 0.000002  1.746754 0.268645 -0.024363
30  1.498248 0.120085 1.545497  -2.003611 -0.286207 0.274830
31  1.304991 -0.000032 -0.000002  -0.279401 0.159838 0.074784
32  1.339554 0.000031 0.000000  -0.057639 0.015924 0.008934
33  4.201553 -0.682692 1.351847  -1.347855 -0.006161 0.263442
34  1.571855 -0.000010 -0.062502  -0.180551 -0.496625 -0.060127
35  1.353496 -0.011727 -0.257822  0.220741 -0.806096 -0.097810
36  4.262981 -0.685307 0.382318  -1.363360 0.012082 0.249538
37  1.570675 -0.000001 -0.035156  0.112104 -0.469206 -0.193117
38  1.621923 0.027358 -0.144536  0.088981 -0.686511 0.072219
39  12.421005 0.304722 4.492682  -0.091859 -0.075839 1.616818
40  19.917000 1.704573 4.956916  2.262592 1.451744 0.734330
41  1.977383 -0.000001 0.000002  -0.005424 -0.096681 -0.034432
42  3.723977 2.768054 -0.049085  0.000001 -3.141590 -1.452435
time 13
0  -0.061277 -2.444468 11.228228  -1.724919 -2.181195 0.126692
1  -1.639302 2.058295 9.745319  -1.570765 -1.570796 0.000000
2  -0.000005 0.000010 5.615748  0.207877 2.541447 -0.698355
3  15.693464 0.000000 0.000002  -0.000000 -0.000000 -1.486590
4  22.146635 0.000001 -0.000001  0.115425 -0.268706 -0.181593
5  0.000014 -0.000006 -5.615751  0.927001 3.007890 0.026121
6  15.693465 0.000000 -0.000002  0.000000 0.000000 -1.738294
7  22.146627 -0.000001 -0.000001  -0.167943 -0.151195 -0.458683
8  1.384163 -0.004349 0.000002  -0.435834 -0.004825 0.041436
9  5.934390 -0.004351 0.000000  -0.096116 0.165327 0.128650
10  5.938292 -0.004352 -0.000002  -0.094686 0.207342 0.265024
11  5.000762 -0.004353 -0.000001  -0.080069 0.091227 0.408350
12  4.996868 -0.001575 0.000001  0.000000 0.000000 0.000000
13  0.000010 0.001562 3.638376  1.144811 -0.950080 2.078979
14  8.842831 0.000002 0.000007  -0.379156 0.086710 -0.909431
15  9.341938 0.000003 -0.000005  0.000000 -0.000001 -1.225307
16  11.167105 0.000001 0.000004  2.550585 -0.067316 -0.376988
17  1.517249 -0.028668 -1.542787  1.365962 0.325360 -0.061056
18  1.304996 -0.000029 -0.000000  -0.049779 0.162071 -0.019793
19  1.339553 0.000031 0.000005  0.000000 -0.000000 0.083183
20  4.170094 -1.192199 -1.334476  1.541739 0.020078 0.224643
21  1.681237 0.066410 0.261722  -0.207417 0.786204 -0.210455
22  1.369123 0.140629 0.433608  -0.327953 0.642276 -0.305785
23  4.237902 -1.152048 -0.369375  1.543347 -0.005608 0.196233
24  1.691777 0.035157 0.152348  -0.172750 0.734111 -0.230040
25  1.723488 0.089862 0.128912  -0.276456 0.833598 -0.205576
26  0.000011 0.001583 -3.638376  -1.559381 0.593841 1.590378
27  8.842834 0.000002 0.000006  1.534908 0.889709 0.103595
28  9.341928 -0.000001 -0.000001  -0.000000 0.000000 -1.216381
29  11.164137 0.000004 0.000004  1.742749 0.239494 -0.039901
30  1.498254 0.120086 1.545496  -2.003611 -0.286207 0.274830
31  1.304993 -0.000036 -0.000003  -0.279401 0.159838 0.074784
32  1.339560 0.000035 -0.000001  -0.057639 0.015924 0.008934
33  4.201562 -0.682690 1.351846  -1.347855 -0.006161 0.263442
34  1.571857 -0.000006 -0.062502  -0.180551 -0.496625 -0.060127
35  1.353494 -0.011725 -0.257823  0.220741 -0.806096 -0.097810
36  4.262988 -0.685306 0.382318  -1.363360 0.012082 0.249538
37  1.570682 -0.000001 -0.035157  0.112104 -0.469206 -0.193117
38  1.621924 0.027359 -0.144540  0.088981 -0.686511 0.072219
39  12.421013 0.304723 4.492683  -0.091859 -0.075839 1.616818
40  19.917009 1.704575 4.956915  2.262592 1.451744 0.734330
41  1.977380 -0.000002 0.000000  0.024022 0.114455 -0.008791
42  3.723977 2.768054 -0.049088  0.000001 -3.141590 -1.442588
time 14
0  -0.061277 -2.444468 9.037420  -1.724919 -2.181195 0.126692
1  -1.881604 1.781668 9.745319  -1.570765 -1.570796 0.000000
2  -0.000005 0.000010 5.615750  0.193732 2.656351 -0.725595
3  15.693462 -0.000000 0.000001  -0.000000 -0.000000 -1.486590
4  22.146633 0.000001 0.000001  0.220102 -0.255406 -0.212941
5  0.000014 -0.000006 -5.615749  0.919586 3.059629 -0.042567
6  15.693464 0.000000 -0.000001  0.000000 0.000000 -1.738294
7  22.146631 -0.000001 -0.000001  -0.097964 -0.100603 -0.466607
8  1.384163 -0.004350 0.000003  -0.435834 -0.004825 0.041436
9  5.934389 -0.004351 -0.000003  -0.096116 0.165327 0.128650
10  5.938293 -0.004353 -0.000001  -0.092933 0.059231 0.279037
11  5.000760 -0.004351 0.000001  -0.080069 0.091227 0.408350
12  4.996867 -0.001575 0.000001  -0.000000 -0.000000 0.000000
13  0.000009 0.001565 3.638375  1.144811 -0.950080 2.078979
14  8.842828 0.000002 0.000006  -0.339562 0.406840 -1.072600
15  9.341936 -0.000001 -0.000007  -0.000000 -0.000001 -1.080511
16  11.165086 -0.000003 -0.000002  2.550585 -0.067316 -0.376988
17  1.517248 -0.028669 -1.542785  1.365962 0.325360 -0.061056
18  1.304994 -0.000031 -0.000000  -0.049778 0.162071 -0.019792
19  1.339555 0.000031 0.000003  0.000000 -0.000000 0.083183
20  4.170094 -1.192200 -1.334476  1.541739 0.020078 0.224643
21  1.681237 0.066410 0.261723  -0.207411 0.786204 -0.210455
22  1.369122 0.140629 0.433604  -0.327953 0.642276 -0.305785
23  4.237904 -1.152049 -0.369376  1.543347 -0.005608 0.196233
24  1.691775 0.035161 0.152348  -0.172750 0.734111 -0.230040
25  1.723489 0.089864 0.128913  -0.276456 0.833598 -0.205576
26  0.000009 0.001588 -3.638376  -1.559395 0.593841 1.590378
27  8.842834 0.000001 0.000001  1.834914 0.823131 -0.028352
28  9.341930 0.000002 0.000000  -0.000000 0.000000 -1.209909
29  11.164142 0.000004 0.000002  1.742006 0.177375 -0.045705
30  1.498250 0.120085 1.545498  -2.003611 -0.286207 0.274830
31  1.304992 -0.000034 -0.000003  -0.279401 0.159838 0.074784
32  1.339555 0.000031 -0.000003  -0.057639 0.015924 0.008934
33  4.201560 -0.682691 1.351848  -1.347855 -0.006161 0.263442
34  1.571855 -0.000004 -0.062502  -0.180551 -0.496625 -0.060127
35  1.353497 -0.011723 -0.257824  0.220741 -0.806096 -0.097810
36  4.262982 -0.685306 0.382317  -1.363360 0.012082 0.249538
37  1.570679 0.000002 -0.035156  0.112104 -0.469206 -0.193117
38  1.621930 0.027358 -0.144541  0.088981 -0.686511 0.072219
39  12.421010 0.304723 4.492684  -0.091859 -0.075839 1.616818
40  19.917002 1.704575 4.956917  2.262592 1.451744 0.734330
41  1.977380 0.000002 -0.000000  0.087001 0.384356 0.025140
42  3.723976 2.768054 -0.049083  0.000001 -3.141590 -1.433954
time 15
0  -0.061277 -2.444468 8.013618  -1.724919 -2.181195 0.126692
1  -1.994836 1.652395 9.745319  -1.570765 -1.570796 0.000000
2  -0.000005 0.000010 5.615749  0.187122 2.710048 -0.738325
3  15.693464 -0.000001 0.000000  -0.000000 -0.000000 -1.486590
4  22.146633 -0.000001 0.000001  0.262333 -0.249211 -0.227610
5  0.000014 -0.000006 -5.615749  0.916122 3.083808 -0.074666
6  15.693465 0.000000 -0.000001  -0.000000 0.000000 -1.738294
7  22.146629 -0.000001 -0.000000  -0.065307 -0.076912 -0.469932
8  1.384164 -0.004350 0.000003  -0.435834 -0.004825 0.041436
9  5.934390 -0.004351 -0.000001  -0.096116 0.165327 0.128650
10  5.938290 -0.004352 -0.000001  -0.092114 -0.009983 0.285585
11  5.000761 -0.004352 0.000000  -0.080069 0.091227 0.408350
12  4.996869 -0.001575 0.000000  -0.000000 -0.000000 -0.000000
13  0.000012 0.001566 3.638375  1.144811 -0.950080 2.078979
14  8.842830 -0.000002 0.000004  -0.357702 0.553597 -1.162119
15  9.341935 0.000002 -0.000007  -0.000000 -0.000001 -1.012846
16  11.164141 -0.000002 0.000000  2.550585 -0.067316 -0.376988
17  1.517249 -0.028669 -1.542785  1.365962 0.325360 -0.061056
18  1.304994 -0.000031 -0.000001  -0.049778 0.162071 -0.019792
19  1.339552 0.000032 0.000004  0.000000 -0.000000 0.083183
20  4.170094 -1.192198 -1.334475  1.541739 0.020078 0.224643
21  1.681239 0.066409 0.261721  -0.207408 0.786204 -0.210455
22  1.369121 0.140631 0.433605  -0.327953 0.642276 -0.305785
23  4.237904 -1.152048 -0.369375  1.543347 -0.005608 0.196233
24  1.691775 0.035160 0.152347  -0.172750 0.734111 -0.230040
25  1.723487 0.089862 0.128913  -0.276456 0.833598 -0.205576
26  0.000013 0.001584 -3.638377  -1.559397 0.593841 1.590378
27  8.842835 0.000001 0.000004  1.966155 0.846472 -0.102589
28  9.341929 0.000001 -0.000000  -0.000000 0.000000 -1.206884
29  11.164142 0.000003 0.000002  1.742243 0.148372 -0.046194
30  1.498261 0.120087 1.545496  -2.003611 -0.286207 0.274830
31  1.304993 -0.000034 -0.000002  -0.279401 0.159838 0.074784
32  1.339566 0.000031 -0.000003  -0.057639 0.015924 0.008934
33  4.201565 -0.682690 1.351842  -1.347855 -0.006161 0.263442
34  1.571857 -0.000007 -0.062501  -0.180551 -0.496625 -0.060127
35  1.353495 -0.011726 -0.257821  0.220741 -0.806096 -0.097810
36  4.262991 -0.685305 0.382315  -1.363360 0.012082 0.249538
37  1.570682 -0.000003 -0.035156  0.112104 -0.469206 -0.193117
38  1.621923 0.027360 -0.144541  0.088981 -0.686511 0.072219
39  12.421021 0.304725 4.492682  -0.091859 -0.075839 1.616818
40  19.917009 1.704575 4.956912  2.262593 1.451744 0.734330
41  1.977384 -0.000000 -0.000000  0.116434 0.495295 0.039255
42  3.723975 2.768058 -0.049085  0.000001 -3.141590 -1.430958
time 16
0  -0.061277 -2.444468 8.013618  -1.724919 -2.181195 0.126692
1  -1.994836 1.652395 9.745319  -1.570765 -1.570796 0.000000
2  -0.000005 0.000010 5.615749  0.187122 2.710048 -0.738325
3  15.693464 -0.000001 0.000000  -0.000000 -0.000000 -1.486590
4  22.146633 -0.000001 0.000001  0.262333 -0.249211 -0.227610
5  0.000014 -0.000006 -5.615749  0.916122 3.083808 -0.074666
6  15.693465 0.000000 -0.000001  -0.000000 0.000000 -1.738294
7  22.146629 -0.000001 -0.000000  -0.065307 -0.076912 -0.469932
8  1.384164 -0.004350 0.000003  -0.435834 -0.004825 0.041436
9  5.934390 -0.004351 -0.000001  -0.096116 0.165327 0.128650
10  5.938290 -0.004352 -0.000001  -0.092114 -0.009983 0.285585
11  5.000761 -0.004352 0.000000  -0.080069 0.091227 0.408350
12  4.996869 -0.001575 0.000000  -0.000000 -0.000000 -0.000000
13  0.000012 0.001566 3.638375  1.144811 -0.950080 2.078979
14  8.842830 -0.000002 0.000004  -0.357702 0.553597 -1.162119
15  9.341935 0.000002 -0.000007  -0.000000 -0.000001 -1.012846
16  11.165085 -0.000001 0.000001  2.550585 -0.067316 -0.376988
17  1.517250 -0.028670 -1.542785  1.365962 0.325360 -0.061056
18  1.304994 -0.000031 0.000000  -0.049778 0.162071 -0.019792
19  1.339551 0.000032 0.000003  0.000000 -0.000000 0.083183
20  4.170095 -1.192199 -1.334476  1.541739 0.020078 0.224643
21  1.681238 0.066410 0.261722  -0.207408 0.786204 -0.210455
22  1.369121 0.140631 0.433605  -0.327953 0.642276 -0.305785
23  4.237904 -1.152049 -0.369375  1.543347 -0.005608 0.196233
24  1.691775 0.035159 0.152348  -0.172750 0.734111 -0.230040
25  1.723488 0.089862 0.128913  -0.276456 0.833598 -0.205576
26  0.000013 0.001584 -3.638377  -1.559397 0.593841 1.590378
27  8.842835 0.000001 0.000004  1.966155 0.846472 -0.102589
28  9.341929 0.000001 -0.000000  -0.000000 0.000000 -1.206884
29  11.164142 0.000003 0.000002  1.742243 0.148372 -0.046194
30  1.498261 0.120087 1.545496  -2.003611 -0.286207 0.274830
31  1.304993 -0.000034 -0.000002  -0.279401 0.159838 0.074784
32  1.339566 0.000031 -0.000003  -0.057639 0.015924 0.008934
33  4.201565 -0.682690 1.351842  -1.347855 -0.006161 0.263442
34  1.571857 -0.000007 -0.062501  -0.180551 -0.496625 -0.060127
35  1.353495 -0.011726 -0.257821  0.220741 -0.806096 -0.097810
36  4.262991 -0.685305 0.382315  -1.363360 0.012082 0.249538
37  1.570682 -0.000003 -0.035156  0.112104 -0.469206 -0.193117
38  1.621923 0.027360 -0.144541  0.088981 -0.686511 0.072219
39  12.421021 0.304725 4.492682  -0.091859 -0.075839 1.616818
40  19.917009 1.704575 4.956912  2.262593 1.451744 0.734330
41  1.977384 -0.000000 -0.000000  0.116434 0.495295 0.039255
42  3.723975 2.768058 -0.049085  0.000001 -3.141590 -1.430958
time 17
0  -0.061277 -2.444468 8.013618  -1.724919 -2.181195 0.126692
1  -1.994836 1.652395 9.745319  -1.570765 -1.570796 0.000000
2  -0.000005 0.000010 5.615749  0.187122 2.710048 -0.738325
3  15.693464 -0.000001 0.000000  -0.000000 -0.000000 -1.486590
4  22.146633 -0.000001 0.000001  0.262333 -0.249211 -0.227610
5  0.000014 -0.000006 -5.615749  0.916122 3.083808 -0.074666
6  15.693465 0.000000 -0.000001  -0.000000 0.000000 -1.738294
7  22.146629 -0.000001 -0.000000  -0.065307 -0.076912 -0.469932
8  1.384164 -0.004350 0.000003  -0.435834 -0.004825 0.041436
9  5.934390 -0.004351 -0.000001  -0.096116 0.165327 0.128650
10  5.938290 -0.004352 -0.000001  -0.092114 -0.009983 0.285585
11  5.000761 -0.004352 0.000000  -0.080069 0.091227 0.408350
12  4.996869 -0.001575 0.000000  -0.000000 -0.000000 -0.000000
13  0.000012 0.001566 3.638375  1.144811 -0.950080 2.078979
14  8.842830 -0.000002 0.000004  -0.357702 0.553597 -1.162119
15  9.341935 0.000002 -0.000007  -0.000000 -0.000001 -1.012846
16  11.167107 0.000000 0.000002  2.550585 -0.067316 -0.376988
17  1.517248 -0.028671 -1.542785  1.365962 0.325360 -0.061056
18  1.304994 -0.000031 -0.000000  -0.049778 0.162071 -0.019792
19  1.339552 0.000032 0.000004  0.000000 -0.000000 0.083183
20  4.170094 -1.192201 -1.334475  1.541739 0.020078 0.224643
21  1.681238 0.066409 0.261722  -0.207408 0.786204 -0.210455
22  1.369121 0.140632 0.433605  -0.327953 0.642276 -0.305785
23  4.237904 -1.152050 -0.369375  1.543347 -0.005608 0.196233
24  1.691774 0.035160 0.152347  -0.172750 0.734111 -0.230040
25  1.723488 0.089862 0.128913  -0.276456 0.833598 -0.205576
26  0.000013 0.001584 -3.638377  -1.559397 0.593841 1.590378
27  8.842835 0.000001 0.000004  1.966155 0.846472 -0.102589
28  9.341929 0.000001 -0.000000  -0.000000 0.000000 -1.206884
29  11.164142 0.000003 0.000002  1.742243 0.148372 -0.046194
30  1.498261 0.120087 1.545496  -2.003611 -0.286207 0.274830
31  1.304993 -0.000034 -0.000002  -0.279401 0.159838 0.074784
32  1.339566 0.000031 -0.000003  -0.057639 0.015924 0.008934
33  4.201565 -0.682690 1.351842  -1.347855 -0.006161 0.263442
34  1.571857 -0.000007 -0.062501  -0.180551 -0.496625 -0.060127
35  1.353495 -0.011726 -0.257821  0.220741 -0.806096 -0.097810
36  4.262991 -0.685305 0.382315  -1.363360 0.012082 0.249538
37  1.570682 -0.000003 -0.035156  0.112104 -0.469206 -0.193117
38  1.621923 0.027360 -0.144541  0.088981 -0.686511 0.072219
39  12.421021 0.304725 4.492682  -0.091859 -0.075839 1.616818
40  19.917009 1.704575 4.956912  2.262593 1.451744 0.734330
41  1.977384 -0.000000 -0.000000  0.116434 0.495295 0.039255
42  3.723975 2.768058 -0.049085  0.000001 -3.141590 -1.430958
time 18
0  -0.061277 -2.444468 8.013618  -1.724919 -2.181195 0.126692
1  -1.994836 1.652395 9.745319  -1.570765 -1.570796 0.000000
2  -0.000005 0.000010 5.615749  0.187122 2.710048 -0.738325
3  15.693464 -0.000001 0.000000  -0.000000 -0.000000 -1.486590
4  22.146633 -0.000001 0.000001  0.262333 -0.249211 -0.227610
5  0.000014 -0.000006 -5.615749  0.916122 3.083808 -0.074666
6  15.693465 0.000000 -0.000001  -0.000000 0.000000 -1.738294
7  22.146629 -0.000001 -0.000000  -0.065307 -0.076912 -0.469932
8  1.384164 -0.004350 0.000003  -0.435834 -0.004825 0.041436
9  5.934390 -0.004351 -0.000001  -0.096116 0.165327 0.128650
10  5.938290 -0.004352 -0.000001  -0.092114 -0.009983 0.285585
11  5.000761 -0.004352 0.000000  -0.080069 0.091227 0.408350
12  4.996869 -0.001575 0.000000  -0.000000 -0.000000 -0.000000
13  0.000012 0.001566 3.638375  1.144811 -0.950080 2.078979
14  8.842830 -0.000002 0.000004  -0.357702 0.553597 -1.162119
15  9.341935 0.000002 -0.000007  -0.000000 -0.000001 -1.012846
16  11.168049 0.000001 0.000003  2.550585 -0.067316 -0.376988
17  1.517248 -0.028671 -1.542786  1.365962 0.325360 -0.061056
18  1.304994 -0.000031 0.000000  -0.049778 0.162071 -0.019792
19  1.339552 0.000031 0.000003  0.000000 -0.000000 0.083183
20  4.170094 -1.192200 -1.334475  1.541739 0.020078 0.224643
21  1.681237 0.066409 0.261721  -0.207408 0.786204 -0.210455
22  1.369122 0.140631 0.433605  -0.327953 0.642276 -0.305785
23  4.237903 -1.152050 -0.369375  1.543347 -0.005608 0.196233
24  1.691774 0.035159 0.152346  -0.172750 0.734111 -0.230040
25  1.723486 0.089862 0.128913  -0.276456 0.833598 -0.205576
26  0.000013 0.001584 -3.638377  -1.559397 0.593841 1.590378
27  8.842835 0.000001 0.000004  1.966155 0.846472 -0.102589
28  9.341929 0.000001 -0.000000  -0.000000 0.000000 -1.206884
29  11.164142 0.000003 0.000002  1.742243 0.148372 -0.046194
30  1.498261 0.120087 1.545496  -2.003611 -0.286207 0.274830
31  1.304993 -0.000034 -0.000002  -0.279401 0.159838 0.074784
32  1.339566 0.000031 -0.000003  -0.057639 0.015924 0.008934
33  4.201565 -0.682690 1.351842  -1.347855 -0.006161 0.263442
34  1.571857 -0.000007 -0.062501  -0.180551 -0.496625 -0.060127
35  1.353495 -0.011726 -0.257821  0.220741 -0.806096 -0.097810
36  4.262991 -0.685305 0.382315  -1.363360 0.012082 0.249538
37  1.570682 -0.000003 -0.035156  0.112104 -0.469206 -0.193117
38  1.621923 0.027360 -0.144541  0.088981 -0.686511 0.072219
39  12.421021 0.304725 4.492682  -0.091859 -0.075839 1.616818
40  19.917009 1.704575 4.956912  2.262593 1.451744 0.734330
41  1.977384 -0.000000 -0.000000  0.116434 0.495295 0.039255
42  3.723975 2.768058 -0.049085  0.000001 -3.141590 -1.430958
end
