version 1
nodes
  0 "Bip01" -1
  1 "Bip01 Pelvis" 0
  2 "Bip01 L Thigh" 1
  3 "Bip01 L Calf" 2
  4 "Bip01 L Foot" 3
  5 "Bip01 R Thigh" 1
  6 "Bip01 R Calf" 5
  7 "Bip01 R Foot" 6
  8 "Bip01 Spine" 1
  9 "Bip01 Spine1" 8
  10 "Bone16" 8
  11 "Bone01" 8
  12 "Bone03" 1
  13 "Bip01 Neck" 9
  14 "Bip01 R Clavicle" 13
  15 "Bip01 R UpperArm" 14
  16 "Bip01 R Forearm" 15
  17 "Bip01 R Hand" 16
  18 "Bip01 R Finger0" 17
  19 "Bip01 R Finger01" 18
  20 "Bip01 R Finger1" 17
  21 "Bip01 R Finger11" 20
  22 "Bip01 R Finger12" 21
  23 "Bip01 R Finger2" 17
  24 "Bip01 R Finger21" 23
  25 "Bip01 R Finger22" 24
  26 "Bip01 R Finger4" 17
  27 "Bip01 L Clavicle" 13
  28 "Bip01 L UpperArm" 27
  29 "Bip01 L Forearm" 28
  30 "Bip01 L Hand" 29
  31 "Bip01 L Finger0" 30
  32 "Bip01 L Finger01" 31
  33 "Bip01 L Finger02" 32
  34 "Bip01 L Finger1" 30
  35 "Bip01 L Finger11" 34
  36 "Bip01 L Finger12" 35
  37 "Bip01 L Finger2" 30
  38 "Bip01 L Finger21" 37
  39 "Bip01 L Finger22" 38
  40 "Bip01 L Finger3" 30
  41 "Bip01 L Finger31" 40
  42 "Bip01 L Finger32" 41
  43 "Bip01 L Finger4" 30
  44 "Bip01 L Finger41" 43
  45 "Bip01 L Finger42" 44
  46 "Bip01 R Finger02" 19
  47 "Bip01 R Finger3" 17
  48 "Bip01 R Finger31" 47
  49 "Bip01 R Finger32" 48
  50 "Bip01 R Finger41" 26
  51 "Bip01 R Finger42" 50
  52 "Bip01 Head" 13
  53 "R_eyebrow" 52
  54 "C_eyebrow" 52
  55 "L_eyebrow" 52
  56 "R_eye" 52
  57 "Eyelids" 52
  58 "L_eye" 52
  59 "Bone05" 52
  60 "Bone08" 9
end
skeleton
  time 0
    0 113.384339 57.589759 4.668704 0.000000 -1.517556 -1.570891
    1 -0.245774 0.000000 0.000000 -1.570795 -1.570451 0.000000
    2 -0.000006 0.000008 4.427393 -0.374989 -3.074068 -0.059613
    3 18.465940 0.000000 0.000000 0.000000 0.000000 -0.113677
    4 14.875443 0.000000 -0.000001 -0.393667 -0.206897 -0.163856
    5 0.000006 -0.000004 -4.427393 0.407497 3.005451 -0.042919
    6 18.465940 0.000000 0.000000 0.000000 0.000000 -0.075280
    7 14.875443 0.000000 0.000000 0.533703 0.298785 -0.238819
    8 2.255207 -0.007574 0.000003 -0.000004 -0.000001 0.000796
    9 9.514226 -0.009357 0.000000 0.000000 0.000000 0.000000
    10 2.450429 5.076128 0.001325 3.140791 -1.570796 0.000000
    11 6.312407 -4.528058 0.001311 3.140791 -1.570796 0.000000
    12 2.233310 1.152535 -7.309138 -1.442523 -1.649317 -0.215512
    13 11.751820 -0.001633 0.000000 0.000000 -0.000001 -0.135619
    14 -2.140935 -0.360026 -2.649726 -0.673219 1.317102 2.619058
    15 4.640942 0.000000 0.000000 -0.935488 -0.524004 0.464223
    16 10.828047 0.000000 0.000000 0.000000 0.000000 -0.343169
    17 9.393338 0.000000 0.000001 1.009075 0.215884 -0.099940
    18 1.442242 0.107453 1.746178 -1.686405 -0.539236 0.325847
    19 1.063451 0.000000 -0.000001 0.000000 0.000000 0.199061
    20 4.172844 -0.251366 1.312745 -0.008038 -0.095731 0.148656
    21 1.215373 0.000000 0.000001 0.000000 0.000000 0.645746
    22 1.215372 0.000000 0.000001 0.000000 0.000000 0.645746
    23 4.220531 -0.244854 0.431466 -0.001333 -0.026242 0.148336
    24 1.350417 0.000001 -0.000001 0.000000 0.000000 0.863895
    25 1.350410 -0.000001 0.000001 0.000000 0.000000 0.863900
    26 4.262825 -0.232720 -1.392178 0.016840 0.076668 0.253759
    27 -2.140935 -0.360038 2.649729 0.088019 -1.370041 3.190145
    28 4.640942 0.000000 -0.000001 0.041459 0.894757 0.425385
    29 10.828047 0.000000 -0.000002 0.000000 0.000000 -0.264536
    30 9.393336 -0.000001 0.000000 -1.875036 0.034172 0.000042
    31 1.442245 0.107453 -1.746177 1.686425 0.539224 0.325885
    32 1.063452 -0.000001 -0.000001 0.000000 0.000000 0.199055
    33 1.376307 -0.000001 0.000000 0.000000 0.000000 0.199027
    34 4.172847 -0.251366 -1.312744 0.008038 0.095731 0.148656
    35 1.215373 0.000001 0.000000 0.000000 0.000000 0.645758
    36 1.215371 -0.000001 0.000000 0.000000 0.000000 0.645758
    37 4.220535 -0.244855 -0.431465 0.001333 0.026242 0.148336
    38 1.350416 0.000000 0.000000 0.000000 0.000000 0.863875
    39 1.350410 -0.000001 -0.000001 0.000000 0.000000 0.863891
    40 4.237636 -0.195359 0.527090 0.000662 0.008837 0.261753
    41 1.215376 0.000001 0.000001 0.000000 0.000000 0.977358
    42 1.215371 0.000000 0.000000 0.000000 0.000000 0.977358
    43 4.262829 -0.232721 1.392178 -0.016840 -0.076676 0.253759
    44 1.012811 0.000000 0.000000 0.000000 0.000000 0.968601
    45 1.012809 -0.000001 0.000000 0.000000 0.000000 0.968601
    46 1.376306 -0.000001 0.000000 0.000000 0.000000 0.199052
    47 4.237632 -0.195359 -0.527090 -0.000662 -0.008837 0.261752
    48 1.215375 0.000001 -0.000001 0.000000 0.000000 0.977335
    49 1.215371 0.000000 0.000001 0.000000 0.000000 0.977347
    50 1.012810 0.000001 0.000000 0.000000 0.000000 0.968648
    51 1.012810 -0.000001 0.000000 0.000000 0.000000 0.968648
    52 2.110540 0.000000 0.000000 0.349000 0.000000 -0.135333
    53 5.253243 3.139475 -1.673515 2.984594 -1.570796 0.000000
    54 5.253259 3.139473 -0.054760 2.984594 -1.570796 0.000000
    55 5.253252 3.139468 1.574632 2.984594 -1.570796 0.000000
    56 4.598148 4.158443 -1.350299 2.740327 -1.570796 0.000000
    57 4.598139 4.158430 -0.054439 2.984594 -1.570796 0.000000
    58 4.598140 4.158430 1.240876 2.740327 -1.570796 0.000000
    59 0.891927 2.373051 -0.014527 -3.141592 -0.000001 1.509613
    60 7.228122 5.709446 3.726568 3.140796 -1.570796 0.000000
  time 1
    0 113.384339 57.589759 4.668704 0.000000 -1.517556 -1.570891
    1 -0.245774 0.000000 0.000000 -1.570795 -1.570451 0.000000
    2 -0.000006 0.000008 4.427393 -0.374989 -3.074068 -0.059613
    3 18.465940 0.000000 0.000000 0.000000 0.000000 -0.113677
    4 14.875443 0.000000 -0.000001 -0.393667 -0.206897 -0.163856
    5 0.000006 -0.000004 -4.427393 0.407497 3.005451 -0.042919
    6 18.465940 0.000000 0.000000 0.000000 0.000000 -0.075280
    7 14.875443 0.000000 0.000000 0.533703 0.298785 -0.238819
    8 2.255207 -0.007574 0.000003 -0.000004 -0.000001 0.000796
    9 9.514226 -0.009357 0.000000 0.000000 0.000000 0.000000
    10 2.450429 5.076128 0.001325 3.140791 -1.570796 0.000000
    11 6.312407 -4.528058 0.001311 3.140791 -1.570796 0.000000
    12 2.233310 1.152535 -7.309138 -1.442523 -1.649317 -0.215512
    13 11.751820 -0.001633 0.000000 0.000000 -0.000001 -0.135619
    14 -2.140935 -0.360026 -2.649726 -0.673219 1.317102 2.619058
    15 4.640942 0.000000 0.000000 -0.935488 -0.524004 0.464223
    16 10.828047 0.000000 0.000000 0.000000 0.000000 -0.343169
    17 9.393338 0.000000 0.000001 1.009075 0.215884 -0.099940
    18 1.442242 0.107453 1.746178 -1.686405 -0.539236 0.325847
    19 1.063451 0.000000 -0.000001 0.000000 0.000000 0.199061
    20 4.172844 -0.251366 1.312745 -0.008038 -0.095731 0.148656
    21 1.215373 0.000000 0.000001 0.000000 0.000000 0.645746
    22 1.215372 0.000000 0.000001 0.000000 0.000000 0.645746
    23 4.220531 -0.244854 0.431466 -0.001333 -0.026242 0.148336
    24 1.350417 0.000001 -0.000001 0.000000 0.000000 0.863895
    25 1.350410 -0.000001 0.000001 0.000000 0.000000 0.863900
    26 4.262825 -0.232720 -1.392178 0.016840 0.076668 0.253759
    27 -2.140935 -0.360038 2.649729 0.088019 -1.370041 3.190145
    28 4.640942 0.000000 -0.000001 0.041459 0.894757 0.425385
    29 10.828047 0.000000 -0.000002 0.000000 0.000000 -0.264536
    30 9.393336 -0.000001 0.000000 -1.875036 0.034172 0.000042
    31 1.442245 0.107453 -1.746177 1.686425 0.539224 0.325885
    32 1.063452 -0.000001 -0.000001 0.000000 0.000000 0.199055
    33 1.376307 -0.000001 0.000000 0.000000 0.000000 0.199027
    34 4.172847 -0.251366 -1.312744 0.008038 0.095731 0.148656
    35 1.215373 0.000001 0.000000 0.000000 0.000000 0.645758
    36 1.215371 -0.000001 0.000000 0.000000 0.000000 0.645758
    37 4.220535 -0.244855 -0.431465 0.001333 0.026242 0.148336
    38 1.350416 0.000000 0.000000 0.000000 0.000000 0.863875
    39 1.350410 -0.000001 -0.000001 0.000000 0.000000 0.863891
    40 4.237636 -0.195359 0.527090 0.000662 0.008837 0.261753
    41 1.215376 0.000001 0.000001 0.000000 0.000000 0.977358
    42 1.215371 0.000000 0.000000 0.000000 0.000000 0.977358
    43 4.262829 -0.232721 1.392178 -0.016840 -0.076676 0.253759
    44 1.012811 0.000000 0.000000 0.000000 0.000000 0.968601
    45 1.012809 -0.000001 0.000000 0.000000 0.000000 0.968601
    46 1.376306 -0.000001 0.000000 0.000000 0.000000 0.199052
    47 4.237632 -0.195359 -0.527090 -0.000662 -0.008837 0.261752
    48 1.215375 0.000001 -0.000001 0.000000 0.000000 0.977335
    49 1.215371 0.000000 0.000001 0.000000 0.000000 0.977347
    50 1.012810 0.000001 0.000000 0.000000 0.000000 0.968648
    51 1.012810 -0.000001 0.000000 0.000000 0.000000 0.968648
    52 2.110540 0.000000 0.000000 0.349000 0.000000 -0.135333
    53 5.253243 3.139475 -1.673515 2.984594 -1.570796 0.000000
    54 5.253259 3.139473 -0.054760 2.984594 -1.570796 0.000000
    55 5.253252 3.139468 1.574632 2.984594 -1.570796 0.000000
    56 4.598148 4.158443 -1.350299 2.740327 -1.570796 0.000000
    57 4.598139 4.158430 -0.054439 2.984594 -1.570796 0.000000
    58 4.598140 4.158430 1.240876 2.740327 -1.570796 0.000000
    59 0.891927 2.373051 -0.014527 -3.141592 -0.000001 1.509613
    60 7.228122 5.709446 3.726568 3.140796 -1.570796 0.000000
end
