version 1
nodes
  0 "Bip01" -1
  1 "Bip01 Pelvis" 0
  2 "Bip01 L Thigh" 1
  3 "Bip01 L Calf" 2
  4 "Bip01 L Foot" 3
  5 "Bip01 R Thigh" 1
  6 "Bip01 R Calf" 5
  7 "Bip01 R Foot" 6
  8 "Bip01 Spine" 1
  9 "Bip01 Spine1" 8
  10 "Bone16" 8
  11 "Bone01" 8
  12 "Bone03" 1
  13 "Bip01 Neck" 9
  14 "Bip01 R Clavicle" 13
  15 "Bip01 R UpperArm" 14
  16 "Bip01 R Forearm" 15
  17 "Bip01 R Hand" 16
  18 "Bip01 R Finger0" 17
  19 "Bip01 R Finger01" 18
  20 "Bip01 R Finger1" 17
  21 "Bip01 R Finger11" 20
  22 "Bip01 R Finger12" 21
  23 "Bip01 R Finger2" 17
  24 "Bip01 R Finger21" 23
  25 "Bip01 R Finger22" 24
  26 "Bip01 R Finger4" 17
  27 "Bip01 L Clavicle" 13
  28 "Bip01 L UpperArm" 27
  29 "Bip01 L Forearm" 28
  30 "Bip01 L Hand" 29
  31 "Bip01 L Finger0" 30
  32 "Bip01 L Finger01" 31
  33 "Bip01 L Finger02" 32
  34 "Bip01 L Finger1" 30
  35 "Bip01 L Finger11" 34
  36 "Bip01 L Finger12" 35
  37 "Bip01 L Finger2" 30
  38 "Bip01 L Finger21" 37
  39 "Bip01 L Finger22" 38
  40 "Bip01 L Finger3" 30
  41 "Bip01 L Finger31" 40
  42 "Bip01 L Finger32" 41
  43 "Bip01 L Finger4" 30
  44 "Bip01 L Finger41" 43
  45 "Bip01 L Finger42" 44
  46 "Bip01 R Finger02" 19
  47 "Bip01 R Finger3" 17
  48 "Bip01 R Finger31" 47
  49 "Bip01 R Finger32" 48
  50 "Bip01 R Finger41" 26
  51 "Bip01 R Finger42" 50
  52 "Bip01 Head" 13
  53 "R_eyebrow" 52
  54 "C_eyebrow" 52
  55 "L_eyebrow" 52
  56 "R_eye" 52
  57 "Eyelids" 52
  58 "L_eye" 52
  59 "Bone05" 52
  60 "Bone08" 9
end
skeleton
  time 0
    0 1.254978 2.615221 38.415828 -0.032789 0.051646 -1.633688
    1 -1.101269 0.261727 0.000000 -0.000027 -1.518483 -1.570772
    2 -0.000006 0.000008 4.427393 -0.158768 -3.176218 0.060081
    3 18.465940 0.000000 0.000000 0.000000 0.000000 -0.249360
    4 14.875443 0.000000 -0.000001 0.046827 0.003709 0.344238
    5 0.000006 -0.000004 -4.427393 0.090333 3.059698 -0.388067
    6 18.465940 0.000000 0.000000 0.000000 0.000000 -0.464624
    7 14.875443 0.000000 0.000000 0.038088 0.027168 0.123365
    8 2.255207 -0.007574 0.113288 -0.065611 0.009922 0.038846
    9 9.514226 -0.009357 0.000000 0.009108 -0.105392 0.104581
    10 2.450429 5.076128 0.001325 3.140791 -1.570796 0.000000
    11 6.312407 -4.528058 0.001311 3.140791 -1.570796 0.000000
    12 2.233310 1.152535 -7.309138 -1.134973 -1.596950 -0.916906
    13 11.751820 -0.001633 0.000000 -0.025335 0.102395 0.222120
    14 -1.859676 0.475937 -2.837232 0.655111 1.362236 3.547758
    15 4.640942 0.000000 0.000000 0.723201 -0.212130 -1.799723
    16 10.828047 0.000000 0.000000 0.000000 0.000000 -0.570907
    17 9.393338 0.000000 0.000001 2.186855 0.121475 0.376027
    18 1.442242 0.107453 1.746178 -1.937605 -0.475528 0.678328
    19 1.063451 0.000000 -0.000001 0.000000 0.000000 0.366503
    20 4.172844 -0.251366 1.312745 0.001190 -0.096055 0.052246
    21 1.215373 0.000000 0.000001 0.000000 0.000000 0.130840
    22 1.215372 0.000000 0.000001 0.000000 0.000000 1.151838
    23 4.220531 -0.244854 0.431466 0.001184 -0.026242 0.052329
    24 1.350417 0.000001 -0.000001 0.000000 0.000000 0.977335
    25 1.350410 -0.000001 0.000001 0.000000 0.000000 1.518389
    26 4.262825 -0.232720 -1.392178 0.001188 0.078478 0.052453
    27 -2.398755 0.350921 2.430972 -0.087876 -1.222811 3.000634
    28 4.640942 0.000000 -0.000001 -0.792062 0.274250 -1.729679
    29 10.828047 0.000000 -0.000002 0.000000 0.000000 -0.616638
    30 9.393336 -0.000001 0.000000 -2.045710 -0.447131 0.433402
    31 1.442245 0.107453 -1.746177 1.545043 0.350678 0.095007
    32 1.063452 -0.000001 -0.000001 0.000000 0.000000 0.199055
    33 1.376307 -0.000001 0.000000 0.000000 0.000000 0.199027
    34 4.172847 -0.251366 -1.312744 0.008002 -0.043877 0.147534
    35 1.215373 0.000001 0.000000 0.000000 0.000000 0.645758
    36 1.215371 -0.000001 0.000000 0.000000 0.000000 0.881369
    37 4.220535 -0.244855 -0.431465 0.001333 0.026242 0.148336
    38 1.350416 0.000000 0.000000 0.000000 0.000000 0.732991
    39 1.350410 -0.000001 -0.000001 0.000000 0.000000 1.256584
    40 4.237636 -0.195359 0.527090 0.025781 0.128443 0.455451
    41 1.215376 0.000001 0.000001 0.000000 0.000000 0.401393
    42 1.215371 0.000000 0.000000 0.000000 0.000000 1.326390
    43 4.262829 -0.232721 1.392178 0.025466 0.184121 0.480098
    44 1.012811 0.000000 0.000000 0.000000 0.000000 0.584666
    45 1.012809 -0.000001 0.000000 0.000000 0.000000 0.837704
    46 1.376306 -0.000001 0.000000 0.000000 0.000000 0.811538
    47 4.237632 -0.195359 -0.527090 0.001184 -0.008789 0.052350
    48 1.215375 0.000001 -0.000001 0.000000 0.000000 0.977335
    49 1.215371 0.000000 0.000001 0.000000 0.000000 1.518389
    50 1.012810 0.000001 0.000000 0.000000 0.000000 0.977335
    51 1.012810 -0.000001 0.000000 0.000000 0.000000 1.186755
    52 2.110540 0.000000 0.000000 0.155281 0.123824 -0.054425
    53 5.253243 3.139475 -1.673515 2.984594 -1.570796 0.000000
    54 5.253259 3.139473 -0.054760 3.132916 -1.570796 0.000000
    55 5.253252 3.139468 1.574632 2.984594 -1.570796 0.000000
    56 4.598148 4.158443 -1.350299 2.984594 -1.570796 0.000000
    57 4.598139 4.158430 -0.054439 2.984594 -1.570796 0.000000
    58 4.598140 4.158430 1.240876 2.984594 -1.570796 0.000000
    59 0.891927 2.373051 -0.014527 -3.141592 -0.000001 1.413797
    60 7.228122 5.709446 3.726568 3.140796 -1.570796 0.000000
  time 1
    0 1.254978 3.440665 38.423640 -0.032789 0.040780 -1.630908
    1 -0.921576 0.339854 0.000000 -0.000027 -1.518052 -1.570772
    2 -0.000006 0.000008 4.427393 -0.167837 -3.171659 0.024971
    3 18.465940 0.000000 0.000000 0.000000 0.000000 -0.312596
    4 14.875443 0.000000 -0.000001 0.057613 0.005710 0.361343
    5 0.000006 -0.000004 -4.427393 0.099423 3.056995 -0.387693
    6 18.465940 0.000000 0.000000 0.000000 0.000000 -0.446968
    7 14.875443 0.000000 0.000000 0.031154 0.024937 0.095002
    8 2.255207 -0.007574 0.113288 -0.043203 0.010306 0.035239
    9 9.514226 -0.009357 0.000000 0.010594 -0.083844 0.071951
    10 2.450429 5.076128 0.001325 3.140791 -1.570796 0.000000
    11 6.312407 -4.528058 0.001311 3.140791 -1.570796 0.000000
    12 2.233310 1.152535 -7.309138 -1.134206 -1.598552 -0.910970
    13 11.751820 -0.001633 0.000000 -0.010007 0.061875 0.264417
    14 -1.953429 0.518907 -2.766917 0.521646 1.369577 3.382489
    15 4.640942 0.000000 0.000000 0.714135 -0.437736 -1.558462
    16 10.828047 0.000000 0.000000 0.000000 0.000000 -0.576134
    17 9.393338 0.000000 0.000001 2.195296 0.124533 0.376899
    18 1.442242 0.107453 1.746178 -1.937241 -0.475640 0.678019
    19 1.063451 0.000000 -0.000001 0.000000 0.000000 0.366085
    20 4.172844 -0.251366 1.312745 0.001190 -0.096055 0.052246
    21 1.215373 0.000000 0.000001 0.000000 0.000000 0.130672
    22 1.215372 0.000000 0.000001 0.000000 0.000000 1.150537
    23 4.220531 -0.244854 0.431466 0.001184 -0.026242 0.052329
    24 1.350417 0.000001 -0.000001 0.000000 0.000000 0.976244
    25 1.350410 -0.000001 0.000001 0.000000 0.000000 1.516624
    26 4.262825 -0.232720 -1.392178 0.001188 0.078478 0.052453
    27 -2.277658 0.472019 2.524725 0.061309 -1.295519 2.815438
    28 4.640942 0.000000 -0.000001 -0.851939 0.490453 -1.503320
    29 10.828047 0.000000 -0.000002 0.000000 0.000000 -0.613953
    30 9.393336 -0.000001 0.000000 -1.915792 -0.359605 0.311594
    31 1.442245 0.107453 -1.746177 1.571213 0.394824 0.141885
    32 1.063452 -0.000001 -0.000001 0.000000 0.000000 0.199055
    33 1.376307 -0.000001 0.000000 0.000000 0.000000 0.199027
    34 4.172847 -0.251366 -1.312744 0.008002 -0.012993 0.147775
    35 1.215373 0.000001 0.000000 0.000000 0.000000 0.645758
    36 1.215371 -0.000001 0.000000 0.000000 0.000000 0.829183
    37 4.220535 -0.244855 -0.431465 0.001333 0.026242 0.148336
    38 1.350416 0.000000 0.000000 0.000000 0.000000 0.761981
    39 1.350410 -0.000001 -0.000001 0.000000 0.000000 1.169680
    40 4.237636 -0.195359 0.527090 0.018195 0.102437 0.412115
    41 1.215376 0.000001 0.000001 0.000000 0.000000 0.528833
    42 1.215371 0.000000 0.000000 0.000000 0.000000 1.249134
    43 4.262829 -0.232721 1.392178 0.010868 0.127342 0.428558
    44 1.012811 0.000000 0.000000 0.000000 0.000000 0.669651
    45 1.012809 -0.000001 0.000000 0.000000 0.000000 0.866685
    46 1.376306 -0.000001 0.000000 0.000000 0.000000 0.810617
    47 4.237632 -0.195359 -0.527090 0.001184 -0.008789 0.052350
    48 1.215375 0.000001 -0.000001 0.000000 0.000000 0.976244
    49 1.215371 0.000000 0.000001 0.000000 0.000000 1.516624
    50 1.012810 0.000001 0.000000 0.000000 0.000000 0.976244
    51 1.012810 -0.000001 0.000000 0.000000 0.000000 1.185412
    52 2.110540 0.000000 0.000000 0.108401 0.106869 -0.090661
    53 5.253243 3.139475 -1.673515 2.984594 -1.570796 0.000000
    54 5.253259 3.139473 -0.054760 3.108325 -1.570796 0.000000
    55 5.253252 3.139468 1.574632 2.984594 -1.570796 0.000000
    56 4.598148 4.158443 -1.350299 2.984594 -1.570796 0.000000
    57 4.598139 4.158430 -0.054439 2.981772 -1.570796 0.000000
    58 4.598140 4.158430 1.240876 2.984594 -1.570796 0.000000
    59 0.891927 2.373051 -0.014527 -3.141592 -0.000001 1.413797
    60 7.228122 5.709446 3.726568 3.140796 -1.570796 0.000000
  time 2
    0 1.254978 4.266108 38.423640 -0.032693 0.029530 -1.625731
    1 -0.737977 0.429701 0.000000 -0.000027 -1.517046 -1.570772
    2 -0.000006 0.000008 4.427393 -0.183970 -3.166822 -0.005451
    3 18.465940 0.000000 0.000000 0.000000 0.000000 -0.363404
    4 14.875443 0.000000 -0.000001 0.078020 0.006774 0.370271
    5 0.000006 -0.000004 -4.427393 0.117601 3.051775 -0.385353
    6 18.465940 0.000000 0.000000 0.000000 0.000000 -0.425506
    7 14.875443 0.000000 0.000000 0.017196 0.021229 0.063714
    8 2.255207 -0.007574 0.117194 -0.018338 0.009790 0.031567
    9 9.514226 -0.009357 0.000000 0.011733 -0.061673 0.038211
    10 2.450429 5.076128 0.001325 3.140791 -1.570796 0.000000
    11 6.312407 -4.528058 0.001311 3.140791 -1.570796 0.000000
    12 2.233310 1.152535 -7.309138 -1.133343 -1.600416 -0.905034
    13 11.751820 -0.001633 0.000000 0.004015 0.019330 0.307947
    14 -2.051088 0.577503 -2.688790 0.399196 1.376388 3.223808
    15 4.640942 0.000000 0.000000 0.665280 -0.661808 -1.291654
    16 10.828047 0.000000 0.000000 0.000000 0.000000 -0.561440
    17 9.393338 0.000000 0.000001 2.212179 0.130649 0.378742
    18 1.442242 0.107453 1.746178 -1.936605 -0.475921 0.677298
    19 1.063451 0.000000 -0.000001 0.000000 0.000000 0.365249
    20 4.172844 -0.251366 1.312745 0.001190 -0.096055 0.052246
    21 1.215373 0.000000 0.000001 0.000000 0.000000 0.130421
    22 1.215372 0.000000 0.000001 0.000000 0.000000 1.147977
    23 4.220531 -0.244854 0.431466 0.001184 -0.026242 0.052329
    24 1.350417 0.000001 -0.000001 0.000000 0.000000 0.974020
    25 1.350410 -0.000001 0.000001 0.000000 0.000000 1.513189
    26 4.262825 -0.232720 -1.392178 0.001188 0.078478 0.052453
    27 -2.140935 0.593116 2.610665 0.331524 -1.360404 2.506776
    28 4.640942 0.000000 -0.000001 -0.842803 0.745157 -1.240434
    29 10.828047 0.000000 -0.000002 0.000000 0.000000 -0.609926
    30 9.393336 -0.000001 0.000000 -1.791287 -0.248795 0.196722
    31 1.442245 0.107453 -1.746177 1.603057 0.441791 0.195864
    32 1.063452 -0.000001 -0.000001 0.000000 0.000000 0.199055
    33 1.376307 -0.000001 0.000000 0.000000 0.000000 0.199027
    34 4.172847 -0.251366 -1.312744 0.008002 0.020912 0.148055
    35 1.215373 0.000001 0.000000 0.000000 0.000000 0.645758
    36 1.215371 -0.000001 0.000000 0.000000 0.000000 0.772057
    37 4.220535 -0.244855 -0.431465 0.001333 0.026242 0.148336
    38 1.350416 0.000000 0.000000 0.000000 0.000000 0.793745
    39 1.350410 -0.000001 -0.000001 0.000000 0.000000 1.074353
    40 4.237636 -0.195359 0.527090 0.011208 0.073566 0.365003
    41 1.215376 0.000001 0.000001 0.000000 0.000000 0.668664
    42 1.215371 0.000000 0.000000 0.000000 0.000000 1.164410
    43 4.262829 -0.232721 1.392178 -0.001595 0.064320 0.373237
    44 1.012811 0.000000 0.000000 0.000000 0.000000 0.762810
    45 1.012809 -0.000001 0.000000 0.000000 0.000000 0.898461
    46 1.376306 -0.000001 0.000000 0.000000 0.000000 0.808775
    47 4.237632 -0.195359 -0.527090 0.001184 -0.008789 0.052350
    48 1.215375 0.000001 -0.000001 0.000000 0.000000 0.974020
    49 1.215371 0.000000 0.000001 0.000000 0.000000 1.513189
    50 1.012810 0.000001 0.000000 0.000000 0.000000 0.974020
    51 1.012810 -0.000001 0.000000 0.000000 0.000000 1.182727
    52 2.110540 0.000000 0.000000 0.057563 0.088210 -0.125267
    53 5.253243 3.139475 -1.673515 2.984594 -1.570796 0.000000
    54 5.253259 3.139473 -0.054760 3.081651 -1.570796 0.000000
    55 5.253252 3.139468 1.574632 2.984594 -1.570796 0.000000
    56 4.598148 4.158443 -1.350299 2.984594 -1.570796 0.000000
    57 4.598139 4.158430 -0.054439 2.974042 -1.570796 0.000000
    58 4.598140 4.158430 1.240876 2.984594 -1.570796 0.000000
    59 0.891927 2.373051 -0.014527 -3.141592 -0.000001 1.413797
    60 7.228122 5.709446 3.726568 3.140796 -1.570796 0.000000
  time 3
    0 1.254978 5.064037 38.419734 -0.032693 0.018472 -1.621800
    1 -0.558284 0.527360 0.000000 -0.000027 -1.515925 -1.570772
    2 -0.000006 0.000008 4.427393 -0.199912 -3.162914 -0.030787
    3 18.465940 0.000000 0.000000 0.000000 0.000000 -0.403247
    4 14.875443 0.000000 -0.000001 0.097231 0.009094 0.373589
    5 0.000006 -0.000004 -4.427393 0.136162 3.046742 -0.381141
    6 18.465940 0.000000 0.000000 0.000000 0.000000 -0.399711
    7 14.875443 0.000000 0.000000 0.001906 0.017099 0.030286
    8 2.255207 -0.007574 0.117194 0.005267 0.009443 0.027960
    9 9.514226 -0.009357 0.000000 0.011949 -0.039777 0.005156
    10 2.450429 5.076128 0.001325 3.140791 -1.570796 0.000000
    11 6.312407 -4.528058 0.001311 3.140791 -1.570796 0.000000
    12 2.233310 1.152535 -7.309138 -1.132097 -1.602280 -0.899481
    13 11.751820 -0.001633 0.000000 0.015892 -0.022436 0.350015
    14 -2.133122 0.632192 -2.618475 0.273192 1.380105 3.059692
    15 4.640942 0.000000 0.000000 0.525132 -0.873536 -0.957515
    16 10.828047 0.000000 0.000000 0.000000 0.000000 -0.556619
    17 9.393338 0.000000 0.000001 2.224841 0.135204 0.380197
    18 1.442242 0.107453 1.746178 -1.935968 -0.476033 0.676680
    19 1.063451 0.000000 -0.000001 0.000000 0.000000 0.364622
    20 4.172844 -0.251366 1.312745 0.001190 -0.096055 0.052246
    21 1.215373 0.000000 0.000001 0.000000 0.000000 0.130211
    22 1.215372 0.000000 0.000001 0.000000 0.000000 1.145963
    23 4.220531 -0.244854 0.431466 0.001184 -0.026242 0.052329
    24 1.350417 0.000001 -0.000001 0.000000 0.000000 0.972341
    25 1.350410 -0.000001 0.000001 0.000000 0.000000 1.510613
    26 4.262825 -0.232720 -1.392178 0.001188 0.078478 0.052453
    27 -2.012025 0.718120 2.680980 0.755401 -1.396631 2.044455
    28 4.640942 0.000000 -0.000001 -0.707133 0.987740 -0.904964
    29 10.828047 0.000000 -0.000002 0.000000 0.000000 -0.606632
    30 9.393336 -0.000001 0.000000 -1.687495 -0.131651 0.102997
    31 1.442245 0.107453 -1.746177 1.636843 0.485147 0.250171
    32 1.063452 -0.000001 -0.000001 0.000000 0.000000 0.199055
    33 1.376307 -0.000001 0.000000 0.000000 0.000000 0.199027
    34 4.172847 -0.251366 -1.312744 0.008002 0.053294 0.148336
    35 1.215373 0.000001 0.000000 0.000000 0.000000 0.645758
    36 1.215371 -0.000001 0.000000 0.000000 0.000000 0.717339
    37 4.220535 -0.244855 -0.431465 0.001333 0.026242 0.148336
    38 1.350416 0.000000 0.000000 0.000000 0.000000 0.824074
    39 1.350410 -0.000001 -0.000001 0.000000 0.000000 0.983280
    40 4.237636 -0.195359 0.527090 0.005827 0.045690 0.320156
    41 1.215376 0.000001 0.000001 0.000000 0.000000 0.802236
    42 1.215371 0.000000 0.000000 0.000000 0.000000 1.083482
    43 4.262829 -0.232721 1.392178 -0.010260 0.003525 0.321259
    44 1.012811 0.000000 0.000000 0.000000 0.000000 0.851882
    45 1.012809 -0.000001 0.000000 0.000000 0.000000 0.928819
    46 1.376306 -0.000001 0.000000 0.000000 0.000000 0.807394
    47 4.237632 -0.195359 -0.527090 0.001184 -0.008789 0.052350
    48 1.215375 0.000001 -0.000001 0.000000 0.000000 0.972341
    49 1.215371 0.000000 0.000001 0.000000 0.000000 1.510613
    50 1.012810 0.000001 0.000000 0.000000 0.000000 0.972341
    51 1.012810 -0.000001 0.000000 0.000000 0.000000 1.180670
    52 2.110540 0.000000 0.000000 0.009633 0.067456 -0.155128
    53 5.253243 3.139475 -1.673515 2.984594 -1.570796 0.000000
    54 5.253259 3.139473 -0.054760 3.053629 -1.570796 0.000000
    55 5.253252 3.139468 1.574632 2.984594 -1.570796 0.000000
    56 4.598148 4.158443 -1.350299 2.984594 -1.570796 0.000000
    57 4.598139 4.158430 -0.054439 2.963489 -1.570796 0.000000
    58 4.598140 4.158430 1.240876 2.984594 -1.570796 0.000000
    59 0.891927 2.373051 -0.014527 -3.141592 -0.000001 1.413797
    60 7.228122 5.709446 3.726568 3.140796 -1.570796 0.000000
  time 4
    0 1.254978 5.834451 38.408015 -0.032693 0.008246 -1.622663
    1 -0.390310 0.632832 0.000000 -0.000027 -1.515063 -1.570772
    2 -0.000006 0.000008 4.427393 -0.214804 -3.160682 -0.050487
    3 18.465940 0.000000 0.000000 0.000000 0.000000 -0.433293
    4 14.875443 0.000000 -0.000001 0.110722 0.012861 0.373826
    5 0.000006 -0.000004 -4.427393 0.154149 3.043200 -0.375246
    6 18.465940 0.000000 0.000000 0.000000 0.000000 -0.370176
    7 14.875443 0.000000 0.000000 -0.016763 0.012245 -0.004079
    8 2.255207 -0.007574 0.125007 0.023916 0.010150 0.024585
    9 9.514226 -0.009357 0.000000 0.010810 -0.019079 -0.025485
    10 2.450429 5.076128 0.001325 3.140791 -1.570796 0.000000
    11 6.312407 -4.528058 0.001311 3.140791 -1.570796 0.000000
    12 2.233310 1.152535 -7.309138 -1.130563 -1.603882 -0.894311
    13 11.751820 -0.001633 0.000000 0.025204 -0.060751 0.388064
    14 -2.195624 0.686881 -2.544254 0.134752 1.376549 2.884295
    15 4.640942 0.000000 0.000000 0.201715 -1.032332 -0.469464
    16 10.828047 0.000000 0.000000 0.000000 0.000000 -0.591700
    17 9.393338 0.000000 0.000001 2.220620 0.133707 0.379712
    18 1.442242 0.107453 1.746178 -1.936150 -0.475977 0.676886
    19 1.063451 0.000000 -0.000001 0.000000 0.000000 0.364831
    20 4.172844 -0.251366 1.312745 0.001190 -0.096055 0.052246
    21 1.215373 0.000000 0.000001 0.000000 0.000000 0.130295
    22 1.215372 0.000000 0.000001 0.000000 0.000000 1.146634
    23 4.220531 -0.244854 0.431466 0.001184 -0.026242 0.052329
    24 1.350417 0.000001 -0.000001 0.000000 0.000000 0.972886
    25 1.350410 -0.000001 0.000001 0.000000 0.000000 1.511472
    26 4.262825 -0.232720 -1.392178 0.001188 0.078478 0.052453
    27 -1.883114 0.823592 2.743482 1.191344 -1.393911 1.572645
    28 4.640942 0.000000 -0.000001 -0.388785 1.155178 -0.446276
    29 10.828047 0.000000 -0.000002 0.000000 0.000000 -0.605899
    30 9.393336 -0.000001 0.000000 -1.611978 -0.029769 0.036477
    31 1.442245 0.107453 -1.746177 1.666993 0.519227 0.296679
    32 1.063452 -0.000001 -0.000001 0.000000 0.000000 0.199055
    33 1.376307 -0.000001 0.000000 0.000000 0.000000 0.199027
    34 4.172847 -0.251366 -1.312744 0.008026 0.079720 0.148536
    35 1.215373 0.000001 0.000000 0.000000 0.000000 0.645758
    36 1.215371 -0.000001 0.000000 0.000000 0.000000 0.672790
    37 4.220535 -0.244855 -0.431465 0.001333 0.026242 0.148336
    38 1.350416 0.000000 0.000000 0.000000 0.000000 0.848902
    39 1.350410 -0.000001 -0.000001 0.000000 0.000000 0.908928
    40 4.237636 -0.195359 0.527090 0.002339 0.022763 0.283738
    41 1.215376 0.000001 0.000001 0.000000 0.000000 0.911280
    42 1.215371 0.000000 0.000000 0.000000 0.000000 1.017363
    43 4.262829 -0.232721 1.392178 -0.014982 -0.046385 0.279191
    44 1.012811 0.000000 0.000000 0.000000 0.000000 0.924566
    45 1.012809 -0.000001 0.000000 0.000000 0.000000 0.953589
    46 1.376306 -0.000001 0.000000 0.000000 0.000000 0.807854
    47 4.237632 -0.195359 -0.527090 0.001184 -0.008789 0.052350
    48 1.215375 0.000001 -0.000001 0.000000 0.000000 0.972886
    49 1.215371 0.000000 0.000001 0.000000 0.000000 1.511472
    50 1.012810 0.000001 0.000000 0.000000 0.000000 0.972886
    51 1.012810 -0.000001 0.000000 0.000000 0.000000 1.181342
    52 2.110540 0.000000 0.000000 -0.028567 0.044999 -0.178519
    53 5.253243 3.139475 -1.673515 2.984594 -1.570796 0.000000
    54 5.253259 3.139473 -0.054760 3.025105 -1.570796 0.000000
    55 5.253252 3.139468 1.574632 2.984594 -1.570796 0.000000
    56 4.598148 4.158443 -1.350299 2.984594 -1.570796 0.000000
    57 4.598139 4.158430 -0.054439 2.951709 -1.570796 0.000000
    58 4.598140 4.158430 1.240876 2.984594 -1.570796 0.000000
    59 0.891927 2.373051 -0.014527 -3.141592 -0.000001 1.413797
    60 7.228122 5.709446 3.726568 3.140796 -1.570796 0.000000
  time 5
    0 1.254978 6.439776 38.392389 -0.032789 -0.000511 -1.631963
    1 -0.253587 0.738304 0.000000 -0.000027 -1.514919 -1.570772
    2 -0.000006 0.000008 4.427393 -0.227978 -3.159937 -0.063803
    3 18.465940 0.000000 0.000000 0.000000 0.000000 -0.454493
    4 14.875443 0.000000 -0.000001 0.114109 0.017714 0.373352
    5 0.000006 -0.000004 -4.427393 0.170701 3.042734 -0.367946
    6 18.465940 0.000000 0.000000 0.000000 0.000000 -0.338540
    7 14.875443 0.000000 0.000000 -0.041522 0.006246 -0.037543
    8 2.255207 -0.007574 0.125007 0.033829 0.012858 0.021508
    9 9.514226 -0.009357 0.000000 0.008078 -0.000563 -0.052013
    10 2.450429 5.076128 0.001325 3.140791 -1.570796 0.000000
    11 6.312407 -4.528058 0.001311 3.140791 -1.570796 0.000000
    12 2.233310 1.152535 -7.309138 -1.128645 -1.604843 -0.889620
    13 11.751820 -0.001633 0.000000 0.031867 -0.092786 0.419809
    14 -2.254219 0.737664 -2.481752 -0.013069 1.360250 2.704286
    15 4.640942 0.000000 0.000000 -0.312812 -1.053603 0.179707
    16 10.828047 0.000000 0.000000 0.000000 0.000000 -0.696538
    17 9.393338 0.000000 0.000001 2.186855 0.121475 0.376027
    18 1.442242 0.107453 1.746178 -1.937605 -0.475528 0.678328
    19 1.063451 0.000000 -0.000001 0.000000 0.000000 0.366503
    20 4.172844 -0.251366 1.312745 0.001190 -0.096055 0.052246
    21 1.215373 0.000000 0.000001 0.000000 0.000000 0.130840
    22 1.215372 0.000000 0.000001 0.000000 0.000000 1.151838
    23 4.220531 -0.244854 0.431466 0.001184 -0.026242 0.052329
    24 1.350417 0.000001 -0.000001 0.000000 0.000000 0.977335
    25 1.350410 -0.000001 0.000001 0.000000 0.000000 1.518389
    26 4.262825 -0.232720 -1.392178 0.001188 0.078478 0.052453
    27 -1.765923 0.909532 2.794265 1.459662 -1.371933 1.274048
    28 4.640942 0.000000 -0.000001 -0.017780 1.219302 0.003516
    29 10.828047 0.000000 -0.000002 0.000000 0.000000 -0.609987
    30 9.393336 -0.000001 0.000000 -1.569611 0.034172 0.000042
    31 1.442245 0.107453 -1.746177 1.686425 0.539224 0.325885
    32 1.063452 -0.000001 -0.000001 0.000000 0.000000 0.199055
    33 1.376307 -0.000001 0.000000 0.000000 0.000000 0.199027
    34 4.172847 -0.251366 -1.312744 0.008038 0.095731 0.148656
    35 1.215373 0.000001 0.000000 0.000000 0.000000 0.645758
    36 1.215371 -0.000001 0.000000 0.000000 0.000000 0.645758
    37 4.220535 -0.244855 -0.431465 0.001333 0.026242 0.148336
    38 1.350416 0.000000 0.000000 0.000000 0.000000 0.863875
    39 1.350410 -0.000001 -0.000001 0.000000 0.000000 0.863891
    40 4.237636 -0.195359 0.527090 0.000662 0.008837 0.261753
    41 1.215376 0.000001 0.000001 0.000000 0.000000 0.977358
    42 1.215371 0.000000 0.000000 0.000000 0.000000 0.977358
    43 4.262829 -0.232721 1.392178 -0.016840 -0.076676 0.253759
    44 1.012811 0.000000 0.000000 0.000000 0.000000 0.968601
    45 1.012809 -0.000001 0.000000 0.000000 0.000000 0.968601
    46 1.376306 -0.000001 0.000000 0.000000 0.000000 0.811538
    47 4.237632 -0.195359 -0.527090 0.001184 -0.008789 0.052350
    48 1.215375 0.000001 -0.000001 0.000000 0.000000 0.977335
    49 1.215371 0.000000 0.000001 0.000000 0.000000 1.518389
    50 1.012810 0.000001 0.000000 0.000000 0.000000 0.977335
    51 1.012810 -0.000001 0.000000 0.000000 0.000000 1.186755
    52 2.110540 0.000000 0.000000 -0.050886 0.021536 -0.194719
    53 5.253243 3.139475 -1.673515 2.984594 -1.570796 0.000000
    54 5.253259 3.139473 -0.054760 2.996852 -1.570796 0.000000
    55 5.253252 3.139468 1.574632 2.984594 -1.570796 0.000000
    56 4.598148 4.158443 -1.350299 2.984594 -1.570796 0.000000
    57 4.598139 4.158430 -0.054439 2.940543 -1.570796 0.000000
    58 4.598140 4.158430 1.240876 2.984594 -1.570796 0.000000
    59 0.891927 2.373051 -0.014527 -3.141592 -0.000001 1.413797
    60 7.228122 5.709446 3.726568 3.140796 -1.570796 0.000000
  time 6
    0 1.234720 6.577350 38.376764 -0.033556 -0.004091 -1.684022
    1 -0.194991 0.886746 0.000000 -0.000027 -1.515925 -1.570772
    2 -0.000006 0.000008 4.427393 -0.238574 -3.167659 -0.055125
    3 18.465940 0.000000 0.000000 0.000000 0.000000 -0.452739
    4 14.875443 0.000000 -0.000001 0.072157 0.025504 0.378606
    5 0.000006 -0.000004 -4.427393 0.184478 3.051962 -0.365513
    6 18.465940 0.000000 0.000000 0.000000 0.000000 -0.319637
    7 14.875443 0.000000 0.000000 -0.102951 -0.005632 -0.056339
    8 2.255207 -0.007574 0.117194 0.004385 0.023393 0.019358
    9 9.514226 -0.009357 0.000000 -0.000779 0.011038 -0.062716
    10 2.450429 5.076128 0.001325 3.140791 -1.570796 0.000000
    11 6.312407 -4.528058 0.001311 3.140791 -1.570796 0.000000
    12 2.233310 1.152535 -7.309138 -1.126440 -1.604989 -0.885694
    13 11.751820 -0.001633 0.000000 0.033749 -0.102062 0.426341
    14 -2.269845 0.749383 -2.462220 -0.207298 1.328137 2.504514
    15 4.640942 0.000000 0.000000 -0.725904 -0.890622 0.671538
    16 10.828047 0.000000 0.000000 0.000000 0.000000 -0.920675
    17 9.393338 0.000000 0.000001 2.103686 0.090830 0.367831
    18 1.442242 0.107453 1.746178 -1.941878 -0.473898 0.682808
    19 1.063451 0.000000 -0.000001 0.000000 0.000000 0.371647
    20 4.172844 -0.251366 1.312745 0.001190 -0.096055 0.052246
    21 1.215373 0.000000 0.000001 0.000000 0.000000 0.132729
    22 1.215372 0.000000 0.000001 0.000000 0.000000 1.168038
    23 4.220531 -0.244854 0.431466 0.001184 -0.026242 0.052329
    24 1.350417 0.000001 -0.000001 0.000000 0.000000 0.991059
    25 1.350410 -0.000001 0.000001 0.000000 0.000000 1.539619
    26 4.262825 -0.232720 -1.392178 0.001188 0.078478 0.052453
    27 -1.734672 0.921251 2.805984 1.541160 -1.361072 1.186243
    28 4.640942 0.000000 -0.000001 0.191865 1.238036 0.289991
    29 10.828047 0.000000 -0.000002 0.000000 0.000000 -0.619810
    30 9.393336 -0.000001 0.000000 -1.550463 0.064785 -0.016222
    31 1.442245 0.107453 -1.746177 1.695890 0.548500 0.339903
    32 1.063452 -0.000001 -0.000001 0.000000 0.000000 0.199055
    33 1.376307 -0.000001 0.000000 0.000000 0.000000 0.199027
    34 4.172847 -0.251366 -1.312744 0.008038 0.103258 0.148736
    35 1.215373 0.000001 0.000000 0.000000 0.000000 0.645758
    36 1.215371 -0.000001 0.000000 0.000000 0.000000 0.632977
    37 4.220535 -0.244855 -0.431465 0.001333 0.026242 0.148336
    38 1.350416 0.000000 0.000000 0.000000 0.000000 0.870955
    39 1.350410 -0.000001 -0.000001 0.000000 0.000000 0.842666
    40 4.237636 -0.195359 0.527090 -0.000033 0.002269 0.251416
    41 1.215376 0.000001 0.000001 0.000000 0.000000 1.008436
    42 1.215371 0.000000 0.000000 0.000000 0.000000 0.958461
    43 4.262829 -0.232721 1.392178 -0.017427 -0.090940 0.241739
    44 1.012811 0.000000 0.000000 0.000000 0.000000 0.989326
    45 1.012809 -0.000001 0.000000 0.000000 0.000000 0.975690
    46 1.376306 -0.000001 0.000000 0.000000 0.000000 0.822904
    47 4.237632 -0.195359 -0.527090 0.001184 -0.008789 0.052350
    48 1.215375 0.000001 -0.000001 0.000000 0.000000 0.991059
    49 1.215371 0.000000 0.000001 0.000000 0.000000 1.539619
    50 1.012810 0.000001 0.000000 0.000000 0.000000 0.991059
    51 1.012810 -0.000001 0.000000 0.000000 0.000000 1.203417
    52 2.110540 0.000000 0.000000 -0.003243 -0.004581 -0.192946
    53 5.253243 3.139475 -1.673515 2.984594 -1.570796 0.000000
    54 5.253259 3.139473 -0.054760 2.969677 -1.570796 0.000000
    55 5.253252 3.139468 1.574632 2.984594 -1.570796 0.000000
    56 4.598148 4.158443 -1.350299 2.984594 -1.570796 0.000000
    57 4.598139 4.158430 -0.054439 2.931770 -1.570796 0.000000
    58 4.598140 4.158430 1.240876 2.984594 -1.570796 0.000000
    59 0.891927 2.373051 -0.014527 -3.141592 -0.000001 1.413797
    60 7.228122 5.709446 3.726568 3.140796 -1.570796 0.000000
  time 7
    0 1.234720 6.439776 38.361138 -0.032405 -0.003963 -1.736561
    1 -0.175459 0.980499 0.000000 -0.000027 -1.518483 -1.570772
    2 -0.000006 0.000008 4.427393 -0.236951 -3.178544 -0.040013
    3 18.465940 0.000000 0.000000 0.000000 0.000000 -0.441261
    4 14.875443 0.000000 -0.000001 0.018081 0.033081 0.384413
    5 0.000006 -0.000004 -4.427393 0.181321 3.062401 -0.368694
    6 18.465940 0.000000 0.000000 0.000000 0.000000 -0.320097
    7 14.875443 0.000000 0.000000 -0.148824 -0.013289 -0.057277
    8 2.255207 -0.007574 0.113288 -0.035811 0.034587 0.017869
    9 9.514226 -0.009357 0.000000 -0.008162 0.014561 -0.062488
    10 2.450429 5.076128 0.001325 3.140791 -1.570796 0.000000
    11 6.312407 -4.528058 0.001311 3.140791 -1.570796 0.000000
    12 2.233310 1.152535 -7.309138 -1.118675 -1.594009 -0.891822
    13 11.751820 -0.001633 0.000000 0.031867 -0.092786 0.419809
    14 -2.254219 0.737664 -2.481752 -0.391151 1.276285 2.333317
    15 4.640942 0.000000 0.000000 -0.931666 -0.631332 0.949964
    16 10.828047 0.000000 0.000000 0.000000 0.000000 -1.246397
    17 9.393338 0.000000 0.000001 1.979069 0.043593 0.360218
    18 1.442242 0.107453 1.746178 -1.948333 -0.471539 0.689708
    19 1.063451 0.000000 -0.000001 0.000000 0.000000 0.379539
    20 4.172844 -0.251366 1.312745 0.001190 -0.096055 0.052246
    21 1.215373 0.000000 0.000001 0.000000 0.000000 0.135541
    22 1.215372 0.000000 0.000001 0.000000 0.000000 1.192841
    23 4.220531 -0.244854 0.431466 0.001184 -0.026242 0.052329
    24 1.350417 0.000001 -0.000001 0.000000 0.000000 1.012127
    25 1.350410 -0.000001 0.000001 0.000000 0.000000 1.572346
    26 4.262825 -0.232720 -1.392178 0.001188 0.078478 0.052453
    27 -1.765923 0.909532 2.794265 1.529019 -1.363362 1.204072
    28 4.640942 0.000000 -0.000001 0.301845 1.244580 0.469814
    29 10.828047 0.000000 -0.000002 0.000000 0.000000 -0.633904
    30 9.393336 -0.000001 0.000000 -1.539547 0.082761 -0.025404
    31 1.442245 0.107453 -1.746177 1.701469 0.553759 0.348113
    32 1.063452 -0.000001 -0.000001 0.000000 0.000000 0.199055
    33 1.376307 -0.000001 0.000000 0.000000 0.000000 0.199027
    34 4.172847 -0.251366 -1.312744 0.008038 0.107620 0.148736
    35 1.215373 0.000001 0.000000 0.000000 0.000000 0.645758
    36 1.215371 -0.000001 0.000000 0.000000 0.000000 0.625627
    37 4.220535 -0.244855 -0.431465 0.001333 0.026242 0.148336
    38 1.350416 0.000000 0.000000 0.000000 0.000000 0.875069
    39 1.350410 -0.000001 -0.000001 0.000000 0.000000 0.830364
    40 4.237636 -0.195359 0.527090 -0.000393 -0.001542 0.245373
    41 1.215376 0.000001 0.000001 0.000000 0.000000 1.026457
    42 1.215371 0.000000 0.000000 0.000000 0.000000 0.947573
    43 4.262829 -0.232721 1.392178 -0.017703 -0.099223 0.234774
    44 1.012811 0.000000 0.000000 0.000000 0.000000 1.001378
    45 1.012809 -0.000001 0.000000 0.000000 0.000000 0.979777
    46 1.376306 -0.000001 0.000000 0.000000 0.000000 0.840401
    47 4.237632 -0.195359 -0.527090 0.001184 -0.008789 0.052350
    48 1.215375 0.000001 -0.000001 0.000000 0.000000 1.012127
    49 1.215371 0.000000 0.000001 0.000000 0.000000 1.572346
    50 1.012810 0.000001 0.000000 0.000000 0.000000 1.012127
    51 1.012810 -0.000001 0.000000 0.000000 0.000000 1.228975
    52 2.110540 0.000000 0.000000 0.062618 -0.026284 -0.184654
    53 5.253243 3.139475 -1.673515 2.984594 -1.570796 0.000000
    54 5.253259 3.139473 -0.054760 2.944276 -1.570796 0.000000
    55 5.253252 3.139468 1.574632 2.984594 -1.570796 0.000000
    56 4.598148 4.158443 -1.350299 2.984594 -1.570796 0.000000
    57 4.598139 4.158430 -0.054439 2.927046 -1.570796 0.000000
    58 4.598140 4.158430 1.240876 2.984594 -1.570796 0.000000
    59 0.891927 2.373051 -0.014527 -3.141592 -0.000001 1.413797
    60 7.228122 5.709446 3.726568 3.140796 -1.570796 0.000000
  time 8
    0 1.214462 6.439776 38.337700 -0.028475 -0.004474 -1.751134
    1 -0.152021 1.003937 0.000000 -0.000027 -1.529075 -1.570772
    2 -0.000006 0.000008 4.427393 -0.231892 -3.174916 -0.041160
    3 18.465940 0.000000 0.000000 0.000000 0.000000 -0.450034
    4 14.875443 0.000000 -0.000001 -0.001444 0.035720 0.391958
    5 0.000006 -0.000004 -4.427393 0.176824 3.073027 -0.366355
    6 18.465940 0.000000 0.000000 0.000000 0.000000 -0.313402
    7 14.875443 0.000000 0.000000 -0.155358 -0.014495 -0.061779
    8 2.255207 -0.007574 0.093756 -0.054817 0.047554 0.016843
    9 9.514226 -0.009357 0.000000 -0.008353 0.015113 -0.064152
    10 2.450429 5.076128 0.001325 3.140791 -1.570796 0.000000
    11 6.312407 -4.528058 0.001311 3.140791 -1.570796 0.000000
    12 2.233310 1.152535 -7.309138 -1.069110 -1.577349 -0.942277
    13 11.751820 -0.001633 0.000000 0.029614 -0.083486 0.421270
    14 -2.226875 0.749383 -2.497378 -0.502585 1.214944 2.229643
    15 4.640942 0.000000 0.000000 -1.032317 -0.359349 1.161408
    16 10.828047 0.000000 0.000000 0.000000 0.000000 -1.602379
    17 9.393338 0.000000 0.000001 1.841140 -0.009402 0.360121
    18 1.442242 0.107453 1.746178 -1.954242 -0.469292 0.696042
    19 1.063451 0.000000 -0.000001 0.000000 0.000000 0.386772
    20 4.172844 -0.251366 1.312745 0.001190 -0.096055 0.052246
    21 1.215373 0.000000 0.000001 0.000000 0.000000 0.138143
    22 1.215372 0.000000 0.000001 0.000000 0.000000 1.215587
    23 4.220531 -0.244854 0.431466 0.001184 -0.026242 0.052329
    24 1.350417 0.000001 -0.000001 0.000000 0.000000 1.031432
    25 1.350410 -0.000001 0.000001 0.000000 0.000000 1.602449
    26 4.262825 -0.232720 -1.392178 0.001188 0.078478 0.052453
    27 -1.797174 0.905626 2.782546 1.499804 -1.367290 1.231200
    28 4.640942 0.000000 -0.000001 0.356810 1.247403 0.552818
    29 10.828047 0.000000 -0.000002 0.000000 0.000000 -0.650865
    30 9.393336 -0.000001 0.000000 -1.535208 0.089999 -0.029067
    31 1.442245 0.107453 -1.746177 1.703757 0.555903 0.351479
    32 1.063452 -0.000001 -0.000001 0.000000 0.000000 0.199055
    33 1.376307 -0.000001 0.000000 0.000000 0.000000 0.199027
    34 4.172847 -0.251366 -1.312744 0.008038 0.109406 0.148776
    35 1.215373 0.000001 0.000000 0.000000 0.000000 0.645758
    36 1.215371 -0.000001 0.000000 0.000000 0.000000 0.622646
    37 4.220535 -0.244855 -0.431465 0.001333 0.026242 0.148336
    38 1.350416 0.000000 0.000000 0.000000 0.000000 0.876695
    39 1.350410 -0.000001 -0.000001 0.000000 0.000000 0.825402
    40 4.237636 -0.195359 0.527090 -0.000549 -0.003088 0.242947
    41 1.215376 0.000001 0.000001 0.000000 0.000000 1.033799
    42 1.215371 0.000000 0.000000 0.000000 0.000000 0.943151
    43 4.262829 -0.232721 1.392178 -0.017799 -0.102576 0.231949
    44 1.012811 0.000000 0.000000 0.000000 0.000000 1.006257
    45 1.012809 -0.000001 0.000000 0.000000 0.000000 0.981445
    46 1.376306 -0.000001 0.000000 0.000000 0.000000 0.856445
    47 4.237632 -0.195359 -0.527090 0.001184 -0.008789 0.052350
    48 1.215375 0.000001 -0.000001 0.000000 0.000000 1.031432
    49 1.215371 0.000000 0.000001 0.000000 0.000000 1.602449
    50 1.012810 0.000001 0.000000 0.000000 0.000000 1.031432
    51 1.012810 -0.000001 0.000000 0.000000 0.000000 1.252435
    52 2.110540 0.000000 0.000000 0.088323 -0.041200 -0.184989
    53 5.253243 3.139475 -1.673515 2.984594 -1.570796 0.000000
    54 5.253259 3.139473 -0.054760 2.921534 -1.570796 0.000000
    55 5.253252 3.139468 1.574632 2.984594 -1.570796 0.000000
    56 4.598148 4.158443 -1.350299 2.984594 -1.570796 0.000000
    57 4.598139 4.158430 -0.054439 2.928150 -1.570796 0.000000
    58 4.598140 4.158430 1.240876 2.984594 -1.570796 0.000000
    59 0.891927 2.373051 -0.014527 -3.141592 -0.000001 1.413797
    60 7.228122 5.709446 3.726568 3.140796 -1.570796 0.000000
  time 9
    0 1.214462 6.439776 38.322075 -0.023873 -0.005050 -1.763406
    1 -0.140302 1.027375 0.000000 -0.000027 -1.545085 -1.570772
    2 -0.000006 0.000008 4.427393 -0.226737 -3.165333 -0.045001
    3 18.465940 0.000000 0.000000 0.000000 0.000000 -0.464436
    4 14.875443 0.000000 -0.000001 -0.018719 0.038125 0.402308
    5 0.000006 -0.000004 -4.427393 0.174241 3.088313 -0.360084
    6 18.465940 0.000000 0.000000 0.000000 0.000000 -0.298634
    7 14.875443 0.000000 0.000000 -0.159758 -0.015248 -0.070370
    8 2.255207 -0.007574 0.050786 -0.075902 0.066501 0.015917
    9 9.514226 -0.009357 0.000000 -0.007622 0.015017 -0.065229
    10 2.450429 5.076128 0.001325 3.140791 -1.570796 0.000000
    11 6.312407 -4.528058 0.001311 3.140791 -1.570796 0.000000
    12 2.233310 1.152535 -7.309138 -1.182812 -1.560224 -0.829973
    13 11.751820 -0.001633 0.000000 0.027265 -0.073802 0.422823
    14 -2.203437 0.757196 -2.516909 -0.577633 1.165030 2.163354
    15 4.640942 0.000000 0.000000 -1.086906 -0.115541 1.333867
    16 10.828047 0.000000 0.000000 0.000000 0.000000 -1.917472
    17 9.393338 0.000000 0.000001 1.717388 -0.056216 0.369043
    18 1.442242 0.107453 1.746178 -1.956788 -0.468280 0.698823
    19 1.063451 0.000000 -0.000001 0.000000 0.000000 0.389971
    20 4.172844 -0.251366 1.312745 0.001190 -0.096055 0.052246
    21 1.215373 0.000000 0.000001 0.000000 0.000000 0.139276
    22 1.215372 0.000000 0.000001 0.000000 0.000000 1.225618
    23 4.220531 -0.244854 0.431466 0.001184 -0.026242 0.052329
    24 1.350417 0.000001 -0.000001 0.000000 0.000000 1.039867
    25 1.350410 -0.000001 0.000001 0.000000 0.000000 1.615568
    26 4.262825 -0.232720 -1.392178 0.001188 0.078478 0.052453
    27 -1.816706 0.897813 2.766920 1.455261 -1.372601 1.273473
    28 4.640942 0.000000 -0.000001 0.363638 1.256977 0.578808
    29 10.828047 0.000000 -0.000002 0.000000 0.000000 -0.669108
    30 9.393336 -0.000001 0.000000 -1.535879 0.088853 -0.028481
    31 1.442245 0.107453 -1.746177 1.703381 0.555542 0.350924
    32 1.063452 -0.000001 -0.000001 0.000000 0.000000 0.199055
    33 1.376307 -0.000001 0.000000 0.000000 0.000000 0.199027
    34 4.172847 -0.251366 -1.312744 0.008038 0.109106 0.148776
    35 1.215373 0.000001 0.000000 0.000000 0.000000 0.645758
    36 1.215371 -0.000001 0.000000 0.000000 0.000000 0.623136
    37 4.220535 -0.244855 -0.431465 0.001333 0.026242 0.148336
    38 1.350416 0.000000 0.000000 0.000000 0.000000 0.876456
    39 1.350410 -0.000001 -0.000001 0.000000 0.000000 0.826194
    40 4.237636 -0.195359 0.527090 -0.000525 -0.002836 0.243385
    41 1.215376 0.000001 0.000001 0.000000 0.000000 1.032631
    42 1.215371 0.000000 0.000000 0.000000 0.000000 0.943818
    43 4.262829 -0.232721 1.392178 -0.017787 -0.102038 0.232386
    44 1.012811 0.000000 0.000000 0.000000 0.000000 1.005464
    45 1.012809 -0.000001 0.000000 0.000000 0.000000 0.981195
    46 1.376306 -0.000001 0.000000 0.000000 0.000000 0.863497
    47 4.237632 -0.195359 -0.527090 0.001184 -0.008789 0.052350
    48 1.215375 0.000001 -0.000001 0.000000 0.000000 1.039867
    49 1.215371 0.000000 0.000001 0.000000 0.000000 1.615568
    50 1.012810 0.000001 0.000000 0.000000 0.000000 1.039867
    51 1.012810 -0.000001 0.000000 0.000000 0.000000 1.262718
    52 2.110540 0.000000 0.000000 0.114744 -0.056535 -0.186427
    53 5.253243 3.139475 -1.673515 2.984594 -1.570796 0.000000
    54 5.253259 3.139473 -0.054760 2.902184 -1.570796 0.000000
    55 5.253252 3.139468 1.574632 2.984594 -1.570796 0.000000
    56 4.598148 4.158443 -1.350299 2.984594 -1.570796 0.000000
    57 4.598139 4.158430 -0.054439 2.937046 -1.570796 0.000000
    58 4.598140 4.158430 1.240876 2.984594 -1.570796 0.000000
    59 0.891927 2.373051 -0.014527 -3.141592 -0.000001 1.413797
    60 7.228122 5.709446 3.726568 3.140796 -1.570796 0.000000
  time 10
    0 1.214462 6.412262 38.298636 -0.018887 -0.005433 -1.773377
    1 -0.128583 1.046907 0.000000 -0.000027 -1.553363 -1.570772
    2 -0.000006 0.000008 4.427393 -0.221773 -3.164589 -0.045300
    3 18.465940 0.000000 0.000000 0.000000 0.000000 -0.469553
    4 14.875443 0.000000 -0.000001 -0.033690 0.040126 0.407009
    5 0.000006 -0.000004 -4.427393 0.168309 3.094465 -0.360272
    6 18.465940 0.000000 0.000000 0.000000 0.000000 -0.298044
    7 14.875443 0.000000 0.000000 -0.162159 -0.015610 -0.071158
    8 2.255207 -0.007574 0.039067 -0.097365 0.077635 0.014990
    9 9.514226 -0.009357 0.000000 -0.006268 0.014393 -0.065979
    10 2.450429 5.076128 0.001325 3.140791 -1.570796 0.000000
    11 6.312407 -4.528058 0.001311 3.140791 -1.570796 0.000000
    12 2.233310 1.152535 -7.309138 -1.161912 -1.550671 -0.852377
    13 11.751820 -0.001633 0.000000 0.024844 -0.063807 0.424376
    14 -2.176092 0.761102 -2.536441 -0.566262 1.192019 2.171095
    15 4.640942 0.000000 0.000000 -1.205395 -0.040084 1.395390
    16 10.828047 0.000000 0.000000 0.000000 0.000000 -2.050770
    17 9.393338 0.000000 0.000001 1.649587 -0.077784 0.397849
    18 1.442242 0.107453 1.746178 -1.937605 -0.475528 0.678328
    19 1.063451 0.000000 -0.000001 0.000000 0.000000 0.366503
    20 4.172844 -0.251366 1.312745 0.001190 -0.096055 0.052246
    21 1.215373 0.000000 0.000001 0.000000 0.000000 0.130840
    22 1.215372 0.000000 0.000001 0.000000 0.000000 1.151838
    23 4.220531 -0.244854 0.431466 0.001184 -0.026242 0.052329
    24 1.350417 0.000001 -0.000001 0.000000 0.000000 0.977335
    25 1.350410 -0.000001 0.000001 0.000000 0.000000 1.518389
    26 4.262825 -0.232720 -1.392178 0.001188 0.078478 0.052453
    27 -1.847957 0.897813 2.751295 1.397363 -1.378645 1.329358
    28 4.640942 0.000000 -0.000001 0.333871 1.270890 0.560720
    29 10.828047 0.000000 -0.000002 0.000000 0.000000 -0.687351
    30 9.393336 -0.000001 0.000000 -1.540218 0.081615 -0.024818
    31 1.442245 0.107453 -1.746177 1.701124 0.553398 0.347600
    32 1.063452 -0.000001 -0.000001 0.000000 0.000000 0.199055
    33 1.376307 -0.000001 0.000000 0.000000 0.000000 0.199027
    34 4.172847 -0.251366 -1.312744 0.008038 0.107344 0.148736
    35 1.215373 0.000001 0.000000 0.000000 0.000000 0.645758
    36 1.215371 -0.000001 0.000000 0.000000 0.000000 0.626117
    37 4.220535 -0.244855 -0.431465 0.001333 0.026242 0.148336
    38 1.350416 0.000000 0.000000 0.000000 0.000000 0.874782
    39 1.350410 -0.000001 -0.000001 0.000000 0.000000 0.831157
    40 4.237636 -0.195359 0.527090 -0.000369 -0.001290 0.245810
    41 1.215376 0.000001 0.000001 0.000000 0.000000 1.025330
    42 1.215371 0.000000 0.000000 0.000000 0.000000 0.948282
    43 4.262829 -0.232721 1.392178 -0.017691 -0.098685 0.235252
    44 1.012811 0.000000 0.000000 0.000000 0.000000 1.000585
    45 1.012809 -0.000001 0.000000 0.000000 0.000000 0.979527
    46 1.376306 -0.000001 0.000000 0.000000 0.000000 0.811538
    47 4.237632 -0.195359 -0.527090 0.001184 -0.008789 0.052350
    48 1.215375 0.000001 -0.000001 0.000000 0.000000 0.977335
    49 1.215371 0.000000 0.000001 0.000000 0.000000 1.518389
    50 1.012810 0.000001 0.000000 0.000000 0.000000 0.977335
    51 1.012810 -0.000001 0.000000 0.000000 0.000000 1.186755
    52 2.110540 0.000000 0.000000 0.140592 -0.071534 -0.188488
    53 5.253243 3.139475 -1.673515 2.984594 -1.570796 0.000000
    54 5.253259 3.139473 -0.054760 2.886997 -1.570796 0.000000
    55 5.253252 3.139468 1.574632 2.984594 -1.570796 0.000000
    56 4.598148 4.158443 -1.350299 2.984594 -1.570796 0.000000
    57 4.598139 4.158430 -0.054439 2.955206 -1.570796 0.000000
    58 4.598140 4.158430 1.240876 2.984594 -1.570796 0.000000
    59 0.891927 2.373051 -0.014527 -3.141592 -0.000001 1.413797
    60 7.228122 5.709446 3.726568 3.140796 -1.570796 0.000000
  time 11
    0 1.173945 6.412262 38.279105 -0.013902 -0.005817 -1.781046
    1 -0.112957 1.066439 0.000000 -0.000027 -1.549569 -1.570772
    2 -0.000006 0.000008 4.427393 -0.217286 -3.176404 -0.040362
    3 18.465940 0.000000 0.000000 0.000000 0.000000 -0.461000
    4 14.875443 0.000000 -0.000001 -0.046327 0.041680 0.403335
    5 0.000006 -0.000004 -4.427393 0.157784 3.087381 -0.370005
    6 18.465940 0.000000 0.000000 0.000000 0.000000 -0.318390
    7 14.875443 0.000000 0.000000 -0.162514 -0.015700 -0.060541
    8 2.255207 -0.007574 0.042973 -0.117253 0.076065 0.014064
    9 9.514226 -0.009357 0.000000 -0.004506 0.013435 -0.066567
    10 2.450429 5.076128 0.001325 3.140791 -1.570796 0.000000
    11 6.312407 -4.528058 0.001311 3.140791 -1.570796 0.000000
    12 2.233310 1.152535 -7.309138 -1.175622 -1.560544 -0.840122
    13 11.751820 -0.001633 0.000000 0.022387 -0.053500 0.426021
    14 -2.152654 0.772821 -2.559879 -0.602720 1.232443 2.130004
    15 4.640942 0.000000 0.000000 -1.274292 -0.146366 1.343666
    16 10.828047 0.000000 0.000000 0.000000 0.000000 -1.970152
    17 9.393338 0.000000 0.000001 1.704618 -0.024692 0.457108
    18 1.442242 0.107453 1.746178 -1.940878 -0.473898 0.683838
    19 1.063451 0.000000 -0.000001 0.000000 0.000000 0.367821
    20 4.172844 -0.251366 1.312745 0.001394 -0.096055 0.050042
    21 1.215373 0.000000 0.000001 0.000000 0.000000 0.118208
    22 1.215372 0.000000 0.000001 0.000000 0.000000 1.155573
    23 4.220531 -0.244854 0.431466 0.001232 -0.026242 0.050167
    24 1.350417 0.000001 -0.000001 0.000000 0.000000 0.973222
    25 1.350410 -0.000001 0.000001 0.000000 0.000000 1.522969
    26 4.262825 -0.232720 -1.392178 0.000828 0.078478 0.047876
    27 -1.871395 0.890000 2.731763 1.328235 -1.384592 1.396459
    28 4.640942 0.000000 -0.000001 0.278758 1.285630 0.510731
    29 10.828047 0.000000 -0.000002 0.000000 0.000000 -0.703763
    30 9.393336 -0.000001 0.000000 -1.546974 0.070546 -0.019201
    31 1.442245 0.107453 -1.746177 1.697677 0.550148 0.342510
    32 1.063452 -0.000001 -0.000001 0.000000 0.000000 0.199055
    33 1.376307 -0.000001 0.000000 0.000000 0.000000 0.199027
    34 4.172847 -0.251366 -1.312744 0.008038 0.104660 0.148736
    35 1.215373 0.000001 0.000000 0.000000 0.000000 0.645758
    36 1.215371 -0.000001 0.000000 0.000000 0.000000 0.630690
    37 4.220535 -0.244855 -0.431465 0.001333 0.026242 0.148336
    38 1.350416 0.000000 0.000000 0.000000 0.000000 0.872246
    39 1.350410 -0.000001 -0.000001 0.000000 0.000000 0.838746
    40 4.237636 -0.195359 0.527090 -0.000153 0.001071 0.249468
    41 1.215376 0.000001 0.000001 0.000000 0.000000 1.014192
    42 1.215371 0.000000 0.000000 0.000000 0.000000 0.955040
    43 4.262829 -0.232721 1.392178 -0.017523 -0.093580 0.239510
    44 1.012811 0.000000 0.000000 0.000000 0.000000 0.993163
    45 1.012809 -0.000001 0.000000 0.000000 0.000000 0.976983
    46 1.376306 -0.000001 0.000000 0.000000 0.000000 0.819996
    47 4.237632 -0.195359 -0.527090 0.001220 -0.008789 0.047579
    48 1.215375 0.000001 -0.000001 0.000000 0.000000 0.970662
    49 1.215371 0.000000 0.000001 0.000000 0.000000 1.520345
    50 1.012810 0.000001 0.000000 0.000000 0.000000 0.970872
    51 1.012810 -0.000001 0.000000 0.000000 0.000000 1.183692
    52 2.110540 0.000000 0.000000 0.164199 -0.085389 -0.190885
    53 5.253243 3.139475 -1.673515 2.984594 -1.570796 0.000000
    54 5.253259 3.139473 -0.054760 2.876860 -1.570796 0.000000
    55 5.253252 3.139468 1.574632 2.984594 -1.570796 0.000000
    56 4.598148 4.158443 -1.350299 2.984594 -1.570796 0.000000
    57 4.598139 4.158430 -0.054439 2.984594 -1.570796 0.000000
    58 4.598140 4.158430 1.240876 2.984594 -1.570796 0.000000
    59 0.891927 2.373051 -0.014527 -3.141592 -0.000001 1.413797
    60 7.228122 5.709446 3.726568 3.140796 -1.570796 0.000000
  time 12
    0 1.173945 6.412262 38.255666 -0.008820 -0.005944 -1.786511
    1 -0.101238 1.066439 0.000000 -0.000027 -1.540630 -1.570772
    2 -0.000006 0.000008 4.427393 -0.212513 -3.193243 -0.033530
    3 18.465940 0.000000 0.000000 0.000000 0.000000 -0.446744
    4 14.875443 0.000000 -0.000001 -0.056687 0.042616 0.395948
    5 0.000006 -0.000004 -4.427393 0.145347 3.074891 -0.382920
    6 18.465940 0.000000 0.000000 0.000000 0.000000 -0.345169
    7 14.875443 0.000000 0.000000 -0.160825 -0.015550 -0.046322
    8 2.255207 -0.007574 0.062505 -0.133529 0.068059 0.013237
    9 9.514226 -0.009357 0.000000 -0.002685 0.012212 -0.067252
    10 2.450429 5.076128 0.001325 3.140791 -1.570796 0.000000
    11 6.312407 -4.528058 0.001311 3.140791 -1.570796 0.000000
    12 2.233310 1.152535 -7.309138 -1.110334 -1.579155 -0.906949
    13 11.751820 -0.001633 0.000000 0.019894 -0.042990 0.427620
    14 -2.125309 0.780634 -2.579411 -0.659077 1.276331 2.068821
    15 4.640942 0.000000 0.000000 -1.346669 -0.284519 1.297682
    16 10.828047 0.000000 0.000000 0.000000 0.000000 -1.867696
    17 9.393338 0.000000 0.000001 1.786542 0.036729 0.538626
    18 1.442242 0.107453 1.746178 -1.950970 -0.469292 0.698720
    19 1.063451 0.000000 -0.000001 0.000000 0.000000 0.375183
    20 4.172844 -0.251366 1.312745 0.001801 -0.096055 0.045634
    21 1.215373 0.000000 0.000001 0.000000 0.000000 0.094580
    22 1.215372 0.000000 0.000001 0.000000 0.000000 1.177732
    23 4.220531 -0.244854 0.431466 0.001352 -0.026242 0.045763
    24 1.350417 0.000001 -0.000001 0.000000 0.000000 0.977629
    25 1.350410 -0.000001 0.000001 0.000000 0.000000 1.551593
    26 4.262825 -0.232720 -1.392178 0.000109 0.078478 0.038682
    27 -1.902646 0.886094 2.712231 1.250911 -1.389872 1.471611
    28 4.640942 0.000000 -0.000001 0.213428 1.297959 0.445053
    29 10.828047 0.000000 -0.000002 0.000000 0.000000 -0.717186
    30 9.393336 -0.000001 0.000000 -1.554713 0.057999 -0.012657
    31 1.442245 0.107453 -1.746177 1.693759 0.546446 0.336763
    32 1.063452 -0.000001 -0.000001 0.000000 0.000000 0.199055
    33 1.376307 -0.000001 0.000000 0.000000 0.000000 0.199027
    34 4.172847 -0.251366 -1.312744 0.008038 0.101580 0.148696
    35 1.215373 0.000001 0.000000 0.000000 0.000000 0.645758
    36 1.215371 -0.000001 0.000000 0.000000 0.000000 0.635876
    37 4.220535 -0.244855 -0.431465 0.001333 0.026242 0.148336
    38 1.350416 0.000000 0.000000 0.000000 0.000000 0.869376
    39 1.350410 -0.000001 -0.000001 0.000000 0.000000 0.847420
    40 4.237636 -0.195359 0.527090 0.000110 0.003743 0.253722
    41 1.215376 0.000001 0.000001 0.000000 0.000000 1.001553
    42 1.215371 0.000000 0.000000 0.000000 0.000000 0.962716
    43 4.262829 -0.232721 1.392178 -0.017307 -0.087762 0.244446
    44 1.012811 0.000000 0.000000 0.000000 0.000000 0.984739
    45 1.012809 -0.000001 0.000000 0.000000 0.000000 0.974106
    46 1.376306 -0.000001 0.000000 0.000000 0.000000 0.847308
    47 4.237632 -0.195359 -0.527090 0.001304 -0.008777 0.038037
    48 1.215375 0.000001 -0.000001 0.000000 0.000000 0.969865
    49 1.215371 0.000000 0.000001 0.000000 0.000000 1.543817
    50 1.012810 0.000001 0.000000 0.000000 0.000000 0.970410
    51 1.012810 -0.000001 0.000000 0.000000 0.000000 1.192589
    52 2.110540 0.000000 0.000000 0.184133 -0.097316 -0.192898
    53 5.253243 3.139475 -1.673515 2.984594 -1.570796 0.000000
    54 5.253259 3.139473 -0.054760 2.873507 -1.570796 0.000000
    55 5.253252 3.139468 1.574632 2.984594 -1.570796 0.000000
    56 4.598148 4.158443 -1.350299 2.984594 -1.570796 0.000000
    57 4.598139 4.158430 -0.054439 3.224665 -1.570796 0.000000
    58 4.598140 4.158430 1.240876 2.984594 -1.570796 0.000000
    59 0.891927 2.373051 -0.014527 -3.141592 -0.000001 1.413797
    60 7.228122 5.709446 3.726568 3.140796 -1.570796 0.000000
  time 13
    0 1.173945 6.412262 38.236135 -0.004218 -0.006008 -1.789579
    1 -0.089519 1.046907 0.000000 -0.000027 -1.530081 -1.570772
    2 -0.000006 0.000008 4.427393 -0.207740 -3.210454 -0.026498
    3 18.465940 0.000000 0.000000 0.000000 0.000000 -0.430880
    4 14.875443 0.000000 -0.000001 -0.064741 0.042957 0.387218
    5 0.000006 -0.000004 -4.427393 0.132143 3.061562 -0.395741
    6 18.465940 0.000000 0.000000 0.000000 0.000000 -0.371554
    7 14.875443 0.000000 0.000000 -0.157047 -0.015158 -0.032179
    8 2.255207 -0.007574 0.085943 -0.144134 0.056590 0.012509
    9 9.514226 -0.009357 0.000000 -0.001031 0.010942 -0.068198
    10 2.450429 5.076128 0.001325 3.140791 -1.570796 0.000000
    11 6.312407 -4.528058 0.001311 3.140791 -1.570796 0.000000
    12 2.233310 1.152535 -7.309138 -1.132193 -1.594212 -0.887130
    13 11.751820 -0.001633 0.000000 0.017390 -0.032276 0.429264
    14 -2.101871 0.792353 -2.598943 -0.738389 1.317863 1.984828
    15 4.640942 0.000000 0.000000 -1.411303 -0.436341 1.265346
    16 10.828047 0.000000 0.000000 0.000000 0.000000 -1.752230
    17 9.393338 0.000000 0.000001 1.874526 0.092196 0.617962
    18 1.442242 0.107453 1.746178 -1.959607 -0.465359 0.710924
    19 1.063451 0.000000 -0.000001 0.000000 0.000000 0.381854
    20 4.172844 -0.251366 1.312745 0.002137 -0.096043 0.042349
    21 1.215373 0.000000 0.000001 0.000000 0.000000 0.077205
    22 1.215372 0.000000 0.000001 0.000000 0.000000 1.198045
    23 4.220531 -0.244854 0.431466 0.001436 -0.026230 0.042480
    24 1.350417 0.000001 -0.000001 0.000000 0.000000 0.984008
    25 1.350410 -0.000001 0.000001 0.000000 0.000000 1.577927
    26 4.262825 -0.232720 -1.392178 -0.000430 0.078478 0.031757
    27 -1.926084 0.886094 2.692699 1.169869 -1.394007 1.550406
    28 4.640942 0.000000 -0.000001 0.159249 1.305742 0.386224
    29 10.828047 0.000000 -0.000002 0.000000 0.000000 -0.725849
    30 9.393336 -0.000001 0.000000 -1.562050 0.046236 -0.006454
    31 1.442245 0.107453 -1.746177 1.690124 0.542880 0.331406
    32 1.063452 -0.000001 -0.000001 0.000000 0.000000 0.199055
    33 1.376307 -0.000001 0.000000 0.000000 0.000000 0.199027
    34 4.172847 -0.251366 -1.312744 0.008038 0.098704 0.148696
    35 1.215373 0.000001 0.000000 0.000000 0.000000 0.645758
    36 1.215371 -0.000001 0.000000 0.000000 0.000000 0.640694
    37 4.220535 -0.244855 -0.431465 0.001333 0.026242 0.148336
    38 1.350416 0.000000 0.000000 0.000000 0.000000 0.866697
    39 1.350410 -0.000001 -0.000001 0.000000 0.000000 0.855510
    40 4.237636 -0.195359 0.527090 0.000386 0.006248 0.257658
    41 1.215376 0.000001 0.000001 0.000000 0.000000 0.989664
    42 1.215371 0.000000 0.000000 0.000000 0.000000 0.969891
    43 4.262829 -0.232721 1.392178 -0.017092 -0.082282 0.249023
    44 1.012811 0.000000 0.000000 0.000000 0.000000 0.976816
    45 1.012809 -0.000001 0.000000 0.000000 0.000000 0.971395
    46 1.376306 -0.000001 0.000000 0.000000 0.000000 0.870380
    47 4.237632 -0.195359 -0.527090 0.001364 -0.008765 0.030841
    48 1.215375 0.000001 -0.000001 0.000000 0.000000 0.972341
    49 1.215371 0.000000 0.000001 0.000000 0.000000 1.566239
    50 1.012810 0.000001 0.000000 0.000000 0.000000 0.973222
    51 1.012810 -0.000001 0.000000 0.000000 0.000000 1.203165
    52 2.110540 0.000000 0.000000 0.198870 -0.106562 -0.194048
    53 5.253243 3.139475 -1.673515 2.984594 -1.570796 0.000000
    54 5.253259 3.139473 -0.054760 2.877323 -1.570796 0.000000
    55 5.253252 3.139468 1.574632 2.984594 -1.570796 0.000000
    56 4.598148 4.158443 -1.350299 2.984594 -1.570796 0.000000
    57 4.598139 4.158430 -0.054439 3.447066 -1.570796 0.000000
    58 4.598140 4.158430 1.240876 2.984594 -1.570796 0.000000
    59 0.891927 2.373051 -0.014527 -3.141592 -0.000001 1.413797
    60 7.228122 5.709446 3.726568 3.140796 -1.570796 0.000000
  time 14
    0 1.173945 6.412262 38.224415 -0.000288 -0.005881 -1.790346
    1 -0.077800 1.003937 0.000000 -0.000027 -1.521501 -1.570772
    2 -0.000006 0.000008 4.427393 -0.202585 -3.223944 -0.021161
    3 18.465940 0.000000 0.000000 0.000000 0.000000 -0.418233
    4 14.875443 0.000000 -0.000001 -0.070490 0.042616 0.379791
    5 0.000006 -0.000004 -4.427393 0.119993 3.051123 -0.405942
    6 18.465940 0.000000 0.000000 0.000000 0.000000 -0.392360
    7 14.875443 0.000000 0.000000 -0.151091 -0.014675 -0.020924
    8 2.255207 -0.007574 0.105475 -0.147116 0.044666 0.011880
    9 9.514226 -0.009357 0.000000 0.000120 0.009684 -0.069667
    10 2.450429 5.076128 0.001325 3.140791 -1.570796 0.000000
    11 6.312407 -4.528058 0.001311 3.140791 -1.570796 0.000000
    12 2.233310 1.152535 -7.309138 -1.136890 -1.614221 -0.884450
    13 11.751820 -0.001633 0.000000 0.014861 -0.021429 0.430863
    14 -2.070620 0.800166 -2.618475 -0.838168 1.351685 1.881319
    15 4.640942 0.000000 0.000000 -1.456925 -0.581748 1.246728
    16 10.828047 0.000000 0.000000 0.000000 0.000000 -1.632582
    17 9.393338 0.000000 0.000001 1.942706 0.135106 0.666359
    18 1.442242 0.107453 1.746178 -1.958061 -0.466202 0.708195
    19 1.063451 0.000000 -0.000001 0.000000 0.000000 0.381195
    20 4.172844 -0.251366 1.312745 0.002029 -0.096043 0.043430
    21 1.215373 0.000000 0.000001 0.000000 0.000000 0.083542
    22 1.215372 0.000000 0.000001 0.000000 0.000000 1.196156
    23 4.220531 -0.244854 0.431466 0.001412 -0.026242 0.043561
    24 1.350417 0.000001 -0.000001 0.000000 0.000000 0.986022
    25 1.350410 -0.000001 0.000001 0.000000 0.000000 1.575638
    26 4.262825 -0.232720 -1.392178 -0.000238 0.078478 0.034105
    27 -1.953429 0.878281 2.673167 1.090724 -1.396838 1.627283
    28 4.640942 0.000000 -0.000001 0.141320 1.308290 0.360469
    29 10.828047 0.000000 -0.000002 0.000000 0.000000 -0.728473
    30 9.393336 -0.000001 0.000000 -1.567508 0.037550 -0.001814
    31 1.442245 0.107453 -1.746177 1.687460 0.540262 0.327445
    32 1.063452 -0.000001 -0.000001 0.000000 0.000000 0.199055
    33 1.376307 -0.000001 0.000000 0.000000 0.000000 0.199027
    34 4.172847 -0.251366 -1.312744 0.008038 0.096546 0.148656
    35 1.215373 0.000001 0.000000 0.000000 0.000000 0.645758
    36 1.215371 -0.000001 0.000000 0.000000 0.000000 0.644288
    37 4.220535 -0.244855 -0.431465 0.001333 0.026242 0.148336
    38 1.350416 0.000000 0.000000 0.000000 0.000000 0.864688
    39 1.350410 -0.000001 -0.000001 0.000000 0.000000 0.861556
    40 4.237636 -0.195359 0.527090 0.000578 0.008130 0.260600
    41 1.215376 0.000001 0.000001 0.000000 0.000000 0.980820
    42 1.215371 0.000000 0.000000 0.000000 0.000000 0.975272
    43 4.262829 -0.232721 1.392178 -0.016912 -0.078265 0.252366
    44 1.012811 0.000000 0.000000 0.000000 0.000000 0.970895
    45 1.012809 -0.000001 0.000000 0.000000 0.000000 0.969393
    46 1.376306 -0.000001 0.000000 0.000000 0.000000 0.866163
    47 4.237632 -0.195359 -0.527090 0.001352 -0.008765 0.033266
    48 1.215375 0.000001 -0.000001 0.000000 0.000000 0.975656
    49 1.215371 0.000000 0.000001 0.000000 0.000000 1.565237
    50 1.012810 0.000001 0.000000 0.000000 0.000000 0.976496
    51 1.012810 -0.000001 0.000000 0.000000 0.000000 1.204718
    52 2.110540 0.000000 0.000000 0.206786 -0.112399 -0.193856
    53 5.253243 3.139475 -1.673515 2.984594 -1.570796 0.000000
    54 5.253259 3.139473 -0.054760 2.886920 -1.570796 0.000000
    55 5.253252 3.139468 1.574632 2.984594 -1.570796 0.000000
    56 4.598148 4.158443 -1.350299 2.984594 -1.570796 0.000000
    57 4.598139 4.158430 -0.054439 3.232334 -1.570796 0.000000
    58 4.598140 4.158430 1.240876 2.984594 -1.570796 0.000000
    59 0.891927 2.373051 -0.014527 -3.141592 -0.000001 1.413797
    60 7.228122 5.709446 3.726568 3.140796 -1.570796 0.000000
  time 15
    0 1.214462 6.439776 38.212696 0.002493 -0.005689 -1.788812
    1 -0.066081 0.929716 0.000000 -0.000027 -1.518483 -1.570772
    2 -0.000006 0.000008 4.427393 -0.197621 -3.229526 -0.019964
    3 18.465940 0.000000 0.000000 0.000000 0.000000 -0.413920
    4 14.875443 0.000000 -0.000001 -0.073963 0.041637 0.376710
    5 0.000006 -0.000004 -4.427393 0.110904 3.047208 -0.411370
    6 18.465940 0.000000 0.000000 0.000000 0.000000 -0.403453
    7 14.875443 0.000000 0.000000 -0.142956 -0.014133 -0.014696
    8 2.255207 -0.007574 0.113288 -0.140459 0.035234 0.011483
    9 9.514226 -0.009357 0.000000 0.000527 0.008629 -0.071820
    10 2.450429 5.076128 0.001325 3.140791 -1.570796 0.000000
    11 6.312407 -4.528058 0.001311 3.140791 -1.570796 0.000000
    12 2.233310 1.152535 -7.309138 -1.137657 -1.613231 -0.885694
    13 11.751820 -0.001633 0.000000 0.012320 -0.010500 0.432416
    14 -2.039369 0.811885 -2.641913 -0.940648 1.373225 1.776245
    15 4.640942 0.000000 0.000000 -1.468097 -0.699955 1.233290
    16 10.828047 0.000000 0.000000 0.000000 0.000000 -1.517580
    17 9.393338 0.000000 0.000001 1.962349 0.163507 0.652005
    18 1.442242 0.107453 1.746178 -1.937605 -0.475528 0.678328
    19 1.063451 0.000000 -0.000001 0.000000 0.000000 0.366503
    20 4.172844 -0.251366 1.312745 0.001190 -0.096055 0.052246
    21 1.215373 0.000000 0.000001 0.000000 0.000000 0.130840
    22 1.215372 0.000000 0.000001 0.000000 0.000000 1.151838
    23 4.220531 -0.244854 0.431466 0.001184 -0.026242 0.052329
    24 1.350417 0.000001 -0.000001 0.000000 0.000000 0.977335
    25 1.350410 -0.000001 0.000001 0.000000 0.000000 1.518389
    26 4.262825 -0.232720 -1.392178 0.001188 0.078478 0.052453
    27 -1.984680 0.878281 2.657542 1.019395 -1.398476 1.696205
    28 4.640942 0.000000 -0.000001 0.182925 1.304502 0.392312
    29 10.828047 0.000000 -0.000002 0.000000 0.000000 -0.723531
    30 9.393336 -0.000001 0.000000 -1.569611 0.034172 0.000042
    31 1.442245 0.107453 -1.746177 1.686425 0.539224 0.325885
    32 1.063452 -0.000001 -0.000001 0.000000 0.000000 0.199055
    33 1.376307 -0.000001 0.000000 0.000000 0.000000 0.199027
    34 4.172847 -0.251366 -1.312744 0.008038 0.095731 0.148656
    35 1.215373 0.000001 0.000000 0.000000 0.000000 0.645758
    36 1.215371 -0.000001 0.000000 0.000000 0.000000 0.645758
    37 4.220535 -0.244855 -0.431465 0.001333 0.026242 0.148336
    38 1.350416 0.000000 0.000000 0.000000 0.000000 0.863875
    39 1.350410 -0.000001 -0.000001 0.000000 0.000000 0.863891
    40 4.237636 -0.195359 0.527090 0.000662 0.008837 0.261753
    41 1.215376 0.000001 0.000001 0.000000 0.000000 0.977358
    42 1.215371 0.000000 0.000000 0.000000 0.000000 0.977358
    43 4.262829 -0.232721 1.392178 -0.016840 -0.076676 0.253759
    44 1.012811 0.000000 0.000000 0.000000 0.000000 0.968601
    45 1.012809 -0.000001 0.000000 0.000000 0.000000 0.968601
    46 1.376306 -0.000001 0.000000 0.000000 0.000000 0.811538
    47 4.237632 -0.195359 -0.527090 0.001184 -0.008789 0.052350
    48 1.215375 0.000001 -0.000001 0.000000 0.000000 0.977335
    49 1.215371 0.000000 0.000001 0.000000 0.000000 1.518389
    50 1.012810 0.000001 0.000000 0.000000 0.000000 0.977335
    51 1.012810 -0.000001 0.000000 0.000000 0.000000 1.186755
    52 2.110540 0.000000 0.000000 0.206309 -0.114075 -0.191795
    53 5.253243 3.139475 -1.673515 2.984594 -1.570796 0.000000
    54 5.253259 3.139473 -0.054760 2.900797 -1.570796 0.000000
    55 5.253252 3.139468 1.574632 2.984594 -1.570796 0.000000
    56 4.598148 4.158443 -1.350299 2.984594 -1.570796 0.000000
    57 4.598139 4.158430 -0.054439 2.984594 -1.570796 0.000000
    58 4.598140 4.158430 1.240876 2.984594 -1.570796 0.000000
    59 0.891927 2.373051 -0.014527 -3.141592 -0.000001 1.413797
    60 7.228122 5.709446 3.726568 3.140796 -1.570796 0.000000
  time 16
    0 1.254978 6.439776 38.216603 0.003931 -0.005050 -1.780855
    1 -0.046549 0.792993 0.000000 -0.000027 -1.559083 -1.570772
    2 -0.000006 0.000008 4.427393 -0.192466 -3.183754 -0.042357
    3 18.465940 0.000000 0.000000 0.000000 0.000000 -0.463632
    4 14.875443 0.000000 -0.000001 -0.071202 0.039317 0.403533
    5 0.000006 -0.000004 -4.427393 0.121811 3.088033 -0.384979
    6 18.465940 0.000000 0.000000 0.000000 0.000000 -0.349501
    7 14.875443 0.000000 0.000000 -0.128510 -0.013289 -0.042533
    8 2.255207 -0.007574 0.019535 -0.113389 0.063002 0.011086
    9 9.514226 -0.009357 0.000000 -0.000156 0.007574 -0.075214
    10 2.450429 5.076128 0.001325 3.140791 -1.570796 0.000000
    11 6.312407 -4.528058 0.001311 3.140791 -1.570796 0.000000
    12 2.233310 1.152535 -7.309138 -1.152996 -1.564505 -0.873152
    13 11.751820 -0.001633 0.000000 0.009791 0.000418 0.433969
    14 -2.008118 0.815791 -2.657539 -0.931196 1.345683 1.788680
    15 4.640942 0.000000 0.000000 -1.282231 -0.679592 1.162738
    16 10.828047 0.000000 0.000000 0.000000 0.000000 -1.437137
    17 9.393338 0.000000 0.000001 1.765222 0.109959 0.333110
    18 1.442242 0.107453 1.746178 -1.819869 -0.516146 0.511073
    19 1.063451 0.000000 -0.000001 0.000000 0.000000 0.285169
    20 4.172844 -0.251366 1.312745 -0.003280 -0.096007 0.099049
    21 1.215373 0.000000 0.000001 0.000000 0.000000 0.380970
    22 1.215372 0.000000 0.000001 0.000000 0.000000 0.906031
    23 4.220531 -0.244854 0.431466 -0.000026 -0.026266 0.098931
    24 1.350417 0.000001 -0.000001 0.000000 0.000000 0.922231
    25 1.350410 -0.000001 0.000001 0.000000 0.000000 1.200471
    26 4.262825 -0.232720 -1.392178 0.008822 0.078011 0.150161
    27 -2.012025 0.874375 2.641916 0.953757 -1.399239 1.759375
    28 4.640942 0.000000 -0.000001 0.291726 1.287283 0.478185
    29 10.828047 0.000000 -0.000002 0.000000 0.000000 -0.699248
    30 9.393336 -0.000001 0.000000 -1.569611 0.034172 0.000042
    31 1.442245 0.107453 -1.746177 1.686425 0.539224 0.325885
    32 1.063452 -0.000001 -0.000001 0.000000 0.000000 0.199055
    33 1.376307 -0.000001 0.000000 0.000000 0.000000 0.199027
    34 4.172847 -0.251366 -1.312744 0.008038 0.095731 0.148656
    35 1.215373 0.000001 0.000000 0.000000 0.000000 0.645758
    36 1.215371 -0.000001 0.000000 0.000000 0.000000 0.645758
    37 4.220535 -0.244855 -0.431465 0.001333 0.026242 0.148336
    38 1.350416 0.000000 0.000000 0.000000 0.000000 0.863875
    39 1.350410 -0.000001 -0.000001 0.000000 0.000000 0.863891
    40 4.237636 -0.195359 0.527090 0.000662 0.008837 0.261753
    41 1.215376 0.000001 0.000001 0.000000 0.000000 0.977358
    42 1.215371 0.000000 0.000000 0.000000 0.000000 0.977358
    43 4.262829 -0.232721 1.392178 -0.016840 -0.076676 0.253759
    44 1.012811 0.000000 0.000000 0.000000 0.000000 0.968601
    45 1.012809 -0.000001 0.000000 0.000000 0.000000 0.968601
    46 1.376306 -0.000001 0.000000 0.000000 0.000000 0.514056
    47 4.237632 -0.195359 -0.527090 0.000285 -0.008861 0.154050
    48 1.215375 0.000001 -0.000001 0.000000 0.000000 0.977335
    49 1.215371 0.000000 0.000001 0.000000 0.000000 1.255573
    50 1.012810 0.000001 0.000000 0.000000 0.000000 0.973096
    51 1.012810 -0.000001 0.000000 0.000000 0.000000 1.080786
    52 2.110540 0.000000 0.000000 0.188235 -0.106366 -0.186188
    53 5.253243 3.139475 -1.673515 2.984594 -1.570796 0.000000
    54 5.253259 3.139473 -0.054760 2.917564 -1.570796 0.000000
    55 5.253252 3.139468 1.574632 2.984594 -1.570796 0.000000
    56 4.598148 4.158443 -1.350299 2.984594 -1.570796 0.000000
    57 4.598139 4.158430 -0.054439 2.942323 -1.570796 0.000000
    58 4.598140 4.158430 1.240876 2.984594 -1.570796 0.000000
    59 0.891927 2.373051 -0.014527 -3.141592 -0.000001 1.413797
    60 7.228122 5.709446 3.726568 3.140796 -1.570796 0.000000
  time 17
    0 1.376527 6.467291 38.240041 0.003547 -0.003963 -1.764652
    1 -0.023111 0.589862 0.000000 -0.000027 -1.566255 -1.570772
    2 -0.000006 0.000008 4.427393 -0.186452 -3.170357 -0.048741
    3 18.465940 0.000000 0.000000 0.000000 0.000000 -0.471892
    4 14.875443 0.000000 -0.000001 -0.060500 0.034507 0.405350
    5 0.000006 -0.000004 -4.427393 0.118558 3.096795 -0.377492
    6 18.465940 0.000000 0.000000 0.000000 0.000000 -0.335718
    7 14.875443 0.000000 0.000000 -0.106107 -0.011540 -0.047898
    8 2.255207 -0.007574 0.007816 -0.064141 0.050023 0.010193
    9 9.514226 -0.009357 0.000000 -0.001882 0.006376 -0.079847
    10 2.450429 5.076128 0.001325 3.140791 -1.570796 0.000000
    11 6.312407 -4.528058 0.001311 3.140791 -1.570796 0.000000
    12 2.233310 1.152535 -7.309138 -1.147915 -1.552709 -0.880524
    13 11.751820 -0.001633 0.000000 0.007299 0.011360 0.435522
    14 -1.976867 0.831417 -2.677070 -0.888129 1.319433 1.835452
    15 4.640942 0.000000 0.000000 -1.072793 -0.652951 1.083648
    16 10.828047 0.000000 0.000000 0.000000 0.000000 -1.283279
    17 9.393338 0.000000 0.000001 1.569611 -0.034191 0.000006
    18 1.442242 0.107453 1.746178 -1.686405 -0.539236 0.325847
    19 1.063451 0.000000 -0.000001 0.000000 0.000000 0.199061
    20 4.172844 -0.251366 1.312745 -0.008038 -0.095731 0.148656
    21 1.215373 0.000000 0.000001 0.000000 0.000000 0.645746
    22 1.215372 0.000000 0.000001 0.000000 0.000000 0.645746
    23 4.220531 -0.244854 0.431466 -0.001333 -0.026242 0.148336
    24 1.350417 0.000001 -0.000001 0.000000 0.000000 0.863895
    25 1.350410 -0.000001 0.000001 0.000000 0.000000 0.863900
    26 4.262825 -0.232720 -1.392178 0.016840 0.076668 0.253759
    27 -2.039369 0.866562 2.626291 0.887815 -1.399303 1.822833
    28 4.640942 0.000000 -0.000001 0.430245 1.251949 0.574242
    29 10.828047 0.000000 -0.000002 0.000000 0.000000 -0.652025
    30 9.393336 -0.000001 0.000000 -1.569611 0.034172 0.000042
    31 1.442245 0.107453 -1.746177 1.686425 0.539224 0.325885
    32 1.063452 -0.000001 -0.000001 0.000000 0.000000 0.199055
    33 1.376307 -0.000001 0.000000 0.000000 0.000000 0.199027
    34 4.172847 -0.251366 -1.312744 0.008038 0.095731 0.148656
    35 1.215373 0.000001 0.000000 0.000000 0.000000 0.645758
    36 1.215371 -0.000001 0.000000 0.000000 0.000000 0.645758
    37 4.220535 -0.244855 -0.431465 0.001333 0.026242 0.148336
    38 1.350416 0.000000 0.000000 0.000000 0.000000 0.863875
    39 1.350410 -0.000001 -0.000001 0.000000 0.000000 0.863891
    40 4.237636 -0.195359 0.527090 0.000662 0.008837 0.261753
    41 1.215376 0.000001 0.000001 0.000000 0.000000 0.977358
    42 1.215371 0.000000 0.000000 0.000000 0.000000 0.977358
    43 4.262829 -0.232721 1.392178 -0.016840 -0.076676 0.253759
    44 1.012811 0.000000 0.000000 0.000000 0.000000 0.968601
    45 1.012809 -0.000001 0.000000 0.000000 0.000000 0.968601
    46 1.376306 -0.000001 0.000000 0.000000 0.000000 0.199052
    47 4.237632 -0.195359 -0.527090 -0.000662 -0.008837 0.261752
    48 1.215375 0.000001 -0.000001 0.000000 0.000000 0.977335
    49 1.215371 0.000000 0.000001 0.000000 0.000000 0.977347
    50 1.012810 0.000001 0.000000 0.000000 0.000000 0.968648
    51 1.012810 -0.000001 0.000000 0.000000 0.000000 0.968648
    52 2.110540 0.000000 0.000000 0.150035 -0.087540 -0.177320
    53 5.253243 3.139475 -1.673515 2.984594 -1.570796 0.000000
    54 5.253259 3.139473 -0.054760 2.935757 -1.570796 0.000000
    55 5.253252 3.139468 1.574632 2.984594 -1.570796 0.000000
    56 4.598148 4.158443 -1.350299 2.984594 -1.570796 0.000000
    57 4.598139 4.158430 -0.054439 2.937046 -1.570796 0.000000
    58 4.598140 4.158430 1.240876 2.984594 -1.570796 0.000000
    59 0.891927 2.373051 -0.014527 -3.141592 -0.000001 1.413797
    60 7.228122 5.709446 3.726568 3.140796 -1.570796 0.000000
  time 18
    0 1.477819 6.467291 38.279105 0.002397 -0.002685 -1.743656
    1 0.027672 0.339854 0.000000 -0.000027 -1.568726 -1.570772
    2 -0.000006 0.000008 4.427393 -0.180438 -3.159937 -0.052681
    3 18.465940 0.000000 0.000000 0.000000 0.000000 -0.473574
    4 14.875443 0.000000 -0.000001 -0.044989 0.028420 0.403098
    5 0.000006 -0.000004 -4.427393 0.114348 3.101176 -0.371596
    6 18.465940 0.000000 0.000000 0.000000 0.000000 -0.326988
    7 14.875443 0.000000 0.000000 -0.079660 -0.009340 -0.049474
    8 2.255207 -0.007574 0.000003 -0.002062 0.028259 0.007843
    9 9.514226 -0.009357 0.000000 -0.004195 0.005046 -0.085199
    10 2.450429 5.076128 0.001325 3.140791 -1.570796 0.000000
    11 6.312407 -4.528058 0.001311 3.140791 -1.570796 0.000000
    12 2.233310 1.152535 -7.309138 -1.148874 -1.546127 -0.881865
    13 11.751820 -0.001633 0.000000 0.004830 0.022242 0.437075
    14 -1.945616 0.835323 -2.692696 -0.890474 1.353555 1.828617
    15 4.640942 0.000000 0.000000 -0.986010 -0.801844 0.981810
    16 10.828047 0.000000 0.000000 0.000000 0.000000 -0.974865
    17 9.393338 0.000000 0.000001 1.542393 -0.062982 -0.053434
    18 1.442242 0.107453 1.746178 -1.662767 -0.541090 0.293302
    19 1.063451 0.000000 -0.000001 0.000000 0.000000 0.184144
    20 4.172844 -0.251366 1.312745 -0.008853 -0.095671 0.157231
    21 1.215373 0.000000 0.000001 0.000000 0.000000 0.691533
    22 1.215372 0.000000 0.000001 0.000000 0.000000 0.600714
    23 4.220531 -0.244854 0.431466 -0.001548 -0.026230 0.156863
    24 1.350417 0.000001 -0.000001 0.000000 0.000000 0.853781
    25 1.350410 -0.000001 0.000001 0.000000 0.000000 0.805698
    26 4.262825 -0.232720 -1.392178 0.018194 0.076369 0.271629
    27 -2.070620 0.866562 2.606759 0.822709 -1.398651 1.885620
    28 4.640942 0.000000 -0.000001 0.559431 1.202083 0.650281
    29 10.828047 0.000000 -0.000002 0.000000 0.000000 -0.591501
    30 9.393336 -0.000001 0.000000 -1.569611 0.034172 0.000042
    31 1.442245 0.107453 -1.746177 1.686425 0.539224 0.325885
    32 1.063452 -0.000001 -0.000001 0.000000 0.000000 0.199055
    33 1.376307 -0.000001 0.000000 0.000000 0.000000 0.199027
    34 4.172847 -0.251366 -1.312744 0.008038 0.095731 0.148656
    35 1.215373 0.000001 0.000000 0.000000 0.000000 0.645758
    36 1.215371 -0.000001 0.000000 0.000000 0.000000 0.645758
    37 4.220535 -0.244855 -0.431465 0.001333 0.026242 0.148336
    38 1.350416 0.000000 0.000000 0.000000 0.000000 0.863875
    39 1.350410 -0.000001 -0.000001 0.000000 0.000000 0.863891
    40 4.237636 -0.195359 0.527090 0.000662 0.008837 0.261753
    41 1.215376 0.000001 0.000001 0.000000 0.000000 0.977358
    42 1.215371 0.000000 0.000000 0.000000 0.000000 0.977358
    43 4.262829 -0.232721 1.392178 -0.016840 -0.076676 0.253759
    44 1.012811 0.000000 0.000000 0.000000 0.000000 0.968601
    45 1.012809 -0.000001 0.000000 0.000000 0.000000 0.968601
    46 1.376306 -0.000001 0.000000 0.000000 0.000000 0.144645
    47 4.237632 -0.195359 -0.527090 -0.000817 -0.008825 0.280399
    48 1.215375 0.000001 -0.000001 0.000000 0.000000 0.977335
    49 1.215371 0.000000 0.000001 0.000000 0.000000 0.929258
    50 1.012810 0.000001 0.000000 0.000000 0.000000 0.967808
    51 1.012810 -0.000001 0.000000 0.000000 0.000000 0.949216
    52 2.110540 0.000000 0.000000 0.100579 -0.062149 -0.167926
    53 5.253243 3.139475 -1.673515 2.984594 -1.570796 0.000000
    54 5.253259 3.139473 -0.054760 2.953951 -1.570796 0.000000
    55 5.253252 3.139468 1.574632 2.984594 -1.570796 0.000000
    56 4.598148 4.158443 -1.350299 2.984594 -1.570796 0.000000
    57 4.598139 4.158430 -0.054439 2.952936 -1.570796 0.000000
    58 4.598140 4.158430 1.240876 2.984594 -1.570796 0.000000
    59 0.891927 2.373051 -0.014527 -3.141592 -0.000001 1.413797
    60 7.228122 5.709446 3.726568 3.140796 -1.570796 0.000000
  time 19
    0 1.579110 6.522321 38.314262 0.000863 -0.001214 -1.721509
    1 0.090174 0.093753 0.000000 -0.000027 -1.569258 -1.570772
    2 -0.000006 0.000008 4.427393 -0.175092 -3.151192 -0.054826
    3 18.465940 0.000000 0.000000 0.000000 0.000000 -0.471600
    4 14.875443 0.000000 -0.000001 -0.027713 0.022013 0.399306
    5 0.000006 -0.000004 -4.427393 0.110330 3.103226 -0.366636
    6 18.465940 0.000000 0.000000 0.000000 0.000000 -0.322197
    7 14.875443 0.000000 0.000000 -0.052945 -0.007079 -0.048011
    8 2.255207 -0.007574 0.000003 0.063167 0.003774 0.003807
    9 9.514226 -0.009357 0.000000 -0.006627 0.003667 -0.090713
    10 2.450429 5.076128 0.001325 3.140791 -1.570796 0.000000
    11 6.312407 -4.528058 0.001311 3.140791 -1.570796 0.000000
    12 2.233310 1.152535 -7.309138 -1.150312 -1.541671 -0.882535
    13 11.751820 -0.001633 0.000000 0.002409 0.033005 0.438491
    14 -1.922178 0.847042 -2.712228 -0.907246 1.407485 1.805231
    15 4.640942 0.000000 0.000000 -0.869678 -1.004855 0.816210
    16 10.828047 0.000000 0.000000 0.000000 0.000000 -0.604536
    17 9.393338 0.000000 0.000001 1.555867 -0.048408 -0.026763
    18 1.442242 0.107453 1.746178 -1.674586 -0.540191 0.309626
    19 1.063451 0.000000 -0.000001 0.000000 0.000000 0.191586
    20 4.172844 -0.251366 1.312745 -0.008458 -0.095695 0.152944
    21 1.215373 0.000000 0.000001 0.000000 0.000000 0.668576
    22 1.215372 0.000000 0.000001 0.000000 0.000000 0.623251
    23 4.220531 -0.244854 0.431466 -0.001441 -0.026230 0.152619
    24 1.350417 0.000001 -0.000001 0.000000 0.000000 0.858817
    25 1.350410 -0.000001 0.000001 0.000000 0.000000 0.834799
    26 4.262825 -0.232720 -1.392178 0.017523 0.076525 0.262674
    27 -2.094058 0.862655 2.587227 0.758892 -1.397331 1.947064
    28 4.640942 0.000000 -0.000001 0.662780 1.145053 0.698280
    29 10.828047 0.000000 -0.000002 0.000000 0.000000 -0.527682
    30 9.393336 -0.000001 0.000000 -1.569611 0.034172 0.000042
    31 1.442245 0.107453 -1.746177 1.686425 0.539224 0.325885
    32 1.063452 -0.000001 -0.000001 0.000000 0.000000 0.199055
    33 1.376307 -0.000001 0.000000 0.000000 0.000000 0.199027
    34 4.172847 -0.251366 -1.312744 0.008038 0.095731 0.148656
    35 1.215373 0.000001 0.000000 0.000000 0.000000 0.645758
    36 1.215371 -0.000001 0.000000 0.000000 0.000000 0.645758
    37 4.220535 -0.244855 -0.431465 0.001333 0.026242 0.148336
    38 1.350416 0.000000 0.000000 0.000000 0.000000 0.863875
    39 1.350410 -0.000001 -0.000001 0.000000 0.000000 0.863891
    40 4.237636 -0.195359 0.527090 0.000662 0.008837 0.261753
    41 1.215376 0.000001 0.000001 0.000000 0.000000 0.977358
    42 1.215371 0.000000 0.000000 0.000000 0.000000 0.977358
    43 4.262829 -0.232721 1.392178 -0.016840 -0.076676 0.253759
    44 1.012811 0.000000 0.000000 0.000000 0.000000 0.968601
    45 1.012809 -0.000001 0.000000 0.000000 0.000000 0.968601
    46 1.376306 -0.000001 0.000000 0.000000 0.000000 0.171836
    47 4.237632 -0.195359 -0.527090 -0.000746 -0.008825 0.271056
    48 1.215375 0.000001 -0.000001 0.000000 0.000000 0.977335
    49 1.215371 0.000000 0.000001 0.000000 0.000000 0.953303
    50 1.012810 0.000001 0.000000 0.000000 0.000000 0.968270
    51 1.012810 -0.000001 0.000000 0.000000 0.000000 0.958911
    52 2.110540 0.000000 0.000000 0.048597 -0.034859 -0.159730
    53 5.253243 3.139475 -1.673515 2.984594 -1.570796 0.000000
    54 5.253259 3.139473 -0.054760 2.970718 -1.570796 0.000000
    55 5.253252 3.139468 1.574632 2.984594 -1.570796 0.000000
    56 4.598148 4.158443 -1.350299 2.984594 -1.570796 0.000000
    57 4.598139 4.158430 -0.054439 2.974042 -1.570796 0.000000
    58 4.598140 4.158430 1.240876 2.984594 -1.570796 0.000000
    59 0.891927 2.373051 -0.014527 -3.141592 -0.000001 1.413797
    60 7.228122 5.709446 3.726568 3.140796 -1.570796 0.000000
  time 20
    0 1.700659 6.549836 38.337700 0.000000 0.000000 -1.701759
    1 0.164395 -0.125004 0.000000 -1.570795 -1.570451 0.000000
    2 -0.000006 0.000008 4.427393 -0.170987 -3.142726 -0.056022
    3 18.465940 0.000000 0.000000 0.000000 0.000000 -0.469772
    4 14.875443 0.000000 -0.000001 -0.011348 0.016224 0.396501
    5 0.000006 -0.000004 -4.427393 0.107364 3.105650 -0.362050
    6 18.465940 0.000000 0.000000 0.000000 0.000000 -0.318915
    7 14.875443 0.000000 0.000000 -0.029698 -0.005119 -0.045422
    8 2.255207 -0.007574 0.000003 0.122096 -0.017403 -0.001322
    9 9.514226 -0.009357 0.000000 -0.008785 0.002361 -0.095902
    10 2.450429 5.076128 0.001325 3.140791 -1.570796 0.000000
    11 6.312407 -4.528058 0.001311 3.140791 -1.570796 0.000000
    12 2.233310 1.152535 -7.309138 -1.151462 -1.536137 -0.883492
    13 11.751820 -0.001633 0.000000 0.000024 0.043599 0.439998
    14 -1.890927 0.854855 -2.731760 -0.942425 1.461416 1.764305
    15 4.640942 0.000000 0.000000 -0.601438 -1.183806 0.506918
    16 10.828047 0.000000 0.000000 0.000000 0.000000 -0.234324
    17 9.393338 0.000000 0.000001 1.569611 -0.034191 0.000006
    18 1.442242 0.107453 1.746178 -1.686405 -0.539236 0.325847
    19 1.063451 0.000000 -0.000001 0.000000 0.000000 0.199061
    20 4.172844 -0.251366 1.312745 -0.008038 -0.095731 0.148656
    21 1.215373 0.000000 0.000001 0.000000 0.000000 0.645746
    22 1.215372 0.000000 0.000001 0.000000 0.000000 0.645746
    23 4.220531 -0.244854 0.431466 -0.001333 -0.026242 0.148336
    24 1.350417 0.000001 -0.000001 0.000000 0.000000 0.863895
    25 1.350410 -0.000001 0.000001 0.000000 0.000000 0.863900
    26 4.262825 -0.232720 -1.392178 0.016840 0.076668 0.253759
    27 -2.117496 0.854843 2.563789 0.697276 -1.395375 2.006400
    28 4.640942 0.000000 -0.000001 0.738474 1.089883 0.724797
    29 10.828047 0.000000 -0.000002 0.000000 0.000000 -0.470391
    30 9.393336 -0.000001 0.000000 -1.569611 0.034172 0.000042
    31 1.442245 0.107453 -1.746177 1.686425 0.539224 0.325885
    32 1.063452 -0.000001 -0.000001 0.000000 0.000000 0.199055
    33 1.376307 -0.000001 0.000000 0.000000 0.000000 0.199027
    34 4.172847 -0.251366 -1.312744 0.008038 0.095731 0.148656
    35 1.215373 0.000001 0.000000 0.000000 0.000000 0.645758
    36 1.215371 -0.000001 0.000000 0.000000 0.000000 0.645758
    37 4.220535 -0.244855 -0.431465 0.001333 0.026242 0.148336
    38 1.350416 0.000000 0.000000 0.000000 0.000000 0.863875
    39 1.350410 -0.000001 -0.000001 0.000000 0.000000 0.863891
    40 4.237636 -0.195359 0.527090 0.000662 0.008837 0.261753
    41 1.215376 0.000001 0.000001 0.000000 0.000000 0.977358
    42 1.215371 0.000000 0.000000 0.000000 0.000000 0.977358
    43 4.262829 -0.232721 1.392178 -0.016840 -0.076676 0.253759
    44 1.012811 0.000000 0.000000 0.000000 0.000000 0.968601
    45 1.012809 -0.000001 0.000000 0.000000 0.000000 0.968601
    46 1.376306 -0.000001 0.000000 0.000000 0.000000 0.199052
    47 4.237632 -0.195359 -0.527090 -0.000662 -0.008837 0.261752
    48 1.215375 0.000001 -0.000001 0.000000 0.000000 0.977335
    49 1.215371 0.000000 0.000001 0.000000 0.000000 0.977347
    50 1.012810 0.000001 0.000000 0.000000 0.000000 0.968648
    51 1.012810 -0.000001 0.000000 0.000000 0.000000 0.968648
    52 2.110540 0.000000 0.000000 0.002385 -0.010503 -0.153642
    53 5.253243 3.139475 -1.673515 2.984594 -1.570796 0.000000
    54 5.253259 3.139473 -0.054760 2.984594 -1.570796 0.000000
    55 5.253252 3.139468 1.574632 2.984594 -1.570796 0.000000
    56 4.598148 4.158443 -1.350299 2.984594 -1.570796 0.000000
    57 4.598139 4.158430 -0.054439 2.984594 -1.570796 0.000000
    58 4.598140 4.158430 1.240876 2.984594 -1.570796 0.000000
    59 0.891927 2.373051 -0.014527 -3.141592 -0.000001 1.413797
    60 7.228122 5.709446 3.726568 3.140796 -1.570796 0.000000
end
