version 1
nodes
  0 "Bip01" -1
  1 "Bip01 Pelvis" 0
  2 "Bip01 L Thigh" 1
  3 "Bip01 L Calf" 2
  4 "Bip01 L Foot" 3
  5 "Bip01 R Thigh" 1
  6 "Bip01 R Calf" 5
  7 "Bip01 R Foot" 6
  8 "Bip01 Spine" 1
  9 "Bip01 Spine1" 8
  10 "Bone16" 8
  11 "Bone01" 8
  12 "Bone03" 1
  13 "Bip01 Neck" 9
  14 "Bip01 R Clavicle" 13
  15 "Bip01 R UpperArm" 14
  16 "Bip01 R Forearm" 15
  17 "Bip01 R Hand" 16
  18 "Bip01 R Finger0" 17
  19 "Bip01 R Finger01" 18
  20 "Bip01 R Finger1" 17
  21 "Bip01 R Finger11" 20
  22 "Bip01 R Finger12" 21
  23 "Bip01 R Finger2" 17
  24 "Bip01 R Finger21" 23
  25 "Bip01 R Finger22" 24
  26 "Bip01 R Finger4" 17
  27 "Bip01 L Clavicle" 13
  28 "Bip01 L UpperArm" 27
  29 "Bip01 L Forearm" 28
  30 "Bip01 L Hand" 29
  31 "Bip01 L Finger0" 30
  32 "Bip01 L Finger01" 31
  33 "Bip01 L Finger02" 32
  34 "Bip01 L Finger1" 30
  35 "Bip01 L Finger11" 34
  36 "Bip01 L Finger12" 35
  37 "Bip01 L Finger2" 30
  38 "Bip01 L Finger21" 37
  39 "Bip01 L Finger22" 38
  40 "Bip01 L Finger3" 30
  41 "Bip01 L Finger31" 40
  42 "Bip01 L Finger32" 41
  43 "Bip01 L Finger4" 30
  44 "Bip01 L Finger41" 43
  45 "Bip01 L Finger42" 44
  46 "Bip01 R Finger02" 19
  47 "Bip01 R Finger3" 17
  48 "Bip01 R Finger31" 47
  49 "Bip01 R Finger32" 48
  50 "Bip01 R Finger41" 26
  51 "Bip01 R Finger42" 50
  52 "Bip01 Head" 13
  53 "R_eyebrow" 52
  54 "C_eyebrow" 52
  55 "L_eyebrow" 52
  56 "R_eye" 52
  57 "Eyelids" 52
  58 "L_eye" 52
  59 "Bone05" 52
  60 "Bone08" 9
end
skeleton
  time 0
    0 1.720918 8.283267 38.142382 0.000000 0.000000 -1.701759
    1 4.078577 0.730491 0.000000 -1.570795 -1.570451 0.000000
    2 -0.000006 0.000008 4.427393 -0.166787 -3.183382 0.132896
    3 18.465940 0.000000 0.000000 0.000000 0.000000 -0.286498
    4 14.875443 0.000000 -0.000001 0.018508 0.025163 0.407246
    5 0.000006 -0.000004 -4.427393 0.098753 3.067807 -0.351849
    6 18.465940 0.000000 0.000000 0.000000 0.000000 -0.539710
    7 14.875443 0.000000 0.000000 -0.004851 0.034915 0.181965
    8 2.255207 -0.007574 0.000003 -0.192269 0.068635 -0.413746
    9 9.514226 -0.009357 0.000000 -0.017246 0.000012 0.000000
    10 2.450429 5.076128 0.001325 3.271649 -1.570796 0.000000
    11 6.312407 -4.528058 0.001311 3.341483 -1.570796 0.000000
    12 2.233310 1.152535 -7.309138 -1.989650 -1.570796 0.000000
    13 11.751820 -0.001633 0.000000 0.000096 0.130823 1.085364
    14 -0.730735 1.890043 -2.766917 -1.507628 1.332685 0.560816
    15 4.640942 0.000000 0.000000 -0.364706 -0.220847 0.964592
    16 10.828047 0.000000 0.000000 0.000000 0.000000 -1.280781
    17 9.393338 0.000000 0.000001 1.569611 -0.034191 0.000006
    18 1.442242 0.107453 1.746178 -1.686405 -0.539236 0.325847
    19 1.063451 0.000000 -0.000001 0.000000 0.000000 0.199061
    20 4.172844 -0.251366 1.312745 -0.008038 -0.095731 0.148656
    21 1.215373 0.000000 0.000001 0.000000 0.000000 0.645746
    22 1.215372 0.000000 0.000001 0.000000 0.000000 0.645746
    23 4.220531 -0.244854 0.431466 -0.001333 -0.026242 0.148336
    24 1.350417 0.000001 -0.000001 0.000000 0.000000 0.863895
    25 1.350410 -0.000001 0.000001 0.000000 0.000000 0.863900
    26 4.262825 -0.232720 -1.392178 0.016840 0.076668 0.253759
    27 -1.426069 1.890031 2.493474 -0.310362 -1.333591 2.358581
    28 4.640942 0.000000 -0.000001 0.381223 0.610986 0.226070
    29 10.828047 0.000000 -0.000002 0.000000 0.000000 -0.906568
    30 9.393336 -0.000001 0.000000 -1.569611 0.034172 0.000042
    31 1.442245 0.107453 -1.746177 1.686425 0.539224 0.325885
    32 1.063452 -0.000001 -0.000001 0.000000 0.000000 0.199055
    33 1.376307 -0.000001 0.000000 0.000000 0.000000 0.199027
    34 4.172847 -0.251366 -1.312744 0.008038 0.095731 0.148656
    35 1.215373 0.000001 0.000000 0.000000 0.000000 0.645758
    36 1.215371 -0.000001 0.000000 0.000000 0.000000 0.645758
    37 4.220535 -0.244855 -0.431465 0.001333 0.026242 0.148336
    38 1.350416 0.000000 0.000000 0.000000 0.000000 0.863875
    39 1.350410 -0.000001 -0.000001 0.000000 0.000000 0.863891
    40 4.237636 -0.195359 0.527090 0.000662 0.008837 0.261753
    41 1.215376 0.000001 0.000001 0.000000 0.000000 0.977358
    42 1.215371 0.000000 0.000000 0.000000 0.000000 0.977358
    43 4.262829 -0.232721 1.392178 -0.016840 -0.076676 0.253759
    44 1.012811 0.000000 0.000000 0.000000 0.000000 0.968601
    45 1.012809 -0.000001 0.000000 0.000000 0.000000 0.968601
    46 1.376306 -0.000001 0.000000 0.000000 0.000000 0.199052
    47 4.237632 -0.195359 -0.527090 -0.000662 -0.008837 0.261752
    48 1.215375 0.000001 -0.000001 0.000000 0.000000 0.977335
    49 1.215371 0.000000 0.000001 0.000000 0.000000 0.977347
    50 1.012810 0.000001 0.000000 0.000000 0.000000 0.968648
    51 1.012810 -0.000001 0.000000 0.000000 0.000000 0.968648
    52 2.110540 0.000000 0.000000 0.404607 -0.112539 -0.998329
    53 5.253243 3.139475 -1.673515 2.984594 -1.570796 0.000000
    54 5.253259 3.139473 -0.054760 3.150377 -1.570796 0.000000
    55 5.253252 3.139468 1.574632 2.984594 -1.570796 0.000000
    56 4.598148 4.158443 -1.350299 2.984594 -1.570796 0.000000
    57 4.598139 4.158430 -0.054439 3.447066 -1.570796 0.000000
    58 4.598140 4.158430 1.240876 2.984594 -1.570796 0.000000
    59 0.891927 2.373051 -0.014527 -3.141592 -0.000001 1.544588
    60 7.228122 5.709446 3.726568 2.381620 -1.570796 0.000000
  time 1
    0 1.720918 8.145693 37.931438 0.000000 0.000000 -1.701759
    1 3.668408 0.738304 0.000000 -1.570795 -1.570451 0.000000
    2 -0.000006 0.000008 4.427393 -0.169078 -3.176869 0.082873
    3 18.465940 0.000000 0.000000 0.000000 0.000000 -0.385701
    4 14.875443 0.000000 -0.000001 0.019077 0.027228 0.456112
    5 0.000006 -0.000004 -4.427393 0.097031 3.065384 -0.378427
    6 18.465940 0.000000 0.000000 0.000000 0.000000 -0.578697
    7 14.875443 0.000000 0.000000 -0.005117 0.034674 0.194383
    8 2.255207 -0.007574 0.000003 -0.193634 0.068743 -0.372785
    9 9.514226 -0.009357 0.000000 -0.015808 0.000000 0.000392
    10 2.450429 5.076128 0.001325 3.255500 -1.570796 0.000000
    11 6.312407 -4.528058 0.001311 3.322960 -1.570796 0.000000
    12 2.233310 1.152535 -7.309138 -1.146957 -1.588242 -0.853143
    13 11.751820 -0.001633 0.000000 0.000096 0.130823 1.085364
    14 -0.730735 1.890043 -2.766917 -1.433078 1.306943 0.639951
    15 4.640942 0.000000 0.000000 -0.422578 -0.245256 0.972291
    16 10.828047 0.000000 0.000000 0.000000 0.000000 -1.280781
    17 9.393338 0.000000 0.000001 1.569611 -0.034191 0.000006
    18 1.442242 0.107453 1.746178 -1.686405 -0.539236 0.325847
    19 1.063451 0.000000 -0.000001 0.000000 0.000000 0.199061
    20 4.172844 -0.251366 1.312745 -0.008038 -0.095731 0.148656
    21 1.215373 0.000000 0.000001 0.000000 0.000000 0.645746
    22 1.215372 0.000000 0.000001 0.000000 0.000000 0.645746
    23 4.220531 -0.244854 0.431466 -0.001333 -0.026242 0.148336
    24 1.350417 0.000001 -0.000001 0.000000 0.000000 0.863895
    25 1.350410 -0.000001 0.000001 0.000000 0.000000 0.863900
    26 4.262825 -0.232720 -1.392178 0.016840 0.076668 0.253759
    27 -1.426069 1.890031 2.493474 -0.456283 -1.338823 2.503709
    28 4.640942 0.000000 -0.000001 0.370613 0.658511 0.225133
    29 10.828047 0.000000 -0.000002 0.000000 0.000000 -0.906568
    30 9.393336 -0.000001 0.000000 -1.569611 0.034172 0.000042
    31 1.442245 0.107453 -1.746177 1.686425 0.539224 0.325885
    32 1.063452 -0.000001 -0.000001 0.000000 0.000000 0.199055
    33 1.376307 -0.000001 0.000000 0.000000 0.000000 0.199027
    34 4.172847 -0.251366 -1.312744 0.008038 0.095731 0.148656
    35 1.215373 0.000001 0.000000 0.000000 0.000000 0.645758
    36 1.215371 -0.000001 0.000000 0.000000 0.000000 0.645758
    37 4.220535 -0.244855 -0.431465 0.001333 0.026242 0.148336
    38 1.350416 0.000000 0.000000 0.000000 0.000000 0.863875
    39 1.350410 -0.000001 -0.000001 0.000000 0.000000 0.863891
    40 4.237636 -0.195359 0.527090 0.000662 0.008837 0.261753
    41 1.215376 0.000001 0.000001 0.000000 0.000000 0.977358
    42 1.215371 0.000000 0.000000 0.000000 0.000000 0.977358
    43 4.262829 -0.232721 1.392178 -0.016840 -0.076676 0.253759
    44 1.012811 0.000000 0.000000 0.000000 0.000000 0.968601
    45 1.012809 -0.000001 0.000000 0.000000 0.000000 0.968601
    46 1.376306 -0.000001 0.000000 0.000000 0.000000 0.199052
    47 4.237632 -0.195359 -0.527090 -0.000662 -0.008837 0.261752
    48 1.215375 0.000001 -0.000001 0.000000 0.000000 0.977335
    49 1.215371 0.000000 0.000001 0.000000 0.000000 0.977347
    50 1.012810 0.000001 0.000000 0.000000 0.000000 0.968648
    51 1.012810 -0.000001 0.000000 0.000000 0.000000 0.968648
    52 2.110540 0.000000 0.000000 0.404464 -0.123796 -0.982272
    53 5.253243 3.139475 -1.673515 2.984594 -1.570796 0.000000
    54 5.253259 3.139473 -0.054760 3.142090 -1.570796 0.000000
    55 5.253252 3.139468 1.574632 2.984594 -1.570796 0.000000
    56 4.598148 4.158443 -1.350299 2.984594 -1.570796 0.000000
    57 4.598139 4.158430 -0.054439 3.423875 -1.570796 0.000000
    58 4.598140 4.158430 1.240876 2.984594 -1.570796 0.000000
    59 0.891927 2.373051 -0.014527 -3.141592 -0.000001 1.538030
    60 7.228122 5.709446 3.726568 2.483059 -1.570796 0.000000
  time 2
    0 1.720918 7.677942 37.849404 0.000000 0.000000 -1.701759
    1 3.230895 0.738304 0.000000 -1.570795 -1.570451 0.000000
    2 -0.000006 0.000008 4.427393 -0.169746 -3.177800 0.076390
    3 18.465940 0.000000 0.000000 0.000000 0.000000 -0.405001
    4 14.875443 0.000000 -0.000001 0.019589 0.029037 0.469148
    5 0.000006 -0.000004 -4.427393 0.096361 3.062308 -0.384979
    6 18.465940 0.000000 0.000000 0.000000 0.000000 -0.596024
    7 14.875443 0.000000 0.000000 -0.005829 0.036995 0.204888
    8 2.255207 -0.007574 0.000003 -0.197162 0.069126 -0.329408
    9 9.514226 -0.009357 0.000000 -0.014250 -0.000012 0.001370
    10 2.450429 5.076128 0.001325 3.240229 -1.570796 0.000000
    11 6.312407 -4.528058 0.001311 3.304590 -1.570796 0.000000
    12 2.233310 1.152535 -7.309138 -1.144272 -1.594678 -0.864919
    13 11.751820 -0.001633 0.000000 0.000096 0.130823 1.085364
    14 -0.730735 1.890043 -2.766917 -1.369685 1.278824 0.708710
    15 4.640942 0.000000 0.000000 -0.476677 -0.271408 0.975371
    16 10.828047 0.000000 0.000000 0.000000 0.000000 -1.280781
    17 9.393338 0.000000 0.000001 1.569611 -0.034191 0.000006
    18 1.442242 0.107453 1.746178 -1.686405 -0.539236 0.325847
    19 1.063451 0.000000 -0.000001 0.000000 0.000000 0.199061
    20 4.172844 -0.251366 1.312745 -0.008038 -0.095731 0.148656
    21 1.215373 0.000000 0.000001 0.000000 0.000000 0.645746
    22 1.215372 0.000000 0.000001 0.000000 0.000000 0.645746
    23 4.220531 -0.244854 0.431466 -0.001333 -0.026242 0.148336
    24 1.350417 0.000001 -0.000001 0.000000 0.000000 0.863895
    25 1.350410 -0.000001 0.000001 0.000000 0.000000 0.863900
    26 4.262825 -0.232720 -1.392178 0.016840 0.076668 0.253759
    27 -1.426069 1.890031 2.493474 -0.579819 -1.342863 2.627365
    28 4.640942 0.000000 -0.000001 0.359168 0.711959 0.234909
    29 10.828047 0.000000 -0.000002 0.000000 0.000000 -0.906568
    30 9.393336 -0.000001 0.000000 -1.569611 0.034172 0.000042
    31 1.442245 0.107453 -1.746177 1.686425 0.539224 0.325885
    32 1.063452 -0.000001 -0.000001 0.000000 0.000000 0.199055
    33 1.376307 -0.000001 0.000000 0.000000 0.000000 0.199027
    34 4.172847 -0.251366 -1.312744 0.008038 0.095731 0.148656
    35 1.215373 0.000001 0.000000 0.000000 0.000000 0.645758
    36 1.215371 -0.000001 0.000000 0.000000 0.000000 0.645758
    37 4.220535 -0.244855 -0.431465 0.001333 0.026242 0.148336
    38 1.350416 0.000000 0.000000 0.000000 0.000000 0.863875
    39 1.350410 -0.000001 -0.000001 0.000000 0.000000 0.863891
    40 4.237636 -0.195359 0.527090 0.000662 0.008837 0.261753
    41 1.215376 0.000001 0.000001 0.000000 0.000000 0.977358
    42 1.215371 0.000000 0.000000 0.000000 0.000000 0.977358
    43 4.262829 -0.232721 1.392178 -0.016840 -0.076676 0.253759
    44 1.012811 0.000000 0.000000 0.000000 0.000000 0.968601
    45 1.012809 -0.000001 0.000000 0.000000 0.000000 0.968601
    46 1.376306 -0.000001 0.000000 0.000000 0.000000 0.199052
    47 4.237632 -0.195359 -0.527090 -0.000662 -0.008837 0.261752
    48 1.215375 0.000001 -0.000001 0.000000 0.000000 0.977335
    49 1.215371 0.000000 0.000001 0.000000 0.000000 0.977347
    50 1.012810 0.000001 0.000000 0.000000 0.000000 0.968648
    51 1.012810 -0.000001 0.000000 0.000000 0.000000 0.968648
    52 2.110540 0.000000 0.000000 0.397549 -0.159940 -0.909705
    53 5.253243 3.139475 -1.673515 2.984594 -1.570796 0.000000
    54 5.253259 3.139473 -0.054760 3.133803 -1.570796 0.000000
    55 5.253252 3.139468 1.574632 2.984594 -1.570796 0.000000
    56 4.598148 4.158443 -1.350299 2.984594 -1.570796 0.000000
    57 4.598139 4.158430 -0.054439 3.400807 -1.570796 0.000000
    58 4.598140 4.158430 1.240876 2.984594 -1.570796 0.000000
    59 0.891927 2.373051 -0.014527 -3.141592 -0.000001 1.531564
    60 7.228122 5.709446 3.726568 2.588487 -1.570796 0.000000
  time 3
    0 1.720918 7.155161 37.763464 0.000000 0.000000 -1.701759
    1 2.766037 0.750023 0.000000 -1.570795 -1.570451 0.000000
    2 -0.000006 0.000008 4.427393 -0.170319 -3.178916 0.070754
    3 18.465940 0.000000 0.000000 0.000000 0.000000 -0.422985
    4 14.875443 0.000000 -0.000001 0.020102 0.031059 0.481868
    5 0.000006 -0.000004 -4.427393 0.095500 3.058859 -0.391249
    6 18.465940 0.000000 0.000000 0.000000 0.000000 -0.613352
    7 14.875443 0.000000 0.000000 -0.006540 0.039648 0.215655
    8 2.255207 -0.007574 0.000003 -0.202034 0.069833 -0.284576
    9 9.514226 -0.009357 0.000000 -0.012620 -0.000048 0.002839
    10 2.450429 5.076128 0.001325 3.224519 -1.570796 0.000000
    11 6.312407 -4.528058 0.001311 3.285914 -1.570796 0.000000
    12 2.233310 1.152535 -7.309138 -1.142355 -1.596950 -0.873440
    13 11.751820 -0.001633 0.000000 0.000096 0.130823 1.085364
    14 -0.730735 1.890043 -2.766917 -1.320009 1.250381 0.764211
    15 4.640942 0.000000 0.000000 -0.528571 -0.298676 0.973551
    16 10.828047 0.000000 0.000000 0.000000 0.000000 -1.280781
    17 9.393338 0.000000 0.000001 1.569611 -0.034191 0.000006
    18 1.442242 0.107453 1.746178 -1.686405 -0.539236 0.325847
    19 1.063451 0.000000 -0.000001 0.000000 0.000000 0.199061
    20 4.172844 -0.251366 1.312745 -0.008038 -0.095731 0.148656
    21 1.215373 0.000000 0.000001 0.000000 0.000000 0.645746
    22 1.215372 0.000000 0.000001 0.000000 0.000000 0.645746
    23 4.220531 -0.244854 0.431466 -0.001333 -0.026242 0.148336
    24 1.350417 0.000001 -0.000001 0.000000 0.000000 0.863895
    25 1.350410 -0.000001 0.000001 0.000000 0.000000 0.863900
    26 4.262825 -0.232720 -1.392178 0.016840 0.076668 0.253759
    27 -1.426069 1.890031 2.493474 -0.661695 -1.354345 2.710378
    28 4.640942 0.000000 -0.000001 0.357498 0.780491 0.275299
    29 10.828047 0.000000 -0.000002 0.000000 0.000000 -0.906568
    30 9.393336 -0.000001 0.000000 -1.569611 0.034172 0.000042
    31 1.442245 0.107453 -1.746177 1.686425 0.539224 0.325885
    32 1.063452 -0.000001 -0.000001 0.000000 0.000000 0.199055
    33 1.376307 -0.000001 0.000000 0.000000 0.000000 0.199027
    34 4.172847 -0.251366 -1.312744 0.008038 0.095731 0.148656
    35 1.215373 0.000001 0.000000 0.000000 0.000000 0.645758
    36 1.215371 -0.000001 0.000000 0.000000 0.000000 0.645758
    37 4.220535 -0.244855 -0.431465 0.001333 0.026242 0.148336
    38 1.350416 0.000000 0.000000 0.000000 0.000000 0.863875
    39 1.350410 -0.000001 -0.000001 0.000000 0.000000 0.863891
    40 4.237636 -0.195359 0.527090 0.000662 0.008837 0.261753
    41 1.215376 0.000001 0.000001 0.000000 0.000000 0.977358
    42 1.215371 0.000000 0.000000 0.000000 0.000000 0.977358
    43 4.262829 -0.232721 1.392178 -0.016840 -0.076676 0.253759
    44 1.012811 0.000000 0.000000 0.000000 0.000000 0.968601
    45 1.012809 -0.000001 0.000000 0.000000 0.000000 0.968601
    46 1.376306 -0.000001 0.000000 0.000000 0.000000 0.199052
    47 4.237632 -0.195359 -0.527090 -0.000662 -0.008837 0.261752
    48 1.215375 0.000001 -0.000001 0.000000 0.000000 0.977335
    49 1.215371 0.000000 0.000001 0.000000 0.000000 0.977347
    50 1.012810 0.000001 0.000000 0.000000 0.000000 0.968648
    51 1.012810 -0.000001 0.000000 0.000000 0.000000 0.968648
    52 2.110540 0.000000 0.000000 0.388631 -0.196420 -0.837233
    53 5.253243 3.139475 -1.673515 2.984594 -1.570796 0.000000
    54 5.253259 3.139473 -0.054760 3.125516 -1.570796 0.000000
    55 5.253252 3.139468 1.574632 2.984594 -1.570796 0.000000
    56 4.598148 4.158443 -1.350299 2.984594 -1.570796 0.000000
    57 4.598139 4.158430 -0.054439 3.377677 -1.570796 0.000000
    58 4.598140 4.158430 1.240876 2.984594 -1.570796 0.000000
    59 0.891927 2.373051 -0.014527 -3.141592 -0.000001 1.525006
    60 7.228122 5.709446 3.726568 2.695054 -1.570796 0.000000
  time 4
    0 1.720918 6.632380 37.685336 0.000000 0.000000 -1.701759
    1 2.289460 0.761742 0.000000 -1.570795 -1.570451 0.000000
    2 -0.000006 0.000008 4.427393 -0.170987 -3.180125 0.065069
    3 18.465940 0.000000 0.000000 0.000000 0.000000 -0.440530
    4 14.875443 0.000000 -0.000001 0.020642 0.033294 0.493877
    5 0.000006 -0.000004 -4.427393 0.094447 3.055597 -0.397426
    6 18.465940 0.000000 0.000000 0.000000 0.000000 -0.629432
    7 14.875443 0.000000 0.000000 -0.007207 0.042361 0.225372
    8 2.255207 -0.007574 0.000003 -0.207389 0.070864 -0.239115
    9 9.514226 -0.009357 0.000000 -0.010954 -0.000084 0.004438
    10 2.450429 5.076128 0.001325 3.207054 -1.570796 0.000000
    11 6.312407 -4.528058 0.001311 3.266421 -1.570796 0.000000
    12 2.233310 1.152535 -7.309138 -1.141588 -1.594358 -0.874876
    13 11.751820 -0.001633 0.000000 0.000096 0.130823 1.085364
    14 -0.730735 1.890043 -2.766917 -1.283622 1.223855 0.806455
    15 4.640942 0.000000 0.000000 -0.579876 -0.326921 0.966762
    16 10.828047 0.000000 0.000000 0.000000 0.000000 -1.280781
    17 9.393338 0.000000 0.000001 1.569611 -0.034191 0.000006
    18 1.442242 0.107453 1.746178 -1.686405 -0.539236 0.325847
    19 1.063451 0.000000 -0.000001 0.000000 0.000000 0.199061
    20 4.172844 -0.251366 1.312745 -0.008038 -0.095731 0.148656
    21 1.215373 0.000000 0.000001 0.000000 0.000000 0.645746
    22 1.215372 0.000000 0.000001 0.000000 0.000000 0.645746
    23 4.220531 -0.244854 0.431466 -0.001333 -0.026242 0.148336
    24 1.350417 0.000001 -0.000001 0.000000 0.000000 0.863895
    25 1.350410 -0.000001 0.000001 0.000000 0.000000 0.863900
    26 4.262825 -0.232720 -1.392178 0.016840 0.076668 0.253759
    27 -1.426069 1.890031 2.493474 -0.729686 -1.368371 2.779587
    28 4.640942 0.000000 -0.000001 0.364375 0.854602 0.329737
    29 10.828047 0.000000 -0.000002 0.000000 0.000000 -0.906568
    30 9.393336 -0.000001 0.000000 -1.569611 0.034172 0.000042
    31 1.442245 0.107453 -1.746177 1.686425 0.539224 0.325885
    32 1.063452 -0.000001 -0.000001 0.000000 0.000000 0.199055
    33 1.376307 -0.000001 0.000000 0.000000 0.000000 0.199027
    34 4.172847 -0.251366 -1.312744 0.008038 0.095731 0.148656
    35 1.215373 0.000001 0.000000 0.000000 0.000000 0.645758
    36 1.215371 -0.000001 0.000000 0.000000 0.000000 0.645758
    37 4.220535 -0.244855 -0.431465 0.001333 0.026242 0.148336
    38 1.350416 0.000000 0.000000 0.000000 0.000000 0.863875
    39 1.350410 -0.000001 -0.000001 0.000000 0.000000 0.863891
    40 4.237636 -0.195359 0.527090 0.000662 0.008837 0.261753
    41 1.215376 0.000001 0.000001 0.000000 0.000000 0.977358
    42 1.215371 0.000000 0.000000 0.000000 0.000000 0.977358
    43 4.262829 -0.232721 1.392178 -0.016840 -0.076676 0.253759
    44 1.012811 0.000000 0.000000 0.000000 0.000000 0.968601
    45 1.012809 -0.000001 0.000000 0.000000 0.000000 0.968601
    46 1.376306 -0.000001 0.000000 0.000000 0.000000 0.199052
    47 4.237632 -0.195359 -0.527090 -0.000662 -0.008837 0.261752
    48 1.215375 0.000001 -0.000001 0.000000 0.000000 0.977335
    49 1.215371 0.000000 0.000001 0.000000 0.000000 0.977347
    50 1.012810 0.000001 0.000000 0.000000 0.000000 0.968648
    51 1.012810 -0.000001 0.000000 0.000000 0.000000 0.968648
    52 2.110540 0.000000 0.000000 0.377566 -0.231251 -0.768788
    53 5.253243 3.139475 -1.673515 2.984594 -1.570796 0.000000
    54 5.253259 3.139473 -0.054760 3.117229 -1.570796 0.000000
    55 5.253252 3.139468 1.574632 2.984594 -1.570796 0.000000
    56 4.598148 4.158443 -1.350299 2.984594 -1.570796 0.000000
    57 4.598139 4.158430 -0.054439 3.354486 -1.570796 0.000000
    58 4.598140 4.158430 1.240876 2.984594 -1.570796 0.000000
    59 0.891927 2.373051 -0.014527 -3.141592 -0.000001 1.518357
    60 7.228122 5.709446 3.726568 2.799532 -1.570796 0.000000
  time 5
    0 1.720918 6.549836 37.825966 0.000000 0.000000 -1.701759
    1 1.805070 0.773461 0.000000 -1.570795 -1.570451 0.000000
    2 -0.000006 0.000008 4.427393 -0.172037 -3.181242 0.056092
    3 18.465940 0.000000 0.000000 0.000000 0.000000 -0.430734
    4 14.875443 0.000000 -0.000001 0.021439 0.035933 0.475587
    5 0.000006 -0.000004 -4.427393 0.095883 3.056902 -0.392653
    6 18.465940 0.000000 0.000000 0.000000 0.000000 -0.591036
    7 14.875443 0.000000 0.000000 -0.007696 0.041306 0.191757
    8 2.255207 -0.007574 0.000003 -0.212430 0.072050 -0.193985
    9 9.514226 -0.009357 0.000000 -0.009288 -0.000132 0.005939
    10 2.450429 5.076128 0.001325 3.186517 -1.570796 0.000000
    11 6.312407 -4.528058 0.001311 3.244173 -1.570796 0.000000
    12 2.233310 1.152535 -7.309138 -1.140342 -1.589407 -0.874014
    13 11.751820 -0.001633 0.000000 0.000096 0.130823 1.085364
    14 -0.730735 1.890043 -2.766917 -1.259885 1.201461 0.835111
    15 4.640942 0.000000 0.000000 -0.632603 -0.355862 0.955563
    16 10.828047 0.000000 0.000000 0.000000 0.000000 -1.280781
    17 9.393338 0.000000 0.000001 1.569611 -0.034191 0.000006
    18 1.442242 0.107453 1.746178 -1.686405 -0.539236 0.325847
    19 1.063451 0.000000 -0.000001 0.000000 0.000000 0.199061
    20 4.172844 -0.251366 1.312745 -0.008038 -0.095731 0.148656
    21 1.215373 0.000000 0.000001 0.000000 0.000000 0.645746
    22 1.215372 0.000000 0.000001 0.000000 0.000000 0.645746
    23 4.220531 -0.244854 0.431466 -0.001333 -0.026242 0.148336
    24 1.350417 0.000001 -0.000001 0.000000 0.000000 0.863895
    25 1.350410 -0.000001 0.000001 0.000000 0.000000 0.863900
    26 4.262825 -0.232720 -1.392178 0.016840 0.076668 0.253759
    27 -1.426069 1.890031 2.493474 -0.765805 -1.378533 2.816492
    28 4.640942 0.000000 -0.000001 0.365799 0.917486 0.375688
    29 10.828047 0.000000 -0.000002 0.000000 0.000000 -0.906568
    30 9.393336 -0.000001 0.000000 -1.569611 0.034172 0.000042
    31 1.442245 0.107453 -1.746177 1.686425 0.539224 0.325885
    32 1.063452 -0.000001 -0.000001 0.000000 0.000000 0.199055
    33 1.376307 -0.000001 0.000000 0.000000 0.000000 0.199027
    34 4.172847 -0.251366 -1.312744 0.008038 0.095731 0.148656
    35 1.215373 0.000001 0.000000 0.000000 0.000000 0.645758
    36 1.215371 -0.000001 0.000000 0.000000 0.000000 0.645758
    37 4.220535 -0.244855 -0.431465 0.001333 0.026242 0.148336
    38 1.350416 0.000000 0.000000 0.000000 0.000000 0.863875
    39 1.350410 -0.000001 -0.000001 0.000000 0.000000 0.863891
    40 4.237636 -0.195359 0.527090 0.000662 0.008837 0.261753
    41 1.215376 0.000001 0.000001 0.000000 0.000000 0.977358
    42 1.215371 0.000000 0.000000 0.000000 0.000000 0.977358
    43 4.262829 -0.232721 1.392178 -0.016840 -0.076676 0.253759
    44 1.012811 0.000000 0.000000 0.000000 0.000000 0.968601
    45 1.012809 -0.000001 0.000000 0.000000 0.000000 0.968601
    46 1.376306 -0.000001 0.000000 0.000000 0.000000 0.199052
    47 4.237632 -0.195359 -0.527090 -0.000662 -0.008837 0.261752
    48 1.215375 0.000001 -0.000001 0.000000 0.000000 0.977335
    49 1.215371 0.000000 0.000001 0.000000 0.000000 0.977347
    50 1.012810 0.000001 0.000000 0.000000 0.000000 0.968648
    51 1.012810 -0.000001 0.000000 0.000000 0.000000 0.968648
    52 2.110540 0.000000 0.000000 0.364213 -0.263597 -0.704369
    53 5.253243 3.139475 -1.673515 2.984594 -1.570796 0.000000
    54 5.253259 3.139473 -0.054760 3.108941 -1.570796 0.000000
    55 5.253252 3.139468 1.574632 2.984594 -1.570796 0.000000
    56 4.598148 4.158443 -1.350299 2.984594 -1.570796 0.000000
    57 4.598139 4.158430 -0.054439 3.331417 -1.570796 0.000000
    58 4.598140 4.158430 1.240876 2.984594 -1.570796 0.000000
    59 0.891927 2.373051 -0.014527 -3.141592 -0.000001 1.511799
    60 7.228122 5.709446 3.726568 2.898882 -1.570796 0.000000
  time 6
    0 1.720918 6.522321 37.993940 0.000000 0.000000 -1.701759
    1 1.332399 0.789087 0.000000 -1.570795 -1.570451 0.000000
    2 -0.000006 0.000008 4.427393 -0.172801 -3.183009 0.050705
    3 18.465940 0.000000 0.000000 0.000000 0.000000 -0.410923
    4 14.875443 0.000000 -0.000001 0.022179 0.038551 0.450779
    5 0.000006 -0.000004 -4.427393 0.097318 3.058766 -0.383107
    6 18.465940 0.000000 0.000000 0.000000 0.000000 -0.540891
    7 14.875443 0.000000 0.000000 -0.008007 0.040010 0.151277
    8 2.255207 -0.007574 0.000003 -0.216336 0.073273 -0.150013
    9 9.514226 -0.009357 0.000000 -0.007694 -0.000168 0.007113
    10 2.450429 5.076128 0.001325 3.152815 -1.570796 0.000000
    11 6.312407 -4.528058 0.001311 3.221211 -1.570796 0.000000
    12 2.233310 1.152535 -7.309138 -1.138616 -1.583757 -0.873823
    13 11.751820 -0.001633 0.000000 0.000096 0.130823 1.085364
    14 -0.730735 1.890043 -2.766917 -1.246524 1.185831 0.852239
    15 4.640942 0.000000 0.000000 -0.691210 -0.385223 0.940095
    16 10.828047 0.000000 0.000000 0.000000 0.000000 -1.280781
    17 9.393338 0.000000 0.000001 1.569611 -0.034191 0.000006
    18 1.442242 0.107453 1.746178 -1.686405 -0.539236 0.325847
    19 1.063451 0.000000 -0.000001 0.000000 0.000000 0.199061
    20 4.172844 -0.251366 1.312745 -0.008038 -0.095731 0.148656
    21 1.215373 0.000000 0.000001 0.000000 0.000000 0.645746
    22 1.215372 0.000000 0.000001 0.000000 0.000000 0.645746
    23 4.220531 -0.244854 0.431466 -0.001333 -0.026242 0.148336
    24 1.350417 0.000001 -0.000001 0.000000 0.000000 0.863895
    25 1.350410 -0.000001 0.000001 0.000000 0.000000 0.863900
    26 4.262825 -0.232720 -1.392178 0.016840 0.076668 0.253759
    27 -1.426069 1.890031 2.493474 -0.774304 -1.384052 2.825407
    28 4.640942 0.000000 -0.000001 0.361526 0.969419 0.410458
    29 10.828047 0.000000 -0.000002 0.000000 0.000000 -0.910045
    30 9.393336 -0.000001 0.000000 -1.569611 0.034172 0.000042
    31 1.442245 0.107453 -1.746177 1.686425 0.539224 0.325885
    32 1.063452 -0.000001 -0.000001 0.000000 0.000000 0.199055
    33 1.376307 -0.000001 0.000000 0.000000 0.000000 0.199027
    34 4.172847 -0.251366 -1.312744 0.008038 0.095731 0.148656
    35 1.215373 0.000001 0.000000 0.000000 0.000000 0.645758
    36 1.215371 -0.000001 0.000000 0.000000 0.000000 0.645758
    37 4.220535 -0.244855 -0.431465 0.001333 0.026242 0.148336
    38 1.350416 0.000000 0.000000 0.000000 0.000000 0.863875
    39 1.350410 -0.000001 -0.000001 0.000000 0.000000 0.863891
    40 4.237636 -0.195359 0.527090 0.000662 0.008837 0.261753
    41 1.215376 0.000001 0.000001 0.000000 0.000000 0.977358
    42 1.215371 0.000000 0.000000 0.000000 0.000000 0.977358
    43 4.262829 -0.232721 1.392178 -0.016840 -0.076676 0.253759
    44 1.012811 0.000000 0.000000 0.000000 0.000000 0.968601
    45 1.012809 -0.000001 0.000000 0.000000 0.000000 0.968601
    46 1.376306 -0.000001 0.000000 0.000000 0.000000 0.199052
    47 4.237632 -0.195359 -0.527090 -0.000662 -0.008837 0.261752
    48 1.215375 0.000001 -0.000001 0.000000 0.000000 0.977335
    49 1.215371 0.000000 0.000001 0.000000 0.000000 0.977347
    50 1.012810 0.000001 0.000000 0.000000 0.000000 0.968648
    51 1.012810 -0.000001 0.000000 0.000000 0.000000 0.968648
    52 2.110540 0.000000 0.000000 0.348380 -0.292562 -0.644215
    53 5.253243 3.139475 -1.673515 2.984594 -1.570796 0.000000
    54 5.253259 3.139473 -0.054760 3.100654 -1.570796 0.000000
    55 5.253252 3.139468 1.574632 2.984594 -1.570796 0.000000
    56 4.598148 4.158443 -1.350299 2.984594 -1.570796 0.000000
    57 4.598139 4.158430 -0.054439 3.308288 -1.570796 0.000000
    58 4.598140 4.158430 1.240876 2.984594 -1.570796 0.000000
    59 0.891927 2.373051 -0.014527 -3.141592 -0.000001 1.505424
    60 7.228122 5.709446 3.726568 2.989873 -1.570796 0.000000
  time 7
    0 1.720918 6.522321 38.185352 0.000000 0.000000 -1.701759
    1 0.887073 0.800806 0.000000 -1.570795 -1.570451 0.000000
    2 -0.000006 0.000008 4.427393 -0.173469 -3.184963 0.047962
    3 18.465940 0.000000 0.000000 0.000000 0.000000 -0.385044
    4 14.875443 0.000000 -0.000001 0.022834 0.040956 0.422534
    5 0.000006 -0.000004 -4.427393 0.099136 3.061469 -0.369350
    6 18.465940 0.000000 0.000000 0.000000 0.000000 -0.481689
    7 14.875443 0.000000 0.000000 -0.008096 0.038533 0.105995
    8 2.255207 -0.007574 0.000003 -0.218331 0.074220 -0.108158
    9 9.514226 -0.009357 0.000000 -0.006232 -0.000192 0.007733
    10 2.450429 5.076128 0.001325 3.113057 -1.570796 0.000000
    11 6.312407 -4.528058 0.001311 3.199473 -1.570796 0.000000
    12 2.233310 1.152535 -7.309138 -1.137657 -1.579097 -0.871908
    13 11.751820 -0.001633 0.000000 0.000096 0.130823 1.085364
    14 -0.730735 1.890043 -2.766917 -1.240839 1.176297 0.860062
    15 4.640942 0.000000 0.000000 -0.755600 -0.414234 0.922877
    16 10.828047 0.000000 0.000000 0.000000 0.000000 -1.280781
    17 9.393338 0.000000 0.000001 1.569611 -0.034191 0.000006
    18 1.442242 0.107453 1.746178 -1.686405 -0.539236 0.325847
    19 1.063451 0.000000 -0.000001 0.000000 0.000000 0.199061
    20 4.172844 -0.251366 1.312745 -0.008038 -0.095731 0.148656
    21 1.215373 0.000000 0.000001 0.000000 0.000000 0.645746
    22 1.215372 0.000000 0.000001 0.000000 0.000000 0.645746
    23 4.220531 -0.244854 0.431466 -0.001333 -0.026242 0.148336
    24 1.350417 0.000001 -0.000001 0.000000 0.000000 0.863895
    25 1.350410 -0.000001 0.000001 0.000000 0.000000 0.863900
    26 4.262825 -0.232720 -1.392178 0.016840 0.076668 0.253759
    27 -1.426069 1.890031 2.493474 -0.775367 -1.388457 2.826749
    28 4.640942 0.000000 -0.000001 0.366290 1.020663 0.450204
    29 10.828047 0.000000 -0.000002 0.000000 0.000000 -0.918343
    30 9.393336 -0.000001 0.000000 -1.569611 0.034172 0.000042
    31 1.442245 0.107453 -1.746177 1.686425 0.539224 0.325885
    32 1.063452 -0.000001 -0.000001 0.000000 0.000000 0.199055
    33 1.376307 -0.000001 0.000000 0.000000 0.000000 0.199027
    34 4.172847 -0.251366 -1.312744 0.008038 0.095731 0.148656
    35 1.215373 0.000001 0.000000 0.000000 0.000000 0.645758
    36 1.215371 -0.000001 0.000000 0.000000 0.000000 0.645758
    37 4.220535 -0.244855 -0.431465 0.001333 0.026242 0.148336
    38 1.350416 0.000000 0.000000 0.000000 0.000000 0.863875
    39 1.350410 -0.000001 -0.000001 0.000000 0.000000 0.863891
    40 4.237636 -0.195359 0.527090 0.000662 0.008837 0.261753
    41 1.215376 0.000001 0.000001 0.000000 0.000000 0.977358
    42 1.215371 0.000000 0.000000 0.000000 0.000000 0.977358
    43 4.262829 -0.232721 1.392178 -0.016840 -0.076676 0.253759
    44 1.012811 0.000000 0.000000 0.000000 0.000000 0.968601
    45 1.012809 -0.000001 0.000000 0.000000 0.000000 0.968601
    46 1.376306 -0.000001 0.000000 0.000000 0.000000 0.199052
    47 4.237632 -0.195359 -0.527090 -0.000662 -0.008837 0.261752
    48 1.215375 0.000001 -0.000001 0.000000 0.000000 0.977335
    49 1.215371 0.000000 0.000001 0.000000 0.000000 0.977347
    50 1.012810 0.000001 0.000000 0.000000 0.000000 0.968648
    51 1.012810 -0.000001 0.000000 0.000000 0.000000 0.968648
    52 2.110540 0.000000 0.000000 0.330782 -0.316919 -0.589239
    53 5.253243 3.139475 -1.673515 2.984594 -1.570796 0.000000
    54 5.253259 3.139473 -0.054760 3.092328 -1.570796 0.000000
    55 5.253252 3.139468 1.574632 2.984594 -1.570796 0.000000
    56 4.598148 4.158443 -1.350299 2.984594 -1.570796 0.000000
    57 4.598139 4.158430 -0.054439 3.285158 -1.570796 0.000000
    58 4.598140 4.158430 1.240876 2.984594 -1.570796 0.000000
    59 0.891927 2.373051 -0.014527 -3.141592 -0.000001 1.498866
    60 7.228122 5.709446 3.726568 3.069466 -1.570796 0.000000
  time 8
    0 1.720918 6.467291 38.353326 0.000000 0.000000 -1.701759
    1 0.472998 0.800806 0.000000 -1.570795 -1.570451 0.000000
    2 -0.000006 0.000008 4.427393 -0.174042 -3.186917 0.046217
    3 18.465940 0.000000 0.000000 0.000000 0.000000 -0.358287
    4 14.875443 0.000000 -0.000001 0.023403 0.043042 0.394447
    5 0.000006 -0.000004 -4.427393 0.100953 3.064731 -0.352598
    6 18.465940 0.000000 0.000000 0.000000 0.000000 -0.417301
    7 14.875443 0.000000 0.000000 -0.008007 0.036905 0.058536
    8 2.255207 -0.007574 0.000003 -0.217638 0.074579 -0.069248
    9 9.514226 -0.009357 0.000000 -0.004902 -0.000192 0.007603
    10 2.450429 5.076128 0.001325 3.092257 -1.570796 0.000000
    11 6.312407 -4.528058 0.001311 3.180439 -1.570796 0.000000
    12 2.233310 1.152535 -7.309138 -1.144560 -1.579446 -0.861951
    13 11.751820 -0.001633 0.000000 0.000096 0.130823 1.085364
    14 -0.730735 1.890043 -2.766917 -1.242545 1.169809 0.859568
    15 4.640942 0.000000 0.000000 -0.820920 -0.442827 0.908319
    16 10.828047 0.000000 0.000000 0.000000 0.000000 -1.280781
    17 9.393338 0.000000 0.000001 1.569611 -0.034191 0.000006
    18 1.442242 0.107453 1.746178 -1.686405 -0.539236 0.325847
    19 1.063451 0.000000 -0.000001 0.000000 0.000000 0.199061
    20 4.172844 -0.251366 1.312745 -0.008038 -0.095731 0.148656
    21 1.215373 0.000000 0.000001 0.000000 0.000000 0.645746
    22 1.215372 0.000000 0.000001 0.000000 0.000000 0.645746
    23 4.220531 -0.244854 0.431466 -0.001333 -0.026242 0.148336
    24 1.350417 0.000001 -0.000001 0.000000 0.000000 0.863895
    25 1.350410 -0.000001 0.000001 0.000000 0.000000 0.863900
    26 4.262825 -0.232720 -1.392178 0.016840 0.076668 0.253759
    27 -1.426069 1.890031 2.493474 -0.768537 -1.392210 2.819943
    28 4.640942 0.000000 -0.000001 0.380830 1.069083 0.494224
    29 10.828047 0.000000 -0.000002 0.000000 0.000000 -0.927861
    30 9.393336 -0.000001 0.000000 -1.569611 0.034172 0.000042
    31 1.442245 0.107453 -1.746177 1.686425 0.539224 0.325885
    32 1.063452 -0.000001 -0.000001 0.000000 0.000000 0.199055
    33 1.376307 -0.000001 0.000000 0.000000 0.000000 0.199027
    34 4.172847 -0.251366 -1.312744 0.008038 0.095731 0.148656
    35 1.215373 0.000001 0.000000 0.000000 0.000000 0.645758
    36 1.215371 -0.000001 0.000000 0.000000 0.000000 0.645758
    37 4.220535 -0.244855 -0.431465 0.001333 0.026242 0.148336
    38 1.350416 0.000000 0.000000 0.000000 0.000000 0.863875
    39 1.350410 -0.000001 -0.000001 0.000000 0.000000 0.863891
    40 4.237636 -0.195359 0.527090 0.000662 0.008837 0.261753
    41 1.215376 0.000001 0.000001 0.000000 0.000000 0.977358
    42 1.215371 0.000000 0.000000 0.000000 0.000000 0.977358
    43 4.262829 -0.232721 1.392178 -0.016840 -0.076676 0.253759
    44 1.012811 0.000000 0.000000 0.000000 0.000000 0.968601
    45 1.012809 -0.000001 0.000000 0.000000 0.000000 0.968601
    46 1.376306 -0.000001 0.000000 0.000000 0.000000 0.199052
    47 4.237632 -0.195359 -0.527090 -0.000662 -0.008837 0.261752
    48 1.215375 0.000001 -0.000001 0.000000 0.000000 0.977335
    49 1.215371 0.000000 0.000001 0.000000 0.000000 0.977347
    50 1.012810 0.000001 0.000000 0.000000 0.000000 0.968648
    51 1.012810 -0.000001 0.000000 0.000000 0.000000 0.968648
    52 2.110540 0.000000 0.000000 0.313041 -0.334517 -0.543656
    53 5.253243 3.139475 -1.673515 2.984594 -1.570796 0.000000
    54 5.253259 3.139473 -0.054760 3.084041 -1.570796 0.000000
    55 5.253252 3.139468 1.574632 2.984594 -1.570796 0.000000
    56 4.598148 4.158443 -1.350299 2.984594 -1.570796 0.000000
    57 4.598139 4.158430 -0.054439 3.262090 -1.570796 0.000000
    58 4.598140 4.158430 1.240876 2.984594 -1.570796 0.000000
    59 0.891927 2.373051 -0.014527 -3.141592 -0.000001 1.492217
    60 7.228122 5.709446 3.726568 3.111257 -1.570796 0.000000
  time 9
    0 1.720918 6.522321 38.490049 0.000000 0.000000 -1.701759
    1 0.101893 0.792993 0.000000 -1.570795 -1.570451 0.000000
    2 -0.000006 0.000008 4.427393 -0.174519 -3.187847 0.042925
    3 18.465940 0.000000 0.000000 0.000000 0.000000 -0.337818
    4 14.875443 0.000000 -0.000001 0.023802 0.044617 0.370982
    5 0.000006 -0.000004 -4.427393 0.102580 3.068273 -0.335378
    6 18.465940 0.000000 0.000000 0.000000 0.000000 -0.354161
    7 14.875443 0.000000 0.000000 -0.007696 0.035126 0.012804
    8 2.255207 -0.007574 0.000003 -0.213543 0.074028 -0.034243
    9 9.514226 -0.009357 0.000000 -0.003751 -0.000168 0.006396
    10 2.450429 5.076128 0.001325 3.090326 -1.570796 0.000000
    11 6.312407 -4.528058 0.001311 3.163549 -1.570796 0.000000
    12 2.233310 1.152535 -7.309138 -1.146381 -1.579504 -0.855345
    13 11.751820 -0.001633 0.000000 0.000096 0.130823 1.085364
    14 -0.730735 1.890043 -2.766917 -1.251997 1.163437 0.851004
    15 4.640942 0.000000 0.000000 -0.882418 -0.470653 0.900760
    16 10.828047 0.000000 0.000000 0.000000 0.000000 -1.280781
    17 9.393338 0.000000 0.000001 1.569611 -0.034191 0.000006
    18 1.442242 0.107453 1.746178 -1.686405 -0.539236 0.325847
    19 1.063451 0.000000 -0.000001 0.000000 0.000000 0.199061
    20 4.172844 -0.251366 1.312745 -0.008038 -0.095731 0.148656
    21 1.215373 0.000000 0.000001 0.000000 0.000000 0.645746
    22 1.215372 0.000000 0.000001 0.000000 0.000000 0.645746
    23 4.220531 -0.244854 0.431466 -0.001333 -0.026242 0.148336
    24 1.350417 0.000001 -0.000001 0.000000 0.000000 0.863895
    25 1.350410 -0.000001 0.000001 0.000000 0.000000 0.863900
    26 4.262825 -0.232720 -1.392178 0.016840 0.076668 0.253759
    27 -1.426069 1.890031 2.493474 -0.753057 -1.395677 2.804702
    28 4.640942 0.000000 -0.000001 0.404899 1.112750 0.541521
    29 10.828047 0.000000 -0.000002 0.000000 0.000000 -0.934938
    30 9.393336 -0.000001 0.000000 -1.569611 0.034172 0.000042
    31 1.442245 0.107453 -1.746177 1.686425 0.539224 0.325885
    32 1.063452 -0.000001 -0.000001 0.000000 0.000000 0.199055
    33 1.376307 -0.000001 0.000000 0.000000 0.000000 0.199027
    34 4.172847 -0.251366 -1.312744 0.008038 0.095731 0.148656
    35 1.215373 0.000001 0.000000 0.000000 0.000000 0.645758
    36 1.215371 -0.000001 0.000000 0.000000 0.000000 0.645758
    37 4.220535 -0.244855 -0.431465 0.001333 0.026242 0.148336
    38 1.350416 0.000000 0.000000 0.000000 0.000000 0.863875
    39 1.350410 -0.000001 -0.000001 0.000000 0.000000 0.863891
    40 4.237636 -0.195359 0.527090 0.000662 0.008837 0.261753
    41 1.215376 0.000001 0.000001 0.000000 0.000000 0.977358
    42 1.215371 0.000000 0.000000 0.000000 0.000000 0.977358
    43 4.262829 -0.232721 1.392178 -0.016840 -0.076676 0.253759
    44 1.012811 0.000000 0.000000 0.000000 0.000000 0.968601
    45 1.012809 -0.000001 0.000000 0.000000 0.000000 0.968601
    46 1.376306 -0.000001 0.000000 0.000000 0.000000 0.199052
    47 4.237632 -0.195359 -0.527090 -0.000662 -0.008837 0.261752
    48 1.215375 0.000001 -0.000001 0.000000 0.000000 0.977335
    49 1.215371 0.000000 0.000001 0.000000 0.000000 0.977347
    50 1.012810 0.000001 0.000000 0.000000 0.000000 0.968648
    51 1.012810 -0.000001 0.000000 0.000000 0.000000 0.968648
    52 2.110540 0.000000 0.000000 0.313089 -0.329433 -0.559426
    53 5.253243 3.139475 -1.673515 2.984594 -1.570796 0.000000
    54 5.253259 3.139473 -0.054760 3.075754 -1.570796 0.000000
    55 5.253252 3.139468 1.574632 2.984594 -1.570796 0.000000
    56 4.598148 4.158443 -1.350299 2.984594 -1.570796 0.000000
    57 4.598139 4.158430 -0.054439 3.238960 -1.570796 0.000000
    58 4.598140 4.158430 1.240876 2.984594 -1.570796 0.000000
    59 0.891927 2.373051 -0.014527 -3.141592 -0.000001 1.485659
    60 7.228122 5.709446 3.726568 3.113632 -1.570796 0.000000
  time 10
    0 1.720918 6.522321 38.572082 0.000000 0.000000 -1.701759
    1 -0.214523 0.773461 0.000000 -1.570795 -1.570451 0.000000
    2 -0.000006 0.000008 4.427393 -0.175092 -3.187475 0.034945
    3 18.465940 0.000000 0.000000 0.000000 0.000000 -0.332554
    4 14.875443 0.000000 -0.000001 0.023944 0.045532 0.357827
    5 0.000006 -0.000004 -4.427393 0.103250 3.071722 -0.322463
    6 18.465940 0.000000 0.000000 0.000000 0.000000 -0.303885
    7 14.875443 0.000000 0.000000 -0.006718 0.033257 -0.024263
    8 2.255207 -0.007574 0.000003 -0.205331 0.072146 -0.004035
    9 9.514226 -0.009357 0.000000 -0.002876 -0.000096 0.003916
    10 2.450429 5.076128 0.001325 3.090502 -1.570796 0.000000
    11 6.312407 -4.528058 0.001311 3.148445 -1.570796 0.000000
    12 2.233310 1.152535 -7.309138 -1.106404 -1.572602 -0.886269
    13 11.751820 -0.001633 0.000000 0.000096 0.130823 1.085364
    14 -0.730735 1.890043 -2.766917 -1.282556 1.152125 0.820618
    15 4.640942 0.000000 0.000000 -0.952051 -0.487739 0.918398
    16 10.828047 0.000000 0.000000 0.000000 0.000000 -1.301981
    17 9.393338 0.000000 0.000001 1.569611 -0.034191 0.000006
    18 1.442242 0.107453 1.746178 -1.686405 -0.539236 0.325847
    19 1.063451 0.000000 -0.000001 0.000000 0.000000 0.199061
    20 4.172844 -0.251366 1.312745 -0.008038 -0.095731 0.148656
    21 1.215373 0.000000 0.000001 0.000000 0.000000 0.645746
    22 1.215372 0.000000 0.000001 0.000000 0.000000 0.645746
    23 4.220531 -0.244854 0.431466 -0.001333 -0.026242 0.148336
    24 1.350417 0.000001 -0.000001 0.000000 0.000000 0.863895
    25 1.350410 -0.000001 0.000001 0.000000 0.000000 0.863900
    26 4.262825 -0.232720 -1.392178 0.016840 0.076668 0.253759
    27 -1.426069 1.890031 2.493474 -0.728472 -1.399239 2.779970
    28 4.640942 0.000000 -0.000001 0.436925 1.149461 0.589989
    29 10.828047 0.000000 -0.000002 0.000000 0.000000 -0.936220
    30 9.393336 -0.000001 0.000000 -1.569611 0.034172 0.000042
    31 1.442245 0.107453 -1.746177 1.686425 0.539224 0.325885
    32 1.063452 -0.000001 -0.000001 0.000000 0.000000 0.199055
    33 1.376307 -0.000001 0.000000 0.000000 0.000000 0.199027
    34 4.172847 -0.251366 -1.312744 0.008038 0.095731 0.148656
    35 1.215373 0.000001 0.000000 0.000000 0.000000 0.645758
    36 1.215371 -0.000001 0.000000 0.000000 0.000000 0.645758
    37 4.220535 -0.244855 -0.431465 0.001333 0.026242 0.148336
    38 1.350416 0.000000 0.000000 0.000000 0.000000 0.863875
    39 1.350410 -0.000001 -0.000001 0.000000 0.000000 0.863891
    40 4.237636 -0.195359 0.527090 0.000662 0.008837 0.261753
    41 1.215376 0.000001 0.000001 0.000000 0.000000 0.977358
    42 1.215371 0.000000 0.000000 0.000000 0.000000 0.977358
    43 4.262829 -0.232721 1.392178 -0.016840 -0.076676 0.253759
    44 1.012811 0.000000 0.000000 0.000000 0.000000 0.968601
    45 1.012809 -0.000001 0.000000 0.000000 0.000000 0.968601
    46 1.376306 -0.000001 0.000000 0.000000 0.000000 0.199052
    47 4.237632 -0.195359 -0.527090 -0.000662 -0.008837 0.261752
    48 1.215375 0.000001 -0.000001 0.000000 0.000000 0.977335
    49 1.215371 0.000000 0.000001 0.000000 0.000000 0.977347
    50 1.012810 0.000001 0.000000 0.000000 0.000000 0.968648
    51 1.012810 -0.000001 0.000000 0.000000 0.000000 0.968648
    52 2.110540 0.000000 0.000000 0.342991 -0.285384 -0.682943
    53 5.253243 3.139475 -1.673515 2.984594 -1.570796 0.000000
    54 5.253259 3.139473 -0.054760 3.067467 -1.570796 0.000000
    55 5.253252 3.139468 1.574632 2.984594 -1.570796 0.000000
    56 4.598148 4.158443 -1.350299 2.984594 -1.570796 0.000000
    57 4.598139 4.158430 -0.054439 3.215769 -1.570796 0.000000
    58 4.598140 4.158430 1.240876 2.984594 -1.570796 0.000000
    59 0.891927 2.373051 -0.014527 -3.141592 -0.000001 1.479101
    60 7.228122 5.709446 3.726568 3.110497 -1.570796 0.000000
  time 11
    0 1.720918 6.549836 38.595520 0.000000 0.000000 -1.701759
    1 -0.456718 0.730491 0.000000 -1.570795 -1.570451 0.000000
    2 -0.000006 0.000008 4.427393 -0.175283 -3.185521 0.023624
    3 18.465940 0.000000 0.000000 0.000000 0.000000 -0.340011
    4 14.875443 0.000000 -0.000001 0.023688 0.045681 0.353719
    5 0.000006 -0.000004 -4.427393 0.103728 3.074798 -0.315724
    6 18.465940 0.000000 0.000000 0.000000 0.000000 -0.271199
    7 14.875443 0.000000 0.000000 -0.006051 0.031087 -0.049886
    8 2.255207 -0.007574 0.000003 -0.192290 0.068635 0.020449
    9 9.514226 -0.009357 0.000000 -0.002289 0.000000 0.000000
    10 2.450429 5.076128 0.001325 3.092432 -1.570796 0.000000
    11 6.312407 -4.528058 0.001311 3.140332 -1.570796 0.000000
    12 2.233310 1.152535 -7.309138 -1.164980 -1.566282 -0.818006
    13 11.751820 -0.001633 0.000000 0.000096 0.130823 1.085364
    14 -0.730735 1.890043 -2.766917 -1.324344 1.141967 0.777716
    15 4.640942 0.000000 0.000000 -1.019822 -0.504477 0.947304
    16 10.828047 0.000000 0.000000 0.000000 0.000000 -1.323181
    17 9.393338 0.000000 0.000001 1.569611 -0.034191 0.000006
    18 1.442242 0.107453 1.746178 -1.686405 -0.539236 0.325847
    19 1.063451 0.000000 -0.000001 0.000000 0.000000 0.199061
    20 4.172844 -0.251366 1.312745 -0.008038 -0.095731 0.148656
    21 1.215373 0.000000 0.000001 0.000000 0.000000 0.645746
    22 1.215372 0.000000 0.000001 0.000000 0.000000 0.645746
    23 4.220531 -0.244854 0.431466 -0.001333 -0.026242 0.148336
    24 1.350417 0.000001 -0.000001 0.000000 0.000000 0.863895
    25 1.350410 -0.000001 0.000001 0.000000 0.000000 0.863900
    26 4.262825 -0.232720 -1.392178 0.016840 0.076668 0.253759
    27 -1.426069 1.890031 2.493474 -0.693642 -1.403215 2.745174
    28 4.640942 0.000000 -0.000001 0.473864 1.177081 0.635705
    29 10.828047 0.000000 -0.000002 0.000000 0.000000 -0.927861
    30 9.393336 -0.000001 0.000000 -1.569611 0.034172 0.000042
    31 1.442245 0.107453 -1.746177 1.686425 0.539224 0.325885
    32 1.063452 -0.000001 -0.000001 0.000000 0.000000 0.199055
    33 1.376307 -0.000001 0.000000 0.000000 0.000000 0.199027
    34 4.172847 -0.251366 -1.312744 0.008038 0.095731 0.148656
    35 1.215373 0.000001 0.000000 0.000000 0.000000 0.645758
    36 1.215371 -0.000001 0.000000 0.000000 0.000000 0.645758
    37 4.220535 -0.244855 -0.431465 0.001333 0.026242 0.148336
    38 1.350416 0.000000 0.000000 0.000000 0.000000 0.863875
    39 1.350410 -0.000001 -0.000001 0.000000 0.000000 0.863891
    40 4.237636 -0.195359 0.527090 0.000662 0.008837 0.261753
    41 1.215376 0.000001 0.000001 0.000000 0.000000 0.977358
    42 1.215371 0.000000 0.000000 0.000000 0.000000 0.977358
    43 4.262829 -0.232721 1.392178 -0.016840 -0.076676 0.253759
    44 1.012811 0.000000 0.000000 0.000000 0.000000 0.968601
    45 1.012809 -0.000001 0.000000 0.000000 0.000000 0.968601
    46 1.376306 -0.000001 0.000000 0.000000 0.000000 0.199052
    47 4.237632 -0.195359 -0.527090 -0.000662 -0.008837 0.261752
    48 1.215375 0.000001 -0.000001 0.000000 0.000000 0.977335
    49 1.215371 0.000000 0.000001 0.000000 0.000000 0.977347
    50 1.012810 0.000001 0.000000 0.000000 0.000000 0.968648
    51 1.012810 -0.000001 0.000000 0.000000 0.000000 0.968648
    52 2.110540 0.000000 0.000000 0.364261 -0.232648 -0.810056
    53 5.253243 3.139475 -1.673515 2.984594 -1.570796 0.000000
    54 5.253259 3.139473 -0.054760 3.059179 -1.570796 0.000000
    55 5.253252 3.139468 1.574632 2.984594 -1.570796 0.000000
    56 4.598148 4.158443 -1.350299 2.984594 -1.570796 0.000000
    57 4.598139 4.158430 -0.054439 3.192639 -1.570796 0.000000
    58 4.598140 4.158430 1.240876 2.984594 -1.570796 0.000000
    59 0.891927 2.373051 -0.014527 -3.141592 -0.000001 1.472635
    60 7.228122 5.709446 3.726568 3.115531 -1.570796 0.000000
  time 12
    0 1.720918 6.549836 38.603333 0.000000 0.000000 -1.701759
    1 -0.605160 0.671896 0.000000 -1.570795 -1.570451 0.000000
    2 -0.000006 0.000008 4.427393 -0.175283 -3.182730 0.014149
    3 18.465940 0.000000 0.000000 0.000000 0.000000 -0.349441
    4 14.875443 0.000000 -0.000001 0.023318 0.044617 0.353324
    5 0.000006 -0.000004 -4.427393 0.103824 3.077687 -0.312917
    6 18.465940 0.000000 0.000000 0.000000 0.000000 -0.252821
    7 14.875443 0.000000 0.000000 -0.005251 0.028494 -0.065006
    8 2.255207 -0.007574 0.000003 -0.172591 0.062882 0.037059
    9 9.514226 -0.009357 0.000000 -0.002097 0.000168 -0.005971
    10 2.450429 5.076128 0.001325 3.095855 -1.570796 0.000000
    11 6.312407 -4.528058 0.001311 3.137678 -1.570796 0.000000
    12 2.233310 1.152535 -7.309138 -1.157119 -1.568204 -0.817719
    13 11.751820 -0.001633 0.000000 0.000096 0.130823 1.085364
    14 -0.730735 1.890043 -2.766917 -1.348649 1.147946 0.750377
    15 4.640942 0.000000 0.000000 -1.048390 -0.552736 0.948144
    16 10.828047 0.000000 0.000000 0.000000 0.000000 -1.280781
    17 9.393338 0.000000 0.000001 1.569611 -0.034191 0.000006
    18 1.442242 0.107453 1.746178 -1.686405 -0.539236 0.325847
    19 1.063451 0.000000 -0.000001 0.000000 0.000000 0.199061
    20 4.172844 -0.251366 1.312745 -0.008038 -0.095731 0.148656
    21 1.215373 0.000000 0.000001 0.000000 0.000000 0.645746
    22 1.215372 0.000000 0.000001 0.000000 0.000000 0.645746
    23 4.220531 -0.244854 0.431466 -0.001333 -0.026242 0.148336
    24 1.350417 0.000001 -0.000001 0.000000 0.000000 0.863895
    25 1.350410 -0.000001 0.000001 0.000000 0.000000 0.863900
    26 4.262825 -0.232720 -1.392178 0.016840 0.076668 0.253759
    27 -1.426069 1.890031 2.493474 -0.647278 -1.407843 2.698779
    28 4.640942 0.000000 -0.000001 0.513553 1.193129 0.675100
    29 10.828047 0.000000 -0.000002 0.000000 0.000000 -0.906568
    30 9.393336 -0.000001 0.000000 -1.569611 0.034172 0.000042
    31 1.442245 0.107453 -1.746177 1.686425 0.539224 0.325885
    32 1.063452 -0.000001 -0.000001 0.000000 0.000000 0.199055
    33 1.376307 -0.000001 0.000000 0.000000 0.000000 0.199027
    34 4.172847 -0.251366 -1.312744 0.008038 0.095731 0.148656
    35 1.215373 0.000001 0.000000 0.000000 0.000000 0.645758
    36 1.215371 -0.000001 0.000000 0.000000 0.000000 0.645758
    37 4.220535 -0.244855 -0.431465 0.001333 0.026242 0.148336
    38 1.350416 0.000000 0.000000 0.000000 0.000000 0.863875
    39 1.350410 -0.000001 -0.000001 0.000000 0.000000 0.863891
    40 4.237636 -0.195359 0.527090 0.000662 0.008837 0.261753
    41 1.215376 0.000001 0.000001 0.000000 0.000000 0.977358
    42 1.215371 0.000000 0.000000 0.000000 0.000000 0.977358
    43 4.262829 -0.232721 1.392178 -0.016840 -0.076676 0.253759
    44 1.012811 0.000000 0.000000 0.000000 0.000000 0.968601
    45 1.012809 -0.000001 0.000000 0.000000 0.000000 0.968601
    46 1.376306 -0.000001 0.000000 0.000000 0.000000 0.199052
    47 4.237632 -0.195359 -0.527090 -0.000662 -0.008837 0.261752
    48 1.215375 0.000001 -0.000001 0.000000 0.000000 0.977335
    49 1.215371 0.000000 0.000001 0.000000 0.000000 0.977347
    50 1.012810 0.000001 0.000000 0.000000 0.000000 0.968648
    51 1.012810 -0.000001 0.000000 0.000000 0.000000 0.968648
    52 2.110540 0.000000 0.000000 0.363068 -0.193207 -0.885547
    53 5.253243 3.139475 -1.673515 2.984594 -1.570796 0.000000
    54 5.253259 3.139473 -0.054760 3.050892 -1.570796 0.000000
    55 5.253252 3.139468 1.574632 2.984594 -1.570796 0.000000
    56 4.598148 4.158443 -1.350299 2.984594 -1.570796 0.000000
    57 4.598139 4.158430 -0.054439 3.169571 -1.570796 0.000000
    58 4.598140 4.158430 1.240876 2.984594 -1.570796 0.000000
    59 0.891927 2.373051 -0.014527 -3.141592 -0.000001 1.465986
    60 7.228122 5.709446 3.726568 3.119710 -1.570796 0.000000
  time 13
    0 1.720918 6.577350 38.595520 0.000000 0.000000 -1.701759
    1 -0.663756 0.582049 0.000000 -1.570795 -1.570451 0.000000
    2 -0.000006 0.000008 4.427393 -0.175474 -3.179288 0.007166
    3 18.465940 0.000000 0.000000 0.000000 0.000000 -0.359603
    4 14.875443 0.000000 -0.000001 0.023090 0.042297 0.356010
    5 0.000006 -0.000004 -4.427393 0.104111 3.080670 -0.314789
    6 18.465940 0.000000 0.000000 0.000000 0.000000 -0.251509
    7 14.875443 0.000000 0.000000 -0.004673 0.025449 -0.068007
    8 2.255207 -0.007574 0.000003 -0.145856 0.054876 0.045264
    9 9.514226 -0.009357 0.000000 -0.002337 0.000384 -0.014194
    10 2.450429 5.076128 0.001325 3.100419 -1.570796 0.000000
    11 6.312407 -4.528058 0.001311 3.136352 -1.570796 0.000000
    12 2.233310 1.152535 -7.309138 -1.970380 -1.570796 0.000000
    13 11.751820 -0.001633 0.000000 -0.002025 0.121691 1.011322
    14 -0.894803 1.808009 -2.766917 -1.350852 1.181168 0.817242
    15 4.640942 0.000000 0.000000 -1.039521 -0.630426 0.921197
    16 10.828047 0.000000 0.000000 0.000000 0.000000 -1.177338
    17 9.393338 0.000000 0.000001 1.569611 -0.034191 0.000006
    18 1.442242 0.107453 1.746178 -1.686405 -0.539236 0.325847
    19 1.063451 0.000000 -0.000001 0.000000 0.000000 0.199061
    20 4.172844 -0.251366 1.312745 -0.008038 -0.095731 0.148656
    21 1.215373 0.000000 0.000001 0.000000 0.000000 0.645746
    22 1.215372 0.000000 0.000001 0.000000 0.000000 0.645746
    23 4.220531 -0.244854 0.431466 -0.001333 -0.026242 0.148336
    24 1.350417 0.000001 -0.000001 0.000000 0.000000 0.863895
    25 1.350410 -0.000001 0.000001 0.000000 0.000000 0.863900
    26 4.262825 -0.232720 -1.392178 0.016840 0.076668 0.253759
    27 -1.535447 1.796278 2.493474 -0.517216 -1.417257 2.642990
    28 4.640942 0.000000 -0.000001 0.551277 1.196711 0.703490
    29 10.828047 0.000000 -0.000002 0.000000 0.000000 -0.871486
    30 9.393336 -0.000001 0.000000 -1.569611 0.034172 0.000042
    31 1.442245 0.107453 -1.746177 1.686425 0.539224 0.325885
    32 1.063452 -0.000001 -0.000001 0.000000 0.000000 0.199055
    33 1.376307 -0.000001 0.000000 0.000000 0.000000 0.199027
    34 4.172847 -0.251366 -1.312744 0.008038 0.095731 0.148656
    35 1.215373 0.000001 0.000000 0.000000 0.000000 0.645758
    36 1.215371 -0.000001 0.000000 0.000000 0.000000 0.645758
    37 4.220535 -0.244855 -0.431465 0.001333 0.026242 0.148336
    38 1.350416 0.000000 0.000000 0.000000 0.000000 0.863875
    39 1.350410 -0.000001 -0.000001 0.000000 0.000000 0.863891
    40 4.237636 -0.195359 0.527090 0.000662 0.008837 0.261753
    41 1.215376 0.000001 0.000001 0.000000 0.000000 0.977358
    42 1.215371 0.000000 0.000000 0.000000 0.000000 0.977358
    43 4.262829 -0.232721 1.392178 -0.016840 -0.076676 0.253759
    44 1.012811 0.000000 0.000000 0.000000 0.000000 0.968601
    45 1.012809 -0.000001 0.000000 0.000000 0.000000 0.968601
    46 1.376306 -0.000001 0.000000 0.000000 0.000000 0.199052
    47 4.237632 -0.195359 -0.527090 -0.000662 -0.008837 0.261752
    48 1.215375 0.000001 -0.000001 0.000000 0.000000 0.977335
    49 1.215371 0.000000 0.000001 0.000000 0.000000 0.977347
    50 1.012810 0.000001 0.000000 0.000000 0.000000 0.968648
    51 1.012810 -0.000001 0.000000 0.000000 0.000000 0.968648
    52 2.110540 0.000000 0.000000 0.329447 -0.174297 -0.818300
    53 5.253243 3.139475 -1.673515 2.984594 -1.570796 0.000000
    54 5.253259 3.139473 -0.054760 3.042605 -1.570796 0.000000
    55 5.253252 3.139468 1.574632 2.984594 -1.570796 0.000000
    56 4.598148 4.158443 -1.350299 2.984594 -1.570796 0.000000
    57 4.598139 4.158430 -0.054439 3.146441 -1.570796 0.000000
    58 4.598140 4.158430 1.240876 2.984594 -1.570796 0.000000
    59 0.891927 2.373051 -0.014527 -3.141592 -0.000001 1.459519
    60 7.228122 5.709446 3.726568 3.123225 -1.570796 0.000000
  time 14
    0 1.720918 6.632380 38.575989 0.000000 0.000000 -1.701759
    1 -0.636411 0.472671 0.000000 -1.570795 -1.570451 0.000000
    2 -0.000006 0.000008 4.427393 -0.175092 -3.175195 0.002528
    3 18.465940 0.000000 0.000000 0.000000 0.000000 -0.370057
    4 14.875443 0.000000 -0.000001 0.022692 0.039083 0.361185
    5 0.000006 -0.000004 -4.427393 0.104398 3.083373 -0.320685
    6 18.465940 0.000000 0.000000 0.000000 0.000000 -0.264111
    7 14.875443 0.000000 0.000000 -0.004051 0.022193 -0.060954
    8 2.255207 -0.007574 0.000003 -0.113473 0.045229 0.046522
    9 9.514226 -0.009357 0.000000 -0.002900 0.000647 -0.024147
    10 2.450429 5.076128 0.001325 3.105860 -1.570796 0.000000
    11 6.312407 -4.528058 0.001311 3.135994 -1.570796 0.000000
    12 2.233310 1.152535 -7.309138 -1.152996 -1.568000 -0.821165
    13 11.751820 -0.001633 0.000000 -0.003847 0.111743 0.933763
    14 -1.054964 1.714256 -2.774730 -1.346375 1.218545 0.894318
    15 4.640942 0.000000 0.000000 -1.022272 -0.711741 0.893691
    16 10.828047 0.000000 0.000000 0.000000 0.000000 -1.059316
    17 9.393338 0.000000 0.000001 1.569611 -0.034191 0.000006
    18 1.442242 0.107453 1.746178 -1.686405 -0.539236 0.325847
    19 1.063451 0.000000 -0.000001 0.000000 0.000000 0.199061
    20 4.172844 -0.251366 1.312745 -0.008038 -0.095731 0.148656
    21 1.215373 0.000000 0.000001 0.000000 0.000000 0.645746
    22 1.215372 0.000000 0.000001 0.000000 0.000000 0.645746
    23 4.220531 -0.244854 0.431466 -0.001333 -0.026242 0.148336
    24 1.350417 0.000001 -0.000001 0.000000 0.000000 0.863895
    25 1.350410 -0.000001 0.000001 0.000000 0.000000 0.863900
    26 4.262825 -0.232720 -1.392178 0.016840 0.076668 0.253759
    27 -1.648732 1.690806 2.493474 -0.358623 -1.424970 2.562374
    28 4.640942 0.000000 -0.000001 0.584630 1.190236 0.720700
    29 10.828047 0.000000 -0.000002 0.000000 0.000000 -0.826154
    30 9.393336 -0.000001 0.000000 -1.569611 0.034172 0.000042
    31 1.442245 0.107453 -1.746177 1.686425 0.539224 0.325885
    32 1.063452 -0.000001 -0.000001 0.000000 0.000000 0.199055
    33 1.376307 -0.000001 0.000000 0.000000 0.000000 0.199027
    34 4.172847 -0.251366 -1.312744 0.008038 0.095731 0.148656
    35 1.215373 0.000001 0.000000 0.000000 0.000000 0.645758
    36 1.215371 -0.000001 0.000000 0.000000 0.000000 0.645758
    37 4.220535 -0.244855 -0.431465 0.001333 0.026242 0.148336
    38 1.350416 0.000000 0.000000 0.000000 0.000000 0.863875
    39 1.350410 -0.000001 -0.000001 0.000000 0.000000 0.863891
    40 4.237636 -0.195359 0.527090 0.000662 0.008837 0.261753
    41 1.215376 0.000001 0.000001 0.000000 0.000000 0.977358
    42 1.215371 0.000000 0.000000 0.000000 0.000000 0.977358
    43 4.262829 -0.232721 1.392178 -0.016840 -0.076676 0.253759
    44 1.012811 0.000000 0.000000 0.000000 0.000000 0.968601
    45 1.012809 -0.000001 0.000000 0.000000 0.000000 0.968601
    46 1.376306 -0.000001 0.000000 0.000000 0.000000 0.199052
    47 4.237632 -0.195359 -0.527090 -0.000662 -0.008837 0.261752
    48 1.215375 0.000001 -0.000001 0.000000 0.000000 0.977335
    49 1.215371 0.000000 0.000001 0.000000 0.000000 0.977347
    50 1.012810 0.000001 0.000000 0.000000 0.000000 0.968648
    51 1.012810 -0.000001 0.000000 0.000000 0.000000 0.968648
    52 2.110540 0.000000 0.000000 0.288290 -0.154940 -0.736338
    53 5.253243 3.139475 -1.673515 2.984594 -1.570796 0.000000
    54 5.253259 3.139473 -0.054760 3.034318 -1.570796 0.000000
    55 5.253252 3.139468 1.574632 2.984594 -1.570796 0.000000
    56 4.598148 4.158443 -1.350299 2.984594 -1.570796 0.000000
    57 4.598139 4.158430 -0.054439 3.123250 -1.570796 0.000000
    58 4.598140 4.158430 1.240876 2.984594 -1.570796 0.000000
    59 0.891927 2.373051 -0.014527 -3.141592 -0.000001 1.453053
    60 7.228122 5.709446 3.726568 3.126169 -1.570796 0.000000
  time 15
    0 1.720918 6.659895 38.540831 0.000000 0.000000 -1.701759
    1 -0.542658 0.359386 0.000000 -1.570795 -1.570451 0.000000
    2 -0.000006 0.000008 4.427393 -0.174710 -3.170822 -0.000065
    3 18.465940 0.000000 0.000000 0.000000 0.000000 -0.380219
    4 14.875443 0.000000 -0.000001 0.022208 0.035337 0.368019
    5 0.000006 -0.000004 -4.427393 0.104398 3.085703 -0.328827
    6 18.465940 0.000000 0.000000 0.000000 0.000000 -0.285704
    7 14.875443 0.000000 0.000000 -0.003562 0.018877 -0.047185
    8 2.255207 -0.007574 0.000003 -0.076784 0.034563 0.042419
    9 9.514226 -0.009357 0.000000 -0.003727 0.000959 -0.035372
    10 2.450429 5.076128 0.001325 3.111916 -1.570796 0.000000
    11 6.312407 -4.528058 0.001311 3.136403 -1.570796 0.000000
    12 2.233310 1.152535 -7.309138 -1.153092 -1.563165 -0.828154
    13 11.751820 -0.001633 0.000000 -0.005177 0.101161 0.853372
    14 -1.215125 1.604878 -2.774730 -1.333440 1.259062 0.982182
    15 4.640942 0.000000 0.000000 -0.995320 -0.795219 0.863384
    16 10.828047 0.000000 0.000000 0.000000 0.000000 -0.930142
    17 9.393338 0.000000 0.000001 1.569611 -0.034191 0.000006
    18 1.442242 0.107453 1.746178 -1.686405 -0.539236 0.325847
    19 1.063451 0.000000 -0.000001 0.000000 0.000000 0.199061
    20 4.172844 -0.251366 1.312745 -0.008038 -0.095731 0.148656
    21 1.215373 0.000000 0.000001 0.000000 0.000000 0.645746
    22 1.215372 0.000000 0.000001 0.000000 0.000000 0.645746
    23 4.220531 -0.244854 0.431466 -0.001333 -0.026242 0.148336
    24 1.350417 0.000001 -0.000001 0.000000 0.000000 0.863895
    25 1.350410 -0.000001 0.000001 0.000000 0.000000 0.863900
    26 4.262825 -0.232720 -1.392178 0.016840 0.076668 0.253759
    27 -1.754204 1.573615 2.501287 -0.175595 -1.429630 2.460285
    28 4.640942 0.000000 -0.000001 0.613807 1.176667 0.728485
    29 10.828047 0.000000 -0.000002 0.000000 0.000000 -0.772829
    30 9.393336 -0.000001 0.000000 -1.569611 0.034172 0.000042
    31 1.442245 0.107453 -1.746177 1.686425 0.539224 0.325885
    32 1.063452 -0.000001 -0.000001 0.000000 0.000000 0.199055
    33 1.376307 -0.000001 0.000000 0.000000 0.000000 0.199027
    34 4.172847 -0.251366 -1.312744 0.008038 0.095731 0.148656
    35 1.215373 0.000001 0.000000 0.000000 0.000000 0.645758
    36 1.215371 -0.000001 0.000000 0.000000 0.000000 0.645758
    37 4.220535 -0.244855 -0.431465 0.001333 0.026242 0.148336
    38 1.350416 0.000000 0.000000 0.000000 0.000000 0.863875
    39 1.350410 -0.000001 -0.000001 0.000000 0.000000 0.863891
    40 4.237636 -0.195359 0.527090 0.000662 0.008837 0.261753
    41 1.215376 0.000001 0.000001 0.000000 0.000000 0.977358
    42 1.215371 0.000000 0.000000 0.000000 0.000000 0.977358
    43 4.262829 -0.232721 1.392178 -0.016840 -0.076676 0.253759
    44 1.012811 0.000000 0.000000 0.000000 0.000000 0.968601
    45 1.012809 -0.000001 0.000000 0.000000 0.000000 0.968601
    46 1.376306 -0.000001 0.000000 0.000000 0.000000 0.199052
    47 4.237632 -0.195359 -0.527090 -0.000662 -0.008837 0.261752
    48 1.215375 0.000001 -0.000001 0.000000 0.000000 0.977335
    49 1.215371 0.000000 0.000001 0.000000 0.000000 0.977347
    50 1.012810 0.000001 0.000000 0.000000 0.000000 0.968648
    51 1.012810 -0.000001 0.000000 0.000000 0.000000 0.968648
    52 2.110540 0.000000 0.000000 0.242030 -0.134438 -0.643640
    53 5.253243 3.139475 -1.673515 2.984594 -1.570796 0.000000
    54 5.253259 3.139473 -0.054760 3.026030 -1.570796 0.000000
    55 5.253252 3.139468 1.574632 2.984594 -1.570796 0.000000
    56 4.598148 4.158443 -1.350299 2.984594 -1.570796 0.000000
    57 4.598139 4.158430 -0.054439 3.100120 -1.570796 0.000000
    58 4.598140 4.158430 1.240876 2.984594 -1.570796 0.000000
    59 0.891927 2.373051 -0.014527 -3.141592 -0.000001 1.446495
    60 7.228122 5.709446 3.726568 3.128733 -1.570796 0.000000
  time 16
    0 1.720918 6.687409 38.497861 0.000000 0.000000 -1.701759
    1 -0.409842 0.250008 0.000000 -1.570795 -1.570451 0.000000
    2 -0.000006 0.000008 4.427393 -0.174233 -3.166636 -0.001162
    3 18.465940 0.000000 0.000000 0.000000 0.000000 -0.389722
    4 14.875443 0.000000 -0.000001 0.021695 0.031293 0.375683
    5 0.000006 -0.000004 -4.427393 0.104685 3.087940 -0.337624
    6 18.465940 0.000000 0.000000 0.000000 0.000000 -0.311433
    7 14.875443 0.000000 0.000000 -0.003162 0.015682 -0.029928
    8 2.255207 -0.007574 0.000003 -0.037176 0.023489 0.034511
    9 9.514226 -0.009357 0.000000 -0.004746 0.001246 -0.047478
    10 2.450429 5.076128 0.001325 3.118323 -1.570796 0.000000
    11 6.312407 -4.528058 0.001311 3.137321 -1.570796 0.000000
    12 2.233310 1.152535 -7.309138 -1.150024 -1.556962 -0.838494
    13 11.751820 -0.001633 0.000000 -0.005836 0.090003 0.771154
    14 -1.371380 1.479874 -2.774730 -1.309846 1.301449 1.082973
    15 4.640942 0.000000 0.000000 -0.956657 -0.879115 0.827129
    16 10.828047 0.000000 0.000000 0.000000 0.000000 -0.793244
    17 9.393338 0.000000 0.000001 1.569611 -0.034191 0.000006
    18 1.442242 0.107453 1.746178 -1.686405 -0.539236 0.325847
    19 1.063451 0.000000 -0.000001 0.000000 0.000000 0.199061
    20 4.172844 -0.251366 1.312745 -0.008038 -0.095731 0.148656
    21 1.215373 0.000000 0.000001 0.000000 0.000000 0.645746
    22 1.215372 0.000000 0.000001 0.000000 0.000000 0.645746
    23 4.220531 -0.244854 0.431466 -0.001333 -0.026242 0.148336
    24 1.350417 0.000001 -0.000001 0.000000 0.000000 0.863895
    25 1.350410 -0.000001 0.000001 0.000000 0.000000 0.863900
    26 4.262825 -0.232720 -1.392178 0.016840 0.076668 0.253759
    27 -1.847957 1.448611 2.505193 0.021319 -1.430218 2.346215
    28 4.640942 0.000000 -0.000001 0.640135 1.158622 0.729773
    29 10.828047 0.000000 -0.000002 0.000000 0.000000 -0.713891
    30 9.393336 -0.000001 0.000000 -1.569611 0.034172 0.000042
    31 1.442245 0.107453 -1.746177 1.686425 0.539224 0.325885
    32 1.063452 -0.000001 -0.000001 0.000000 0.000000 0.199055
    33 1.376307 -0.000001 0.000000 0.000000 0.000000 0.199027
    34 4.172847 -0.251366 -1.312744 0.008038 0.095731 0.148656
    35 1.215373 0.000001 0.000000 0.000000 0.000000 0.645758
    36 1.215371 -0.000001 0.000000 0.000000 0.000000 0.645758
    37 4.220535 -0.244855 -0.431465 0.001333 0.026242 0.148336
    38 1.350416 0.000000 0.000000 0.000000 0.000000 0.863875
    39 1.350410 -0.000001 -0.000001 0.000000 0.000000 0.863891
    40 4.237636 -0.195359 0.527090 0.000662 0.008837 0.261753
    41 1.215376 0.000001 0.000001 0.000000 0.000000 0.977358
    42 1.215371 0.000000 0.000000 0.000000 0.000000 0.977358
    43 4.262829 -0.232721 1.392178 -0.016840 -0.076676 0.253759
    44 1.012811 0.000000 0.000000 0.000000 0.000000 0.968601
    45 1.012809 -0.000001 0.000000 0.000000 0.000000 0.968601
    46 1.376306 -0.000001 0.000000 0.000000 0.000000 0.199052
    47 4.237632 -0.195359 -0.527090 -0.000662 -0.008837 0.261752
    48 1.215375 0.000001 -0.000001 0.000000 0.000000 0.977335
    49 1.215371 0.000000 0.000001 0.000000 0.000000 0.977347
    50 1.012810 0.000001 0.000000 0.000000 0.000000 0.968648
    51 1.012810 -0.000001 0.000000 0.000000 0.000000 0.968648
    52 2.110540 0.000000 0.000000 0.192670 -0.112260 -0.544136
    53 5.253243 3.139475 -1.673515 2.984594 -1.570796 0.000000
    54 5.253259 3.139473 -0.054760 3.017743 -1.570796 0.000000
    55 5.253252 3.139468 1.574632 2.984594 -1.570796 0.000000
    56 4.598148 4.158443 -1.350299 2.984594 -1.570796 0.000000
    57 4.598139 4.158430 -0.054439 3.077052 -1.570796 0.000000
    58 4.598140 4.158430 1.240876 2.984594 -1.570796 0.000000
    59 0.891927 2.373051 -0.014527 -3.141592 -0.000001 1.439846
    60 7.228122 5.709446 3.726568 3.131203 -1.570796 0.000000
  time 17
    0 1.720918 6.714924 38.454891 0.000000 0.000000 -1.701759
    1 -0.253587 0.136723 0.000000 -1.570795 -1.570451 0.000000
    2 -0.000006 0.000008 4.427393 -0.173469 -3.162542 -0.000913
    3 18.465940 0.000000 0.000000 0.000000 0.000000 -0.398129
    4 14.875443 0.000000 -0.000001 0.021126 0.027313 0.383623
    5 0.000006 -0.000004 -4.427393 0.104780 3.090084 -0.345766
    6 18.465940 0.000000 0.000000 0.000000 0.000000 -0.337556
    7 14.875443 0.000000 0.000000 -0.002762 0.012727 -0.011732
    8 2.255207 -0.007574 0.000003 0.003944 0.012487 0.024453
    9 9.514226 -0.009357 0.000000 -0.005825 0.001558 -0.060008
    10 2.450429 5.076128 0.001325 3.124730 -1.570796 0.000000
    11 6.312407 -4.528058 0.001311 3.138546 -1.570796 0.000000
    12 2.233310 1.152535 -7.309138 -1.149737 -1.551486 -0.846058
    13 11.751820 -0.001633 0.000000 -0.005705 0.078486 0.687840
    14 -1.519822 1.339245 -2.766917 -1.270901 1.344459 1.200234
    15 4.640942 0.000000 0.000000 -0.903343 -0.961687 0.780584
    16 10.828047 0.000000 0.000000 0.000000 0.000000 -0.651815
    17 9.393338 0.000000 0.000001 1.569611 -0.034191 0.000006
    18 1.442242 0.107453 1.746178 -1.686405 -0.539236 0.325847
    19 1.063451 0.000000 -0.000001 0.000000 0.000000 0.199061
    20 4.172844 -0.251366 1.312745 -0.008038 -0.095731 0.148656
    21 1.215373 0.000000 0.000001 0.000000 0.000000 0.645746
    22 1.215372 0.000000 0.000001 0.000000 0.000000 0.645746
    23 4.220531 -0.244854 0.431466 -0.001333 -0.026242 0.148336
    24 1.350417 0.000001 -0.000001 0.000000 0.000000 0.863895
    25 1.350410 -0.000001 0.000001 0.000000 0.000000 0.863900
    26 4.262825 -0.232720 -1.392178 0.016840 0.076668 0.253759
    27 -1.933897 1.307982 2.516912 0.217550 -1.426385 2.234062
    28 4.640942 0.000000 -0.000001 0.664990 1.138786 0.727431
    29 10.828047 0.000000 -0.000002 0.000000 0.000000 -0.651842
    30 9.393336 -0.000001 0.000000 -1.569611 0.034172 0.000042
    31 1.442245 0.107453 -1.746177 1.686425 0.539224 0.325885
    32 1.063452 -0.000001 -0.000001 0.000000 0.000000 0.199055
    33 1.376307 -0.000001 0.000000 0.000000 0.000000 0.199027
    34 4.172847 -0.251366 -1.312744 0.008038 0.095731 0.148656
    35 1.215373 0.000001 0.000000 0.000000 0.000000 0.645758
    36 1.215371 -0.000001 0.000000 0.000000 0.000000 0.645758
    37 4.220535 -0.244855 -0.431465 0.001333 0.026242 0.148336
    38 1.350416 0.000000 0.000000 0.000000 0.000000 0.863875
    39 1.350410 -0.000001 -0.000001 0.000000 0.000000 0.863891
    40 4.237636 -0.195359 0.527090 0.000662 0.008837 0.261753
    41 1.215376 0.000001 0.000001 0.000000 0.000000 0.977358
    42 1.215371 0.000000 0.000000 0.000000 0.000000 0.977358
    43 4.262829 -0.232721 1.392178 -0.016840 -0.076676 0.253759
    44 1.012811 0.000000 0.000000 0.000000 0.000000 0.968601
    45 1.012809 -0.000001 0.000000 0.000000 0.000000 0.968601
    46 1.376306 -0.000001 0.000000 0.000000 0.000000 0.199052
    47 4.237632 -0.195359 -0.527090 -0.000662 -0.008837 0.261752
    48 1.215375 0.000001 -0.000001 0.000000 0.000000 0.977335
    49 1.215371 0.000000 0.000001 0.000000 0.000000 0.977347
    50 1.012810 0.000001 0.000000 0.000000 0.000000 0.968648
    51 1.012810 -0.000001 0.000000 0.000000 0.000000 0.968648
    52 2.110540 0.000000 0.000000 0.142213 -0.088294 -0.441707
    53 5.253243 3.139475 -1.673515 2.984594 -1.570796 0.000000
    54 5.253259 3.139473 -0.054760 3.009456 -1.570796 0.000000
    55 5.253252 3.139468 1.574632 2.984594 -1.570796 0.000000
    56 4.598148 4.158443 -1.350299 2.984594 -1.570796 0.000000
    57 4.598139 4.158430 -0.054439 3.053861 -1.570796 0.000000
    58 4.598140 4.158430 1.240876 2.984594 -1.570796 0.000000
    59 0.891927 2.373051 -0.014527 -3.141592 -0.000001 1.433288
    60 7.228122 5.709446 3.726568 3.133293 -1.570796 0.000000
  time 18
    0 1.720918 6.797469 38.419734 0.000000 0.000000 -1.701759
    1 -0.097332 0.039064 0.000000 -1.570795 -1.570451 0.000000
    2 -0.000006 0.000008 4.427393 -0.172992 -3.159007 -0.000115
    3 18.465940 0.000000 0.000000 0.000000 0.000000 -0.405440
    4 14.875443 0.000000 -0.000001 0.020614 0.023546 0.391010
    5 0.000006 -0.000004 -4.427393 0.105067 3.091948 -0.352785
    6 18.465940 0.000000 0.000000 0.000000 0.000000 -0.361315
    7 14.875443 0.000000 0.000000 -0.002450 0.010044 0.005263
    8 2.255207 -0.007574 0.000003 0.045211 0.001929 0.013931
    9 9.514226 -0.009357 0.000000 -0.006915 0.001846 -0.072538
    10 2.450429 5.076128 0.001325 3.130786 -1.570796 0.000000
    11 6.312407 -4.528058 0.001311 3.139617 -1.570796 0.000000
    12 2.233310 1.152535 -7.309138 -1.146957 -1.553350 -0.853143
    13 11.751820 -0.001633 0.000000 -0.004698 0.066789 0.604343
    14 -1.660451 1.182990 -2.755198 -1.208503 1.386592 1.341540
    15 4.640942 0.000000 0.000000 -0.831015 -1.041329 0.717662
    16 10.828047 0.000000 0.000000 0.000000 0.000000 -0.509166
    17 9.393338 0.000000 0.000001 1.569611 -0.034191 0.000006
    18 1.442242 0.107453 1.746178 -1.686405 -0.539236 0.325847
    19 1.063451 0.000000 -0.000001 0.000000 0.000000 0.199061
    20 4.172844 -0.251366 1.312745 -0.008038 -0.095731 0.148656
    21 1.215373 0.000000 0.000001 0.000000 0.000000 0.645746
    22 1.215372 0.000000 0.000001 0.000000 0.000000 0.645746
    23 4.220531 -0.244854 0.431466 -0.001333 -0.026242 0.148336
    24 1.350417 0.000001 -0.000001 0.000000 0.000000 0.863895
    25 1.350410 -0.000001 0.000001 0.000000 0.000000 0.863900
    26 4.262825 -0.232720 -1.392178 0.016840 0.076668 0.253759
    27 -2.008118 1.163446 2.532538 0.399742 -1.418593 2.136479
    28 4.640942 0.000000 -0.000001 0.689403 1.119431 0.724270
    29 10.828047 0.000000 -0.000002 0.000000 0.000000 -0.588938
    30 9.393336 -0.000001 0.000000 -1.569611 0.034172 0.000042
    31 1.442245 0.107453 -1.746177 1.686425 0.539224 0.325885
    32 1.063452 -0.000001 -0.000001 0.000000 0.000000 0.199055
    33 1.376307 -0.000001 0.000000 0.000000 0.000000 0.199027
    34 4.172847 -0.251366 -1.312744 0.008038 0.095731 0.148656
    35 1.215373 0.000001 0.000000 0.000000 0.000000 0.645758
    36 1.215371 -0.000001 0.000000 0.000000 0.000000 0.645758
    37 4.220535 -0.244855 -0.431465 0.001333 0.026242 0.148336
    38 1.350416 0.000000 0.000000 0.000000 0.000000 0.863875
    39 1.350410 -0.000001 -0.000001 0.000000 0.000000 0.863891
    40 4.237636 -0.195359 0.527090 0.000662 0.008837 0.261753
    41 1.215376 0.000001 0.000001 0.000000 0.000000 0.977358
    42 1.215371 0.000000 0.000000 0.000000 0.000000 0.977358
    43 4.262829 -0.232721 1.392178 -0.016840 -0.076676 0.253759
    44 1.012811 0.000000 0.000000 0.000000 0.000000 0.968601
    45 1.012809 -0.000001 0.000000 0.000000 0.000000 0.968601
    46 1.376306 -0.000001 0.000000 0.000000 0.000000 0.199052
    47 4.237632 -0.195359 -0.527090 -0.000662 -0.008837 0.261752
    48 1.215375 0.000001 -0.000001 0.000000 0.000000 0.977335
    49 1.215371 0.000000 0.000001 0.000000 0.000000 0.977347
    50 1.012810 0.000001 0.000000 0.000000 0.000000 0.968648
    51 1.012810 -0.000001 0.000000 0.000000 0.000000 0.968648
    52 2.110540 0.000000 0.000000 0.092663 -0.062848 -0.340142
    53 5.253243 3.139475 -1.673515 2.984594 -1.570796 0.000000
    54 5.253259 3.139473 -0.054760 3.001169 -1.570796 0.000000
    55 5.253252 3.139468 1.574632 2.984594 -1.570796 0.000000
    56 4.598148 4.158443 -1.350299 2.984594 -1.570796 0.000000
    57 4.598139 4.158430 -0.054439 3.030731 -1.570796 0.000000
    58 4.598140 4.158430 1.240876 2.984594 -1.570796 0.000000
    59 0.891927 2.373051 -0.014527 -3.141592 -0.000001 1.426730
    60 7.228122 5.709446 3.726568 3.135572 -1.570796 0.000000
  time 19
    0 1.720918 6.797469 38.380670 0.000000 0.000000 -1.701759
    1 0.051110 -0.042970 0.000000 -1.570795 -1.570451 0.000000
    2 -0.000006 0.000008 4.427393 -0.172419 -3.155658 0.000733
    3 18.465940 0.000000 0.000000 0.000000 0.000000 -0.411508
    4 14.875443 0.000000 -0.000001 0.020102 0.020183 0.397370
    5 0.000006 -0.000004 -4.427393 0.105354 3.093812 -0.358213
    6 18.465940 0.000000 0.000000 0.000000 0.000000 -0.380743
    7 14.875443 0.000000 0.000000 -0.002095 0.007572 0.019444
    8 2.255207 -0.007574 0.000003 0.085092 -0.008043 0.004700
    9 9.514226 -0.009357 0.000000 -0.007946 0.002109 -0.084644
    10 2.450429 5.076128 0.001325 3.136227 -1.570796 0.000000
    11 6.312407 -4.528058 0.001311 3.140587 -1.570796 0.000000
    12 2.233310 1.152535 -7.309138 -1.146669 -1.557515 -0.848834
    13 11.751820 -0.001633 0.000000 -0.002756 0.055092 0.521394
    14 -1.777642 1.022829 -2.743479 -1.108084 1.426347 1.520725
    15 4.640942 0.000000 0.000000 -0.733352 -1.115950 0.630103
    16 10.828047 0.000000 0.000000 0.000000 0.000000 -0.369015
    17 9.393338 0.000000 0.000001 1.569611 -0.034191 0.000006
    18 1.442242 0.107453 1.746178 -1.686405 -0.539236 0.325847
    19 1.063451 0.000000 -0.000001 0.000000 0.000000 0.199061
    20 4.172844 -0.251366 1.312745 -0.008038 -0.095731 0.148656
    21 1.215373 0.000000 0.000001 0.000000 0.000000 0.645746
    22 1.215372 0.000000 0.000001 0.000000 0.000000 0.645746
    23 4.220531 -0.244854 0.431466 -0.001333 -0.026242 0.148336
    24 1.350417 0.000001 -0.000001 0.000000 0.000000 0.863895
    25 1.350410 -0.000001 0.000001 0.000000 0.000000 0.863900
    26 4.262825 -0.232720 -1.392178 0.016840 0.076668 0.253759
    27 -2.070620 1.011098 2.544257 0.560309 -1.407827 2.060272
    28 4.640942 0.000000 -0.000001 0.713816 1.102488 0.722690
    29 10.828047 0.000000 -0.000002 0.000000 0.000000 -0.527743
    30 9.393336 -0.000001 0.000000 -1.569611 0.034172 0.000042
    31 1.442245 0.107453 -1.746177 1.686425 0.539224 0.325885
    32 1.063452 -0.000001 -0.000001 0.000000 0.000000 0.199055
    33 1.376307 -0.000001 0.000000 0.000000 0.000000 0.199027
    34 4.172847 -0.251366 -1.312744 0.008038 0.095731 0.148656
    35 1.215373 0.000001 0.000000 0.000000 0.000000 0.645758
    36 1.215371 -0.000001 0.000000 0.000000 0.000000 0.645758
    37 4.220535 -0.244855 -0.431465 0.001333 0.026242 0.148336
    38 1.350416 0.000000 0.000000 0.000000 0.000000 0.863875
    39 1.350410 -0.000001 -0.000001 0.000000 0.000000 0.863891
    40 4.237636 -0.195359 0.527090 0.000662 0.008837 0.261753
    41 1.215376 0.000001 0.000001 0.000000 0.000000 0.977358
    42 1.215371 0.000000 0.000000 0.000000 0.000000 0.977358
    43 4.262829 -0.232721 1.392178 -0.016840 -0.076676 0.253759
    44 1.012811 0.000000 0.000000 0.000000 0.000000 0.968601
    45 1.012809 -0.000001 0.000000 0.000000 0.000000 0.968601
    46 1.376306 -0.000001 0.000000 0.000000 0.000000 0.199052
    47 4.237632 -0.195359 -0.527090 -0.000662 -0.008837 0.261752
    48 1.215375 0.000001 -0.000001 0.000000 0.000000 0.977335
    49 1.215371 0.000000 0.000001 0.000000 0.000000 0.977347
    50 1.012810 0.000001 0.000000 0.000000 0.000000 0.968648
    51 1.012810 -0.000001 0.000000 0.000000 0.000000 0.968648
    52 2.110540 0.000000 0.000000 0.045640 -0.036563 -0.242986
    53 5.253243 3.139475 -1.673515 2.984594 -1.570796 0.000000
    54 5.253259 3.139473 -0.054760 2.992881 -1.570796 0.000000
    55 5.253252 3.139468 1.574632 2.984594 -1.570796 0.000000
    56 4.598148 4.158443 -1.350299 2.984594 -1.570796 0.000000
    57 4.598139 4.158430 -0.054439 3.007662 -1.570796 0.000000
    58 4.598140 4.158430 1.240876 2.984594 -1.570796 0.000000
    59 0.891927 2.373051 -0.014527 -3.141592 -0.000001 1.420264
    60 7.228122 5.709446 3.726568 3.138042 -1.570796 0.000000
  time 20
    0 1.720918 6.880013 38.353326 0.000000 0.000000 -1.701759
    1 0.164395 -0.125004 0.000000 -1.570795 -1.570451 0.000000
    2 -0.000006 0.000008 4.427393 -0.170796 -3.152960 0.000833
    3 18.465940 0.000000 0.000000 0.000000 0.000000 -0.416552
    4 14.875443 0.000000 -0.000001 0.018451 0.017416 0.402071
    5 0.000006 -0.000004 -4.427393 0.105928 3.095770 -0.362237
    6 18.465940 0.000000 0.000000 0.000000 0.000000 -0.394329
    7 14.875443 0.000000 0.000000 -0.002006 0.005221 0.029348
    8 2.255207 -0.007574 0.000003 0.122096 -0.017403 -0.001322
    9 9.514226 -0.009357 0.000000 -0.008785 0.002361 -0.095902
    10 2.450429 5.076128 0.001325 3.140791 -1.570796 0.000000
    11 6.312407 -4.528058 0.001311 3.140842 -1.570796 0.000000
    12 2.233310 1.152535 -7.309138 -1.150312 -1.562117 -0.839356
    13 11.751820 -0.001633 0.000000 0.000024 0.043599 0.439998
    14 -1.890927 0.854855 -2.731760 -0.942425 1.461416 1.764305
    15 4.640942 0.000000 0.000000 -0.601438 -1.183806 0.506918
    16 10.828047 0.000000 0.000000 0.000000 0.000000 -0.234324
    17 9.393338 0.000000 0.000001 1.569611 -0.034191 0.000006
    18 1.442242 0.107453 1.746178 -1.686405 -0.539236 0.325847
    19 1.063451 0.000000 -0.000001 0.000000 0.000000 0.199061
    20 4.172844 -0.251366 1.312745 -0.008038 -0.095731 0.148656
    21 1.215373 0.000000 0.000001 0.000000 0.000000 0.645746
    22 1.215372 0.000000 0.000001 0.000000 0.000000 0.645746
    23 4.220531 -0.244854 0.431466 -0.001333 -0.026242 0.148336
    24 1.350417 0.000001 -0.000001 0.000000 0.000000 0.863895
    25 1.350410 -0.000001 0.000001 0.000000 0.000000 0.863900
    26 4.262825 -0.232720 -1.392178 0.016840 0.076668 0.253759
    27 -2.117496 0.854843 2.563789 0.697276 -1.395375 2.006400
    28 4.640942 0.000000 -0.000001 0.738474 1.089883 0.724797
    29 10.828047 0.000000 -0.000002 0.000000 0.000000 -0.470391
    30 9.393336 -0.000001 0.000000 -1.569611 0.034172 0.000042
    31 1.442245 0.107453 -1.746177 1.686425 0.539224 0.325885
    32 1.063452 -0.000001 -0.000001 0.000000 0.000000 0.199055
    33 1.376307 -0.000001 0.000000 0.000000 0.000000 0.199027
    34 4.172847 -0.251366 -1.312744 0.008038 0.095731 0.148656
    35 1.215373 0.000001 0.000000 0.000000 0.000000 0.645758
    36 1.215371 -0.000001 0.000000 0.000000 0.000000 0.645758
    37 4.220535 -0.244855 -0.431465 0.001333 0.026242 0.148336
    38 1.350416 0.000000 0.000000 0.000000 0.000000 0.863875
    39 1.350410 -0.000001 -0.000001 0.000000 0.000000 0.863891
    40 4.237636 -0.195359 0.527090 0.000662 0.008837 0.261753
    41 1.215376 0.000001 0.000001 0.000000 0.000000 0.977358
    42 1.215371 0.000000 0.000000 0.000000 0.000000 0.977358
    43 4.262829 -0.232721 1.392178 -0.016840 -0.076676 0.253759
    44 1.012811 0.000000 0.000000 0.000000 0.000000 0.968601
    45 1.012809 -0.000001 0.000000 0.000000 0.000000 0.968601
    46 1.376306 -0.000001 0.000000 0.000000 0.000000 0.199052
    47 4.237632 -0.195359 -0.527090 -0.000662 -0.008837 0.261752
    48 1.215375 0.000001 -0.000001 0.000000 0.000000 0.977335
    49 1.215371 0.000000 0.000001 0.000000 0.000000 0.977347
    50 1.012810 0.000001 0.000000 0.000000 0.000000 0.968648
    51 1.012810 -0.000001 0.000000 0.000000 0.000000 0.968648
    52 2.110540 0.000000 0.000000 0.002385 -0.010503 -0.153642
    53 5.253243 3.139475 -1.673515 2.984594 -1.570796 0.000000
    54 5.253259 3.139473 -0.054760 2.984594 -1.570796 0.000000
    55 5.253252 3.139468 1.574632 2.984594 -1.570796 0.000000
    56 4.598148 4.158443 -1.350299 2.984594 -1.570796 0.000000
    57 4.598139 4.158430 -0.054439 2.984594 -1.570796 0.000000
    58 4.598140 4.158430 1.240876 2.984594 -1.570796 0.000000
    59 0.891927 2.373051 -0.014527 -3.141592 -0.000001 1.413797
    60 7.228122 5.709446 3.726568 3.140796 -1.570796 0.000000
end
