version 1
nodes
0 "Bip01" -1
1 "Bip01 Pelvis" 0
2 "Bip01 Spine" 1
3 "Bip01 Spine1" 2
4 "Bip01 Spine2" 3
5 "Bip01 Spine3" 4
6 "Bip01 Neck" 5
7 "Bip01 L Arm" 6
8 "Bip01 L Arm1" 7
9 "Bip01 L Arm2" 8
10 "Bip01 L Hand" 9
11 "Bip01 L Finger0" 10
12 "Bip01 L Finger1" 10
13 "Bip01 L Finger11" 12
14 "Bip01 L Finger12" 13
15 "Bip01 L Finger2" 10
16 "Bip01 L Finger21" 15
17 "Bip01 L Finger22" 16
18 "Bip01 L Finger3" 10
19 "Bip01 L Finger31" 18
20 "Bip01 L Finger32" 19
21 "Bip01 L Finger4" 10
22 "Bip01 L Finger41" 21
23 "Bip01 L Finger42" 22
24 "Bip01 R Arm" 6
25 "Bip01 R Arm1" 24
26 "Bip01 R Arm2" 25
27 "Bip01 R Hand" 26
28 "Bone01" 27
29 "shell" -1
end
skeleton
time 0
0  -1.511765 2.497085 -21.029339  0.000000 -0.000000 -1.570795
1  0.000000 0.000000 0.000002  -1.570795 -1.570796 0.000000
2  1.383009 -0.004088 0.000002  -0.000004 -0.000001 0.000796
3  8.132097 -6.006478 0.999989  0.000000 -0.000000 0.000000
4  5.136875 -0.004091 -0.000000  0.000000 -0.000000 0.000000
5  5.136878 -0.004089 0.000000  -0.226772 0.000168 -0.000012
6  5.136878 -0.001574 0.000000  -0.000000 0.000000 -0.000000
7  -0.000005 0.001567 1.975722  0.525745 -0.570374 2.837209
8  5.136878 0.000000 0.000005  -0.018337 0.074506 -0.332333
9  14.922129 -1.978405 0.036811  0.000000 -0.000000 -1.464719
10  11.066210 -0.033246 -0.027757  2.311579 0.323937 -0.117553
11  1.437740 0.397852 -1.563974  3.043414 0.422784 1.177560
12  3.620787 -0.277597 -1.324458  0.029384 0.154255 0.194084
13  1.185425 0.000004 -0.000002  -0.000001 -0.000001 0.427375
14  1.185423 -0.000004 -0.000006  0.000000 0.000000 0.619258
15  3.554353 -0.160884 -0.534308  -0.000794 0.000094 0.130828
16  1.382991 -0.000008 0.000001  0.000000 -0.000000 0.758824
17  1.132855 0.000003 0.000000  0.000000 -0.000000 0.514603
18  3.725332 -0.163089 0.395344  -0.000755 0.000246 0.322719
19  1.067948 -0.000002 -0.000001  -0.000000 0.000000 0.680299
20  1.030805 -0.000001 0.000001  -0.000000 0.000000 0.479706
21  3.722753 -0.218236 1.297477  -0.055192 -0.055988 0.655724
22  0.923229 0.000002 -0.000001  -0.000000 0.000001 0.593104
23  0.987851 0.000001 0.000002  -0.000000 0.000000 0.313978
24  -0.000006 0.001579 -1.975722  -0.000014 1.370797 3.140783
25  5.136876 -0.000000 -0.000000  -1.600582 -1.134154 1.223003
26  11.854332 -0.000001 0.000000  -0.000000 0.000000 -1.974964
27  11.854331 -0.000001 0.000001  1.342875 0.262930 0.125754
28  18.858337 0.534664 3.027740  1.494070 -0.019277 -3.133288
29  -1.498099 2.497097 -62.499489  -0.000000 -0.000000 0.000000
time 1
0  -1.511765 2.497085 -21.029339  0.000000 -0.000000 -1.570795
1  0.000000 0.000000 0.000002  -1.570795 -1.570796 0.000000
2  1.383009 -0.004088 0.000002  -0.000004 -0.000001 0.000796
3  8.132097 -6.006478 0.999989  0.000000 -0.000000 0.000000
4  5.136875 -0.004091 -0.000000  0.000000 -0.000000 0.000000
5  5.136878 -0.004089 0.000000  -0.226772 0.000168 -0.000012
6  5.136878 -0.001574 0.000000  -0.000000 0.000000 -0.000000
7  -0.000005 0.001567 1.975722  0.525745 -0.570374 2.837209
8  5.136878 0.000000 0.000005  -0.018632 0.074324 -0.329339
9  14.922127 -1.978404 0.036811  0.000000 -0.000000 -1.464719
10  11.066211 -0.033245 -0.027759  2.321739 0.323937 -0.117553
11  1.437739 0.397851 -1.563975  3.043413 0.422784 1.177560
12  3.620786 -0.277596 -1.324458  0.028925 0.154341 0.191101
13  1.185426 0.000003 -0.000002  -0.000001 -0.000001 0.423487
14  1.185421 -0.000005 -0.000004  0.000000 0.000000 0.619258
15  3.554353 -0.160883 -0.534308  -0.000795 0.000092 0.127611
16  1.382994 -0.000008 0.000003  0.000000 -0.000000 0.753729
17  1.132855 0.000002 0.000000  0.000000 -0.000000 0.514603
18  3.725332 -0.163090 0.395343  -0.000756 0.000243 0.319501
19  1.067947 0.000000 0.000001  -0.000000 -0.000000 0.675339
20  1.030804 -0.000000 0.000000  -0.000000 -0.000000 0.479706
21  3.722752 -0.218235 1.297477  -0.054996 -0.056179 0.652239
22  0.923228 0.000001 0.000001  -0.000000 0.000001 0.586400
23  0.987852 0.000000 0.000003  -0.000000 0.000000 0.313978
24  -0.000006 0.001579 -1.975722  -0.000014 1.370797 3.140783
25  5.136876 -0.000000 -0.000000  -1.600582 -1.134154 1.223003
26  11.854332 -0.000001 0.000000  -0.000000 0.000000 -1.974964
27  11.854331 -0.000001 0.000001  1.342127 0.262945 0.125024
28  18.858339 0.534665 3.027741  1.494070 -0.019277 -3.133288
29  -1.498099 2.497097 -62.499489  -0.000000 -0.000000 0.000000
time 2
0  -1.511765 2.497085 -21.029339  0.000000 -0.000000 -1.570795
1  0.000000 0.000000 0.000002  -1.570795 -1.570796 0.000000
2  1.383009 -0.004088 0.000002  -0.000004 -0.000001 0.000796
3  8.132097 -6.006478 0.999989  0.000000 -0.000000 0.000000
4  5.136875 -0.004091 -0.000000  0.000000 -0.000000 0.000000
5  5.136878 -0.004089 0.000000  -0.226772 0.000168 -0.000012
6  5.136878 -0.001574 0.000000  -0.000000 0.000000 -0.000000
7  -0.000005 0.001567 1.975722  0.525745 -0.570374 2.837209
8  5.136878 0.000000 0.000005  -0.019534 0.073930 -0.320088
9  14.922129 -1.978405 0.036810  0.000000 -0.000000 -1.464719
10  11.066210 -0.033246 -0.027759  2.352410 0.323937 -0.117553
11  1.437739 0.397851 -1.563972  3.043414 0.422784 1.177560
12  3.620786 -0.277596 -1.324457  0.027540 0.154592 0.182094
13  1.185426 0.000004 -0.000002  -0.000001 -0.000001 0.411750
14  1.185424 -0.000005 -0.000006  0.000000 0.000000 0.619258
15  3.554353 -0.160883 -0.534307  -0.000795 0.000085 0.117898
16  1.382992 -0.000008 0.000001  0.000000 -0.000000 0.738349
17  1.132856 0.000002 0.000001  0.000000 -0.000000 0.514603
18  3.725332 -0.163089 0.395345  -0.000758 0.000236 0.309788
19  1.067947 -0.000000 0.000000  -0.000000 -0.000000 0.660365
20  1.030804 -0.000004 0.000001  -0.000000 -0.000000 0.479706
21  3.722753 -0.218235 1.297478  -0.054403 -0.056754 0.641715
22  0.923227 0.000001 0.000001  -0.000000 0.000001 0.566163
23  0.987854 0.000001 0.000003  -0.000000 0.000000 0.313978
24  -0.000006 0.001579 -1.975722  -0.000014 1.370797 3.140783
25  5.136876 -0.000000 -0.000000  -1.600582 -1.134154 1.223003
26  11.854332 -0.000001 0.000000  -0.000000 0.000000 -1.974964
27  11.854331 -0.000001 0.000001  1.339854 0.262988 0.122762
28  18.858335 0.534664 3.027741  1.494070 -0.019277 -3.133288
29  -1.498099 2.497097 -62.499489  -0.000000 -0.000000 0.000000
time 3
0  -1.511765 2.497085 -21.029339  0.000000 -0.000000 -1.570795
1  0.000000 0.000000 0.000002  -1.570795 -1.570796 0.000000
2  1.383009 -0.004088 0.000002  -0.000004 -0.000001 0.000796
3  8.132097 -6.006478 0.999989  0.000000 -0.000000 0.000000
4  5.136875 -0.004091 -0.000000  0.000000 -0.000000 0.000000
5  5.136878 -0.004089 0.000000  -0.226772 0.000168 -0.000012
6  5.136878 -0.001574 0.000000  -0.000000 0.000000 -0.000000
7  -0.000005 0.001567 1.975722  0.525745 -0.570374 2.837209
8  5.136878 0.000000 0.000005  -0.021016 0.073436 -0.304417
9  14.922130 -1.978404 0.036810  0.000000 -0.000000 -1.464719
10  11.066209 -0.033245 -0.027759  2.402984 0.323937 -0.117553
11  1.437741 0.397853 -1.563975  3.043414 0.422784 1.177560
12  3.620787 -0.277596 -1.324460  0.025250 0.154979 0.167241
13  1.185426 0.000004 -0.000003  -0.000001 -0.000001 0.392398
14  1.185423 -0.000004 -0.000006  0.000000 0.000000 0.619258
15  3.554354 -0.160883 -0.534309  -0.000796 0.000073 0.101882
16  1.382991 -0.000007 0.000001  0.000000 -0.000000 0.712988
17  1.132856 0.000003 0.000001  0.000000 -0.000000 0.514603
18  3.725333 -0.163089 0.395344  -0.000762 0.000225 0.293771
19  1.067947 0.000001 0.000000  0.000000 0.000000 0.635675
20  1.030804 -0.000002 0.000000  -0.000000 -0.000000 0.479706
21  3.722754 -0.218234 1.297477  -0.053410 -0.057689 0.624362
22  0.923228 0.000001 0.000000  -0.000000 0.000001 0.532794
23  0.987852 -0.000001 0.000004  -0.000000 0.000000 0.313978
24  -0.000006 0.001579 -1.975722  -0.000014 1.370797 3.140783
25  5.136876 -0.000000 -0.000000  -1.600582 -1.134154 1.223003
26  11.854332 -0.000001 0.000000  -0.000000 0.000000 -1.974964
27  11.854331 -0.000001 0.000001  1.336072 0.263051 0.118901
28  18.858339 0.534665 3.027741  1.494070 -0.019277 -3.133288
29  -1.498099 2.497097 -62.499489  -0.000000 -0.000000 0.000000
time 4
0  -1.511765 2.497085 -21.029339  0.000000 -0.000000 -1.570795
1  0.000000 0.000000 0.000002  -1.570795 -1.570796 0.000000
2  1.383009 -0.004088 0.000002  -0.000004 -0.000001 0.000796
3  8.132097 -6.006478 0.999989  0.000000 -0.000000 0.000000
4  5.136875 -0.004091 -0.000000  0.000000 -0.000000 0.000000
5  5.136878 -0.004089 0.000000  -0.226772 0.000168 -0.000012
6  5.136878 -0.001574 0.000000  -0.000000 0.000000 -0.000000
7  -0.000005 0.001567 1.975722  0.525745 -0.570374 2.837209
8  5.136878 0.000000 0.000005  -0.022962 0.072786 -0.282606
9  14.922128 -1.978405 0.036810  0.000000 -0.000000 -1.464719
10  11.066210 -0.033246 -0.027758  2.471243 0.323937 -0.117553
11  1.437740 0.397852 -1.563973  3.043413 0.422784 1.177560
12  3.620786 -0.277596 -1.324457  0.022151 0.155448 0.147191
13  1.185426 0.000003 -0.000002  -0.000001 -0.000001 0.366277
14  1.185423 -0.000004 -0.000003  0.000000 0.000000 0.619257
15  3.554353 -0.160883 -0.534307  -0.000797 0.000057 0.080266
16  1.382992 -0.000007 0.000001  0.000000 -0.000000 0.678759
17  1.132856 0.000004 -0.000000  0.000000 -0.000000 0.514603
18  3.725333 -0.163088 0.395346  -0.000767 0.000209 0.272153
19  1.067948 0.000000 -0.000001  -0.000000 0.000000 0.602350
20  1.030803 -0.000000 0.000001  -0.000000 -0.000000 0.479706
21  3.722753 -0.218234 1.297478  -0.052046 -0.058923 0.600937
22  0.923229 0.000000 0.000000  -0.000000 0.000001 0.487756
23  0.987852 0.000001 0.000003  -0.000000 0.000000 0.313978
24  -0.000006 0.001579 -1.975722  -0.000014 1.370797 3.140783
25  5.136876 -0.000000 -0.000000  -1.600582 -1.134154 1.223003
26  11.854332 -0.000001 0.000000  -0.000000 0.000000 -1.974964
27  11.854331 -0.000001 0.000001  1.330906 0.263120 0.113457
28  18.858339 0.534664 3.027741  1.494070 -0.019277 -3.133288
29  -1.498099 2.497097 -62.499489  -0.000000 -0.000000 0.000000
time 5
0  -1.511765 2.497085 -21.029339  0.000000 -0.000000 -1.570795
1  0.000000 0.000000 0.000002  -1.570795 -1.570796 0.000000
2  1.383009 -0.004088 0.000002  -0.000004 -0.000001 0.000796
3  8.132097 -6.006478 0.999989  0.000000 -0.000000 0.000000
4  5.136875 -0.004091 -0.000000  0.000000 -0.000000 0.000000
5  5.136878 -0.004089 0.000000  -0.226772 0.000168 -0.000012
6  5.136878 -0.001574 0.000000  -0.000000 0.000000 -0.000000
7  -0.000005 0.001567 1.975722  0.525745 -0.570374 2.837209
8  5.136878 0.000000 0.000005  -0.025171 0.071785 -0.255505
9  14.922128 -1.978404 0.036810  0.000000 -0.000000 -1.464719
10  11.066209 -0.033246 -0.027760  2.552984 0.323937 -0.117553
11  1.437739 0.397851 -1.563973  3.043414 0.422784 1.177560
12  3.620785 -0.277596 -1.324457  0.018428 0.155929 0.123178
13  1.185424 0.000003 -0.000001  -0.000001 -0.000001 0.334998
14  1.185422 -0.000004 -0.000005  0.000000 0.000000 0.619257
15  3.554352 -0.160883 -0.534307  -0.000798 0.000038 0.054380
16  1.382991 -0.000007 0.000001  0.000000 -0.000000 0.637770
17  1.132855 0.000003 -0.000000  0.000000 -0.000000 0.514603
18  3.725332 -0.163088 0.395345  -0.000772 0.000190 0.246266
19  1.067947 0.000000 -0.000001  0.000000 0.000000 0.562443
20  1.030803 -0.000001 0.000002  -0.000000 -0.000000 0.479706
21  3.722751 -0.218235 1.297479  -0.050374 -0.060357 0.572881
22  0.923228 0.000001 0.000000  -0.000000 0.000001 0.433823
23  0.987853 0.000000 0.000002  -0.000000 0.000000 0.313978
24  -0.000006 0.001579 -1.975722  -0.000014 1.370797 3.140783
25  5.136876 -0.000000 -0.000000  -1.600582 -1.134154 1.223003
26  11.854332 -0.000001 0.000000  -0.000000 0.000000 -1.974964
27  11.854331 -0.000001 0.000001  1.324624 0.263179 0.106569
28  18.858335 0.534664 3.027741  1.494070 -0.019277 -3.133288
29  -1.498099 2.497097 -62.499489  -0.000000 -0.000000 0.000000
time 6
0  -1.511765 2.497085 -21.029339  0.000000 -0.000000 -1.570795
1  0.000000 0.000000 0.000002  -1.570795 -1.570796 0.000000
2  1.383009 -0.004088 0.000002  -0.000004 -0.000001 0.000796
3  8.132097 -6.006478 0.999989  0.000000 -0.000000 0.000000
4  5.136875 -0.004091 -0.000000  0.000000 -0.000000 0.000000
5  5.136878 -0.004089 0.000000  -0.226772 0.000168 -0.000012
6  5.136878 -0.001574 0.000000  -0.000000 0.000000 -0.000000
7  -0.000005 0.001567 1.975722  0.525745 -0.570374 2.837209
8  5.136878 0.000000 0.000005  -0.027391 0.070218 -0.224539
9  14.922129 -1.978405 0.036810  0.000000 -0.000000 -1.464719
10  11.066210 -0.033246 -0.027759  2.642074 0.323937 -0.117553
11  1.437739 0.397850 -1.563973  3.043414 0.422784 1.177560
12  3.620786 -0.277598 -1.324457  0.014358 0.156352 0.097002
13  1.185426 0.000003 -0.000001  -0.000001 -0.000001 0.300907
14  1.185422 -0.000002 -0.000004  0.000000 0.000000 0.619257
15  3.554353 -0.160884 -0.534306  -0.000799 0.000016 0.026167
16  1.382990 -0.000007 0.000001  0.000000 -0.000000 0.593095
17  1.132855 0.000003 -0.000001  0.000000 0.000000 0.514603
18  3.725332 -0.163090 0.395344  -0.000777 0.000169 0.218051
19  1.067948 -0.000001 -0.000000  0.000000 0.000000 0.518949
20  1.030803 -0.000003 0.000000  -0.000000 -0.000000 0.479706
21  3.722753 -0.218236 1.297478  -0.048506 -0.061867 0.542297
22  0.923227 0.000001 0.000002  -0.000001 0.000001 0.375040
23  0.987851 0.000000 0.000003  -0.000000 0.000000 0.313978
24  -0.000006 0.001579 -1.975722  -0.000014 1.370797 3.140783
25  5.136876 -0.000000 -0.000000  -1.600582 -1.134154 1.223003
26  11.854332 -0.000001 0.000000  -0.000000 0.000000 -1.974964
27  11.854331 -0.000001 0.000001  1.317634 0.263205 0.098515
28  18.858335 0.534664 3.027741  1.494070 -0.019277 -3.133288
29  -1.498099 2.497097 -62.499489  -0.000000 -0.000000 0.000000
time 7
0  -1.511765 2.497085 -21.029339  0.000000 -0.000000 -1.570795
1  0.000000 0.000000 0.000002  -1.570795 -1.570796 0.000000
2  1.383009 -0.004088 0.000002  -0.000004 -0.000001 0.000796
3  8.132097 -6.006478 0.999989  0.000000 -0.000000 0.000000
4  5.136875 -0.004091 -0.000000  0.000000 -0.000000 0.000000
5  5.136878 -0.004089 0.000000  -0.226772 0.000168 -0.000012
6  5.136878 -0.001574 0.000000  -0.000000 0.000000 -0.000000
7  -0.000005 0.001567 1.975722  0.525745 -0.570374 2.837209
8  5.136878 0.000000 0.000005  -0.029377 0.068025 -0.191488
9  14.922127 -1.978405 0.036811  0.000000 -0.000000 -1.464719
10  11.066208 -0.033246 -0.027759  2.731165 0.323937 -0.117553
11  1.437739 0.397852 -1.563975  3.043414 0.422784 1.177560
12  3.620786 -0.277596 -1.324459  0.010278 0.156670 0.070823
13  1.185424 0.000005 -0.000003  -0.000001 -0.000001 0.266816
14  1.185425 -0.000005 -0.000004  0.000000 -0.000000 0.619258
15  3.554352 -0.160882 -0.534308  -0.000798 -0.000005 -0.002046
16  1.382992 -0.000006 0.000000  0.000000 -0.000000 0.548420
17  1.132855 0.000001 0.000001  0.000000 -0.000000 0.514603
18  3.725331 -0.163089 0.395343  -0.000782 0.000147 0.189836
19  1.067948 0.000001 0.000000  -0.000000 0.000000 0.475454
20  1.030804 -0.000002 0.000001  -0.000000 -0.000000 0.479706
21  3.722752 -0.218235 1.297477  -0.046593 -0.063320 0.511708
22  0.923229 0.000001 0.000001  -0.000001 0.000001 0.316258
23  0.987852 -0.000000 0.000003  -0.000000 0.000000 0.313978
24  -0.000006 0.001579 -1.975722  -0.000014 1.370797 3.140783
25  5.136876 -0.000000 -0.000000  -1.600582 -1.134154 1.223003
26  11.854332 -0.000001 0.000000  -0.000000 0.000000 -1.974964
27  11.854331 -0.000001 0.000001  1.310444 0.263179 0.089690
28  18.858337 0.534664 3.027741  1.494070 -0.019277 -3.133288
29  -1.498099 2.497097 -62.499489  -0.000000 -0.000000 0.000000
time 8
0  -1.511765 2.497085 -21.029339  0.000000 -0.000000 -1.570795
1  0.000000 0.000000 0.000002  -1.570795 -1.570796 0.000000
2  1.383009 -0.004088 0.000002  -0.000004 -0.000001 0.000796
3  8.132097 -6.006478 0.999989  0.000000 -0.000000 0.000000
4  5.136875 -0.004091 -0.000000  0.000000 -0.000000 0.000000
5  5.136878 -0.004089 0.000000  -0.226772 0.000168 -0.000012
6  5.136878 -0.001574 0.000000  -0.000000 0.000000 -0.000000
7  -0.000005 0.001567 1.975722  0.525745 -0.570374 2.837209
8  5.136878 0.000000 0.000005  -0.030931 0.065435 -0.158099
9  14.922129 -1.978405 0.036811  0.000000 -0.000000 -1.464719
10  11.066210 -0.033246 -0.027758  2.812905 0.323937 -0.117553
11  1.437739 0.397853 -1.563974  3.043414 0.422784 1.177560
12  3.620785 -0.277595 -1.324458  0.006528 0.156868 0.046802
13  1.185426 0.000003 -0.000002  -0.000001 -0.000001 0.235537
14  1.185422 -0.000004 -0.000003  -0.000000 0.000000 0.619258
15  3.554352 -0.160882 -0.534308  -0.000798 -0.000024 -0.027932
16  1.382991 -0.000006 0.000000  0.000000 -0.000000 0.507430
17  1.132855 0.000003 0.000000  0.000000 -0.000000 0.514603
18  3.725331 -0.163087 0.395343  -0.000786 0.000128 0.163949
19  1.067948 0.000000 -0.000000  -0.000000 0.000000 0.435548
20  1.030803 -0.000003 0.000000  -0.000000 -0.000000 0.479706
21  3.722752 -0.218234 1.297477  -0.044799 -0.064600 0.483637
22  0.923228 0.000003 0.000002  -0.000001 0.000001 0.262325
23  0.987852 -0.000001 0.000002  -0.000000 0.000000 0.313978
24  -0.000006 0.001579 -1.975722  -0.000014 1.370797 3.140783
25  5.136876 -0.000000 -0.000000  -1.600582 -1.134154 1.223003
26  11.854332 -0.000001 0.000000  -0.000000 0.000000 -1.974964
27  11.854331 -0.000001 0.000001  1.303576 0.263088 0.080543
28  18.858337 0.534665 3.027741  1.494070 -0.019277 -3.133288
29  -1.498099 2.497097 -62.499489  -0.000000 -0.000000 0.000000
time 9
0  -1.511765 2.497085 -21.029339  0.000000 -0.000000 -1.570795
1  0.000000 0.000000 0.000002  -1.570795 -1.570796 0.000000
2  1.383009 -0.004088 0.000002  -0.000004 -0.000001 0.000796
3  8.132097 -6.006478 0.999989  0.000000 -0.000000 0.000000
4  5.136875 -0.004091 -0.000000  0.000000 -0.000000 0.000000
5  5.136878 -0.004089 0.000000  -0.226772 0.000168 -0.000012
6  5.136878 -0.001574 0.000000  -0.000000 0.000000 -0.000000
7  -0.000005 0.001567 1.975722  0.525745 -0.570374 2.837209
8  5.136878 0.000000 0.000005  -0.031929 0.062951 -0.125662
9  14.922127 -1.978405 0.036811  0.000000 -0.000000 -1.464719
10  11.066210 -0.033247 -0.027758  2.881165 0.323937 -0.117553
11  1.437739 0.397853 -1.563973  3.043414 0.422784 1.177560
12  3.620785 -0.277596 -1.324457  0.003394 0.156966 0.026741
13  1.185426 0.000004 -0.000002  -0.000001 -0.000001 0.209416
14  1.185423 -0.000003 -0.000004  0.000000 0.000000 0.619257
15  3.554352 -0.160883 -0.534307  -0.000796 -0.000040 -0.049549
16  1.382993 -0.000008 0.000001  0.000000 -0.000000 0.473201
17  1.132855 0.000005 -0.000000  0.000000 -0.000000 0.514603
18  3.725331 -0.163088 0.395345  -0.000788 0.000112 0.142331
19  1.067949 -0.000002 -0.000001  0.000000 0.000000 0.402223
20  1.030803 -0.000002 0.000000  -0.000000 -0.000000 0.479706
21  3.722752 -0.218233 1.297478  -0.043273 -0.065630 0.460192
22  0.923227 -0.000001 -0.000001  -0.000001 0.000001 0.217287
23  0.987852 0.000001 0.000002  -0.000000 0.000000 0.313978
24  -0.000006 0.001579 -1.975722  -0.000014 1.370797 3.140783
25  5.136876 -0.000000 -0.000000  -1.600582 -1.134154 1.223003
26  11.854332 -0.000001 0.000000  -0.000000 0.000000 -1.974964
27  11.854331 -0.000001 0.000001  1.297479 0.262926 0.071502
28  18.858339 0.534664 3.027741  1.494070 -0.019277 -3.133288
29  -1.498099 2.497097 -62.499489  -0.000000 -0.000000 0.000000
time 10
0  -1.511765 2.497085 -21.029339  0.000000 -0.000000 -1.570795
1  0.000000 0.000000 0.000002  -1.570795 -1.570796 0.000000
2  1.383009 -0.004088 0.000002  -0.000004 -0.000001 0.000796
3  8.132097 -6.006478 0.999989  0.000000 -0.000000 0.000000
4  5.136875 -0.004091 -0.000000  0.000000 -0.000000 0.000000
5  5.136878 -0.004089 0.000000  -0.226772 0.000168 -0.000012
6  5.136878 -0.001574 0.000000  -0.000000 0.000000 -0.000000
7  -0.000005 0.001567 1.975722  0.525745 -0.570374 2.837209
8  5.136878 0.000000 0.000005  -0.032310 0.061199 -0.094779
9  14.922129 -1.978404 0.036810  0.000000 -0.000000 -1.464719
10  11.066211 -0.033247 -0.027758  2.931739 0.323937 -0.117553
11  1.437739 0.397853 -1.563975  3.043414 0.422784 1.177560
12  3.620786 -0.277595 -1.324458  0.001071 0.156998 0.011878
13  1.185426 0.000004 -0.000002  -0.000001 -0.000001 0.190064
14  1.185425 -0.000003 -0.000005  0.000000 0.000000 0.619258
15  3.554353 -0.160882 -0.534308  -0.000795 -0.000052 -0.065565
16  1.382991 -0.000008 0.000003  0.000000 -0.000000 0.447840
17  1.132855 0.000004 -0.000000  0.000000 0.000000 0.514603
18  3.725332 -0.163087 0.395343  -0.000790 0.000099 0.126314
19  1.067947 0.000000 0.000002  -0.000000 -0.000000 0.377532
20  1.030803 -0.000003 0.000001  -0.000000 0.000000 0.479706
21  3.722752 -0.218233 1.297477  -0.042128 -0.066370 0.442820
22  0.923228 0.000001 0.000001  -0.000001 0.000001 0.183918
23  0.987852 0.000001 0.000001  -0.000000 0.000000 0.313978
24  -0.000006 0.001579 -1.975722  -0.000014 1.370797 3.140783
25  5.136876 -0.000000 -0.000000  -1.600582 -1.134154 1.223003
26  11.854332 -0.000001 0.000000  -0.000000 0.000000 -1.974964
27  11.854331 -0.000001 0.000001  1.292476 0.262693 0.062910
28  18.858339 0.534664 3.027741  1.494070 -0.019277 -3.133288
29  -1.498099 2.497097 -62.499489  -0.000000 -0.000000 0.000000
time 11
0  -1.511765 2.497085 -21.029339  0.000000 -0.000000 -1.570795
1  0.000000 0.000000 0.000002  -1.570795 -1.570796 0.000000
2  1.383009 -0.004088 0.000002  -0.000004 -0.000001 0.000796
3  8.132097 -6.006478 0.999989  0.000000 -0.000000 0.000000
4  5.136875 -0.004091 -0.000000  0.000000 -0.000000 0.000000
5  5.136878 -0.004089 0.000000  -0.226772 0.000168 -0.000012
6  5.136878 -0.001574 0.000000  -0.000000 0.000000 -0.000000
7  -0.000005 0.001567 1.975722  0.525745 -0.570374 2.837209
8  5.136878 0.000000 0.000005  -0.032065 0.060726 -0.065376
9  14.922128 -1.978404 0.036810  0.000000 -0.000000 -1.464719
10  11.066210 -0.033246 -0.027759  2.962409 0.323937 -0.117553
11  1.437740 0.397851 -1.563974  3.043414 0.422784 1.177560
12  3.620786 -0.277598 -1.324458  -0.000339 0.157001 0.002864
13  1.185426 0.000004 -0.000002  -0.000001 -0.000001 0.178327
14  1.185422 -0.000003 -0.000005  0.000000 0.000000 0.619258
15  3.554352 -0.160885 -0.534307  -0.000795 -0.000059 -0.075277
16  1.382993 -0.000007 0.000001  0.000000 -0.000000 0.432460
17  1.132855 0.000004 0.000000  0.000000 -0.000000 0.514603
18  3.725332 -0.163090 0.395344  -0.000791 0.000092 0.116601
19  1.067948 -0.000000 0.000000  -0.000000 0.000000 0.362559
20  1.030803 -0.000003 -0.000000  0.000000 -0.000000 0.479706
21  3.722752 -0.218236 1.297477  -0.041427 -0.066810 0.432284
22  0.923228 0.000001 0.000001  -0.000001 0.000001 0.163681
23  0.987851 -0.000000 0.000002  -0.000000 0.000000 0.313978
24  -0.000006 0.001579 -1.975722  -0.000014 1.370797 3.140783
25  5.136876 -0.000000 -0.000000  -1.600582 -1.134154 1.223003
26  11.854332 -0.000001 0.000000  -0.000000 0.000000 -1.974964
27  11.854331 -0.000001 0.000001  1.288750 0.262397 0.055006
28  18.858341 0.534665 3.027741  1.494070 -0.019277 -3.133288
29  -1.498099 2.497097 -62.499489  -0.000000 -0.000000 0.000000
time 12
0  -1.511765 2.497085 -21.029339  0.000000 -0.000000 -1.570795
1  0.000000 0.000000 0.000002  -1.570795 -1.570796 0.000000
2  1.383009 -0.004088 0.000002  -0.000004 -0.000001 0.000796
3  8.132097 -6.006478 0.999989  0.000000 -0.000000 0.000000
4  5.136875 -0.004091 -0.000000  0.000000 -0.000000 0.000000
5  5.136878 -0.004089 0.000000  -0.226772 0.000168 -0.000012
6  5.136878 -0.001574 0.000000  -0.000000 0.000000 -0.000000
7  -0.000005 0.001567 1.975722  0.525745 -0.570374 2.837209
8  5.136878 0.000000 0.000005  -0.031215 0.061836 -0.036884
9  14.922127 -1.978405 0.036811  0.000000 -0.000000 -1.464719
10  11.066210 -0.033245 -0.027759  2.972569 0.323937 -0.117553
11  1.437739 0.397851 -1.563974  3.043414 0.422784 1.177560
12  3.620786 -0.277598 -1.324458  -0.000805 0.156999 -0.000122
13  1.185425 0.000004 -0.000003  -0.000001 -0.000001 0.174440
14  1.185423 -0.000006 -0.000004  0.000000 0.000000 0.619258
15  3.554352 -0.160884 -0.534307  -0.000794 -0.000062 -0.078495
16  1.382992 -0.000007 0.000001  0.000000 -0.000000 0.427365
17  1.132855 0.000003 -0.000001  0.000000 -0.000000 0.514603
18  3.725332 -0.163089 0.395344  -0.000791 0.000090 0.113383
19  1.067948 -0.000001 0.000002  -0.000000 0.000000 0.357598
20  1.030803 -0.000001 -0.000000  -0.000000 -0.000000 0.479706
21  3.722752 -0.218235 1.297477  -0.041194 -0.066954 0.428793
22  0.923228 0.000002 0.000000  -0.000001 0.000001 0.156977
23  0.987851 0.000001 0.000001  -0.000000 0.000000 0.313978
24  -0.000006 0.001579 -1.975722  -0.000014 1.370797 3.140783
25  5.136876 -0.000000 -0.000000  -1.600582 -1.134154 1.223003
26  11.854332 -0.000001 0.000000  -0.000000 0.000000 -1.974964
27  11.854331 -0.000001 0.000001  1.286370 0.262047 0.047926
28  18.858337 0.534664 3.027741  1.494070 -0.019277 -3.133288
29  -1.498099 2.497097 -62.499489  -0.000000 -0.000000 0.000000
time 13
0  -1.511765 2.497085 -21.029339  0.000000 -0.000000 -1.570795
1  0.000000 0.000000 0.000002  -1.570795 -1.570796 0.000000
2  1.383009 -0.004088 0.000002  -0.000004 -0.000001 0.000796
3  8.132097 -6.006478 0.999989  0.000000 -0.000000 0.000000
4  5.136875 -0.004091 -0.000000  0.000000 -0.000000 0.000000
5  5.136878 -0.004089 0.000000  -0.226772 0.000168 -0.000012
6  5.136878 -0.001574 0.000000  -0.000000 0.000000 -0.000000
7  -0.000005 0.001567 1.975722  0.525745 -0.570374 2.837209
8  5.136878 0.000000 0.000005  -0.028771 0.067900 0.003689
9  14.922128 -1.978405 0.036811  0.000000 -0.000000 -1.464719
10  11.066210 -0.033246 -0.027758  2.972569 0.323937 -0.117553
11  1.437739 0.397852 -1.563974  3.043414 0.422784 1.177560
12  3.620786 -0.277595 -1.324458  -0.000805 0.156999 -0.000122
13  1.185424 0.000004 -0.000002  -0.000001 -0.000001 0.174440
14  1.185424 -0.000005 -0.000005  0.000000 0.000000 0.619258
15  3.554353 -0.160883 -0.534308  -0.000794 -0.000062 -0.078495
16  1.382993 -0.000007 0.000001  0.000000 -0.000000 0.427365
17  1.132855 0.000002 0.000000  0.000000 0.000000 0.514603
18  3.725332 -0.163088 0.395345  -0.000791 0.000090 0.113383
19  1.067948 -0.000003 0.000002  -0.000000 -0.000000 0.357598
20  1.030803 -0.000003 0.000002  -0.000000 -0.000000 0.479706
21  3.722753 -0.218233 1.297476  -0.041194 -0.066953 0.428793
22  0.923228 0.000001 -0.000000  -0.000001 0.000001 0.156977
23  0.987853 0.000003 0.000002  -0.000000 0.000000 0.313978
24  -0.000006 0.001579 -1.975722  -0.000014 1.370797 3.140783
25  5.136876 -0.000000 -0.000000  -1.600582 -1.134154 1.223003
26  11.854332 -0.000001 0.000000  -0.000000 0.000000 -1.974964
27  11.854331 -0.000001 0.000001  1.285800 0.260479 0.041490
28  18.858339 0.534664 3.027741  1.494070 -0.019277 -3.133288
29  -1.498099 2.497097 -62.499489  -0.000000 -0.000000 0.000000
time 14
0  -1.511765 2.497085 -21.029339  0.000000 -0.000000 -1.570795
1  0.000000 0.000000 0.000002  -1.570795 -1.570796 0.000000
2  1.383009 -0.004088 0.000002  -0.000004 -0.000001 0.000796
3  8.132097 -6.006478 0.999989  0.000000 -0.000000 0.000000
4  5.136875 -0.004091 -0.000000  0.000000 -0.000000 0.000000
5  5.136878 -0.004089 0.000000  -0.226772 0.000168 -0.000012
6  5.136878 -0.001574 0.000000  -0.000000 0.000000 -0.000000
7  -0.000005 0.001567 1.975722  0.525745 -0.570374 2.837209
8  5.136878 0.000000 0.000005  -0.024417 0.073301 0.064260
9  14.922127 -1.978405 0.036810  0.000000 -0.000000 -1.464719
10  11.066210 -0.033245 -0.027759  2.972569 0.323937 -0.117553
11  1.437739 0.397854 -1.563974  3.043414 0.422784 1.177560
12  3.620785 -0.277594 -1.324459  -0.000805 0.156999 -0.000122
13  1.185426 0.000003 -0.000002  -0.000001 -0.000001 0.174440
14  1.185423 -0.000003 -0.000005  0.000000 0.000000 0.619258
15  3.554352 -0.160882 -0.534309  -0.000794 -0.000062 -0.078495
16  1.382991 -0.000007 0.000002  0.000000 -0.000000 0.427365
17  1.132855 0.000006 -0.000000  0.000000 -0.000000 0.514603
18  3.725331 -0.163086 0.395343  -0.000791 0.000090 0.113383
19  1.067947 0.000001 0.000001  -0.000000 0.000000 0.357598
20  1.030802 -0.000002 0.000001  -0.000000 -0.000000 0.479706
21  3.722752 -0.218233 1.297477  -0.041194 -0.066953 0.428793
22  0.923228 0.000002 0.000001  -0.000001 0.000001 0.156977
23  0.987852 0.000002 0.000001  -0.000000 0.000000 0.313978
24  -0.000006 0.001579 -1.975722  -0.000014 1.370797 3.140783
25  5.136876 -0.000000 -0.000000  -1.600582 -1.134154 1.223003
26  11.854332 -0.000001 0.000000  -0.000000 0.000000 -1.974964
27  11.854331 -0.000001 0.000001  1.289583 0.255776 0.035210
28  18.858337 0.534664 3.027741  1.494070 -0.019277 -3.133288
29  -1.498099 2.497097 -62.499489  -0.000000 -0.000000 0.000000
time 15
0  -1.511765 2.497085 -21.029339  0.000000 -0.000000 -1.570795
1  0.000000 0.000000 0.000002  -1.570795 -1.570796 0.000000
2  1.383009 -0.004088 0.000002  -0.000004 -0.000001 0.000796
3  8.132097 -6.006478 0.999989  0.000000 -0.000000 0.000000
4  5.136875 -0.004091 -0.000000  0.000000 -0.000000 0.000000
5  5.136878 -0.004089 0.000000  -0.226772 0.000168 -0.000012
6  5.136878 -0.001574 0.000000  -0.000000 0.000000 -0.000000
7  -0.000005 0.001567 1.975722  0.525745 -0.570374 2.837209
8  5.136878 0.000000 0.000005  -0.020994 0.069713 0.118216
9  14.922127 -1.978405 0.036811  0.000000 -0.000000 -1.464719
10  11.066211 -0.033246 -0.027758  2.972569 0.323937 -0.117553
11  1.437740 0.397853 -1.563975  3.043414 0.422784 1.177560
12  3.620785 -0.277595 -1.324459  -0.000805 0.156999 -0.000122
13  1.185425 0.000004 -0.000002  -0.000001 -0.000001 0.174440
14  1.185423 -0.000003 -0.000004  0.000000 0.000000 0.619258
15  3.554352 -0.160883 -0.534307  -0.000794 -0.000062 -0.078495
16  1.382990 -0.000006 0.000001  0.000000 -0.000000 0.427365
17  1.132854 0.000003 -0.000000  0.000000 -0.000000 0.514603
18  3.725331 -0.163087 0.395344  -0.000791 0.000090 0.113383
19  1.067949 0.000002 0.000001  -0.000000 -0.000000 0.357598
20  1.030803 -0.000002 0.000001  -0.000000 0.000000 0.479706
21  3.722752 -0.218234 1.297477  -0.041194 -0.066954 0.428793
22  0.923227 0.000001 0.000000  -0.000001 0.000001 0.156977
23  0.987852 0.000003 0.000002  -0.000000 0.000000 0.313978
24  -0.000006 0.001579 -1.975722  -0.000014 1.370797 3.140783
25  5.136876 -0.000000 -0.000000  -1.600582 -1.134154 1.223003
26  11.854332 -0.000001 0.000000  -0.000000 0.000000 -1.974964
27  11.854331 -0.000001 0.000001  1.300173 0.247814 0.028454
28  18.858339 0.534664 3.027740  1.494070 -0.019277 -3.133288
29  -1.498099 2.497097 -62.499489  -0.000000 -0.000000 0.000000
time 16
0  -1.511765 2.497085 -21.029339  0.000000 -0.000000 -1.570795
1  0.000000 0.000000 0.000002  -1.570795 -1.570796 0.000000
2  1.383009 -0.004088 0.000002  -0.000004 -0.000001 0.000796
3  8.132097 -6.006478 0.999989  0.000000 -0.000000 0.000000
4  5.136875 -0.004091 -0.000000  0.000000 -0.000000 0.000000
5  5.136878 -0.004089 0.000000  -0.226772 0.000168 -0.000012
6  5.136878 -0.001574 0.000000  -0.000000 0.000000 -0.000000
7  -0.000005 0.001567 1.975722  0.525745 -0.570374 2.837209
8  5.136878 0.000000 0.000005  -0.019979 0.066328 0.137863
9  14.922128 -1.978405 0.036810  0.000000 -0.000000 -1.464719
10  11.066210 -0.033247 -0.027759  2.972569 0.323937 -0.117553
11  1.437741 0.397852 -1.563974  3.043414 0.422784 1.177560
12  3.620788 -0.277596 -1.324458  -0.000805 0.156999 -0.000122
13  1.185425 0.000004 -0.000003  -0.000001 -0.000001 0.174440
14  1.185422 -0.000003 -0.000005  0.000000 0.000000 0.619258
15  3.554353 -0.160884 -0.534307  -0.000794 -0.000062 -0.078495
16  1.382992 -0.000007 0.000000  0.000000 -0.000000 0.427365
17  1.132854 0.000002 0.000000  0.000000 -0.000000 0.514603
18  3.725333 -0.163090 0.395345  -0.000791 0.000090 0.113383
19  1.067948 0.000001 -0.000000  -0.000000 -0.000000 0.357598
20  1.030804 -0.000006 0.000000  -0.000000 -0.000000 0.479706
21  3.722753 -0.218234 1.297478  -0.041194 -0.066954 0.428793
22  0.923228 0.000001 0.000000  -0.000001 0.000001 0.156977
23  0.987852 0.000001 0.000002  -0.000000 0.000000 0.313978
24  -0.000006 0.001579 -1.975722  -0.000014 1.370797 3.140783
25  5.136876 -0.000000 -0.000000  -1.600582 -1.134154 1.223003
26  11.854332 -0.000001 0.000000  -0.000000 0.000000 -1.974964
27  11.854331 -0.000001 0.000001  1.316831 0.238015 0.020821
28  18.858337 0.534664 3.027740  1.494070 -0.019277 -3.133288
29  -1.498099 2.497097 -62.499489  -0.000000 -0.000000 0.000000
time 17
0  -1.511765 2.497085 -21.029339  0.000000 -0.000000 -1.570795
1  0.000000 0.000000 0.000002  -1.570795 -1.570796 0.000000
2  1.383009 -0.004088 0.000002  -0.000004 -0.000001 0.000796
3  8.132097 -6.006478 0.999989  0.000000 -0.000000 0.000000
4  5.136875 -0.004091 -0.000000  0.000000 -0.000000 0.000000
5  5.136878 -0.004089 0.000000  -0.226772 0.000168 -0.000012
6  5.136878 -0.001574 0.000000  -0.000000 0.000000 -0.000000
7  -0.000005 0.001567 1.975722  0.523962 -0.570820 2.838174
8  5.136878 -0.000001 0.000005  -0.018714 0.066238 0.137675
9  14.922127 -1.978405 0.036811  0.000000 -0.000000 -1.465282
10  11.066212 -0.033245 -0.027757  2.973586 0.322110 -0.119539
11  1.437739 0.397853 -1.563975  3.043414 0.422784 1.177560
12  3.620786 -0.277595 -1.324459  -0.000805 0.156999 -0.000122
13  1.185426 0.000002 -0.000002  -0.000001 -0.000001 0.174440
14  1.185423 -0.000006 -0.000004  0.000000 0.000000 0.619257
15  3.554352 -0.160883 -0.534308  -0.000794 -0.000062 -0.078495
16  1.382991 -0.000007 0.000001  0.000000 -0.000000 0.431729
17  1.132855 0.000004 0.000001  0.000000 0.000000 0.518364
18  3.725332 -0.163088 0.395344  -0.000791 0.000090 0.113383
19  1.067948 0.000001 -0.000000  -0.000000 -0.000000 0.365798
20  1.030803 -0.000001 0.000001  -0.000000 0.000000 0.486175
21  3.722752 -0.218233 1.297476  -0.041470 -0.066783 0.432936
22  0.923228 0.000001 0.000000  -0.000001 0.000001 0.164199
23  0.987852 0.000002 0.000002  -0.000000 0.000000 0.318943
24  -0.000006 0.001579 -1.975722  -0.000014 1.370797 3.140783
25  5.136876 -0.000000 -0.000000  -1.600554 -1.133778 1.222974
26  11.854332 -0.000002 -0.000000  0.000000 -0.000000 -1.974964
27  11.854330 -0.000001 0.000001  1.338325 0.226709 0.012169
28  18.858339 0.534665 3.027740  1.494070 -0.019277 -3.133288
29  -1.498099 2.497097 -62.499489  -0.000000 -0.000000 0.000000
time 18
0  -1.511765 2.497085 -21.029339  0.000000 -0.000000 -1.570795
1  0.000000 0.000000 0.000002  -1.570795 -1.570796 0.000000
2  1.383009 -0.004088 0.000002  -0.000004 -0.000001 0.000796
3  8.132097 -6.006478 0.999989  0.000000 -0.000000 0.000000
4  5.136875 -0.004091 -0.000000  0.000000 -0.000000 0.000000
5  5.136878 -0.004089 0.000000  -0.226772 0.000168 -0.000012
6  5.136878 -0.001574 0.000000  -0.000000 0.000000 -0.000000
7  -0.000005 0.001567 1.975722  0.518567 -0.572163 2.841100
8  5.136878 0.000000 0.000004  -0.014889 0.065967 0.137106
9  14.922128 -1.978404 0.036810  0.000000 -0.000000 -1.466984
10  11.066211 -0.033245 -0.027758  2.976657 0.316588 -0.125541
11  1.437738 0.397853 -1.563975  3.043414 0.422784 1.177560
12  3.620785 -0.277596 -1.324458  -0.000805 0.156999 -0.000122
13  1.185425 0.000005 -0.000003  -0.000001 -0.000001 0.174440
14  1.185424 -0.000006 -0.000004  0.000000 0.000000 0.619258
15  3.554352 -0.160882 -0.534308  -0.000794 -0.000062 -0.078495
16  1.382992 -0.000005 0.000002  0.000000 -0.000000 0.444921
17  1.132856 0.000003 -0.000000  0.000000 0.000000 0.529736
18  3.725330 -0.163088 0.395344  -0.000791 0.000090 0.113383
19  1.067948 0.000001 -0.000001  -0.000000 -0.000000 0.390589
20  1.030802 -0.000002 0.000001  -0.000000 -0.000000 0.505735
21  3.722751 -0.218233 1.297478  -0.042303 -0.066259 0.445462
22  0.923228 0.000001 0.000001  -0.000001 0.000001 0.186034
23  0.987852 0.000000 0.000002  -0.000000 0.000000 0.333955
24  -0.000006 0.001579 -1.975722  -0.000014 1.370797 3.140783
25  5.136876 -0.000000 -0.000000  -1.600468 -1.132642 1.222888
26  11.854333 0.000001 0.000000  -0.000000 -0.000000 -1.974964
27  11.854331 -0.000001 0.000001  1.365112 0.213194 0.002369
28  18.858337 0.534663 3.027740  1.494070 -0.019277 -3.133288
29  -1.498099 2.497097 -62.499489  -0.000000 -0.000000 0.000000
time 19
0  -1.511765 2.497085 -21.029339  0.000000 -0.000000 -1.570795
1  0.000000 0.000000 0.000002  -1.570795 -1.570796 0.000000
2  1.383009 -0.004088 0.000002  -0.000004 -0.000001 0.000796
3  8.132097 -6.006478 0.999989  0.000000 -0.000000 0.000000
4  5.136875 -0.004091 -0.000000  0.000000 -0.000000 0.000000
5  5.136878 -0.004089 0.000000  -0.226772 0.000168 -0.000012
6  5.136878 -0.001574 0.000000  -0.000000 0.000000 -0.000000
7  -0.000005 0.001567 1.975722  0.509558 -0.574378 2.845998
8  5.136878 0.000001 0.000005  -0.008514 0.065512 0.136160
9  14.922128 -1.978405 0.036809  0.000000 -0.000000 -1.469820
10  11.066210 -0.033247 -0.027757  2.981776 0.307385 -0.135545
11  1.437740 0.397851 -1.563975  3.043414 0.422784 1.177560
12  3.620786 -0.277597 -1.324458  -0.000805 0.156999 -0.000122
13  1.185426 0.000003 -0.000003  -0.000001 -0.000001 0.174440
14  1.185424 -0.000004 -0.000005  0.000000 0.000000 0.619258
15  3.554354 -0.160885 -0.534308  -0.000794 -0.000062 -0.078495
16  1.382991 -0.000006 0.000001  0.000000 -0.000000 0.466906
17  1.132856 0.000001 -0.000000  0.000000 -0.000000 0.548688
18  3.725332 -0.163089 0.395343  -0.000791 0.000090 0.113383
19  1.067948 0.000003 0.000000  0.000000 -0.000000 0.431905
20  1.030804 -0.000004 0.000000  -0.000000 -0.000000 0.538333
21  3.722753 -0.218234 1.297476  -0.043675 -0.065362 0.466335
22  0.923227 0.000001 0.000000  -0.000001 0.000001 0.222423
23  0.987852 0.000002 0.000003  -0.000000 0.000000 0.358972
24  -0.000006 0.001579 -1.975722  -0.000014 1.370797 3.140783
25  5.136876 -0.000000 -0.000000  -1.600329 -1.130749 1.222746
26  11.854332 0.000001 0.000000  -0.000000 -0.000000 -1.974964
27  11.854330 -0.000001 0.000002  1.397120 0.197570 -0.008495
28  18.858335 0.534664 3.027741  1.494070 -0.019277 -3.133288
29  -1.498099 2.497097 -62.499489  -0.000000 -0.000000 0.000000
time 20
0  -1.511765 2.497085 -21.029339  0.000000 -0.000000 -1.570795
1  0.000000 0.000000 0.000002  -1.570795 -1.570796 0.000000
2  1.383009 -0.004088 0.000002  -0.000004 -0.000001 0.000796
3  8.132097 -6.006478 0.999989  0.000000 -0.000000 0.000000
4  5.136875 -0.004091 -0.000000  0.000000 -0.000000 0.000000
5  5.136878 -0.004089 0.000000  -0.226772 0.000168 -0.000012
6  5.136878 -0.001574 0.000000  -0.000000 0.000000 -0.000000
7  -0.000005 0.001567 1.975722  0.497058 -0.577395 2.852819
8  5.136878 0.000001 0.000004  0.000306 0.064879 0.134855
9  14.922129 -1.978405 0.036809  0.000000 -0.000000 -1.473744
10  11.066210 -0.033247 -0.027758  2.988859 0.294653 -0.149385
11  1.437740 0.397853 -1.563973  3.043413 0.422784 1.177560
12  3.620787 -0.277594 -1.324456  -0.000805 0.156999 -0.000122
13  1.185423 0.000001 -0.000002  -0.000001 -0.000001 0.174440
14  1.185423 -0.000005 -0.000003  0.000000 0.000000 0.619257
15  3.554353 -0.160882 -0.534306  -0.000794 -0.000062 -0.078495
16  1.382990 -0.000009 0.000002  0.000000 -0.000000 0.497322
17  1.132855 0.000005 0.000001  0.000000 -0.000000 0.574907
18  3.725332 -0.163086 0.395345  -0.000791 0.000090 0.113383
19  1.067948 0.000000 -0.000000  0.000000 -0.000000 0.489065
20  1.030803 -0.000001 0.000000  -0.000000 -0.000000 0.583432
21  3.722753 -0.218233 1.297479  -0.045542 -0.064076 0.495209
22  0.923227 0.000001 0.000000  -0.000001 0.000001 0.272766
23  0.987850 0.000000 0.000002  -0.000000 0.000000 0.393583
24  -0.000006 0.001579 -1.975722  -0.000014 1.370797 3.140783
25  5.136876 -0.000000 -0.000000  -1.600141 -1.128129 1.222553
26  11.854331 0.000000 -0.000000  0.000000 0.000000 -1.974964
27  11.854331 -0.000001 0.000002  1.434045 0.180045 -0.020283
28  18.858335 0.534664 3.027741  1.494070 -0.019277 -3.133288
29  -1.498099 2.497097 -62.499489  -0.000000 -0.000000 0.000000
time 21
0  -1.511765 2.497085 -21.029339  0.000000 -0.000000 -1.570795
1  0.000000 0.000000 0.000002  -1.570795 -1.570796 0.000000
2  1.383009 -0.004088 0.000002  -0.000004 -0.000001 0.000796
3  8.132097 -6.006478 0.999989  0.000000 -0.000000 0.000000
4  5.136875 -0.004091 -0.000000  0.000000 -0.000000 0.000000
5  5.136878 -0.004089 0.000000  -0.226772 0.000168 -0.000012
6  5.136878 -0.001574 0.000000  -0.000000 0.000000 -0.000000
7  -0.000005 0.001567 1.975722  0.481358 -0.581096 2.861428
8  5.136878 0.000001 0.000005  0.011342 0.064080 0.133228
9  14.922128 -1.978404 0.036810  0.000000 -0.000000 -1.478654
10  11.066208 -0.033246 -0.027758  2.997722 0.278720 -0.166703
11  1.437740 0.397851 -1.563974  3.043414 0.422784 1.177560
12  3.620787 -0.277597 -1.324458  -0.000805 0.156999 -0.000122
13  1.185425 0.000003 -0.000002  -0.000001 -0.000001 0.174440
14  1.185424 -0.000005 -0.000004  0.000000 0.000000 0.619258
15  3.554353 -0.160883 -0.534308  -0.000794 -0.000062 -0.078495
16  1.382991 -0.000008 0.000001  0.000000 -0.000000 0.535384
17  1.132854 0.000005 0.000002  0.000000 0.000000 0.607718
18  3.725332 -0.163088 0.395344  -0.000791 0.000090 0.113383
19  1.067947 0.000001 0.000001  0.000000 -0.000000 0.560592
20  1.030805 -0.000001 0.000000  -0.000000 -0.000000 0.639866
21  3.722753 -0.218233 1.297477  -0.047825 -0.062391 0.531333
22  0.923228 -0.000001 0.000001  -0.000001 0.000001 0.335764
23  0.987852 0.000001 0.000003  -0.000000 0.000000 0.436894
24  -0.000006 0.001579 -1.975722  -0.000014 1.370797 3.140783
25  5.136876 -0.000000 -0.000000  -1.599914 -1.124850 1.222317
26  11.854332 -0.000000 -0.000000  0.000000 -0.000000 -1.974964
27  11.854330 -0.000001 0.000002  1.475283 0.160955 -0.032791
28  18.858335 0.534664 3.027741  1.494070 -0.019277 -3.133288
29  -1.498099 2.497097 -62.499489  -0.000000 -0.000000 0.000000
time 22
0  -1.511765 2.497085 -21.029339  0.000000 -0.000000 -1.570795
1  0.000000 0.000000 0.000002  -1.570795 -1.570796 0.000000
2  1.383009 -0.004088 0.000002  -0.000004 -0.000001 0.000796
3  8.132097 -6.006478 0.999989  0.000000 -0.000000 0.000000
4  5.136875 -0.004091 -0.000000  0.000000 -0.000000 0.000000
5  5.136878 -0.004089 0.000000  -0.226772 0.000168 -0.000012
6  5.136878 -0.001574 0.000000  -0.000000 0.000000 -0.000000
7  -0.000005 0.001567 1.975722  0.462948 -0.585306 2.871580
8  5.136878 -0.000001 0.000004  0.024227 0.063137 0.131338
9  14.922130 -1.978405 0.036810  0.000000 -0.000000 -1.484386
10  11.066209 -0.033246 -0.027757  3.008068 0.260119 -0.186920
11  1.437740 0.397849 -1.563973  3.043414 0.422784 1.177560
12  3.620786 -0.277598 -1.324457  -0.000805 0.156999 -0.000122
13  1.185424 0.000005 -0.000002  -0.000001 -0.000001 0.174440
14  1.185421 -0.000003 -0.000004  0.000000 0.000000 0.619258
15  3.554354 -0.160886 -0.534307  -0.000794 -0.000062 -0.078495
16  1.382991 -0.000006 0.000001  0.000000 -0.000000 0.579818
17  1.132856 0.000003 -0.000001  0.000000 0.000000 0.646021
18  3.725333 -0.163091 0.395345  -0.000791 0.000090 0.113383
19  1.067948 0.000000 -0.000001  -0.000000 -0.000000 0.644095
20  1.030802 -0.000001 0.000001  -0.000000 -0.000000 0.705749
21  3.722753 -0.218238 1.297479  -0.050410 -0.060322 0.573495
22  0.923228 0.000000 0.000000  -0.000000 0.000001 0.409309
23  0.987851 0.000001 0.000002  -0.000000 0.000000 0.487456
24  -0.000006 0.001579 -1.975722  -0.000014 1.370797 3.140783
25  5.136876 -0.000000 -0.000000  -1.599661 -1.121022 1.222049
26  11.854333 0.000000 0.000000  0.000000 0.000000 -1.974964
27  11.854331 -0.000001 0.000001  1.519880 0.140780 -0.045745
28  18.858335 0.534664 3.027740  1.494070 -0.019277 -3.133288
29  -1.498099 2.497097 -62.499489  -0.000000 -0.000000 0.000000
time 23
0  -1.511765 2.497085 -21.029339  0.000000 -0.000000 -1.570795
1  0.000000 0.000000 0.000002  -1.570795 -1.570796 0.000000
2  1.383009 -0.004088 0.000002  -0.000004 -0.000001 0.000796
3  8.132097 -6.006478 0.999989  0.000000 -0.000000 0.000000
4  5.136875 -0.004091 -0.000000  0.000000 -0.000000 0.000000
5  5.136878 -0.004089 0.000000  -0.226772 0.000168 -0.000012
6  5.136878 -0.001574 0.000000  -0.000000 0.000000 -0.000000
7  -0.000005 0.001567 1.975722  0.442530 -0.589814 2.882908
8  5.136878 -0.000000 0.000004  0.038447 0.062084 0.129264
9  14.922129 -1.978404 0.036810  0.000000 -0.000000 -1.490713
10  11.066210 -0.033246 -0.027758  3.019487 0.239592 -0.209230
11  1.437739 0.397852 -1.563974  3.043413 0.422784 1.177560
12  3.620785 -0.277597 -1.324458  -0.000805 0.156999 -0.000122
13  1.185426 0.000003 -0.000002  -0.000001 -0.000001 0.174440
14  1.185424 -0.000006 -0.000006  0.000000 0.000000 0.619258
15  3.554352 -0.160884 -0.534307  -0.000794 -0.000062 -0.078495
16  1.382991 -0.000007 0.000001  0.000000 -0.000000 0.628855
17  1.132854 0.000002 0.000001  0.000000 -0.000000 0.688292
18  3.725331 -0.163089 0.395344  -0.000791 0.000090 0.113383
19  1.067948 0.000000 0.000000  -0.000000 -0.000000 0.736247
20  1.030803 -0.000002 0.000002  -0.000000 0.000000 0.778456
21  3.722752 -0.218237 1.297478  -0.053158 -0.057914 0.620012
22  0.923228 0.000001 0.000000  -0.000000 0.000001 0.490472
23  0.987852 0.000001 0.000002  -0.000000 0.000000 0.543256
24  -0.000006 0.001579 -1.975722  -0.000014 1.370797 3.140783
25  5.136876 -0.000000 -0.000000  -1.599396 -1.116796 1.221764
26  11.854331 0.000000 0.000001  0.000000 -0.000000 -1.974964
27  11.854331 -0.000001 0.000001  1.566523 0.120125 -0.058806
28  18.858337 0.534664 3.027740  1.494070 -0.019277 -3.133288
29  -1.498099 2.497097 -62.499489  -0.000000 -0.000000 0.000000
time 24
0  -1.511765 2.497085 -21.029339  0.000000 -0.000000 -1.570795
1  0.000000 0.000000 0.000002  -1.570795 -1.570796 0.000000
2  1.383009 -0.004088 0.000002  -0.000004 -0.000001 0.000796
3  8.132097 -6.006478 0.999989  0.000000 -0.000000 0.000000
4  5.136875 -0.004091 -0.000000  0.000000 -0.000000 0.000000
5  5.136878 -0.004089 0.000000  -0.226772 0.000168 -0.000012
6  5.136878 -0.001574 0.000000  -0.000000 0.000000 -0.000000
7  -0.000005 0.001567 1.975722  0.420993 -0.594386 2.894934
8  5.136878 -0.000000 0.000004  0.053369 0.060966 0.127099
9  14.922130 -1.978404 0.036811  0.000000 -0.000000 -1.497351
10  11.066211 -0.033246 -0.027758  3.031469 0.218051 -0.232641
11  1.437739 0.397851 -1.563973  3.043414 0.422784 1.177560
12  3.620784 -0.277598 -1.324457  -0.000805 0.156999 -0.000122
13  1.185425 0.000004 -0.000002  -0.000001 -0.000001 0.174440
14  1.185424 -0.000003 -0.000005  0.000000 0.000000 0.619258
15  3.554352 -0.160885 -0.534306  -0.000794 -0.000062 -0.078495
16  1.382991 -0.000008 0.000003  0.000000 -0.000000 0.680312
17  1.132855 0.000003 0.000001  0.000000 -0.000000 0.732648
18  3.725330 -0.163090 0.395345  -0.000791 0.000090 0.113383
19  1.067948 -0.000001 0.000001  -0.000000 -0.000000 0.832946
20  1.030802 -0.000003 0.000001  -0.000000 -0.000000 0.854751
21  3.722751 -0.218236 1.297478  -0.055918 -0.055253 0.668810
22  0.923229 0.000002 -0.000000  -0.000000 0.000001 0.575640
23  0.987850 0.000000 0.000002  -0.000000 0.000000 0.601809
24  -0.000006 0.001579 -1.975722  -0.000014 1.370797 3.140783
25  5.136876 -0.000000 -0.000000  -1.599133 -1.112362 1.221474
26  11.854332 0.000001 -0.000000  0.000000 -0.000000 -1.974964
27  11.854332 -0.000001 0.000001  1.613608 0.099688 -0.071593
28  18.858337 0.534664 3.027740  1.494070 -0.019277 -3.133288
29  -1.498099 2.497097 -62.499489  -0.000000 -0.000000 0.000000
time 25
0  -1.511765 2.497085 -21.029339  0.000000 -0.000000 -1.570795
1  0.000000 0.000000 0.000002  -1.570795 -1.570796 0.000000
2  1.383009 -0.004088 0.000002  -0.000004 -0.000001 0.000796
3  8.132097 -6.006478 0.999989  0.000000 -0.000000 0.000000
4  5.136875 -0.004091 -0.000000  0.000000 -0.000000 0.000000
5  5.136878 -0.004089 0.000000  -0.226772 0.000168 -0.000012
6  5.136878 -0.001574 0.000000  -0.000000 0.000000 -0.000000
7  -0.000005 0.001567 1.975722  0.399343 -0.598792 2.907100
8  5.136878 0.000001 0.000005  0.068291 0.059833 0.124947
9  14.922128 -1.978404 0.036812  0.000000 -0.000000 -1.503989
10  11.066212 -0.033246 -0.027757  3.043451 0.196511 -0.256051
11  1.437739 0.397852 -1.563973  3.043414 0.422784 1.177560
12  3.620786 -0.277596 -1.324458  -0.000805 0.156999 -0.000122
13  1.185426 0.000006 -0.000002  -0.000001 -0.000001 0.174440
14  1.185422 -0.000003 -0.000005  0.000000 0.000000 0.619257
15  3.554352 -0.160883 -0.534307  -0.000794 -0.000062 -0.078495
16  1.382992 -0.000008 0.000001  0.000000 -0.000000 0.731768
17  1.132856 0.000004 0.000001  0.000000 0.000000 0.777005
18  3.725331 -0.163088 0.395344  -0.000791 0.000090 0.113383
19  1.067949 -0.000001 -0.000001  0.000000 -0.000000 0.929645
20  1.030803 -0.000001 0.000000  -0.000000 -0.000000 0.931046
21  3.722752 -0.218235 1.297479  -0.058544 -0.052461 0.717593
22  0.923228 -0.000000 0.000000  -0.000000 0.000001 0.660808
23  0.987852 0.000001 0.000003  -0.000000 0.000000 0.660362
24  -0.000006 0.001579 -1.975722  -0.000014 1.370797 3.140783
25  5.136876 -0.000000 -0.000000  -1.598885 -1.107926 1.221196
26  11.854334 0.000001 -0.000001  0.000000 -0.000000 -1.974964
27  11.854332 -0.000001 0.000002  1.659362 0.080194 -0.083707
28  18.858337 0.534664 3.027740  1.494070 -0.019277 -3.133288
29  -1.498099 2.497097 -62.499489  -0.000000 -0.000000 0.000000
time 26
0  -1.511765 2.497085 -21.029339  0.000000 -0.000000 -1.570795
1  0.000000 0.000000 0.000002  -1.570795 -1.570796 0.000000
2  1.383009 -0.004088 0.000002  -0.000004 -0.000001 0.000796
3  8.132097 -6.006478 0.999989  0.000000 -0.000000 0.000000
4  5.136875 -0.004091 -0.000000  0.000000 -0.000000 0.000000
5  5.136878 -0.004089 0.000000  -0.226772 0.000168 -0.000012
6  5.136878 -0.001574 0.000000  -0.000000 0.000000 -0.000000
7  -0.000005 0.001567 1.975722  0.378611 -0.602836 2.918820
8  5.136879 0.000001 0.000004  0.082512 0.058741 0.122908
9  14.922129 -1.978405 0.036810  0.000000 -0.000000 -1.510315
10  11.066210 -0.033245 -0.027758  3.054870 0.175983 -0.278360
11  1.437740 0.397850 -1.563973  3.043414 0.422784 1.177560
12  3.620786 -0.277597 -1.324458  -0.000805 0.156999 -0.000122
13  1.185426 0.000003 -0.000002  -0.000001 -0.000001 0.174440
14  1.185423 -0.000004 -0.000006  0.000000 0.000000 0.619257
15  3.554353 -0.160885 -0.534308  -0.000794 -0.000062 -0.078495
16  1.382991 -0.000008 0.000000  0.000000 -0.000000 0.780805
17  1.132854 0.000004 0.000001  0.000000 -0.000000 0.819275
18  3.725332 -0.163090 0.395344  -0.000791 0.000090 0.113383
19  1.067948 0.000001 0.000001  -0.000000 -0.000000 1.021797
20  1.030803 -0.000002 0.000002  -0.000000 -0.000000 1.003753
21  3.722754 -0.218235 1.297477  -0.060916 -0.049684 0.764069
22  0.923228 -0.000003 0.000001  -0.000000 0.000001 0.741971
23  0.987851 0.000000 0.000002  -0.000000 0.000000 0.716161
24  -0.000006 0.001579 -1.975722  -0.000014 1.370797 3.140783
25  5.136876 -0.000000 -0.000000  -1.598664 -1.103699 1.220939
26  11.854334 0.000000 0.000000  -0.000000 0.000000 -1.974964
27  11.854330 -0.000001 0.000001  1.702029 0.062323 -0.094771
28  18.858337 0.534665 3.027740  1.494070 -0.019277 -3.133288
29  -1.498099 2.497097 -62.499489  -0.000000 -0.000000 0.000000
time 27
0  -1.511765 2.497085 -21.029339  0.000000 -0.000000 -1.570795
1  0.000000 0.000000 0.000002  -1.570795 -1.570796 0.000000
2  1.383009 -0.004088 0.000002  -0.000004 -0.000001 0.000796
3  8.132097 -6.006478 0.999989  0.000000 -0.000000 0.000000
4  5.136875 -0.004091 -0.000000  0.000000 -0.000000 0.000000
5  5.136878 -0.004089 0.000000  -0.226772 0.000168 -0.000012
6  5.136878 -0.001574 0.000000  -0.000000 0.000000 -0.000000
7  -0.000005 0.001567 1.975722  0.359740 -0.606366 2.929544
8  5.136878 0.000000 0.000005  0.095400 0.057741 0.121071
9  14.922128 -1.978405 0.036810  0.000000 -0.000000 -1.516047
10  11.066210 -0.033245 -0.027759  3.065216 0.157381 -0.298573
11  1.437739 0.397853 -1.563974  3.043414 0.422784 1.177560
12  3.620785 -0.277595 -1.324458  -0.000805 0.156999 -0.000122
13  1.185425 0.000004 -0.000002  -0.000001 -0.000001 0.174440
14  1.185423 -0.000003 -0.000005  0.000000 0.000000 0.619258
15  3.554353 -0.160883 -0.534308  -0.000794 -0.000062 -0.078495
16  1.382991 -0.000008 0.000001  0.000000 -0.000000 0.825239
17  1.132854 0.000003 -0.000000  0.000000 -0.000000 0.857578
18  3.725332 -0.163087 0.395344  -0.000791 0.000090 0.113383
19  1.067948 -0.000001 -0.000000  -0.000000 -0.000000 1.105299
20  1.030803 -0.000002 0.000002  -0.000000 0.000000 1.069636
21  3.722752 -0.218233 1.297477  -0.062952 -0.047075 0.806171
22  0.923228 -0.000000 0.000001  -0.000000 0.000001 0.815516
23  0.987852 0.000000 0.000003  -0.000000 0.000000 0.766724
24  -0.000006 0.001579 -1.975722  -0.000014 1.370797 3.140783
25  5.136876 -0.000000 -0.000000  -1.598475 -1.099868 1.220714
26  11.854332 0.000001 0.000000  0.000000 -0.000000 -1.974964
27  11.854330 -0.000002 0.000002  1.740041 0.046639 -0.104464
28  18.858337 0.534664 3.027741  1.494070 -0.019277 -3.133288
29  -1.498099 2.497097 -62.499489  -0.000000 -0.000000 0.000000
time 28
0  -1.511765 2.497085 -21.029339  0.000000 -0.000000 -1.570795
1  0.000000 0.000000 0.000002  -1.570795 -1.570796 0.000000
2  1.383009 -0.004088 0.000002  -0.000004 -0.000001 0.000796
3  8.132097 -6.006478 0.999989  0.000000 -0.000000 0.000000
4  5.136875 -0.004091 -0.000000  0.000000 -0.000000 0.000000
5  5.136878 -0.004089 0.000000  -0.226772 0.000168 -0.000012
6  5.136878 -0.001574 0.000000  -0.000000 0.000000 -0.000000
7  -0.000005 0.001567 1.975722  0.343513 -0.609287 2.938808
8  5.136878 -0.000000 0.000005  0.106439 0.056876 0.119506
9  14.922130 -1.978405 0.036810  0.000000 -0.000000 -1.520958
10  11.066211 -0.033245 -0.027759  3.074079 0.141447 -0.315888
11  1.437739 0.397851 -1.563974  3.043413 0.422784 1.177560
12  3.620785 -0.277598 -1.324457  -0.000805 0.156999 -0.000122
13  1.185425 0.000004 -0.000003  -0.000001 -0.000001 0.174440
14  1.185422 -0.000007 -0.000005  0.000000 -0.000000 0.619258
15  3.554352 -0.160884 -0.534307  -0.000794 -0.000062 -0.078495
16  1.382993 -0.000005 0.000002  0.000000 -0.000000 0.863301
17  1.132856 0.000003 0.000001  0.000000 -0.000000 0.890389
18  3.725331 -0.163090 0.395345  -0.000791 0.000090 0.113383
19  1.067948 0.000003 0.000001  -0.000000 -0.000000 1.176827
20  1.030804 -0.000000 0.000001  -0.000000 0.000000 1.126071
21  3.722752 -0.218236 1.297478  -0.064607 -0.044774 0.842227
22  0.923226 0.000001 0.000001  0.000000 0.000001 0.878514
23  0.987852 0.000000 0.000002  -0.000000 0.000000 0.810035
24  -0.000006 0.001579 -1.975722  -0.000014 1.370797 3.140783
25  5.136876 -0.000000 -0.000000  -1.598321 -1.096586 1.220527
26  11.854332 0.000002 0.000000  -0.000000 -0.000000 -1.974964
27  11.854330 -0.000002 0.000001  1.772159 0.033558 -0.112546
28  18.858337 0.534665 3.027741  1.494070 -0.019277 -3.133288
29  -1.498099 2.497097 -62.499489  -0.000000 -0.000000 0.000000
time 29
0  -1.511765 2.497085 -21.029339  0.000000 -0.000000 -1.570795
1  0.000000 0.000000 0.000002  -1.570795 -1.570796 0.000000
2  1.383009 -0.004088 0.000002  -0.000004 -0.000001 0.000796
3  8.132097 -6.006478 0.999989  0.000000 -0.000000 0.000000
4  5.136875 -0.004091 -0.000000  0.000000 -0.000000 0.000000
5  5.136878 -0.004089 0.000000  -0.226772 0.000168 -0.000012
6  5.136878 -0.001574 0.000000  -0.000000 0.000000 -0.000000
7  -0.000005 0.001567 1.975722  0.330506 -0.611553 2.946261
8  5.136877 0.000001 0.000005  0.115260 0.056180 0.118260
9  14.922128 -1.978405 0.036810  0.000000 -0.000000 -1.524882
10  11.066209 -0.033245 -0.027759  3.081162 0.128713 -0.329725
11  1.437740 0.397852 -1.563973  3.043414 0.422784 1.177560
12  3.620786 -0.277596 -1.324457  -0.000805 0.156999 -0.000122
13  1.185424 0.000004 -0.000003  -0.000001 -0.000001 0.174440
14  1.185423 -0.000002 -0.000004  0.000000 0.000000 0.619258
15  3.554353 -0.160884 -0.534306  -0.000794 -0.000062 -0.078495
16  1.382991 -0.000006 0.000002  0.000000 -0.000000 0.893717
17  1.132856 0.000004 -0.000000  0.000000 -0.000000 0.916608
18  3.725332 -0.163089 0.395345  -0.000791 0.000090 0.113383
19  1.067948 -0.000002 -0.000001  -0.000000 -0.000000 1.233986
20  1.030804 -0.000003 0.000002  -0.000000 -0.000000 1.171169
21  3.722753 -0.218235 1.297479  -0.065869 -0.042894 0.871034
22  0.923226 0.000002 0.000001  0.000000 0.000001 0.928857
23  0.987850 0.000001 0.000004  -0.000000 0.000000 0.844646
24  -0.000006 0.001579 -1.975722  -0.000014 1.370797 3.140783
25  5.136876 -0.000000 -0.000000  -1.598204 -1.093962 1.220382
26  11.854332 0.000000 0.000000  0.000000 -0.000000 -1.974964
27  11.854331 -0.000000 0.000002  1.797531 0.023334 -0.118862
28  18.858337 0.534664 3.027740  1.494070 -0.019277 -3.133288
29  -1.498099 2.497097 -62.499489  -0.000000 -0.000000 0.000000
time 30
0  -1.511765 2.497085 -21.029339  0.000000 -0.000000 -1.570795
1  0.000000 0.000000 0.000002  -1.570795 -1.570796 0.000000
2  1.383009 -0.004088 0.000002  -0.000004 -0.000001 0.000796
3  8.132097 -6.006478 0.999989  0.000000 -0.000000 0.000000
4  5.136875 -0.004091 -0.000000  0.000000 -0.000000 0.000000
5  5.136878 -0.004089 0.000000  -0.226772 0.000168 -0.000012
6  5.136878 -0.001574 0.000000  -0.000000 0.000000 -0.000000
7  -0.000005 0.001567 1.975722  0.321082 -0.613153 2.951675
8  5.136878 0.000000 0.000005  0.121637 0.055673 0.117362
9  14.922131 -1.978405 0.036811  0.000000 -0.000000 -1.527718
10  11.066210 -0.033245 -0.027759  3.086282 0.119509 -0.339726
11  1.437740 0.397851 -1.563974  3.043414 0.422784 1.177560
12  3.620787 -0.277597 -1.324458  -0.000805 0.156999 -0.000122
13  1.185425 0.000005 -0.000002  -0.000001 -0.000001 0.174440
14  1.185423 -0.000005 -0.000004  0.000000 0.000000 0.619258
15  3.554353 -0.160884 -0.534307  -0.000794 -0.000062 -0.078495
16  1.382992 -0.000007 0.000001  0.000000 -0.000000 0.915703
17  1.132855 0.000004 -0.000000  0.000000 -0.000000 0.935560
18  3.725332 -0.163090 0.395345  -0.000791 0.000090 0.113383
19  1.067948 0.000001 0.000000  -0.000000 -0.000000 1.275303
20  1.030803 -0.000003 0.000000  -0.000000 -0.000000 1.203767
21  3.722753 -0.218235 1.297478  -0.066747 -0.041512 0.891854
22  0.923227 -0.000001 0.000000  0.000000 0.000001 0.965246
23  0.987852 0.000000 0.000002  -0.000000 0.000000 0.869663
24  -0.000006 0.001579 -1.975722  -0.000014 1.370797 3.140783
25  5.136876 -0.000000 -0.000000  -1.598123 -1.092066 1.220278
26  11.854333 0.000000 -0.000000  0.000000 -0.000000 -1.974964
27  11.854330 -0.000001 0.000001  1.815684 0.016080 -0.123344
28  18.858337 0.534665 3.027741  1.494070 -0.019277 -3.133288
29  -1.498099 2.497097 -62.499489  -0.000000 -0.000000 0.000000
time 31
0  -1.511765 2.497085 -21.029339  0.000000 -0.000000 -1.570795
1  0.000000 0.000000 0.000002  -1.570795 -1.570796 0.000000
2  1.383009 -0.004088 0.000002  -0.000004 -0.000001 0.000796
3  8.132097 -6.006478 0.999989  0.000000 -0.000000 0.000000
4  5.136875 -0.004091 -0.000000  0.000000 -0.000000 0.000000
5  5.136878 -0.004089 0.000000  -0.226772 0.000168 -0.000012
6  5.136878 -0.001574 0.000000  -0.000000 0.000000 -0.000000
7  -0.000005 0.001567 1.975722  0.315419 -0.614097 2.954935
8  5.136878 0.000000 0.000005  0.125463 0.055368 0.116825
9  14.922129 -1.978404 0.036809  0.000000 -0.000000 -1.529420
10  11.066210 -0.033245 -0.027759  3.089354 0.113986 -0.345727
11  1.437740 0.397853 -1.563974  3.043413 0.422784 1.177560
12  3.620787 -0.277596 -1.324458  -0.000805 0.156999 -0.000122
13  1.185425 0.000005 -0.000003  -0.000001 -0.000001 0.174440
14  1.185422 -0.000005 -0.000005  0.000000 0.000000 0.619258
15  3.554353 -0.160883 -0.534308  -0.000794 -0.000062 -0.078495
16  1.382991 -0.000008 0.000002  0.000000 -0.000000 0.928895
17  1.132855 0.000003 -0.000000  0.000000 -0.000000 0.946932
18  3.725332 -0.163088 0.395344  -0.000791 0.000090 0.113383
19  1.067948 -0.000001 0.000000  -0.000000 -0.000000 1.300094
20  1.030802 -0.000002 0.000001  -0.000000 0.000000 1.223327
21  3.722753 -0.218234 1.297477  -0.067261 -0.040674 0.904346
22  0.923228 0.000000 0.000001  0.000000 0.000001 0.987081
23  0.987855 0.000000 0.000003  -0.000000 0.000000 0.884675
24  -0.000006 0.001579 -1.975722  -0.000014 1.370797 3.140783
25  5.136876 -0.000000 -0.000000  -1.598075 -1.090928 1.220217
26  11.854331 0.000000 -0.000000  -0.000000 -0.000000 -1.974964
27  11.854332 -0.000001 0.000001  1.826476 0.011792 -0.125990
28  18.858337 0.534664 3.027741  1.494070 -0.019277 -3.133288
29  -1.498099 2.497097 -62.499489  -0.000000 -0.000000 0.000000
time 32
0  -1.511765 2.497085 -21.029339  0.000000 -0.000000 -1.570795
1  0.000000 0.000000 0.000002  -1.570795 -1.570796 0.000000
2  1.383009 -0.004088 0.000002  -0.000004 -0.000001 0.000796
3  8.132097 -6.006478 0.999989  0.000000 -0.000000 0.000000
4  5.136875 -0.004091 -0.000000  0.000000 -0.000000 0.000000
5  5.136878 -0.004089 0.000000  -0.226772 0.000168 -0.000012
6  5.136878 -0.001574 0.000000  -0.000000 0.000000 -0.000000
7  -0.000005 0.001567 1.975722  0.313545 -0.614407 2.956015
8  5.136878 0.000000 0.000005  0.126729 0.055267 0.116647
9  14.922129 -1.978405 0.036810  0.000000 -0.000000 -1.529983
10  11.066211 -0.033246 -0.027758  3.090370 0.112159 -0.347711
11  1.437740 0.397854 -1.563975  3.043414 0.422784 1.177560
12  3.620786 -0.277596 -1.324459  -0.000805 0.156999 -0.000122
13  1.185424 0.000005 -0.000001  -0.000001 -0.000001 0.174440
14  1.185423 -0.000003 -0.000005  0.000000 0.000000 0.619258
15  3.554353 -0.160882 -0.534308  -0.000794 -0.000062 -0.078495
16  1.382992 -0.000007 0.000002  0.000000 -0.000000 0.933258
17  1.132856 0.000003 0.000000  0.000000 -0.000000 0.950693
18  3.725332 -0.163086 0.395343  -0.000791 0.000090 0.113383
19  1.067947 0.000000 0.000001  -0.000000 0.000000 1.308293
20  1.030803 -0.000002 0.000001  -0.000000 0.000000 1.229797
21  3.722752 -0.218233 1.297477  -0.067428 -0.040396 0.908477
22  0.923227 -0.000001 0.000000  0.000000 0.000001 0.994303
23  0.987851 0.000001 0.000003  -0.000000 0.000000 0.889640
24  -0.000006 0.001579 -1.975722  -0.000014 1.370797 3.140783
25  5.136876 -0.000000 -0.000000  -1.598060 -1.090552 1.220197
26  11.854332 0.000001 0.000000  0.000000 -0.000000 -1.974964
27  11.854331 -0.000001 0.000001  1.830016 0.010390 -0.126854
28  18.858337 0.534664 3.027741  1.494070 -0.019277 -3.133288
29  -1.498099 2.497097 -62.499489  -0.000000 -0.000000 0.000000
end
